<?xml version="1.0" encoding="utf-8" standalone="no"?>
<!DOCTYPE svg PUBLIC "-//W3C//DTD SVG 1.1//EN"
  "http://www.w3.org/Graphics/SVG/1.1/DTD/svg11.dtd">
<svg xmlns:xlink="http://www.w3.org/1999/xlink" width="460.8pt" height="345.6pt" viewBox="0 0 460.8 345.6" xmlns="http://www.w3.org/2000/svg" version="1.1">
 <metadata>
  <rdf:RDF xmlns:dc="http://purl.org/dc/elements/1.1/" xmlns:cc="http://creativecommons.org/ns#" xmlns:rdf="http://www.w3.org/1999/02/22-rdf-syntax-ns#">
   <cc:Work>
    <dc:type rdf:resource="http://purl.org/dc/dcmitype/StillImage"/>
    <dc:date>2023-07-31T23:35:35.593780</dc:date>
    <dc:format>image/svg+xml</dc:format>
    <dc:creator>
     <cc:Agent>
      <dc:title>Matplotlib v3.5.2, https://matplotlib.org/</dc:title>
     </cc:Agent>
    </dc:creator>
   </cc:Work>
  </rdf:RDF>
 </metadata>
 <defs>
  <style type="text/css">*{stroke-linejoin: round; stroke-linecap: butt}</style>
 </defs>
 <g id="figure_1">
  <g id="patch_1">
   <path d="M 0 345.6 
L 460.8 345.6 
L 460.8 0 
L 0 0 
z
" style="fill: #ffffff"/>
  </g>
  <g id="axes_1">
   <g id="patch_2">
    <path d="M 57.6 307.584 
L 414.72 307.584 
L 414.72 41.472 
L 57.6 41.472 
z
" style="fill: #ffffff"/>
   </g>
   <g id="PathCollection_1">
    <defs>
     <path id="ma08e26a86e" d="M 0 3 
C 0.795609 3 1.55874 2.683901 2.12132 2.12132 
C 2.683901 1.55874 3 0.795609 3 0 
C 3 -0.795609 2.683901 -1.55874 2.12132 -2.12132 
C 1.55874 -2.683901 0.795609 -3 0 -3 
C -0.795609 -3 -1.55874 -2.683901 -2.12132 -2.12132 
C -2.683901 -1.55874 -3 -0.795609 -3 0 
C -3 0.795609 -2.683901 1.55874 -2.12132 2.12132 
C -1.55874 2.683901 -0.795609 3 0 3 
z
" style="stroke: #228b22"/>
    </defs>
    <g clip-path="url(#p5f009959fa)">
     <use xlink:href="#ma08e26a86e" x="82.376268" y="295.488" style="fill: #228b22; stroke: #228b22"/>
     <use xlink:href="#ma08e26a86e" x="99.463349" y="295.488" style="fill: #228b22; stroke: #228b22"/>
     <use xlink:href="#ma08e26a86e" x="116.550431" y="295.488" style="fill: #228b22; stroke: #228b22"/>
     <use xlink:href="#ma08e26a86e" x="133.637512" y="295.488" style="fill: #228b22; stroke: #228b22"/>
     <use xlink:href="#ma08e26a86e" x="150.724593" y="295.488" style="fill: #228b22; stroke: #228b22"/>
     <use xlink:href="#ma08e26a86e" x="167.811675" y="295.488" style="fill: #228b22; stroke: #228b22"/>
     <use xlink:href="#ma08e26a86e" x="184.898756" y="295.488" style="fill: #228b22; stroke: #228b22"/>
     <use xlink:href="#ma08e26a86e" x="201.985837" y="295.488" style="fill: #228b22; stroke: #228b22"/>
     <use xlink:href="#ma08e26a86e" x="219.072919" y="295.488" style="fill: #228b22; stroke: #228b22"/>
     <use xlink:href="#ma08e26a86e" x="236.16" y="174.528" style="fill: #228b22; stroke: #228b22"/>
     <use xlink:href="#ma08e26a86e" x="253.247081" y="53.568" style="fill: #228b22; stroke: #228b22"/>
     <use xlink:href="#ma08e26a86e" x="270.334163" y="53.568" style="fill: #228b22; stroke: #228b22"/>
     <use xlink:href="#ma08e26a86e" x="287.421244" y="53.568" style="fill: #228b22; stroke: #228b22"/>
     <use xlink:href="#ma08e26a86e" x="304.508325" y="53.568" style="fill: #228b22; stroke: #228b22"/>
     <use xlink:href="#ma08e26a86e" x="321.595407" y="53.568" style="fill: #228b22; stroke: #228b22"/>
     <use xlink:href="#ma08e26a86e" x="338.682488" y="53.568" style="fill: #228b22; stroke: #228b22"/>
     <use xlink:href="#ma08e26a86e" x="355.769569" y="53.568" style="fill: #228b22; stroke: #228b22"/>
     <use xlink:href="#ma08e26a86e" x="372.856651" y="53.568" style="fill: #228b22; stroke: #228b22"/>
     <use xlink:href="#ma08e26a86e" x="389.943732" y="53.568" style="fill: #228b22; stroke: #228b22"/>
    </g>
   </g>
   <g id="matplotlib.axis_1">
    <g id="xtick_1">
     <g id="line2d_1">
      <defs>
       <path id="mc55c3ad550" d="M 0 0 
L 0 3.5 
" style="stroke: #000000; stroke-width: 0.8"/>
      </defs>
      <g>
       <use xlink:href="#mc55c3ad550" x="73.832727" y="307.584" style="stroke: #000000; stroke-width: 0.8"/>
      </g>
     </g>
     <g id="text_1">
      <!-- −1.00 -->
      <g transform="translate(58.510071 322.182437)scale(0.1 -0.1)">
       <defs>
        <path id="DejaVuSans-2212" d="M 678 2272 
L 4684 2272 
L 4684 1741 
L 678 1741 
L 678 2272 
z
" transform="scale(0.015625)"/>
        <path id="DejaVuSans-31" d="M 794 531 
L 1825 531 
L 1825 4091 
L 703 3866 
L 703 4441 
L 1819 4666 
L 2450 4666 
L 2450 531 
L 3481 531 
L 3481 0 
L 794 0 
L 794 531 
z
" transform="scale(0.015625)"/>
        <path id="DejaVuSans-2e" d="M 684 794 
L 1344 794 
L 1344 0 
L 684 0 
L 684 794 
z
" transform="scale(0.015625)"/>
        <path id="DejaVuSans-30" d="M 2034 4250 
Q 1547 4250 1301 3770 
Q 1056 3291 1056 2328 
Q 1056 1369 1301 889 
Q 1547 409 2034 409 
Q 2525 409 2770 889 
Q 3016 1369 3016 2328 
Q 3016 3291 2770 3770 
Q 2525 4250 2034 4250 
z
M 2034 4750 
Q 2819 4750 3233 4129 
Q 3647 3509 3647 2328 
Q 3647 1150 3233 529 
Q 2819 -91 2034 -91 
Q 1250 -91 836 529 
Q 422 1150 422 2328 
Q 422 3509 836 4129 
Q 1250 4750 2034 4750 
z
" transform="scale(0.015625)"/>
       </defs>
       <use xlink:href="#DejaVuSans-2212"/>
       <use xlink:href="#DejaVuSans-31" x="83.789062"/>
       <use xlink:href="#DejaVuSans-2e" x="147.412109"/>
       <use xlink:href="#DejaVuSans-30" x="179.199219"/>
       <use xlink:href="#DejaVuSans-30" x="242.822266"/>
      </g>
     </g>
    </g>
    <g id="xtick_2">
     <g id="line2d_2">
      <g>
       <use xlink:href="#mc55c3ad550" x="114.414545" y="307.584" style="stroke: #000000; stroke-width: 0.8"/>
      </g>
     </g>
     <g id="text_2">
      <!-- −0.75 -->
      <g transform="translate(99.091889 322.182437)scale(0.1 -0.1)">
       <defs>
        <path id="DejaVuSans-37" d="M 525 4666 
L 3525 4666 
L 3525 4397 
L 1831 0 
L 1172 0 
L 2766 4134 
L 525 4134 
L 525 4666 
z
" transform="scale(0.015625)"/>
        <path id="DejaVuSans-35" d="M 691 4666 
L 3169 4666 
L 3169 4134 
L 1269 4134 
L 1269 2991 
Q 1406 3038 1543 3061 
Q 1681 3084 1819 3084 
Q 2600 3084 3056 2656 
Q 3513 2228 3513 1497 
Q 3513 744 3044 326 
Q 2575 -91 1722 -91 
Q 1428 -91 1123 -41 
Q 819 9 494 109 
L 494 744 
Q 775 591 1075 516 
Q 1375 441 1709 441 
Q 2250 441 2565 725 
Q 2881 1009 2881 1497 
Q 2881 1984 2565 2268 
Q 2250 2553 1709 2553 
Q 1456 2553 1204 2497 
Q 953 2441 691 2322 
L 691 4666 
z
" transform="scale(0.015625)"/>
       </defs>
       <use xlink:href="#DejaVuSans-2212"/>
       <use xlink:href="#DejaVuSans-30" x="83.789062"/>
       <use xlink:href="#DejaVuSans-2e" x="147.412109"/>
       <use xlink:href="#DejaVuSans-37" x="179.199219"/>
       <use xlink:href="#DejaVuSans-35" x="242.822266"/>
      </g>
     </g>
    </g>
    <g id="xtick_3">
     <g id="line2d_3">
      <g>
       <use xlink:href="#mc55c3ad550" x="154.996364" y="307.584" style="stroke: #000000; stroke-width: 0.8"/>
      </g>
     </g>
     <g id="text_3">
      <!-- −0.50 -->
      <g transform="translate(139.673707 322.182437)scale(0.1 -0.1)">
       <use xlink:href="#DejaVuSans-2212"/>
       <use xlink:href="#DejaVuSans-30" x="83.789062"/>
       <use xlink:href="#DejaVuSans-2e" x="147.412109"/>
       <use xlink:href="#DejaVuSans-35" x="179.199219"/>
       <use xlink:href="#DejaVuSans-30" x="242.822266"/>
      </g>
     </g>
    </g>
    <g id="xtick_4">
     <g id="line2d_4">
      <g>
       <use xlink:href="#mc55c3ad550" x="195.578182" y="307.584" style="stroke: #000000; stroke-width: 0.8"/>
      </g>
     </g>
     <g id="text_4">
      <!-- −0.25 -->
      <g transform="translate(180.255526 322.182437)scale(0.1 -0.1)">
       <defs>
        <path id="DejaVuSans-32" d="M 1228 531 
L 3431 531 
L 3431 0 
L 469 0 
L 469 531 
Q 828 903 1448 1529 
Q 2069 2156 2228 2338 
Q 2531 2678 2651 2914 
Q 2772 3150 2772 3378 
Q 2772 3750 2511 3984 
Q 2250 4219 1831 4219 
Q 1534 4219 1204 4116 
Q 875 4013 500 3803 
L 500 4441 
Q 881 4594 1212 4672 
Q 1544 4750 1819 4750 
Q 2544 4750 2975 4387 
Q 3406 4025 3406 3419 
Q 3406 3131 3298 2873 
Q 3191 2616 2906 2266 
Q 2828 2175 2409 1742 
Q 1991 1309 1228 531 
z
" transform="scale(0.015625)"/>
       </defs>
       <use xlink:href="#DejaVuSans-2212"/>
       <use xlink:href="#DejaVuSans-30" x="83.789062"/>
       <use xlink:href="#DejaVuSans-2e" x="147.412109"/>
       <use xlink:href="#DejaVuSans-32" x="179.199219"/>
       <use xlink:href="#DejaVuSans-35" x="242.822266"/>
      </g>
     </g>
    </g>
    <g id="xtick_5">
     <g id="line2d_5">
      <g>
       <use xlink:href="#mc55c3ad550" x="236.16" y="307.584" style="stroke: #000000; stroke-width: 0.8"/>
      </g>
     </g>
     <g id="text_5">
      <!-- 0.00 -->
      <g transform="translate(225.027187 322.182437)scale(0.1 -0.1)">
       <use xlink:href="#DejaVuSans-30"/>
       <use xlink:href="#DejaVuSans-2e" x="63.623047"/>
       <use xlink:href="#DejaVuSans-30" x="95.410156"/>
       <use xlink:href="#DejaVuSans-30" x="159.033203"/>
      </g>
     </g>
    </g>
    <g id="xtick_6">
     <g id="line2d_6">
      <g>
       <use xlink:href="#mc55c3ad550" x="276.741818" y="307.584" style="stroke: #000000; stroke-width: 0.8"/>
      </g>
     </g>
     <g id="text_6">
      <!-- 0.25 -->
      <g transform="translate(265.609006 322.182437)scale(0.1 -0.1)">
       <use xlink:href="#DejaVuSans-30"/>
       <use xlink:href="#DejaVuSans-2e" x="63.623047"/>
       <use xlink:href="#DejaVuSans-32" x="95.410156"/>
       <use xlink:href="#DejaVuSans-35" x="159.033203"/>
      </g>
     </g>
    </g>
    <g id="xtick_7">
     <g id="line2d_7">
      <g>
       <use xlink:href="#mc55c3ad550" x="317.323636" y="307.584" style="stroke: #000000; stroke-width: 0.8"/>
      </g>
     </g>
     <g id="text_7">
      <!-- 0.50 -->
      <g transform="translate(306.190824 322.182437)scale(0.1 -0.1)">
       <use xlink:href="#DejaVuSans-30"/>
       <use xlink:href="#DejaVuSans-2e" x="63.623047"/>
       <use xlink:href="#DejaVuSans-35" x="95.410156"/>
       <use xlink:href="#DejaVuSans-30" x="159.033203"/>
      </g>
     </g>
    </g>
    <g id="xtick_8">
     <g id="line2d_8">
      <g>
       <use xlink:href="#mc55c3ad550" x="357.905455" y="307.584" style="stroke: #000000; stroke-width: 0.8"/>
      </g>
     </g>
     <g id="text_8">
      <!-- 0.75 -->
      <g transform="translate(346.772642 322.182437)scale(0.1 -0.1)">
       <use xlink:href="#DejaVuSans-30"/>
       <use xlink:href="#DejaVuSans-2e" x="63.623047"/>
       <use xlink:href="#DejaVuSans-37" x="95.410156"/>
       <use xlink:href="#DejaVuSans-35" x="159.033203"/>
      </g>
     </g>
    </g>
    <g id="xtick_9">
     <g id="line2d_9">
      <g>
       <use xlink:href="#mc55c3ad550" x="398.487273" y="307.584" style="stroke: #000000; stroke-width: 0.8"/>
      </g>
     </g>
     <g id="text_9">
      <!-- 1.00 -->
      <g transform="translate(387.35446 322.182437)scale(0.1 -0.1)">
       <use xlink:href="#DejaVuSans-31"/>
       <use xlink:href="#DejaVuSans-2e" x="63.623047"/>
       <use xlink:href="#DejaVuSans-30" x="95.410156"/>
       <use xlink:href="#DejaVuSans-30" x="159.033203"/>
      </g>
     </g>
    </g>
    <g id="text_10">
     <!-- x -->
     <g transform="translate(233.200625 335.860562)scale(0.1 -0.1)">
      <defs>
       <path id="DejaVuSans-78" d="M 3513 3500 
L 2247 1797 
L 3578 0 
L 2900 0 
L 1881 1375 
L 863 0 
L 184 0 
L 1544 1831 
L 300 3500 
L 978 3500 
L 1906 2253 
L 2834 3500 
L 3513 3500 
z
" transform="scale(0.015625)"/>
      </defs>
      <use xlink:href="#DejaVuSans-78"/>
     </g>
    </g>
   </g>
   <g id="matplotlib.axis_2">
    <g id="ytick_1">
     <g id="line2d_10">
      <defs>
       <path id="m594b72f3b8" d="M 0 0 
L -3.5 0 
" style="stroke: #000000; stroke-width: 0.8"/>
      </defs>
      <g>
       <use xlink:href="#m594b72f3b8" x="57.6" y="295.488" style="stroke: #000000; stroke-width: 0.8"/>
      </g>
     </g>
     <g id="text_11">
      <!-- 1.0 -->
      <g transform="translate(34.696875 299.287219)scale(0.1 -0.1)">
       <use xlink:href="#DejaVuSans-31"/>
       <use xlink:href="#DejaVuSans-2e" x="63.623047"/>
       <use xlink:href="#DejaVuSans-30" x="95.410156"/>
      </g>
     </g>
    </g>
    <g id="ytick_2">
     <g id="line2d_11">
      <g>
       <use xlink:href="#m594b72f3b8" x="57.6" y="247.104" style="stroke: #000000; stroke-width: 0.8"/>
      </g>
     </g>
     <g id="text_12">
      <!-- 1.2 -->
      <g transform="translate(34.696875 250.903219)scale(0.1 -0.1)">
       <use xlink:href="#DejaVuSans-31"/>
       <use xlink:href="#DejaVuSans-2e" x="63.623047"/>
       <use xlink:href="#DejaVuSans-32" x="95.410156"/>
      </g>
     </g>
    </g>
    <g id="ytick_3">
     <g id="line2d_12">
      <g>
       <use xlink:href="#m594b72f3b8" x="57.6" y="198.72" style="stroke: #000000; stroke-width: 0.8"/>
      </g>
     </g>
     <g id="text_13">
      <!-- 1.4 -->
      <g transform="translate(34.696875 202.519219)scale(0.1 -0.1)">
       <defs>
        <path id="DejaVuSans-34" d="M 2419 4116 
L 825 1625 
L 2419 1625 
L 2419 4116 
z
M 2253 4666 
L 3047 4666 
L 3047 1625 
L 3713 1625 
L 3713 1100 
L 3047 1100 
L 3047 0 
L 2419 0 
L 2419 1100 
L 313 1100 
L 313 1709 
L 2253 4666 
z
" transform="scale(0.015625)"/>
       </defs>
       <use xlink:href="#DejaVuSans-31"/>
       <use xlink:href="#DejaVuSans-2e" x="63.623047"/>
       <use xlink:href="#DejaVuSans-34" x="95.410156"/>
      </g>
     </g>
    </g>
    <g id="ytick_4">
     <g id="line2d_13">
      <g>
       <use xlink:href="#m594b72f3b8" x="57.6" y="150.336" style="stroke: #000000; stroke-width: 0.8"/>
      </g>
     </g>
     <g id="text_14">
      <!-- 1.6 -->
      <g transform="translate(34.696875 154.135219)scale(0.1 -0.1)">
       <defs>
        <path id="DejaVuSans-36" d="M 2113 2584 
Q 1688 2584 1439 2293 
Q 1191 2003 1191 1497 
Q 1191 994 1439 701 
Q 1688 409 2113 409 
Q 2538 409 2786 701 
Q 3034 994 3034 1497 
Q 3034 2003 2786 2293 
Q 2538 2584 2113 2584 
z
M 3366 4563 
L 3366 3988 
Q 3128 4100 2886 4159 
Q 2644 4219 2406 4219 
Q 1781 4219 1451 3797 
Q 1122 3375 1075 2522 
Q 1259 2794 1537 2939 
Q 1816 3084 2150 3084 
Q 2853 3084 3261 2657 
Q 3669 2231 3669 1497 
Q 3669 778 3244 343 
Q 2819 -91 2113 -91 
Q 1303 -91 875 529 
Q 447 1150 447 2328 
Q 447 3434 972 4092 
Q 1497 4750 2381 4750 
Q 2619 4750 2861 4703 
Q 3103 4656 3366 4563 
z
" transform="scale(0.015625)"/>
       </defs>
       <use xlink:href="#DejaVuSans-31"/>
       <use xlink:href="#DejaVuSans-2e" x="63.623047"/>
       <use xlink:href="#DejaVuSans-36" x="95.410156"/>
      </g>
     </g>
    </g>
    <g id="ytick_5">
     <g id="line2d_14">
      <g>
       <use xlink:href="#m594b72f3b8" x="57.6" y="101.952" style="stroke: #000000; stroke-width: 0.8"/>
      </g>
     </g>
     <g id="text_15">
      <!-- 1.8 -->
      <g transform="translate(34.696875 105.751219)scale(0.1 -0.1)">
       <defs>
        <path id="DejaVuSans-38" d="M 2034 2216 
Q 1584 2216 1326 1975 
Q 1069 1734 1069 1313 
Q 1069 891 1326 650 
Q 1584 409 2034 409 
Q 2484 409 2743 651 
Q 3003 894 3003 1313 
Q 3003 1734 2745 1975 
Q 2488 2216 2034 2216 
z
M 1403 2484 
Q 997 2584 770 2862 
Q 544 3141 544 3541 
Q 544 4100 942 4425 
Q 1341 4750 2034 4750 
Q 2731 4750 3128 4425 
Q 3525 4100 3525 3541 
Q 3525 3141 3298 2862 
Q 3072 2584 2669 2484 
Q 3125 2378 3379 2068 
Q 3634 1759 3634 1313 
Q 3634 634 3220 271 
Q 2806 -91 2034 -91 
Q 1263 -91 848 271 
Q 434 634 434 1313 
Q 434 1759 690 2068 
Q 947 2378 1403 2484 
z
M 1172 3481 
Q 1172 3119 1398 2916 
Q 1625 2713 2034 2713 
Q 2441 2713 2670 2916 
Q 2900 3119 2900 3481 
Q 2900 3844 2670 4047 
Q 2441 4250 2034 4250 
Q 1625 4250 1398 4047 
Q 1172 3844 1172 3481 
z
" transform="scale(0.015625)"/>
       </defs>
       <use xlink:href="#DejaVuSans-31"/>
       <use xlink:href="#DejaVuSans-2e" x="63.623047"/>
       <use xlink:href="#DejaVuSans-38" x="95.410156"/>
      </g>
     </g>
    </g>
    <g id="ytick_6">
     <g id="line2d_15">
      <g>
       <use xlink:href="#m594b72f3b8" x="57.6" y="53.568" style="stroke: #000000; stroke-width: 0.8"/>
      </g>
     </g>
     <g id="text_16">
      <!-- 2.0 -->
      <g transform="translate(34.696875 57.367219)scale(0.1 -0.1)">
       <use xlink:href="#DejaVuSans-32"/>
       <use xlink:href="#DejaVuSans-2e" x="63.623047"/>
       <use xlink:href="#DejaVuSans-30" x="95.410156"/>
      </g>
     </g>
    </g>
    <g id="text_17">
     <!-- $f_i$ -->
     <g transform="translate(28.617188 177.428)rotate(-90)scale(0.1 -0.1)">
      <defs>
       <path id="DejaVuSans-Oblique-66" d="M 3059 4863 
L 2969 4384 
L 2419 4384 
Q 2106 4384 1964 4261 
Q 1822 4138 1753 3809 
L 1691 3500 
L 2638 3500 
L 2553 3053 
L 1606 3053 
L 1013 0 
L 434 0 
L 1031 3053 
L 481 3053 
L 563 3500 
L 1113 3500 
L 1159 3744 
Q 1278 4363 1576 4613 
Q 1875 4863 2516 4863 
L 3059 4863 
z
" transform="scale(0.015625)"/>
       <path id="DejaVuSans-Oblique-69" d="M 1172 4863 
L 1747 4863 
L 1606 4134 
L 1031 4134 
L 1172 4863 
z
M 909 3500 
L 1484 3500 
L 800 0 
L 225 0 
L 909 3500 
z
" transform="scale(0.015625)"/>
      </defs>
      <use xlink:href="#DejaVuSans-Oblique-66" transform="translate(0 0.015625)"/>
      <use xlink:href="#DejaVuSans-Oblique-69" transform="translate(35.205078 -16.390625)scale(0.7)"/>
     </g>
    </g>
   </g>
   <g id="line2d_16">
    <path d="M 73.832727 295.488 
L 235.99751 295.488 
L 236.32249 53.568 
L 398.487273 53.568 
L 398.487273 53.568 
" clip-path="url(#p5f009959fa)" style="fill: none; stroke: #0000ff; stroke-width: 1.5; stroke-linecap: square"/>
   </g>
   <g id="line2d_17">
    <path d="M 73.840844 295.488 
L 74.189228 295.488 
L 74.537613 295.488 
L 74.885998 295.488 
L 75.234382 295.488 
L 75.582767 295.488 
L 75.931152 295.488 
L 76.279536 295.488 
L 76.627921 295.488 
L 76.976306 295.488 
L 77.32469 295.488 
L 77.673075 295.488 
L 78.02146 295.488 
L 78.369844 295.488 
L 78.718229 295.488 
L 79.066614 295.488 
L 79.414998 295.488 
L 79.763383 295.488 
L 80.111768 295.488 
L 80.460152 295.488 
L 80.808537 295.488 
L 81.156922 295.488 
L 81.505306 295.488 
L 81.853691 295.488 
L 82.202076 295.488 
L 82.55046 295.488 
L 82.898845 295.488 
L 83.24723 295.488 
L 83.595614 295.488 
L 83.943999 295.488 
L 84.292384 295.488 
L 84.640768 295.488 
L 84.989153 295.488 
L 85.337538 295.488 
L 85.685922 295.488 
L 86.034307 295.488 
L 86.382692 295.488 
L 86.731076 295.488 
L 87.079461 295.488 
L 87.427846 295.488 
L 87.77623 295.488 
L 88.124615 295.488 
L 88.473 295.488 
L 88.821384 295.488 
L 89.169769 295.488 
L 89.518154 295.488 
L 89.866538 295.488 
L 90.214923 295.488 
L 90.563308 295.488 
L 90.911692 295.488 
" clip-path="url(#p5f009959fa)" style="fill: none; stroke: #008000; stroke-width: 1.5; stroke-linecap: square"/>
   </g>
   <g id="line2d_18">
    <path d="M 90.927925 295.488 
L 91.27631 295.488 
L 91.624694 295.488 
L 91.973079 295.488 
L 92.321464 295.488 
L 92.669848 295.488 
L 93.018233 295.488 
L 93.366618 295.488 
L 93.715002 295.488 
L 94.063387 295.488 
L 94.411772 295.488 
L 94.760156 295.488 
L 95.108541 295.488 
L 95.456926 295.488 
L 95.80531 295.488 
L 96.153695 295.488 
L 96.50208 295.488 
L 96.850464 295.488 
L 97.198849 295.488 
L 97.547234 295.488 
L 97.895618 295.488 
L 98.244003 295.488 
L 98.592388 295.488 
L 98.940772 295.488 
L 99.289157 295.488 
L 99.637542 295.488 
L 99.985926 295.488 
L 100.334311 295.488 
L 100.682696 295.488 
L 101.03108 295.488 
L 101.379465 295.488 
L 101.72785 295.488 
L 102.076234 295.488 
L 102.424619 295.488 
L 102.773004 295.488 
L 103.121388 295.488 
L 103.469773 295.488 
L 103.818158 295.488 
L 104.166542 295.488 
L 104.514927 295.488 
L 104.863312 295.488 
L 105.211696 295.488 
L 105.560081 295.488 
L 105.908466 295.488 
L 106.25685 295.488 
L 106.605235 295.488 
L 106.95362 295.488 
L 107.302004 295.488 
L 107.650389 295.488 
L 107.998774 295.488 
" clip-path="url(#p5f009959fa)" style="fill: none; stroke: #008000; stroke-width: 1.5; stroke-linecap: square"/>
   </g>
   <g id="line2d_19">
    <path d="M 108.015006 295.488 
L 108.363391 295.488 
L 108.711776 295.488 
L 109.06016 295.488 
L 109.408545 295.488 
L 109.75693 295.488 
L 110.105314 295.488 
L 110.453699 295.488 
L 110.802084 295.488 
L 111.150468 295.488 
L 111.498853 295.488 
L 111.847238 295.488 
L 112.195622 295.488 
L 112.544007 295.488 
L 112.892392 295.488 
L 113.240776 295.488 
L 113.589161 295.488 
L 113.937546 295.488 
L 114.28593 295.488 
L 114.634315 295.488 
L 114.9827 295.488 
L 115.331084 295.488 
L 115.679469 295.488 
L 116.027854 295.488 
L 116.376238 295.488 
L 116.724623 295.488 
L 117.073008 295.488 
L 117.421392 295.488 
L 117.769777 295.488 
L 118.118162 295.488 
L 118.466546 295.488 
L 118.814931 295.488 
L 119.163316 295.488 
L 119.5117 295.488 
L 119.860085 295.488 
L 120.20847 295.488 
L 120.556854 295.488 
L 120.905239 295.488 
L 121.253624 295.488 
L 121.602008 295.488 
L 121.950393 295.488 
L 122.298778 295.488 
L 122.647162 295.488 
L 122.995547 295.488 
L 123.343932 295.488 
L 123.692316 295.488 
L 124.040701 295.488 
L 124.389086 295.488 
L 124.73747 295.488 
L 125.085855 295.488 
" clip-path="url(#p5f009959fa)" style="fill: none; stroke: #008000; stroke-width: 1.5; stroke-linecap: square"/>
   </g>
   <g id="line2d_20">
    <path d="M 125.102088 295.488 
L 125.450472 295.488 
L 125.798857 295.488 
L 126.147242 295.488 
L 126.495626 295.488 
L 126.844011 295.488 
L 127.192396 295.488 
L 127.54078 295.488 
L 127.889165 295.488 
L 128.23755 295.488 
L 128.585934 295.488 
L 128.934319 295.488 
L 129.282704 295.488 
L 129.631088 295.488 
L 129.979473 295.488 
L 130.327858 295.488 
L 130.676242 295.488 
L 131.024627 295.488 
L 131.373012 295.488 
L 131.721396 295.488 
L 132.069781 295.488 
L 132.418166 295.488 
L 132.76655 295.488 
L 133.114935 295.488 
L 133.46332 295.488 
L 133.811704 295.488 
L 134.160089 295.488 
L 134.508474 295.488 
L 134.856858 295.488 
L 135.205243 295.488 
L 135.553628 295.488 
L 135.902012 295.488 
L 136.250397 295.488 
L 136.598782 295.488 
L 136.947166 295.488 
L 137.295551 295.488 
L 137.643936 295.488 
L 137.99232 295.488 
L 138.340705 295.488 
L 138.68909 295.488 
L 139.037474 295.488 
L 139.385859 295.488 
L 139.734244 295.488 
L 140.082628 295.488 
L 140.431013 295.488 
L 140.779398 295.488 
L 141.127782 295.488 
L 141.476167 295.488 
L 141.824552 295.488 
L 142.172936 295.488 
" clip-path="url(#p5f009959fa)" style="fill: none; stroke: #008000; stroke-width: 1.5; stroke-linecap: square"/>
   </g>
   <g id="line2d_21">
    <path d="M 142.189169 295.488 
L 142.537554 295.488 
L 142.885938 295.488 
L 143.234323 295.488 
L 143.582708 295.488 
L 143.931092 295.488 
L 144.279477 295.488 
L 144.627862 295.488 
L 144.976246 295.488 
L 145.324631 295.488 
L 145.673016 295.488 
L 146.0214 295.488 
L 146.369785 295.488 
L 146.71817 295.488 
L 147.066554 295.488 
L 147.414939 295.488 
L 147.763324 295.488 
L 148.111708 295.488 
L 148.460093 295.488 
L 148.808478 295.488 
L 149.156862 295.488 
L 149.505247 295.488 
L 149.853632 295.488 
L 150.202016 295.488 
L 150.550401 295.488 
L 150.898786 295.488 
L 151.24717 295.488 
L 151.595555 295.488 
L 151.94394 295.488 
L 152.292324 295.488 
L 152.640709 295.488 
L 152.989094 295.488 
L 153.337478 295.488 
L 153.685863 295.488 
L 154.034248 295.488 
L 154.382632 295.488 
L 154.731017 295.488 
L 155.079402 295.488 
L 155.427786 295.488 
L 155.776171 295.488 
L 156.124556 295.488 
L 156.47294 295.488 
L 156.821325 295.488 
L 157.16971 295.488 
L 157.518094 295.488 
L 157.866479 295.488 
L 158.214864 295.488 
L 158.563248 295.488 
L 158.911633 295.488 
L 159.260018 295.488 
" clip-path="url(#p5f009959fa)" style="fill: none; stroke: #008000; stroke-width: 1.5; stroke-linecap: square"/>
   </g>
   <g id="line2d_22">
    <path d="M 159.27625 295.488 
L 159.624635 295.488 
L 159.97302 295.488 
L 160.321404 295.488 
L 160.669789 295.488 
L 161.018174 295.488 
L 161.366558 295.488 
L 161.714943 295.488 
L 162.063328 295.488 
L 162.411712 295.488 
L 162.760097 295.488 
L 163.108482 295.488 
L 163.456866 295.488 
L 163.805251 295.488 
L 164.153636 295.488 
L 164.50202 295.488 
L 164.850405 295.488 
L 165.19879 295.488 
L 165.547174 295.488 
L 165.895559 295.488 
L 166.243944 295.488 
L 166.592328 295.488 
L 166.940713 295.488 
L 167.289098 295.488 
L 167.637482 295.488 
L 167.985867 295.488 
L 168.334252 295.488 
L 168.682636 295.488 
L 169.031021 295.488 
L 169.379406 295.488 
L 169.72779 295.488 
L 170.076175 295.488 
L 170.42456 295.488 
L 170.772944 295.488 
L 171.121329 295.488 
L 171.469714 295.488 
L 171.818098 295.488 
L 172.166483 295.488 
L 172.514868 295.488 
L 172.863252 295.488 
L 173.211637 295.488 
L 173.560022 295.488 
L 173.908406 295.488 
L 174.256791 295.488 
L 174.605176 295.488 
L 174.95356 295.488 
L 175.301945 295.488 
L 175.65033 295.488 
L 175.998714 295.488 
L 176.347099 295.488 
" clip-path="url(#p5f009959fa)" style="fill: none; stroke: #008000; stroke-width: 1.5; stroke-linecap: square"/>
   </g>
   <g id="line2d_23">
    <path d="M 176.363332 295.488 
L 176.711716 295.488 
L 177.060101 295.488 
L 177.408486 295.488 
L 177.75687 295.488 
L 178.105255 295.488 
L 178.45364 295.488 
L 178.802024 295.488 
L 179.150409 295.488 
L 179.498794 295.488 
L 179.847178 295.488 
L 180.195563 295.488 
L 180.543948 295.488 
L 180.892332 295.488 
L 181.240717 295.488 
L 181.589102 295.488 
L 181.937486 295.488 
L 182.285871 295.488 
L 182.634256 295.488 
L 182.98264 295.488 
L 183.331025 295.488 
L 183.67941 295.488 
L 184.027794 295.488 
L 184.376179 295.488 
L 184.724564 295.488 
L 185.072948 295.488 
L 185.421333 295.488 
L 185.769718 295.488 
L 186.118102 295.488 
L 186.466487 295.488 
L 186.814872 295.488 
L 187.163256 295.488 
L 187.511641 295.488 
L 187.860026 295.488 
L 188.20841 295.488 
L 188.556795 295.488 
L 188.90518 295.488 
L 189.253564 295.488 
L 189.601949 295.488 
L 189.950334 295.488 
L 190.298718 295.488 
L 190.647103 295.488 
L 190.995488 295.488 
L 191.343872 295.488 
L 191.692257 295.488 
L 192.040642 295.488 
L 192.389026 295.488 
L 192.737411 295.488 
L 193.085796 295.488 
L 193.43418 295.488 
" clip-path="url(#p5f009959fa)" style="fill: none; stroke: #008000; stroke-width: 1.5; stroke-linecap: square"/>
   </g>
   <g id="line2d_24">
    <path d="M 193.450413 295.488 
L 193.798798 295.488 
L 194.147182 295.488 
L 194.495567 295.488 
L 194.843952 295.488 
L 195.192336 295.488 
L 195.540721 295.488 
L 195.889106 295.488 
L 196.23749 295.488 
L 196.585875 295.488 
L 196.93426 295.488 
L 197.282644 295.488 
L 197.631029 295.488 
L 197.979414 295.488 
L 198.327798 295.488 
L 198.676183 295.488 
L 199.024568 295.488 
L 199.372952 295.488 
L 199.721337 295.488 
L 200.069722 295.488 
L 200.418106 295.488 
L 200.766491 295.488 
L 201.114876 295.488 
L 201.46326 295.488 
L 201.811645 295.488 
L 202.16003 295.488 
L 202.508414 295.488 
L 202.856799 295.488 
L 203.205184 295.488 
L 203.553568 295.488 
L 203.901953 295.488 
L 204.250338 295.488 
L 204.598722 295.488 
L 204.947107 295.488 
L 205.295492 295.488 
L 205.643876 295.488 
L 205.992261 295.488 
L 206.340646 295.488 
L 206.68903 295.488 
L 207.037415 295.488 
L 207.3858 295.488 
L 207.734184 295.488 
L 208.082569 295.488 
L 208.430954 295.488 
L 208.779338 295.488 
L 209.127723 295.488 
L 209.476108 295.488 
L 209.824492 295.488 
L 210.172877 295.488 
L 210.521262 295.488 
" clip-path="url(#p5f009959fa)" style="fill: none; stroke: #008000; stroke-width: 1.5; stroke-linecap: square"/>
   </g>
   <g id="line2d_25">
    <path d="M 210.537494 295.488 
L 210.885879 295.488 
L 211.234264 295.488 
L 211.582648 295.488 
L 211.931033 295.488 
L 212.279418 295.488 
L 212.627802 295.488 
L 212.976187 295.488 
L 213.324572 295.488 
L 213.672956 295.488 
L 214.021341 295.488 
L 214.369726 295.488 
L 214.71811 295.488 
L 215.066495 295.488 
L 215.41488 295.488 
L 215.763264 295.488 
L 216.111649 295.488 
L 216.460034 295.488 
L 216.808418 295.488 
L 217.156803 295.488 
L 217.505188 295.488 
L 217.853572 295.488 
L 218.201957 295.488 
L 218.550342 295.488 
L 218.898726 295.488 
L 219.247111 295.488 
L 219.595496 295.488 
L 219.94388 295.488 
L 220.292265 295.488 
L 220.64065 295.488 
L 220.989034 295.488 
L 221.337419 295.488 
L 221.685804 295.488 
L 222.034188 295.488 
L 222.382573 295.488 
L 222.730958 295.488 
L 223.079342 295.488 
L 223.427727 295.488 
L 223.776112 295.488 
L 224.124496 295.488 
L 224.472881 295.488 
L 224.821266 295.488 
L 225.16965 295.488 
L 225.518035 295.488 
L 225.86642 295.488 
L 226.214804 295.488 
L 226.563189 295.488 
L 226.911574 295.488 
L 227.259958 295.488 
L 227.608343 295.488 
" clip-path="url(#p5f009959fa)" style="fill: none; stroke: #008000; stroke-width: 1.5; stroke-linecap: square"/>
   </g>
   <g id="line2d_26">
    <path d="M 227.624576 295.488 
L 227.97296 295.488 
L 228.321345 295.488 
L 228.66973 295.488 
L 229.018114 295.488 
L 229.366499 295.488 
L 229.714884 295.488 
L 230.063268 295.488 
L 230.411653 295.488 
L 230.760038 295.488 
L 231.108422 295.488 
L 231.456807 295.488 
L 231.805192 295.488 
L 232.153576 295.488 
L 232.501961 295.488 
L 232.850346 295.488 
L 233.19873 295.488 
L 233.547115 295.488 
L 233.8955 295.488 
L 234.243884 295.488 
L 234.592269 295.488 
L 234.940654 295.488 
L 235.289038 295.488 
L 235.637423 295.488 
L 235.985808 295.488 
L 236.334192 53.568 
L 236.682577 53.568 
L 237.030962 53.568 
L 237.379346 53.568 
L 237.727731 53.568 
L 238.076116 53.568 
L 238.4245 53.568 
L 238.772885 53.568 
L 239.12127 53.568 
L 239.469654 53.568 
L 239.818039 53.568 
L 240.166424 53.568 
L 240.514808 53.568 
L 240.863193 53.568 
L 241.211578 53.568 
L 241.559962 53.568 
L 241.908347 53.568 
L 242.256732 53.568 
L 242.605116 53.568 
L 242.953501 53.568 
L 243.301886 53.568 
L 243.65027 53.568 
L 243.998655 53.568 
L 244.34704 53.568 
L 244.695424 53.568 
" clip-path="url(#p5f009959fa)" style="fill: none; stroke: #008000; stroke-width: 1.5; stroke-linecap: square"/>
   </g>
   <g id="line2d_27">
    <path d="M 244.711657 53.568 
L 245.060042 53.568 
L 245.408426 53.568 
L 245.756811 53.568 
L 246.105196 53.568 
L 246.45358 53.568 
L 246.801965 53.568 
L 247.15035 53.568 
L 247.498734 53.568 
L 247.847119 53.568 
L 248.195504 53.568 
L 248.543888 53.568 
L 248.892273 53.568 
L 249.240658 53.568 
L 249.589042 53.568 
L 249.937427 53.568 
L 250.285812 53.568 
L 250.634196 53.568 
L 250.982581 53.568 
L 251.330966 53.568 
L 251.67935 53.568 
L 252.027735 53.568 
L 252.37612 53.568 
L 252.724504 53.568 
L 253.072889 53.568 
L 253.421274 53.568 
L 253.769658 53.568 
L 254.118043 53.568 
L 254.466428 53.568 
L 254.814812 53.568 
L 255.163197 53.568 
L 255.511582 53.568 
L 255.859966 53.568 
L 256.208351 53.568 
L 256.556736 53.568 
L 256.90512 53.568 
L 257.253505 53.568 
L 257.60189 53.568 
L 257.950274 53.568 
L 258.298659 53.568 
L 258.647044 53.568 
L 258.995428 53.568 
L 259.343813 53.568 
L 259.692198 53.568 
L 260.040582 53.568 
L 260.388967 53.568 
L 260.737352 53.568 
L 261.085736 53.568 
L 261.434121 53.568 
L 261.782506 53.568 
" clip-path="url(#p5f009959fa)" style="fill: none; stroke: #008000; stroke-width: 1.5; stroke-linecap: square"/>
   </g>
   <g id="line2d_28">
    <path d="M 261.798738 53.568 
L 262.147123 53.568 
L 262.495508 53.568 
L 262.843892 53.568 
L 263.192277 53.568 
L 263.540662 53.568 
L 263.889046 53.568 
L 264.237431 53.568 
L 264.585816 53.568 
L 264.9342 53.568 
L 265.282585 53.568 
L 265.63097 53.568 
L 265.979354 53.568 
L 266.327739 53.568 
L 266.676124 53.568 
L 267.024508 53.568 
L 267.372893 53.568 
L 267.721278 53.568 
L 268.069662 53.568 
L 268.418047 53.568 
L 268.766432 53.568 
L 269.114816 53.568 
L 269.463201 53.568 
L 269.811586 53.568 
L 270.15997 53.568 
L 270.508355 53.568 
L 270.85674 53.568 
L 271.205124 53.568 
L 271.553509 53.568 
L 271.901894 53.568 
L 272.250278 53.568 
L 272.598663 53.568 
L 272.947048 53.568 
L 273.295432 53.568 
L 273.643817 53.568 
L 273.992202 53.568 
L 274.340586 53.568 
L 274.688971 53.568 
L 275.037356 53.568 
L 275.38574 53.568 
L 275.734125 53.568 
L 276.08251 53.568 
L 276.430894 53.568 
L 276.779279 53.568 
L 277.127664 53.568 
L 277.476048 53.568 
L 277.824433 53.568 
L 278.172818 53.568 
L 278.521202 53.568 
L 278.869587 53.568 
" clip-path="url(#p5f009959fa)" style="fill: none; stroke: #008000; stroke-width: 1.5; stroke-linecap: square"/>
   </g>
   <g id="line2d_29">
    <path d="M 278.88582 53.568 
L 279.234204 53.568 
L 279.582589 53.568 
L 279.930974 53.568 
L 280.279358 53.568 
L 280.627743 53.568 
L 280.976128 53.568 
L 281.324512 53.568 
L 281.672897 53.568 
L 282.021282 53.568 
L 282.369666 53.568 
L 282.718051 53.568 
L 283.066436 53.568 
L 283.41482 53.568 
L 283.763205 53.568 
L 284.11159 53.568 
L 284.459974 53.568 
L 284.808359 53.568 
L 285.156744 53.568 
L 285.505128 53.568 
L 285.853513 53.568 
L 286.201898 53.568 
L 286.550282 53.568 
L 286.898667 53.568 
L 287.247052 53.568 
L 287.595436 53.568 
L 287.943821 53.568 
L 288.292206 53.568 
L 288.64059 53.568 
L 288.988975 53.568 
L 289.33736 53.568 
L 289.685744 53.568 
L 290.034129 53.568 
L 290.382514 53.568 
L 290.730898 53.568 
L 291.079283 53.568 
L 291.427668 53.568 
L 291.776052 53.568 
L 292.124437 53.568 
L 292.472822 53.568 
L 292.821206 53.568 
L 293.169591 53.568 
L 293.517976 53.568 
L 293.86636 53.568 
L 294.214745 53.568 
L 294.56313 53.568 
L 294.911514 53.568 
L 295.259899 53.568 
L 295.608284 53.568 
L 295.956668 53.568 
" clip-path="url(#p5f009959fa)" style="fill: none; stroke: #008000; stroke-width: 1.5; stroke-linecap: square"/>
   </g>
   <g id="line2d_30">
    <path d="M 295.972901 53.568 
L 296.321286 53.568 
L 296.66967 53.568 
L 297.018055 53.568 
L 297.36644 53.568 
L 297.714824 53.568 
L 298.063209 53.568 
L 298.411594 53.568 
L 298.759978 53.568 
L 299.108363 53.568 
L 299.456748 53.568 
L 299.805132 53.568 
L 300.153517 53.568 
L 300.501902 53.568 
L 300.850286 53.568 
L 301.198671 53.568 
L 301.547056 53.568 
L 301.89544 53.568 
L 302.243825 53.568 
L 302.59221 53.568 
L 302.940594 53.568 
L 303.288979 53.568 
L 303.637364 53.568 
L 303.985748 53.568 
L 304.334133 53.568 
L 304.682518 53.568 
L 305.030902 53.568 
L 305.379287 53.568 
L 305.727672 53.568 
L 306.076056 53.568 
L 306.424441 53.568 
L 306.772826 53.568 
L 307.12121 53.568 
L 307.469595 53.568 
L 307.81798 53.568 
L 308.166364 53.568 
L 308.514749 53.568 
L 308.863134 53.568 
L 309.211518 53.568 
L 309.559903 53.568 
L 309.908288 53.568 
L 310.256672 53.568 
L 310.605057 53.568 
L 310.953442 53.568 
L 311.301826 53.568 
L 311.650211 53.568 
L 311.998596 53.568 
L 312.34698 53.568 
L 312.695365 53.568 
L 313.04375 53.568 
" clip-path="url(#p5f009959fa)" style="fill: none; stroke: #008000; stroke-width: 1.5; stroke-linecap: square"/>
   </g>
   <g id="line2d_31">
    <path d="M 313.059982 53.568 
L 313.408367 53.568 
L 313.756752 53.568 
L 314.105136 53.568 
L 314.453521 53.568 
L 314.801906 53.568 
L 315.15029 53.568 
L 315.498675 53.568 
L 315.84706 53.568 
L 316.195444 53.568 
L 316.543829 53.568 
L 316.892214 53.568 
L 317.240598 53.568 
L 317.588983 53.568 
L 317.937368 53.568 
L 318.285752 53.568 
L 318.634137 53.568 
L 318.982522 53.568 
L 319.330906 53.568 
L 319.679291 53.568 
L 320.027676 53.568 
L 320.37606 53.568 
L 320.724445 53.568 
L 321.07283 53.568 
L 321.421214 53.568 
L 321.769599 53.568 
L 322.117984 53.568 
L 322.466368 53.568 
L 322.814753 53.568 
L 323.163138 53.568 
L 323.511522 53.568 
L 323.859907 53.568 
L 324.208292 53.568 
L 324.556676 53.568 
L 324.905061 53.568 
L 325.253446 53.568 
L 325.60183 53.568 
L 325.950215 53.568 
L 326.2986 53.568 
L 326.646984 53.568 
L 326.995369 53.568 
L 327.343754 53.568 
L 327.692138 53.568 
L 328.040523 53.568 
L 328.388908 53.568 
L 328.737292 53.568 
L 329.085677 53.568 
L 329.434062 53.568 
L 329.782446 53.568 
L 330.130831 53.568 
" clip-path="url(#p5f009959fa)" style="fill: none; stroke: #008000; stroke-width: 1.5; stroke-linecap: square"/>
   </g>
   <g id="line2d_32">
    <path d="M 330.147064 53.568 
L 330.495448 53.568 
L 330.843833 53.568 
L 331.192218 53.568 
L 331.540602 53.568 
L 331.888987 53.568 
L 332.237372 53.568 
L 332.585756 53.568 
L 332.934141 53.568 
L 333.282526 53.568 
L 333.63091 53.568 
L 333.979295 53.568 
L 334.32768 53.568 
L 334.676064 53.568 
L 335.024449 53.568 
L 335.372834 53.568 
L 335.721218 53.568 
L 336.069603 53.568 
L 336.417988 53.568 
L 336.766372 53.568 
L 337.114757 53.568 
L 337.463142 53.568 
L 337.811526 53.568 
L 338.159911 53.568 
L 338.508296 53.568 
L 338.85668 53.568 
L 339.205065 53.568 
L 339.55345 53.568 
L 339.901834 53.568 
L 340.250219 53.568 
L 340.598604 53.568 
L 340.946988 53.568 
L 341.295373 53.568 
L 341.643758 53.568 
L 341.992142 53.568 
L 342.340527 53.568 
L 342.688912 53.568 
L 343.037296 53.568 
L 343.385681 53.568 
L 343.734066 53.568 
L 344.08245 53.568 
L 344.430835 53.568 
L 344.77922 53.568 
L 345.127604 53.568 
L 345.475989 53.568 
L 345.824374 53.568 
L 346.172758 53.568 
L 346.521143 53.568 
L 346.869528 53.568 
L 347.217912 53.568 
" clip-path="url(#p5f009959fa)" style="fill: none; stroke: #008000; stroke-width: 1.5; stroke-linecap: square"/>
   </g>
   <g id="line2d_33">
    <path d="M 347.234145 53.568 
L 347.58253 53.568 
L 347.930914 53.568 
L 348.279299 53.568 
L 348.627684 53.568 
L 348.976068 53.568 
L 349.324453 53.568 
L 349.672838 53.568 
L 350.021222 53.568 
L 350.369607 53.568 
L 350.717992 53.568 
L 351.066376 53.568 
L 351.414761 53.568 
L 351.763146 53.568 
L 352.11153 53.568 
L 352.459915 53.568 
L 352.8083 53.568 
L 353.156684 53.568 
L 353.505069 53.568 
L 353.853454 53.568 
L 354.201838 53.568 
L 354.550223 53.568 
L 354.898608 53.568 
L 355.246992 53.568 
L 355.595377 53.568 
L 355.943762 53.568 
L 356.292146 53.568 
L 356.640531 53.568 
L 356.988916 53.568 
L 357.3373 53.568 
L 357.685685 53.568 
L 358.03407 53.568 
L 358.382454 53.568 
L 358.730839 53.568 
L 359.079224 53.568 
L 359.427608 53.568 
L 359.775993 53.568 
L 360.124378 53.568 
L 360.472762 53.568 
L 360.821147 53.568 
L 361.169532 53.568 
L 361.517916 53.568 
L 361.866301 53.568 
L 362.214686 53.568 
L 362.56307 53.568 
L 362.911455 53.568 
L 363.25984 53.568 
L 363.608224 53.568 
L 363.956609 53.568 
L 364.304994 53.568 
" clip-path="url(#p5f009959fa)" style="fill: none; stroke: #008000; stroke-width: 1.5; stroke-linecap: square"/>
   </g>
   <g id="line2d_34">
    <path d="M 364.321226 53.568 
L 364.669611 53.568 
L 365.017996 53.568 
L 365.36638 53.568 
L 365.714765 53.568 
L 366.06315 53.568 
L 366.411534 53.568 
L 366.759919 53.568 
L 367.108304 53.568 
L 367.456688 53.568 
L 367.805073 53.568 
L 368.153458 53.568 
L 368.501842 53.568 
L 368.850227 53.568 
L 369.198612 53.568 
L 369.546996 53.568 
L 369.895381 53.568 
L 370.243766 53.568 
L 370.59215 53.568 
L 370.940535 53.568 
L 371.28892 53.568 
L 371.637304 53.568 
L 371.985689 53.568 
L 372.334074 53.568 
L 372.682458 53.568 
L 373.030843 53.568 
L 373.379228 53.568 
L 373.727612 53.568 
L 374.075997 53.568 
L 374.424382 53.568 
L 374.772766 53.568 
L 375.121151 53.568 
L 375.469536 53.568 
L 375.81792 53.568 
L 376.166305 53.568 
L 376.51469 53.568 
L 376.863074 53.568 
L 377.211459 53.568 
L 377.559844 53.568 
L 377.908228 53.568 
L 378.256613 53.568 
L 378.604998 53.568 
L 378.953382 53.568 
L 379.301767 53.568 
L 379.650152 53.568 
L 379.998536 53.568 
L 380.346921 53.568 
L 380.695306 53.568 
L 381.04369 53.568 
L 381.392075 53.568 
" clip-path="url(#p5f009959fa)" style="fill: none; stroke: #008000; stroke-width: 1.5; stroke-linecap: square"/>
   </g>
   <g id="line2d_35">
    <path d="M 381.408308 53.568 
L 381.756692 53.568 
L 382.105077 53.568 
L 382.453462 53.568 
L 382.801846 53.568 
L 383.150231 53.568 
L 383.498616 53.568 
L 383.847 53.568 
L 384.195385 53.568 
L 384.54377 53.568 
L 384.892154 53.568 
L 385.240539 53.568 
L 385.588924 53.568 
L 385.937308 53.568 
L 386.285693 53.568 
L 386.634078 53.568 
L 386.982462 53.568 
L 387.330847 53.568 
L 387.679232 53.568 
L 388.027616 53.568 
L 388.376001 53.568 
L 388.724386 53.568 
L 389.07277 53.568 
L 389.421155 53.568 
L 389.76954 53.568 
L 390.117924 53.568 
L 390.466309 53.568 
L 390.814694 53.568 
L 391.163078 53.568 
L 391.511463 53.568 
L 391.859848 53.568 
L 392.208232 53.568 
L 392.556617 53.568 
L 392.905002 53.568 
L 393.253386 53.568 
L 393.601771 53.568 
L 393.950156 53.568 
L 394.29854 53.568 
L 394.646925 53.568 
L 394.99531 53.568 
L 395.343694 53.568 
L 395.692079 53.568 
L 396.040464 53.568 
L 396.388848 53.568 
L 396.737233 53.568 
L 397.085618 53.568 
L 397.434002 53.568 
L 397.782387 53.568 
L 398.130772 53.568 
L 398.479156 53.568 
" clip-path="url(#p5f009959fa)" style="fill: none; stroke: #008000; stroke-width: 1.5; stroke-linecap: square"/>
   </g>
   <g id="patch_3">
    <path d="M 57.6 307.584 
L 57.6 41.472 
" style="fill: none; stroke: #000000; stroke-width: 0.8; stroke-linejoin: miter; stroke-linecap: square"/>
   </g>
   <g id="patch_4">
    <path d="M 414.72 307.584 
L 414.72 41.472 
" style="fill: none; stroke: #000000; stroke-width: 0.8; stroke-linejoin: miter; stroke-linecap: square"/>
   </g>
   <g id="patch_5">
    <path d="M 57.6 307.584 
L 414.72 307.584 
" style="fill: none; stroke: #000000; stroke-width: 0.8; stroke-linejoin: miter; stroke-linecap: square"/>
   </g>
   <g id="patch_6">
    <path d="M 57.6 41.472 
L 414.72 41.472 
" style="fill: none; stroke: #000000; stroke-width: 0.8; stroke-linejoin: miter; stroke-linecap: square"/>
   </g>
   <g id="legend_1">
    <g id="patch_7">
     <path d="M 64.6 93.906375 
L 210.795312 93.906375 
Q 212.795312 93.906375 212.795312 91.906375 
L 212.795312 48.472 
Q 212.795312 46.472 210.795312 46.472 
L 64.6 46.472 
Q 62.6 46.472 62.6 48.472 
L 62.6 91.906375 
Q 62.6 93.906375 64.6 93.906375 
z
" style="fill: #ffffff; opacity: 0.8; stroke: #cccccc; stroke-linejoin: miter"/>
    </g>
    <g id="line2d_36">
     <path d="M 66.6 54.570437 
L 76.6 54.570437 
L 86.6 54.570437 
" style="fill: none; stroke: #0000ff; stroke-width: 1.5; stroke-linecap: square"/>
    </g>
    <g id="text_18">
     <!-- Původní funkce -->
     <g transform="translate(94.6 58.070437)scale(0.1 -0.1)">
      <defs>
       <path id="DejaVuSans-50" d="M 1259 4147 
L 1259 2394 
L 2053 2394 
Q 2494 2394 2734 2622 
Q 2975 2850 2975 3272 
Q 2975 3691 2734 3919 
Q 2494 4147 2053 4147 
L 1259 4147 
z
M 628 4666 
L 2053 4666 
Q 2838 4666 3239 4311 
Q 3641 3956 3641 3272 
Q 3641 2581 3239 2228 
Q 2838 1875 2053 1875 
L 1259 1875 
L 1259 0 
L 628 0 
L 628 4666 
z
" transform="scale(0.015625)"/>
       <path id="DejaVuSans-16f" d="M 544 1381 
L 544 3500 
L 1119 3500 
L 1119 1403 
Q 1119 906 1312 657 
Q 1506 409 1894 409 
Q 2359 409 2629 706 
Q 2900 1003 2900 1516 
L 2900 3500 
L 3475 3500 
L 3475 0 
L 2900 0 
L 2900 538 
Q 2691 219 2414 64 
Q 2138 -91 1772 -91 
Q 1169 -91 856 284 
Q 544 659 544 1381 
z
M 1991 3584 
L 1991 3584 
z
M 2463 4575 
Q 2463 4771 2325 4908 
Q 2188 5046 1988 5046 
Q 1784 5046 1648 4910 
Q 1513 4775 1513 4575 
Q 1513 4371 1648 4235 
Q 1784 4100 1988 4100 
Q 2188 4100 2325 4237 
Q 2463 4375 2463 4575 
z
M 2844 4575 
Q 2844 4215 2595 3965 
Q 2347 3715 1988 3715 
Q 1628 3715 1379 3965 
Q 1131 4215 1131 4575 
Q 1131 4934 1379 5182 
Q 1628 5431 1988 5431 
Q 2347 5431 2595 5182 
Q 2844 4934 2844 4575 
z
" transform="scale(0.015625)"/>
       <path id="DejaVuSans-76" d="M 191 3500 
L 800 3500 
L 1894 563 
L 2988 3500 
L 3597 3500 
L 2284 0 
L 1503 0 
L 191 3500 
z
" transform="scale(0.015625)"/>
       <path id="DejaVuSans-6f" d="M 1959 3097 
Q 1497 3097 1228 2736 
Q 959 2375 959 1747 
Q 959 1119 1226 758 
Q 1494 397 1959 397 
Q 2419 397 2687 759 
Q 2956 1122 2956 1747 
Q 2956 2369 2687 2733 
Q 2419 3097 1959 3097 
z
M 1959 3584 
Q 2709 3584 3137 3096 
Q 3566 2609 3566 1747 
Q 3566 888 3137 398 
Q 2709 -91 1959 -91 
Q 1206 -91 779 398 
Q 353 888 353 1747 
Q 353 2609 779 3096 
Q 1206 3584 1959 3584 
z
" transform="scale(0.015625)"/>
       <path id="DejaVuSans-64" d="M 2906 2969 
L 2906 4863 
L 3481 4863 
L 3481 0 
L 2906 0 
L 2906 525 
Q 2725 213 2448 61 
Q 2172 -91 1784 -91 
Q 1150 -91 751 415 
Q 353 922 353 1747 
Q 353 2572 751 3078 
Q 1150 3584 1784 3584 
Q 2172 3584 2448 3432 
Q 2725 3281 2906 2969 
z
M 947 1747 
Q 947 1113 1208 752 
Q 1469 391 1925 391 
Q 2381 391 2643 752 
Q 2906 1113 2906 1747 
Q 2906 2381 2643 2742 
Q 2381 3103 1925 3103 
Q 1469 3103 1208 2742 
Q 947 2381 947 1747 
z
" transform="scale(0.015625)"/>
       <path id="DejaVuSans-6e" d="M 3513 2113 
L 3513 0 
L 2938 0 
L 2938 2094 
Q 2938 2591 2744 2837 
Q 2550 3084 2163 3084 
Q 1697 3084 1428 2787 
Q 1159 2491 1159 1978 
L 1159 0 
L 581 0 
L 581 3500 
L 1159 3500 
L 1159 2956 
Q 1366 3272 1645 3428 
Q 1925 3584 2291 3584 
Q 2894 3584 3203 3211 
Q 3513 2838 3513 2113 
z
" transform="scale(0.015625)"/>
       <path id="DejaVuSans-ed" d="M 1325 5119 
L 1947 5119 
L 928 3944 
L 450 3944 
L 1325 5119 
z
M 603 3500 
L 1178 3500 
L 1178 0 
L 603 0 
L 603 3500 
z
M 891 3584 
L 891 3584 
z
" transform="scale(0.015625)"/>
       <path id="DejaVuSans-20" transform="scale(0.015625)"/>
       <path id="DejaVuSans-66" d="M 2375 4863 
L 2375 4384 
L 1825 4384 
Q 1516 4384 1395 4259 
Q 1275 4134 1275 3809 
L 1275 3500 
L 2222 3500 
L 2222 3053 
L 1275 3053 
L 1275 0 
L 697 0 
L 697 3053 
L 147 3053 
L 147 3500 
L 697 3500 
L 697 3744 
Q 697 4328 969 4595 
Q 1241 4863 1831 4863 
L 2375 4863 
z
" transform="scale(0.015625)"/>
       <path id="DejaVuSans-75" d="M 544 1381 
L 544 3500 
L 1119 3500 
L 1119 1403 
Q 1119 906 1312 657 
Q 1506 409 1894 409 
Q 2359 409 2629 706 
Q 2900 1003 2900 1516 
L 2900 3500 
L 3475 3500 
L 3475 0 
L 2900 0 
L 2900 538 
Q 2691 219 2414 64 
Q 2138 -91 1772 -91 
Q 1169 -91 856 284 
Q 544 659 544 1381 
z
M 1991 3584 
L 1991 3584 
z
" transform="scale(0.015625)"/>
       <path id="DejaVuSans-6b" d="M 581 4863 
L 1159 4863 
L 1159 1991 
L 2875 3500 
L 3609 3500 
L 1753 1863 
L 3688 0 
L 2938 0 
L 1159 1709 
L 1159 0 
L 581 0 
L 581 4863 
z
" transform="scale(0.015625)"/>
       <path id="DejaVuSans-63" d="M 3122 3366 
L 3122 2828 
Q 2878 2963 2633 3030 
Q 2388 3097 2138 3097 
Q 1578 3097 1268 2742 
Q 959 2388 959 1747 
Q 959 1106 1268 751 
Q 1578 397 2138 397 
Q 2388 397 2633 464 
Q 2878 531 3122 666 
L 3122 134 
Q 2881 22 2623 -34 
Q 2366 -91 2075 -91 
Q 1284 -91 818 406 
Q 353 903 353 1747 
Q 353 2603 823 3093 
Q 1294 3584 2113 3584 
Q 2378 3584 2631 3529 
Q 2884 3475 3122 3366 
z
" transform="scale(0.015625)"/>
       <path id="DejaVuSans-65" d="M 3597 1894 
L 3597 1613 
L 953 1613 
Q 991 1019 1311 708 
Q 1631 397 2203 397 
Q 2534 397 2845 478 
Q 3156 559 3463 722 
L 3463 178 
Q 3153 47 2828 -22 
Q 2503 -91 2169 -91 
Q 1331 -91 842 396 
Q 353 884 353 1716 
Q 353 2575 817 3079 
Q 1281 3584 2069 3584 
Q 2775 3584 3186 3129 
Q 3597 2675 3597 1894 
z
M 3022 2063 
Q 3016 2534 2758 2815 
Q 2500 3097 2075 3097 
Q 1594 3097 1305 2825 
Q 1016 2553 972 2059 
L 3022 2063 
z
" transform="scale(0.015625)"/>
      </defs>
      <use xlink:href="#DejaVuSans-50"/>
      <use xlink:href="#DejaVuSans-16f" x="58.552734"/>
      <use xlink:href="#DejaVuSans-76" x="121.931641"/>
      <use xlink:href="#DejaVuSans-6f" x="181.111328"/>
      <use xlink:href="#DejaVuSans-64" x="242.292969"/>
      <use xlink:href="#DejaVuSans-6e" x="305.769531"/>
      <use xlink:href="#DejaVuSans-ed" x="369.148438"/>
      <use xlink:href="#DejaVuSans-20" x="396.931641"/>
      <use xlink:href="#DejaVuSans-66" x="428.71875"/>
      <use xlink:href="#DejaVuSans-75" x="463.923828"/>
      <use xlink:href="#DejaVuSans-6e" x="527.302734"/>
      <use xlink:href="#DejaVuSans-6b" x="590.681641"/>
      <use xlink:href="#DejaVuSans-63" x="648.591797"/>
      <use xlink:href="#DejaVuSans-65" x="703.572266"/>
     </g>
    </g>
    <g id="PathCollection_2">
     <g>
      <use xlink:href="#ma08e26a86e" x="76.6" y="70.523562" style="fill: #228b22; stroke: #228b22"/>
     </g>
    </g>
    <g id="text_19">
     <!-- Střední hodnoty buněk -->
     <g transform="translate(94.6 73.148562)scale(0.1 -0.1)">
      <defs>
       <path id="DejaVuSans-53" d="M 3425 4513 
L 3425 3897 
Q 3066 4069 2747 4153 
Q 2428 4238 2131 4238 
Q 1616 4238 1336 4038 
Q 1056 3838 1056 3469 
Q 1056 3159 1242 3001 
Q 1428 2844 1947 2747 
L 2328 2669 
Q 3034 2534 3370 2195 
Q 3706 1856 3706 1288 
Q 3706 609 3251 259 
Q 2797 -91 1919 -91 
Q 1588 -91 1214 -16 
Q 841 59 441 206 
L 441 856 
Q 825 641 1194 531 
Q 1563 422 1919 422 
Q 2459 422 2753 634 
Q 3047 847 3047 1241 
Q 3047 1584 2836 1778 
Q 2625 1972 2144 2069 
L 1759 2144 
Q 1053 2284 737 2584 
Q 422 2884 422 3419 
Q 422 4038 858 4394 
Q 1294 4750 2059 4750 
Q 2388 4750 2728 4690 
Q 3069 4631 3425 4513 
z
" transform="scale(0.015625)"/>
       <path id="DejaVuSans-74" d="M 1172 4494 
L 1172 3500 
L 2356 3500 
L 2356 3053 
L 1172 3053 
L 1172 1153 
Q 1172 725 1289 603 
Q 1406 481 1766 481 
L 2356 481 
L 2356 0 
L 1766 0 
Q 1100 0 847 248 
Q 594 497 594 1153 
L 594 3053 
L 172 3053 
L 172 3500 
L 594 3500 
L 594 4494 
L 1172 4494 
z
" transform="scale(0.015625)"/>
       <path id="DejaVuSans-159" d="M 2631 2963 
Q 2534 3019 2420 3045 
Q 2306 3072 2169 3072 
Q 1681 3072 1420 2755 
Q 1159 2438 1159 1844 
L 1159 0 
L 581 0 
L 581 3500 
L 1159 3500 
L 1159 2956 
Q 1341 3275 1631 3429 
Q 1922 3584 2338 3584 
Q 2397 3584 2469 3576 
Q 2541 3569 2628 3553 
L 2631 2963 
z
M 1453 3944 
L 688 5119 
L 1122 5119 
L 1684 4353 
L 2247 5119 
L 2681 5119 
L 1916 3944 
L 1453 3944 
z
" transform="scale(0.015625)"/>
       <path id="DejaVuSans-68" d="M 3513 2113 
L 3513 0 
L 2938 0 
L 2938 2094 
Q 2938 2591 2744 2837 
Q 2550 3084 2163 3084 
Q 1697 3084 1428 2787 
Q 1159 2491 1159 1978 
L 1159 0 
L 581 0 
L 581 4863 
L 1159 4863 
L 1159 2956 
Q 1366 3272 1645 3428 
Q 1925 3584 2291 3584 
Q 2894 3584 3203 3211 
Q 3513 2838 3513 2113 
z
" transform="scale(0.015625)"/>
       <path id="DejaVuSans-79" d="M 2059 -325 
Q 1816 -950 1584 -1140 
Q 1353 -1331 966 -1331 
L 506 -1331 
L 506 -850 
L 844 -850 
Q 1081 -850 1212 -737 
Q 1344 -625 1503 -206 
L 1606 56 
L 191 3500 
L 800 3500 
L 1894 763 
L 2988 3500 
L 3597 3500 
L 2059 -325 
z
" transform="scale(0.015625)"/>
       <path id="DejaVuSans-62" d="M 3116 1747 
Q 3116 2381 2855 2742 
Q 2594 3103 2138 3103 
Q 1681 3103 1420 2742 
Q 1159 2381 1159 1747 
Q 1159 1113 1420 752 
Q 1681 391 2138 391 
Q 2594 391 2855 752 
Q 3116 1113 3116 1747 
z
M 1159 2969 
Q 1341 3281 1617 3432 
Q 1894 3584 2278 3584 
Q 2916 3584 3314 3078 
Q 3713 2572 3713 1747 
Q 3713 922 3314 415 
Q 2916 -91 2278 -91 
Q 1894 -91 1617 61 
Q 1341 213 1159 525 
L 1159 0 
L 581 0 
L 581 4863 
L 1159 4863 
L 1159 2969 
z
" transform="scale(0.015625)"/>
       <path id="DejaVuSans-11b" d="M 3597 1894 
L 3597 1613 
L 953 1613 
Q 991 1019 1311 708 
Q 1631 397 2203 397 
Q 2534 397 2845 478 
Q 3156 559 3463 722 
L 3463 178 
Q 3153 47 2828 -22 
Q 2503 -91 2169 -91 
Q 1331 -91 842 396 
Q 353 884 353 1716 
Q 353 2575 817 3079 
Q 1281 3584 2069 3584 
Q 2775 3584 3186 3129 
Q 3597 2675 3597 1894 
z
M 3022 2063 
Q 3016 2534 2758 2815 
Q 2500 3097 2075 3097 
Q 1594 3097 1305 2825 
Q 1016 2553 972 2059 
L 3022 2063 
z
M 1831 3928 
L 1066 5103 
L 1500 5103 
L 2063 4337 
L 2625 5103 
L 3059 5103 
L 2294 3928 
L 1831 3928 
z
" transform="scale(0.015625)"/>
      </defs>
      <use xlink:href="#DejaVuSans-53"/>
      <use xlink:href="#DejaVuSans-74" x="63.476562"/>
      <use xlink:href="#DejaVuSans-159" x="102.685547"/>
      <use xlink:href="#DejaVuSans-65" x="141.548828"/>
      <use xlink:href="#DejaVuSans-64" x="203.072266"/>
      <use xlink:href="#DejaVuSans-6e" x="266.548828"/>
      <use xlink:href="#DejaVuSans-ed" x="329.927734"/>
      <use xlink:href="#DejaVuSans-20" x="357.710938"/>
      <use xlink:href="#DejaVuSans-68" x="389.498047"/>
      <use xlink:href="#DejaVuSans-6f" x="452.876953"/>
      <use xlink:href="#DejaVuSans-64" x="514.058594"/>
      <use xlink:href="#DejaVuSans-6e" x="577.535156"/>
      <use xlink:href="#DejaVuSans-6f" x="640.914062"/>
      <use xlink:href="#DejaVuSans-74" x="702.095703"/>
      <use xlink:href="#DejaVuSans-79" x="741.304688"/>
      <use xlink:href="#DejaVuSans-20" x="800.484375"/>
      <use xlink:href="#DejaVuSans-62" x="832.271484"/>
      <use xlink:href="#DejaVuSans-75" x="895.748047"/>
      <use xlink:href="#DejaVuSans-6e" x="959.126953"/>
      <use xlink:href="#DejaVuSans-11b" x="1022.505859"/>
      <use xlink:href="#DejaVuSans-6b" x="1084.029297"/>
     </g>
    </g>
    <g id="line2d_37">
     <path d="M 66.6 84.326687 
L 76.6 84.326687 
L 86.6 84.326687 
" style="fill: none; stroke: #008000; stroke-width: 1.5; stroke-linecap: square"/>
    </g>
    <g id="text_20">
     <!-- Rekonstrukce -->
     <g transform="translate(94.6 87.826687)scale(0.1 -0.1)">
      <defs>
       <path id="DejaVuSans-52" d="M 2841 2188 
Q 3044 2119 3236 1894 
Q 3428 1669 3622 1275 
L 4263 0 
L 3584 0 
L 2988 1197 
Q 2756 1666 2539 1819 
Q 2322 1972 1947 1972 
L 1259 1972 
L 1259 0 
L 628 0 
L 628 4666 
L 2053 4666 
Q 2853 4666 3247 4331 
Q 3641 3997 3641 3322 
Q 3641 2881 3436 2590 
Q 3231 2300 2841 2188 
z
M 1259 4147 
L 1259 2491 
L 2053 2491 
Q 2509 2491 2742 2702 
Q 2975 2913 2975 3322 
Q 2975 3731 2742 3939 
Q 2509 4147 2053 4147 
L 1259 4147 
z
" transform="scale(0.015625)"/>
       <path id="DejaVuSans-73" d="M 2834 3397 
L 2834 2853 
Q 2591 2978 2328 3040 
Q 2066 3103 1784 3103 
Q 1356 3103 1142 2972 
Q 928 2841 928 2578 
Q 928 2378 1081 2264 
Q 1234 2150 1697 2047 
L 1894 2003 
Q 2506 1872 2764 1633 
Q 3022 1394 3022 966 
Q 3022 478 2636 193 
Q 2250 -91 1575 -91 
Q 1294 -91 989 -36 
Q 684 19 347 128 
L 347 722 
Q 666 556 975 473 
Q 1284 391 1588 391 
Q 1994 391 2212 530 
Q 2431 669 2431 922 
Q 2431 1156 2273 1281 
Q 2116 1406 1581 1522 
L 1381 1569 
Q 847 1681 609 1914 
Q 372 2147 372 2553 
Q 372 3047 722 3315 
Q 1072 3584 1716 3584 
Q 2034 3584 2315 3537 
Q 2597 3491 2834 3397 
z
" transform="scale(0.015625)"/>
       <path id="DejaVuSans-72" d="M 2631 2963 
Q 2534 3019 2420 3045 
Q 2306 3072 2169 3072 
Q 1681 3072 1420 2755 
Q 1159 2438 1159 1844 
L 1159 0 
L 581 0 
L 581 3500 
L 1159 3500 
L 1159 2956 
Q 1341 3275 1631 3429 
Q 1922 3584 2338 3584 
Q 2397 3584 2469 3576 
Q 2541 3569 2628 3553 
L 2631 2963 
z
" transform="scale(0.015625)"/>
      </defs>
      <use xlink:href="#DejaVuSans-52"/>
      <use xlink:href="#DejaVuSans-65" x="64.982422"/>
      <use xlink:href="#DejaVuSans-6b" x="126.505859"/>
      <use xlink:href="#DejaVuSans-6f" x="180.791016"/>
      <use xlink:href="#DejaVuSans-6e" x="241.972656"/>
      <use xlink:href="#DejaVuSans-73" x="305.351562"/>
      <use xlink:href="#DejaVuSans-74" x="357.451172"/>
      <use xlink:href="#DejaVuSans-72" x="396.660156"/>
      <use xlink:href="#DejaVuSans-75" x="437.773438"/>
      <use xlink:href="#DejaVuSans-6b" x="501.152344"/>
      <use xlink:href="#DejaVuSans-63" x="559.0625"/>
      <use xlink:href="#DejaVuSans-65" x="614.042969"/>
     </g>
    </g>
   </g>
  </g>
 </g>
 <defs>
  <clipPath id="p5f009959fa">
   <rect x="57.6" y="41.472" width="357.12" height="266.112"/>
  </clipPath>
 </defs>
</svg>
