{
  "default_reconstruction": [
    "P",
    0
  ],
  "reconstruction_around_shock": [
    "P",
    0
  ],
  "reconstruction_in_wave": [
    "P",
    0
  ],
  "reconstruction_around_wave": [
    "P",
    0
  ],
  "THINC_beta": 10
}