{
  "default_reconstruction": [
    "P",
    4
  ],
  "reconstruction_around_shock": [
    "P+BJ",
    1
  ],
  "reconstruction_in_wave": [
    "JUMP",
    1
  ],
  "reconstruction_around_wave": [
    "P+BJ",
    1
  ],
  "THINC_beta": 10
}