# Fdb version 3
["bibtex temp/main"] 1691008135 "temp/main.aux" "temp/main.bbl" "temp/main" 1691008534
  "c:/texlive/2022/texmf-dist/bibtex/bst/base/unsrt.bst" 1662918468 18030 1376b4b231b50c66211e47e42eda2875 ""
  "references.bib" 1690983806 16096 518aad214bb646c190697897c0b6b914 ""
  "temp/main.aux" 1691008533 22332 5bd621b3dd0da126118ed963df5e752e "pdflatex"
  (generated)
  "temp/main.bbl"
  "temp/main.blg"
["pdflatex"] 1691008528 "c:/Users/matej/PycharmProjects/bthesis/Latex/main.tex" "temp/main.pdf" "main" 1691008534
  "c:/Users/matej/PycharmProjects/bthesis/Latex/main.tex" 1690996528 2909 9fceb672d4b1057af42113c10934150b ""
  "c:/texlive/2022/texmf-dist/fonts/enc/dvips/cm-super/cm-super-ts1.enc" 1662918730 2900 1537cc8184ad1792082cd229ecc269f4 ""
  "c:/texlive/2022/texmf-dist/fonts/map/fontname/texfonts.map" 1662919648 3524 cb3e574dea2d1052e39280babc910dc8 ""
  "c:/texlive/2022/texmf-dist/fonts/tfm/jknappen/ec/tcrm1000.tfm" 1662919215 1536 e07581a4bb3136ece9eeb4c3ffab8233 ""
  "c:/texlive/2022/texmf-dist/fonts/tfm/public/amsfonts/cmextra/cmex7.tfm" 1662918130 1004 54797486969f23fa377b128694d548df ""
  "c:/texlive/2022/texmf-dist/fonts/tfm/public/amsfonts/symbols/msam10.tfm" 1662918130 916 f87d7c45f9c908e672703b83b72241a3 ""
  "c:/texlive/2022/texmf-dist/fonts/tfm/public/amsfonts/symbols/msam5.tfm" 1662918130 924 9904cf1d39e9767e7a3622f2a125a565 ""
  "c:/texlive/2022/texmf-dist/fonts/tfm/public/amsfonts/symbols/msam7.tfm" 1662918130 928 2dc8d444221b7a635bb58038579b861a ""
  "c:/texlive/2022/texmf-dist/fonts/tfm/public/amsfonts/symbols/msbm10.tfm" 1662918130 908 2921f8a10601f252058503cc6570e581 ""
  "c:/texlive/2022/texmf-dist/fonts/tfm/public/amsfonts/symbols/msbm5.tfm" 1662918130 940 75ac932a52f80982a9f8ea75d03a34cf ""
  "c:/texlive/2022/texmf-dist/fonts/tfm/public/amsfonts/symbols/msbm7.tfm" 1662918130 940 228d6584342e91276bf566bcf9716b83 ""
  "c:/texlive/2022/texmf-dist/fonts/tfm/public/cm/cmbx10.tfm" 1662918719 1328 c834bbb027764024c09d3d2bf908b5f0 ""
  "c:/texlive/2022/texmf-dist/fonts/tfm/public/cm/cmbx12.tfm" 1662918719 1324 c910af8c371558dc20f2d7822f66fe64 ""
  "c:/texlive/2022/texmf-dist/fonts/tfm/public/cm/cmr12.tfm" 1662918719 1288 655e228510b4c2a1abe905c368440826 ""
  "c:/texlive/2022/texmf-dist/fonts/tfm/public/cm/cmr9.tfm" 1662918719 1292 6b21b9c2c7bebb38aa2273f7ca0fb3af ""
  "c:/texlive/2022/texmf-dist/fonts/tfm/public/cm/cmti10.tfm" 1662918719 1480 aa8e34af0eb6a2941b776984cf1dfdc4 ""
  "c:/texlive/2022/texmf-dist/fonts/type1/public/amsfonts/cm/cmbx10.pfb" 1662918130 34811 78b52f49e893bcba91bd7581cdc144c0 ""
  "c:/texlive/2022/texmf-dist/fonts/type1/public/amsfonts/cm/cmbx12.pfb" 1662918130 32080 340ef9bf63678554ee606688e7b5339d ""
  "c:/texlive/2022/texmf-dist/fonts/type1/public/amsfonts/cm/cmex10.pfb" 1662918130 30251 6afa5cb1d0204815a708a080681d4674 ""
  "c:/texlive/2022/texmf-dist/fonts/type1/public/amsfonts/cm/cmmi10.pfb" 1662918130 36299 5f9df58c2139e7edcf37c8fca4bd384d ""
  "c:/texlive/2022/texmf-dist/fonts/type1/public/amsfonts/cm/cmmi5.pfb" 1662918130 37912 07513ec114ac737ab54cea0152f4424b ""
  "c:/texlive/2022/texmf-dist/fonts/type1/public/amsfonts/cm/cmmi7.pfb" 1662918130 36281 c355509802a035cadc5f15869451dcee ""
  "c:/texlive/2022/texmf-dist/fonts/type1/public/amsfonts/cm/cmr10.pfb" 1662918130 35752 024fb6c41858982481f6968b5fc26508 ""
  "c:/texlive/2022/texmf-dist/fonts/type1/public/amsfonts/cm/cmr5.pfb" 1662918130 31809 8670ca339bf94e56da1fc21c80635e2a ""
  "c:/texlive/2022/texmf-dist/fonts/type1/public/amsfonts/cm/cmr7.pfb" 1662918130 32762 7fee39e011c23b3589931effd97b9702 ""
  "c:/texlive/2022/texmf-dist/fonts/type1/public/amsfonts/cm/cmr9.pfb" 1662918130 33993 9b89b85fd2d9df0482bd47194d1d3bf3 ""
  "c:/texlive/2022/texmf-dist/fonts/type1/public/amsfonts/cm/cmsy10.pfb" 1662918130 32569 5e5ddc8df908dea60932f3c484a54c0d ""
  "c:/texlive/2022/texmf-dist/fonts/type1/public/amsfonts/cm/cmsy5.pfb" 1662918130 32915 7bf7720c61a5b3a7ff25b0964421c9b6 ""
  "c:/texlive/2022/texmf-dist/fonts/type1/public/amsfonts/cm/cmsy7.pfb" 1662918130 32716 08e384dc442464e7285e891af9f45947 ""
  "c:/texlive/2022/texmf-dist/fonts/type1/public/amsfonts/cm/cmti10.pfb" 1662918130 37944 359e864bd06cde3b1cf57bb20757fb06 ""
  "c:/texlive/2022/texmf-dist/fonts/type1/public/cm-super/sfrm1000.pfb" 1662918731 138258 6525c253f16cededa14c7fd0da7f67b2 ""
  "c:/texlive/2022/texmf-dist/tex/context/base/mkii/supp-pdf.mkii" 1662920894 71627 94eb9990bed73c364d7f53f960cc8c5b ""
  "c:/texlive/2022/texmf-dist/tex/generic/atbegshi/atbegshi.sty" 1662918229 24708 5584a51a7101caf7e6bbf1fc27d8f7b1 ""
  "c:/texlive/2022/texmf-dist/tex/generic/babel-czech/czech.ldf" 1662918268 15910 20b36fee6c6cdcfa90232891da7a9f34 ""
  "c:/texlive/2022/texmf-dist/tex/generic/babel/babel.sty" 1662918258 151613 ca1138ead98be47bdb29e138c3880089 ""
  "c:/texlive/2022/texmf-dist/tex/generic/babel/locale/cs/babel-cs.ini" 1662918258 4462 54052feb7527870bc24ddb2cb09ea64f ""
  "c:/texlive/2022/texmf-dist/tex/generic/babel/locale/cs/babel-czech.tex" 1662918258 336 86d743381fe0d22390e59db0ebb6a6c9 ""
  "c:/texlive/2022/texmf-dist/tex/generic/babel/txtbabel.def" 1662918259 5233 d5e383ed66bf272b71b1a90b596e21c6 ""
  "c:/texlive/2022/texmf-dist/tex/generic/bigintcalc/bigintcalc.sty" 1662918481 40635 c40361e206be584d448876bba8a64a3b ""
  "c:/texlive/2022/texmf-dist/tex/generic/bitset/bitset.sty" 1662918491 33961 6b5c75130e435b2bfdb9f480a09a39f9 ""
  "c:/texlive/2022/texmf-dist/tex/generic/catchfile/catchfile.sty" 1662918595 8622 63834878edeb14dd71d58d8f22bc3e06 ""
  "c:/texlive/2022/texmf-dist/tex/generic/etexcmds/etexcmds.sty" 1662919345 7734 b98cbb34c81f667027c1e3ebdbfce34b ""
  "c:/texlive/2022/texmf-dist/tex/generic/gettitlestring/gettitlestring.sty" 1662919755 8371 9d55b8bd010bc717624922fb3477d92e ""
  "c:/texlive/2022/texmf-dist/tex/generic/iftex/ifluatex.sty" 1662920064 492 1994775aa15b0d1289725a0b1bbc2d4c ""
  "c:/texlive/2022/texmf-dist/tex/generic/iftex/iftex.sty" 1662920064 7237 bdd120a32c8fdb4b433cf9ca2e7cd98a ""
  "c:/texlive/2022/texmf-dist/tex/generic/infwarerr/infwarerr.sty" 1662920090 8356 7bbb2c2373aa810be568c29e333da8ed ""
  "c:/texlive/2022/texmf-dist/tex/generic/intcalc/intcalc.sty" 1662920107 31769 002a487f55041f8e805cfbf6385ffd97 ""
  "c:/texlive/2022/texmf-dist/tex/generic/kvdefinekeys/kvdefinekeys.sty" 1662920268 5412 d5a2436094cd7be85769db90f29250a6 ""
  "c:/texlive/2022/texmf-dist/tex/generic/kvsetkeys/kvsetkeys.sty" 1662920272 13807 952b0226d4efca026f0e19dd266dcc22 ""
  "c:/texlive/2022/texmf-dist/tex/generic/ltxcmds/ltxcmds.sty" 1662920556 17859 4409f8f50cd365c68e684407e5350b1b ""
  "c:/texlive/2022/texmf-dist/tex/generic/pdfescape/pdfescape.sty" 1662921242 19007 15924f7228aca6c6d184b115f4baa231 ""
  "c:/texlive/2022/texmf-dist/tex/generic/pdftexcmds/pdftexcmds.sty" 1662921265 20089 80423eac55aa175305d35b49e04fe23b ""
  "c:/texlive/2022/texmf-dist/tex/generic/pgf/basiclayer/pgfcore.code.tex" 1662921292 992 855ff26741653ab54814101ca36e153c ""
  "c:/texlive/2022/texmf-dist/tex/generic/pgf/basiclayer/pgfcorearrows.code.tex" 1662921292 43820 1fef971b75380574ab35a0d37fd92608 ""
  "c:/texlive/2022/texmf-dist/tex/generic/pgf/basiclayer/pgfcoreexternal.code.tex" 1662921292 19324 f4e4c6403dd0f1605fd20ed22fa79dea ""
  "c:/texlive/2022/texmf-dist/tex/generic/pgf/basiclayer/pgfcoregraphicstate.code.tex" 1662921292 6038 ccb406740cc3f03bbfb58ad504fe8c27 ""
  "c:/texlive/2022/texmf-dist/tex/generic/pgf/basiclayer/pgfcoreimage.code.tex" 1662921292 6944 e12f8f7a7364ddf66f93ba30fb3a3742 ""
  "c:/texlive/2022/texmf-dist/tex/generic/pgf/basiclayer/pgfcorelayers.code.tex" 1662921292 4883 42daaf41e27c3735286e23e48d2d7af9 ""
  "c:/texlive/2022/texmf-dist/tex/generic/pgf/basiclayer/pgfcoreobjects.code.tex" 1662921292 2544 8c06d2a7f0f469616ac9e13db6d2f842 ""
  "c:/texlive/2022/texmf-dist/tex/generic/pgf/basiclayer/pgfcorepathconstruct.code.tex" 1662921292 44195 5e390c414de027626ca5e2df888fa68d ""
  "c:/texlive/2022/texmf-dist/tex/generic/pgf/basiclayer/pgfcorepathprocessing.code.tex" 1662921292 17311 2ef6b2e29e2fc6a2fc8d6d652176e257 ""
  "c:/texlive/2022/texmf-dist/tex/generic/pgf/basiclayer/pgfcorepathusage.code.tex" 1662921292 21302 788a79944eb22192a4929e46963a3067 ""
  "c:/texlive/2022/texmf-dist/tex/generic/pgf/basiclayer/pgfcorepatterns.code.tex" 1662921292 9690 01feb7cde25d4293ef36eef45123eb80 ""
  "c:/texlive/2022/texmf-dist/tex/generic/pgf/basiclayer/pgfcorepoints.code.tex" 1662921292 33335 dd1fa4814d4e51f18be97d88bf0da60c ""
  "c:/texlive/2022/texmf-dist/tex/generic/pgf/basiclayer/pgfcorequick.code.tex" 1662921292 2965 4c2b1f4e0826925746439038172e5d6f ""
  "c:/texlive/2022/texmf-dist/tex/generic/pgf/basiclayer/pgfcorerdf.code.tex" 1662921292 5196 2cc249e0ee7e03da5f5f6589257b1e5b ""
  "c:/texlive/2022/texmf-dist/tex/generic/pgf/basiclayer/pgfcorescopes.code.tex" 1662921292 20726 d4c8db1e2e53b72721d29916314a22ea ""
  "c:/texlive/2022/texmf-dist/tex/generic/pgf/basiclayer/pgfcoreshade.code.tex" 1662921292 35249 abd4adf948f960299a4b3d27c5dddf46 ""
  "c:/texlive/2022/texmf-dist/tex/generic/pgf/basiclayer/pgfcoretransformations.code.tex" 1662921292 21989 fdc867d05d228316de137a9fc5ec3bbe ""
  "c:/texlive/2022/texmf-dist/tex/generic/pgf/basiclayer/pgfcoretransparency.code.tex" 1662921292 8893 e851de2175338fdf7c17f3e091d94618 ""
  "c:/texlive/2022/texmf-dist/tex/generic/pgf/frontendlayer/tikz/libraries/tikzlibraryarrows.code.tex" 1662921292 319 225dfe354ba678ff3c194968db39d447 ""
  "c:/texlive/2022/texmf-dist/tex/generic/pgf/frontendlayer/tikz/libraries/tikzlibrarydecorations.code.tex" 1662921292 5493 23e371e6fe3e7e42533d6d6c15662e0d ""
  "c:/texlive/2022/texmf-dist/tex/generic/pgf/frontendlayer/tikz/libraries/tikzlibrarydecorations.pathmorphing.code.tex" 1662921292 321 cdd11262840e01e25374a2d458f15e99 ""
  "c:/texlive/2022/texmf-dist/tex/generic/pgf/frontendlayer/tikz/libraries/tikzlibrarypositioning.code.tex" 1662921292 3937 3f208572dd82c71103831da976d74f1a ""
  "c:/texlive/2022/texmf-dist/tex/generic/pgf/frontendlayer/tikz/libraries/tikzlibrarytopaths.code.tex" 1662921292 11518 738408f795261b70ce8dd47459171309 ""
  "c:/texlive/2022/texmf-dist/tex/generic/pgf/frontendlayer/tikz/libraries/tikzlibrarytrees.code.tex" 1662921292 3360 d7547ac810d5d8570c7b6f7c224d69da ""
  "c:/texlive/2022/texmf-dist/tex/generic/pgf/frontendlayer/tikz/tikz.code.tex" 1662921292 186007 6e7dfe0bd57520fd5f91641aa72dcac8 ""
  "c:/texlive/2022/texmf-dist/tex/generic/pgf/libraries/decorations/pgflibrarydecorations.pathmorphing.code.tex" 1662921292 8843 5533436db3e30fbad1e0440db6027dac ""
  "c:/texlive/2022/texmf-dist/tex/generic/pgf/libraries/pgflibraryarrows.code.tex" 1662921292 31874 89148c383c49d4c72114a76fd0062299 ""
  "c:/texlive/2022/texmf-dist/tex/generic/pgf/libraries/pgflibraryplothandlers.code.tex" 1662921292 32995 ac577023e12c0e4bd8aa420b2e852d1a ""
  "c:/texlive/2022/texmf-dist/tex/generic/pgf/math/pgfint.code.tex" 1662921292 3063 8c415c68a0f3394e45cfeca0b65f6ee6 ""
  "c:/texlive/2022/texmf-dist/tex/generic/pgf/math/pgfmath.code.tex" 1662921292 521 8e224a7af69b7fee4451d1bf76b46654 ""
  "c:/texlive/2022/texmf-dist/tex/generic/pgf/math/pgfmathcalc.code.tex" 1662921292 13391 84d29568c13bdce4133ab4a214711112 ""
  "c:/texlive/2022/texmf-dist/tex/generic/pgf/math/pgfmathfloat.code.tex" 1662921292 104935 184ed87524e76d4957860df4ce0cd1c3 ""
  "c:/texlive/2022/texmf-dist/tex/generic/pgf/math/pgfmathfunctions.base.code.tex" 1662921292 10165 cec5fa73d49da442e56efc2d605ef154 ""
  "c:/texlive/2022/texmf-dist/tex/generic/pgf/math/pgfmathfunctions.basic.code.tex" 1662921292 28178 41c17713108e0795aac6fef3d275fbca ""
  "c:/texlive/2022/texmf-dist/tex/generic/pgf/math/pgfmathfunctions.code.tex" 1662921292 9989 c55967bf45126ff9b061fa2ca0c4694f ""
  "c:/texlive/2022/texmf-dist/tex/generic/pgf/math/pgfmathfunctions.comparison.code.tex" 1662921292 3865 ac538ab80c5cf82b345016e474786549 ""
  "c:/texlive/2022/texmf-dist/tex/generic/pgf/math/pgfmathfunctions.integerarithmetics.code.tex" 1662921292 3177 27d85c44fbfe09ff3b2cf2879e3ea434 ""
  "c:/texlive/2022/texmf-dist/tex/generic/pgf/math/pgfmathfunctions.misc.code.tex" 1662921292 11024 0179538121bc2dba172013a3ef89519f ""
  "c:/texlive/2022/texmf-dist/tex/generic/pgf/math/pgfmathfunctions.random.code.tex" 1662921292 7854 4176998eeefd8745ac6d2d4bd9c98451 ""
  "c:/texlive/2022/texmf-dist/tex/generic/pgf/math/pgfmathfunctions.round.code.tex" 1662921292 3379 781797a101f647bab82741a99944a229 ""
  "c:/texlive/2022/texmf-dist/tex/generic/pgf/math/pgfmathfunctions.trigonometric.code.tex" 1662921292 92405 f515f31275db273f97b9d8f52e1b0736 ""
  "c:/texlive/2022/texmf-dist/tex/generic/pgf/math/pgfmathparser.code.tex" 1662921292 37376 11cd75aac3da1c1b152b2848f30adc14 ""
  "c:/texlive/2022/texmf-dist/tex/generic/pgf/math/pgfmathutil.code.tex" 1662921292 8471 c2883569d03f69e8e1cabfef4999cfd7 ""
  "c:/texlive/2022/texmf-dist/tex/generic/pgf/modules/pgfmoduledecorations.code.tex" 1662921292 71722 aa25655703db0306f6401798e312b7b8 ""
  "c:/texlive/2022/texmf-dist/tex/generic/pgf/modules/pgfmodulematrix.code.tex" 1662921292 21201 08d231a2386e2b61d64641c50dc15abd ""
  "c:/texlive/2022/texmf-dist/tex/generic/pgf/modules/pgfmoduleplot.code.tex" 1662921292 16121 346f9013d34804439f7436ff6786cef7 ""
  "c:/texlive/2022/texmf-dist/tex/generic/pgf/modules/pgfmoduleshapes.code.tex" 1662921292 44784 cedaa399d15f95e68e22906e2cc09ef8 ""
  "c:/texlive/2022/texmf-dist/tex/generic/pgf/pgf.revision.tex" 1662921292 465 d68603f8b820ea4a08cce534944db581 ""
  "c:/texlive/2022/texmf-dist/tex/generic/pgf/systemlayer/pgf.cfg" 1662921292 926 2963ea0dcf6cc6c0a770b69ec46a477b ""
  "c:/texlive/2022/texmf-dist/tex/generic/pgf/systemlayer/pgfsys-common-pdf.def" 1662921292 5546 f3f24d7898386cb7daac70bdd2c4d6dc ""
  "c:/texlive/2022/texmf-dist/tex/generic/pgf/systemlayer/pgfsys-pdftex.def" 1662921292 12601 4786e597516eddd82097506db7cfa098 ""
  "c:/texlive/2022/texmf-dist/tex/generic/pgf/systemlayer/pgfsys.code.tex" 1662921292 61163 9b2eefc24e021323e0fc140e9826d016 ""
  "c:/texlive/2022/texmf-dist/tex/generic/pgf/systemlayer/pgfsysprotocol.code.tex" 1662921292 1896 b8e0ca0ac371d74c0ca05583f6313c91 ""
  "c:/texlive/2022/texmf-dist/tex/generic/pgf/systemlayer/pgfsyssoftpath.code.tex" 1662921292 7778 53c8b5623d80238f6a20aa1df1868e63 ""
  "c:/texlive/2022/texmf-dist/tex/generic/pgf/utilities/pgffor.code.tex" 1662921292 23997 a4bed72405fa644418bea7eac2887006 ""
  "c:/texlive/2022/texmf-dist/tex/generic/pgf/utilities/pgfkeys.code.tex" 1662921292 37060 797782f0eb50075c9bc952374d9a659a ""
  "c:/texlive/2022/texmf-dist/tex/generic/pgf/utilities/pgfkeysfiltered.code.tex" 1662921292 37431 9abe862035de1b29c7a677f3205e3d9f ""
  "c:/texlive/2022/texmf-dist/tex/generic/pgf/utilities/pgfrcs.code.tex" 1662921292 4494 af17fb7efeafe423710479858e42fa7e ""
  "c:/texlive/2022/texmf-dist/tex/generic/pgf/utilities/pgfutil-common-lists.tex" 1662921292 7251 fb18c67117e09c64de82267e12cd8aa4 ""
  "c:/texlive/2022/texmf-dist/tex/generic/pgf/utilities/pgfutil-common.tex" 1662921292 29274 e15c5b7157d21523bd9c9f1dfa146b8e ""
  "c:/texlive/2022/texmf-dist/tex/generic/pgf/utilities/pgfutil-latex.def" 1662921292 6825 a2b0ea5b539dda0625e99dd15785ab59 ""
  "c:/texlive/2022/texmf-dist/tex/generic/uniquecounter/uniquecounter.sty" 1662922777 7008 f92eaa0a3872ed622bbf538217cd2ab7 ""
  "c:/texlive/2022/texmf-dist/tex/generic/xkeyval/xkeyval.tex" 1662923023 19231 27205ee17aaa2902aea3e0c07a3cfc65 ""
  "c:/texlive/2022/texmf-dist/tex/generic/xkeyval/xkvutils.tex" 1662923023 7677 9cb1a74d945bc9331f2181c0a59ff34a ""
  "c:/texlive/2022/texmf-dist/tex/latex/amscls/amsthm.sty" 1662918127 12594 0d51ac3a545aaaa555021326ff22a6cc ""
  "c:/texlive/2022/texmf-dist/tex/latex/amsfonts/amsfonts.sty" 1662918130 5949 3f3fd50a8cc94c3d4cbf4fc66cd3df1c ""
  "c:/texlive/2022/texmf-dist/tex/latex/amsfonts/amssymb.sty" 1662918130 13829 94730e64147574077f8ecfea9bb69af4 ""
  "c:/texlive/2022/texmf-dist/tex/latex/amsfonts/umsa.fd" 1662918130 961 6518c6525a34feb5e8250ffa91731cff ""
  "c:/texlive/2022/texmf-dist/tex/latex/amsfonts/umsb.fd" 1662918130 961 d02606146ba5601b5645f987c92e6193 ""
  "c:/texlive/2022/texmf-dist/tex/latex/amsmath/amsbsy.sty" 1662918133 2222 78b930a5a6e3dc2ac69b78c2057b94d7 ""
  "c:/texlive/2022/texmf-dist/tex/latex/amsmath/amsgen.sty" 1662918133 4173 c989ee3ced31418e3593916ab26c793a ""
  "c:/texlive/2022/texmf-dist/tex/latex/amsmath/amsmath.sty" 1662918133 88393 1adf6fa3f245270d06e3d4f8910f7fc5 ""
  "c:/texlive/2022/texmf-dist/tex/latex/amsmath/amsopn.sty" 1662918133 4474 f04cd1cc7bd76eb033e6fb12eb6a0d77 ""
  "c:/texlive/2022/texmf-dist/tex/latex/amsmath/amstext.sty" 1662918133 2444 70065bddd85997dc1fd0bb7ae634e5fa ""
  "c:/texlive/2022/texmf-dist/tex/latex/atveryend/atveryend.sty" 1662918235 19336 ce7ae9438967282886b3b036cfad1e4d ""
  "c:/texlive/2022/texmf-dist/tex/latex/auxhook/auxhook.sty" 1662918252 3935 57aa3c3e203a5c2effb4d2bd2efbc323 ""
  "c:/texlive/2022/texmf-dist/tex/latex/base/article.cls" 1662920306 20144 7555b7429d80bef287ebb82117811acc ""
  "c:/texlive/2022/texmf-dist/tex/latex/base/atbegshi-ltx.sty" 1662920306 3122 8df402c6591ccc8ed35ce64c1c49c50b ""
  "c:/texlive/2022/texmf-dist/tex/latex/base/atveryend-ltx.sty" 1662920306 2462 2ab3964e30f8e7a2977395016edcbbc6 ""
  "c:/texlive/2022/texmf-dist/tex/latex/base/ifthen.sty" 1662920306 5319 48d7f3cfa322abd2788e3c09d624b922 ""
  "c:/texlive/2022/texmf-dist/tex/latex/base/size10.clo" 1662920306 8448 e0391042ca0932ede1098ae14ada60ba ""
  "c:/texlive/2022/texmf-dist/tex/latex/caption/caption.sty" 1662918585 54291 b8e5c600d4aa37b48a740dd2a6c26163 ""
  "c:/texlive/2022/texmf-dist/tex/latex/caption/caption3.sty" 1662918585 71241 d2cd3a1c5acef9cb31f945b93c0bb6e3 ""
  "c:/texlive/2022/texmf-dist/tex/latex/caption/subcaption.sty" 1662918585 11546 6c5257d230d8c5626812b45bc2f31212 ""
  "c:/texlive/2022/texmf-dist/tex/latex/changepage/changepage.sty" 1662918636 4523 a9044e2dc40e764dac60d2acda7ae919 ""
  "c:/texlive/2022/texmf-dist/tex/latex/epstopdf-pkg/epstopdf-base.sty" 1662919307 13886 d1306dcf79a944f6988e688c1785f9ce ""
  "c:/texlive/2022/texmf-dist/tex/latex/eso-pic/eso-pic.sty" 1662919334 11772 8d0db0794e6aeb45348f60bbe3a3e093 ""
  "c:/texlive/2022/texmf-dist/tex/latex/etoolbox/etoolbox.sty" 1662919393 46845 3b58f70c6e861a13d927bff09d35ecbc ""
  "c:/texlive/2022/texmf-dist/tex/latex/graphics-cfg/color.cfg" 1662919834 1213 620bba36b25224fa9b7e1ccb4ecb76fd ""
  "c:/texlive/2022/texmf-dist/tex/latex/graphics-cfg/graphics.cfg" 1662919834 1224 978390e9c2234eab29404bc21b268d1e ""
  "c:/texlive/2022/texmf-dist/tex/latex/graphics-def/pdftex.def" 1662919835 19103 48d29b6e2a64cb717117ef65f107b404 ""
  "c:/texlive/2022/texmf-dist/tex/latex/graphics/color.sty" 1662919833 7233 e46ce9241d2b2ca2a78155475fdd557a ""
  "c:/texlive/2022/texmf-dist/tex/latex/graphics/graphics.sty" 1662919833 18387 8f900a490197ebaf93c02ae9476d4b09 ""
  "c:/texlive/2022/texmf-dist/tex/latex/graphics/graphicx.sty" 1662919833 8010 a8d949cbdbc5c983593827c9eec252e1 ""
  "c:/texlive/2022/texmf-dist/tex/latex/graphics/keyval.sty" 1662919833 2671 7e67d78d9b88c845599a85b2d41f2e39 ""
  "c:/texlive/2022/texmf-dist/tex/latex/graphics/lscape.sty" 1662919833 1822 5e4f855a9ecb640f34881e4b457fa9aa ""
  "c:/texlive/2022/texmf-dist/tex/latex/graphics/mathcolor.ltx" 1662919833 3171 1cf0d440b5464e2f034398ce4ef36f75 ""
  "c:/texlive/2022/texmf-dist/tex/latex/graphics/trig.sty" 1662919833 4023 293ea1c16429fc0c4cf605f4da1791a9 ""
  "c:/texlive/2022/texmf-dist/tex/latex/hycolor/hycolor.sty" 1662919993 17914 4c28a13fc3d975e6e81c9bea1d697276 ""
  "c:/texlive/2022/texmf-dist/tex/latex/hyperref/hpdftex.def" 1662920000 47964 eeb2a5ee738d9e82276d44d01b7f8855 ""
  "c:/texlive/2022/texmf-dist/tex/latex/hyperref/hyperref.sty" 1662920000 222567 bf49823ea499fb02153a3135548e8552 ""
  "c:/texlive/2022/texmf-dist/tex/latex/hyperref/nameref.sty" 1662920000 12951 45609f529c67717a6d5046d7f3d77f03 ""
  "c:/texlive/2022/texmf-dist/tex/latex/hyperref/pd1enc.def" 1662920000 14249 5722edfd0a97304b67eaad1229597886 ""
  "c:/texlive/2022/texmf-dist/tex/latex/hyperref/puenc.def" 1662920000 117125 21f7791400296a3ca7ace2461e9f1794 ""
  "c:/texlive/2022/texmf-dist/tex/latex/ifplatform/ifplatform.sty" 1662920061 3910 e04f6a6d983bdbdb024917b7ccc80262 ""
  "c:/texlive/2022/texmf-dist/tex/latex/import/import.sty" 1662920081 6201 0ad8b5da8e12f60a88d546b2198a56f2 ""
  "c:/texlive/2022/texmf-dist/tex/latex/koma-script/scrbase.sty" 1662920246 100782 c147d599f61191f5eb4f7ea1782aa95c ""
  "c:/texlive/2022/texmf-dist/tex/latex/koma-script/scrlfile-hook.sty" 1662920246 11185 15ad3c57dee36789c4535127fbe90780 ""
  "c:/texlive/2022/texmf-dist/tex/latex/koma-script/scrlfile.sty" 1662920246 3328 98be685db9653809ef19e6319e5a8621 ""
  "c:/texlive/2022/texmf-dist/tex/latex/koma-script/scrlogo.sty" 1662920246 2162 55777a451fb9e49ed8c187c010e3e7dc ""
  "c:/texlive/2022/texmf-dist/tex/latex/kvoptions/kvoptions.sty" 1662920270 22555 6d8e155cfef6d82c3d5c742fea7c992e ""
  "c:/texlive/2022/texmf-dist/tex/latex/l3backend/l3backend-pdftex.def" 1662920278 30282 33c465a64f2bd5ad4a68a7b2f555a29b ""
  "c:/texlive/2022/texmf-dist/tex/latex/l3kernel/expl3.sty" 1662920283 6107 1fbf8befd9fcfa4c9042e12ff85ce8d1 ""
  "c:/texlive/2022/texmf-dist/tex/latex/l3packages/l3keys2e/l3keys2e.sty" 1662920286 4674 893a007717279c6f468df9e98de9aa96 ""
  "c:/texlive/2022/texmf-dist/tex/latex/l3packages/xparse/xparse.sty" 1662920286 6812 d2f733947d73940b228845829d585700 ""
  "c:/texlive/2022/texmf-dist/tex/latex/latexconfig/epstopdf-sys.cfg" 1662920367 678 4792914a8f45be57bb98413425e4c7af ""
  "c:/texlive/2022/texmf-dist/tex/latex/letltxmacro/letltxmacro.sty" 1662920409 5766 13a9e8766c47f30327caf893ece86ac8 ""
  "c:/texlive/2022/texmf-dist/tex/latex/multirow/multirow.sty" 1662920926 6149 2398eec4faa1ee24ff761581e580ecf1 ""
  "c:/texlive/2022/texmf-dist/tex/latex/pdflscape/pdflscape.sty" 1662921246 6575 25396d208d8f2b9395d06ef315d5886c ""
  "c:/texlive/2022/texmf-dist/tex/latex/pdfpages/pdfpages.sty" 1662921254 54640 824e6029b804a13a512ccf1f10e75da0 ""
  "c:/texlive/2022/texmf-dist/tex/latex/pdfpages/pppdftex.def" 1662921254 6591 2b7dafd86674292db66a862dead10737 ""
  "c:/texlive/2022/texmf-dist/tex/latex/pgf/basiclayer/pgf.sty" 1662921292 1090 bae35ef70b3168089ef166db3e66f5b2 ""
  "c:/texlive/2022/texmf-dist/tex/latex/pgf/basiclayer/pgfcore.sty" 1662921292 410 615550c46f918fcbee37641b02a862d9 ""
  "c:/texlive/2022/texmf-dist/tex/latex/pgf/compatibility/pgfcomp-version-0-65.sty" 1662921292 21013 f4ff83d25bb56552493b030f27c075ae ""
  "c:/texlive/2022/texmf-dist/tex/latex/pgf/compatibility/pgfcomp-version-1-18.sty" 1662921292 989 c49c8ae06d96f8b15869da7428047b1e ""
  "c:/texlive/2022/texmf-dist/tex/latex/pgf/frontendlayer/tikz.sty" 1662921292 339 c2e180022e3afdb99c7d0ea5ce469b7d ""
  "c:/texlive/2022/texmf-dist/tex/latex/pgf/math/pgfmath.sty" 1662921292 306 c56a323ca5bf9242f54474ced10fca71 ""
  "c:/texlive/2022/texmf-dist/tex/latex/pgf/systemlayer/pgfsys.sty" 1662921292 443 8c872229db56122037e86bcda49e14f3 ""
  "c:/texlive/2022/texmf-dist/tex/latex/pgf/utilities/pgffor.sty" 1662921292 348 ee405e64380c11319f0e249fed57e6c5 ""
  "c:/texlive/2022/texmf-dist/tex/latex/pgf/utilities/pgfkeys.sty" 1662921292 274 5ae372b7df79135d240456a1c6f2cf9a ""
  "c:/texlive/2022/texmf-dist/tex/latex/pgf/utilities/pgfrcs.sty" 1662921292 325 f9f16d12354225b7dd52a3321f085955 ""
  "c:/texlive/2022/texmf-dist/tex/latex/ragged2e/ragged2e.sty" 1662921710 9244 53da791cc5f775633a8a852b08533fe2 ""
  "c:/texlive/2022/texmf-dist/tex/latex/refcount/refcount.sty" 1662921741 9878 9e94e8fa600d95f9c7731bb21dfb67a4 ""
  "c:/texlive/2022/texmf-dist/tex/latex/rerunfilecheck/rerunfilecheck.sty" 1662921762 9714 ba3194bd52c8499b3f1e3eb91d409670 ""
  "c:/texlive/2022/texmf-dist/tex/latex/siunitx/siunitx.sty" 1662922004 308081 300dbf99871caf3c613a0bbbc0073ab1 ""
  "c:/texlive/2022/texmf-dist/tex/latex/subfiles/subfiles.sty" 1662922150 5262 70ab9987ec94ed2beeb5c2d951d465f6 ""
  "c:/texlive/2022/texmf-dist/tex/latex/svg/svg.sty" 1662922168 43468 671ae75b3a15019004495eff4c0911e8 ""
  "c:/texlive/2022/texmf-dist/tex/latex/tikzsymbols/tikzsymbols.sty" 1662922529 132239 eb912f9962d808256603d31d845cbf37 ""
  "c:/texlive/2022/texmf-dist/tex/latex/todonotes/todonotes.sty" 1662922598 20709 ec0ab3eaf79cba9afda8dd45da4e5c5b ""
  "c:/texlive/2022/texmf-dist/tex/latex/tools/array.sty" 1662922604 12694 4770336659ba563be5de2e0739d61ddc ""
  "c:/texlive/2022/texmf-dist/tex/latex/tools/calc.sty" 1662922604 10214 de3e21cfc0eccc98ca7f8dac0ef263d2 ""
  "c:/texlive/2022/texmf-dist/tex/latex/tools/shellesc.sty" 1662922604 4118 0aa319c56935d7d217b6a8bf300b81b7 ""
  "c:/texlive/2022/texmf-dist/tex/latex/tools/xspace.sty" 1662922604 4545 4c279ac9292a1be8afa9ab2f1d3299c2 ""
  "c:/texlive/2022/texmf-dist/tex/latex/translations/translations.sty" 1662922637 44247 2188b95d0ee74e31eca4d316263c58a7 ""
  "c:/texlive/2022/texmf-dist/tex/latex/transparent/transparent.sty" 1662922640 4155 541de118e0abc42fce3317addc90afb0 ""
  "c:/texlive/2022/texmf-dist/tex/latex/trimspaces/trimspaces.sty" 1662922647 1380 971a51b00a14503ddf754cab24c3f209 ""
  "c:/texlive/2022/texmf-dist/tex/latex/url/url.sty" 1662922813 12796 8edb7d69a20b857904dd0ea757c14ec9 ""
  "c:/texlive/2022/texmf-dist/tex/latex/xcolor/xcolor.sty" 1662922960 56148 51a9a8571c07b9921892ae11063ae853 ""
  "c:/texlive/2022/texmf-dist/tex/latex/xkeyval/xkeyval.sty" 1662923023 4937 4ce600ce9bd4ec84d0250eb6892fcf4f ""
  "c:/texlive/2022/texmf-dist/web2c/texmf.cnf" 1662918033 40171 cdab547de63d26590bebb3baff566530 ""
  "c:/texlive/2022/texmf-var/fonts/map/pdftex/updmap/pdftex.map" 1662923167 4635069 7677ee69604aae14ed48b153c111a7f7 ""
  "c:/texlive/2022/texmf-var/web2c/pdftex/pdflatex.fmt" 1662923288 3059210 69968d4015260d199dd9917e13030b3f ""
  "c:/texlive/2022/texmf.cnf" 1662923135 713 e69b156964470283e0530f5060668171 ""
  "images//initial/BJrecOnJump.svg" 1690839318 57414 cf0823b220a7cd41c64f48b2577d6230 ""
  "images//initial/BJrecOnSin.svg" 1690839323 63598 ee9c1f1eacfdaa4972f14eaaeae8e75c ""
  "images//initial/MMALElinlininterfce.svg" 1690863485 70931 9daa9ead9ff6b90affd433fb8be72ec0 ""
  "images//initial/MMALEsinsininterface.svg" 1690861512 61723 bbcc1114ac735fb8cca92472654791bc ""
  "images//initial/constrecOnjump.svg" 1690839326 57268 2db7617c533c8a3db616c72eebfc62a6 ""
  "images//initial/constrecOnlinear.svg" 1690839332 60564 7c966d355f73e726683522d371c68d17 ""
  "images//initial/jumpsBJ.svg" 1690839342 57243 2dea34f4ffba725a5bcf3b1931da438b ""
  "images//initial/jumpsNotBJ.svg" 1690839350 60156 2348380806a347d875562100c224e2e5 ""
  "images//initial/linrecOnJump.svg" 1690925457 60186 270a6755bf158a7402b03d99f659f3bd ""
  "images//initial/linrecOnSin.svg" 1690839372 61005 2d2d0ae54da20c2c9a5a7df8d1bd892f ""
  "images//initial/polyrecOnJump.svg" 1690839376 60177 bd5d1099b4743a4ef8522f2078a5b383 ""
  "images//initial/polyrecOnSin.svg" 1690922295 63593 c5910ce52016ad91158a68479d8d3681 ""
  "images//misc/limiters.svg" 1690867503 30417 699f8692437c5a96037e98ccbcb6121d ""
  "images/cyclic/constconstmultimat.svg" 1690992783 69255 830c5e0a83565e7e6714e908767b8507 ""
  "images/cyclic/constconstour.svg" 1690949707 63099 3f5ce77538573bd11eb7f409c4174d05 ""
  "images/cyclic/jump.svg" 1691005156 46595 1ad4b64db4b9f82018a77079a6dd54f1 ""
  "images/cyclic/quadmap.svg" 1691005156 40946 f2a32c1964f482bbac3f9016e94719a3 ""
  "images/cyclic/quadquad.svg" 1691005155 47057 c1b3989263ff40cf35555565d5499a1a ""
  "images/cyclic/quadquadzoom.svg" 1691004733 37810 7f9148e25d4fa4bcffeef53bcbc4e5a2 ""
  "images/cyclic/shape.svg" 1691005155 51791 074ed4b1900dfd9f8821904d4f0e65db ""
  "images/cyclic/sinremap.svg" 1691005156 48931 b39b3bddd5f77723a1db83f80aca8860 ""
  "images/fullsim/SOvariation.svg" 1691005157 37650 e9026ec752620969b219bfb0382cb0bc ""
  "images/fullsim/sodnumberofcells.svg" 1691005156 42881 2467c2e92380083a15b89c4013e10cfe ""
  "images/fullsim/sodvariation.svg" 1691005156 43371 dc0d70f2cd0e1fa766a968ee1457239c ""
  "images/fullsim/sodvariationzoom.svg" 1691006151 41578 dbabb82d883e4b7e37671575f4d29a55 ""
  "images/fullsim/sodwaves.svg" 1690983806 115459 1f94e3e058dc4e941b0ae370ece7def0 ""
  "images/misc/meshmovement.svg" 1691000385 595440 5352cac0d42ffcaf2ef9165abf94bdac ""
  "images/misc/thinc.svg" 1691005156 39627 fa50635104e68b17b7dc933e80acccc1 ""
  "main.tex" 1690996528 2909 9fceb672d4b1057af42113c10934150b ""
  "scannedPdfs/Titulnistrana.pdf" 1690919943 119985 ad0883b5fcf0c73a594be8ba9b0cba16 ""
  "scannedPdfs/prohlaseni.pdf" 1690876564 183544 73e6379fa98fdfd374af7c5a7c11d7a7 ""
  "scannedPdfs/zadani.pdf" 1690874005 1086207 4ed65cf71c4a9415a917e4c73c1320bf ""
  "sections/dodatek.tex" 1681707813 206 1fbe2691f145491758d58a99db89c1de ""
  "sections/hlavnitext/alemetody.tex" 1690960520 6790 6d15049beabeba590476753f3e9f1908 ""
  "sections/hlavnitext/eulerovskykrok.tex" 1690991872 36199 1b1dfcd971e13c9191a98951a94d7bb0 ""
  "sections/hlavnitext/implementace.tex" 1690991356 2379 37064811e207eb3e37d2d9839ff66523 ""
  "sections/hlavnitext/lagrangeovskykrok.tex" 1690991458 14483 a3ce2e01da76da83e19d937c0d6353bf ""
  "sections/hlavnitext/multimat.tex" 1690991233 7968 eeda99059684a71326b8753a274b7753 ""
  "sections/hlavnitext/testy.tex" 1691008128 15011 b520173dfd0c15bf6b5369a3145e6828 ""
  "sections/hlavnitext/vysledky.tex" 1691008527 15069 afaf3f30395a759081a51602bd78f9dc ""
  "sections/uvod.tex" 1690923929 2990 ad1072af3c405e5cd6d7277bdad6b11c ""
  "sections/zacatek.tex" 1690919639 3400 e5a1ebabe462f1ce67e85f54834d1794 ""
  "sections/zaver.tex" 1690991233 2261 9cbc72c329c4fa875bced73d35834649 ""
  "svg-inkscape/BJrecOnJump_svg-raw.pdf" 1690840347 32025 1e93d4f9e8c01258a8d8a80894180f13 ""
  "svg-inkscape/BJrecOnSin_svg-raw.pdf" 1690840345 40530 e392733ac1c5f1b83e8b8c758d842187 ""
  "svg-inkscape/MMALElinlininterfce_svg-tex.pdf" 1690863629 111684 2672960918c96497b24b4272a5d13797 ""
  "svg-inkscape/MMALElinlininterfce_svg-tex.pdf_tex" 1690863629 2097 99de4de445b1314b908480107f87ce7a ""
  "svg-inkscape/MMALEsinsininterface_svg-tex.pdf" 1690863629 81549 87350da8c3a34e31d9e2dffda483bd30 ""
  "svg-inkscape/MMALEsinsininterface_svg-tex.pdf_tex" 1690863629 2099 f7f09c62c851a0aef2b7701ea1c93772 ""
  "svg-inkscape/SOvariation_svg-raw.pdf" 1691005256 27584 637b1d4884d8a7edc7ca2969c244500e ""
  "svg-inkscape/constconstmultimat_svg-raw.pdf" 1690993065 107520 44a51e35a56f88ce863848e16b09feea ""
  "svg-inkscape/constconstour_svg-raw.pdf" 1690955282 42552 de5ded827a318991bc60e9df254e994e ""
  "svg-inkscape/constrecOnjump_svg-raw.pdf" 1690839679 31732 bdb388c2fa91b5dd73da5f6a97d4964c ""
  "svg-inkscape/constrecOnlinear_svg-raw.pdf" 1690839679 35825 8020a7b2340406a908d94f73c9db3867 ""
  "svg-inkscape/jump_svg-raw.pdf" 1691005253 40876 83dbb58b349181606b9ac81e7ace7d42 ""
  "svg-inkscape/jumpsBJ_svg-raw.pdf" 1690840355 31757 b42b893c0b4616a4978d3beccf0ac544 ""
  "svg-inkscape/jumpsNotBJ_svg-raw.pdf" 1690840354 33051 8fb8dac5ed20dd867ed2b130579eb80e ""
  "svg-inkscape/limiters_svg-raw.pdf" 1690867566 20754 56e4276b90b1b888e4f17f7762faf6ae ""
  "svg-inkscape/linrecOnJump_svg-raw.pdf" 1690925500 32598 1657362c69d817a2b8de14a869de067b ""
  "svg-inkscape/linrecOnSin_svg-raw.pdf" 1690925500 36943 4d9ce67a585c05c889cb62a03aaa6848 ""
  "svg-inkscape/meshmovement_svg-raw.pdf" 1691000455 784011 137bb8a52668b504f411f72a9f9793e5 ""
  "svg-inkscape/polyrecOnJump_svg-raw.pdf" 1690840350 33371 4c09784d25ac2af56d4f5f98aa10ebdb ""
  "svg-inkscape/polyrecOnSin_svg-raw.pdf" 1690922369 42792 1c5487053dff1133e4994cdce66e1159 ""
  "svg-inkscape/quadmap_svg-raw.pdf" 1691005252 38471 b8542723a18eba52fd0be30b6959b0fb ""
  "svg-inkscape/quadquad_svg-raw.pdf" 1691005254 33331 4dedb7fbd5b488968958d19337726721 ""
  "svg-inkscape/quadquadzoom_svg-raw.pdf" 1691004970 27396 7eb87ef4adf6f8ccf82b6928dcbdd20d ""
  "svg-inkscape/shape_svg-raw.pdf" 1691005255 40947 7df06eb7d592f6adb45fd94e18b833e7 ""
  "svg-inkscape/sinremap_svg-raw.pdf" 1691005252 43687 80c090e03bbdb43792dfc1fe3d8c52fd ""
  "svg-inkscape/sodnumberofcells_svg-raw.pdf" 1691005256 40260 b2c2cd7cc54c39128025904eee9335f4 ""
  "svg-inkscape/sodvariation_svg-raw.pdf" 1691005255 30592 7f8a4f44486ade46ab0989024f287de9 ""
  "svg-inkscape/sodvariationzoom_svg-raw.pdf" 1691006201 35381 a4622a89734343f1acb090ad26bbcde0 ""
  "svg-inkscape/sodwaves_svg-raw.pdf" 1690983807 297393 0242b60f1e423050a8903f5bbd580da3 ""
  "svg-inkscape/thinc_svg-raw.pdf" 1691005251 19062 03e09495dfc3387ba2b621c0a6c5f41f ""
  "temp/main.aux" 1691008533 22332 5bd621b3dd0da126118ed963df5e752e "pdflatex"
  "temp/main.bbl" 1691008135 6873 785311301a50f03e9e86cef04b0678ae "bibtex temp/main"
  "temp/main.out" 1691008533 6380 7fb5dddcb62d74a22fb4aaa565c677ba "pdflatex"
  "temp/main.toc" 1691008533 3302 f82ab51f092c5cd697f860a70b9df682 "pdflatex"
  "temp/nul:" 0 -1 0 ""
  "temp/nul:.tex" 0 -1 0 ""
  (generated)
  "temp/main.aux"
  "temp/main.log"
  "temp/main.out"
  "temp/main.pdf"
  "temp/main.toc"
