\relax 
\providecommand{\transparent@use}[1]{}
\providecommand\hyper@newdestlabel[2]{}
\providecommand\babel@aux[2]{}
\@nameuse{bbl@beforestart}
\catcode `"\active 
\catcode `-\active 
\providecommand\HyperFirstAtBeginDocument{\AtBeginDocument}
\HyperFirstAtBeginDocument{\ifx\hyper@anchor\@undefined
\global\let\oldnewlabel\newlabel
\gdef\newlabel#1#2{\newlabelxx{#1}#2}
\gdef\newlabelxx#1#2#3#4#5#6{\oldnewlabel{#1}{{#2}{#3}}}
\AtEndDocument{\ifx\hyper@anchor\@undefined
\let\newlabel\oldnewlabel
\fi}
\fi}
\global\let\hyper@last\relax 
\gdef\HyperFirstAtBeginDocument#1{#1}
\providecommand\HyField@AuxAddToFields[1]{}
\providecommand\HyField@AuxAddToCoFields[2]{}
\babel@aux{czech}{}
\citation{morgan_origins_2021}
\citation{dukowicz_incremental_2000}
\citation{margolin_second-order_2003}
\citation{kucharik_efficient_2003}
\citation{velechovsky_flux_2014}
\citation{cheng_high_2008}
\citation{galera_two-dimensional_2010}
\citation{berndt_two-step_2011}
\citation{kucharik_conservative_2014}
\citation{xiao_simple_2005}
\citation{sun_boundary_2016}
\citation{shyue_eulerian_2014}
\citation{kucharik_high-accurate_2020}
\@writefile{toc}{\contentsline {section}{\numberline {1}Úvod}{9}{section.1}\protected@file@percent }
\@writefile{toc}{\contentsline {section}{\numberline {2}ALE metody}{10}{section.2}\protected@file@percent }
\@writefile{toc}{\contentsline {subsection}{\numberline {2.1}Geometrie výpočetní sítě}{11}{subsection.2.1}\protected@file@percent }
\newlabel{sec:sitka}{{2.1}{11}{Geometrie výpočetní sítě}{subsection.2.1}{}}
\newlabel{eq:center_of_cell}{{1}{11}{Geometrie výpočetní sítě}{equation.2.1}{}}
\newlabel{eq:volume_of_cell}{{2}{11}{Geometrie výpočetní sítě}{equation.2.2}{}}
\@writefile{lof}{\contentsline {figure}{\numberline {1}{\ignorespaces Ilustrace značení v buňce $i$\relax }}{11}{figure.caption.2}\protected@file@percent }
\providecommand*\caption@xref[2]{\@setref\relax\@undefined{#1}}
\newlabel{bun:ilustrace}{{1}{11}{Ilustrace značení v buňce $i$\relax }{figure.caption.2}{}}
\@writefile{toc}{\contentsline {section}{\numberline {3}Eulerovský krok ALE metod}{12}{section.3}\protected@file@percent }
\@writefile{toc}{\contentsline {subsection}{\numberline {3.1}Vyhlazování výpočetní sítě}{12}{subsection.3.1}\protected@file@percent }
\@writefile{toc}{\contentsline {subsection}{\numberline {3.2}Interpolace veličin mezi sítěmi}{12}{subsection.3.2}\protected@file@percent }
\newlabel{eq:konzervativita-bunka}{{6}{13}{Interpolace veličin mezi sítěmi}{equation.3.6}{}}
\@writefile{toc}{\contentsline {subsection}{\numberline {3.3}Rekonstrukce veličiny}{13}{subsection.3.3}\protected@file@percent }
\@writefile{toc}{\contentsline {subsubsection}{\numberline {3.3.1}Konstantní rekonstrukce}{13}{subsubsection.3.3.1}\protected@file@percent }
\@writefile{toc}{\contentsline {subsubsection}{\numberline {3.3.2}Lineární rekonstrukce}{13}{subsubsection.3.3.2}\protected@file@percent }
\newlabel{eq:linearrec}{{9}{13}{Lineární rekonstrukce}{equation.3.9}{}}
\citation{Diot_Clain_Loubere_2012}
\newlabel{rek:konstantnílinearni}{{2a}{14}{Konstantní rekonstrukce pro lineární funkci. Vidíme, že rekonstrukce není už při počátečních podmínkách přesná\relax }{figure.caption.5}{}}
\newlabel{sub@rek:konstantnílinearni}{{a}{14}{Konstantní rekonstrukce pro lineární funkci. Vidíme, že rekonstrukce není už při počátečních podmínkách přesná\relax }{figure.caption.5}{}}
\newlabel{rek:konstantnínespojita}{{2b}{14}{Konstantní rekonstrukce pro nespojitou funkci.\relax }{figure.caption.5}{}}
\newlabel{sub@rek:konstantnínespojita}{{b}{14}{Konstantní rekonstrukce pro nespojitou funkci.\relax }{figure.caption.5}{}}
\@writefile{lof}{\contentsline {figure}{\numberline {2}{\ignorespaces Konstantní rekonstrukce\relax }}{14}{figure.caption.5}\protected@file@percent }
\newlabel{rek:konstantní}{{2}{14}{Konstantní rekonstrukce\relax }{figure.caption.5}{}}
\newlabel{eq:linrekfunc}{{10}{14}{Lineární rekonstrukce}{equation.3.10}{}}
\citation{vilar_high-order_2012}
\citation{Michalak_Gooch_2008}
\citation{Barth_Jespersen_1989}
\citation{Venkatakrishnan_1993}
\newlabel{eq:linearfunccionalminimized}{{12}{15}{Lineární rekonstrukce}{equation.3.12}{}}
\@writefile{toc}{\contentsline {subsubsection}{\numberline {3.3.3}Lineární rekonstrukce s limiterem}{15}{subsubsection.3.3.3}\protected@file@percent }
\newlabel{rek:linA}{{3a}{16}{Lineární rekonstrukce sinu\relax }{figure.caption.6}{}}
\newlabel{sub@rek:linA}{{a}{16}{Lineární rekonstrukce sinu\relax }{figure.caption.6}{}}
\newlabel{rek:linextrem}{{3b}{16}{Vznikání nových extrémů - jak vidíme, pokud lineární rekonstrukci použijeme nedaleko rozhraní, vznikají nové extrémy \relax }{figure.caption.6}{}}
\newlabel{sub@rek:linextrem}{{b}{16}{Vznikání nových extrémů - jak vidíme, pokud lineární rekonstrukci použijeme nedaleko rozhraní, vznikají nové extrémy \relax }{figure.caption.6}{}}
\@writefile{lof}{\contentsline {figure}{\numberline {3}{\ignorespaces Lineární rekonstrukce\relax }}{16}{figure.caption.6}\protected@file@percent }
\newlabel{rek:Lineární}{{3}{16}{Lineární rekonstrukce\relax }{figure.caption.6}{}}
\newlabel{BJvztah}{{14}{16}{Lineární rekonstrukce s limiterem}{equation.3.14}{}}
\citation{Diot_Clain_Loubere_2012}
\newlabel{rek:bjsin}{{4a}{17}{Lineární rekonstrukce funkce sin s BJ limiterem\relax }{figure.caption.7}{}}
\newlabel{sub@rek:bjsin}{{a}{17}{Lineární rekonstrukce funkce sin s BJ limiterem\relax }{figure.caption.7}{}}
\newlabel{rek:limitedrek}{{4b}{17}{Lineární rekonstrukce skokové funkce s BJ limiterem\relax }{figure.caption.7}{}}
\newlabel{sub@rek:limitedrek}{{b}{17}{Lineární rekonstrukce skokové funkce s BJ limiterem\relax }{figure.caption.7}{}}
\@writefile{lof}{\contentsline {figure}{\numberline {4}{\ignorespaces \relax }}{17}{figure.caption.7}\protected@file@percent }
\@writefile{toc}{\contentsline {subsubsection}{\numberline {3.3.4}Polynomiální rekonstrukce}{17}{subsubsection.3.3.4}\protected@file@percent }
\newlabel{eg:polynomial_reconstruction}{{16}{17}{Polynomiální rekonstrukce}{equation.3.16}{}}
\citation{gooch__quasi_eno_1997}
\citation{friedrich_weighted_1998}
\citation{barth_higher_1990}
\citation{barth_higher_1990}
\citation{gooch__quasi_eno_1997}
\newlabel{rek:limiters}{{5a}{18}{Porovnání BJ a Venkatakrishnanova limiteru\relax }{figure.caption.8}{}}
\newlabel{sub@rek:limiters}{{a}{18}{Porovnání BJ a Venkatakrishnanova limiteru\relax }{figure.caption.8}{}}
\@writefile{lof}{\contentsline {figure}{\numberline {5}{\ignorespaces \relax }}{18}{figure.caption.8}\protected@file@percent }
\newlabel{rek:porovnanilimiter}{{5}{18}{\relax }{figure.caption.8}{}}
\newlabel{eq:rekPolyfunc}{{19}{18}{Polynomiální rekonstrukce}{equation.3.19}{}}
\@writefile{toc}{\contentsline {subsubsection}{\numberline {3.3.5}THINC rekonstrukce}{18}{subsubsection.3.3.5}\protected@file@percent }
\citation{kucharik_high-accurate_2020}
\citation{shyue_eulerian_2014}
\citation{xiao_simple_2005}
\citation{shyue_eulerian_2014}
\citation{xiao_simple_2005}
\newlabel{rek:polynomialexample}{{6a}{19}{Polynomiální rekonstrukce dobře aproximuje hladké funkce\relax }{figure.caption.9}{}}
\newlabel{sub@rek:polynomialexample}{{a}{19}{Polynomiální rekonstrukce dobře aproximuje hladké funkce\relax }{figure.caption.9}{}}
\newlabel{rek:polynomialnespojitost}{{6b}{19}{Polynomiální rekonstrukce u nespojitostí vytváří oscilace\relax }{figure.caption.9}{}}
\newlabel{sub@rek:polynomialnespojitost}{{b}{19}{Polynomiální rekonstrukce u nespojitostí vytváří oscilace\relax }{figure.caption.9}{}}
\@writefile{lof}{\contentsline {figure}{\numberline {6}{\ignorespaces Polynomiální rekonstrukce\relax }}{19}{figure.caption.9}\protected@file@percent }
\newlabel{rek:polynomial}{{6}{19}{Polynomiální rekonstrukce\relax }{figure.caption.9}{}}
\newlabel{eq:THINCdefinition}{{20}{19}{THINC rekonstrukce}{equation.3.20}{}}
\@writefile{lof}{\contentsline {figure}{\numberline {7}{\ignorespaces Porovnání THINC rekonstrukce pro různá $\beta $, všimněme si, že pro vysoké $\beta $ tato rekonstrukce dobře kopíruje průběh nespojité funkce\relax }}{20}{figure.caption.10}\protected@file@percent }
\newlabel{rek:porovnaniTHINC}{{7}{20}{Porovnání THINC rekonstrukce pro různá $\beta $, všimněme si, že pro vysoké $\beta $ tato rekonstrukce dobře kopíruje průběh nespojité funkce\relax }{figure.caption.10}{}}
\@writefile{toc}{\contentsline {subsubsection}{\numberline {3.3.6}Rekonstrukce nespojitou funkcí}{20}{subsubsection.3.3.6}\protected@file@percent }
\newlabel{eq:JUMP-reconstruction}{{25}{21}{Rekonstrukce nespojitou funkcí}{equation.3.25}{}}
\citation{kucharik_high-accurate_2020}
\@writefile{toc}{\contentsline {subsubsection}{\numberline {3.3.7}Rekonstrukce v okolí nespojitosti}{23}{subsubsection.3.3.7}\protected@file@percent }
\@writefile{lof}{\contentsline {figure}{\numberline {8}{\ignorespaces Rekonstrukce u nespojitosti\relax }}{23}{figure.caption.11}\protected@file@percent }
\newlabel{obr:rekpresnespojitost}{{8}{23}{Rekonstrukce u nespojitosti\relax }{figure.caption.11}{}}
\citation{friedrich_weighted_1998}
\citation{kucharik_high-accurate_2020}
\@writefile{toc}{\contentsline {subsubsection}{\numberline {3.3.8}Okrajové podmínky}{24}{subsubsection.3.3.8}\protected@file@percent }
\@writefile{toc}{\contentsline {subsection}{\numberline {3.4}Výpočet hodnot na nové síťce}{24}{subsection.3.4}\protected@file@percent }
\@writefile{toc}{\contentsline {subsection}{\numberline {3.5}Remap v ALE kódu}{25}{subsection.3.5}\protected@file@percent }
\@writefile{toc}{\contentsline {subsection}{\numberline {3.6}Multimateriálový remap}{25}{subsection.3.6}\protected@file@percent }
\citation{dyadechko_reconstruction_2008}
\citation{kucharik_conservative_2014}
\@writefile{lof}{\contentsline {figure}{\numberline {9}{\ignorespaces Ukázka značení v buňce $i$ u MMALE remapu\relax }}{26}{figure.caption.12}\protected@file@percent }
\newlabel{mmale:bunka}{{9}{26}{Ukázka značení v buňce $i$ u MMALE remapu\relax }{figure.caption.12}{}}
\citation{kucharik_high-accurate_2020}
\newlabel{MMALE:constconstrozhrani}{{10a}{27}{Rekonstrukce 2 materiálů s lineárním průběhem, vidíme že metoda přesně rekonstruje tento problém\relax }{figure.caption.13}{}}
\newlabel{sub@MMALE:constconstrozhrani}{{a}{27}{Rekonstrukce 2 materiálů s lineárním průběhem, vidíme že metoda přesně rekonstruje tento problém\relax }{figure.caption.13}{}}
\newlabel{MMALE:sin_sinrozhrani}{{10b}{27}{Rekonstrukce 2 materiálů se sinusoidálním průběhem, ve všech buňkách provádíme polynomiální rekonstrukci 4. řádu\relax }{figure.caption.13}{}}
\newlabel{sub@MMALE:sin_sinrozhrani}{{b}{27}{Rekonstrukce 2 materiálů se sinusoidálním průběhem, ve všech buňkách provádíme polynomiální rekonstrukci 4. řádu\relax }{figure.caption.13}{}}
\@writefile{lof}{\contentsline {figure}{\numberline {10}{\ignorespaces Multimateriálové rekonstrukce\relax }}{27}{figure.caption.13}\protected@file@percent }
\@writefile{toc}{\contentsline {section}{\numberline {4}Lagrangeovský krok ALE metod}{27}{section.4}\protected@file@percent }
\@writefile{toc}{\contentsline {subsection}{\numberline {4.1}Fyzikální popis}{27}{subsection.4.1}\protected@file@percent }
\newlabel{eq:movementdefinition}{{46}{27}{Fyzikální popis}{equation.4.46}{}}
\newlabel{eq:eulerCont1}{{47}{27}{Fyzikální popis}{equation.4.47}{}}
\newlabel{eq:eulerCont2}{{48}{27}{Fyzikální popis}{equation.4.48}{}}
\newlabel{eq:eulerCont3}{{49}{27}{Fyzikální popis}{equation.4.49}{}}
\citation{maire_high-order_2009}
\citation{godunov1979resolution}
\newlabel{eq:ofState}{{50}{28}{Fyzikální popis}{equation.4.50}{}}
\@writefile{toc}{\contentsline {subsection}{\numberline {4.2}Diskretizace prvního řádu}{28}{subsection.4.2}\protected@file@percent }
\newlabel{eq:eulerdc1}{{52}{28}{Diskretizace prvního řádu}{equation.4.52}{}}
\newlabel{eq:eulerdc2}{{53}{28}{Diskretizace prvního řádu}{equation.4.53}{}}
\newlabel{eq:eulerdc3}{{54}{28}{Diskretizace prvního řádu}{equation.4.54}{}}
\citation{maire_high-order_2009}
\citation{Venkatakrishnan_1993}
\citation{maire_high-order_2009}
\newlabel{eq:ediscret1}{{58}{29}{Diskretizace prvního řádu}{equation.4.58}{}}
\newlabel{eq:ediscret2}{{59}{29}{Diskretizace prvního řádu}{equation.4.59}{}}
\newlabel{eq:ediscret3}{{60}{29}{Diskretizace prvního řádu}{equation.4.60}{}}
\@writefile{toc}{\contentsline {subsection}{\numberline {4.3}Diskretizace druhého řádu}{29}{subsection.4.3}\protected@file@percent }
\newlabel{eq:e2discret1}{{62}{29}{Diskretizace druhého řádu}{equation.4.62}{}}
\newlabel{eq:e2discret2}{{63}{29}{Diskretizace druhého řádu}{equation.4.63}{}}
\newlabel{eq:e2discret3}{{64}{29}{Diskretizace druhého řádu}{equation.4.64}{}}
\@writefile{toc}{\contentsline {subsection}{\numberline {4.4}Velikost časového kroku}{29}{subsection.4.4}\protected@file@percent }
\@writefile{toc}{\contentsline {subsection}{\numberline {4.5}Okrajové podmínky}{30}{subsection.4.5}\protected@file@percent }
\@writefile{toc}{\contentsline {subsection}{\numberline {4.6}Sledování kontaktu}{30}{subsection.4.6}\protected@file@percent }
\@writefile{toc}{\contentsline {subsection}{\numberline {4.7}Detekce komprese}{31}{subsection.4.7}\protected@file@percent }
\citation{piessens_quadpack:_1983}
\@writefile{toc}{\contentsline {section}{\numberline {5}Implementace}{32}{section.5}\protected@file@percent }
\@writefile{toc}{\contentsline {subsection}{\numberline {5.1}Použité knihovny}{32}{subsection.5.1}\protected@file@percent }
\citation{margolin_second-order_2003}
\citation{margolin_second-order_2002}
\citation{margolin_second-order_2003}
\citation{kucharik_high-accurate_2020}
\citation{margolin_second-order_2003}
\@writefile{toc}{\contentsline {section}{\numberline {6}Numerické výsledky - remap}{33}{section.6}\protected@file@percent }
\@writefile{toc}{\contentsline {subsection}{\numberline {6.1}Hladký pohyb sítě}{33}{subsection.6.1}\protected@file@percent }
\newlabel{eq:meshmovement}{{72}{33}{Hladký pohyb sítě}{equation.6.72}{}}
\citation{margolin_second-order_2003}
\@writefile{lof}{\contentsline {figure}{\numberline {11}{\ignorespaces Pohyb síťky pro cycklickou rekonstrukci\relax }}{34}{figure.caption.14}\protected@file@percent }
\newlabel{test:meshMovement}{{11}{34}{Pohyb síťky pro cycklickou rekonstrukci\relax }{figure.caption.14}{}}
\@writefile{toc}{\contentsline {subsection}{\numberline {6.2}Kvadratický polynom a sinus}{34}{subsection.6.2}\protected@file@percent }
\newlabel{polynomial}{{12a}{34}{Remap pro kvadratický polynom\relax }{figure.caption.15}{}}
\newlabel{sub@polynomial}{{a}{34}{Remap pro kvadratický polynom\relax }{figure.caption.15}{}}
\newlabel{sinus}{{12b}{34}{Remap pro sinus \relax }{figure.caption.15}{}}
\newlabel{sub@sinus}{{b}{34}{Remap pro sinus \relax }{figure.caption.15}{}}
\@writefile{lof}{\contentsline {figure}{\numberline {12}{\ignorespaces Remap spojitých funkcí, počet buněk je 80 a provedli jsme 300 iterací\relax }}{34}{figure.caption.15}\protected@file@percent }
\@writefile{lot}{\contentsline {table}{\numberline {1}{\ignorespaces L1 chyby pro remap funkce sinus, provádíme 5krát více remapů než je počet buněk, tj, pro 40 buněk provádíme 200 remapů \relax }}{35}{table.caption.16}\protected@file@percent }
\newlabel{L1sin}{{1}{35}{L1 chyby pro remap funkce sinus, provádíme 5krát více remapů než je počet buněk, tj, pro 40 buněk provádíme 200 remapů \relax }{table.caption.16}{}}
\@writefile{lot}{\contentsline {table}{\numberline {2}{\ignorespaces L2 chyby pro remap funkce sinus, provádíme 5krát více remapů, než je počet buněk\relax }}{35}{table.caption.17}\protected@file@percent }
\newlabel{L2sin}{{2}{35}{L2 chyby pro remap funkce sinus, provádíme 5krát více remapů, než je počet buněk\relax }{table.caption.17}{}}
\@writefile{toc}{\contentsline {subsection}{\numberline {6.3}Nespojitá funkce}{36}{subsection.6.3}\protected@file@percent }
\newlabel{discontinuous1}{{13a}{37}{Různé typy rekonstrukcí\relax }{figure.caption.18}{}}
\newlabel{sub@discontinuous1}{{a}{37}{Různé typy rekonstrukcí\relax }{figure.caption.18}{}}
\newlabel{discontinuous2}{{13b}{37}{Námi navržená rekonstrukce nespojitou funkcí\relax }{figure.caption.18}{}}
\newlabel{sub@discontinuous2}{{b}{37}{Námi navržená rekonstrukce nespojitou funkcí\relax }{figure.caption.18}{}}
\newlabel{discontinuous3}{{13c}{37}{Multimateriálová rekonstrukce \relax }{figure.caption.18}{}}
\newlabel{sub@discontinuous3}{{c}{37}{Multimateriálová rekonstrukce \relax }{figure.caption.18}{}}
\@writefile{lof}{\contentsline {figure}{\numberline {13}{\ignorespaces Remap nespojité funkce, počet buněk je 40 a provedli jsme 300 iterací\relax }}{37}{figure.caption.18}\protected@file@percent }
\@writefile{toc}{\contentsline {subsection}{\numberline {6.4}Nespojitá nelineární funkce}{38}{subsection.6.4}\protected@file@percent }
\@writefile{lof}{\contentsline {figure}{\numberline {14}{\ignorespaces Remap nespojité nelineární funkce, počet buněk je 80 a provedli jsme 300 iterací\relax }}{38}{figure.caption.19}\protected@file@percent }
\newlabel{nonlindisc}{{14}{38}{Remap nespojité nelineární funkce, počet buněk je 80 a provedli jsme 300 iterací\relax }{figure.caption.19}{}}
\@writefile{lot}{\contentsline {table}{\numberline {3}{\ignorespaces L1 chyby pro remap nespojité nelineární funkce, provádíme 5krát více remapů, než je počet buněk \relax }}{38}{table.caption.20}\protected@file@percent }
\newlabel{L1quad}{{3}{38}{L1 chyby pro remap nespojité nelineární funkce, provádíme 5krát více remapů, než je počet buněk \relax }{table.caption.20}{}}
\@writefile{lot}{\contentsline {table}{\numberline {4}{\ignorespaces L2 chyby pro remap nespojité nelineární funkce, provádíme 5krát více remapů, než je počet buněk\relax }}{39}{table.caption.21}\protected@file@percent }
\newlabel{L2quad}{{4}{39}{L2 chyby pro remap nespojité nelineární funkce, provádíme 5krát více remapů, než je počet buněk\relax }{table.caption.21}{}}
\citation{kucharik_high-accurate_2020}
\@writefile{lof}{\contentsline {figure}{\numberline {15}{\ignorespaces Remap funkce s profily, počet buněk je 80 a provedli jsme 300 iterací\relax }}{41}{figure.caption.22}\protected@file@percent }
\newlabel{shapes}{{15}{41}{Remap funkce s profily, počet buněk je 80 a provedli jsme 300 iterací\relax }{figure.caption.22}{}}
\citation{kucharik_high-accurate_2020}
\@writefile{toc}{\contentsline {section}{\numberline {7}Numerické výsledky - ALE metody}{42}{section.7}\protected@file@percent }
\@writefile{lot}{\contentsline {table}{\numberline {5}{\ignorespaces Počáteční podmínky pro vybrané testy\relax }}{42}{table.caption.23}\protected@file@percent }
\newlabel{table:initialConditionsRiemann}{{5}{42}{Počáteční podmínky pro vybrané testy\relax }{table.caption.23}{}}
\@writefile{toc}{\contentsline {subsection}{\numberline {7.1}Riemmanovy problémy}{42}{subsection.7.1}\protected@file@percent }
\@writefile{lof}{\contentsline {figure}{\numberline {16}{\ignorespaces Výsledky numerického řešení Sodova problému, problém jsme řešili různými režimy na síťce s 80 buňkami \relax }}{43}{figure.caption.24}\protected@file@percent }
\newlabel{sodPristupy}{{16}{43}{Výsledky numerického řešení Sodova problému, problém jsme řešili různými režimy na síťce s 80 buňkami \relax }{figure.caption.24}{}}
\@writefile{lof}{\contentsline {figure}{\numberline {17}{\ignorespaces Zde vidíme jak funguje sledování nespojitosti a detekce komprese u Sodova problému. Červená označuje pohyb sledované nespojitosti, modrá, která se nachazí napravo od ní, představuje rázovou vlnu detekovanou detektorem komprese\relax }}{43}{figure.caption.25}\protected@file@percent }
\newlabel{vlny}{{17}{43}{Zde vidíme jak funguje sledování nespojitosti a detekce komprese u Sodova problému. Červená označuje pohyb sledované nespojitosti, modrá, která se nachazí napravo od ní, představuje rázovou vlnu detekovanou detektorem komprese\relax }{figure.caption.25}{}}
\@writefile{lof}{\contentsline {figure}{\numberline {18}{\ignorespaces Výsledky numerického řešení Sodova problému, problém jsme řešili v ALE režimu a používali jsme nespojitou rekonstrukci s $n$ buňkami\relax }}{44}{figure.caption.26}\protected@file@percent }
\newlabel{sodbunky}{{18}{44}{Výsledky numerického řešení Sodova problému, problém jsme řešili v ALE režimu a používali jsme nespojitou rekonstrukci s $n$ buňkami\relax }{figure.caption.26}{}}
\@writefile{toc}{\contentsline {subsection}{\numberline {7.2}Shu-Osherův problém}{44}{subsection.7.2}\protected@file@percent }
\@writefile{lof}{\contentsline {figure}{\numberline {19}{\ignorespaces Výsledky numerického řešení Shu-Osherova problému, problém jsme řešili na síťce s 80 buňkami\relax }}{45}{figure.caption.27}\protected@file@percent }
\newlabel{SO}{{19}{45}{Výsledky numerického řešení Shu-Osherova problému, problém jsme řešili na síťce s 80 buňkami\relax }{figure.caption.27}{}}
\bibstyle{unsrt}
\bibdata{references}
\bibcite{morgan_origins_2021}{1}
\bibcite{dukowicz_incremental_2000}{2}
\bibcite{margolin_second-order_2003}{3}
\bibcite{kucharik_efficient_2003}{4}
\bibcite{velechovsky_flux_2014}{5}
\bibcite{cheng_high_2008}{6}
\bibcite{galera_two-dimensional_2010}{7}
\bibcite{berndt_two-step_2011}{8}
\bibcite{kucharik_conservative_2014}{9}
\bibcite{xiao_simple_2005}{10}
\bibcite{sun_boundary_2016}{11}
\bibcite{shyue_eulerian_2014}{12}
\bibcite{kucharik_high-accurate_2020}{13}
\bibcite{Diot_Clain_Loubere_2012}{14}
\bibcite{vilar_high-order_2012}{15}
\bibcite{Michalak_Gooch_2008}{16}
\bibcite{Barth_Jespersen_1989}{17}
\bibcite{Venkatakrishnan_1993}{18}
\bibcite{gooch__quasi_eno_1997}{19}
\bibcite{friedrich_weighted_1998}{20}
\bibcite{barth_higher_1990}{21}
\bibcite{dyadechko_reconstruction_2008}{22}
\bibcite{maire_high-order_2009}{23}
\bibcite{godunov1979resolution}{24}
\bibcite{piessens_quadpack:_1983}{25}
\bibcite{margolin_second-order_2002}{26}
\gdef\svg@ink@ver@settings{{\m@ne }{inkscape}{1}}
\gdef \@abspage@last{49}
