PWD c:/Users/matej/PycharmProjects/bthesis/Latex
INPUT c:/texlive/2022/texmf.cnf
INPUT c:/texlive/2022/texmf-dist/web2c/texmf.cnf
INPUT c:/texlive/2022/texmf-var/web2c/pdftex/pdflatex.fmt
INPUT c:/Users/matej/PycharmProjects/bthesis/Latex/main.tex
