<?xml version="1.0" encoding="utf-8" standalone="no"?>
<!DOCTYPE svg PUBLIC "-//W3C//DTD SVG 1.1//EN"
  "http://www.w3.org/Graphics/SVG/1.1/DTD/svg11.dtd">
<svg xmlns:xlink="http://www.w3.org/1999/xlink" width="460.8pt" height="345.6pt" viewBox="0 0 460.8 345.6" xmlns="http://www.w3.org/2000/svg" version="1.1">
 <metadata>
  <rdf:RDF xmlns:dc="http://purl.org/dc/elements/1.1/" xmlns:cc="http://creativecommons.org/ns#" xmlns:rdf="http://www.w3.org/1999/02/22-rdf-syntax-ns#">
   <cc:Work>
    <dc:type rdf:resource="http://purl.org/dc/dcmitype/StillImage"/>
    <dc:date>2023-08-02T06:15:18.607008</dc:date>
    <dc:format>image/svg+xml</dc:format>
    <dc:creator>
     <cc:Agent>
      <dc:title>Matplotlib v3.5.2, https://matplotlib.org/</dc:title>
     </cc:Agent>
    </dc:creator>
   </cc:Work>
  </rdf:RDF>
 </metadata>
 <defs>
  <style type="text/css">*{stroke-linejoin: round; stroke-linecap: butt}</style>
 </defs>
 <g id="figure_1">
  <g id="patch_1">
   <path d="M 0 345.6 
L 460.8 345.6 
L 460.8 0 
L 0 0 
z
" style="fill: #ffffff"/>
  </g>
  <g id="axes_1">
   <g id="patch_2">
    <path d="M 57.6 307.584 
L 414.72 307.584 
L 414.72 41.472 
L 57.6 41.472 
z
" style="fill: #ffffff"/>
   </g>
   <g id="PathCollection_1">
    <defs>
     <path id="m00718521fd" d="M 0 3 
C 0.795609 3 1.55874 2.683901 2.12132 2.12132 
C 2.683901 1.55874 3 0.795609 3 0 
C 3 -0.795609 2.683901 -1.55874 2.12132 -2.12132 
C 1.55874 -2.683901 0.795609 -3 0 -3 
C -0.795609 -3 -1.55874 -2.683901 -2.12132 -2.12132 
C -2.683901 -1.55874 -3 -0.795609 -3 0 
C -3 0.795609 -2.683901 1.55874 -2.12132 2.12132 
C -1.55874 2.683901 -0.795609 3 0 3 
z
" style="stroke: #228b22"/>
    </defs>
    <g clip-path="url(#p6e56cef936)">
     <use xlink:href="#m00718521fd" x="77.994965" y="295.488" style="fill: #228b22; stroke: #228b22"/>
     <use xlink:href="#m00718521fd" x="86.319441" y="295.488" style="fill: #228b22; stroke: #228b22"/>
     <use xlink:href="#m00718521fd" x="94.643916" y="295.488" style="fill: #228b22; stroke: #228b22"/>
     <use xlink:href="#m00718521fd" x="102.968392" y="295.488" style="fill: #228b22; stroke: #228b22"/>
     <use xlink:href="#m00718521fd" x="111.292867" y="295.488" style="fill: #228b22; stroke: #228b22"/>
     <use xlink:href="#m00718521fd" x="119.617343" y="295.488" style="fill: #228b22; stroke: #228b22"/>
     <use xlink:href="#m00718521fd" x="127.941818" y="295.488" style="fill: #228b22; stroke: #228b22"/>
     <use xlink:href="#m00718521fd" x="136.266294" y="295.488" style="fill: #228b22; stroke: #228b22"/>
     <use xlink:href="#m00718521fd" x="144.590769" y="295.488" style="fill: #228b22; stroke: #228b22"/>
     <use xlink:href="#m00718521fd" x="152.915245" y="295.488" style="fill: #228b22; stroke: #228b22"/>
     <use xlink:href="#m00718521fd" x="161.23972" y="295.488" style="fill: #228b22; stroke: #228b22"/>
     <use xlink:href="#m00718521fd" x="169.564196" y="295.488" style="fill: #228b22; stroke: #228b22"/>
     <use xlink:href="#m00718521fd" x="177.888671" y="295.488" style="fill: #228b22; stroke: #228b22"/>
     <use xlink:href="#m00718521fd" x="186.213147" y="295.488" style="fill: #228b22; stroke: #228b22"/>
     <use xlink:href="#m00718521fd" x="194.537622" y="295.488" style="fill: #228b22; stroke: #228b22"/>
     <use xlink:href="#m00718521fd" x="202.862098" y="295.488" style="fill: #228b22; stroke: #228b22"/>
     <use xlink:href="#m00718521fd" x="211.186573" y="295.488" style="fill: #228b22; stroke: #228b22"/>
     <use xlink:href="#m00718521fd" x="219.511049" y="295.488" style="fill: #228b22; stroke: #228b22"/>
     <use xlink:href="#m00718521fd" x="227.835524" y="295.488" style="fill: #228b22; stroke: #228b22"/>
     <use xlink:href="#m00718521fd" x="236.16" y="174.528" style="fill: #228b22; stroke: #228b22"/>
     <use xlink:href="#m00718521fd" x="244.484476" y="53.568" style="fill: #228b22; stroke: #228b22"/>
     <use xlink:href="#m00718521fd" x="252.808951" y="53.568" style="fill: #228b22; stroke: #228b22"/>
     <use xlink:href="#m00718521fd" x="261.133427" y="53.568" style="fill: #228b22; stroke: #228b22"/>
     <use xlink:href="#m00718521fd" x="269.457902" y="53.568" style="fill: #228b22; stroke: #228b22"/>
     <use xlink:href="#m00718521fd" x="277.782378" y="53.568" style="fill: #228b22; stroke: #228b22"/>
     <use xlink:href="#m00718521fd" x="286.106853" y="53.568" style="fill: #228b22; stroke: #228b22"/>
     <use xlink:href="#m00718521fd" x="294.431329" y="53.568" style="fill: #228b22; stroke: #228b22"/>
     <use xlink:href="#m00718521fd" x="302.755804" y="53.568" style="fill: #228b22; stroke: #228b22"/>
     <use xlink:href="#m00718521fd" x="311.08028" y="53.568" style="fill: #228b22; stroke: #228b22"/>
     <use xlink:href="#m00718521fd" x="319.404755" y="53.568" style="fill: #228b22; stroke: #228b22"/>
     <use xlink:href="#m00718521fd" x="327.729231" y="53.568" style="fill: #228b22; stroke: #228b22"/>
     <use xlink:href="#m00718521fd" x="336.053706" y="53.568" style="fill: #228b22; stroke: #228b22"/>
     <use xlink:href="#m00718521fd" x="344.378182" y="53.568" style="fill: #228b22; stroke: #228b22"/>
     <use xlink:href="#m00718521fd" x="352.702657" y="53.568" style="fill: #228b22; stroke: #228b22"/>
     <use xlink:href="#m00718521fd" x="361.027133" y="53.568" style="fill: #228b22; stroke: #228b22"/>
     <use xlink:href="#m00718521fd" x="369.351608" y="53.568" style="fill: #228b22; stroke: #228b22"/>
     <use xlink:href="#m00718521fd" x="377.676084" y="53.568" style="fill: #228b22; stroke: #228b22"/>
     <use xlink:href="#m00718521fd" x="386.000559" y="53.568" style="fill: #228b22; stroke: #228b22"/>
     <use xlink:href="#m00718521fd" x="394.325035" y="53.568" style="fill: #228b22; stroke: #228b22"/>
    </g>
   </g>
   <g id="matplotlib.axis_1">
    <g id="xtick_1">
     <g id="line2d_1">
      <defs>
       <path id="m6d39b800cc" d="M 0 0 
L 0 3.5 
" style="stroke: #000000; stroke-width: 0.8"/>
      </defs>
      <g>
       <use xlink:href="#m6d39b800cc" x="73.832727" y="307.584" style="stroke: #000000; stroke-width: 0.8"/>
      </g>
     </g>
     <g id="text_1">
      <!-- −1.00 -->
      <g transform="translate(58.510071 322.182437)scale(0.1 -0.1)">
       <defs>
        <path id="DejaVuSans-2212" d="M 678 2272 
L 4684 2272 
L 4684 1741 
L 678 1741 
L 678 2272 
z
" transform="scale(0.015625)"/>
        <path id="DejaVuSans-31" d="M 794 531 
L 1825 531 
L 1825 4091 
L 703 3866 
L 703 4441 
L 1819 4666 
L 2450 4666 
L 2450 531 
L 3481 531 
L 3481 0 
L 794 0 
L 794 531 
z
" transform="scale(0.015625)"/>
        <path id="DejaVuSans-2e" d="M 684 794 
L 1344 794 
L 1344 0 
L 684 0 
L 684 794 
z
" transform="scale(0.015625)"/>
        <path id="DejaVuSans-30" d="M 2034 4250 
Q 1547 4250 1301 3770 
Q 1056 3291 1056 2328 
Q 1056 1369 1301 889 
Q 1547 409 2034 409 
Q 2525 409 2770 889 
Q 3016 1369 3016 2328 
Q 3016 3291 2770 3770 
Q 2525 4250 2034 4250 
z
M 2034 4750 
Q 2819 4750 3233 4129 
Q 3647 3509 3647 2328 
Q 3647 1150 3233 529 
Q 2819 -91 2034 -91 
Q 1250 -91 836 529 
Q 422 1150 422 2328 
Q 422 3509 836 4129 
Q 1250 4750 2034 4750 
z
" transform="scale(0.015625)"/>
       </defs>
       <use xlink:href="#DejaVuSans-2212"/>
       <use xlink:href="#DejaVuSans-31" x="83.789062"/>
       <use xlink:href="#DejaVuSans-2e" x="147.412109"/>
       <use xlink:href="#DejaVuSans-30" x="179.199219"/>
       <use xlink:href="#DejaVuSans-30" x="242.822266"/>
      </g>
     </g>
    </g>
    <g id="xtick_2">
     <g id="line2d_2">
      <g>
       <use xlink:href="#m6d39b800cc" x="114.414545" y="307.584" style="stroke: #000000; stroke-width: 0.8"/>
      </g>
     </g>
     <g id="text_2">
      <!-- −0.75 -->
      <g transform="translate(99.091889 322.182437)scale(0.1 -0.1)">
       <defs>
        <path id="DejaVuSans-37" d="M 525 4666 
L 3525 4666 
L 3525 4397 
L 1831 0 
L 1172 0 
L 2766 4134 
L 525 4134 
L 525 4666 
z
" transform="scale(0.015625)"/>
        <path id="DejaVuSans-35" d="M 691 4666 
L 3169 4666 
L 3169 4134 
L 1269 4134 
L 1269 2991 
Q 1406 3038 1543 3061 
Q 1681 3084 1819 3084 
Q 2600 3084 3056 2656 
Q 3513 2228 3513 1497 
Q 3513 744 3044 326 
Q 2575 -91 1722 -91 
Q 1428 -91 1123 -41 
Q 819 9 494 109 
L 494 744 
Q 775 591 1075 516 
Q 1375 441 1709 441 
Q 2250 441 2565 725 
Q 2881 1009 2881 1497 
Q 2881 1984 2565 2268 
Q 2250 2553 1709 2553 
Q 1456 2553 1204 2497 
Q 953 2441 691 2322 
L 691 4666 
z
" transform="scale(0.015625)"/>
       </defs>
       <use xlink:href="#DejaVuSans-2212"/>
       <use xlink:href="#DejaVuSans-30" x="83.789062"/>
       <use xlink:href="#DejaVuSans-2e" x="147.412109"/>
       <use xlink:href="#DejaVuSans-37" x="179.199219"/>
       <use xlink:href="#DejaVuSans-35" x="242.822266"/>
      </g>
     </g>
    </g>
    <g id="xtick_3">
     <g id="line2d_3">
      <g>
       <use xlink:href="#m6d39b800cc" x="154.996364" y="307.584" style="stroke: #000000; stroke-width: 0.8"/>
      </g>
     </g>
     <g id="text_3">
      <!-- −0.50 -->
      <g transform="translate(139.673707 322.182437)scale(0.1 -0.1)">
       <use xlink:href="#DejaVuSans-2212"/>
       <use xlink:href="#DejaVuSans-30" x="83.789062"/>
       <use xlink:href="#DejaVuSans-2e" x="147.412109"/>
       <use xlink:href="#DejaVuSans-35" x="179.199219"/>
       <use xlink:href="#DejaVuSans-30" x="242.822266"/>
      </g>
     </g>
    </g>
    <g id="xtick_4">
     <g id="line2d_4">
      <g>
       <use xlink:href="#m6d39b800cc" x="195.578182" y="307.584" style="stroke: #000000; stroke-width: 0.8"/>
      </g>
     </g>
     <g id="text_4">
      <!-- −0.25 -->
      <g transform="translate(180.255526 322.182437)scale(0.1 -0.1)">
       <defs>
        <path id="DejaVuSans-32" d="M 1228 531 
L 3431 531 
L 3431 0 
L 469 0 
L 469 531 
Q 828 903 1448 1529 
Q 2069 2156 2228 2338 
Q 2531 2678 2651 2914 
Q 2772 3150 2772 3378 
Q 2772 3750 2511 3984 
Q 2250 4219 1831 4219 
Q 1534 4219 1204 4116 
Q 875 4013 500 3803 
L 500 4441 
Q 881 4594 1212 4672 
Q 1544 4750 1819 4750 
Q 2544 4750 2975 4387 
Q 3406 4025 3406 3419 
Q 3406 3131 3298 2873 
Q 3191 2616 2906 2266 
Q 2828 2175 2409 1742 
Q 1991 1309 1228 531 
z
" transform="scale(0.015625)"/>
       </defs>
       <use xlink:href="#DejaVuSans-2212"/>
       <use xlink:href="#DejaVuSans-30" x="83.789062"/>
       <use xlink:href="#DejaVuSans-2e" x="147.412109"/>
       <use xlink:href="#DejaVuSans-32" x="179.199219"/>
       <use xlink:href="#DejaVuSans-35" x="242.822266"/>
      </g>
     </g>
    </g>
    <g id="xtick_5">
     <g id="line2d_5">
      <g>
       <use xlink:href="#m6d39b800cc" x="236.16" y="307.584" style="stroke: #000000; stroke-width: 0.8"/>
      </g>
     </g>
     <g id="text_5">
      <!-- 0.00 -->
      <g transform="translate(225.027187 322.182437)scale(0.1 -0.1)">
       <use xlink:href="#DejaVuSans-30"/>
       <use xlink:href="#DejaVuSans-2e" x="63.623047"/>
       <use xlink:href="#DejaVuSans-30" x="95.410156"/>
       <use xlink:href="#DejaVuSans-30" x="159.033203"/>
      </g>
     </g>
    </g>
    <g id="xtick_6">
     <g id="line2d_6">
      <g>
       <use xlink:href="#m6d39b800cc" x="276.741818" y="307.584" style="stroke: #000000; stroke-width: 0.8"/>
      </g>
     </g>
     <g id="text_6">
      <!-- 0.25 -->
      <g transform="translate(265.609006 322.182437)scale(0.1 -0.1)">
       <use xlink:href="#DejaVuSans-30"/>
       <use xlink:href="#DejaVuSans-2e" x="63.623047"/>
       <use xlink:href="#DejaVuSans-32" x="95.410156"/>
       <use xlink:href="#DejaVuSans-35" x="159.033203"/>
      </g>
     </g>
    </g>
    <g id="xtick_7">
     <g id="line2d_7">
      <g>
       <use xlink:href="#m6d39b800cc" x="317.323636" y="307.584" style="stroke: #000000; stroke-width: 0.8"/>
      </g>
     </g>
     <g id="text_7">
      <!-- 0.50 -->
      <g transform="translate(306.190824 322.182437)scale(0.1 -0.1)">
       <use xlink:href="#DejaVuSans-30"/>
       <use xlink:href="#DejaVuSans-2e" x="63.623047"/>
       <use xlink:href="#DejaVuSans-35" x="95.410156"/>
       <use xlink:href="#DejaVuSans-30" x="159.033203"/>
      </g>
     </g>
    </g>
    <g id="xtick_8">
     <g id="line2d_8">
      <g>
       <use xlink:href="#m6d39b800cc" x="357.905455" y="307.584" style="stroke: #000000; stroke-width: 0.8"/>
      </g>
     </g>
     <g id="text_8">
      <!-- 0.75 -->
      <g transform="translate(346.772642 322.182437)scale(0.1 -0.1)">
       <use xlink:href="#DejaVuSans-30"/>
       <use xlink:href="#DejaVuSans-2e" x="63.623047"/>
       <use xlink:href="#DejaVuSans-37" x="95.410156"/>
       <use xlink:href="#DejaVuSans-35" x="159.033203"/>
      </g>
     </g>
    </g>
    <g id="xtick_9">
     <g id="line2d_9">
      <g>
       <use xlink:href="#m6d39b800cc" x="398.487273" y="307.584" style="stroke: #000000; stroke-width: 0.8"/>
      </g>
     </g>
     <g id="text_9">
      <!-- 1.00 -->
      <g transform="translate(387.35446 322.182437)scale(0.1 -0.1)">
       <use xlink:href="#DejaVuSans-31"/>
       <use xlink:href="#DejaVuSans-2e" x="63.623047"/>
       <use xlink:href="#DejaVuSans-30" x="95.410156"/>
       <use xlink:href="#DejaVuSans-30" x="159.033203"/>
      </g>
     </g>
    </g>
    <g id="text_10">
     <!-- x -->
     <g transform="translate(233.200625 335.860562)scale(0.1 -0.1)">
      <defs>
       <path id="DejaVuSans-78" d="M 3513 3500 
L 2247 1797 
L 3578 0 
L 2900 0 
L 1881 1375 
L 863 0 
L 184 0 
L 1544 1831 
L 300 3500 
L 978 3500 
L 1906 2253 
L 2834 3500 
L 3513 3500 
z
" transform="scale(0.015625)"/>
      </defs>
      <use xlink:href="#DejaVuSans-78"/>
     </g>
    </g>
   </g>
   <g id="matplotlib.axis_2">
    <g id="ytick_1">
     <g id="line2d_10">
      <defs>
       <path id="m90e7494e76" d="M 0 0 
L -3.5 0 
" style="stroke: #000000; stroke-width: 0.8"/>
      </defs>
      <g>
       <use xlink:href="#m90e7494e76" x="57.6" y="295.488" style="stroke: #000000; stroke-width: 0.8"/>
      </g>
     </g>
     <g id="text_11">
      <!-- 1.0 -->
      <g transform="translate(34.696875 299.287219)scale(0.1 -0.1)">
       <use xlink:href="#DejaVuSans-31"/>
       <use xlink:href="#DejaVuSans-2e" x="63.623047"/>
       <use xlink:href="#DejaVuSans-30" x="95.410156"/>
      </g>
     </g>
    </g>
    <g id="ytick_2">
     <g id="line2d_11">
      <g>
       <use xlink:href="#m90e7494e76" x="57.6" y="247.104" style="stroke: #000000; stroke-width: 0.8"/>
      </g>
     </g>
     <g id="text_12">
      <!-- 1.2 -->
      <g transform="translate(34.696875 250.903219)scale(0.1 -0.1)">
       <use xlink:href="#DejaVuSans-31"/>
       <use xlink:href="#DejaVuSans-2e" x="63.623047"/>
       <use xlink:href="#DejaVuSans-32" x="95.410156"/>
      </g>
     </g>
    </g>
    <g id="ytick_3">
     <g id="line2d_12">
      <g>
       <use xlink:href="#m90e7494e76" x="57.6" y="198.72" style="stroke: #000000; stroke-width: 0.8"/>
      </g>
     </g>
     <g id="text_13">
      <!-- 1.4 -->
      <g transform="translate(34.696875 202.519219)scale(0.1 -0.1)">
       <defs>
        <path id="DejaVuSans-34" d="M 2419 4116 
L 825 1625 
L 2419 1625 
L 2419 4116 
z
M 2253 4666 
L 3047 4666 
L 3047 1625 
L 3713 1625 
L 3713 1100 
L 3047 1100 
L 3047 0 
L 2419 0 
L 2419 1100 
L 313 1100 
L 313 1709 
L 2253 4666 
z
" transform="scale(0.015625)"/>
       </defs>
       <use xlink:href="#DejaVuSans-31"/>
       <use xlink:href="#DejaVuSans-2e" x="63.623047"/>
       <use xlink:href="#DejaVuSans-34" x="95.410156"/>
      </g>
     </g>
    </g>
    <g id="ytick_4">
     <g id="line2d_13">
      <g>
       <use xlink:href="#m90e7494e76" x="57.6" y="150.336" style="stroke: #000000; stroke-width: 0.8"/>
      </g>
     </g>
     <g id="text_14">
      <!-- 1.6 -->
      <g transform="translate(34.696875 154.135219)scale(0.1 -0.1)">
       <defs>
        <path id="DejaVuSans-36" d="M 2113 2584 
Q 1688 2584 1439 2293 
Q 1191 2003 1191 1497 
Q 1191 994 1439 701 
Q 1688 409 2113 409 
Q 2538 409 2786 701 
Q 3034 994 3034 1497 
Q 3034 2003 2786 2293 
Q 2538 2584 2113 2584 
z
M 3366 4563 
L 3366 3988 
Q 3128 4100 2886 4159 
Q 2644 4219 2406 4219 
Q 1781 4219 1451 3797 
Q 1122 3375 1075 2522 
Q 1259 2794 1537 2939 
Q 1816 3084 2150 3084 
Q 2853 3084 3261 2657 
Q 3669 2231 3669 1497 
Q 3669 778 3244 343 
Q 2819 -91 2113 -91 
Q 1303 -91 875 529 
Q 447 1150 447 2328 
Q 447 3434 972 4092 
Q 1497 4750 2381 4750 
Q 2619 4750 2861 4703 
Q 3103 4656 3366 4563 
z
" transform="scale(0.015625)"/>
       </defs>
       <use xlink:href="#DejaVuSans-31"/>
       <use xlink:href="#DejaVuSans-2e" x="63.623047"/>
       <use xlink:href="#DejaVuSans-36" x="95.410156"/>
      </g>
     </g>
    </g>
    <g id="ytick_5">
     <g id="line2d_14">
      <g>
       <use xlink:href="#m90e7494e76" x="57.6" y="101.952" style="stroke: #000000; stroke-width: 0.8"/>
      </g>
     </g>
     <g id="text_15">
      <!-- 1.8 -->
      <g transform="translate(34.696875 105.751219)scale(0.1 -0.1)">
       <defs>
        <path id="DejaVuSans-38" d="M 2034 2216 
Q 1584 2216 1326 1975 
Q 1069 1734 1069 1313 
Q 1069 891 1326 650 
Q 1584 409 2034 409 
Q 2484 409 2743 651 
Q 3003 894 3003 1313 
Q 3003 1734 2745 1975 
Q 2488 2216 2034 2216 
z
M 1403 2484 
Q 997 2584 770 2862 
Q 544 3141 544 3541 
Q 544 4100 942 4425 
Q 1341 4750 2034 4750 
Q 2731 4750 3128 4425 
Q 3525 4100 3525 3541 
Q 3525 3141 3298 2862 
Q 3072 2584 2669 2484 
Q 3125 2378 3379 2068 
Q 3634 1759 3634 1313 
Q 3634 634 3220 271 
Q 2806 -91 2034 -91 
Q 1263 -91 848 271 
Q 434 634 434 1313 
Q 434 1759 690 2068 
Q 947 2378 1403 2484 
z
M 1172 3481 
Q 1172 3119 1398 2916 
Q 1625 2713 2034 2713 
Q 2441 2713 2670 2916 
Q 2900 3119 2900 3481 
Q 2900 3844 2670 4047 
Q 2441 4250 2034 4250 
Q 1625 4250 1398 4047 
Q 1172 3844 1172 3481 
z
" transform="scale(0.015625)"/>
       </defs>
       <use xlink:href="#DejaVuSans-31"/>
       <use xlink:href="#DejaVuSans-2e" x="63.623047"/>
       <use xlink:href="#DejaVuSans-38" x="95.410156"/>
      </g>
     </g>
    </g>
    <g id="ytick_6">
     <g id="line2d_15">
      <g>
       <use xlink:href="#m90e7494e76" x="57.6" y="53.568" style="stroke: #000000; stroke-width: 0.8"/>
      </g>
     </g>
     <g id="text_16">
      <!-- 2.0 -->
      <g transform="translate(34.696875 57.367219)scale(0.1 -0.1)">
       <use xlink:href="#DejaVuSans-32"/>
       <use xlink:href="#DejaVuSans-2e" x="63.623047"/>
       <use xlink:href="#DejaVuSans-30" x="95.410156"/>
      </g>
     </g>
    </g>
    <g id="text_17">
     <!-- $f_i$ -->
     <g transform="translate(28.617188 177.428)rotate(-90)scale(0.1 -0.1)">
      <defs>
       <path id="DejaVuSans-Oblique-66" d="M 3059 4863 
L 2969 4384 
L 2419 4384 
Q 2106 4384 1964 4261 
Q 1822 4138 1753 3809 
L 1691 3500 
L 2638 3500 
L 2553 3053 
L 1606 3053 
L 1013 0 
L 434 0 
L 1031 3053 
L 481 3053 
L 563 3500 
L 1113 3500 
L 1159 3744 
Q 1278 4363 1576 4613 
Q 1875 4863 2516 4863 
L 3059 4863 
z
" transform="scale(0.015625)"/>
       <path id="DejaVuSans-Oblique-69" d="M 1172 4863 
L 1747 4863 
L 1606 4134 
L 1031 4134 
L 1172 4863 
z
M 909 3500 
L 1484 3500 
L 800 0 
L 225 0 
L 909 3500 
z
" transform="scale(0.015625)"/>
      </defs>
      <use xlink:href="#DejaVuSans-Oblique-66" transform="translate(0 0.015625)"/>
      <use xlink:href="#DejaVuSans-Oblique-69" transform="translate(35.205078 -16.390625)scale(0.7)"/>
     </g>
    </g>
   </g>
   <g id="line2d_16">
    <path d="M 73.832727 295.488 
L 235.99751 295.488 
L 236.32249 53.568 
L 398.487273 53.568 
L 398.487273 53.568 
" clip-path="url(#p6e56cef936)" style="fill: none; stroke: #0000ff; stroke-width: 1.5; stroke-linecap: square"/>
   </g>
   <g id="line2d_17">
    <path d="M 73.840844 295.488 
L 74.18702 295.488 
L 74.533197 295.488 
L 74.879374 295.488 
L 75.225551 295.488 
L 75.571728 295.488 
L 75.917904 295.488 
L 76.264081 295.488 
L 76.610258 295.488 
L 76.956435 295.488 
L 77.302611 295.488 
L 77.648788 295.488 
L 77.994965 295.488 
L 78.341142 295.488 
L 78.687319 295.488 
L 79.033495 295.488 
L 79.379672 295.488 
L 79.725849 295.488 
L 80.072026 295.488 
L 80.418203 295.488 
L 80.764379 295.488 
L 81.110556 295.488 
L 81.456733 295.488 
L 81.80291 295.488 
L 82.149086 295.488 
" clip-path="url(#p6e56cef936)" style="fill: none; stroke: #008000; stroke-width: 1.5; stroke-linecap: square"/>
   </g>
   <g id="line2d_18">
    <path d="M 82.165319 295.488 
L 82.511496 295.488 
L 82.857673 295.488 
L 83.20385 295.488 
L 83.550026 295.488 
L 83.896203 295.488 
L 84.24238 295.488 
L 84.588557 295.488 
L 84.934733 295.488 
L 85.28091 295.488 
L 85.627087 295.488 
L 85.973264 295.488 
L 86.319441 295.488 
L 86.665617 295.488 
L 87.011794 295.488 
L 87.357971 295.488 
L 87.704148 295.488 
L 88.050324 295.488 
L 88.396501 295.488 
L 88.742678 295.488 
L 89.088855 295.488 
L 89.435032 295.488 
L 89.781208 295.488 
L 90.127385 295.488 
L 90.473562 295.488 
" clip-path="url(#p6e56cef936)" style="fill: none; stroke: #008000; stroke-width: 1.5; stroke-linecap: square"/>
   </g>
   <g id="line2d_19">
    <path d="M 90.489795 295.488 
L 90.835971 295.488 
L 91.182148 295.488 
L 91.528325 295.488 
L 91.874502 295.488 
L 92.220679 295.488 
L 92.566855 295.488 
L 92.913032 295.488 
L 93.259209 295.488 
L 93.605386 295.488 
L 93.951563 295.488 
L 94.297739 295.488 
L 94.643916 295.488 
L 94.990093 295.488 
L 95.33627 295.488 
L 95.682446 295.488 
L 96.028623 295.488 
L 96.3748 295.488 
L 96.720977 295.488 
L 97.067154 295.488 
L 97.41333 295.488 
L 97.759507 295.488 
L 98.105684 295.488 
L 98.451861 295.488 
L 98.798037 295.488 
" clip-path="url(#p6e56cef936)" style="fill: none; stroke: #008000; stroke-width: 1.5; stroke-linecap: square"/>
   </g>
   <g id="line2d_20">
    <path d="M 98.81427 295.488 
L 99.160447 295.488 
L 99.506624 295.488 
L 99.852801 295.488 
L 100.198977 295.488 
L 100.545154 295.488 
L 100.891331 295.488 
L 101.237508 295.488 
L 101.583684 295.488 
L 101.929861 295.488 
L 102.276038 295.488 
L 102.622215 295.488 
L 102.968392 295.488 
L 103.314568 295.488 
L 103.660745 295.488 
L 104.006922 295.488 
L 104.353099 295.488 
L 104.699276 295.488 
L 105.045452 295.488 
L 105.391629 295.488 
L 105.737806 295.488 
L 106.083983 295.488 
L 106.430159 295.488 
L 106.776336 295.488 
L 107.122513 295.488 
" clip-path="url(#p6e56cef936)" style="fill: none; stroke: #008000; stroke-width: 1.5; stroke-linecap: square"/>
   </g>
   <g id="line2d_21">
    <path d="M 107.138746 295.488 
L 107.484923 295.488 
L 107.831099 295.488 
L 108.177276 295.488 
L 108.523453 295.488 
L 108.86963 295.488 
L 109.215806 295.488 
L 109.561983 295.488 
L 109.90816 295.488 
L 110.254337 295.488 
L 110.600514 295.488 
L 110.94669 295.488 
L 111.292867 295.488 
L 111.639044 295.488 
L 111.985221 295.488 
L 112.331397 295.488 
L 112.677574 295.488 
L 113.023751 295.488 
L 113.369928 295.488 
L 113.716105 295.488 
L 114.062281 295.488 
L 114.408458 295.488 
L 114.754635 295.488 
L 115.100812 295.488 
L 115.446989 295.488 
" clip-path="url(#p6e56cef936)" style="fill: none; stroke: #008000; stroke-width: 1.5; stroke-linecap: square"/>
   </g>
   <g id="line2d_22">
    <path d="M 115.463221 295.488 
L 115.809398 295.488 
L 116.155575 295.488 
L 116.501752 295.488 
L 116.847928 295.488 
L 117.194105 295.488 
L 117.540282 295.488 
L 117.886459 295.488 
L 118.232636 295.488 
L 118.578812 295.488 
L 118.924989 295.488 
L 119.271166 295.488 
L 119.617343 295.488 
L 119.963519 295.488 
L 120.309696 295.488 
L 120.655873 295.488 
L 121.00205 295.488 
L 121.348227 295.488 
L 121.694403 295.488 
L 122.04058 295.488 
L 122.386757 295.488 
L 122.732934 295.488 
L 123.07911 295.488 
L 123.425287 295.488 
L 123.771464 295.488 
" clip-path="url(#p6e56cef936)" style="fill: none; stroke: #008000; stroke-width: 1.5; stroke-linecap: square"/>
   </g>
   <g id="line2d_23">
    <path d="M 123.787697 295.488 
L 124.133874 295.488 
L 124.48005 295.488 
L 124.826227 295.488 
L 125.172404 295.488 
L 125.518581 295.488 
L 125.864757 295.488 
L 126.210934 295.488 
L 126.557111 295.488 
L 126.903288 295.488 
L 127.249465 295.488 
L 127.595641 295.488 
L 127.941818 295.488 
L 128.287995 295.488 
L 128.634172 295.488 
L 128.980349 295.488 
L 129.326525 295.488 
L 129.672702 295.488 
L 130.018879 295.488 
L 130.365056 295.488 
L 130.711232 295.488 
L 131.057409 295.488 
L 131.403586 295.488 
L 131.749763 295.488 
L 132.09594 295.488 
" clip-path="url(#p6e56cef936)" style="fill: none; stroke: #008000; stroke-width: 1.5; stroke-linecap: square"/>
   </g>
   <g id="line2d_24">
    <path d="M 132.112172 295.488 
L 132.458349 295.488 
L 132.804526 295.488 
L 133.150703 295.488 
L 133.496879 295.488 
L 133.843056 295.488 
L 134.189233 295.488 
L 134.53541 295.488 
L 134.881587 295.488 
L 135.227763 295.488 
L 135.57394 295.488 
L 135.920117 295.488 
L 136.266294 295.488 
L 136.61247 295.488 
L 136.958647 295.488 
L 137.304824 295.488 
L 137.651001 295.488 
L 137.997178 295.488 
L 138.343354 295.488 
L 138.689531 295.488 
L 139.035708 295.488 
L 139.381885 295.488 
L 139.728062 295.488 
L 140.074238 295.488 
L 140.420415 295.488 
" clip-path="url(#p6e56cef936)" style="fill: none; stroke: #008000; stroke-width: 1.5; stroke-linecap: square"/>
   </g>
   <g id="line2d_25">
    <path d="M 140.436648 295.488 
L 140.782825 295.488 
L 141.129001 295.488 
L 141.475178 295.488 
L 141.821355 295.488 
L 142.167532 295.488 
L 142.513709 295.488 
L 142.859885 295.488 
L 143.206062 295.488 
L 143.552239 295.488 
L 143.898416 295.488 
L 144.244592 295.488 
L 144.590769 295.488 
L 144.936946 295.488 
L 145.283123 295.488 
L 145.6293 295.488 
L 145.975476 295.488 
L 146.321653 295.488 
L 146.66783 295.488 
L 147.014007 295.488 
L 147.360183 295.488 
L 147.70636 295.488 
L 148.052537 295.488 
L 148.398714 295.488 
L 148.744891 295.488 
" clip-path="url(#p6e56cef936)" style="fill: none; stroke: #008000; stroke-width: 1.5; stroke-linecap: square"/>
   </g>
   <g id="line2d_26">
    <path d="M 148.761123 295.488 
L 149.1073 295.488 
L 149.453477 295.488 
L 149.799654 295.488 
L 150.14583 295.488 
L 150.492007 295.488 
L 150.838184 295.488 
L 151.184361 295.488 
L 151.530538 295.488 
L 151.876714 295.488 
L 152.222891 295.488 
L 152.569068 295.488 
L 152.915245 295.488 
L 153.261422 295.488 
L 153.607598 295.488 
L 153.953775 295.488 
L 154.299952 295.488 
L 154.646129 295.488 
L 154.992305 295.488 
L 155.338482 295.488 
L 155.684659 295.488 
L 156.030836 295.488 
L 156.377013 295.488 
L 156.723189 295.488 
L 157.069366 295.488 
" clip-path="url(#p6e56cef936)" style="fill: none; stroke: #008000; stroke-width: 1.5; stroke-linecap: square"/>
   </g>
   <g id="line2d_27">
    <path d="M 157.085599 295.488 
L 157.431776 295.488 
L 157.777952 295.488 
L 158.124129 295.488 
L 158.470306 295.488 
L 158.816483 295.488 
L 159.16266 295.488 
L 159.508836 295.488 
L 159.855013 295.488 
L 160.20119 295.488 
L 160.547367 295.488 
L 160.893543 295.488 
L 161.23972 295.488 
L 161.585897 295.488 
L 161.932074 295.488 
L 162.278251 295.488 
L 162.624427 295.488 
L 162.970604 295.488 
L 163.316781 295.488 
L 163.662958 295.488 
L 164.009135 295.488 
L 164.355311 295.488 
L 164.701488 295.488 
L 165.047665 295.488 
L 165.393842 295.488 
" clip-path="url(#p6e56cef936)" style="fill: none; stroke: #008000; stroke-width: 1.5; stroke-linecap: square"/>
   </g>
   <g id="line2d_28">
    <path d="M 165.410074 295.488 
L 165.756251 295.488 
L 166.102428 295.488 
L 166.448605 295.488 
L 166.794782 295.488 
L 167.140958 295.488 
L 167.487135 295.488 
L 167.833312 295.488 
L 168.179489 295.488 
L 168.525665 295.488 
L 168.871842 295.488 
L 169.218019 295.488 
L 169.564196 295.488 
L 169.910373 295.488 
L 170.256549 295.488 
L 170.602726 295.488 
L 170.948903 295.488 
L 171.29508 295.488 
L 171.641257 295.488 
L 171.987433 295.488 
L 172.33361 295.488 
L 172.679787 295.488 
L 173.025964 295.488 
L 173.37214 295.488 
L 173.718317 295.488 
" clip-path="url(#p6e56cef936)" style="fill: none; stroke: #008000; stroke-width: 1.5; stroke-linecap: square"/>
   </g>
   <g id="line2d_29">
    <path d="M 173.73455 295.488 
L 174.080727 295.488 
L 174.426903 295.488 
L 174.77308 295.488 
L 175.119257 295.488 
L 175.465434 295.488 
L 175.811611 295.488 
L 176.157787 295.488 
L 176.503964 295.488 
L 176.850141 295.488 
L 177.196318 295.488 
L 177.542495 295.488 
L 177.888671 295.488 
L 178.234848 295.488 
L 178.581025 295.488 
L 178.927202 295.488 
L 179.273378 295.488 
L 179.619555 295.488 
L 179.965732 295.488 
L 180.311909 295.488 
L 180.658086 295.488 
L 181.004262 295.488 
L 181.350439 295.488 
L 181.696616 295.488 
L 182.042793 295.488 
" clip-path="url(#p6e56cef936)" style="fill: none; stroke: #008000; stroke-width: 1.5; stroke-linecap: square"/>
   </g>
   <g id="line2d_30">
    <path d="M 182.059025 295.488 
L 182.405202 295.488 
L 182.751379 295.488 
L 183.097556 295.488 
L 183.443733 295.488 
L 183.789909 295.488 
L 184.136086 295.488 
L 184.482263 295.488 
L 184.82844 295.488 
L 185.174617 295.488 
L 185.520793 295.488 
L 185.86697 295.488 
L 186.213147 295.488 
L 186.559324 295.488 
L 186.9055 295.488 
L 187.251677 295.488 
L 187.597854 295.488 
L 187.944031 295.488 
L 188.290208 295.488 
L 188.636384 295.488 
L 188.982561 295.488 
L 189.328738 295.488 
L 189.674915 295.488 
L 190.021091 295.488 
L 190.367268 295.488 
" clip-path="url(#p6e56cef936)" style="fill: none; stroke: #008000; stroke-width: 1.5; stroke-linecap: square"/>
   </g>
   <g id="line2d_31">
    <path d="M 190.383501 295.488 
L 190.729678 295.488 
L 191.075855 295.488 
L 191.422031 295.488 
L 191.768208 295.488 
L 192.114385 295.488 
L 192.460562 295.488 
L 192.806738 295.488 
L 193.152915 295.488 
L 193.499092 295.488 
L 193.845269 295.488 
L 194.191446 295.488 
L 194.537622 295.488 
L 194.883799 295.488 
L 195.229976 295.488 
L 195.576153 295.488 
L 195.92233 295.488 
L 196.268506 295.488 
L 196.614683 295.488 
L 196.96086 295.488 
L 197.307037 295.488 
L 197.653213 295.488 
L 197.99939 295.488 
L 198.345567 295.488 
L 198.691744 295.488 
" clip-path="url(#p6e56cef936)" style="fill: none; stroke: #008000; stroke-width: 1.5; stroke-linecap: square"/>
   </g>
   <g id="line2d_32">
    <path d="M 198.707977 295.488 
L 199.054153 295.488 
L 199.40033 295.488 
L 199.746507 295.488 
L 200.092684 295.488 
L 200.43886 295.488 
L 200.785037 295.488 
L 201.131214 295.488 
L 201.477391 295.488 
L 201.823568 295.488 
L 202.169744 295.488 
L 202.515921 295.488 
L 202.862098 295.488 
L 203.208275 295.488 
L 203.554451 295.488 
L 203.900628 295.488 
L 204.246805 295.488 
L 204.592982 295.488 
L 204.939159 295.488 
L 205.285335 295.488 
L 205.631512 295.488 
L 205.977689 295.488 
L 206.323866 295.488 
L 206.670043 295.488 
L 207.016219 295.488 
" clip-path="url(#p6e56cef936)" style="fill: none; stroke: #008000; stroke-width: 1.5; stroke-linecap: square"/>
   </g>
   <g id="line2d_33">
    <path d="M 207.032452 295.488 
L 207.378629 295.488 
L 207.724806 295.488 
L 208.070982 295.488 
L 208.417159 295.488 
L 208.763336 295.488 
L 209.109513 295.488 
L 209.45569 295.488 
L 209.801866 295.488 
L 210.148043 295.488 
L 210.49422 295.488 
L 210.840397 295.488 
L 211.186573 295.488 
L 211.53275 295.488 
L 211.878927 295.488 
L 212.225104 295.488 
L 212.571281 295.488 
L 212.917457 295.488 
L 213.263634 295.488 
L 213.609811 295.488 
L 213.955988 295.488 
L 214.302164 295.488 
L 214.648341 295.488 
L 214.994518 295.488 
L 215.340695 295.488 
" clip-path="url(#p6e56cef936)" style="fill: none; stroke: #008000; stroke-width: 1.5; stroke-linecap: square"/>
   </g>
   <g id="line2d_34">
    <path d="M 215.356928 295.488 
L 215.703104 295.488 
L 216.049281 295.488 
L 216.395458 295.488 
L 216.741635 295.488 
L 217.087811 295.488 
L 217.433988 295.488 
L 217.780165 295.488 
L 218.126342 295.488 
L 218.472519 295.488 
L 218.818695 295.488 
L 219.164872 295.488 
L 219.511049 295.488 
L 219.857226 295.488 
L 220.203403 295.488 
L 220.549579 295.488 
L 220.895756 295.488 
L 221.241933 295.488 
L 221.58811 295.488 
L 221.934286 295.488 
L 222.280463 295.488 
L 222.62664 295.488 
L 222.972817 295.488 
L 223.318994 295.488 
L 223.66517 295.488 
" clip-path="url(#p6e56cef936)" style="fill: none; stroke: #008000; stroke-width: 1.5; stroke-linecap: square"/>
   </g>
   <g id="line2d_35">
    <path d="M 223.681403 295.488 
L 224.02758 295.488 
L 224.373757 295.488 
L 224.719933 295.488 
L 225.06611 295.488 
L 225.412287 295.488 
L 225.758464 295.488 
L 226.104641 295.488 
L 226.450817 295.488 
L 226.796994 295.488 
L 227.143171 295.488 
L 227.489348 295.488 
L 227.835524 295.488 
L 228.181701 295.488 
L 228.527878 295.488 
L 228.874055 295.488 
L 229.220232 295.488 
L 229.566408 295.488 
L 229.912585 295.488 
L 230.258762 295.488 
L 230.604939 295.488 
L 230.951116 295.488 
L 231.297292 295.488 
L 231.643469 295.488 
L 231.989646 295.488 
" clip-path="url(#p6e56cef936)" style="fill: none; stroke: #008000; stroke-width: 1.5; stroke-linecap: square"/>
   </g>
   <g id="line2d_36">
    <path d="M 232.005879 295.488 
L 232.352055 295.488 
L 232.698232 295.488 
L 233.044409 295.488 
L 233.390586 295.488 
L 233.736763 295.488 
L 234.082939 295.488 
L 234.429116 295.488 
L 234.775293 295.488 
L 235.12147 295.488 
L 235.467646 295.488 
L 235.813823 295.488 
L 236.16 53.568 
L 236.506177 53.568 
L 236.852354 53.568 
L 237.19853 53.568 
L 237.544707 53.568 
L 237.890884 53.568 
L 238.237061 53.568 
L 238.583237 53.568 
L 238.929414 53.568 
L 239.275591 53.568 
L 239.621768 53.568 
L 239.967945 53.568 
L 240.314121 53.568 
" clip-path="url(#p6e56cef936)" style="fill: none; stroke: #008000; stroke-width: 1.5; stroke-linecap: square"/>
   </g>
   <g id="line2d_37">
    <path d="M 240.330354 53.568 
L 240.676531 53.568 
L 241.022708 53.568 
L 241.368884 53.568 
L 241.715061 53.568 
L 242.061238 53.568 
L 242.407415 53.568 
L 242.753592 53.568 
L 243.099768 53.568 
L 243.445945 53.568 
L 243.792122 53.568 
L 244.138299 53.568 
L 244.484476 53.568 
L 244.830652 53.568 
L 245.176829 53.568 
L 245.523006 53.568 
L 245.869183 53.568 
L 246.215359 53.568 
L 246.561536 53.568 
L 246.907713 53.568 
L 247.25389 53.568 
L 247.600067 53.568 
L 247.946243 53.568 
L 248.29242 53.568 
L 248.638597 53.568 
" clip-path="url(#p6e56cef936)" style="fill: none; stroke: #008000; stroke-width: 1.5; stroke-linecap: square"/>
   </g>
   <g id="line2d_38">
    <path d="M 248.65483 53.568 
L 249.001006 53.568 
L 249.347183 53.568 
L 249.69336 53.568 
L 250.039537 53.568 
L 250.385714 53.568 
L 250.73189 53.568 
L 251.078067 53.568 
L 251.424244 53.568 
L 251.770421 53.568 
L 252.116597 53.568 
L 252.462774 53.568 
L 252.808951 53.568 
L 253.155128 53.568 
L 253.501305 53.568 
L 253.847481 53.568 
L 254.193658 53.568 
L 254.539835 53.568 
L 254.886012 53.568 
L 255.232189 53.568 
L 255.578365 53.568 
L 255.924542 53.568 
L 256.270719 53.568 
L 256.616896 53.568 
L 256.963072 53.568 
" clip-path="url(#p6e56cef936)" style="fill: none; stroke: #008000; stroke-width: 1.5; stroke-linecap: square"/>
   </g>
   <g id="line2d_39">
    <path d="M 256.979305 53.568 
L 257.325482 53.568 
L 257.671659 53.568 
L 258.017836 53.568 
L 258.364012 53.568 
L 258.710189 53.568 
L 259.056366 53.568 
L 259.402543 53.568 
L 259.748719 53.568 
L 260.094896 53.568 
L 260.441073 53.568 
L 260.78725 53.568 
L 261.133427 53.568 
L 261.479603 53.568 
L 261.82578 53.568 
L 262.171957 53.568 
L 262.518134 53.568 
L 262.86431 53.568 
L 263.210487 53.568 
L 263.556664 53.568 
L 263.902841 53.568 
L 264.249018 53.568 
L 264.595194 53.568 
L 264.941371 53.568 
L 265.287548 53.568 
" clip-path="url(#p6e56cef936)" style="fill: none; stroke: #008000; stroke-width: 1.5; stroke-linecap: square"/>
   </g>
   <g id="line2d_40">
    <path d="M 265.303781 53.568 
L 265.649957 53.568 
L 265.996134 53.568 
L 266.342311 53.568 
L 266.688488 53.568 
L 267.034665 53.568 
L 267.380841 53.568 
L 267.727018 53.568 
L 268.073195 53.568 
L 268.419372 53.568 
L 268.765549 53.568 
L 269.111725 53.568 
L 269.457902 53.568 
L 269.804079 53.568 
L 270.150256 53.568 
L 270.496432 53.568 
L 270.842609 53.568 
L 271.188786 53.568 
L 271.534963 53.568 
L 271.88114 53.568 
L 272.227316 53.568 
L 272.573493 53.568 
L 272.91967 53.568 
L 273.265847 53.568 
L 273.612023 53.568 
" clip-path="url(#p6e56cef936)" style="fill: none; stroke: #008000; stroke-width: 1.5; stroke-linecap: square"/>
   </g>
   <g id="line2d_41">
    <path d="M 273.628256 53.568 
L 273.974433 53.568 
L 274.32061 53.568 
L 274.666787 53.568 
L 275.012963 53.568 
L 275.35914 53.568 
L 275.705317 53.568 
L 276.051494 53.568 
L 276.39767 53.568 
L 276.743847 53.568 
L 277.090024 53.568 
L 277.436201 53.568 
L 277.782378 53.568 
L 278.128554 53.568 
L 278.474731 53.568 
L 278.820908 53.568 
L 279.167085 53.568 
L 279.513262 53.568 
L 279.859438 53.568 
L 280.205615 53.568 
L 280.551792 53.568 
L 280.897969 53.568 
L 281.244145 53.568 
L 281.590322 53.568 
L 281.936499 53.568 
" clip-path="url(#p6e56cef936)" style="fill: none; stroke: #008000; stroke-width: 1.5; stroke-linecap: square"/>
   </g>
   <g id="line2d_42">
    <path d="M 281.952732 53.568 
L 282.298909 53.568 
L 282.645085 53.568 
L 282.991262 53.568 
L 283.337439 53.568 
L 283.683616 53.568 
L 284.029792 53.568 
L 284.375969 53.568 
L 284.722146 53.568 
L 285.068323 53.568 
L 285.4145 53.568 
L 285.760676 53.568 
L 286.106853 53.568 
L 286.45303 53.568 
L 286.799207 53.568 
L 287.145383 53.568 
L 287.49156 53.568 
L 287.837737 53.568 
L 288.183914 53.568 
L 288.530091 53.568 
L 288.876267 53.568 
L 289.222444 53.568 
L 289.568621 53.568 
L 289.914798 53.568 
L 290.260975 53.568 
" clip-path="url(#p6e56cef936)" style="fill: none; stroke: #008000; stroke-width: 1.5; stroke-linecap: square"/>
   </g>
   <g id="line2d_43">
    <path d="M 290.277207 53.568 
L 290.623384 53.568 
L 290.969561 53.568 
L 291.315738 53.568 
L 291.661914 53.568 
L 292.008091 53.568 
L 292.354268 53.568 
L 292.700445 53.568 
L 293.046622 53.568 
L 293.392798 53.568 
L 293.738975 53.568 
L 294.085152 53.568 
L 294.431329 53.568 
L 294.777505 53.568 
L 295.123682 53.568 
L 295.469859 53.568 
L 295.816036 53.568 
L 296.162213 53.568 
L 296.508389 53.568 
L 296.854566 53.568 
L 297.200743 53.568 
L 297.54692 53.568 
L 297.893097 53.568 
L 298.239273 53.568 
L 298.58545 53.568 
" clip-path="url(#p6e56cef936)" style="fill: none; stroke: #008000; stroke-width: 1.5; stroke-linecap: square"/>
   </g>
   <g id="line2d_44">
    <path d="M 298.601683 53.568 
L 298.94786 53.568 
L 299.294036 53.568 
L 299.640213 53.568 
L 299.98639 53.568 
L 300.332567 53.568 
L 300.678743 53.568 
L 301.02492 53.568 
L 301.371097 53.568 
L 301.717274 53.568 
L 302.063451 53.568 
L 302.409627 53.568 
L 302.755804 53.568 
L 303.101981 53.568 
L 303.448158 53.568 
L 303.794335 53.568 
L 304.140511 53.568 
L 304.486688 53.568 
L 304.832865 53.568 
L 305.179042 53.568 
L 305.525218 53.568 
L 305.871395 53.568 
L 306.217572 53.568 
L 306.563749 53.568 
L 306.909926 53.568 
" clip-path="url(#p6e56cef936)" style="fill: none; stroke: #008000; stroke-width: 1.5; stroke-linecap: square"/>
   </g>
   <g id="line2d_45">
    <path d="M 306.926158 53.568 
L 307.272335 53.568 
L 307.618512 53.568 
L 307.964689 53.568 
L 308.310865 53.568 
L 308.657042 53.568 
L 309.003219 53.568 
L 309.349396 53.568 
L 309.695573 53.568 
L 310.041749 53.568 
L 310.387926 53.568 
L 310.734103 53.568 
L 311.08028 53.568 
L 311.426457 53.568 
L 311.772633 53.568 
L 312.11881 53.568 
L 312.464987 53.568 
L 312.811164 53.568 
L 313.15734 53.568 
L 313.503517 53.568 
L 313.849694 53.568 
L 314.195871 53.568 
L 314.542048 53.568 
L 314.888224 53.568 
L 315.234401 53.568 
" clip-path="url(#p6e56cef936)" style="fill: none; stroke: #008000; stroke-width: 1.5; stroke-linecap: square"/>
   </g>
   <g id="line2d_46">
    <path d="M 315.250634 53.568 
L 315.596811 53.568 
L 315.942987 53.568 
L 316.289164 53.568 
L 316.635341 53.568 
L 316.981518 53.568 
L 317.327695 53.568 
L 317.673871 53.568 
L 318.020048 53.568 
L 318.366225 53.568 
L 318.712402 53.568 
L 319.058578 53.568 
L 319.404755 53.568 
L 319.750932 53.568 
L 320.097109 53.568 
L 320.443286 53.568 
L 320.789462 53.568 
L 321.135639 53.568 
L 321.481816 53.568 
L 321.827993 53.568 
L 322.17417 53.568 
L 322.520346 53.568 
L 322.866523 53.568 
L 323.2127 53.568 
L 323.558877 53.568 
" clip-path="url(#p6e56cef936)" style="fill: none; stroke: #008000; stroke-width: 1.5; stroke-linecap: square"/>
   </g>
   <g id="line2d_47">
    <path d="M 323.575109 53.568 
L 323.921286 53.568 
L 324.267463 53.568 
L 324.61364 53.568 
L 324.959817 53.568 
L 325.305993 53.568 
L 325.65217 53.568 
L 325.998347 53.568 
L 326.344524 53.568 
L 326.6907 53.568 
L 327.036877 53.568 
L 327.383054 53.568 
L 327.729231 53.568 
L 328.075408 53.568 
L 328.421584 53.568 
L 328.767761 53.568 
L 329.113938 53.568 
L 329.460115 53.568 
L 329.806291 53.568 
L 330.152468 53.568 
L 330.498645 53.568 
L 330.844822 53.568 
L 331.190999 53.568 
L 331.537175 53.568 
L 331.883352 53.568 
" clip-path="url(#p6e56cef936)" style="fill: none; stroke: #008000; stroke-width: 1.5; stroke-linecap: square"/>
   </g>
   <g id="line2d_48">
    <path d="M 331.899585 53.568 
L 332.245762 53.568 
L 332.591938 53.568 
L 332.938115 53.568 
L 333.284292 53.568 
L 333.630469 53.568 
L 333.976646 53.568 
L 334.322822 53.568 
L 334.668999 53.568 
L 335.015176 53.568 
L 335.361353 53.568 
L 335.70753 53.568 
L 336.053706 53.568 
L 336.399883 53.568 
L 336.74606 53.568 
L 337.092237 53.568 
L 337.438413 53.568 
L 337.78459 53.568 
L 338.130767 53.568 
L 338.476944 53.568 
L 338.823121 53.568 
L 339.169297 53.568 
L 339.515474 53.568 
L 339.861651 53.568 
L 340.207828 53.568 
" clip-path="url(#p6e56cef936)" style="fill: none; stroke: #008000; stroke-width: 1.5; stroke-linecap: square"/>
   </g>
   <g id="line2d_49">
    <path d="M 340.22406 53.568 
L 340.570237 53.568 
L 340.916414 53.568 
L 341.262591 53.568 
L 341.608768 53.568 
L 341.954944 53.568 
L 342.301121 53.568 
L 342.647298 53.568 
L 342.993475 53.568 
L 343.339651 53.568 
L 343.685828 53.568 
L 344.032005 53.568 
L 344.378182 53.568 
L 344.724359 53.568 
L 345.070535 53.568 
L 345.416712 53.568 
L 345.762889 53.568 
L 346.109066 53.568 
L 346.455243 53.568 
L 346.801419 53.568 
L 347.147596 53.568 
L 347.493773 53.568 
L 347.83995 53.568 
L 348.186126 53.568 
L 348.532303 53.568 
" clip-path="url(#p6e56cef936)" style="fill: none; stroke: #008000; stroke-width: 1.5; stroke-linecap: square"/>
   </g>
   <g id="line2d_50">
    <path d="M 348.548536 53.568 
L 348.894713 53.568 
L 349.24089 53.568 
L 349.587066 53.568 
L 349.933243 53.568 
L 350.27942 53.568 
L 350.625597 53.568 
L 350.971773 53.568 
L 351.31795 53.568 
L 351.664127 53.568 
L 352.010304 53.568 
L 352.356481 53.568 
L 352.702657 53.568 
L 353.048834 53.568 
L 353.395011 53.568 
L 353.741188 53.568 
L 354.087364 53.568 
L 354.433541 53.568 
L 354.779718 53.568 
L 355.125895 53.568 
L 355.472072 53.568 
L 355.818248 53.568 
L 356.164425 53.568 
L 356.510602 53.568 
L 356.856779 53.568 
" clip-path="url(#p6e56cef936)" style="fill: none; stroke: #008000; stroke-width: 1.5; stroke-linecap: square"/>
   </g>
   <g id="line2d_51">
    <path d="M 356.873011 53.568 
L 357.219188 53.568 
L 357.565365 53.568 
L 357.911542 53.568 
L 358.257719 53.568 
L 358.603895 53.568 
L 358.950072 53.568 
L 359.296249 53.568 
L 359.642426 53.568 
L 359.988603 53.568 
L 360.334779 53.568 
L 360.680956 53.568 
L 361.027133 53.568 
L 361.37331 53.568 
L 361.719486 53.568 
L 362.065663 53.568 
L 362.41184 53.568 
L 362.758017 53.568 
L 363.104194 53.568 
L 363.45037 53.568 
L 363.796547 53.568 
L 364.142724 53.568 
L 364.488901 53.568 
L 364.835077 53.568 
L 365.181254 53.568 
" clip-path="url(#p6e56cef936)" style="fill: none; stroke: #008000; stroke-width: 1.5; stroke-linecap: square"/>
   </g>
   <g id="line2d_52">
    <path d="M 365.197487 53.568 
L 365.543664 53.568 
L 365.889841 53.568 
L 366.236017 53.568 
L 366.582194 53.568 
L 366.928371 53.568 
L 367.274548 53.568 
L 367.620724 53.568 
L 367.966901 53.568 
L 368.313078 53.568 
L 368.659255 53.568 
L 369.005432 53.568 
L 369.351608 53.568 
L 369.697785 53.568 
L 370.043962 53.568 
L 370.390139 53.568 
L 370.736316 53.568 
L 371.082492 53.568 
L 371.428669 53.568 
L 371.774846 53.568 
L 372.121023 53.568 
L 372.467199 53.568 
L 372.813376 53.568 
L 373.159553 53.568 
L 373.50573 53.568 
" clip-path="url(#p6e56cef936)" style="fill: none; stroke: #008000; stroke-width: 1.5; stroke-linecap: square"/>
   </g>
   <g id="line2d_53">
    <path d="M 373.521963 53.568 
L 373.868139 53.568 
L 374.214316 53.568 
L 374.560493 53.568 
L 374.90667 53.568 
L 375.252846 53.568 
L 375.599023 53.568 
L 375.9452 53.568 
L 376.291377 53.568 
L 376.637554 53.568 
L 376.98373 53.568 
L 377.329907 53.568 
L 377.676084 53.568 
L 378.022261 53.568 
L 378.368437 53.568 
L 378.714614 53.568 
L 379.060791 53.568 
L 379.406968 53.568 
L 379.753145 53.568 
L 380.099321 53.568 
L 380.445498 53.568 
L 380.791675 53.568 
L 381.137852 53.568 
L 381.484029 53.568 
L 381.830205 53.568 
" clip-path="url(#p6e56cef936)" style="fill: none; stroke: #008000; stroke-width: 1.5; stroke-linecap: square"/>
   </g>
   <g id="line2d_54">
    <path d="M 381.846438 53.568 
L 382.192615 53.568 
L 382.538792 53.568 
L 382.884968 53.568 
L 383.231145 53.568 
L 383.577322 53.568 
L 383.923499 53.568 
L 384.269676 53.568 
L 384.615852 53.568 
L 384.962029 53.568 
L 385.308206 53.568 
L 385.654383 53.568 
L 386.000559 53.568 
L 386.346736 53.568 
L 386.692913 53.568 
L 387.03909 53.568 
L 387.385267 53.568 
L 387.731443 53.568 
L 388.07762 53.568 
L 388.423797 53.568 
L 388.769974 53.568 
L 389.11615 53.568 
L 389.462327 53.568 
L 389.808504 53.568 
L 390.154681 53.568 
" clip-path="url(#p6e56cef936)" style="fill: none; stroke: #008000; stroke-width: 1.5; stroke-linecap: square"/>
   </g>
   <g id="line2d_55">
    <path d="M 390.170914 53.568 
L 390.51709 53.568 
L 390.863267 53.568 
L 391.209444 53.568 
L 391.555621 53.568 
L 391.901797 53.568 
L 392.247974 53.568 
L 392.594151 53.568 
L 392.940328 53.568 
L 393.286505 53.568 
L 393.632681 53.568 
L 393.978858 53.568 
L 394.325035 53.568 
L 394.671212 53.568 
L 395.017389 53.568 
L 395.363565 53.568 
L 395.709742 53.568 
L 396.055919 53.568 
L 396.402096 53.568 
L 396.748272 53.568 
L 397.094449 53.568 
L 397.440626 53.568 
L 397.786803 53.568 
L 398.13298 53.568 
L 398.479156 53.568 
" clip-path="url(#p6e56cef936)" style="fill: none; stroke: #008000; stroke-width: 1.5; stroke-linecap: square"/>
   </g>
   <g id="patch_3">
    <path d="M 57.6 307.584 
L 57.6 41.472 
" style="fill: none; stroke: #000000; stroke-width: 0.8; stroke-linejoin: miter; stroke-linecap: square"/>
   </g>
   <g id="patch_4">
    <path d="M 414.72 307.584 
L 414.72 41.472 
" style="fill: none; stroke: #000000; stroke-width: 0.8; stroke-linejoin: miter; stroke-linecap: square"/>
   </g>
   <g id="patch_5">
    <path d="M 57.6 307.584 
L 414.72 307.584 
" style="fill: none; stroke: #000000; stroke-width: 0.8; stroke-linejoin: miter; stroke-linecap: square"/>
   </g>
   <g id="patch_6">
    <path d="M 57.6 41.472 
L 414.72 41.472 
" style="fill: none; stroke: #000000; stroke-width: 0.8; stroke-linejoin: miter; stroke-linecap: square"/>
   </g>
   <g id="legend_1">
    <g id="patch_7">
     <path d="M 64.6 93.906375 
L 210.795312 93.906375 
Q 212.795312 93.906375 212.795312 91.906375 
L 212.795312 48.472 
Q 212.795312 46.472 210.795312 46.472 
L 64.6 46.472 
Q 62.6 46.472 62.6 48.472 
L 62.6 91.906375 
Q 62.6 93.906375 64.6 93.906375 
z
" style="fill: #ffffff; opacity: 0.8; stroke: #cccccc; stroke-linejoin: miter"/>
    </g>
    <g id="line2d_56">
     <path d="M 66.6 54.570437 
L 76.6 54.570437 
L 86.6 54.570437 
" style="fill: none; stroke: #0000ff; stroke-width: 1.5; stroke-linecap: square"/>
    </g>
    <g id="text_18">
     <!-- Původní funkce -->
     <g transform="translate(94.6 58.070437)scale(0.1 -0.1)">
      <defs>
       <path id="DejaVuSans-50" d="M 1259 4147 
L 1259 2394 
L 2053 2394 
Q 2494 2394 2734 2622 
Q 2975 2850 2975 3272 
Q 2975 3691 2734 3919 
Q 2494 4147 2053 4147 
L 1259 4147 
z
M 628 4666 
L 2053 4666 
Q 2838 4666 3239 4311 
Q 3641 3956 3641 3272 
Q 3641 2581 3239 2228 
Q 2838 1875 2053 1875 
L 1259 1875 
L 1259 0 
L 628 0 
L 628 4666 
z
" transform="scale(0.015625)"/>
       <path id="DejaVuSans-16f" d="M 544 1381 
L 544 3500 
L 1119 3500 
L 1119 1403 
Q 1119 906 1312 657 
Q 1506 409 1894 409 
Q 2359 409 2629 706 
Q 2900 1003 2900 1516 
L 2900 3500 
L 3475 3500 
L 3475 0 
L 2900 0 
L 2900 538 
Q 2691 219 2414 64 
Q 2138 -91 1772 -91 
Q 1169 -91 856 284 
Q 544 659 544 1381 
z
M 1991 3584 
L 1991 3584 
z
M 2463 4575 
Q 2463 4771 2325 4908 
Q 2188 5046 1988 5046 
Q 1784 5046 1648 4910 
Q 1513 4775 1513 4575 
Q 1513 4371 1648 4235 
Q 1784 4100 1988 4100 
Q 2188 4100 2325 4237 
Q 2463 4375 2463 4575 
z
M 2844 4575 
Q 2844 4215 2595 3965 
Q 2347 3715 1988 3715 
Q 1628 3715 1379 3965 
Q 1131 4215 1131 4575 
Q 1131 4934 1379 5182 
Q 1628 5431 1988 5431 
Q 2347 5431 2595 5182 
Q 2844 4934 2844 4575 
z
" transform="scale(0.015625)"/>
       <path id="DejaVuSans-76" d="M 191 3500 
L 800 3500 
L 1894 563 
L 2988 3500 
L 3597 3500 
L 2284 0 
L 1503 0 
L 191 3500 
z
" transform="scale(0.015625)"/>
       <path id="DejaVuSans-6f" d="M 1959 3097 
Q 1497 3097 1228 2736 
Q 959 2375 959 1747 
Q 959 1119 1226 758 
Q 1494 397 1959 397 
Q 2419 397 2687 759 
Q 2956 1122 2956 1747 
Q 2956 2369 2687 2733 
Q 2419 3097 1959 3097 
z
M 1959 3584 
Q 2709 3584 3137 3096 
Q 3566 2609 3566 1747 
Q 3566 888 3137 398 
Q 2709 -91 1959 -91 
Q 1206 -91 779 398 
Q 353 888 353 1747 
Q 353 2609 779 3096 
Q 1206 3584 1959 3584 
z
" transform="scale(0.015625)"/>
       <path id="DejaVuSans-64" d="M 2906 2969 
L 2906 4863 
L 3481 4863 
L 3481 0 
L 2906 0 
L 2906 525 
Q 2725 213 2448 61 
Q 2172 -91 1784 -91 
Q 1150 -91 751 415 
Q 353 922 353 1747 
Q 353 2572 751 3078 
Q 1150 3584 1784 3584 
Q 2172 3584 2448 3432 
Q 2725 3281 2906 2969 
z
M 947 1747 
Q 947 1113 1208 752 
Q 1469 391 1925 391 
Q 2381 391 2643 752 
Q 2906 1113 2906 1747 
Q 2906 2381 2643 2742 
Q 2381 3103 1925 3103 
Q 1469 3103 1208 2742 
Q 947 2381 947 1747 
z
" transform="scale(0.015625)"/>
       <path id="DejaVuSans-6e" d="M 3513 2113 
L 3513 0 
L 2938 0 
L 2938 2094 
Q 2938 2591 2744 2837 
Q 2550 3084 2163 3084 
Q 1697 3084 1428 2787 
Q 1159 2491 1159 1978 
L 1159 0 
L 581 0 
L 581 3500 
L 1159 3500 
L 1159 2956 
Q 1366 3272 1645 3428 
Q 1925 3584 2291 3584 
Q 2894 3584 3203 3211 
Q 3513 2838 3513 2113 
z
" transform="scale(0.015625)"/>
       <path id="DejaVuSans-ed" d="M 1325 5119 
L 1947 5119 
L 928 3944 
L 450 3944 
L 1325 5119 
z
M 603 3500 
L 1178 3500 
L 1178 0 
L 603 0 
L 603 3500 
z
M 891 3584 
L 891 3584 
z
" transform="scale(0.015625)"/>
       <path id="DejaVuSans-20" transform="scale(0.015625)"/>
       <path id="DejaVuSans-66" d="M 2375 4863 
L 2375 4384 
L 1825 4384 
Q 1516 4384 1395 4259 
Q 1275 4134 1275 3809 
L 1275 3500 
L 2222 3500 
L 2222 3053 
L 1275 3053 
L 1275 0 
L 697 0 
L 697 3053 
L 147 3053 
L 147 3500 
L 697 3500 
L 697 3744 
Q 697 4328 969 4595 
Q 1241 4863 1831 4863 
L 2375 4863 
z
" transform="scale(0.015625)"/>
       <path id="DejaVuSans-75" d="M 544 1381 
L 544 3500 
L 1119 3500 
L 1119 1403 
Q 1119 906 1312 657 
Q 1506 409 1894 409 
Q 2359 409 2629 706 
Q 2900 1003 2900 1516 
L 2900 3500 
L 3475 3500 
L 3475 0 
L 2900 0 
L 2900 538 
Q 2691 219 2414 64 
Q 2138 -91 1772 -91 
Q 1169 -91 856 284 
Q 544 659 544 1381 
z
M 1991 3584 
L 1991 3584 
z
" transform="scale(0.015625)"/>
       <path id="DejaVuSans-6b" d="M 581 4863 
L 1159 4863 
L 1159 1991 
L 2875 3500 
L 3609 3500 
L 1753 1863 
L 3688 0 
L 2938 0 
L 1159 1709 
L 1159 0 
L 581 0 
L 581 4863 
z
" transform="scale(0.015625)"/>
       <path id="DejaVuSans-63" d="M 3122 3366 
L 3122 2828 
Q 2878 2963 2633 3030 
Q 2388 3097 2138 3097 
Q 1578 3097 1268 2742 
Q 959 2388 959 1747 
Q 959 1106 1268 751 
Q 1578 397 2138 397 
Q 2388 397 2633 464 
Q 2878 531 3122 666 
L 3122 134 
Q 2881 22 2623 -34 
Q 2366 -91 2075 -91 
Q 1284 -91 818 406 
Q 353 903 353 1747 
Q 353 2603 823 3093 
Q 1294 3584 2113 3584 
Q 2378 3584 2631 3529 
Q 2884 3475 3122 3366 
z
" transform="scale(0.015625)"/>
       <path id="DejaVuSans-65" d="M 3597 1894 
L 3597 1613 
L 953 1613 
Q 991 1019 1311 708 
Q 1631 397 2203 397 
Q 2534 397 2845 478 
Q 3156 559 3463 722 
L 3463 178 
Q 3153 47 2828 -22 
Q 2503 -91 2169 -91 
Q 1331 -91 842 396 
Q 353 884 353 1716 
Q 353 2575 817 3079 
Q 1281 3584 2069 3584 
Q 2775 3584 3186 3129 
Q 3597 2675 3597 1894 
z
M 3022 2063 
Q 3016 2534 2758 2815 
Q 2500 3097 2075 3097 
Q 1594 3097 1305 2825 
Q 1016 2553 972 2059 
L 3022 2063 
z
" transform="scale(0.015625)"/>
      </defs>
      <use xlink:href="#DejaVuSans-50"/>
      <use xlink:href="#DejaVuSans-16f" x="58.552734"/>
      <use xlink:href="#DejaVuSans-76" x="121.931641"/>
      <use xlink:href="#DejaVuSans-6f" x="181.111328"/>
      <use xlink:href="#DejaVuSans-64" x="242.292969"/>
      <use xlink:href="#DejaVuSans-6e" x="305.769531"/>
      <use xlink:href="#DejaVuSans-ed" x="369.148438"/>
      <use xlink:href="#DejaVuSans-20" x="396.931641"/>
      <use xlink:href="#DejaVuSans-66" x="428.71875"/>
      <use xlink:href="#DejaVuSans-75" x="463.923828"/>
      <use xlink:href="#DejaVuSans-6e" x="527.302734"/>
      <use xlink:href="#DejaVuSans-6b" x="590.681641"/>
      <use xlink:href="#DejaVuSans-63" x="648.591797"/>
      <use xlink:href="#DejaVuSans-65" x="703.572266"/>
     </g>
    </g>
    <g id="PathCollection_2">
     <g>
      <use xlink:href="#m00718521fd" x="76.6" y="70.523562" style="fill: #228b22; stroke: #228b22"/>
     </g>
    </g>
    <g id="text_19">
     <!-- Střední hodnoty buněk -->
     <g transform="translate(94.6 73.148562)scale(0.1 -0.1)">
      <defs>
       <path id="DejaVuSans-53" d="M 3425 4513 
L 3425 3897 
Q 3066 4069 2747 4153 
Q 2428 4238 2131 4238 
Q 1616 4238 1336 4038 
Q 1056 3838 1056 3469 
Q 1056 3159 1242 3001 
Q 1428 2844 1947 2747 
L 2328 2669 
Q 3034 2534 3370 2195 
Q 3706 1856 3706 1288 
Q 3706 609 3251 259 
Q 2797 -91 1919 -91 
Q 1588 -91 1214 -16 
Q 841 59 441 206 
L 441 856 
Q 825 641 1194 531 
Q 1563 422 1919 422 
Q 2459 422 2753 634 
Q 3047 847 3047 1241 
Q 3047 1584 2836 1778 
Q 2625 1972 2144 2069 
L 1759 2144 
Q 1053 2284 737 2584 
Q 422 2884 422 3419 
Q 422 4038 858 4394 
Q 1294 4750 2059 4750 
Q 2388 4750 2728 4690 
Q 3069 4631 3425 4513 
z
" transform="scale(0.015625)"/>
       <path id="DejaVuSans-74" d="M 1172 4494 
L 1172 3500 
L 2356 3500 
L 2356 3053 
L 1172 3053 
L 1172 1153 
Q 1172 725 1289 603 
Q 1406 481 1766 481 
L 2356 481 
L 2356 0 
L 1766 0 
Q 1100 0 847 248 
Q 594 497 594 1153 
L 594 3053 
L 172 3053 
L 172 3500 
L 594 3500 
L 594 4494 
L 1172 4494 
z
" transform="scale(0.015625)"/>
       <path id="DejaVuSans-159" d="M 2631 2963 
Q 2534 3019 2420 3045 
Q 2306 3072 2169 3072 
Q 1681 3072 1420 2755 
Q 1159 2438 1159 1844 
L 1159 0 
L 581 0 
L 581 3500 
L 1159 3500 
L 1159 2956 
Q 1341 3275 1631 3429 
Q 1922 3584 2338 3584 
Q 2397 3584 2469 3576 
Q 2541 3569 2628 3553 
L 2631 2963 
z
M 1453 3944 
L 688 5119 
L 1122 5119 
L 1684 4353 
L 2247 5119 
L 2681 5119 
L 1916 3944 
L 1453 3944 
z
" transform="scale(0.015625)"/>
       <path id="DejaVuSans-68" d="M 3513 2113 
L 3513 0 
L 2938 0 
L 2938 2094 
Q 2938 2591 2744 2837 
Q 2550 3084 2163 3084 
Q 1697 3084 1428 2787 
Q 1159 2491 1159 1978 
L 1159 0 
L 581 0 
L 581 4863 
L 1159 4863 
L 1159 2956 
Q 1366 3272 1645 3428 
Q 1925 3584 2291 3584 
Q 2894 3584 3203 3211 
Q 3513 2838 3513 2113 
z
" transform="scale(0.015625)"/>
       <path id="DejaVuSans-79" d="M 2059 -325 
Q 1816 -950 1584 -1140 
Q 1353 -1331 966 -1331 
L 506 -1331 
L 506 -850 
L 844 -850 
Q 1081 -850 1212 -737 
Q 1344 -625 1503 -206 
L 1606 56 
L 191 3500 
L 800 3500 
L 1894 763 
L 2988 3500 
L 3597 3500 
L 2059 -325 
z
" transform="scale(0.015625)"/>
       <path id="DejaVuSans-62" d="M 3116 1747 
Q 3116 2381 2855 2742 
Q 2594 3103 2138 3103 
Q 1681 3103 1420 2742 
Q 1159 2381 1159 1747 
Q 1159 1113 1420 752 
Q 1681 391 2138 391 
Q 2594 391 2855 752 
Q 3116 1113 3116 1747 
z
M 1159 2969 
Q 1341 3281 1617 3432 
Q 1894 3584 2278 3584 
Q 2916 3584 3314 3078 
Q 3713 2572 3713 1747 
Q 3713 922 3314 415 
Q 2916 -91 2278 -91 
Q 1894 -91 1617 61 
Q 1341 213 1159 525 
L 1159 0 
L 581 0 
L 581 4863 
L 1159 4863 
L 1159 2969 
z
" transform="scale(0.015625)"/>
       <path id="DejaVuSans-11b" d="M 3597 1894 
L 3597 1613 
L 953 1613 
Q 991 1019 1311 708 
Q 1631 397 2203 397 
Q 2534 397 2845 478 
Q 3156 559 3463 722 
L 3463 178 
Q 3153 47 2828 -22 
Q 2503 -91 2169 -91 
Q 1331 -91 842 396 
Q 353 884 353 1716 
Q 353 2575 817 3079 
Q 1281 3584 2069 3584 
Q 2775 3584 3186 3129 
Q 3597 2675 3597 1894 
z
M 3022 2063 
Q 3016 2534 2758 2815 
Q 2500 3097 2075 3097 
Q 1594 3097 1305 2825 
Q 1016 2553 972 2059 
L 3022 2063 
z
M 1831 3928 
L 1066 5103 
L 1500 5103 
L 2063 4337 
L 2625 5103 
L 3059 5103 
L 2294 3928 
L 1831 3928 
z
" transform="scale(0.015625)"/>
      </defs>
      <use xlink:href="#DejaVuSans-53"/>
      <use xlink:href="#DejaVuSans-74" x="63.476562"/>
      <use xlink:href="#DejaVuSans-159" x="102.685547"/>
      <use xlink:href="#DejaVuSans-65" x="141.548828"/>
      <use xlink:href="#DejaVuSans-64" x="203.072266"/>
      <use xlink:href="#DejaVuSans-6e" x="266.548828"/>
      <use xlink:href="#DejaVuSans-ed" x="329.927734"/>
      <use xlink:href="#DejaVuSans-20" x="357.710938"/>
      <use xlink:href="#DejaVuSans-68" x="389.498047"/>
      <use xlink:href="#DejaVuSans-6f" x="452.876953"/>
      <use xlink:href="#DejaVuSans-64" x="514.058594"/>
      <use xlink:href="#DejaVuSans-6e" x="577.535156"/>
      <use xlink:href="#DejaVuSans-6f" x="640.914062"/>
      <use xlink:href="#DejaVuSans-74" x="702.095703"/>
      <use xlink:href="#DejaVuSans-79" x="741.304688"/>
      <use xlink:href="#DejaVuSans-20" x="800.484375"/>
      <use xlink:href="#DejaVuSans-62" x="832.271484"/>
      <use xlink:href="#DejaVuSans-75" x="895.748047"/>
      <use xlink:href="#DejaVuSans-6e" x="959.126953"/>
      <use xlink:href="#DejaVuSans-11b" x="1022.505859"/>
      <use xlink:href="#DejaVuSans-6b" x="1084.029297"/>
     </g>
    </g>
    <g id="line2d_57">
     <path d="M 66.6 84.326687 
L 76.6 84.326687 
L 86.6 84.326687 
" style="fill: none; stroke: #008000; stroke-width: 1.5; stroke-linecap: square"/>
    </g>
    <g id="text_20">
     <!-- Rekonstrukce -->
     <g transform="translate(94.6 87.826687)scale(0.1 -0.1)">
      <defs>
       <path id="DejaVuSans-52" d="M 2841 2188 
Q 3044 2119 3236 1894 
Q 3428 1669 3622 1275 
L 4263 0 
L 3584 0 
L 2988 1197 
Q 2756 1666 2539 1819 
Q 2322 1972 1947 1972 
L 1259 1972 
L 1259 0 
L 628 0 
L 628 4666 
L 2053 4666 
Q 2853 4666 3247 4331 
Q 3641 3997 3641 3322 
Q 3641 2881 3436 2590 
Q 3231 2300 2841 2188 
z
M 1259 4147 
L 1259 2491 
L 2053 2491 
Q 2509 2491 2742 2702 
Q 2975 2913 2975 3322 
Q 2975 3731 2742 3939 
Q 2509 4147 2053 4147 
L 1259 4147 
z
" transform="scale(0.015625)"/>
       <path id="DejaVuSans-73" d="M 2834 3397 
L 2834 2853 
Q 2591 2978 2328 3040 
Q 2066 3103 1784 3103 
Q 1356 3103 1142 2972 
Q 928 2841 928 2578 
Q 928 2378 1081 2264 
Q 1234 2150 1697 2047 
L 1894 2003 
Q 2506 1872 2764 1633 
Q 3022 1394 3022 966 
Q 3022 478 2636 193 
Q 2250 -91 1575 -91 
Q 1294 -91 989 -36 
Q 684 19 347 128 
L 347 722 
Q 666 556 975 473 
Q 1284 391 1588 391 
Q 1994 391 2212 530 
Q 2431 669 2431 922 
Q 2431 1156 2273 1281 
Q 2116 1406 1581 1522 
L 1381 1569 
Q 847 1681 609 1914 
Q 372 2147 372 2553 
Q 372 3047 722 3315 
Q 1072 3584 1716 3584 
Q 2034 3584 2315 3537 
Q 2597 3491 2834 3397 
z
" transform="scale(0.015625)"/>
       <path id="DejaVuSans-72" d="M 2631 2963 
Q 2534 3019 2420 3045 
Q 2306 3072 2169 3072 
Q 1681 3072 1420 2755 
Q 1159 2438 1159 1844 
L 1159 0 
L 581 0 
L 581 3500 
L 1159 3500 
L 1159 2956 
Q 1341 3275 1631 3429 
Q 1922 3584 2338 3584 
Q 2397 3584 2469 3576 
Q 2541 3569 2628 3553 
L 2631 2963 
z
" transform="scale(0.015625)"/>
      </defs>
      <use xlink:href="#DejaVuSans-52"/>
      <use xlink:href="#DejaVuSans-65" x="64.982422"/>
      <use xlink:href="#DejaVuSans-6b" x="126.505859"/>
      <use xlink:href="#DejaVuSans-6f" x="180.791016"/>
      <use xlink:href="#DejaVuSans-6e" x="241.972656"/>
      <use xlink:href="#DejaVuSans-73" x="305.351562"/>
      <use xlink:href="#DejaVuSans-74" x="357.451172"/>
      <use xlink:href="#DejaVuSans-72" x="396.660156"/>
      <use xlink:href="#DejaVuSans-75" x="437.773438"/>
      <use xlink:href="#DejaVuSans-6b" x="501.152344"/>
      <use xlink:href="#DejaVuSans-63" x="559.0625"/>
      <use xlink:href="#DejaVuSans-65" x="614.042969"/>
     </g>
    </g>
   </g>
  </g>
 </g>
 <defs>
  <clipPath id="p6e56cef936">
   <rect x="57.6" y="41.472" width="357.12" height="266.112"/>
  </clipPath>
 </defs>
</svg>
