<?xml version="1.0" encoding="utf-8" standalone="no"?>
<!DOCTYPE svg PUBLIC "-//W3C//DTD SVG 1.1//EN"
  "http://www.w3.org/Graphics/SVG/1.1/DTD/svg11.dtd">
<svg xmlns:xlink="http://www.w3.org/1999/xlink" width="460.8pt" height="345.6pt" viewBox="0 0 460.8 345.6" xmlns="http://www.w3.org/2000/svg" version="1.1">
 <metadata>
  <rdf:RDF xmlns:dc="http://purl.org/dc/elements/1.1/" xmlns:cc="http://creativecommons.org/ns#" xmlns:rdf="http://www.w3.org/1999/02/22-rdf-syntax-ns#">
   <cc:Work>
    <dc:type rdf:resource="http://purl.org/dc/dcmitype/StillImage"/>
    <dc:date>2023-08-02T07:27:08.710498</dc:date>
    <dc:format>image/svg+xml</dc:format>
    <dc:creator>
     <cc:Agent>
      <dc:title>Matplotlib v3.5.2, https://matplotlib.org/</dc:title>
     </cc:Agent>
    </dc:creator>
   </cc:Work>
  </rdf:RDF>
 </metadata>
 <defs>
  <style type="text/css">*{stroke-linejoin: round; stroke-linecap: butt}</style>
 </defs>
 <g id="figure_1">
  <g id="patch_1">
   <path d="M 0 345.6 
L 460.8 345.6 
L 460.8 0 
L 0 0 
z
" style="fill: #ffffff"/>
  </g>
  <g id="axes_1">
   <g id="patch_2">
    <path d="M 57.6 307.584 
L 414.72 307.584 
L 414.72 41.472 
L 57.6 41.472 
z
" style="fill: #ffffff"/>
   </g>
   <g id="PathCollection_1">
    <defs>
     <path id="mfb9086ff27" d="M 0 3 
C 0.795609 3 1.55874 2.683901 2.12132 2.12132 
C 2.683901 1.55874 3 0.795609 3 0 
C 3 -0.795609 2.683901 -1.55874 2.12132 -2.12132 
C 1.55874 -2.683901 0.795609 -3 0 -3 
C -0.795609 -3 -1.55874 -2.683901 -2.12132 -2.12132 
C -2.683901 -1.55874 -3 -0.795609 -3 0 
C -3 0.795609 -2.683901 1.55874 -2.12132 2.12132 
C -1.55874 2.683901 -0.795609 3 0 3 
z
" style="stroke: #228b22"/>
    </defs>
    <g clip-path="url(#pea4f553e1f)">
     <use xlink:href="#mfb9086ff27" x="77.994965" y="89.893968" style="fill: #228b22; stroke: #228b22"/>
     <use xlink:href="#mfb9086ff27" x="86.319441" y="82.47148" style="fill: #228b22; stroke: #228b22"/>
     <use xlink:href="#mfb9086ff27" x="94.643916" y="75.897277" style="fill: #228b22; stroke: #228b22"/>
     <use xlink:href="#mfb9086ff27" x="102.968392" y="70.171358" style="fill: #228b22; stroke: #228b22"/>
     <use xlink:href="#mfb9086ff27" x="111.292867" y="65.293723" style="fill: #228b22; stroke: #228b22"/>
     <use xlink:href="#mfb9086ff27" x="119.617343" y="61.264372" style="fill: #228b22; stroke: #228b22"/>
     <use xlink:href="#mfb9086ff27" x="127.941818" y="58.083306" style="fill: #228b22; stroke: #228b22"/>
     <use xlink:href="#mfb9086ff27" x="136.266294" y="55.750524" style="fill: #228b22; stroke: #228b22"/>
     <use xlink:href="#mfb9086ff27" x="144.590769" y="54.266027" style="fill: #228b22; stroke: #228b22"/>
     <use xlink:href="#mfb9086ff27" x="152.915245" y="53.629814" style="fill: #228b22; stroke: #228b22"/>
     <use xlink:href="#mfb9086ff27" x="161.23972" y="53.841885" style="fill: #228b22; stroke: #228b22"/>
     <use xlink:href="#mfb9086ff27" x="169.564196" y="54.90224" style="fill: #228b22; stroke: #228b22"/>
     <use xlink:href="#mfb9086ff27" x="177.888671" y="56.81088" style="fill: #228b22; stroke: #228b22"/>
     <use xlink:href="#mfb9086ff27" x="186.213147" y="59.567804" style="fill: #228b22; stroke: #228b22"/>
     <use xlink:href="#mfb9086ff27" x="194.537622" y="63.173012" style="fill: #228b22; stroke: #228b22"/>
     <use xlink:href="#mfb9086ff27" x="202.862098" y="67.626505" style="fill: #228b22; stroke: #228b22"/>
     <use xlink:href="#mfb9086ff27" x="211.186573" y="72.928282" style="fill: #228b22; stroke: #228b22"/>
     <use xlink:href="#mfb9086ff27" x="219.511049" y="79.078343" style="fill: #228b22; stroke: #228b22"/>
     <use xlink:href="#mfb9086ff27" x="227.835524" y="86.076688" style="fill: #228b22; stroke: #228b22"/>
     <use xlink:href="#mfb9086ff27" x="236.16" y="174.528" style="fill: #228b22; stroke: #228b22"/>
     <use xlink:href="#mfb9086ff27" x="244.484476" y="262.979312" style="fill: #228b22; stroke: #228b22"/>
     <use xlink:href="#mfb9086ff27" x="252.808951" y="269.977657" style="fill: #228b22; stroke: #228b22"/>
     <use xlink:href="#mfb9086ff27" x="261.133427" y="276.127718" style="fill: #228b22; stroke: #228b22"/>
     <use xlink:href="#mfb9086ff27" x="269.457902" y="281.429495" style="fill: #228b22; stroke: #228b22"/>
     <use xlink:href="#mfb9086ff27" x="277.782378" y="285.882988" style="fill: #228b22; stroke: #228b22"/>
     <use xlink:href="#mfb9086ff27" x="286.106853" y="289.488196" style="fill: #228b22; stroke: #228b22"/>
     <use xlink:href="#mfb9086ff27" x="294.431329" y="292.24512" style="fill: #228b22; stroke: #228b22"/>
     <use xlink:href="#mfb9086ff27" x="302.755804" y="294.15376" style="fill: #228b22; stroke: #228b22"/>
     <use xlink:href="#mfb9086ff27" x="311.08028" y="295.214115" style="fill: #228b22; stroke: #228b22"/>
     <use xlink:href="#mfb9086ff27" x="319.404755" y="295.426186" style="fill: #228b22; stroke: #228b22"/>
     <use xlink:href="#mfb9086ff27" x="327.729231" y="294.789973" style="fill: #228b22; stroke: #228b22"/>
     <use xlink:href="#mfb9086ff27" x="336.053706" y="293.305476" style="fill: #228b22; stroke: #228b22"/>
     <use xlink:href="#mfb9086ff27" x="344.378182" y="290.972694" style="fill: #228b22; stroke: #228b22"/>
     <use xlink:href="#mfb9086ff27" x="352.702657" y="287.791628" style="fill: #228b22; stroke: #228b22"/>
     <use xlink:href="#mfb9086ff27" x="361.027133" y="283.762277" style="fill: #228b22; stroke: #228b22"/>
     <use xlink:href="#mfb9086ff27" x="369.351608" y="278.884642" style="fill: #228b22; stroke: #228b22"/>
     <use xlink:href="#mfb9086ff27" x="377.676084" y="273.158723" style="fill: #228b22; stroke: #228b22"/>
     <use xlink:href="#mfb9086ff27" x="386.000559" y="266.58452" style="fill: #228b22; stroke: #228b22"/>
     <use xlink:href="#mfb9086ff27" x="394.325035" y="259.162032" style="fill: #228b22; stroke: #228b22"/>
    </g>
   </g>
   <g id="matplotlib.axis_1">
    <g id="xtick_1">
     <g id="line2d_1">
      <defs>
       <path id="m6b8d525681" d="M 0 0 
L 0 3.5 
" style="stroke: #000000; stroke-width: 0.8"/>
      </defs>
      <g>
       <use xlink:href="#m6b8d525681" x="73.832727" y="307.584" style="stroke: #000000; stroke-width: 0.8"/>
      </g>
     </g>
     <g id="text_1">
      <!-- −1.00 -->
      <g transform="translate(58.510071 322.182437)scale(0.1 -0.1)">
       <defs>
        <path id="DejaVuSans-2212" d="M 678 2272 
L 4684 2272 
L 4684 1741 
L 678 1741 
L 678 2272 
z
" transform="scale(0.015625)"/>
        <path id="DejaVuSans-31" d="M 794 531 
L 1825 531 
L 1825 4091 
L 703 3866 
L 703 4441 
L 1819 4666 
L 2450 4666 
L 2450 531 
L 3481 531 
L 3481 0 
L 794 0 
L 794 531 
z
" transform="scale(0.015625)"/>
        <path id="DejaVuSans-2e" d="M 684 794 
L 1344 794 
L 1344 0 
L 684 0 
L 684 794 
z
" transform="scale(0.015625)"/>
        <path id="DejaVuSans-30" d="M 2034 4250 
Q 1547 4250 1301 3770 
Q 1056 3291 1056 2328 
Q 1056 1369 1301 889 
Q 1547 409 2034 409 
Q 2525 409 2770 889 
Q 3016 1369 3016 2328 
Q 3016 3291 2770 3770 
Q 2525 4250 2034 4250 
z
M 2034 4750 
Q 2819 4750 3233 4129 
Q 3647 3509 3647 2328 
Q 3647 1150 3233 529 
Q 2819 -91 2034 -91 
Q 1250 -91 836 529 
Q 422 1150 422 2328 
Q 422 3509 836 4129 
Q 1250 4750 2034 4750 
z
" transform="scale(0.015625)"/>
       </defs>
       <use xlink:href="#DejaVuSans-2212"/>
       <use xlink:href="#DejaVuSans-31" x="83.789062"/>
       <use xlink:href="#DejaVuSans-2e" x="147.412109"/>
       <use xlink:href="#DejaVuSans-30" x="179.199219"/>
       <use xlink:href="#DejaVuSans-30" x="242.822266"/>
      </g>
     </g>
    </g>
    <g id="xtick_2">
     <g id="line2d_2">
      <g>
       <use xlink:href="#m6b8d525681" x="114.414545" y="307.584" style="stroke: #000000; stroke-width: 0.8"/>
      </g>
     </g>
     <g id="text_2">
      <!-- −0.75 -->
      <g transform="translate(99.091889 322.182437)scale(0.1 -0.1)">
       <defs>
        <path id="DejaVuSans-37" d="M 525 4666 
L 3525 4666 
L 3525 4397 
L 1831 0 
L 1172 0 
L 2766 4134 
L 525 4134 
L 525 4666 
z
" transform="scale(0.015625)"/>
        <path id="DejaVuSans-35" d="M 691 4666 
L 3169 4666 
L 3169 4134 
L 1269 4134 
L 1269 2991 
Q 1406 3038 1543 3061 
Q 1681 3084 1819 3084 
Q 2600 3084 3056 2656 
Q 3513 2228 3513 1497 
Q 3513 744 3044 326 
Q 2575 -91 1722 -91 
Q 1428 -91 1123 -41 
Q 819 9 494 109 
L 494 744 
Q 775 591 1075 516 
Q 1375 441 1709 441 
Q 2250 441 2565 725 
Q 2881 1009 2881 1497 
Q 2881 1984 2565 2268 
Q 2250 2553 1709 2553 
Q 1456 2553 1204 2497 
Q 953 2441 691 2322 
L 691 4666 
z
" transform="scale(0.015625)"/>
       </defs>
       <use xlink:href="#DejaVuSans-2212"/>
       <use xlink:href="#DejaVuSans-30" x="83.789062"/>
       <use xlink:href="#DejaVuSans-2e" x="147.412109"/>
       <use xlink:href="#DejaVuSans-37" x="179.199219"/>
       <use xlink:href="#DejaVuSans-35" x="242.822266"/>
      </g>
     </g>
    </g>
    <g id="xtick_3">
     <g id="line2d_3">
      <g>
       <use xlink:href="#m6b8d525681" x="154.996364" y="307.584" style="stroke: #000000; stroke-width: 0.8"/>
      </g>
     </g>
     <g id="text_3">
      <!-- −0.50 -->
      <g transform="translate(139.673707 322.182437)scale(0.1 -0.1)">
       <use xlink:href="#DejaVuSans-2212"/>
       <use xlink:href="#DejaVuSans-30" x="83.789062"/>
       <use xlink:href="#DejaVuSans-2e" x="147.412109"/>
       <use xlink:href="#DejaVuSans-35" x="179.199219"/>
       <use xlink:href="#DejaVuSans-30" x="242.822266"/>
      </g>
     </g>
    </g>
    <g id="xtick_4">
     <g id="line2d_4">
      <g>
       <use xlink:href="#m6b8d525681" x="195.578182" y="307.584" style="stroke: #000000; stroke-width: 0.8"/>
      </g>
     </g>
     <g id="text_4">
      <!-- −0.25 -->
      <g transform="translate(180.255526 322.182437)scale(0.1 -0.1)">
       <defs>
        <path id="DejaVuSans-32" d="M 1228 531 
L 3431 531 
L 3431 0 
L 469 0 
L 469 531 
Q 828 903 1448 1529 
Q 2069 2156 2228 2338 
Q 2531 2678 2651 2914 
Q 2772 3150 2772 3378 
Q 2772 3750 2511 3984 
Q 2250 4219 1831 4219 
Q 1534 4219 1204 4116 
Q 875 4013 500 3803 
L 500 4441 
Q 881 4594 1212 4672 
Q 1544 4750 1819 4750 
Q 2544 4750 2975 4387 
Q 3406 4025 3406 3419 
Q 3406 3131 3298 2873 
Q 3191 2616 2906 2266 
Q 2828 2175 2409 1742 
Q 1991 1309 1228 531 
z
" transform="scale(0.015625)"/>
       </defs>
       <use xlink:href="#DejaVuSans-2212"/>
       <use xlink:href="#DejaVuSans-30" x="83.789062"/>
       <use xlink:href="#DejaVuSans-2e" x="147.412109"/>
       <use xlink:href="#DejaVuSans-32" x="179.199219"/>
       <use xlink:href="#DejaVuSans-35" x="242.822266"/>
      </g>
     </g>
    </g>
    <g id="xtick_5">
     <g id="line2d_5">
      <g>
       <use xlink:href="#m6b8d525681" x="236.16" y="307.584" style="stroke: #000000; stroke-width: 0.8"/>
      </g>
     </g>
     <g id="text_5">
      <!-- 0.00 -->
      <g transform="translate(225.027187 322.182437)scale(0.1 -0.1)">
       <use xlink:href="#DejaVuSans-30"/>
       <use xlink:href="#DejaVuSans-2e" x="63.623047"/>
       <use xlink:href="#DejaVuSans-30" x="95.410156"/>
       <use xlink:href="#DejaVuSans-30" x="159.033203"/>
      </g>
     </g>
    </g>
    <g id="xtick_6">
     <g id="line2d_6">
      <g>
       <use xlink:href="#m6b8d525681" x="276.741818" y="307.584" style="stroke: #000000; stroke-width: 0.8"/>
      </g>
     </g>
     <g id="text_6">
      <!-- 0.25 -->
      <g transform="translate(265.609006 322.182437)scale(0.1 -0.1)">
       <use xlink:href="#DejaVuSans-30"/>
       <use xlink:href="#DejaVuSans-2e" x="63.623047"/>
       <use xlink:href="#DejaVuSans-32" x="95.410156"/>
       <use xlink:href="#DejaVuSans-35" x="159.033203"/>
      </g>
     </g>
    </g>
    <g id="xtick_7">
     <g id="line2d_7">
      <g>
       <use xlink:href="#m6b8d525681" x="317.323636" y="307.584" style="stroke: #000000; stroke-width: 0.8"/>
      </g>
     </g>
     <g id="text_7">
      <!-- 0.50 -->
      <g transform="translate(306.190824 322.182437)scale(0.1 -0.1)">
       <use xlink:href="#DejaVuSans-30"/>
       <use xlink:href="#DejaVuSans-2e" x="63.623047"/>
       <use xlink:href="#DejaVuSans-35" x="95.410156"/>
       <use xlink:href="#DejaVuSans-30" x="159.033203"/>
      </g>
     </g>
    </g>
    <g id="xtick_8">
     <g id="line2d_8">
      <g>
       <use xlink:href="#m6b8d525681" x="357.905455" y="307.584" style="stroke: #000000; stroke-width: 0.8"/>
      </g>
     </g>
     <g id="text_8">
      <!-- 0.75 -->
      <g transform="translate(346.772642 322.182437)scale(0.1 -0.1)">
       <use xlink:href="#DejaVuSans-30"/>
       <use xlink:href="#DejaVuSans-2e" x="63.623047"/>
       <use xlink:href="#DejaVuSans-37" x="95.410156"/>
       <use xlink:href="#DejaVuSans-35" x="159.033203"/>
      </g>
     </g>
    </g>
    <g id="xtick_9">
     <g id="line2d_9">
      <g>
       <use xlink:href="#m6b8d525681" x="398.487273" y="307.584" style="stroke: #000000; stroke-width: 0.8"/>
      </g>
     </g>
     <g id="text_9">
      <!-- 1.00 -->
      <g transform="translate(387.35446 322.182437)scale(0.1 -0.1)">
       <use xlink:href="#DejaVuSans-31"/>
       <use xlink:href="#DejaVuSans-2e" x="63.623047"/>
       <use xlink:href="#DejaVuSans-30" x="95.410156"/>
       <use xlink:href="#DejaVuSans-30" x="159.033203"/>
      </g>
     </g>
    </g>
    <g id="text_10">
     <!-- x -->
     <g transform="translate(233.200625 335.860562)scale(0.1 -0.1)">
      <defs>
       <path id="DejaVuSans-78" d="M 3513 3500 
L 2247 1797 
L 3578 0 
L 2900 0 
L 1881 1375 
L 863 0 
L 184 0 
L 1544 1831 
L 300 3500 
L 978 3500 
L 1906 2253 
L 2834 3500 
L 3513 3500 
z
" transform="scale(0.015625)"/>
      </defs>
      <use xlink:href="#DejaVuSans-78"/>
     </g>
    </g>
   </g>
   <g id="matplotlib.axis_2">
    <g id="ytick_1">
     <g id="line2d_10">
      <defs>
       <path id="mc6c27f80d5" d="M 0 0 
L -3.5 0 
" style="stroke: #000000; stroke-width: 0.8"/>
      </defs>
      <g>
       <use xlink:href="#mc6c27f80d5" x="57.6" y="287.424038" style="stroke: #000000; stroke-width: 0.8"/>
      </g>
     </g>
     <g id="text_11">
      <!-- 0.8 -->
      <g transform="translate(34.696875 291.223256)scale(0.1 -0.1)">
       <defs>
        <path id="DejaVuSans-38" d="M 2034 2216 
Q 1584 2216 1326 1975 
Q 1069 1734 1069 1313 
Q 1069 891 1326 650 
Q 1584 409 2034 409 
Q 2484 409 2743 651 
Q 3003 894 3003 1313 
Q 3003 1734 2745 1975 
Q 2488 2216 2034 2216 
z
M 1403 2484 
Q 997 2584 770 2862 
Q 544 3141 544 3541 
Q 544 4100 942 4425 
Q 1341 4750 2034 4750 
Q 2731 4750 3128 4425 
Q 3525 4100 3525 3541 
Q 3525 3141 3298 2862 
Q 3072 2584 2669 2484 
Q 3125 2378 3379 2068 
Q 3634 1759 3634 1313 
Q 3634 634 3220 271 
Q 2806 -91 2034 -91 
Q 1263 -91 848 271 
Q 434 634 434 1313 
Q 434 1759 690 2068 
Q 947 2378 1403 2484 
z
M 1172 3481 
Q 1172 3119 1398 2916 
Q 1625 2713 2034 2713 
Q 2441 2713 2670 2916 
Q 2900 3119 2900 3481 
Q 2900 3844 2670 4047 
Q 2441 4250 2034 4250 
Q 1625 4250 1398 4047 
Q 1172 3844 1172 3481 
z
" transform="scale(0.015625)"/>
       </defs>
       <use xlink:href="#DejaVuSans-30"/>
       <use xlink:href="#DejaVuSans-2e" x="63.623047"/>
       <use xlink:href="#DejaVuSans-38" x="95.410156"/>
      </g>
     </g>
    </g>
    <g id="ytick_2">
     <g id="line2d_11">
      <g>
       <use xlink:href="#mc6c27f80d5" x="57.6" y="255.168027" style="stroke: #000000; stroke-width: 0.8"/>
      </g>
     </g>
     <g id="text_12">
      <!-- 1.0 -->
      <g transform="translate(34.696875 258.967246)scale(0.1 -0.1)">
       <use xlink:href="#DejaVuSans-31"/>
       <use xlink:href="#DejaVuSans-2e" x="63.623047"/>
       <use xlink:href="#DejaVuSans-30" x="95.410156"/>
      </g>
     </g>
    </g>
    <g id="ytick_3">
     <g id="line2d_12">
      <g>
       <use xlink:href="#mc6c27f80d5" x="57.6" y="222.912016" style="stroke: #000000; stroke-width: 0.8"/>
      </g>
     </g>
     <g id="text_13">
      <!-- 1.2 -->
      <g transform="translate(34.696875 226.711235)scale(0.1 -0.1)">
       <use xlink:href="#DejaVuSans-31"/>
       <use xlink:href="#DejaVuSans-2e" x="63.623047"/>
       <use xlink:href="#DejaVuSans-32" x="95.410156"/>
      </g>
     </g>
    </g>
    <g id="ytick_4">
     <g id="line2d_13">
      <g>
       <use xlink:href="#mc6c27f80d5" x="57.6" y="190.656005" style="stroke: #000000; stroke-width: 0.8"/>
      </g>
     </g>
     <g id="text_14">
      <!-- 1.4 -->
      <g transform="translate(34.696875 194.455224)scale(0.1 -0.1)">
       <defs>
        <path id="DejaVuSans-34" d="M 2419 4116 
L 825 1625 
L 2419 1625 
L 2419 4116 
z
M 2253 4666 
L 3047 4666 
L 3047 1625 
L 3713 1625 
L 3713 1100 
L 3047 1100 
L 3047 0 
L 2419 0 
L 2419 1100 
L 313 1100 
L 313 1709 
L 2253 4666 
z
" transform="scale(0.015625)"/>
       </defs>
       <use xlink:href="#DejaVuSans-31"/>
       <use xlink:href="#DejaVuSans-2e" x="63.623047"/>
       <use xlink:href="#DejaVuSans-34" x="95.410156"/>
      </g>
     </g>
    </g>
    <g id="ytick_5">
     <g id="line2d_14">
      <g>
       <use xlink:href="#mc6c27f80d5" x="57.6" y="158.399995" style="stroke: #000000; stroke-width: 0.8"/>
      </g>
     </g>
     <g id="text_15">
      <!-- 1.6 -->
      <g transform="translate(34.696875 162.199213)scale(0.1 -0.1)">
       <defs>
        <path id="DejaVuSans-36" d="M 2113 2584 
Q 1688 2584 1439 2293 
Q 1191 2003 1191 1497 
Q 1191 994 1439 701 
Q 1688 409 2113 409 
Q 2538 409 2786 701 
Q 3034 994 3034 1497 
Q 3034 2003 2786 2293 
Q 2538 2584 2113 2584 
z
M 3366 4563 
L 3366 3988 
Q 3128 4100 2886 4159 
Q 2644 4219 2406 4219 
Q 1781 4219 1451 3797 
Q 1122 3375 1075 2522 
Q 1259 2794 1537 2939 
Q 1816 3084 2150 3084 
Q 2853 3084 3261 2657 
Q 3669 2231 3669 1497 
Q 3669 778 3244 343 
Q 2819 -91 2113 -91 
Q 1303 -91 875 529 
Q 447 1150 447 2328 
Q 447 3434 972 4092 
Q 1497 4750 2381 4750 
Q 2619 4750 2861 4703 
Q 3103 4656 3366 4563 
z
" transform="scale(0.015625)"/>
       </defs>
       <use xlink:href="#DejaVuSans-31"/>
       <use xlink:href="#DejaVuSans-2e" x="63.623047"/>
       <use xlink:href="#DejaVuSans-36" x="95.410156"/>
      </g>
     </g>
    </g>
    <g id="ytick_6">
     <g id="line2d_15">
      <g>
       <use xlink:href="#mc6c27f80d5" x="57.6" y="126.143984" style="stroke: #000000; stroke-width: 0.8"/>
      </g>
     </g>
     <g id="text_16">
      <!-- 1.8 -->
      <g transform="translate(34.696875 129.943203)scale(0.1 -0.1)">
       <use xlink:href="#DejaVuSans-31"/>
       <use xlink:href="#DejaVuSans-2e" x="63.623047"/>
       <use xlink:href="#DejaVuSans-38" x="95.410156"/>
      </g>
     </g>
    </g>
    <g id="ytick_7">
     <g id="line2d_16">
      <g>
       <use xlink:href="#mc6c27f80d5" x="57.6" y="93.887973" style="stroke: #000000; stroke-width: 0.8"/>
      </g>
     </g>
     <g id="text_17">
      <!-- 2.0 -->
      <g transform="translate(34.696875 97.687192)scale(0.1 -0.1)">
       <use xlink:href="#DejaVuSans-32"/>
       <use xlink:href="#DejaVuSans-2e" x="63.623047"/>
       <use xlink:href="#DejaVuSans-30" x="95.410156"/>
      </g>
     </g>
    </g>
    <g id="ytick_8">
     <g id="line2d_17">
      <g>
       <use xlink:href="#mc6c27f80d5" x="57.6" y="61.631962" style="stroke: #000000; stroke-width: 0.8"/>
      </g>
     </g>
     <g id="text_18">
      <!-- 2.2 -->
      <g transform="translate(34.696875 65.431181)scale(0.1 -0.1)">
       <use xlink:href="#DejaVuSans-32"/>
       <use xlink:href="#DejaVuSans-2e" x="63.623047"/>
       <use xlink:href="#DejaVuSans-32" x="95.410156"/>
      </g>
     </g>
    </g>
    <g id="text_19">
     <!-- $f_i$ -->
     <g transform="translate(28.617188 177.428)rotate(-90)scale(0.1 -0.1)">
      <defs>
       <path id="DejaVuSans-Oblique-66" d="M 3059 4863 
L 2969 4384 
L 2419 4384 
Q 2106 4384 1964 4261 
Q 1822 4138 1753 3809 
L 1691 3500 
L 2638 3500 
L 2553 3053 
L 1606 3053 
L 1013 0 
L 434 0 
L 1031 3053 
L 481 3053 
L 563 3500 
L 1113 3500 
L 1159 3744 
Q 1278 4363 1576 4613 
Q 1875 4863 2516 4863 
L 3059 4863 
z
" transform="scale(0.015625)"/>
       <path id="DejaVuSans-Oblique-69" d="M 1172 4863 
L 1747 4863 
L 1606 4134 
L 1031 4134 
L 1172 4863 
z
M 909 3500 
L 1484 3500 
L 800 0 
L 225 0 
L 909 3500 
z
" transform="scale(0.015625)"/>
      </defs>
      <use xlink:href="#DejaVuSans-Oblique-66" transform="translate(0 0.015625)"/>
      <use xlink:href="#DejaVuSans-Oblique-69" transform="translate(35.205078 -16.390625)scale(0.7)"/>
     </g>
    </g>
   </g>
   <g id="line2d_18">
    <path d="M 73.832727 93.887973 
L 79.0324 88.887327 
L 83.907093 84.499803 
L 88.781785 80.403164 
L 93.656478 76.597411 
L 98.531171 73.082544 
L 103.080885 70.064444 
L 107.630598 67.299738 
L 112.180311 64.788426 
L 116.730025 62.530508 
L 121.279738 60.525983 
L 125.829451 58.774852 
L 130.379165 57.277114 
L 134.603898 56.113249 
L 138.828632 55.167871 
L 143.053366 54.44098 
L 147.2781 53.932577 
L 151.502834 53.642661 
L 155.727568 53.571232 
L 159.952301 53.718291 
L 164.177035 54.083837 
L 168.401769 54.667871 
L 172.626503 55.470392 
L 176.851237 56.4914 
L 181.075971 57.730896 
L 185.300704 59.188879 
L 189.850418 61.003359 
L 194.400131 63.071232 
L 198.949844 65.392499 
L 203.499558 67.967159 
L 208.049271 70.795214 
L 212.598984 73.876661 
L 217.473677 77.459402 
L 222.34837 81.333028 
L 227.223063 85.49754 
L 232.097756 89.952938 
L 235.99751 93.726693 
L 236.32249 255.329307 
L 241.522162 260.319611 
L 246.396855 264.697438 
L 251.271548 268.784381 
L 256.146241 272.580438 
L 261.020934 276.085609 
L 265.570647 279.094658 
L 270.12036 281.850315 
L 274.670074 284.352577 
L 279.219787 286.601446 
L 283.7695 288.596921 
L 288.319214 290.339002 
L 292.868927 291.82769 
L 297.093661 292.983152 
L 301.318395 293.920127 
L 305.543129 294.638614 
L 309.767862 295.138614 
L 313.992596 295.420127 
L 318.21733 295.483152 
L 322.442064 295.32769 
L 326.666798 294.95374 
L 330.891532 294.361303 
L 335.116265 293.550379 
L 339.340999 292.520967 
L 343.565733 291.273068 
L 347.790467 289.806681 
L 352.34018 287.983152 
L 356.889894 285.906229 
L 361.439607 283.575912 
L 365.98932 280.992202 
L 370.539034 278.155098 
L 375.088747 275.0646 
L 379.96344 271.472164 
L 384.838133 267.588841 
L 389.712826 263.414633 
L 394.587518 258.949539 
L 398.487273 255.168027 
L 398.487273 255.168027 
" clip-path="url(#pea4f553e1f)" style="fill: none; stroke: #0000ff; stroke-width: 1.5; stroke-linecap: square"/>
   </g>
   <g id="line2d_19">
    <path d="M 73.840844 94.724724 
L 74.18702 94.322161 
L 74.533197 93.919598 
L 74.879374 93.517035 
L 75.225551 93.114472 
L 75.571728 92.711909 
L 75.917904 92.309346 
L 76.264081 91.906783 
L 76.610258 91.50422 
L 76.956435 91.101657 
L 77.302611 90.699094 
L 77.648788 90.296531 
L 77.994965 89.893968 
L 78.341142 89.491405 
L 78.687319 89.088842 
L 79.033495 88.686279 
L 79.379672 88.283716 
L 79.725849 87.881153 
L 80.072026 87.478589 
L 80.418203 87.076026 
L 80.764379 86.673463 
L 81.110556 86.2709 
L 81.456733 85.868337 
L 81.80291 85.465774 
L 82.149086 85.063211 
" clip-path="url(#pea4f553e1f)" style="fill: none; stroke: #008000; stroke-width: 1.5; stroke-linecap: square"/>
   </g>
   <g id="line2d_20">
    <path d="M 82.165319 85.963829 
L 82.511496 85.6728 
L 82.857673 85.381771 
L 83.20385 85.090742 
L 83.550026 84.799713 
L 83.896203 84.508684 
L 84.24238 84.217655 
L 84.588557 83.926626 
L 84.934733 83.635597 
L 85.28091 83.344567 
L 85.627087 83.053538 
L 85.973264 82.762509 
L 86.319441 82.47148 
L 86.665617 82.180451 
L 87.011794 81.889422 
L 87.357971 81.598393 
L 87.704148 81.307364 
L 88.050324 81.016335 
L 88.396501 80.725305 
L 88.742678 80.434276 
L 89.088855 80.143247 
L 89.435032 79.852218 
L 89.781208 79.561189 
L 90.127385 79.27016 
L 90.473562 78.979131 
" clip-path="url(#pea4f553e1f)" style="fill: none; stroke: #008000; stroke-width: 1.5; stroke-linecap: square"/>
   </g>
   <g id="line2d_21">
    <path d="M 90.489795 78.966311 
L 90.835971 78.710558 
L 91.182148 78.454805 
L 91.528325 78.199052 
L 91.874502 77.9433 
L 92.220679 77.687547 
L 92.566855 77.431794 
L 92.913032 77.176041 
L 93.259209 76.920288 
L 93.605386 76.664535 
L 93.951563 76.408782 
L 94.297739 76.15303 
L 94.643916 75.897277 
L 94.990093 75.641524 
L 95.33627 75.385771 
L 95.682446 75.130018 
L 96.028623 74.874265 
L 96.3748 74.618512 
L 96.720977 74.36276 
L 97.067154 74.107007 
L 97.41333 73.851254 
L 97.759507 73.595501 
L 98.105684 73.339748 
L 98.451861 73.083995 
L 98.798037 72.828242 
" clip-path="url(#pea4f553e1f)" style="fill: none; stroke: #008000; stroke-width: 1.5; stroke-linecap: square"/>
   </g>
   <g id="line2d_22">
    <path d="M 98.81427 72.817077 
L 99.160447 72.5966 
L 99.506624 72.376124 
L 99.852801 72.155647 
L 100.198977 71.93517 
L 100.545154 71.714694 
L 100.891331 71.494217 
L 101.237508 71.273741 
L 101.583684 71.053264 
L 101.929861 70.832787 
L 102.276038 70.612311 
L 102.622215 70.391834 
L 102.968392 70.171358 
L 103.314568 69.950881 
L 103.660745 69.730404 
L 104.006922 69.509928 
L 104.353099 69.289451 
L 104.699276 69.068975 
L 105.045452 68.848498 
L 105.391629 68.628021 
L 105.737806 68.407545 
L 106.083983 68.187068 
L 106.430159 67.966592 
L 106.776336 67.746115 
L 107.122513 67.525638 
" clip-path="url(#pea4f553e1f)" style="fill: none; stroke: #008000; stroke-width: 1.5; stroke-linecap: square"/>
   </g>
   <g id="line2d_23">
    <path d="M 107.138746 67.516127 
L 107.484923 67.330927 
L 107.831099 67.145726 
L 108.177276 66.960526 
L 108.523453 66.775326 
L 108.86963 66.590125 
L 109.215806 66.404925 
L 109.561983 66.219725 
L 109.90816 66.034524 
L 110.254337 65.849324 
L 110.600514 65.664124 
L 110.94669 65.478923 
L 111.292867 65.293723 
L 111.639044 65.108523 
L 111.985221 64.923322 
L 112.331397 64.738122 
L 112.677574 64.552922 
L 113.023751 64.367721 
L 113.369928 64.182521 
L 113.716105 63.99732 
L 114.062281 63.81212 
L 114.408458 63.62692 
L 114.754635 63.441719 
L 115.100812 63.256519 
L 115.446989 63.071319 
" clip-path="url(#pea4f553e1f)" style="fill: none; stroke: #008000; stroke-width: 1.5; stroke-linecap: square"/>
   </g>
   <g id="line2d_24">
    <path d="M 115.463221 63.063462 
L 115.809398 62.913537 
L 116.155575 62.763613 
L 116.501752 62.613689 
L 116.847928 62.463765 
L 117.194105 62.313841 
L 117.540282 62.163917 
L 117.886459 62.013993 
L 118.232636 61.864069 
L 118.578812 61.714145 
L 118.924989 61.564221 
L 119.271166 61.414297 
L 119.617343 61.264372 
L 119.963519 61.114448 
L 120.309696 60.964524 
L 120.655873 60.8146 
L 121.00205 60.664676 
L 121.348227 60.514752 
L 121.694403 60.364828 
L 122.04058 60.214904 
L 122.386757 60.06498 
L 122.732934 59.915056 
L 123.07911 59.765132 
L 123.425287 59.615207 
L 123.771464 59.465283 
" clip-path="url(#pea4f553e1f)" style="fill: none; stroke: #008000; stroke-width: 1.5; stroke-linecap: square"/>
   </g>
   <g id="line2d_25">
    <path d="M 123.787697 59.45908 
L 124.133874 59.344432 
L 124.48005 59.229785 
L 124.826227 59.115137 
L 125.172404 59.000489 
L 125.518581 58.885841 
L 125.864757 58.771193 
L 126.210934 58.656545 
L 126.557111 58.541898 
L 126.903288 58.42725 
L 127.249465 58.312602 
L 127.595641 58.197954 
L 127.941818 58.083306 
L 128.287995 57.968658 
L 128.634172 57.854011 
L 128.980349 57.739363 
L 129.326525 57.624715 
L 129.672702 57.510067 
L 130.018879 57.395419 
L 130.365056 57.280771 
L 130.711232 57.166124 
L 131.057409 57.051476 
L 131.403586 56.936828 
L 131.749763 56.82218 
L 132.09594 56.707532 
" clip-path="url(#pea4f553e1f)" style="fill: none; stroke: #008000; stroke-width: 1.5; stroke-linecap: square"/>
   </g>
   <g id="line2d_26">
    <path d="M 132.112172 56.702983 
L 132.458349 56.623612 
L 132.804526 56.54424 
L 133.150703 56.464869 
L 133.496879 56.385497 
L 133.843056 56.306125 
L 134.189233 56.226754 
L 134.53541 56.147382 
L 134.881587 56.068011 
L 135.227763 55.988639 
L 135.57394 55.909268 
L 135.920117 55.829896 
L 136.266294 55.750524 
L 136.61247 55.671153 
L 136.958647 55.591781 
L 137.304824 55.51241 
L 137.651001 55.433038 
L 137.997178 55.353667 
L 138.343354 55.274295 
L 138.689531 55.194923 
L 139.035708 55.115552 
L 139.381885 55.03618 
L 139.728062 54.956809 
L 140.074238 54.877437 
L 140.420415 54.798066 
" clip-path="url(#pea4f553e1f)" style="fill: none; stroke: #008000; stroke-width: 1.5; stroke-linecap: square"/>
   </g>
   <g id="line2d_27">
    <path d="M 140.436648 54.795171 
L 140.782825 54.751075 
L 141.129001 54.70698 
L 141.475178 54.662885 
L 141.821355 54.618789 
L 142.167532 54.574694 
L 142.513709 54.530599 
L 142.859885 54.486503 
L 143.206062 54.442408 
L 143.552239 54.398313 
L 143.898416 54.354218 
L 144.244592 54.310122 
L 144.590769 54.266027 
L 144.936946 54.221932 
L 145.283123 54.177836 
L 145.6293 54.133741 
L 145.975476 54.089646 
L 146.321653 54.04555 
L 146.66783 54.001455 
L 147.014007 53.95736 
L 147.360183 53.913264 
L 147.70636 53.869169 
L 148.052537 53.825074 
L 148.398714 53.780978 
L 148.744891 53.736883 
" clip-path="url(#pea4f553e1f)" style="fill: none; stroke: #008000; stroke-width: 1.5; stroke-linecap: square"/>
   </g>
   <g id="line2d_28">
    <path d="M 148.761123 53.629814 
L 149.1073 53.629814 
L 149.453477 53.629814 
L 149.799654 53.629814 
L 150.14583 53.629814 
L 150.492007 53.629814 
L 150.838184 53.629814 
L 151.184361 53.629814 
L 151.530538 53.629814 
L 151.876714 53.629814 
L 152.222891 53.629814 
L 152.569068 53.629814 
L 152.915245 53.629814 
L 153.261422 53.629814 
L 153.607598 53.629814 
L 153.953775 53.629814 
L 154.299952 53.629814 
L 154.646129 53.629814 
L 154.992305 53.629814 
L 155.338482 53.629814 
L 155.684659 53.629814 
L 156.030836 53.629814 
L 156.377013 53.629814 
L 156.723189 53.629814 
L 157.069366 53.629814 
" clip-path="url(#pea4f553e1f)" style="fill: none; stroke: #008000; stroke-width: 1.5; stroke-linecap: square"/>
   </g>
   <g id="line2d_29">
    <path d="M 157.085599 53.630227 
L 157.431776 53.647865 
L 157.777952 53.665503 
L 158.124129 53.683142 
L 158.470306 53.70078 
L 158.816483 53.718418 
L 159.16266 53.736056 
L 159.508836 53.753694 
L 159.855013 53.771332 
L 160.20119 53.78897 
L 160.547367 53.806608 
L 160.893543 53.824247 
L 161.23972 53.841885 
L 161.585897 53.859523 
L 161.932074 53.877161 
L 162.278251 53.894799 
L 162.624427 53.912437 
L 162.970604 53.930075 
L 163.316781 53.947714 
L 163.662958 53.965352 
L 164.009135 53.98299 
L 164.355311 54.000628 
L 164.701488 54.018266 
L 165.047665 54.035904 
L 165.393842 54.053542 
" clip-path="url(#pea4f553e1f)" style="fill: none; stroke: #008000; stroke-width: 1.5; stroke-linecap: square"/>
   </g>
   <g id="line2d_30">
    <path d="M 165.410074 54.161439 
L 165.756251 54.223172 
L 166.102428 54.284906 
L 166.448605 54.346639 
L 166.794782 54.408373 
L 167.140958 54.470106 
L 167.487135 54.531839 
L 167.833312 54.593573 
L 168.179489 54.655306 
L 168.525665 54.71704 
L 168.871842 54.778773 
L 169.218019 54.840507 
L 169.564196 54.90224 
L 169.910373 54.963974 
L 170.256549 55.025707 
L 170.602726 55.08744 
L 170.948903 55.149174 
L 171.29508 55.210907 
L 171.641257 55.272641 
L 171.987433 55.334374 
L 172.33361 55.396108 
L 172.679787 55.457841 
L 173.025964 55.519575 
L 173.37214 55.581308 
L 173.718317 55.643042 
" clip-path="url(#pea4f553e1f)" style="fill: none; stroke: #008000; stroke-width: 1.5; stroke-linecap: square"/>
   </g>
   <g id="line2d_31">
    <path d="M 173.73455 55.646763 
L 174.080727 55.743773 
L 174.426903 55.840783 
L 174.77308 55.937792 
L 175.119257 56.034802 
L 175.465434 56.131812 
L 175.811611 56.228822 
L 176.157787 56.325831 
L 176.503964 56.422841 
L 176.850141 56.519851 
L 177.196318 56.61686 
L 177.542495 56.71387 
L 177.888671 56.81088 
L 178.234848 56.90789 
L 178.581025 57.004899 
L 178.927202 57.101909 
L 179.273378 57.198919 
L 179.619555 57.295928 
L 179.965732 57.392938 
L 180.311909 57.489948 
L 180.658086 57.586957 
L 181.004262 57.683967 
L 181.350439 57.780977 
L 181.696616 57.877987 
L 182.042793 57.974996 
" clip-path="url(#pea4f553e1f)" style="fill: none; stroke: #008000; stroke-width: 1.5; stroke-linecap: square"/>
   </g>
   <g id="line2d_32">
    <path d="M 182.059025 57.980372 
L 182.405202 58.112658 
L 182.751379 58.244944 
L 183.097556 58.37723 
L 183.443733 58.509516 
L 183.789909 58.641802 
L 184.136086 58.774088 
L 184.482263 58.906374 
L 184.82844 59.03866 
L 185.174617 59.170946 
L 185.520793 59.303232 
L 185.86697 59.435518 
L 186.213147 59.567804 
L 186.559324 59.70009 
L 186.9055 59.832376 
L 187.251677 59.964662 
L 187.597854 60.096948 
L 187.944031 60.229234 
L 188.290208 60.36152 
L 188.636384 60.493806 
L 188.982561 60.626092 
L 189.328738 60.758377 
L 189.674915 60.890663 
L 190.021091 61.022949 
L 190.367268 61.155235 
" clip-path="url(#pea4f553e1f)" style="fill: none; stroke: #008000; stroke-width: 1.5; stroke-linecap: square"/>
   </g>
   <g id="line2d_33">
    <path d="M 190.383501 61.162266 
L 190.729678 61.329828 
L 191.075855 61.49739 
L 191.422031 61.664952 
L 191.768208 61.832514 
L 192.114385 62.000077 
L 192.460562 62.167639 
L 192.806738 62.335201 
L 193.152915 62.502763 
L 193.499092 62.670325 
L 193.845269 62.837888 
L 194.191446 63.00545 
L 194.537622 63.173012 
L 194.883799 63.340574 
L 195.229976 63.508137 
L 195.576153 63.675699 
L 195.92233 63.843261 
L 196.268506 64.010823 
L 196.614683 64.178385 
L 196.96086 64.345948 
L 197.307037 64.51351 
L 197.653213 64.681072 
L 197.99939 64.848634 
L 198.345567 65.016197 
L 198.691744 65.183759 
" clip-path="url(#pea4f553e1f)" style="fill: none; stroke: #008000; stroke-width: 1.5; stroke-linecap: square"/>
   </g>
   <g id="line2d_34">
    <path d="M 198.707977 65.192443 
L 199.054153 65.395282 
L 199.40033 65.59812 
L 199.746507 65.800958 
L 200.092684 66.003797 
L 200.43886 66.206635 
L 200.785037 66.409474 
L 201.131214 66.612312 
L 201.477391 66.815151 
L 201.823568 67.017989 
L 202.169744 67.220828 
L 202.515921 67.423666 
L 202.862098 67.626505 
L 203.208275 67.829343 
L 203.554451 68.032182 
L 203.900628 68.23502 
L 204.246805 68.437859 
L 204.592982 68.640697 
L 204.939159 68.843536 
L 205.285335 69.046374 
L 205.631512 69.249213 
L 205.977689 69.452051 
L 206.323866 69.654889 
L 206.670043 69.857728 
L 207.016219 70.060566 
" clip-path="url(#pea4f553e1f)" style="fill: none; stroke: #008000; stroke-width: 1.5; stroke-linecap: square"/>
   </g>
   <g id="line2d_35">
    <path d="M 207.032452 70.070905 
L 207.378629 70.30902 
L 207.724806 70.547134 
L 208.070982 70.785249 
L 208.417159 71.023364 
L 208.763336 71.261479 
L 209.109513 71.499593 
L 209.45569 71.737708 
L 209.801866 71.975823 
L 210.148043 72.213937 
L 210.49422 72.452052 
L 210.840397 72.690167 
L 211.186573 72.928282 
L 211.53275 73.166396 
L 211.878927 73.404511 
L 212.225104 73.642626 
L 212.571281 73.880741 
L 212.917457 74.118855 
L 213.263634 74.35697 
L 213.609811 74.595085 
L 213.955988 74.833199 
L 214.302164 75.071314 
L 214.648341 75.309429 
L 214.994518 75.547544 
L 215.340695 75.785658 
" clip-path="url(#pea4f553e1f)" style="fill: none; stroke: #008000; stroke-width: 1.5; stroke-linecap: square"/>
   </g>
   <g id="line2d_36">
    <path d="M 215.356928 75.797651 
L 215.703104 76.071042 
L 216.049281 76.344433 
L 216.395458 76.617824 
L 216.741635 76.891215 
L 217.087811 77.164606 
L 217.433988 77.437997 
L 217.780165 77.711388 
L 218.126342 77.984779 
L 218.472519 78.25817 
L 218.818695 78.531561 
L 219.164872 78.804952 
L 219.511049 79.078343 
L 219.857226 79.351734 
L 220.203403 79.625125 
L 220.549579 79.898516 
L 220.895756 80.171907 
L 221.241933 80.445298 
L 221.58811 80.718689 
L 221.934286 80.99208 
L 222.280463 81.265471 
L 222.62664 81.538862 
L 222.972817 81.812253 
L 223.318994 82.085644 
L 223.66517 82.359035 
" clip-path="url(#pea4f553e1f)" style="fill: none; stroke: #008000; stroke-width: 1.5; stroke-linecap: square"/>
   </g>
   <g id="line2d_37">
    <path d="M 223.681403 79.09199 
L 224.02758 79.674048 
L 224.373757 80.256106 
L 224.719933 80.838164 
L 225.06611 81.420223 
L 225.412287 82.002281 
L 225.758464 82.584339 
L 226.104641 83.166397 
L 226.450817 83.748455 
L 226.796994 84.330514 
L 227.143171 84.912572 
L 227.489348 85.49463 
L 227.835524 86.076688 
L 228.181701 86.658747 
L 228.527878 87.240805 
L 228.874055 87.822863 
L 229.220232 88.404921 
L 229.566408 88.98698 
L 229.912585 89.569038 
L 230.258762 90.151096 
L 230.604939 90.733154 
L 230.951116 91.315212 
L 231.297292 91.897271 
L 231.643469 92.479329 
L 231.989646 93.061387 
" clip-path="url(#pea4f553e1f)" style="fill: none; stroke: #008000; stroke-width: 1.5; stroke-linecap: square"/>
   </g>
   <g id="line2d_38">
    <path d="M 232.005879 130.388584 
L 232.352055 134.066869 
L 232.698232 137.745154 
L 233.044409 141.423438 
L 233.390586 145.101723 
L 233.736763 148.780007 
L 234.082939 152.458292 
L 234.429116 156.136577 
L 234.775293 159.814861 
L 235.12147 163.493146 
L 235.467646 167.171431 
L 235.813823 170.849715 
L 236.16 174.528 
L 236.506177 178.206285 
L 236.852354 181.884569 
L 237.19853 185.562854 
L 237.544707 189.241139 
L 237.890884 192.919423 
L 238.237061 196.597708 
L 238.583237 200.275993 
L 238.929414 203.954277 
L 239.275591 207.632562 
L 239.621768 211.310846 
L 239.967945 214.989131 
L 240.314121 218.667416 
" clip-path="url(#pea4f553e1f)" style="fill: none; stroke: #008000; stroke-width: 1.5; stroke-linecap: square"/>
   </g>
   <g id="line2d_39">
    <path d="M 240.330354 255.994613 
L 240.676531 256.576671 
L 241.022708 257.158729 
L 241.368884 257.740788 
L 241.715061 258.322846 
L 242.061238 258.904904 
L 242.407415 259.486962 
L 242.753592 260.06902 
L 243.099768 260.651079 
L 243.445945 261.233137 
L 243.792122 261.815195 
L 244.138299 262.397253 
L 244.484476 262.979312 
L 244.830652 263.56137 
L 245.176829 264.143428 
L 245.523006 264.725486 
L 245.869183 265.307545 
L 246.215359 265.889603 
L 246.561536 266.471661 
L 246.907713 267.053719 
L 247.25389 267.635777 
L 247.600067 268.217836 
L 247.946243 268.799894 
L 248.29242 269.381952 
L 248.638597 269.96401 
" clip-path="url(#pea4f553e1f)" style="fill: none; stroke: #008000; stroke-width: 1.5; stroke-linecap: square"/>
   </g>
   <g id="line2d_40">
    <path d="M 248.65483 266.696965 
L 249.001006 266.970356 
L 249.347183 267.243747 
L 249.69336 267.517138 
L 250.039537 267.790529 
L 250.385714 268.06392 
L 250.73189 268.337311 
L 251.078067 268.610702 
L 251.424244 268.884093 
L 251.770421 269.157484 
L 252.116597 269.430875 
L 252.462774 269.704266 
L 252.808951 269.977657 
L 253.155128 270.251048 
L 253.501305 270.524439 
L 253.847481 270.79783 
L 254.193658 271.071221 
L 254.539835 271.344612 
L 254.886012 271.618003 
L 255.232189 271.891394 
L 255.578365 272.164785 
L 255.924542 272.438176 
L 256.270719 272.711567 
L 256.616896 272.984958 
L 256.963072 273.258349 
" clip-path="url(#pea4f553e1f)" style="fill: none; stroke: #008000; stroke-width: 1.5; stroke-linecap: square"/>
   </g>
   <g id="line2d_41">
    <path d="M 256.979305 273.270342 
L 257.325482 273.508456 
L 257.671659 273.746571 
L 258.017836 273.984686 
L 258.364012 274.222801 
L 258.710189 274.460915 
L 259.056366 274.69903 
L 259.402543 274.937145 
L 259.748719 275.175259 
L 260.094896 275.413374 
L 260.441073 275.651489 
L 260.78725 275.889604 
L 261.133427 276.127718 
L 261.479603 276.365833 
L 261.82578 276.603948 
L 262.171957 276.842063 
L 262.518134 277.080177 
L 262.86431 277.318292 
L 263.210487 277.556407 
L 263.556664 277.794521 
L 263.902841 278.032636 
L 264.249018 278.270751 
L 264.595194 278.508866 
L 264.941371 278.74698 
L 265.287548 278.985095 
" clip-path="url(#pea4f553e1f)" style="fill: none; stroke: #008000; stroke-width: 1.5; stroke-linecap: square"/>
   </g>
   <g id="line2d_42">
    <path d="M 265.303781 278.995434 
L 265.649957 279.198272 
L 265.996134 279.401111 
L 266.342311 279.603949 
L 266.688488 279.806787 
L 267.034665 280.009626 
L 267.380841 280.212464 
L 267.727018 280.415303 
L 268.073195 280.618141 
L 268.419372 280.82098 
L 268.765549 281.023818 
L 269.111725 281.226657 
L 269.457902 281.429495 
L 269.804079 281.632334 
L 270.150256 281.835172 
L 270.496432 282.038011 
L 270.842609 282.240849 
L 271.188786 282.443688 
L 271.534963 282.646526 
L 271.88114 282.849365 
L 272.227316 283.052203 
L 272.573493 283.255042 
L 272.91967 283.45788 
L 273.265847 283.660718 
L 273.612023 283.863557 
" clip-path="url(#pea4f553e1f)" style="fill: none; stroke: #008000; stroke-width: 1.5; stroke-linecap: square"/>
   </g>
   <g id="line2d_43">
    <path d="M 273.628256 283.872241 
L 273.974433 284.039803 
L 274.32061 284.207366 
L 274.666787 284.374928 
L 275.012963 284.54249 
L 275.35914 284.710052 
L 275.705317 284.877615 
L 276.051494 285.045177 
L 276.39767 285.212739 
L 276.743847 285.380301 
L 277.090024 285.547863 
L 277.436201 285.715426 
L 277.782378 285.882988 
L 278.128554 286.05055 
L 278.474731 286.218112 
L 278.820908 286.385675 
L 279.167085 286.553237 
L 279.513262 286.720799 
L 279.859438 286.888361 
L 280.205615 287.055923 
L 280.551792 287.223486 
L 280.897969 287.391048 
L 281.244145 287.55861 
L 281.590322 287.726172 
L 281.936499 287.893734 
" clip-path="url(#pea4f553e1f)" style="fill: none; stroke: #008000; stroke-width: 1.5; stroke-linecap: square"/>
   </g>
   <g id="line2d_44">
    <path d="M 281.952732 287.900765 
L 282.298909 288.033051 
L 282.645085 288.165337 
L 282.991262 288.297623 
L 283.337439 288.429908 
L 283.683616 288.562194 
L 284.029792 288.69448 
L 284.375969 288.826766 
L 284.722146 288.959052 
L 285.068323 289.091338 
L 285.4145 289.223624 
L 285.760676 289.35591 
L 286.106853 289.488196 
L 286.45303 289.620482 
L 286.799207 289.752768 
L 287.145383 289.885054 
L 287.49156 290.01734 
L 287.837737 290.149626 
L 288.183914 290.281912 
L 288.530091 290.414198 
L 288.876267 290.546484 
L 289.222444 290.67877 
L 289.568621 290.811056 
L 289.914798 290.943342 
L 290.260975 291.075628 
" clip-path="url(#pea4f553e1f)" style="fill: none; stroke: #008000; stroke-width: 1.5; stroke-linecap: square"/>
   </g>
   <g id="line2d_45">
    <path d="M 290.277207 291.081004 
L 290.623384 291.178013 
L 290.969561 291.275023 
L 291.315738 291.372033 
L 291.661914 291.469043 
L 292.008091 291.566052 
L 292.354268 291.663062 
L 292.700445 291.760072 
L 293.046622 291.857081 
L 293.392798 291.954091 
L 293.738975 292.051101 
L 294.085152 292.14811 
L 294.431329 292.24512 
L 294.777505 292.34213 
L 295.123682 292.43914 
L 295.469859 292.536149 
L 295.816036 292.633159 
L 296.162213 292.730169 
L 296.508389 292.827178 
L 296.854566 292.924188 
L 297.200743 293.021198 
L 297.54692 293.118208 
L 297.893097 293.215217 
L 298.239273 293.312227 
L 298.58545 293.409237 
" clip-path="url(#pea4f553e1f)" style="fill: none; stroke: #008000; stroke-width: 1.5; stroke-linecap: square"/>
   </g>
   <g id="line2d_46">
    <path d="M 298.601683 293.412958 
L 298.94786 293.474692 
L 299.294036 293.536425 
L 299.640213 293.598159 
L 299.98639 293.659892 
L 300.332567 293.721626 
L 300.678743 293.783359 
L 301.02492 293.845093 
L 301.371097 293.906826 
L 301.717274 293.96856 
L 302.063451 294.030293 
L 302.409627 294.092026 
L 302.755804 294.15376 
L 303.101981 294.215493 
L 303.448158 294.277227 
L 303.794335 294.33896 
L 304.140511 294.400694 
L 304.486688 294.462427 
L 304.832865 294.524161 
L 305.179042 294.585894 
L 305.525218 294.647627 
L 305.871395 294.709361 
L 306.217572 294.771094 
L 306.563749 294.832828 
L 306.909926 294.894561 
" clip-path="url(#pea4f553e1f)" style="fill: none; stroke: #008000; stroke-width: 1.5; stroke-linecap: square"/>
   </g>
   <g id="line2d_47">
    <path d="M 306.926158 295.002458 
L 307.272335 295.020096 
L 307.618512 295.037734 
L 307.964689 295.055372 
L 308.310865 295.07301 
L 308.657042 295.090648 
L 309.003219 295.108286 
L 309.349396 295.125925 
L 309.695573 295.143563 
L 310.041749 295.161201 
L 310.387926 295.178839 
L 310.734103 295.196477 
L 311.08028 295.214115 
L 311.426457 295.231753 
L 311.772633 295.249392 
L 312.11881 295.26703 
L 312.464987 295.284668 
L 312.811164 295.302306 
L 313.15734 295.319944 
L 313.503517 295.337582 
L 313.849694 295.35522 
L 314.195871 295.372858 
L 314.542048 295.390497 
L 314.888224 295.408135 
L 315.234401 295.425773 
" clip-path="url(#pea4f553e1f)" style="fill: none; stroke: #008000; stroke-width: 1.5; stroke-linecap: square"/>
   </g>
   <g id="line2d_48">
    <path d="M 315.250634 295.426186 
L 315.596811 295.426186 
L 315.942987 295.426186 
L 316.289164 295.426186 
L 316.635341 295.426186 
L 316.981518 295.426186 
L 317.327695 295.426186 
L 317.673871 295.426186 
L 318.020048 295.426186 
L 318.366225 295.426186 
L 318.712402 295.426186 
L 319.058578 295.426186 
L 319.404755 295.426186 
L 319.750932 295.426186 
L 320.097109 295.426186 
L 320.443286 295.426186 
L 320.789462 295.426186 
L 321.135639 295.426186 
L 321.481816 295.426186 
L 321.827993 295.426186 
L 322.17417 295.426186 
L 322.520346 295.426186 
L 322.866523 295.426186 
L 323.2127 295.426186 
L 323.558877 295.426186 
" clip-path="url(#pea4f553e1f)" style="fill: none; stroke: #008000; stroke-width: 1.5; stroke-linecap: square"/>
   </g>
   <g id="line2d_49">
    <path d="M 323.575109 295.319117 
L 323.921286 295.275022 
L 324.267463 295.230926 
L 324.61364 295.186831 
L 324.959817 295.142736 
L 325.305993 295.09864 
L 325.65217 295.054545 
L 325.998347 295.01045 
L 326.344524 294.966354 
L 326.6907 294.922259 
L 327.036877 294.878164 
L 327.383054 294.834068 
L 327.729231 294.789973 
L 328.075408 294.745878 
L 328.421584 294.701782 
L 328.767761 294.657687 
L 329.113938 294.613592 
L 329.460115 294.569497 
L 329.806291 294.525401 
L 330.152468 294.481306 
L 330.498645 294.437211 
L 330.844822 294.393115 
L 331.190999 294.34902 
L 331.537175 294.304925 
L 331.883352 294.260829 
" clip-path="url(#pea4f553e1f)" style="fill: none; stroke: #008000; stroke-width: 1.5; stroke-linecap: square"/>
   </g>
   <g id="line2d_50">
    <path d="M 331.899585 294.257934 
L 332.245762 294.178563 
L 332.591938 294.099191 
L 332.938115 294.01982 
L 333.284292 293.940448 
L 333.630469 293.861077 
L 333.976646 293.781705 
L 334.322822 293.702333 
L 334.668999 293.622962 
L 335.015176 293.54359 
L 335.361353 293.464219 
L 335.70753 293.384847 
L 336.053706 293.305476 
L 336.399883 293.226104 
L 336.74606 293.146732 
L 337.092237 293.067361 
L 337.438413 292.987989 
L 337.78459 292.908618 
L 338.130767 292.829246 
L 338.476944 292.749875 
L 338.823121 292.670503 
L 339.169297 292.591131 
L 339.515474 292.51176 
L 339.861651 292.432388 
L 340.207828 292.353017 
" clip-path="url(#pea4f553e1f)" style="fill: none; stroke: #008000; stroke-width: 1.5; stroke-linecap: square"/>
   </g>
   <g id="line2d_51">
    <path d="M 340.22406 292.348468 
L 340.570237 292.23382 
L 340.916414 292.119172 
L 341.262591 292.004524 
L 341.608768 291.889876 
L 341.954944 291.775229 
L 342.301121 291.660581 
L 342.647298 291.545933 
L 342.993475 291.431285 
L 343.339651 291.316637 
L 343.685828 291.201989 
L 344.032005 291.087342 
L 344.378182 290.972694 
L 344.724359 290.858046 
L 345.070535 290.743398 
L 345.416712 290.62875 
L 345.762889 290.514102 
L 346.109066 290.399455 
L 346.455243 290.284807 
L 346.801419 290.170159 
L 347.147596 290.055511 
L 347.493773 289.940863 
L 347.83995 289.826215 
L 348.186126 289.711568 
L 348.532303 289.59692 
" clip-path="url(#pea4f553e1f)" style="fill: none; stroke: #008000; stroke-width: 1.5; stroke-linecap: square"/>
   </g>
   <g id="line2d_52">
    <path d="M 348.548536 289.590717 
L 348.894713 289.440793 
L 349.24089 289.290868 
L 349.587066 289.140944 
L 349.933243 288.99102 
L 350.27942 288.841096 
L 350.625597 288.691172 
L 350.971773 288.541248 
L 351.31795 288.391324 
L 351.664127 288.2414 
L 352.010304 288.091476 
L 352.356481 287.941552 
L 352.702657 287.791628 
L 353.048834 287.641703 
L 353.395011 287.491779 
L 353.741188 287.341855 
L 354.087364 287.191931 
L 354.433541 287.042007 
L 354.779718 286.892083 
L 355.125895 286.742159 
L 355.472072 286.592235 
L 355.818248 286.442311 
L 356.164425 286.292387 
L 356.510602 286.142463 
L 356.856779 285.992538 
" clip-path="url(#pea4f553e1f)" style="fill: none; stroke: #008000; stroke-width: 1.5; stroke-linecap: square"/>
   </g>
   <g id="line2d_53">
    <path d="M 356.873011 285.984681 
L 357.219188 285.799481 
L 357.565365 285.614281 
L 357.911542 285.42908 
L 358.257719 285.24388 
L 358.603895 285.05868 
L 358.950072 284.873479 
L 359.296249 284.688279 
L 359.642426 284.503078 
L 359.988603 284.317878 
L 360.334779 284.132678 
L 360.680956 283.947477 
L 361.027133 283.762277 
L 361.37331 283.577077 
L 361.719486 283.391876 
L 362.065663 283.206676 
L 362.41184 283.021476 
L 362.758017 282.836275 
L 363.104194 282.651075 
L 363.45037 282.465875 
L 363.796547 282.280674 
L 364.142724 282.095474 
L 364.488901 281.910274 
L 364.835077 281.725073 
L 365.181254 281.539873 
" clip-path="url(#pea4f553e1f)" style="fill: none; stroke: #008000; stroke-width: 1.5; stroke-linecap: square"/>
   </g>
   <g id="line2d_54">
    <path d="M 365.197487 281.530362 
L 365.543664 281.309885 
L 365.889841 281.089408 
L 366.236017 280.868932 
L 366.582194 280.648455 
L 366.928371 280.427979 
L 367.274548 280.207502 
L 367.620724 279.987025 
L 367.966901 279.766549 
L 368.313078 279.546072 
L 368.659255 279.325596 
L 369.005432 279.105119 
L 369.351608 278.884642 
L 369.697785 278.664166 
L 370.043962 278.443689 
L 370.390139 278.223213 
L 370.736316 278.002736 
L 371.082492 277.782259 
L 371.428669 277.561783 
L 371.774846 277.341306 
L 372.121023 277.12083 
L 372.467199 276.900353 
L 372.813376 276.679876 
L 373.159553 276.4594 
L 373.50573 276.238923 
" clip-path="url(#pea4f553e1f)" style="fill: none; stroke: #008000; stroke-width: 1.5; stroke-linecap: square"/>
   </g>
   <g id="line2d_55">
    <path d="M 373.521963 276.227758 
L 373.868139 275.972005 
L 374.214316 275.716252 
L 374.560493 275.460499 
L 374.90667 275.204746 
L 375.252846 274.948993 
L 375.599023 274.69324 
L 375.9452 274.437488 
L 376.291377 274.181735 
L 376.637554 273.925982 
L 376.98373 273.670229 
L 377.329907 273.414476 
L 377.676084 273.158723 
L 378.022261 272.90297 
L 378.368437 272.647218 
L 378.714614 272.391465 
L 379.060791 272.135712 
L 379.406968 271.879959 
L 379.753145 271.624206 
L 380.099321 271.368453 
L 380.445498 271.1127 
L 380.791675 270.856948 
L 381.137852 270.601195 
L 381.484029 270.345442 
L 381.830205 270.089689 
" clip-path="url(#pea4f553e1f)" style="fill: none; stroke: #008000; stroke-width: 1.5; stroke-linecap: square"/>
   </g>
   <g id="line2d_56">
    <path d="M 381.846438 270.076869 
L 382.192615 269.78584 
L 382.538792 269.494811 
L 382.884968 269.203782 
L 383.231145 268.912753 
L 383.577322 268.621724 
L 383.923499 268.330695 
L 384.269676 268.039665 
L 384.615852 267.748636 
L 384.962029 267.457607 
L 385.308206 267.166578 
L 385.654383 266.875549 
L 386.000559 266.58452 
L 386.346736 266.293491 
L 386.692913 266.002462 
L 387.03909 265.711433 
L 387.385267 265.420403 
L 387.731443 265.129374 
L 388.07762 264.838345 
L 388.423797 264.547316 
L 388.769974 264.256287 
L 389.11615 263.965258 
L 389.462327 263.674229 
L 389.808504 263.3832 
L 390.154681 263.092171 
" clip-path="url(#pea4f553e1f)" style="fill: none; stroke: #008000; stroke-width: 1.5; stroke-linecap: square"/>
   </g>
   <g id="line2d_57">
    <path d="M 390.170914 263.992789 
L 390.51709 263.590226 
L 390.863267 263.187663 
L 391.209444 262.7851 
L 391.555621 262.382537 
L 391.901797 261.979974 
L 392.247974 261.577411 
L 392.594151 261.174847 
L 392.940328 260.772284 
L 393.286505 260.369721 
L 393.632681 259.967158 
L 393.978858 259.564595 
L 394.325035 259.162032 
L 394.671212 258.759469 
L 395.017389 258.356906 
L 395.363565 257.954343 
L 395.709742 257.55178 
L 396.055919 257.149217 
L 396.402096 256.746654 
L 396.748272 256.344091 
L 397.094449 255.941528 
L 397.440626 255.538965 
L 397.786803 255.136402 
L 398.13298 254.733839 
L 398.479156 254.331276 
" clip-path="url(#pea4f553e1f)" style="fill: none; stroke: #008000; stroke-width: 1.5; stroke-linecap: square"/>
   </g>
   <g id="patch_3">
    <path d="M 57.6 307.584 
L 57.6 41.472 
" style="fill: none; stroke: #000000; stroke-width: 0.8; stroke-linejoin: miter; stroke-linecap: square"/>
   </g>
   <g id="patch_4">
    <path d="M 414.72 307.584 
L 414.72 41.472 
" style="fill: none; stroke: #000000; stroke-width: 0.8; stroke-linejoin: miter; stroke-linecap: square"/>
   </g>
   <g id="patch_5">
    <path d="M 57.6 307.584 
L 414.72 307.584 
" style="fill: none; stroke: #000000; stroke-width: 0.8; stroke-linejoin: miter; stroke-linecap: square"/>
   </g>
   <g id="patch_6">
    <path d="M 57.6 41.472 
L 414.72 41.472 
" style="fill: none; stroke: #000000; stroke-width: 0.8; stroke-linejoin: miter; stroke-linecap: square"/>
   </g>
   <g id="legend_1">
    <g id="patch_7">
     <path d="M 64.6 93.906375 
L 210.795312 93.906375 
Q 212.795312 93.906375 212.795312 91.906375 
L 212.795312 48.472 
Q 212.795312 46.472 210.795312 46.472 
L 64.6 46.472 
Q 62.6 46.472 62.6 48.472 
L 62.6 91.906375 
Q 62.6 93.906375 64.6 93.906375 
z
" style="fill: #ffffff; opacity: 0.8; stroke: #cccccc; stroke-linejoin: miter"/>
    </g>
    <g id="line2d_58">
     <path d="M 66.6 54.570437 
L 76.6 54.570437 
L 86.6 54.570437 
" style="fill: none; stroke: #0000ff; stroke-width: 1.5; stroke-linecap: square"/>
    </g>
    <g id="text_20">
     <!-- Původní funkce -->
     <g transform="translate(94.6 58.070437)scale(0.1 -0.1)">
      <defs>
       <path id="DejaVuSans-50" d="M 1259 4147 
L 1259 2394 
L 2053 2394 
Q 2494 2394 2734 2622 
Q 2975 2850 2975 3272 
Q 2975 3691 2734 3919 
Q 2494 4147 2053 4147 
L 1259 4147 
z
M 628 4666 
L 2053 4666 
Q 2838 4666 3239 4311 
Q 3641 3956 3641 3272 
Q 3641 2581 3239 2228 
Q 2838 1875 2053 1875 
L 1259 1875 
L 1259 0 
L 628 0 
L 628 4666 
z
" transform="scale(0.015625)"/>
       <path id="DejaVuSans-16f" d="M 544 1381 
L 544 3500 
L 1119 3500 
L 1119 1403 
Q 1119 906 1312 657 
Q 1506 409 1894 409 
Q 2359 409 2629 706 
Q 2900 1003 2900 1516 
L 2900 3500 
L 3475 3500 
L 3475 0 
L 2900 0 
L 2900 538 
Q 2691 219 2414 64 
Q 2138 -91 1772 -91 
Q 1169 -91 856 284 
Q 544 659 544 1381 
z
M 1991 3584 
L 1991 3584 
z
M 2463 4575 
Q 2463 4771 2325 4908 
Q 2188 5046 1988 5046 
Q 1784 5046 1648 4910 
Q 1513 4775 1513 4575 
Q 1513 4371 1648 4235 
Q 1784 4100 1988 4100 
Q 2188 4100 2325 4237 
Q 2463 4375 2463 4575 
z
M 2844 4575 
Q 2844 4215 2595 3965 
Q 2347 3715 1988 3715 
Q 1628 3715 1379 3965 
Q 1131 4215 1131 4575 
Q 1131 4934 1379 5182 
Q 1628 5431 1988 5431 
Q 2347 5431 2595 5182 
Q 2844 4934 2844 4575 
z
" transform="scale(0.015625)"/>
       <path id="DejaVuSans-76" d="M 191 3500 
L 800 3500 
L 1894 563 
L 2988 3500 
L 3597 3500 
L 2284 0 
L 1503 0 
L 191 3500 
z
" transform="scale(0.015625)"/>
       <path id="DejaVuSans-6f" d="M 1959 3097 
Q 1497 3097 1228 2736 
Q 959 2375 959 1747 
Q 959 1119 1226 758 
Q 1494 397 1959 397 
Q 2419 397 2687 759 
Q 2956 1122 2956 1747 
Q 2956 2369 2687 2733 
Q 2419 3097 1959 3097 
z
M 1959 3584 
Q 2709 3584 3137 3096 
Q 3566 2609 3566 1747 
Q 3566 888 3137 398 
Q 2709 -91 1959 -91 
Q 1206 -91 779 398 
Q 353 888 353 1747 
Q 353 2609 779 3096 
Q 1206 3584 1959 3584 
z
" transform="scale(0.015625)"/>
       <path id="DejaVuSans-64" d="M 2906 2969 
L 2906 4863 
L 3481 4863 
L 3481 0 
L 2906 0 
L 2906 525 
Q 2725 213 2448 61 
Q 2172 -91 1784 -91 
Q 1150 -91 751 415 
Q 353 922 353 1747 
Q 353 2572 751 3078 
Q 1150 3584 1784 3584 
Q 2172 3584 2448 3432 
Q 2725 3281 2906 2969 
z
M 947 1747 
Q 947 1113 1208 752 
Q 1469 391 1925 391 
Q 2381 391 2643 752 
Q 2906 1113 2906 1747 
Q 2906 2381 2643 2742 
Q 2381 3103 1925 3103 
Q 1469 3103 1208 2742 
Q 947 2381 947 1747 
z
" transform="scale(0.015625)"/>
       <path id="DejaVuSans-6e" d="M 3513 2113 
L 3513 0 
L 2938 0 
L 2938 2094 
Q 2938 2591 2744 2837 
Q 2550 3084 2163 3084 
Q 1697 3084 1428 2787 
Q 1159 2491 1159 1978 
L 1159 0 
L 581 0 
L 581 3500 
L 1159 3500 
L 1159 2956 
Q 1366 3272 1645 3428 
Q 1925 3584 2291 3584 
Q 2894 3584 3203 3211 
Q 3513 2838 3513 2113 
z
" transform="scale(0.015625)"/>
       <path id="DejaVuSans-ed" d="M 1325 5119 
L 1947 5119 
L 928 3944 
L 450 3944 
L 1325 5119 
z
M 603 3500 
L 1178 3500 
L 1178 0 
L 603 0 
L 603 3500 
z
M 891 3584 
L 891 3584 
z
" transform="scale(0.015625)"/>
       <path id="DejaVuSans-20" transform="scale(0.015625)"/>
       <path id="DejaVuSans-66" d="M 2375 4863 
L 2375 4384 
L 1825 4384 
Q 1516 4384 1395 4259 
Q 1275 4134 1275 3809 
L 1275 3500 
L 2222 3500 
L 2222 3053 
L 1275 3053 
L 1275 0 
L 697 0 
L 697 3053 
L 147 3053 
L 147 3500 
L 697 3500 
L 697 3744 
Q 697 4328 969 4595 
Q 1241 4863 1831 4863 
L 2375 4863 
z
" transform="scale(0.015625)"/>
       <path id="DejaVuSans-75" d="M 544 1381 
L 544 3500 
L 1119 3500 
L 1119 1403 
Q 1119 906 1312 657 
Q 1506 409 1894 409 
Q 2359 409 2629 706 
Q 2900 1003 2900 1516 
L 2900 3500 
L 3475 3500 
L 3475 0 
L 2900 0 
L 2900 538 
Q 2691 219 2414 64 
Q 2138 -91 1772 -91 
Q 1169 -91 856 284 
Q 544 659 544 1381 
z
M 1991 3584 
L 1991 3584 
z
" transform="scale(0.015625)"/>
       <path id="DejaVuSans-6b" d="M 581 4863 
L 1159 4863 
L 1159 1991 
L 2875 3500 
L 3609 3500 
L 1753 1863 
L 3688 0 
L 2938 0 
L 1159 1709 
L 1159 0 
L 581 0 
L 581 4863 
z
" transform="scale(0.015625)"/>
       <path id="DejaVuSans-63" d="M 3122 3366 
L 3122 2828 
Q 2878 2963 2633 3030 
Q 2388 3097 2138 3097 
Q 1578 3097 1268 2742 
Q 959 2388 959 1747 
Q 959 1106 1268 751 
Q 1578 397 2138 397 
Q 2388 397 2633 464 
Q 2878 531 3122 666 
L 3122 134 
Q 2881 22 2623 -34 
Q 2366 -91 2075 -91 
Q 1284 -91 818 406 
Q 353 903 353 1747 
Q 353 2603 823 3093 
Q 1294 3584 2113 3584 
Q 2378 3584 2631 3529 
Q 2884 3475 3122 3366 
z
" transform="scale(0.015625)"/>
       <path id="DejaVuSans-65" d="M 3597 1894 
L 3597 1613 
L 953 1613 
Q 991 1019 1311 708 
Q 1631 397 2203 397 
Q 2534 397 2845 478 
Q 3156 559 3463 722 
L 3463 178 
Q 3153 47 2828 -22 
Q 2503 -91 2169 -91 
Q 1331 -91 842 396 
Q 353 884 353 1716 
Q 353 2575 817 3079 
Q 1281 3584 2069 3584 
Q 2775 3584 3186 3129 
Q 3597 2675 3597 1894 
z
M 3022 2063 
Q 3016 2534 2758 2815 
Q 2500 3097 2075 3097 
Q 1594 3097 1305 2825 
Q 1016 2553 972 2059 
L 3022 2063 
z
" transform="scale(0.015625)"/>
      </defs>
      <use xlink:href="#DejaVuSans-50"/>
      <use xlink:href="#DejaVuSans-16f" x="58.552734"/>
      <use xlink:href="#DejaVuSans-76" x="121.931641"/>
      <use xlink:href="#DejaVuSans-6f" x="181.111328"/>
      <use xlink:href="#DejaVuSans-64" x="242.292969"/>
      <use xlink:href="#DejaVuSans-6e" x="305.769531"/>
      <use xlink:href="#DejaVuSans-ed" x="369.148438"/>
      <use xlink:href="#DejaVuSans-20" x="396.931641"/>
      <use xlink:href="#DejaVuSans-66" x="428.71875"/>
      <use xlink:href="#DejaVuSans-75" x="463.923828"/>
      <use xlink:href="#DejaVuSans-6e" x="527.302734"/>
      <use xlink:href="#DejaVuSans-6b" x="590.681641"/>
      <use xlink:href="#DejaVuSans-63" x="648.591797"/>
      <use xlink:href="#DejaVuSans-65" x="703.572266"/>
     </g>
    </g>
    <g id="PathCollection_2">
     <g>
      <use xlink:href="#mfb9086ff27" x="76.6" y="70.523562" style="fill: #228b22; stroke: #228b22"/>
     </g>
    </g>
    <g id="text_21">
     <!-- Střední hodnoty buněk -->
     <g transform="translate(94.6 73.148562)scale(0.1 -0.1)">
      <defs>
       <path id="DejaVuSans-53" d="M 3425 4513 
L 3425 3897 
Q 3066 4069 2747 4153 
Q 2428 4238 2131 4238 
Q 1616 4238 1336 4038 
Q 1056 3838 1056 3469 
Q 1056 3159 1242 3001 
Q 1428 2844 1947 2747 
L 2328 2669 
Q 3034 2534 3370 2195 
Q 3706 1856 3706 1288 
Q 3706 609 3251 259 
Q 2797 -91 1919 -91 
Q 1588 -91 1214 -16 
Q 841 59 441 206 
L 441 856 
Q 825 641 1194 531 
Q 1563 422 1919 422 
Q 2459 422 2753 634 
Q 3047 847 3047 1241 
Q 3047 1584 2836 1778 
Q 2625 1972 2144 2069 
L 1759 2144 
Q 1053 2284 737 2584 
Q 422 2884 422 3419 
Q 422 4038 858 4394 
Q 1294 4750 2059 4750 
Q 2388 4750 2728 4690 
Q 3069 4631 3425 4513 
z
" transform="scale(0.015625)"/>
       <path id="DejaVuSans-74" d="M 1172 4494 
L 1172 3500 
L 2356 3500 
L 2356 3053 
L 1172 3053 
L 1172 1153 
Q 1172 725 1289 603 
Q 1406 481 1766 481 
L 2356 481 
L 2356 0 
L 1766 0 
Q 1100 0 847 248 
Q 594 497 594 1153 
L 594 3053 
L 172 3053 
L 172 3500 
L 594 3500 
L 594 4494 
L 1172 4494 
z
" transform="scale(0.015625)"/>
       <path id="DejaVuSans-159" d="M 2631 2963 
Q 2534 3019 2420 3045 
Q 2306 3072 2169 3072 
Q 1681 3072 1420 2755 
Q 1159 2438 1159 1844 
L 1159 0 
L 581 0 
L 581 3500 
L 1159 3500 
L 1159 2956 
Q 1341 3275 1631 3429 
Q 1922 3584 2338 3584 
Q 2397 3584 2469 3576 
Q 2541 3569 2628 3553 
L 2631 2963 
z
M 1453 3944 
L 688 5119 
L 1122 5119 
L 1684 4353 
L 2247 5119 
L 2681 5119 
L 1916 3944 
L 1453 3944 
z
" transform="scale(0.015625)"/>
       <path id="DejaVuSans-68" d="M 3513 2113 
L 3513 0 
L 2938 0 
L 2938 2094 
Q 2938 2591 2744 2837 
Q 2550 3084 2163 3084 
Q 1697 3084 1428 2787 
Q 1159 2491 1159 1978 
L 1159 0 
L 581 0 
L 581 4863 
L 1159 4863 
L 1159 2956 
Q 1366 3272 1645 3428 
Q 1925 3584 2291 3584 
Q 2894 3584 3203 3211 
Q 3513 2838 3513 2113 
z
" transform="scale(0.015625)"/>
       <path id="DejaVuSans-79" d="M 2059 -325 
Q 1816 -950 1584 -1140 
Q 1353 -1331 966 -1331 
L 506 -1331 
L 506 -850 
L 844 -850 
Q 1081 -850 1212 -737 
Q 1344 -625 1503 -206 
L 1606 56 
L 191 3500 
L 800 3500 
L 1894 763 
L 2988 3500 
L 3597 3500 
L 2059 -325 
z
" transform="scale(0.015625)"/>
       <path id="DejaVuSans-62" d="M 3116 1747 
Q 3116 2381 2855 2742 
Q 2594 3103 2138 3103 
Q 1681 3103 1420 2742 
Q 1159 2381 1159 1747 
Q 1159 1113 1420 752 
Q 1681 391 2138 391 
Q 2594 391 2855 752 
Q 3116 1113 3116 1747 
z
M 1159 2969 
Q 1341 3281 1617 3432 
Q 1894 3584 2278 3584 
Q 2916 3584 3314 3078 
Q 3713 2572 3713 1747 
Q 3713 922 3314 415 
Q 2916 -91 2278 -91 
Q 1894 -91 1617 61 
Q 1341 213 1159 525 
L 1159 0 
L 581 0 
L 581 4863 
L 1159 4863 
L 1159 2969 
z
" transform="scale(0.015625)"/>
       <path id="DejaVuSans-11b" d="M 3597 1894 
L 3597 1613 
L 953 1613 
Q 991 1019 1311 708 
Q 1631 397 2203 397 
Q 2534 397 2845 478 
Q 3156 559 3463 722 
L 3463 178 
Q 3153 47 2828 -22 
Q 2503 -91 2169 -91 
Q 1331 -91 842 396 
Q 353 884 353 1716 
Q 353 2575 817 3079 
Q 1281 3584 2069 3584 
Q 2775 3584 3186 3129 
Q 3597 2675 3597 1894 
z
M 3022 2063 
Q 3016 2534 2758 2815 
Q 2500 3097 2075 3097 
Q 1594 3097 1305 2825 
Q 1016 2553 972 2059 
L 3022 2063 
z
M 1831 3928 
L 1066 5103 
L 1500 5103 
L 2063 4337 
L 2625 5103 
L 3059 5103 
L 2294 3928 
L 1831 3928 
z
" transform="scale(0.015625)"/>
      </defs>
      <use xlink:href="#DejaVuSans-53"/>
      <use xlink:href="#DejaVuSans-74" x="63.476562"/>
      <use xlink:href="#DejaVuSans-159" x="102.685547"/>
      <use xlink:href="#DejaVuSans-65" x="141.548828"/>
      <use xlink:href="#DejaVuSans-64" x="203.072266"/>
      <use xlink:href="#DejaVuSans-6e" x="266.548828"/>
      <use xlink:href="#DejaVuSans-ed" x="329.927734"/>
      <use xlink:href="#DejaVuSans-20" x="357.710938"/>
      <use xlink:href="#DejaVuSans-68" x="389.498047"/>
      <use xlink:href="#DejaVuSans-6f" x="452.876953"/>
      <use xlink:href="#DejaVuSans-64" x="514.058594"/>
      <use xlink:href="#DejaVuSans-6e" x="577.535156"/>
      <use xlink:href="#DejaVuSans-6f" x="640.914062"/>
      <use xlink:href="#DejaVuSans-74" x="702.095703"/>
      <use xlink:href="#DejaVuSans-79" x="741.304688"/>
      <use xlink:href="#DejaVuSans-20" x="800.484375"/>
      <use xlink:href="#DejaVuSans-62" x="832.271484"/>
      <use xlink:href="#DejaVuSans-75" x="895.748047"/>
      <use xlink:href="#DejaVuSans-6e" x="959.126953"/>
      <use xlink:href="#DejaVuSans-11b" x="1022.505859"/>
      <use xlink:href="#DejaVuSans-6b" x="1084.029297"/>
     </g>
    </g>
    <g id="line2d_59">
     <path d="M 66.6 84.326687 
L 76.6 84.326687 
L 86.6 84.326687 
" style="fill: none; stroke: #008000; stroke-width: 1.5; stroke-linecap: square"/>
    </g>
    <g id="text_22">
     <!-- Rekonstrukce -->
     <g transform="translate(94.6 87.826687)scale(0.1 -0.1)">
      <defs>
       <path id="DejaVuSans-52" d="M 2841 2188 
Q 3044 2119 3236 1894 
Q 3428 1669 3622 1275 
L 4263 0 
L 3584 0 
L 2988 1197 
Q 2756 1666 2539 1819 
Q 2322 1972 1947 1972 
L 1259 1972 
L 1259 0 
L 628 0 
L 628 4666 
L 2053 4666 
Q 2853 4666 3247 4331 
Q 3641 3997 3641 3322 
Q 3641 2881 3436 2590 
Q 3231 2300 2841 2188 
z
M 1259 4147 
L 1259 2491 
L 2053 2491 
Q 2509 2491 2742 2702 
Q 2975 2913 2975 3322 
Q 2975 3731 2742 3939 
Q 2509 4147 2053 4147 
L 1259 4147 
z
" transform="scale(0.015625)"/>
       <path id="DejaVuSans-73" d="M 2834 3397 
L 2834 2853 
Q 2591 2978 2328 3040 
Q 2066 3103 1784 3103 
Q 1356 3103 1142 2972 
Q 928 2841 928 2578 
Q 928 2378 1081 2264 
Q 1234 2150 1697 2047 
L 1894 2003 
Q 2506 1872 2764 1633 
Q 3022 1394 3022 966 
Q 3022 478 2636 193 
Q 2250 -91 1575 -91 
Q 1294 -91 989 -36 
Q 684 19 347 128 
L 347 722 
Q 666 556 975 473 
Q 1284 391 1588 391 
Q 1994 391 2212 530 
Q 2431 669 2431 922 
Q 2431 1156 2273 1281 
Q 2116 1406 1581 1522 
L 1381 1569 
Q 847 1681 609 1914 
Q 372 2147 372 2553 
Q 372 3047 722 3315 
Q 1072 3584 1716 3584 
Q 2034 3584 2315 3537 
Q 2597 3491 2834 3397 
z
" transform="scale(0.015625)"/>
       <path id="DejaVuSans-72" d="M 2631 2963 
Q 2534 3019 2420 3045 
Q 2306 3072 2169 3072 
Q 1681 3072 1420 2755 
Q 1159 2438 1159 1844 
L 1159 0 
L 581 0 
L 581 3500 
L 1159 3500 
L 1159 2956 
Q 1341 3275 1631 3429 
Q 1922 3584 2338 3584 
Q 2397 3584 2469 3576 
Q 2541 3569 2628 3553 
L 2631 2963 
z
" transform="scale(0.015625)"/>
      </defs>
      <use xlink:href="#DejaVuSans-52"/>
      <use xlink:href="#DejaVuSans-65" x="64.982422"/>
      <use xlink:href="#DejaVuSans-6b" x="126.505859"/>
      <use xlink:href="#DejaVuSans-6f" x="180.791016"/>
      <use xlink:href="#DejaVuSans-6e" x="241.972656"/>
      <use xlink:href="#DejaVuSans-73" x="305.351562"/>
      <use xlink:href="#DejaVuSans-74" x="357.451172"/>
      <use xlink:href="#DejaVuSans-72" x="396.660156"/>
      <use xlink:href="#DejaVuSans-75" x="437.773438"/>
      <use xlink:href="#DejaVuSans-6b" x="501.152344"/>
      <use xlink:href="#DejaVuSans-63" x="559.0625"/>
      <use xlink:href="#DejaVuSans-65" x="614.042969"/>
     </g>
    </g>
   </g>
  </g>
 </g>
 <defs>
  <clipPath id="pea4f553e1f">
   <rect x="57.6" y="41.472" width="357.12" height="266.112"/>
  </clipPath>
 </defs>
</svg>
