<?xml version="1.0" encoding="utf-8" standalone="no"?>
<!DOCTYPE svg PUBLIC "-//W3C//DTD SVG 1.1//EN"
  "http://www.w3.org/Graphics/SVG/1.1/DTD/svg11.dtd">
<svg xmlns:xlink="http://www.w3.org/1999/xlink" width="460.8pt" height="345.6pt" viewBox="0 0 460.8 345.6" xmlns="http://www.w3.org/2000/svg" version="1.1">
 <metadata>
  <rdf:RDF xmlns:dc="http://purl.org/dc/elements/1.1/" xmlns:cc="http://creativecommons.org/ns#" xmlns:rdf="http://www.w3.org/1999/02/22-rdf-syntax-ns#">
   <cc:Work>
    <dc:type rdf:resource="http://purl.org/dc/dcmitype/StillImage"/>
    <dc:date>2023-08-02T18:10:33.664577</dc:date>
    <dc:format>image/svg+xml</dc:format>
    <dc:creator>
     <cc:Agent>
      <dc:title>Matplotlib v3.5.2, https://matplotlib.org/</dc:title>
     </cc:Agent>
    </dc:creator>
   </cc:Work>
  </rdf:RDF>
 </metadata>
 <defs>
  <style type="text/css">*{stroke-linejoin: round; stroke-linecap: butt}</style>
 </defs>
 <g id="figure_1">
  <g id="patch_1">
   <path d="M 0 345.6 
L 460.8 345.6 
L 460.8 0 
L 0 0 
z
" style="fill: #ffffff"/>
  </g>
  <g id="axes_1">
   <g id="patch_2">
    <path d="M 57.6 307.584 
L 414.72 307.584 
L 414.72 41.472 
L 57.6 41.472 
z
" style="fill: #ffffff"/>
   </g>
   <g id="PathCollection_1">
    <defs>
     <path id="mab9c5c9726" d="M 0 3 
C 0.795609 3 1.55874 2.683901 2.12132 2.12132 
C 2.683901 1.55874 3 0.795609 3 0 
C 3 -0.795609 2.683901 -1.55874 2.12132 -2.12132 
C 1.55874 -2.683901 0.795609 -3 0 -3 
C -0.795609 -3 -1.55874 -2.683901 -2.12132 -2.12132 
C -2.683901 -1.55874 -3 -0.795609 -3 0 
C -3 0.795609 -2.683901 1.55874 -2.12132 2.12132 
C -1.55874 2.683901 -0.795609 3 0 3 
z
" style="stroke: #228b22"/>
    </defs>
    <g clip-path="url(#pd368a23d77)">
     <use xlink:href="#mab9c5c9726" x="77.994965" y="284.190826" style="fill: #228b22; stroke: #228b22"/>
     <use xlink:href="#mab9c5c9726" x="86.319441" y="284.187569" style="fill: #228b22; stroke: #228b22"/>
     <use xlink:href="#mab9c5c9726" x="94.643916" y="284.183057" style="fill: #228b22; stroke: #228b22"/>
     <use xlink:href="#mab9c5c9726" x="102.968392" y="284.199184" style="fill: #228b22; stroke: #228b22"/>
     <use xlink:href="#mab9c5c9726" x="111.292867" y="284.249157" style="fill: #228b22; stroke: #228b22"/>
     <use xlink:href="#mab9c5c9726" x="119.617343" y="284.285501" style="fill: #228b22; stroke: #228b22"/>
     <use xlink:href="#mab9c5c9726" x="127.941818" y="284.187821" style="fill: #228b22; stroke: #228b22"/>
     <use xlink:href="#mab9c5c9726" x="136.266294" y="283.855466" style="fill: #228b22; stroke: #228b22"/>
     <use xlink:href="#mab9c5c9726" x="144.590769" y="283.387887" style="fill: #228b22; stroke: #228b22"/>
     <use xlink:href="#mab9c5c9726" x="152.915245" y="283.22135" style="fill: #228b22; stroke: #228b22"/>
     <use xlink:href="#mab9c5c9726" x="161.23972" y="284.043074" style="fill: #228b22; stroke: #228b22"/>
     <use xlink:href="#mab9c5c9726" x="169.564196" y="286.39249" style="fill: #228b22; stroke: #228b22"/>
     <use xlink:href="#mab9c5c9726" x="177.888671" y="290.060418" style="fill: #228b22; stroke: #228b22"/>
     <use xlink:href="#mab9c5c9726" x="186.213147" y="293.592947" style="fill: #228b22; stroke: #228b22"/>
     <use xlink:href="#mab9c5c9726" x="194.537622" y="294.256779" style="fill: #228b22; stroke: #228b22"/>
     <use xlink:href="#mab9c5c9726" x="202.862098" y="288.658441" style="fill: #228b22; stroke: #228b22"/>
     <use xlink:href="#mab9c5c9726" x="211.186573" y="273.891408" style="fill: #228b22; stroke: #228b22"/>
     <use xlink:href="#mab9c5c9726" x="219.511049" y="248.777861" style="fill: #228b22; stroke: #228b22"/>
     <use xlink:href="#mab9c5c9726" x="227.835524" y="214.652241" style="fill: #228b22; stroke: #228b22"/>
     <use xlink:href="#mab9c5c9726" x="236.16" y="175.285993" style="fill: #228b22; stroke: #228b22"/>
     <use xlink:href="#mab9c5c9726" x="244.484476" y="135.914862" style="fill: #228b22; stroke: #228b22"/>
     <use xlink:href="#mab9c5c9726" x="252.808951" y="101.725225" style="fill: #228b22; stroke: #228b22"/>
     <use xlink:href="#mab9c5c9726" x="261.133427" y="76.388637" style="fill: #228b22; stroke: #228b22"/>
     <use xlink:href="#mab9c5c9726" x="269.457902" y="61.19467" style="fill: #228b22; stroke: #228b22"/>
     <use xlink:href="#mab9c5c9726" x="277.782378" y="55.051524" style="fill: #228b22; stroke: #228b22"/>
     <use xlink:href="#mab9c5c9726" x="286.106853" y="55.248979" style="fill: #228b22; stroke: #228b22"/>
     <use xlink:href="#mab9c5c9726" x="294.431329" y="58.589417" style="fill: #228b22; stroke: #228b22"/>
     <use xlink:href="#mab9c5c9726" x="302.755804" y="62.410691" style="fill: #228b22; stroke: #228b22"/>
     <use xlink:href="#mab9c5c9726" x="311.08028" y="65.157205" style="fill: #228b22; stroke: #228b22"/>
     <use xlink:href="#mab9c5c9726" x="319.404755" y="66.408519" style="fill: #228b22; stroke: #228b22"/>
     <use xlink:href="#mab9c5c9726" x="327.729231" y="66.512558" style="fill: #228b22; stroke: #228b22"/>
     <use xlink:href="#mab9c5c9726" x="336.053706" y="66.08941" style="fill: #228b22; stroke: #228b22"/>
     <use xlink:href="#mab9c5c9726" x="344.378182" y="65.64487" style="fill: #228b22; stroke: #228b22"/>
     <use xlink:href="#mab9c5c9726" x="352.702657" y="65.408491" style="fill: #228b22; stroke: #228b22"/>
     <use xlink:href="#mab9c5c9726" x="361.027133" y="65.372611" style="fill: #228b22; stroke: #228b22"/>
     <use xlink:href="#mab9c5c9726" x="369.351608" y="65.426295" style="fill: #228b22; stroke: #228b22"/>
     <use xlink:href="#mab9c5c9726" x="377.676084" y="65.474751" style="fill: #228b22; stroke: #228b22"/>
     <use xlink:href="#mab9c5c9726" x="386.000559" y="65.487516" style="fill: #228b22; stroke: #228b22"/>
     <use xlink:href="#mab9c5c9726" x="394.325035" y="65.481625" style="fill: #228b22; stroke: #228b22"/>
    </g>
   </g>
   <g id="matplotlib.axis_1">
    <g id="xtick_1">
     <g id="line2d_1">
      <defs>
       <path id="mb0bb750491" d="M 0 0 
L 0 3.5 
" style="stroke: #000000; stroke-width: 0.8"/>
      </defs>
      <g>
       <use xlink:href="#mb0bb750491" x="73.832727" y="307.584" style="stroke: #000000; stroke-width: 0.8"/>
      </g>
     </g>
     <g id="text_1">
      <!-- −1.00 -->
      <g transform="translate(58.510071 322.182437)scale(0.1 -0.1)">
       <defs>
        <path id="DejaVuSans-2212" d="M 678 2272 
L 4684 2272 
L 4684 1741 
L 678 1741 
L 678 2272 
z
" transform="scale(0.015625)"/>
        <path id="DejaVuSans-31" d="M 794 531 
L 1825 531 
L 1825 4091 
L 703 3866 
L 703 4441 
L 1819 4666 
L 2450 4666 
L 2450 531 
L 3481 531 
L 3481 0 
L 794 0 
L 794 531 
z
" transform="scale(0.015625)"/>
        <path id="DejaVuSans-2e" d="M 684 794 
L 1344 794 
L 1344 0 
L 684 0 
L 684 794 
z
" transform="scale(0.015625)"/>
        <path id="DejaVuSans-30" d="M 2034 4250 
Q 1547 4250 1301 3770 
Q 1056 3291 1056 2328 
Q 1056 1369 1301 889 
Q 1547 409 2034 409 
Q 2525 409 2770 889 
Q 3016 1369 3016 2328 
Q 3016 3291 2770 3770 
Q 2525 4250 2034 4250 
z
M 2034 4750 
Q 2819 4750 3233 4129 
Q 3647 3509 3647 2328 
Q 3647 1150 3233 529 
Q 2819 -91 2034 -91 
Q 1250 -91 836 529 
Q 422 1150 422 2328 
Q 422 3509 836 4129 
Q 1250 4750 2034 4750 
z
" transform="scale(0.015625)"/>
       </defs>
       <use xlink:href="#DejaVuSans-2212"/>
       <use xlink:href="#DejaVuSans-31" x="83.789062"/>
       <use xlink:href="#DejaVuSans-2e" x="147.412109"/>
       <use xlink:href="#DejaVuSans-30" x="179.199219"/>
       <use xlink:href="#DejaVuSans-30" x="242.822266"/>
      </g>
     </g>
    </g>
    <g id="xtick_2">
     <g id="line2d_2">
      <g>
       <use xlink:href="#mb0bb750491" x="114.414545" y="307.584" style="stroke: #000000; stroke-width: 0.8"/>
      </g>
     </g>
     <g id="text_2">
      <!-- −0.75 -->
      <g transform="translate(99.091889 322.182437)scale(0.1 -0.1)">
       <defs>
        <path id="DejaVuSans-37" d="M 525 4666 
L 3525 4666 
L 3525 4397 
L 1831 0 
L 1172 0 
L 2766 4134 
L 525 4134 
L 525 4666 
z
" transform="scale(0.015625)"/>
        <path id="DejaVuSans-35" d="M 691 4666 
L 3169 4666 
L 3169 4134 
L 1269 4134 
L 1269 2991 
Q 1406 3038 1543 3061 
Q 1681 3084 1819 3084 
Q 2600 3084 3056 2656 
Q 3513 2228 3513 1497 
Q 3513 744 3044 326 
Q 2575 -91 1722 -91 
Q 1428 -91 1123 -41 
Q 819 9 494 109 
L 494 744 
Q 775 591 1075 516 
Q 1375 441 1709 441 
Q 2250 441 2565 725 
Q 2881 1009 2881 1497 
Q 2881 1984 2565 2268 
Q 2250 2553 1709 2553 
Q 1456 2553 1204 2497 
Q 953 2441 691 2322 
L 691 4666 
z
" transform="scale(0.015625)"/>
       </defs>
       <use xlink:href="#DejaVuSans-2212"/>
       <use xlink:href="#DejaVuSans-30" x="83.789062"/>
       <use xlink:href="#DejaVuSans-2e" x="147.412109"/>
       <use xlink:href="#DejaVuSans-37" x="179.199219"/>
       <use xlink:href="#DejaVuSans-35" x="242.822266"/>
      </g>
     </g>
    </g>
    <g id="xtick_3">
     <g id="line2d_3">
      <g>
       <use xlink:href="#mb0bb750491" x="154.996364" y="307.584" style="stroke: #000000; stroke-width: 0.8"/>
      </g>
     </g>
     <g id="text_3">
      <!-- −0.50 -->
      <g transform="translate(139.673707 322.182437)scale(0.1 -0.1)">
       <use xlink:href="#DejaVuSans-2212"/>
       <use xlink:href="#DejaVuSans-30" x="83.789062"/>
       <use xlink:href="#DejaVuSans-2e" x="147.412109"/>
       <use xlink:href="#DejaVuSans-35" x="179.199219"/>
       <use xlink:href="#DejaVuSans-30" x="242.822266"/>
      </g>
     </g>
    </g>
    <g id="xtick_4">
     <g id="line2d_4">
      <g>
       <use xlink:href="#mb0bb750491" x="195.578182" y="307.584" style="stroke: #000000; stroke-width: 0.8"/>
      </g>
     </g>
     <g id="text_4">
      <!-- −0.25 -->
      <g transform="translate(180.255526 322.182437)scale(0.1 -0.1)">
       <defs>
        <path id="DejaVuSans-32" d="M 1228 531 
L 3431 531 
L 3431 0 
L 469 0 
L 469 531 
Q 828 903 1448 1529 
Q 2069 2156 2228 2338 
Q 2531 2678 2651 2914 
Q 2772 3150 2772 3378 
Q 2772 3750 2511 3984 
Q 2250 4219 1831 4219 
Q 1534 4219 1204 4116 
Q 875 4013 500 3803 
L 500 4441 
Q 881 4594 1212 4672 
Q 1544 4750 1819 4750 
Q 2544 4750 2975 4387 
Q 3406 4025 3406 3419 
Q 3406 3131 3298 2873 
Q 3191 2616 2906 2266 
Q 2828 2175 2409 1742 
Q 1991 1309 1228 531 
z
" transform="scale(0.015625)"/>
       </defs>
       <use xlink:href="#DejaVuSans-2212"/>
       <use xlink:href="#DejaVuSans-30" x="83.789062"/>
       <use xlink:href="#DejaVuSans-2e" x="147.412109"/>
       <use xlink:href="#DejaVuSans-32" x="179.199219"/>
       <use xlink:href="#DejaVuSans-35" x="242.822266"/>
      </g>
     </g>
    </g>
    <g id="xtick_5">
     <g id="line2d_5">
      <g>
       <use xlink:href="#mb0bb750491" x="236.16" y="307.584" style="stroke: #000000; stroke-width: 0.8"/>
      </g>
     </g>
     <g id="text_5">
      <!-- 0.00 -->
      <g transform="translate(225.027187 322.182437)scale(0.1 -0.1)">
       <use xlink:href="#DejaVuSans-30"/>
       <use xlink:href="#DejaVuSans-2e" x="63.623047"/>
       <use xlink:href="#DejaVuSans-30" x="95.410156"/>
       <use xlink:href="#DejaVuSans-30" x="159.033203"/>
      </g>
     </g>
    </g>
    <g id="xtick_6">
     <g id="line2d_6">
      <g>
       <use xlink:href="#mb0bb750491" x="276.741818" y="307.584" style="stroke: #000000; stroke-width: 0.8"/>
      </g>
     </g>
     <g id="text_6">
      <!-- 0.25 -->
      <g transform="translate(265.609006 322.182437)scale(0.1 -0.1)">
       <use xlink:href="#DejaVuSans-30"/>
       <use xlink:href="#DejaVuSans-2e" x="63.623047"/>
       <use xlink:href="#DejaVuSans-32" x="95.410156"/>
       <use xlink:href="#DejaVuSans-35" x="159.033203"/>
      </g>
     </g>
    </g>
    <g id="xtick_7">
     <g id="line2d_7">
      <g>
       <use xlink:href="#mb0bb750491" x="317.323636" y="307.584" style="stroke: #000000; stroke-width: 0.8"/>
      </g>
     </g>
     <g id="text_7">
      <!-- 0.50 -->
      <g transform="translate(306.190824 322.182437)scale(0.1 -0.1)">
       <use xlink:href="#DejaVuSans-30"/>
       <use xlink:href="#DejaVuSans-2e" x="63.623047"/>
       <use xlink:href="#DejaVuSans-35" x="95.410156"/>
       <use xlink:href="#DejaVuSans-30" x="159.033203"/>
      </g>
     </g>
    </g>
    <g id="xtick_8">
     <g id="line2d_8">
      <g>
       <use xlink:href="#mb0bb750491" x="357.905455" y="307.584" style="stroke: #000000; stroke-width: 0.8"/>
      </g>
     </g>
     <g id="text_8">
      <!-- 0.75 -->
      <g transform="translate(346.772642 322.182437)scale(0.1 -0.1)">
       <use xlink:href="#DejaVuSans-30"/>
       <use xlink:href="#DejaVuSans-2e" x="63.623047"/>
       <use xlink:href="#DejaVuSans-37" x="95.410156"/>
       <use xlink:href="#DejaVuSans-35" x="159.033203"/>
      </g>
     </g>
    </g>
    <g id="xtick_9">
     <g id="line2d_9">
      <g>
       <use xlink:href="#mb0bb750491" x="398.487273" y="307.584" style="stroke: #000000; stroke-width: 0.8"/>
      </g>
     </g>
     <g id="text_9">
      <!-- 1.00 -->
      <g transform="translate(387.35446 322.182437)scale(0.1 -0.1)">
       <use xlink:href="#DejaVuSans-31"/>
       <use xlink:href="#DejaVuSans-2e" x="63.623047"/>
       <use xlink:href="#DejaVuSans-30" x="95.410156"/>
       <use xlink:href="#DejaVuSans-30" x="159.033203"/>
      </g>
     </g>
    </g>
    <g id="text_10">
     <!-- x -->
     <g transform="translate(233.200625 335.860562)scale(0.1 -0.1)">
      <defs>
       <path id="DejaVuSans-78" d="M 3513 3500 
L 2247 1797 
L 3578 0 
L 2900 0 
L 1881 1375 
L 863 0 
L 184 0 
L 1544 1831 
L 300 3500 
L 978 3500 
L 1906 2253 
L 2834 3500 
L 3513 3500 
z
" transform="scale(0.015625)"/>
      </defs>
      <use xlink:href="#DejaVuSans-78"/>
     </g>
    </g>
   </g>
   <g id="matplotlib.axis_2">
    <g id="ytick_1">
     <g id="line2d_10">
      <defs>
       <path id="md7f1993029" d="M 0 0 
L -3.5 0 
" style="stroke: #000000; stroke-width: 0.8"/>
      </defs>
      <g>
       <use xlink:href="#md7f1993029" x="57.6" y="284.190728" style="stroke: #000000; stroke-width: 0.8"/>
      </g>
     </g>
     <g id="text_11">
      <!-- 1.0 -->
      <g transform="translate(34.696875 287.989947)scale(0.1 -0.1)">
       <use xlink:href="#DejaVuSans-31"/>
       <use xlink:href="#DejaVuSans-2e" x="63.623047"/>
       <use xlink:href="#DejaVuSans-30" x="95.410156"/>
      </g>
     </g>
    </g>
    <g id="ytick_2">
     <g id="line2d_11">
      <g>
       <use xlink:href="#md7f1993029" x="57.6" y="240.448256" style="stroke: #000000; stroke-width: 0.8"/>
      </g>
     </g>
     <g id="text_12">
      <!-- 1.2 -->
      <g transform="translate(34.696875 244.247474)scale(0.1 -0.1)">
       <use xlink:href="#DejaVuSans-31"/>
       <use xlink:href="#DejaVuSans-2e" x="63.623047"/>
       <use xlink:href="#DejaVuSans-32" x="95.410156"/>
      </g>
     </g>
    </g>
    <g id="ytick_3">
     <g id="line2d_12">
      <g>
       <use xlink:href="#md7f1993029" x="57.6" y="196.705783" style="stroke: #000000; stroke-width: 0.8"/>
      </g>
     </g>
     <g id="text_13">
      <!-- 1.4 -->
      <g transform="translate(34.696875 200.505002)scale(0.1 -0.1)">
       <defs>
        <path id="DejaVuSans-34" d="M 2419 4116 
L 825 1625 
L 2419 1625 
L 2419 4116 
z
M 2253 4666 
L 3047 4666 
L 3047 1625 
L 3713 1625 
L 3713 1100 
L 3047 1100 
L 3047 0 
L 2419 0 
L 2419 1100 
L 313 1100 
L 313 1709 
L 2253 4666 
z
" transform="scale(0.015625)"/>
       </defs>
       <use xlink:href="#DejaVuSans-31"/>
       <use xlink:href="#DejaVuSans-2e" x="63.623047"/>
       <use xlink:href="#DejaVuSans-34" x="95.410156"/>
      </g>
     </g>
    </g>
    <g id="ytick_4">
     <g id="line2d_13">
      <g>
       <use xlink:href="#md7f1993029" x="57.6" y="152.96331" style="stroke: #000000; stroke-width: 0.8"/>
      </g>
     </g>
     <g id="text_14">
      <!-- 1.6 -->
      <g transform="translate(34.696875 156.762529)scale(0.1 -0.1)">
       <defs>
        <path id="DejaVuSans-36" d="M 2113 2584 
Q 1688 2584 1439 2293 
Q 1191 2003 1191 1497 
Q 1191 994 1439 701 
Q 1688 409 2113 409 
Q 2538 409 2786 701 
Q 3034 994 3034 1497 
Q 3034 2003 2786 2293 
Q 2538 2584 2113 2584 
z
M 3366 4563 
L 3366 3988 
Q 3128 4100 2886 4159 
Q 2644 4219 2406 4219 
Q 1781 4219 1451 3797 
Q 1122 3375 1075 2522 
Q 1259 2794 1537 2939 
Q 1816 3084 2150 3084 
Q 2853 3084 3261 2657 
Q 3669 2231 3669 1497 
Q 3669 778 3244 343 
Q 2819 -91 2113 -91 
Q 1303 -91 875 529 
Q 447 1150 447 2328 
Q 447 3434 972 4092 
Q 1497 4750 2381 4750 
Q 2619 4750 2861 4703 
Q 3103 4656 3366 4563 
z
" transform="scale(0.015625)"/>
       </defs>
       <use xlink:href="#DejaVuSans-31"/>
       <use xlink:href="#DejaVuSans-2e" x="63.623047"/>
       <use xlink:href="#DejaVuSans-36" x="95.410156"/>
      </g>
     </g>
    </g>
    <g id="ytick_5">
     <g id="line2d_14">
      <g>
       <use xlink:href="#md7f1993029" x="57.6" y="109.220838" style="stroke: #000000; stroke-width: 0.8"/>
      </g>
     </g>
     <g id="text_15">
      <!-- 1.8 -->
      <g transform="translate(34.696875 113.020057)scale(0.1 -0.1)">
       <defs>
        <path id="DejaVuSans-38" d="M 2034 2216 
Q 1584 2216 1326 1975 
Q 1069 1734 1069 1313 
Q 1069 891 1326 650 
Q 1584 409 2034 409 
Q 2484 409 2743 651 
Q 3003 894 3003 1313 
Q 3003 1734 2745 1975 
Q 2488 2216 2034 2216 
z
M 1403 2484 
Q 997 2584 770 2862 
Q 544 3141 544 3541 
Q 544 4100 942 4425 
Q 1341 4750 2034 4750 
Q 2731 4750 3128 4425 
Q 3525 4100 3525 3541 
Q 3525 3141 3298 2862 
Q 3072 2584 2669 2484 
Q 3125 2378 3379 2068 
Q 3634 1759 3634 1313 
Q 3634 634 3220 271 
Q 2806 -91 2034 -91 
Q 1263 -91 848 271 
Q 434 634 434 1313 
Q 434 1759 690 2068 
Q 947 2378 1403 2484 
z
M 1172 3481 
Q 1172 3119 1398 2916 
Q 1625 2713 2034 2713 
Q 2441 2713 2670 2916 
Q 2900 3119 2900 3481 
Q 2900 3844 2670 4047 
Q 2441 4250 2034 4250 
Q 1625 4250 1398 4047 
Q 1172 3844 1172 3481 
z
" transform="scale(0.015625)"/>
       </defs>
       <use xlink:href="#DejaVuSans-31"/>
       <use xlink:href="#DejaVuSans-2e" x="63.623047"/>
       <use xlink:href="#DejaVuSans-38" x="95.410156"/>
      </g>
     </g>
    </g>
    <g id="ytick_6">
     <g id="line2d_15">
      <g>
       <use xlink:href="#md7f1993029" x="57.6" y="65.478365" style="stroke: #000000; stroke-width: 0.8"/>
      </g>
     </g>
     <g id="text_16">
      <!-- 2.0 -->
      <g transform="translate(34.696875 69.277584)scale(0.1 -0.1)">
       <use xlink:href="#DejaVuSans-32"/>
       <use xlink:href="#DejaVuSans-2e" x="63.623047"/>
       <use xlink:href="#DejaVuSans-30" x="95.410156"/>
      </g>
     </g>
    </g>
    <g id="text_17">
     <!-- $f_i$ -->
     <g transform="translate(28.617188 177.428)rotate(-90)scale(0.1 -0.1)">
      <defs>
       <path id="DejaVuSans-Oblique-66" d="M 3059 4863 
L 2969 4384 
L 2419 4384 
Q 2106 4384 1964 4261 
Q 1822 4138 1753 3809 
L 1691 3500 
L 2638 3500 
L 2553 3053 
L 1606 3053 
L 1013 0 
L 434 0 
L 1031 3053 
L 481 3053 
L 563 3500 
L 1113 3500 
L 1159 3744 
Q 1278 4363 1576 4613 
Q 1875 4863 2516 4863 
L 3059 4863 
z
" transform="scale(0.015625)"/>
       <path id="DejaVuSans-Oblique-69" d="M 1172 4863 
L 1747 4863 
L 1606 4134 
L 1031 4134 
L 1172 4863 
z
M 909 3500 
L 1484 3500 
L 800 0 
L 225 0 
L 909 3500 
z
" transform="scale(0.015625)"/>
      </defs>
      <use xlink:href="#DejaVuSans-Oblique-66" transform="translate(0 0.015625)"/>
      <use xlink:href="#DejaVuSans-Oblique-69" transform="translate(35.205078 -16.390625)scale(0.7)"/>
     </g>
    </g>
   </g>
   <g id="line2d_16">
    <path d="M 73.832727 284.190728 
L 235.99751 284.190728 
L 236.32249 65.478365 
L 398.487273 65.478365 
L 398.487273 65.478365 
" clip-path="url(#pd368a23d77)" style="fill: none; stroke: #0000ff; stroke-width: 1.5; stroke-linecap: square"/>
   </g>
   <g id="line2d_17">
    <path d="M 73.840844 284.191118 
L 74.18702 284.191094 
L 74.533197 284.191069 
L 74.879374 284.191045 
L 75.225551 284.191021 
L 75.571728 284.190996 
L 75.917904 284.190972 
L 76.264081 284.190948 
L 76.610258 284.190924 
L 76.956435 284.190899 
L 77.302611 284.190875 
L 77.648788 284.190851 
L 77.994965 284.190826 
L 78.341142 284.190802 
L 78.687319 284.190778 
L 79.033495 284.190753 
L 79.379672 284.190729 
L 79.725849 284.190705 
L 80.072026 284.19068 
L 80.418203 284.190656 
L 80.764379 284.190632 
L 81.110556 284.190607 
L 81.456733 284.190583 
L 81.80291 284.190559 
L 82.149086 284.190534 
" clip-path="url(#pd368a23d77)" style="fill: none; stroke: #008000; stroke-width: 1.5; stroke-linecap: square"/>
   </g>
   <g id="line2d_18">
    <path d="M 82.165319 284.189508 
L 82.511496 284.189346 
L 82.857673 284.189185 
L 83.20385 284.189023 
L 83.550026 284.188862 
L 83.896203 284.1887 
L 84.24238 284.188539 
L 84.588557 284.188377 
L 84.934733 284.188216 
L 85.28091 284.188054 
L 85.627087 284.187892 
L 85.973264 284.187731 
L 86.319441 284.187569 
L 86.665617 284.187408 
L 87.011794 284.187246 
L 87.357971 284.187085 
L 87.704148 284.186923 
L 88.050324 284.186762 
L 88.396501 284.1866 
L 88.742678 284.186439 
L 89.088855 284.186277 
L 89.435032 284.186116 
L 89.781208 284.185954 
L 90.127385 284.185792 
L 90.473562 284.185631 
" clip-path="url(#pd368a23d77)" style="fill: none; stroke: #008000; stroke-width: 1.5; stroke-linecap: square"/>
   </g>
   <g id="line2d_19">
    <path d="M 90.489795 284.180159 
L 90.835971 284.180401 
L 91.182148 284.180642 
L 91.528325 284.180884 
L 91.874502 284.181125 
L 92.220679 284.181367 
L 92.566855 284.181608 
L 92.913032 284.18185 
L 93.259209 284.182091 
L 93.605386 284.182333 
L 93.951563 284.182574 
L 94.297739 284.182816 
L 94.643916 284.183057 
L 94.990093 284.183299 
L 95.33627 284.18354 
L 95.682446 284.183782 
L 96.028623 284.184023 
L 96.3748 284.184265 
L 96.720977 284.184506 
L 97.067154 284.184748 
L 97.41333 284.184989 
L 97.759507 284.185231 
L 98.105684 284.185472 
L 98.451861 284.185714 
L 98.798037 284.185955 
" clip-path="url(#pd368a23d77)" style="fill: none; stroke: #008000; stroke-width: 1.5; stroke-linecap: square"/>
   </g>
   <g id="line2d_20">
    <path d="M 98.81427 284.182691 
L 99.160447 284.184066 
L 99.506624 284.18544 
L 99.852801 284.186815 
L 100.198977 284.188189 
L 100.545154 284.189563 
L 100.891331 284.190938 
L 101.237508 284.192312 
L 101.583684 284.193686 
L 101.929861 284.195061 
L 102.276038 284.196435 
L 102.622215 284.19781 
L 102.968392 284.199184 
L 103.314568 284.200558 
L 103.660745 284.201933 
L 104.006922 284.203307 
L 104.353099 284.204682 
L 104.699276 284.206056 
L 105.045452 284.20743 
L 105.391629 284.208805 
L 105.737806 284.210179 
L 106.083983 284.211553 
L 106.430159 284.212928 
L 106.776336 284.214302 
L 107.122513 284.215677 
" clip-path="url(#pd368a23d77)" style="fill: none; stroke: #008000; stroke-width: 1.5; stroke-linecap: square"/>
   </g>
   <g id="line2d_21">
    <path d="M 107.138746 284.227619 
L 107.484923 284.229414 
L 107.831099 284.231209 
L 108.177276 284.233004 
L 108.523453 284.234798 
L 108.86963 284.236593 
L 109.215806 284.238388 
L 109.561983 284.240183 
L 109.90816 284.241978 
L 110.254337 284.243772 
L 110.600514 284.245567 
L 110.94669 284.247362 
L 111.292867 284.249157 
L 111.639044 284.250951 
L 111.985221 284.252746 
L 112.331397 284.254541 
L 112.677574 284.256336 
L 113.023751 284.25813 
L 113.369928 284.259925 
L 113.716105 284.26172 
L 114.062281 284.263515 
L 114.408458 284.265309 
L 114.754635 284.267104 
L 115.100812 284.268899 
L 115.446989 284.270694 
" clip-path="url(#pd368a23d77)" style="fill: none; stroke: #008000; stroke-width: 1.5; stroke-linecap: square"/>
   </g>
   <g id="line2d_22">
    <path d="M 115.463221 284.300805 
L 115.809398 284.299529 
L 116.155575 284.298254 
L 116.501752 284.296979 
L 116.847928 284.295703 
L 117.194105 284.294428 
L 117.540282 284.293153 
L 117.886459 284.291877 
L 118.232636 284.290602 
L 118.578812 284.289327 
L 118.924989 284.288051 
L 119.271166 284.286776 
L 119.617343 284.285501 
L 119.963519 284.284225 
L 120.309696 284.28295 
L 120.655873 284.281675 
L 121.00205 284.280399 
L 121.348227 284.279124 
L 121.694403 284.277849 
L 122.04058 284.276573 
L 122.386757 284.275298 
L 122.732934 284.274023 
L 123.07911 284.272747 
L 123.425287 284.271472 
L 123.771464 284.270197 
" clip-path="url(#pd368a23d77)" style="fill: none; stroke: #008000; stroke-width: 1.5; stroke-linecap: square"/>
   </g>
   <g id="line2d_23">
    <path d="M 123.787697 284.29512 
L 124.133874 284.286178 
L 124.48005 284.277237 
L 124.826227 284.268295 
L 125.172404 284.259353 
L 125.518581 284.250412 
L 125.864757 284.24147 
L 126.210934 284.232529 
L 126.557111 284.223587 
L 126.903288 284.214646 
L 127.249465 284.205704 
L 127.595641 284.196762 
L 127.941818 284.187821 
L 128.287995 284.178879 
L 128.634172 284.169938 
L 128.980349 284.160996 
L 129.326525 284.152054 
L 129.672702 284.143113 
L 130.018879 284.134171 
L 130.365056 284.12523 
L 130.711232 284.116288 
L 131.057409 284.107346 
L 131.403586 284.098405 
L 131.749763 284.089463 
L 132.09594 284.080522 
" clip-path="url(#pd368a23d77)" style="fill: none; stroke: #008000; stroke-width: 1.5; stroke-linecap: square"/>
   </g>
   <g id="line2d_24">
    <path d="M 132.112172 284.055059 
L 132.458349 284.038426 
L 132.804526 284.021794 
L 133.150703 284.005161 
L 133.496879 283.988528 
L 133.843056 283.971895 
L 134.189233 283.955262 
L 134.53541 283.93863 
L 134.881587 283.921997 
L 135.227763 283.905364 
L 135.57394 283.888731 
L 135.920117 283.872098 
L 136.266294 283.855466 
L 136.61247 283.838833 
L 136.958647 283.8222 
L 137.304824 283.805567 
L 137.651001 283.788934 
L 137.997178 283.772302 
L 138.343354 283.755669 
L 138.689531 283.739036 
L 139.035708 283.722403 
L 139.381885 283.70577 
L 139.728062 283.689138 
L 140.074238 283.672505 
L 140.420415 283.655872 
" clip-path="url(#pd368a23d77)" style="fill: none; stroke: #008000; stroke-width: 1.5; stroke-linecap: square"/>
   </g>
   <g id="line2d_25">
    <path d="M 140.436648 283.546106 
L 140.782825 283.532921 
L 141.129001 283.519736 
L 141.475178 283.506551 
L 141.821355 283.493366 
L 142.167532 283.480181 
L 142.513709 283.466996 
L 142.859885 283.453811 
L 143.206062 283.440627 
L 143.552239 283.427442 
L 143.898416 283.414257 
L 144.244592 283.401072 
L 144.590769 283.387887 
L 144.936946 283.374702 
L 145.283123 283.361517 
L 145.6293 283.348332 
L 145.975476 283.335147 
L 146.321653 283.321962 
L 146.66783 283.308777 
L 147.014007 283.295592 
L 147.360183 283.282407 
L 147.70636 283.269222 
L 148.052537 283.256037 
L 148.398714 283.242852 
L 148.744891 283.229667 
" clip-path="url(#pd368a23d77)" style="fill: none; stroke: #008000; stroke-width: 1.5; stroke-linecap: square"/>
   </g>
   <g id="line2d_26">
    <path d="M 148.761123 283.057873 
L 149.1073 283.071496 
L 149.453477 283.085119 
L 149.799654 283.098742 
L 150.14583 283.112365 
L 150.492007 283.125988 
L 150.838184 283.139611 
L 151.184361 283.153234 
L 151.530538 283.166858 
L 151.876714 283.180481 
L 152.222891 283.194104 
L 152.569068 283.207727 
L 152.915245 283.22135 
L 153.261422 283.234973 
L 153.607598 283.248596 
L 153.953775 283.262219 
L 154.299952 283.275843 
L 154.646129 283.289466 
L 154.992305 283.303089 
L 155.338482 283.316712 
L 155.684659 283.330335 
L 156.030836 283.343958 
L 156.377013 283.357581 
L 156.723189 283.371204 
L 157.069366 283.384828 
" clip-path="url(#pd368a23d77)" style="fill: none; stroke: #008000; stroke-width: 1.5; stroke-linecap: square"/>
   </g>
   <g id="line2d_27">
    <path d="M 157.085599 283.251835 
L 157.431776 283.317772 
L 157.777952 283.383708 
L 158.124129 283.449645 
L 158.470306 283.515581 
L 158.816483 283.581518 
L 159.16266 283.647455 
L 159.508836 283.713391 
L 159.855013 283.779328 
L 160.20119 283.845264 
L 160.547367 283.911201 
L 160.893543 283.977138 
L 161.23972 284.043074 
L 161.585897 284.109011 
L 161.932074 284.174947 
L 162.278251 284.240884 
L 162.624427 284.30682 
L 162.970604 284.372757 
L 163.316781 284.438694 
L 163.662958 284.50463 
L 164.009135 284.570567 
L 164.355311 284.636503 
L 164.701488 284.70244 
L 165.047665 284.768377 
L 165.393842 284.834313 
" clip-path="url(#pd368a23d77)" style="fill: none; stroke: #008000; stroke-width: 1.5; stroke-linecap: square"/>
   </g>
   <g id="line2d_28">
    <path d="M 165.410074 284.891088 
L 165.756251 285.016204 
L 166.102428 285.141321 
L 166.448605 285.266438 
L 166.794782 285.391555 
L 167.140958 285.516672 
L 167.487135 285.641789 
L 167.833312 285.766906 
L 168.179489 285.892023 
L 168.525665 286.017139 
L 168.871842 286.142256 
L 169.218019 286.267373 
L 169.564196 286.39249 
L 169.910373 286.517607 
L 170.256549 286.642724 
L 170.602726 286.767841 
L 170.948903 286.892958 
L 171.29508 287.018075 
L 171.641257 287.143191 
L 171.987433 287.268308 
L 172.33361 287.393425 
L 172.679787 287.518542 
L 173.025964 287.643659 
L 173.37214 287.768776 
L 173.718317 287.893893 
" clip-path="url(#pd368a23d77)" style="fill: none; stroke: #008000; stroke-width: 1.5; stroke-linecap: square"/>
   </g>
   <g id="line2d_29">
    <path d="M 173.73455 288.263814 
L 174.080727 288.413531 
L 174.426903 288.563248 
L 174.77308 288.712965 
L 175.119257 288.862682 
L 175.465434 289.012399 
L 175.811611 289.162116 
L 176.157787 289.311833 
L 176.503964 289.46155 
L 176.850141 289.611267 
L 177.196318 289.760984 
L 177.542495 289.910701 
L 177.888671 290.060418 
L 178.234848 290.210135 
L 178.581025 290.359852 
L 178.927202 290.509569 
L 179.273378 290.659286 
L 179.619555 290.809003 
L 179.965732 290.95872 
L 180.311909 291.108437 
L 180.658086 291.258154 
L 181.004262 291.407871 
L 181.350439 291.557588 
L 181.696616 291.707305 
L 182.042793 291.857022 
" clip-path="url(#pd368a23d77)" style="fill: none; stroke: #008000; stroke-width: 1.5; stroke-linecap: square"/>
   </g>
   <g id="line2d_30">
    <path d="M 182.059025 292.545902 
L 182.405202 292.633156 
L 182.751379 292.72041 
L 183.097556 292.807663 
L 183.443733 292.894917 
L 183.789909 292.982171 
L 184.136086 293.069425 
L 184.482263 293.156678 
L 184.82844 293.243932 
L 185.174617 293.331186 
L 185.520793 293.418439 
L 185.86697 293.505693 
L 186.213147 293.592947 
L 186.559324 293.680201 
L 186.9055 293.767454 
L 187.251677 293.854708 
L 187.597854 293.941962 
L 187.944031 294.029215 
L 188.290208 294.116469 
L 188.636384 294.203723 
L 188.982561 294.290976 
L 189.328738 294.37823 
L 189.674915 294.465484 
L 190.021091 294.552738 
L 190.367268 294.639991 
" clip-path="url(#pd368a23d77)" style="fill: none; stroke: #008000; stroke-width: 1.5; stroke-linecap: square"/>
   </g>
   <g id="line2d_31">
    <path d="M 190.383501 295.488 
L 190.729678 295.385398 
L 191.075855 295.282797 
L 191.422031 295.180195 
L 191.768208 295.077593 
L 192.114385 294.974991 
L 192.460562 294.87239 
L 192.806738 294.769788 
L 193.152915 294.667186 
L 193.499092 294.564584 
L 193.845269 294.461983 
L 194.191446 294.359381 
L 194.537622 294.256779 
L 194.883799 294.154177 
L 195.229976 294.051576 
L 195.576153 293.948974 
L 195.92233 293.846372 
L 196.268506 293.74377 
L 196.614683 293.641169 
L 196.96086 293.538567 
L 197.307037 293.435965 
L 197.653213 293.333363 
L 197.99939 293.230762 
L 198.345567 293.12816 
L 198.691744 293.025558 
" clip-path="url(#pd368a23d77)" style="fill: none; stroke: #008000; stroke-width: 1.5; stroke-linecap: square"/>
   </g>
   <g id="line2d_32">
    <path d="M 198.707977 293.739855 
L 199.054153 293.316404 
L 199.40033 292.892953 
L 199.746507 292.469502 
L 200.092684 292.04605 
L 200.43886 291.622599 
L 200.785037 291.199148 
L 201.131214 290.775697 
L 201.477391 290.352246 
L 201.823568 289.928794 
L 202.169744 289.505343 
L 202.515921 289.081892 
L 202.862098 288.658441 
L 203.208275 288.234989 
L 203.554451 287.811538 
L 203.900628 287.388087 
L 204.246805 286.964636 
L 204.592982 286.541185 
L 204.939159 286.117733 
L 205.285335 285.694282 
L 205.631512 285.270831 
L 205.977689 284.84738 
L 206.323866 284.423928 
L 206.670043 284.000477 
L 207.016219 283.577026 
" clip-path="url(#pd368a23d77)" style="fill: none; stroke: #008000; stroke-width: 1.5; stroke-linecap: square"/>
   </g>
   <g id="line2d_33">
    <path d="M 207.032452 283.842111 
L 207.378629 283.012886 
L 207.724806 282.18366 
L 208.070982 281.354435 
L 208.417159 280.52521 
L 208.763336 279.695985 
L 209.109513 278.866759 
L 209.45569 278.037534 
L 209.801866 277.208309 
L 210.148043 276.379084 
L 210.49422 275.549858 
L 210.840397 274.720633 
L 211.186573 273.891408 
L 211.53275 273.062183 
L 211.878927 272.232957 
L 212.225104 271.403732 
L 212.571281 270.574507 
L 212.917457 269.745281 
L 213.263634 268.916056 
L 213.609811 268.086831 
L 213.955988 267.257606 
L 214.302164 266.42838 
L 214.648341 265.599155 
L 214.994518 264.76993 
L 215.340695 263.940705 
" clip-path="url(#pd368a23d77)" style="fill: none; stroke: #008000; stroke-width: 1.5; stroke-linecap: square"/>
   </g>
   <g id="line2d_34">
    <path d="M 215.356928 263.558773 
L 215.703104 262.327031 
L 216.049281 261.095288 
L 216.395458 259.863545 
L 216.741635 258.631802 
L 217.087811 257.40006 
L 217.433988 256.168317 
L 217.780165 254.936574 
L 218.126342 253.704832 
L 218.472519 252.473089 
L 218.818695 251.241346 
L 219.164872 250.009603 
L 219.511049 248.777861 
L 219.857226 247.546118 
L 220.203403 246.314375 
L 220.549579 245.082633 
L 220.895756 243.85089 
L 221.241933 242.619147 
L 221.58811 241.387404 
L 221.934286 240.155662 
L 222.280463 238.923919 
L 222.62664 237.692176 
L 222.972817 236.460434 
L 223.318994 235.228691 
L 223.66517 233.996948 
" clip-path="url(#pd368a23d77)" style="fill: none; stroke: #008000; stroke-width: 1.5; stroke-linecap: square"/>
   </g>
   <g id="line2d_35">
    <path d="M 223.681403 232.989381 
L 224.02758 231.461286 
L 224.373757 229.933191 
L 224.719933 228.405096 
L 225.06611 226.877001 
L 225.412287 225.348906 
L 225.758464 223.820811 
L 226.104641 222.292716 
L 226.450817 220.764621 
L 226.796994 219.236526 
L 227.143171 217.708431 
L 227.489348 216.180336 
L 227.835524 214.652241 
L 228.181701 213.124146 
L 228.527878 211.596051 
L 228.874055 210.067956 
L 229.220232 208.539861 
L 229.566408 207.011766 
L 229.912585 205.483671 
L 230.258762 203.955576 
L 230.604939 202.427481 
L 230.951116 200.899386 
L 231.297292 199.371291 
L 231.643469 197.843196 
L 231.989646 196.315101 
" clip-path="url(#pd368a23d77)" style="fill: none; stroke: #008000; stroke-width: 1.5; stroke-linecap: square"/>
   </g>
   <g id="line2d_36">
    <path d="M 232.005879 194.931953 
L 232.352055 193.29479 
L 232.698232 191.657626 
L 233.044409 190.020463 
L 233.390586 188.383299 
L 233.736763 186.746136 
L 234.082939 185.108973 
L 234.429116 183.471809 
L 234.775293 181.834646 
L 235.12147 180.197483 
L 235.467646 178.560319 
L 235.813823 176.923156 
L 236.16 175.285993 
L 236.506177 173.648829 
L 236.852354 172.011666 
L 237.19853 170.374502 
L 237.544707 168.737339 
L 237.890884 167.100176 
L 238.237061 165.463012 
L 238.583237 163.825849 
L 238.929414 162.188686 
L 239.275591 160.551522 
L 239.621768 158.914359 
L 239.967945 157.277196 
L 240.314121 155.640032 
" clip-path="url(#pd368a23d77)" style="fill: none; stroke: #008000; stroke-width: 1.5; stroke-linecap: square"/>
   </g>
   <g id="line2d_37">
    <path d="M 240.330354 154.269193 
L 240.676531 152.739665 
L 241.022708 151.210138 
L 241.368884 149.68061 
L 241.715061 148.151083 
L 242.061238 146.621555 
L 242.407415 145.092027 
L 242.753592 143.5625 
L 243.099768 142.032972 
L 243.445945 140.503445 
L 243.792122 138.973917 
L 244.138299 137.444389 
L 244.484476 135.914862 
L 244.830652 134.385334 
L 245.176829 132.855807 
L 245.523006 131.326279 
L 245.869183 129.796752 
L 246.215359 128.267224 
L 246.561536 126.737696 
L 246.907713 125.208169 
L 247.25389 123.678641 
L 247.600067 122.149114 
L 247.946243 120.619586 
L 248.29242 119.090058 
L 248.638597 117.560531 
" clip-path="url(#pd368a23d77)" style="fill: none; stroke: #008000; stroke-width: 1.5; stroke-linecap: square"/>
   </g>
   <g id="line2d_38">
    <path d="M 248.65483 116.577762 
L 249.001006 115.34005 
L 249.347183 114.102339 
L 249.69336 112.864628 
L 250.039537 111.626916 
L 250.385714 110.389205 
L 250.73189 109.151493 
L 251.078067 107.913782 
L 251.424244 106.67607 
L 251.770421 105.438359 
L 252.116597 104.200647 
L 252.462774 102.962936 
L 252.808951 101.725225 
L 253.155128 100.487513 
L 253.501305 99.249802 
L 253.847481 98.01209 
L 254.193658 96.774379 
L 254.539835 95.536667 
L 254.886012 94.298956 
L 255.232189 93.061245 
L 255.578365 91.823533 
L 255.924542 90.585822 
L 256.270719 89.34811 
L 256.616896 88.110399 
L 256.963072 86.872687 
" clip-path="url(#pd368a23d77)" style="fill: none; stroke: #008000; stroke-width: 1.5; stroke-linecap: square"/>
   </g>
   <g id="line2d_39">
    <path d="M 256.979305 86.501517 
L 257.325482 85.658777 
L 257.671659 84.816037 
L 258.017836 83.973297 
L 258.364012 83.130557 
L 258.710189 82.287817 
L 259.056366 81.445077 
L 259.402543 80.602337 
L 259.748719 79.759597 
L 260.094896 78.916857 
L 260.441073 78.074117 
L 260.78725 77.231377 
L 261.133427 76.388637 
L 261.479603 75.545897 
L 261.82578 74.703157 
L 262.171957 73.860417 
L 262.518134 73.017677 
L 262.86431 72.174937 
L 263.210487 71.332197 
L 263.556664 70.489457 
L 263.902841 69.646717 
L 264.249018 68.803977 
L 264.595194 67.961237 
L 264.941371 67.118497 
L 265.287548 66.275757 
" clip-path="url(#pd368a23d77)" style="fill: none; stroke: #008000; stroke-width: 1.5; stroke-linecap: square"/>
   </g>
   <g id="line2d_40">
    <path d="M 265.303781 66.518546 
L 265.649957 66.07489 
L 265.996134 65.631233 
L 266.342311 65.187577 
L 266.688488 64.74392 
L 267.034665 64.300264 
L 267.380841 63.856608 
L 267.727018 63.412951 
L 268.073195 62.969295 
L 268.419372 62.525639 
L 268.765549 62.081982 
L 269.111725 61.638326 
L 269.457902 61.19467 
L 269.804079 60.751013 
L 270.150256 60.307357 
L 270.496432 59.863701 
L 270.842609 59.420044 
L 271.188786 58.976388 
L 271.534963 58.532731 
L 271.88114 58.089075 
L 272.227316 57.645419 
L 272.573493 57.201762 
L 272.91967 56.758106 
L 273.265847 56.31445 
L 273.612023 55.870793 
" clip-path="url(#pd368a23d77)" style="fill: none; stroke: #008000; stroke-width: 1.5; stroke-linecap: square"/>
   </g>
   <g id="line2d_41">
    <path d="M 273.628256 56.535049 
L 273.974433 56.411421 
L 274.32061 56.287794 
L 274.666787 56.164167 
L 275.012963 56.04054 
L 275.35914 55.916913 
L 275.705317 55.793286 
L 276.051494 55.669659 
L 276.39767 55.546032 
L 276.743847 55.422405 
L 277.090024 55.298778 
L 277.436201 55.175151 
L 277.782378 55.051524 
L 278.128554 54.927897 
L 278.474731 54.80427 
L 278.820908 54.680643 
L 279.167085 54.557016 
L 279.513262 54.433389 
L 279.859438 54.309762 
L 280.205615 54.186135 
L 280.551792 54.062508 
L 280.897969 53.938881 
L 281.244145 53.815254 
L 281.590322 53.691627 
L 281.936499 53.568 
" clip-path="url(#pd368a23d77)" style="fill: none; stroke: #008000; stroke-width: 1.5; stroke-linecap: square"/>
   </g>
   <g id="line2d_42">
    <path d="M 281.952732 54.36623 
L 282.298909 54.439792 
L 282.645085 54.513355 
L 282.991262 54.586917 
L 283.337439 54.66048 
L 283.683616 54.734042 
L 284.029792 54.807604 
L 284.375969 54.881167 
L 284.722146 54.954729 
L 285.068323 55.028291 
L 285.4145 55.101854 
L 285.760676 55.175416 
L 286.106853 55.248979 
L 286.45303 55.322541 
L 286.799207 55.396103 
L 287.145383 55.469666 
L 287.49156 55.543228 
L 287.837737 55.61679 
L 288.183914 55.690353 
L 288.530091 55.763915 
L 288.876267 55.837477 
L 289.222444 55.91104 
L 289.568621 55.984602 
L 289.914798 56.058165 
L 290.260975 56.131727 
" clip-path="url(#pd368a23d77)" style="fill: none; stroke: #008000; stroke-width: 1.5; stroke-linecap: square"/>
   </g>
   <g id="line2d_43">
    <path d="M 290.277207 56.80248 
L 290.623384 56.951391 
L 290.969561 57.100303 
L 291.315738 57.249214 
L 291.661914 57.398125 
L 292.008091 57.547037 
L 292.354268 57.695948 
L 292.700445 57.84486 
L 293.046622 57.993771 
L 293.392798 58.142683 
L 293.738975 58.291594 
L 294.085152 58.440505 
L 294.431329 58.589417 
L 294.777505 58.738328 
L 295.123682 58.88724 
L 295.469859 59.036151 
L 295.816036 59.185062 
L 296.162213 59.333974 
L 296.508389 59.482885 
L 296.854566 59.631797 
L 297.200743 59.780708 
L 297.54692 59.929619 
L 297.893097 60.078531 
L 298.239273 60.227442 
L 298.58545 60.376354 
" clip-path="url(#pd368a23d77)" style="fill: none; stroke: #008000; stroke-width: 1.5; stroke-linecap: square"/>
   </g>
   <g id="line2d_44">
    <path d="M 298.601683 60.771946 
L 298.94786 60.908508 
L 299.294036 61.04507 
L 299.640213 61.181632 
L 299.98639 61.318195 
L 300.332567 61.454757 
L 300.678743 61.591319 
L 301.02492 61.727881 
L 301.371097 61.864443 
L 301.717274 62.001005 
L 302.063451 62.137567 
L 302.409627 62.274129 
L 302.755804 62.410691 
L 303.101981 62.547254 
L 303.448158 62.683816 
L 303.794335 62.820378 
L 304.140511 62.95694 
L 304.486688 63.093502 
L 304.832865 63.230064 
L 305.179042 63.366626 
L 305.525218 63.503188 
L 305.871395 63.63975 
L 306.217572 63.776313 
L 306.563749 63.912875 
L 306.909926 64.049437 
" clip-path="url(#pd368a23d77)" style="fill: none; stroke: #008000; stroke-width: 1.5; stroke-linecap: square"/>
   </g>
   <g id="line2d_45">
    <path d="M 306.926158 64.159697 
L 307.272335 64.242823 
L 307.618512 64.325949 
L 307.964689 64.409074 
L 308.310865 64.4922 
L 308.657042 64.575326 
L 309.003219 64.658451 
L 309.349396 64.741577 
L 309.695573 64.824703 
L 310.041749 64.907828 
L 310.387926 64.990954 
L 310.734103 65.07408 
L 311.08028 65.157205 
L 311.426457 65.240331 
L 311.772633 65.323457 
L 312.11881 65.406582 
L 312.464987 65.489708 
L 312.811164 65.572834 
L 313.15734 65.655959 
L 313.503517 65.739085 
L 313.849694 65.822211 
L 314.195871 65.905336 
L 314.542048 65.988462 
L 314.888224 66.071588 
L 315.234401 66.154713 
" clip-path="url(#pd368a23d77)" style="fill: none; stroke: #008000; stroke-width: 1.5; stroke-linecap: square"/>
   </g>
   <g id="line2d_46">
    <path d="M 315.250634 66.070341 
L 315.596811 66.098523 
L 315.942987 66.126704 
L 316.289164 66.154886 
L 316.635341 66.183067 
L 316.981518 66.211249 
L 317.327695 66.23943 
L 317.673871 66.267612 
L 318.020048 66.295793 
L 318.366225 66.323975 
L 318.712402 66.352156 
L 319.058578 66.380338 
L 319.404755 66.408519 
L 319.750932 66.4367 
L 320.097109 66.464882 
L 320.443286 66.493063 
L 320.789462 66.521245 
L 321.135639 66.549426 
L 321.481816 66.577608 
L 321.827993 66.605789 
L 322.17417 66.633971 
L 322.520346 66.662152 
L 322.866523 66.690334 
L 323.2127 66.718515 
L 323.558877 66.746697 
" clip-path="url(#pd368a23d77)" style="fill: none; stroke: #008000; stroke-width: 1.5; stroke-linecap: square"/>
   </g>
   <g id="line2d_47">
    <path d="M 323.575109 66.59218 
L 323.921286 66.585545 
L 324.267463 66.57891 
L 324.61364 66.572275 
L 324.959817 66.565639 
L 325.305993 66.559004 
L 325.65217 66.552369 
L 325.998347 66.545734 
L 326.344524 66.539099 
L 326.6907 66.532464 
L 327.036877 66.525829 
L 327.383054 66.519193 
L 327.729231 66.512558 
L 328.075408 66.505923 
L 328.421584 66.499288 
L 328.767761 66.492653 
L 329.113938 66.486018 
L 329.460115 66.479383 
L 329.806291 66.472747 
L 330.152468 66.466112 
L 330.498645 66.459477 
L 330.844822 66.452842 
L 331.190999 66.446207 
L 331.537175 66.439572 
L 331.883352 66.432937 
" clip-path="url(#pd368a23d77)" style="fill: none; stroke: #008000; stroke-width: 1.5; stroke-linecap: square"/>
   </g>
   <g id="line2d_48">
    <path d="M 331.899585 66.305909 
L 332.245762 66.287867 
L 332.591938 66.269826 
L 332.938115 66.251784 
L 333.284292 66.233743 
L 333.630469 66.215701 
L 333.976646 66.197659 
L 334.322822 66.179618 
L 334.668999 66.161576 
L 335.015176 66.143535 
L 335.361353 66.125493 
L 335.70753 66.107452 
L 336.053706 66.08941 
L 336.399883 66.071368 
L 336.74606 66.053327 
L 337.092237 66.035285 
L 337.438413 66.017244 
L 337.78459 65.999202 
L 338.130767 65.98116 
L 338.476944 65.963119 
L 338.823121 65.945077 
L 339.169297 65.927036 
L 339.515474 65.908994 
L 339.861651 65.890953 
L 340.207828 65.872911 
" clip-path="url(#pd368a23d77)" style="fill: none; stroke: #008000; stroke-width: 1.5; stroke-linecap: square"/>
   </g>
   <g id="line2d_49">
    <path d="M 340.22406 65.814768 
L 340.570237 65.80061 
L 340.916414 65.786452 
L 341.262591 65.772294 
L 341.608768 65.758135 
L 341.954944 65.743977 
L 342.301121 65.729819 
L 342.647298 65.715661 
L 342.993475 65.701503 
L 343.339651 65.687345 
L 343.685828 65.673187 
L 344.032005 65.659028 
L 344.378182 65.64487 
L 344.724359 65.630712 
L 345.070535 65.616554 
L 345.416712 65.602396 
L 345.762889 65.588238 
L 346.109066 65.57408 
L 346.455243 65.559921 
L 346.801419 65.545763 
L 347.147596 65.531605 
L 347.493773 65.517447 
L 347.83995 65.503289 
L 348.186126 65.489131 
L 348.532303 65.474972 
" clip-path="url(#pd368a23d77)" style="fill: none; stroke: #008000; stroke-width: 1.5; stroke-linecap: square"/>
   </g>
   <g id="line2d_50">
    <path d="M 348.548536 65.476423 
L 348.894713 65.470762 
L 349.24089 65.465101 
L 349.587066 65.45944 
L 349.933243 65.453779 
L 350.27942 65.448118 
L 350.625597 65.442457 
L 350.971773 65.436796 
L 351.31795 65.431135 
L 351.664127 65.425474 
L 352.010304 65.419813 
L 352.356481 65.414152 
L 352.702657 65.408491 
L 353.048834 65.40283 
L 353.395011 65.397169 
L 353.741188 65.391508 
L 354.087364 65.385847 
L 354.433541 65.380186 
L 354.779718 65.374525 
L 355.125895 65.368864 
L 355.472072 65.363203 
L 355.818248 65.357542 
L 356.164425 65.351881 
L 356.510602 65.34622 
L 356.856779 65.340559 
" clip-path="url(#pd368a23d77)" style="fill: none; stroke: #008000; stroke-width: 1.5; stroke-linecap: square"/>
   </g>
   <g id="line2d_51">
    <path d="M 356.873011 65.368169 
L 357.219188 65.368539 
L 357.565365 65.368909 
L 357.911542 65.369279 
L 358.257719 65.369649 
L 358.603895 65.37002 
L 358.950072 65.37039 
L 359.296249 65.37076 
L 359.642426 65.37113 
L 359.988603 65.3715 
L 360.334779 65.371871 
L 360.680956 65.372241 
L 361.027133 65.372611 
L 361.37331 65.372981 
L 361.719486 65.373351 
L 362.065663 65.373722 
L 362.41184 65.374092 
L 362.758017 65.374462 
L 363.104194 65.374832 
L 363.45037 65.375202 
L 363.796547 65.375573 
L 364.142724 65.375943 
L 364.488901 65.376313 
L 364.835077 65.376683 
L 365.181254 65.377053 
" clip-path="url(#pd368a23d77)" style="fill: none; stroke: #008000; stroke-width: 1.5; stroke-linecap: square"/>
   </g>
   <g id="line2d_52">
    <path d="M 365.197487 65.40081 
L 365.543664 65.402934 
L 365.889841 65.405058 
L 366.236017 65.407181 
L 366.582194 65.409305 
L 366.928371 65.411429 
L 367.274548 65.413553 
L 367.620724 65.415676 
L 367.966901 65.4178 
L 368.313078 65.419924 
L 368.659255 65.422048 
L 369.005432 65.424171 
L 369.351608 65.426295 
L 369.697785 65.428419 
L 370.043962 65.430543 
L 370.390139 65.432667 
L 370.736316 65.43479 
L 371.082492 65.436914 
L 371.428669 65.439038 
L 371.774846 65.441162 
L 372.121023 65.443285 
L 372.467199 65.445409 
L 372.813376 65.447533 
L 373.159553 65.449657 
L 373.50573 65.45178 
" clip-path="url(#pd368a23d77)" style="fill: none; stroke: #008000; stroke-width: 1.5; stroke-linecap: square"/>
   </g>
   <g id="line2d_53">
    <path d="M 373.521963 65.459476 
L 373.868139 65.460749 
L 374.214316 65.462022 
L 374.560493 65.463295 
L 374.90667 65.464568 
L 375.252846 65.465841 
L 375.599023 65.467114 
L 375.9452 65.468386 
L 376.291377 65.469659 
L 376.637554 65.470932 
L 376.98373 65.472205 
L 377.329907 65.473478 
L 377.676084 65.474751 
L 378.022261 65.476024 
L 378.368437 65.477297 
L 378.714614 65.47857 
L 379.060791 65.479843 
L 379.406968 65.481116 
L 379.753145 65.482389 
L 380.099321 65.483662 
L 380.445498 65.484935 
L 380.791675 65.486208 
L 381.137852 65.487481 
L 381.484029 65.488753 
L 381.830205 65.490026 
" clip-path="url(#pd368a23d77)" style="fill: none; stroke: #008000; stroke-width: 1.5; stroke-linecap: square"/>
   </g>
   <g id="line2d_54">
    <path d="M 381.846438 65.4858 
L 382.192615 65.485943 
L 382.538792 65.486086 
L 382.884968 65.486229 
L 383.231145 65.486372 
L 383.577322 65.486515 
L 383.923499 65.486658 
L 384.269676 65.486801 
L 384.615852 65.486944 
L 384.962029 65.487087 
L 385.308206 65.48723 
L 385.654383 65.487373 
L 386.000559 65.487516 
L 386.346736 65.487658 
L 386.692913 65.487801 
L 387.03909 65.487944 
L 387.385267 65.488087 
L 387.731443 65.48823 
L 388.07762 65.488373 
L 388.423797 65.488516 
L 388.769974 65.488659 
L 389.11615 65.488802 
L 389.462327 65.488945 
L 389.808504 65.489088 
L 390.154681 65.489231 
" clip-path="url(#pd368a23d77)" style="fill: none; stroke: #008000; stroke-width: 1.5; stroke-linecap: square"/>
   </g>
   <g id="line2d_55">
    <path d="M 390.170914 65.482471 
L 390.51709 65.4824 
L 390.863267 65.48233 
L 391.209444 65.482259 
L 391.555621 65.482189 
L 391.901797 65.482118 
L 392.247974 65.482048 
L 392.594151 65.481977 
L 392.940328 65.481907 
L 393.286505 65.481837 
L 393.632681 65.481766 
L 393.978858 65.481696 
L 394.325035 65.481625 
L 394.671212 65.481555 
L 395.017389 65.481484 
L 395.363565 65.481414 
L 395.709742 65.481343 
L 396.055919 65.481273 
L 396.402096 65.481202 
L 396.748272 65.481132 
L 397.094449 65.481061 
L 397.440626 65.480991 
L 397.786803 65.48092 
L 398.13298 65.48085 
L 398.479156 65.48078 
" clip-path="url(#pd368a23d77)" style="fill: none; stroke: #008000; stroke-width: 1.5; stroke-linecap: square"/>
   </g>
   <g id="patch_3">
    <path d="M 57.6 307.584 
L 57.6 41.472 
" style="fill: none; stroke: #000000; stroke-width: 0.8; stroke-linejoin: miter; stroke-linecap: square"/>
   </g>
   <g id="patch_4">
    <path d="M 414.72 307.584 
L 414.72 41.472 
" style="fill: none; stroke: #000000; stroke-width: 0.8; stroke-linejoin: miter; stroke-linecap: square"/>
   </g>
   <g id="patch_5">
    <path d="M 57.6 307.584 
L 414.72 307.584 
" style="fill: none; stroke: #000000; stroke-width: 0.8; stroke-linejoin: miter; stroke-linecap: square"/>
   </g>
   <g id="patch_6">
    <path d="M 57.6 41.472 
L 414.72 41.472 
" style="fill: none; stroke: #000000; stroke-width: 0.8; stroke-linejoin: miter; stroke-linecap: square"/>
   </g>
   <g id="legend_1">
    <g id="patch_7">
     <path d="M 64.6 93.906375 
L 210.795312 93.906375 
Q 212.795312 93.906375 212.795312 91.906375 
L 212.795312 48.472 
Q 212.795312 46.472 210.795312 46.472 
L 64.6 46.472 
Q 62.6 46.472 62.6 48.472 
L 62.6 91.906375 
Q 62.6 93.906375 64.6 93.906375 
z
" style="fill: #ffffff; opacity: 0.8; stroke: #cccccc; stroke-linejoin: miter"/>
    </g>
    <g id="line2d_56">
     <path d="M 66.6 54.570437 
L 76.6 54.570437 
L 86.6 54.570437 
" style="fill: none; stroke: #0000ff; stroke-width: 1.5; stroke-linecap: square"/>
    </g>
    <g id="text_18">
     <!-- Původní funkce -->
     <g transform="translate(94.6 58.070437)scale(0.1 -0.1)">
      <defs>
       <path id="DejaVuSans-50" d="M 1259 4147 
L 1259 2394 
L 2053 2394 
Q 2494 2394 2734 2622 
Q 2975 2850 2975 3272 
Q 2975 3691 2734 3919 
Q 2494 4147 2053 4147 
L 1259 4147 
z
M 628 4666 
L 2053 4666 
Q 2838 4666 3239 4311 
Q 3641 3956 3641 3272 
Q 3641 2581 3239 2228 
Q 2838 1875 2053 1875 
L 1259 1875 
L 1259 0 
L 628 0 
L 628 4666 
z
" transform="scale(0.015625)"/>
       <path id="DejaVuSans-16f" d="M 544 1381 
L 544 3500 
L 1119 3500 
L 1119 1403 
Q 1119 906 1312 657 
Q 1506 409 1894 409 
Q 2359 409 2629 706 
Q 2900 1003 2900 1516 
L 2900 3500 
L 3475 3500 
L 3475 0 
L 2900 0 
L 2900 538 
Q 2691 219 2414 64 
Q 2138 -91 1772 -91 
Q 1169 -91 856 284 
Q 544 659 544 1381 
z
M 1991 3584 
L 1991 3584 
z
M 2463 4575 
Q 2463 4771 2325 4908 
Q 2188 5046 1988 5046 
Q 1784 5046 1648 4910 
Q 1513 4775 1513 4575 
Q 1513 4371 1648 4235 
Q 1784 4100 1988 4100 
Q 2188 4100 2325 4237 
Q 2463 4375 2463 4575 
z
M 2844 4575 
Q 2844 4215 2595 3965 
Q 2347 3715 1988 3715 
Q 1628 3715 1379 3965 
Q 1131 4215 1131 4575 
Q 1131 4934 1379 5182 
Q 1628 5431 1988 5431 
Q 2347 5431 2595 5182 
Q 2844 4934 2844 4575 
z
" transform="scale(0.015625)"/>
       <path id="DejaVuSans-76" d="M 191 3500 
L 800 3500 
L 1894 563 
L 2988 3500 
L 3597 3500 
L 2284 0 
L 1503 0 
L 191 3500 
z
" transform="scale(0.015625)"/>
       <path id="DejaVuSans-6f" d="M 1959 3097 
Q 1497 3097 1228 2736 
Q 959 2375 959 1747 
Q 959 1119 1226 758 
Q 1494 397 1959 397 
Q 2419 397 2687 759 
Q 2956 1122 2956 1747 
Q 2956 2369 2687 2733 
Q 2419 3097 1959 3097 
z
M 1959 3584 
Q 2709 3584 3137 3096 
Q 3566 2609 3566 1747 
Q 3566 888 3137 398 
Q 2709 -91 1959 -91 
Q 1206 -91 779 398 
Q 353 888 353 1747 
Q 353 2609 779 3096 
Q 1206 3584 1959 3584 
z
" transform="scale(0.015625)"/>
       <path id="DejaVuSans-64" d="M 2906 2969 
L 2906 4863 
L 3481 4863 
L 3481 0 
L 2906 0 
L 2906 525 
Q 2725 213 2448 61 
Q 2172 -91 1784 -91 
Q 1150 -91 751 415 
Q 353 922 353 1747 
Q 353 2572 751 3078 
Q 1150 3584 1784 3584 
Q 2172 3584 2448 3432 
Q 2725 3281 2906 2969 
z
M 947 1747 
Q 947 1113 1208 752 
Q 1469 391 1925 391 
Q 2381 391 2643 752 
Q 2906 1113 2906 1747 
Q 2906 2381 2643 2742 
Q 2381 3103 1925 3103 
Q 1469 3103 1208 2742 
Q 947 2381 947 1747 
z
" transform="scale(0.015625)"/>
       <path id="DejaVuSans-6e" d="M 3513 2113 
L 3513 0 
L 2938 0 
L 2938 2094 
Q 2938 2591 2744 2837 
Q 2550 3084 2163 3084 
Q 1697 3084 1428 2787 
Q 1159 2491 1159 1978 
L 1159 0 
L 581 0 
L 581 3500 
L 1159 3500 
L 1159 2956 
Q 1366 3272 1645 3428 
Q 1925 3584 2291 3584 
Q 2894 3584 3203 3211 
Q 3513 2838 3513 2113 
z
" transform="scale(0.015625)"/>
       <path id="DejaVuSans-ed" d="M 1325 5119 
L 1947 5119 
L 928 3944 
L 450 3944 
L 1325 5119 
z
M 603 3500 
L 1178 3500 
L 1178 0 
L 603 0 
L 603 3500 
z
M 891 3584 
L 891 3584 
z
" transform="scale(0.015625)"/>
       <path id="DejaVuSans-20" transform="scale(0.015625)"/>
       <path id="DejaVuSans-66" d="M 2375 4863 
L 2375 4384 
L 1825 4384 
Q 1516 4384 1395 4259 
Q 1275 4134 1275 3809 
L 1275 3500 
L 2222 3500 
L 2222 3053 
L 1275 3053 
L 1275 0 
L 697 0 
L 697 3053 
L 147 3053 
L 147 3500 
L 697 3500 
L 697 3744 
Q 697 4328 969 4595 
Q 1241 4863 1831 4863 
L 2375 4863 
z
" transform="scale(0.015625)"/>
       <path id="DejaVuSans-75" d="M 544 1381 
L 544 3500 
L 1119 3500 
L 1119 1403 
Q 1119 906 1312 657 
Q 1506 409 1894 409 
Q 2359 409 2629 706 
Q 2900 1003 2900 1516 
L 2900 3500 
L 3475 3500 
L 3475 0 
L 2900 0 
L 2900 538 
Q 2691 219 2414 64 
Q 2138 -91 1772 -91 
Q 1169 -91 856 284 
Q 544 659 544 1381 
z
M 1991 3584 
L 1991 3584 
z
" transform="scale(0.015625)"/>
       <path id="DejaVuSans-6b" d="M 581 4863 
L 1159 4863 
L 1159 1991 
L 2875 3500 
L 3609 3500 
L 1753 1863 
L 3688 0 
L 2938 0 
L 1159 1709 
L 1159 0 
L 581 0 
L 581 4863 
z
" transform="scale(0.015625)"/>
       <path id="DejaVuSans-63" d="M 3122 3366 
L 3122 2828 
Q 2878 2963 2633 3030 
Q 2388 3097 2138 3097 
Q 1578 3097 1268 2742 
Q 959 2388 959 1747 
Q 959 1106 1268 751 
Q 1578 397 2138 397 
Q 2388 397 2633 464 
Q 2878 531 3122 666 
L 3122 134 
Q 2881 22 2623 -34 
Q 2366 -91 2075 -91 
Q 1284 -91 818 406 
Q 353 903 353 1747 
Q 353 2603 823 3093 
Q 1294 3584 2113 3584 
Q 2378 3584 2631 3529 
Q 2884 3475 3122 3366 
z
" transform="scale(0.015625)"/>
       <path id="DejaVuSans-65" d="M 3597 1894 
L 3597 1613 
L 953 1613 
Q 991 1019 1311 708 
Q 1631 397 2203 397 
Q 2534 397 2845 478 
Q 3156 559 3463 722 
L 3463 178 
Q 3153 47 2828 -22 
Q 2503 -91 2169 -91 
Q 1331 -91 842 396 
Q 353 884 353 1716 
Q 353 2575 817 3079 
Q 1281 3584 2069 3584 
Q 2775 3584 3186 3129 
Q 3597 2675 3597 1894 
z
M 3022 2063 
Q 3016 2534 2758 2815 
Q 2500 3097 2075 3097 
Q 1594 3097 1305 2825 
Q 1016 2553 972 2059 
L 3022 2063 
z
" transform="scale(0.015625)"/>
      </defs>
      <use xlink:href="#DejaVuSans-50"/>
      <use xlink:href="#DejaVuSans-16f" x="58.552734"/>
      <use xlink:href="#DejaVuSans-76" x="121.931641"/>
      <use xlink:href="#DejaVuSans-6f" x="181.111328"/>
      <use xlink:href="#DejaVuSans-64" x="242.292969"/>
      <use xlink:href="#DejaVuSans-6e" x="305.769531"/>
      <use xlink:href="#DejaVuSans-ed" x="369.148438"/>
      <use xlink:href="#DejaVuSans-20" x="396.931641"/>
      <use xlink:href="#DejaVuSans-66" x="428.71875"/>
      <use xlink:href="#DejaVuSans-75" x="463.923828"/>
      <use xlink:href="#DejaVuSans-6e" x="527.302734"/>
      <use xlink:href="#DejaVuSans-6b" x="590.681641"/>
      <use xlink:href="#DejaVuSans-63" x="648.591797"/>
      <use xlink:href="#DejaVuSans-65" x="703.572266"/>
     </g>
    </g>
    <g id="PathCollection_2">
     <g>
      <use xlink:href="#mab9c5c9726" x="76.6" y="70.523562" style="fill: #228b22; stroke: #228b22"/>
     </g>
    </g>
    <g id="text_19">
     <!-- Střední hodnoty buněk -->
     <g transform="translate(94.6 73.148562)scale(0.1 -0.1)">
      <defs>
       <path id="DejaVuSans-53" d="M 3425 4513 
L 3425 3897 
Q 3066 4069 2747 4153 
Q 2428 4238 2131 4238 
Q 1616 4238 1336 4038 
Q 1056 3838 1056 3469 
Q 1056 3159 1242 3001 
Q 1428 2844 1947 2747 
L 2328 2669 
Q 3034 2534 3370 2195 
Q 3706 1856 3706 1288 
Q 3706 609 3251 259 
Q 2797 -91 1919 -91 
Q 1588 -91 1214 -16 
Q 841 59 441 206 
L 441 856 
Q 825 641 1194 531 
Q 1563 422 1919 422 
Q 2459 422 2753 634 
Q 3047 847 3047 1241 
Q 3047 1584 2836 1778 
Q 2625 1972 2144 2069 
L 1759 2144 
Q 1053 2284 737 2584 
Q 422 2884 422 3419 
Q 422 4038 858 4394 
Q 1294 4750 2059 4750 
Q 2388 4750 2728 4690 
Q 3069 4631 3425 4513 
z
" transform="scale(0.015625)"/>
       <path id="DejaVuSans-74" d="M 1172 4494 
L 1172 3500 
L 2356 3500 
L 2356 3053 
L 1172 3053 
L 1172 1153 
Q 1172 725 1289 603 
Q 1406 481 1766 481 
L 2356 481 
L 2356 0 
L 1766 0 
Q 1100 0 847 248 
Q 594 497 594 1153 
L 594 3053 
L 172 3053 
L 172 3500 
L 594 3500 
L 594 4494 
L 1172 4494 
z
" transform="scale(0.015625)"/>
       <path id="DejaVuSans-159" d="M 2631 2963 
Q 2534 3019 2420 3045 
Q 2306 3072 2169 3072 
Q 1681 3072 1420 2755 
Q 1159 2438 1159 1844 
L 1159 0 
L 581 0 
L 581 3500 
L 1159 3500 
L 1159 2956 
Q 1341 3275 1631 3429 
Q 1922 3584 2338 3584 
Q 2397 3584 2469 3576 
Q 2541 3569 2628 3553 
L 2631 2963 
z
M 1453 3944 
L 688 5119 
L 1122 5119 
L 1684 4353 
L 2247 5119 
L 2681 5119 
L 1916 3944 
L 1453 3944 
z
" transform="scale(0.015625)"/>
       <path id="DejaVuSans-68" d="M 3513 2113 
L 3513 0 
L 2938 0 
L 2938 2094 
Q 2938 2591 2744 2837 
Q 2550 3084 2163 3084 
Q 1697 3084 1428 2787 
Q 1159 2491 1159 1978 
L 1159 0 
L 581 0 
L 581 4863 
L 1159 4863 
L 1159 2956 
Q 1366 3272 1645 3428 
Q 1925 3584 2291 3584 
Q 2894 3584 3203 3211 
Q 3513 2838 3513 2113 
z
" transform="scale(0.015625)"/>
       <path id="DejaVuSans-79" d="M 2059 -325 
Q 1816 -950 1584 -1140 
Q 1353 -1331 966 -1331 
L 506 -1331 
L 506 -850 
L 844 -850 
Q 1081 -850 1212 -737 
Q 1344 -625 1503 -206 
L 1606 56 
L 191 3500 
L 800 3500 
L 1894 763 
L 2988 3500 
L 3597 3500 
L 2059 -325 
z
" transform="scale(0.015625)"/>
       <path id="DejaVuSans-62" d="M 3116 1747 
Q 3116 2381 2855 2742 
Q 2594 3103 2138 3103 
Q 1681 3103 1420 2742 
Q 1159 2381 1159 1747 
Q 1159 1113 1420 752 
Q 1681 391 2138 391 
Q 2594 391 2855 752 
Q 3116 1113 3116 1747 
z
M 1159 2969 
Q 1341 3281 1617 3432 
Q 1894 3584 2278 3584 
Q 2916 3584 3314 3078 
Q 3713 2572 3713 1747 
Q 3713 922 3314 415 
Q 2916 -91 2278 -91 
Q 1894 -91 1617 61 
Q 1341 213 1159 525 
L 1159 0 
L 581 0 
L 581 4863 
L 1159 4863 
L 1159 2969 
z
" transform="scale(0.015625)"/>
       <path id="DejaVuSans-11b" d="M 3597 1894 
L 3597 1613 
L 953 1613 
Q 991 1019 1311 708 
Q 1631 397 2203 397 
Q 2534 397 2845 478 
Q 3156 559 3463 722 
L 3463 178 
Q 3153 47 2828 -22 
Q 2503 -91 2169 -91 
Q 1331 -91 842 396 
Q 353 884 353 1716 
Q 353 2575 817 3079 
Q 1281 3584 2069 3584 
Q 2775 3584 3186 3129 
Q 3597 2675 3597 1894 
z
M 3022 2063 
Q 3016 2534 2758 2815 
Q 2500 3097 2075 3097 
Q 1594 3097 1305 2825 
Q 1016 2553 972 2059 
L 3022 2063 
z
M 1831 3928 
L 1066 5103 
L 1500 5103 
L 2063 4337 
L 2625 5103 
L 3059 5103 
L 2294 3928 
L 1831 3928 
z
" transform="scale(0.015625)"/>
      </defs>
      <use xlink:href="#DejaVuSans-53"/>
      <use xlink:href="#DejaVuSans-74" x="63.476562"/>
      <use xlink:href="#DejaVuSans-159" x="102.685547"/>
      <use xlink:href="#DejaVuSans-65" x="141.548828"/>
      <use xlink:href="#DejaVuSans-64" x="203.072266"/>
      <use xlink:href="#DejaVuSans-6e" x="266.548828"/>
      <use xlink:href="#DejaVuSans-ed" x="329.927734"/>
      <use xlink:href="#DejaVuSans-20" x="357.710938"/>
      <use xlink:href="#DejaVuSans-68" x="389.498047"/>
      <use xlink:href="#DejaVuSans-6f" x="452.876953"/>
      <use xlink:href="#DejaVuSans-64" x="514.058594"/>
      <use xlink:href="#DejaVuSans-6e" x="577.535156"/>
      <use xlink:href="#DejaVuSans-6f" x="640.914062"/>
      <use xlink:href="#DejaVuSans-74" x="702.095703"/>
      <use xlink:href="#DejaVuSans-79" x="741.304688"/>
      <use xlink:href="#DejaVuSans-20" x="800.484375"/>
      <use xlink:href="#DejaVuSans-62" x="832.271484"/>
      <use xlink:href="#DejaVuSans-75" x="895.748047"/>
      <use xlink:href="#DejaVuSans-6e" x="959.126953"/>
      <use xlink:href="#DejaVuSans-11b" x="1022.505859"/>
      <use xlink:href="#DejaVuSans-6b" x="1084.029297"/>
     </g>
    </g>
    <g id="line2d_57">
     <path d="M 66.6 84.326687 
L 76.6 84.326687 
L 86.6 84.326687 
" style="fill: none; stroke: #008000; stroke-width: 1.5; stroke-linecap: square"/>
    </g>
    <g id="text_20">
     <!-- Rekonstrukce -->
     <g transform="translate(94.6 87.826687)scale(0.1 -0.1)">
      <defs>
       <path id="DejaVuSans-52" d="M 2841 2188 
Q 3044 2119 3236 1894 
Q 3428 1669 3622 1275 
L 4263 0 
L 3584 0 
L 2988 1197 
Q 2756 1666 2539 1819 
Q 2322 1972 1947 1972 
L 1259 1972 
L 1259 0 
L 628 0 
L 628 4666 
L 2053 4666 
Q 2853 4666 3247 4331 
Q 3641 3997 3641 3322 
Q 3641 2881 3436 2590 
Q 3231 2300 2841 2188 
z
M 1259 4147 
L 1259 2491 
L 2053 2491 
Q 2509 2491 2742 2702 
Q 2975 2913 2975 3322 
Q 2975 3731 2742 3939 
Q 2509 4147 2053 4147 
L 1259 4147 
z
" transform="scale(0.015625)"/>
       <path id="DejaVuSans-73" d="M 2834 3397 
L 2834 2853 
Q 2591 2978 2328 3040 
Q 2066 3103 1784 3103 
Q 1356 3103 1142 2972 
Q 928 2841 928 2578 
Q 928 2378 1081 2264 
Q 1234 2150 1697 2047 
L 1894 2003 
Q 2506 1872 2764 1633 
Q 3022 1394 3022 966 
Q 3022 478 2636 193 
Q 2250 -91 1575 -91 
Q 1294 -91 989 -36 
Q 684 19 347 128 
L 347 722 
Q 666 556 975 473 
Q 1284 391 1588 391 
Q 1994 391 2212 530 
Q 2431 669 2431 922 
Q 2431 1156 2273 1281 
Q 2116 1406 1581 1522 
L 1381 1569 
Q 847 1681 609 1914 
Q 372 2147 372 2553 
Q 372 3047 722 3315 
Q 1072 3584 1716 3584 
Q 2034 3584 2315 3537 
Q 2597 3491 2834 3397 
z
" transform="scale(0.015625)"/>
       <path id="DejaVuSans-72" d="M 2631 2963 
Q 2534 3019 2420 3045 
Q 2306 3072 2169 3072 
Q 1681 3072 1420 2755 
Q 1159 2438 1159 1844 
L 1159 0 
L 581 0 
L 581 3500 
L 1159 3500 
L 1159 2956 
Q 1341 3275 1631 3429 
Q 1922 3584 2338 3584 
Q 2397 3584 2469 3576 
Q 2541 3569 2628 3553 
L 2631 2963 
z
" transform="scale(0.015625)"/>
      </defs>
      <use xlink:href="#DejaVuSans-52"/>
      <use xlink:href="#DejaVuSans-65" x="64.982422"/>
      <use xlink:href="#DejaVuSans-6b" x="126.505859"/>
      <use xlink:href="#DejaVuSans-6f" x="180.791016"/>
      <use xlink:href="#DejaVuSans-6e" x="241.972656"/>
      <use xlink:href="#DejaVuSans-73" x="305.351562"/>
      <use xlink:href="#DejaVuSans-74" x="357.451172"/>
      <use xlink:href="#DejaVuSans-72" x="396.660156"/>
      <use xlink:href="#DejaVuSans-75" x="437.773438"/>
      <use xlink:href="#DejaVuSans-6b" x="501.152344"/>
      <use xlink:href="#DejaVuSans-63" x="559.0625"/>
      <use xlink:href="#DejaVuSans-65" x="614.042969"/>
     </g>
    </g>
   </g>
  </g>
 </g>
 <defs>
  <clipPath id="pd368a23d77">
   <rect x="57.6" y="41.472" width="357.12" height="266.112"/>
  </clipPath>
 </defs>
</svg>
