<?xml version="1.0" encoding="utf-8" standalone="no"?>
<!DOCTYPE svg PUBLIC "-//W3C//DTD SVG 1.1//EN"
  "http://www.w3.org/Graphics/SVG/1.1/DTD/svg11.dtd">
<svg xmlns:xlink="http://www.w3.org/1999/xlink" width="460.8pt" height="345.6pt" viewBox="0 0 460.8 345.6" xmlns="http://www.w3.org/2000/svg" version="1.1">
 <metadata>
  <rdf:RDF xmlns:dc="http://purl.org/dc/elements/1.1/" xmlns:cc="http://creativecommons.org/ns#" xmlns:rdf="http://www.w3.org/1999/02/22-rdf-syntax-ns#">
   <cc:Work>
    <dc:type rdf:resource="http://purl.org/dc/dcmitype/StillImage"/>
    <dc:date>2023-08-02T21:55:51.316836</dc:date>
    <dc:format>image/svg+xml</dc:format>
    <dc:creator>
     <cc:Agent>
      <dc:title>Matplotlib v3.5.2, https://matplotlib.org/</dc:title>
     </cc:Agent>
    </dc:creator>
   </cc:Work>
  </rdf:RDF>
 </metadata>
 <defs>
  <style type="text/css">*{stroke-linejoin: round; stroke-linecap: butt}</style>
 </defs>
 <g id="figure_1">
  <g id="patch_1">
   <path d="M 0 345.6 
L 460.8 345.6 
L 460.8 0 
L 0 0 
z
" style="fill: #ffffff"/>
  </g>
  <g id="axes_1">
   <g id="patch_2">
    <path d="M 57.6 307.584 
L 414.72 307.584 
L 414.72 41.472 
L 57.6 41.472 
z
" style="fill: #ffffff"/>
   </g>
   <g id="matplotlib.axis_1">
    <g id="xtick_1">
     <g id="line2d_1">
      <defs>
       <path id="m7519bb836b" d="M 0 0 
L 0 3.5 
" style="stroke: #000000; stroke-width: 0.8"/>
      </defs>
      <g>
       <use xlink:href="#m7519bb836b" x="73.832727" y="307.584" style="stroke: #000000; stroke-width: 0.8"/>
      </g>
     </g>
     <g id="text_1">
      <!-- −1.00 -->
      <g transform="translate(58.510071 322.182437)scale(0.1 -0.1)">
       <defs>
        <path id="DejaVuSans-2212" d="M 678 2272 
L 4684 2272 
L 4684 1741 
L 678 1741 
L 678 2272 
z
" transform="scale(0.015625)"/>
        <path id="DejaVuSans-31" d="M 794 531 
L 1825 531 
L 1825 4091 
L 703 3866 
L 703 4441 
L 1819 4666 
L 2450 4666 
L 2450 531 
L 3481 531 
L 3481 0 
L 794 0 
L 794 531 
z
" transform="scale(0.015625)"/>
        <path id="DejaVuSans-2e" d="M 684 794 
L 1344 794 
L 1344 0 
L 684 0 
L 684 794 
z
" transform="scale(0.015625)"/>
        <path id="DejaVuSans-30" d="M 2034 4250 
Q 1547 4250 1301 3770 
Q 1056 3291 1056 2328 
Q 1056 1369 1301 889 
Q 1547 409 2034 409 
Q 2525 409 2770 889 
Q 3016 1369 3016 2328 
Q 3016 3291 2770 3770 
Q 2525 4250 2034 4250 
z
M 2034 4750 
Q 2819 4750 3233 4129 
Q 3647 3509 3647 2328 
Q 3647 1150 3233 529 
Q 2819 -91 2034 -91 
Q 1250 -91 836 529 
Q 422 1150 422 2328 
Q 422 3509 836 4129 
Q 1250 4750 2034 4750 
z
" transform="scale(0.015625)"/>
       </defs>
       <use xlink:href="#DejaVuSans-2212"/>
       <use xlink:href="#DejaVuSans-31" x="83.789062"/>
       <use xlink:href="#DejaVuSans-2e" x="147.412109"/>
       <use xlink:href="#DejaVuSans-30" x="179.199219"/>
       <use xlink:href="#DejaVuSans-30" x="242.822266"/>
      </g>
     </g>
    </g>
    <g id="xtick_2">
     <g id="line2d_2">
      <g>
       <use xlink:href="#m7519bb836b" x="114.414545" y="307.584" style="stroke: #000000; stroke-width: 0.8"/>
      </g>
     </g>
     <g id="text_2">
      <!-- −0.75 -->
      <g transform="translate(99.091889 322.182437)scale(0.1 -0.1)">
       <defs>
        <path id="DejaVuSans-37" d="M 525 4666 
L 3525 4666 
L 3525 4397 
L 1831 0 
L 1172 0 
L 2766 4134 
L 525 4134 
L 525 4666 
z
" transform="scale(0.015625)"/>
        <path id="DejaVuSans-35" d="M 691 4666 
L 3169 4666 
L 3169 4134 
L 1269 4134 
L 1269 2991 
Q 1406 3038 1543 3061 
Q 1681 3084 1819 3084 
Q 2600 3084 3056 2656 
Q 3513 2228 3513 1497 
Q 3513 744 3044 326 
Q 2575 -91 1722 -91 
Q 1428 -91 1123 -41 
Q 819 9 494 109 
L 494 744 
Q 775 591 1075 516 
Q 1375 441 1709 441 
Q 2250 441 2565 725 
Q 2881 1009 2881 1497 
Q 2881 1984 2565 2268 
Q 2250 2553 1709 2553 
Q 1456 2553 1204 2497 
Q 953 2441 691 2322 
L 691 4666 
z
" transform="scale(0.015625)"/>
       </defs>
       <use xlink:href="#DejaVuSans-2212"/>
       <use xlink:href="#DejaVuSans-30" x="83.789062"/>
       <use xlink:href="#DejaVuSans-2e" x="147.412109"/>
       <use xlink:href="#DejaVuSans-37" x="179.199219"/>
       <use xlink:href="#DejaVuSans-35" x="242.822266"/>
      </g>
     </g>
    </g>
    <g id="xtick_3">
     <g id="line2d_3">
      <g>
       <use xlink:href="#m7519bb836b" x="154.996364" y="307.584" style="stroke: #000000; stroke-width: 0.8"/>
      </g>
     </g>
     <g id="text_3">
      <!-- −0.50 -->
      <g transform="translate(139.673707 322.182437)scale(0.1 -0.1)">
       <use xlink:href="#DejaVuSans-2212"/>
       <use xlink:href="#DejaVuSans-30" x="83.789062"/>
       <use xlink:href="#DejaVuSans-2e" x="147.412109"/>
       <use xlink:href="#DejaVuSans-35" x="179.199219"/>
       <use xlink:href="#DejaVuSans-30" x="242.822266"/>
      </g>
     </g>
    </g>
    <g id="xtick_4">
     <g id="line2d_4">
      <g>
       <use xlink:href="#m7519bb836b" x="195.578182" y="307.584" style="stroke: #000000; stroke-width: 0.8"/>
      </g>
     </g>
     <g id="text_4">
      <!-- −0.25 -->
      <g transform="translate(180.255526 322.182437)scale(0.1 -0.1)">
       <defs>
        <path id="DejaVuSans-32" d="M 1228 531 
L 3431 531 
L 3431 0 
L 469 0 
L 469 531 
Q 828 903 1448 1529 
Q 2069 2156 2228 2338 
Q 2531 2678 2651 2914 
Q 2772 3150 2772 3378 
Q 2772 3750 2511 3984 
Q 2250 4219 1831 4219 
Q 1534 4219 1204 4116 
Q 875 4013 500 3803 
L 500 4441 
Q 881 4594 1212 4672 
Q 1544 4750 1819 4750 
Q 2544 4750 2975 4387 
Q 3406 4025 3406 3419 
Q 3406 3131 3298 2873 
Q 3191 2616 2906 2266 
Q 2828 2175 2409 1742 
Q 1991 1309 1228 531 
z
" transform="scale(0.015625)"/>
       </defs>
       <use xlink:href="#DejaVuSans-2212"/>
       <use xlink:href="#DejaVuSans-30" x="83.789062"/>
       <use xlink:href="#DejaVuSans-2e" x="147.412109"/>
       <use xlink:href="#DejaVuSans-32" x="179.199219"/>
       <use xlink:href="#DejaVuSans-35" x="242.822266"/>
      </g>
     </g>
    </g>
    <g id="xtick_5">
     <g id="line2d_5">
      <g>
       <use xlink:href="#m7519bb836b" x="236.16" y="307.584" style="stroke: #000000; stroke-width: 0.8"/>
      </g>
     </g>
     <g id="text_5">
      <!-- 0.00 -->
      <g transform="translate(225.027187 322.182437)scale(0.1 -0.1)">
       <use xlink:href="#DejaVuSans-30"/>
       <use xlink:href="#DejaVuSans-2e" x="63.623047"/>
       <use xlink:href="#DejaVuSans-30" x="95.410156"/>
       <use xlink:href="#DejaVuSans-30" x="159.033203"/>
      </g>
     </g>
    </g>
    <g id="xtick_6">
     <g id="line2d_6">
      <g>
       <use xlink:href="#m7519bb836b" x="276.741818" y="307.584" style="stroke: #000000; stroke-width: 0.8"/>
      </g>
     </g>
     <g id="text_6">
      <!-- 0.25 -->
      <g transform="translate(265.609006 322.182437)scale(0.1 -0.1)">
       <use xlink:href="#DejaVuSans-30"/>
       <use xlink:href="#DejaVuSans-2e" x="63.623047"/>
       <use xlink:href="#DejaVuSans-32" x="95.410156"/>
       <use xlink:href="#DejaVuSans-35" x="159.033203"/>
      </g>
     </g>
    </g>
    <g id="xtick_7">
     <g id="line2d_7">
      <g>
       <use xlink:href="#m7519bb836b" x="317.323636" y="307.584" style="stroke: #000000; stroke-width: 0.8"/>
      </g>
     </g>
     <g id="text_7">
      <!-- 0.50 -->
      <g transform="translate(306.190824 322.182437)scale(0.1 -0.1)">
       <use xlink:href="#DejaVuSans-30"/>
       <use xlink:href="#DejaVuSans-2e" x="63.623047"/>
       <use xlink:href="#DejaVuSans-35" x="95.410156"/>
       <use xlink:href="#DejaVuSans-30" x="159.033203"/>
      </g>
     </g>
    </g>
    <g id="xtick_8">
     <g id="line2d_8">
      <g>
       <use xlink:href="#m7519bb836b" x="357.905455" y="307.584" style="stroke: #000000; stroke-width: 0.8"/>
      </g>
     </g>
     <g id="text_8">
      <!-- 0.75 -->
      <g transform="translate(346.772642 322.182437)scale(0.1 -0.1)">
       <use xlink:href="#DejaVuSans-30"/>
       <use xlink:href="#DejaVuSans-2e" x="63.623047"/>
       <use xlink:href="#DejaVuSans-37" x="95.410156"/>
       <use xlink:href="#DejaVuSans-35" x="159.033203"/>
      </g>
     </g>
    </g>
    <g id="xtick_9">
     <g id="line2d_9">
      <g>
       <use xlink:href="#m7519bb836b" x="398.487273" y="307.584" style="stroke: #000000; stroke-width: 0.8"/>
      </g>
     </g>
     <g id="text_9">
      <!-- 1.00 -->
      <g transform="translate(387.35446 322.182437)scale(0.1 -0.1)">
       <use xlink:href="#DejaVuSans-31"/>
       <use xlink:href="#DejaVuSans-2e" x="63.623047"/>
       <use xlink:href="#DejaVuSans-30" x="95.410156"/>
       <use xlink:href="#DejaVuSans-30" x="159.033203"/>
      </g>
     </g>
    </g>
    <g id="text_10">
     <!-- x -->
     <g transform="translate(233.200625 335.860562)scale(0.1 -0.1)">
      <defs>
       <path id="DejaVuSans-78" d="M 3513 3500 
L 2247 1797 
L 3578 0 
L 2900 0 
L 1881 1375 
L 863 0 
L 184 0 
L 1544 1831 
L 300 3500 
L 978 3500 
L 1906 2253 
L 2834 3500 
L 3513 3500 
z
" transform="scale(0.015625)"/>
      </defs>
      <use xlink:href="#DejaVuSans-78"/>
     </g>
    </g>
   </g>
   <g id="matplotlib.axis_2">
    <g id="ytick_1">
     <g id="line2d_10">
      <defs>
       <path id="m84b130eff7" d="M 0 0 
L -3.5 0 
" style="stroke: #000000; stroke-width: 0.8"/>
      </defs>
      <g>
       <use xlink:href="#m84b130eff7" x="57.6" y="295.48815" style="stroke: #000000; stroke-width: 0.8"/>
      </g>
     </g>
     <g id="text_11">
      <!-- 0.00 -->
      <g transform="translate(28.334375 299.287368)scale(0.1 -0.1)">
       <use xlink:href="#DejaVuSans-30"/>
       <use xlink:href="#DejaVuSans-2e" x="63.623047"/>
       <use xlink:href="#DejaVuSans-30" x="95.410156"/>
       <use xlink:href="#DejaVuSans-30" x="159.033203"/>
      </g>
     </g>
    </g>
    <g id="ytick_2">
     <g id="line2d_11">
      <g>
       <use xlink:href="#m84b130eff7" x="57.6" y="265.248112" style="stroke: #000000; stroke-width: 0.8"/>
      </g>
     </g>
     <g id="text_12">
      <!-- 0.25 -->
      <g transform="translate(28.334375 269.047331)scale(0.1 -0.1)">
       <use xlink:href="#DejaVuSans-30"/>
       <use xlink:href="#DejaVuSans-2e" x="63.623047"/>
       <use xlink:href="#DejaVuSans-32" x="95.410156"/>
       <use xlink:href="#DejaVuSans-35" x="159.033203"/>
      </g>
     </g>
    </g>
    <g id="ytick_3">
     <g id="line2d_12">
      <g>
       <use xlink:href="#m84b130eff7" x="57.6" y="235.008075" style="stroke: #000000; stroke-width: 0.8"/>
      </g>
     </g>
     <g id="text_13">
      <!-- 0.50 -->
      <g transform="translate(28.334375 238.807294)scale(0.1 -0.1)">
       <use xlink:href="#DejaVuSans-30"/>
       <use xlink:href="#DejaVuSans-2e" x="63.623047"/>
       <use xlink:href="#DejaVuSans-35" x="95.410156"/>
       <use xlink:href="#DejaVuSans-30" x="159.033203"/>
      </g>
     </g>
    </g>
    <g id="ytick_4">
     <g id="line2d_13">
      <g>
       <use xlink:href="#m84b130eff7" x="57.6" y="204.768037" style="stroke: #000000; stroke-width: 0.8"/>
      </g>
     </g>
     <g id="text_14">
      <!-- 0.75 -->
      <g transform="translate(28.334375 208.567256)scale(0.1 -0.1)">
       <use xlink:href="#DejaVuSans-30"/>
       <use xlink:href="#DejaVuSans-2e" x="63.623047"/>
       <use xlink:href="#DejaVuSans-37" x="95.410156"/>
       <use xlink:href="#DejaVuSans-35" x="159.033203"/>
      </g>
     </g>
    </g>
    <g id="ytick_5">
     <g id="line2d_14">
      <g>
       <use xlink:href="#m84b130eff7" x="57.6" y="174.528" style="stroke: #000000; stroke-width: 0.8"/>
      </g>
     </g>
     <g id="text_15">
      <!-- 1.00 -->
      <g transform="translate(28.334375 178.327219)scale(0.1 -0.1)">
       <use xlink:href="#DejaVuSans-31"/>
       <use xlink:href="#DejaVuSans-2e" x="63.623047"/>
       <use xlink:href="#DejaVuSans-30" x="95.410156"/>
       <use xlink:href="#DejaVuSans-30" x="159.033203"/>
      </g>
     </g>
    </g>
    <g id="ytick_6">
     <g id="line2d_15">
      <g>
       <use xlink:href="#m84b130eff7" x="57.6" y="144.287963" style="stroke: #000000; stroke-width: 0.8"/>
      </g>
     </g>
     <g id="text_16">
      <!-- 1.25 -->
      <g transform="translate(28.334375 148.087181)scale(0.1 -0.1)">
       <use xlink:href="#DejaVuSans-31"/>
       <use xlink:href="#DejaVuSans-2e" x="63.623047"/>
       <use xlink:href="#DejaVuSans-32" x="95.410156"/>
       <use xlink:href="#DejaVuSans-35" x="159.033203"/>
      </g>
     </g>
    </g>
    <g id="ytick_7">
     <g id="line2d_16">
      <g>
       <use xlink:href="#m84b130eff7" x="57.6" y="114.047925" style="stroke: #000000; stroke-width: 0.8"/>
      </g>
     </g>
     <g id="text_17">
      <!-- 1.50 -->
      <g transform="translate(28.334375 117.847144)scale(0.1 -0.1)">
       <use xlink:href="#DejaVuSans-31"/>
       <use xlink:href="#DejaVuSans-2e" x="63.623047"/>
       <use xlink:href="#DejaVuSans-35" x="95.410156"/>
       <use xlink:href="#DejaVuSans-30" x="159.033203"/>
      </g>
     </g>
    </g>
    <g id="ytick_8">
     <g id="line2d_17">
      <g>
       <use xlink:href="#m84b130eff7" x="57.6" y="83.807888" style="stroke: #000000; stroke-width: 0.8"/>
      </g>
     </g>
     <g id="text_18">
      <!-- 1.75 -->
      <g transform="translate(28.334375 87.607107)scale(0.1 -0.1)">
       <use xlink:href="#DejaVuSans-31"/>
       <use xlink:href="#DejaVuSans-2e" x="63.623047"/>
       <use xlink:href="#DejaVuSans-37" x="95.410156"/>
       <use xlink:href="#DejaVuSans-35" x="159.033203"/>
      </g>
     </g>
    </g>
    <g id="ytick_9">
     <g id="line2d_18">
      <g>
       <use xlink:href="#m84b130eff7" x="57.6" y="53.56785" style="stroke: #000000; stroke-width: 0.8"/>
      </g>
     </g>
     <g id="text_19">
      <!-- 2.00 -->
      <g transform="translate(28.334375 57.367069)scale(0.1 -0.1)">
       <use xlink:href="#DejaVuSans-32"/>
       <use xlink:href="#DejaVuSans-2e" x="63.623047"/>
       <use xlink:href="#DejaVuSans-30" x="95.410156"/>
       <use xlink:href="#DejaVuSans-30" x="159.033203"/>
      </g>
     </g>
    </g>
    <g id="text_20">
     <!-- f(x) -->
     <g transform="translate(22.254688 183.149094)rotate(-90)scale(0.1 -0.1)">
      <defs>
       <path id="DejaVuSans-66" d="M 2375 4863 
L 2375 4384 
L 1825 4384 
Q 1516 4384 1395 4259 
Q 1275 4134 1275 3809 
L 1275 3500 
L 2222 3500 
L 2222 3053 
L 1275 3053 
L 1275 0 
L 697 0 
L 697 3053 
L 147 3053 
L 147 3500 
L 697 3500 
L 697 3744 
Q 697 4328 969 4595 
Q 1241 4863 1831 4863 
L 2375 4863 
z
" transform="scale(0.015625)"/>
       <path id="DejaVuSans-28" d="M 1984 4856 
Q 1566 4138 1362 3434 
Q 1159 2731 1159 2009 
Q 1159 1288 1364 580 
Q 1569 -128 1984 -844 
L 1484 -844 
Q 1016 -109 783 600 
Q 550 1309 550 2009 
Q 550 2706 781 3412 
Q 1013 4119 1484 4856 
L 1984 4856 
z
" transform="scale(0.015625)"/>
       <path id="DejaVuSans-29" d="M 513 4856 
L 1013 4856 
Q 1481 4119 1714 3412 
Q 1947 2706 1947 2009 
Q 1947 1309 1714 600 
Q 1481 -109 1013 -844 
L 513 -844 
Q 928 -128 1133 580 
Q 1338 1288 1338 2009 
Q 1338 2731 1133 3434 
Q 928 4138 513 4856 
z
" transform="scale(0.015625)"/>
      </defs>
      <use xlink:href="#DejaVuSans-66"/>
      <use xlink:href="#DejaVuSans-28" x="35.205078"/>
      <use xlink:href="#DejaVuSans-78" x="74.21875"/>
      <use xlink:href="#DejaVuSans-29" x="133.398438"/>
     </g>
    </g>
   </g>
   <g id="line2d_19">
    <path d="M 73.832727 174.528 
L 81.307256 140.018485 
L 85.53199 121.605151 
L 88.781785 108.377449 
L 91.706601 97.360637 
L 94.306437 88.393211 
L 96.581294 81.258748 
L 98.856151 74.84696 
L 100.806028 69.964149 
L 102.755905 65.676681 
L 104.380803 62.576283 
L 106.0057 59.918591 
L 107.630598 57.714117 
L 108.930516 56.282772 
L 110.230434 55.150723 
L 111.530352 54.320836 
L 112.83027 53.795211 
L 113.805209 53.601493 
L 114.780147 53.579962 
L 115.755086 53.730649 
L 117.055004 54.199054 
L 118.354922 54.97203 
L 119.65484 56.047618 
L 120.954758 57.423098 
L 122.254676 59.094987 
L 123.879574 61.595157 
L 125.504472 64.541914 
L 127.129369 67.923605 
L 129.079247 72.5368 
L 131.029124 77.73069 
L 133.30398 84.484533 
L 135.578837 91.936057 
L 138.178673 101.232091 
L 141.103489 112.571615 
L 144.353284 126.09475 
L 148.253038 143.313076 
L 153.77769 168.824297 
L 162.552138 209.401923 
L 166.451892 226.422366 
L 169.701687 239.720225 
L 172.626503 250.813164 
L 175.226339 259.857773 
L 177.501196 267.066482 
L 179.776052 273.558178 
L 181.72593 278.513519 
L 183.675807 282.876811 
L 185.300704 286.0426 
L 186.925602 288.767411 
L 188.5505 291.040468 
L 189.850418 292.52755 
L 191.150336 293.715958 
L 192.450254 294.602683 
L 193.750172 295.185483 
L 195.05009 295.46288 
L 196.025029 295.470057 
L 196.999967 295.305025 
L 198.299885 294.817541 
L 199.599803 294.025587 
L 200.899722 292.931168 
L 202.19964 291.537053 
L 203.499558 289.84677 
L 205.124455 287.324021 
L 206.749353 284.355227 
L 208.374251 280.952126 
L 210.324128 276.314187 
L 212.274005 271.096721 
L 214.548862 264.317026 
L 216.823718 256.841623 
L 219.423554 247.520947 
L 222.34837 236.157378 
L 225.598165 222.612448 
L 229.49792 205.375267 
L 235.022572 179.85171 
L 243.797019 139.290015 
L 247.696773 122.290289 
L 250.946568 109.015684 
L 253.871384 97.948011 
L 256.47122 88.929041 
L 258.746077 81.74501 
L 261.020934 75.279886 
L 262.970811 70.348673 
L 264.920688 66.010613 
L 266.545586 62.866589 
L 268.170483 60.164125 
L 269.795381 57.913907 
L 271.095299 56.445389 
L 272.395217 55.275757 
L 273.695135 54.407968 
L 274.995053 53.844222 
L 276.294971 53.585943 
L 277.26991 53.59312 
L 278.244848 53.772496 
L 279.544767 54.279053 
L 280.844685 55.089977 
L 282.144603 56.203217 
L 283.444521 57.615954 
L 284.744439 59.324612 
L 286.369337 61.869915 
L 287.994234 64.860719 
L 289.619132 68.285195 
L 291.569009 72.947832 
L 293.518886 78.188822 
L 295.793743 84.994302 
L 298.0686 92.493512 
L 300.668436 101.838736 
L 303.593251 113.226239 
L 306.843047 126.792831 
L 310.742801 144.048696 
L 316.592432 171.104966 
L 325.0419 210.129699 
L 328.941654 227.10854 
L 332.19145 240.359759 
L 335.116265 251.402056 
L 337.716102 260.395299 
L 339.990958 267.554581 
L 342.265815 273.993069 
L 344.215692 278.900105 
L 346.165569 283.212891 
L 347.790467 286.335117 
L 349.415364 289.015208 
L 351.040262 291.242565 
L 352.34018 292.692503 
L 353.640098 293.84335 
L 354.940016 294.692192 
L 356.239934 295.236881 
L 357.539853 295.476038 
L 358.514791 295.454507 
L 359.48973 295.260789 
L 360.789648 294.735164 
L 362.089566 293.905277 
L 363.389484 292.773228 
L 364.689402 291.341883 
L 365.98932 289.614866 
L 367.614218 287.047034 
L 369.239115 284.034251 
L 370.864013 280.588433 
L 372.81389 275.901145 
L 374.763767 270.636682 
L 377.038624 263.805485 
L 379.313481 256.282543 
L 381.913317 246.912862 
L 384.838133 235.501538 
L 388.087928 221.913419 
L 391.987682 204.63904 
L 397.837314 177.570782 
L 398.487273 174.528 
L 398.487273 174.528 
" clip-path="url(#pf7f2754d05)" style="fill: none; stroke: #000000; stroke-width: 1.5; stroke-linecap: square"/>
   </g>
   <g id="line2d_20">
    <path d="M 75.887503 133.939593 
L 79.997054 121.752376 
L 84.106605 111.337285 
L 88.216157 102.772723 
L 92.325708 96.108135 
L 96.435259 91.363593 
L 100.54481 88.529732 
L 104.654361 87.568081 
L 108.763913 88.411813 
L 112.873464 90.966931 
L 116.983015 95.113909 
L 121.092566 100.709762 
L 125.202117 107.590535 
L 129.311669 115.574177 
L 133.42122 124.463764 
L 137.530771 134.051001 
L 141.640322 144.119965 
L 145.749873 154.451004 
L 149.859425 164.824725 
L 153.968976 175.026001 
L 158.078527 184.847901 
L 162.188078 194.095482 
L 166.297629 202.589355 
L 170.407181 210.168953 
L 174.516732 216.695434 
L 178.626283 222.054156 
L 182.735834 226.15667 
L 186.845386 228.942187 
L 190.954937 230.378491 
L 195.064488 230.46227 
L 199.174039 229.218862 
L 203.28359 226.701418 
L 207.393142 222.9895 
L 211.502693 218.187146 
L 215.612244 212.420439 
L 219.721795 205.834639 
L 223.831346 198.590934 
L 227.940898 190.862886 
L 232.050449 182.832649 
L 236.16 174.687044 
L 240.269551 166.613565 
L 244.379102 158.796425 
L 248.488654 151.4127 
L 252.598205 144.62868 
L 256.707756 138.596481 
L 260.817307 133.451005 
L 264.926858 129.307298 
L 269.03641 126.258365 
L 273.145961 124.373475 
L 277.255512 123.696995 
L 281.365063 124.247752 
L 285.474614 126.018948 
L 289.584166 128.978597 
L 293.693717 133.070481 
L 297.803268 138.215585 
L 301.912819 144.313967 
L 306.022371 151.247018 
L 310.131922 158.880055 
L 314.241473 167.065181 
L 318.351024 175.644344 
L 322.460575 184.452534 
L 326.570127 193.321043 
L 330.679678 202.080724 
L 334.789229 210.565188 
L 338.89878 218.613882 
L 343.008331 226.074984 
L 347.117883 232.808097 
L 351.227434 238.686684 
L 355.336985 243.600238 
L 359.446536 247.456174 
L 363.556087 250.181452 
L 367.665639 251.723965 
L 371.77519 252.053763 
L 375.884741 251.164247 
L 379.994292 249.073559 
L 384.103843 245.826684 
L 388.213395 241.49926 
L 392.322946 236.205528 
L 396.432497 230.115559 
" clip-path="url(#pf7f2754d05)" style="fill: none; stroke: #008000; stroke-width: 1.5; stroke-linecap: square"/>
   </g>
   <g id="line2d_21">
    <path d="M 75.887503 161.647566 
L 79.997054 146.536648 
L 84.106605 129.004405 
L 88.216157 111.432608 
L 92.325708 95.071346 
L 96.435259 80.965176 
L 100.54481 69.561316 
L 104.654361 61.031226 
L 108.763913 57.55767 
L 112.873464 57.444583 
L 116.983015 57.645418 
L 121.092566 58.918664 
L 125.202117 63.508509 
L 129.311669 72.075572 
L 133.42122 84.07023 
L 137.530771 98.6043 
L 141.640322 114.913866 
L 145.749873 132.463437 
L 149.859425 150.859845 
L 153.968976 169.758552 
L 158.078527 188.826279 
L 162.188078 207.7092 
L 166.297629 225.979195 
L 170.407181 243.128791 
L 174.516732 258.654496 
L 178.626283 272.026551 
L 182.735834 282.336612 
L 186.845386 288.058889 
L 190.954937 289.278526 
L 195.064488 289.381416 
L 199.174039 289.292567 
L 203.28359 288.291912 
L 207.393142 283.714943 
L 211.502693 274.899659 
L 215.612244 262.504005 
L 219.721795 247.376399 
L 223.831346 230.405887 
L 227.940898 212.304406 
L 232.050449 193.546321 
L 236.16 174.455953 
L 240.269551 155.322222 
L 244.379102 136.482535 
L 248.488654 118.36373 
L 252.598205 101.479225 
L 256.707756 86.434647 
L 260.817307 74.027248 
L 264.926858 65.289445 
L 269.03641 61.242319 
L 273.145961 60.420914 
L 277.255512 60.334887 
L 281.365063 60.418346 
L 285.474614 61.636782 
L 289.584166 67.114184 
L 293.693717 76.842161 
L 297.803268 89.952588 
L 301.912819 105.604335 
L 306.022371 122.950336 
L 310.131922 141.317229 
L 314.241473 160.242863 
L 318.351024 179.384611 
L 322.460575 198.429692 
L 326.570127 217.032302 
L 330.679678 234.756865 
L 334.789229 251.048893 
L 338.89878 265.272511 
L 343.008331 276.796153 
L 347.117883 285.036856 
L 351.227434 289.301609 
L 355.336985 290.101234 
L 359.446536 290.134424 
L 363.556087 289.85404 
L 367.665639 287.589465 
L 371.77519 280.222537 
L 375.884741 268.392568 
L 379.994292 253.652952 
L 384.103843 237.22341 
L 388.213395 220.081454 
L 392.322946 203.537701 
L 396.432497 189.143787 
" clip-path="url(#pf7f2754d05)" style="fill: none; stroke: #ff0000; stroke-width: 1.5; stroke-linecap: square"/>
   </g>
   <g id="line2d_22">
    <path d="M 75.887503 161.644849 
L 79.997054 146.500274 
L 84.106605 128.917168 
L 88.216157 111.435099 
L 92.325708 95.507057 
L 96.435259 81.829506 
L 100.54481 70.712598 
L 104.654361 62.321871 
L 108.763913 56.783195 
L 112.873464 54.199639 
L 116.983015 54.632171 
L 121.092566 58.077459 
L 125.202117 64.455777 
L 129.311669 73.609434 
L 133.42122 85.307669 
L 137.530771 99.254353 
L 141.640322 115.096696 
L 145.749873 132.434535 
L 149.859425 150.830338 
L 153.968976 169.820061 
L 158.078527 188.924719 
L 162.188078 207.662435 
L 166.297629 225.560594 
L 170.407181 242.167776 
L 174.516732 257.065155 
L 178.626283 269.877058 
L 182.735834 280.280443 
L 186.845386 288.013047 
L 190.954937 292.880003 
L 195.064488 294.758762 
L 199.174039 293.602189 
L 203.28359 289.439753 
L 207.393142 282.376788 
L 211.502693 272.591841 
L 215.612244 260.332161 
L 219.721795 245.90746 
L 223.831346 229.682097 
L 227.940898 212.065873 
L 232.050449 193.503683 
L 236.16 174.464276 
L 240.269551 155.428415 
L 244.379102 136.876732 
L 248.488654 119.277585 
L 252.598205 103.075226 
L 256.707756 88.678579 
L 260.817307 76.450915 
L 264.926858 66.70068 
L 269.03641 59.673712 
L 273.145961 55.547044 
L 277.255512 54.424446 
L 281.365063 56.333828 
L 285.474614 61.22655 
L 289.584166 68.978681 
L 293.693717 79.394155 
L 297.803268 92.209755 
L 301.912819 107.101798 
L 306.022371 123.694346 
L 310.131922 141.568725 
L 314.241473 160.274093 
L 318.351024 179.33877 
L 322.460575 198.282047 
L 326.570127 216.62623 
L 330.679678 233.908753 
L 334.789229 249.694193 
L 338.89878 263.586002 
L 343.008331 275.237459 
L 347.117883 284.360924 
L 351.227434 290.733965 
L 355.336985 294.200815 
L 359.446536 294.668478 
L 363.556087 292.099069 
L 367.665639 286.503824 
L 371.77519 277.9486 
L 375.884741 266.583818 
L 379.994292 252.710721 
L 384.103843 236.887324 
L 388.213395 220.05664 
L 392.322946 203.630455 
L 396.432497 189.212787 
" clip-path="url(#pf7f2754d05)" style="fill: none; stroke: #ffa500; stroke-width: 1.5; stroke-linecap: square"/>
   </g>
   <g id="line2d_23">
    <path d="M 75.887503 164.921036 
L 79.997054 145.97057 
L 84.106605 127.734899 
L 88.216157 110.678209 
L 92.325708 95.234199 
L 96.435259 81.793281 
L 100.54481 70.694259 
L 104.654361 62.216956 
L 108.763913 56.575338 
L 112.873464 53.911904 
L 116.983015 54.293941 
L 121.092566 57.711797 
L 125.202117 64.079156 
L 129.311669 73.235235 
L 133.42122 84.948845 
L 137.530771 98.924226 
L 141.640322 114.808508 
L 145.749873 132.200626 
L 149.859425 150.661442 
L 153.968976 169.724839 
L 158.078527 188.909482 
L 162.188078 207.730977 
L 166.297629 225.714101 
L 170.407181 242.404797 
L 174.516732 257.381642 
L 178.626283 270.266485 
L 182.735834 280.733996 
L 186.845386 288.519881 
L 190.954937 293.427555 
L 195.064488 295.333103 
L 199.174039 294.188413 
L 203.28359 290.022387 
L 207.393142 282.940214 
L 211.502693 273.120716 
L 215.612244 260.811826 
L 219.721795 246.324336 
L 223.831346 230.024047 
L 227.940898 212.322528 
L 232.050449 193.666734 
L 236.16 174.52771 
L 240.269551 155.388707 
L 244.379102 136.732972 
L 248.488654 119.031553 
L 252.598205 102.731398 
L 256.707756 88.244078 
L 260.817307 75.935386 
L 264.926858 66.116108 
L 269.03641 59.034172 
L 273.145961 54.868389 
L 277.255512 53.723938 
L 281.365063 55.629711 
L 285.474614 60.53758 
L 289.584166 68.323621 
L 293.693717 78.791233 
L 297.803268 91.67611 
L 301.912819 106.652912 
L 306.022371 123.343482 
L 310.131922 141.326393 
L 314.241473 160.147589 
L 318.351024 179.33185 
L 322.460575 198.394795 
L 326.570127 216.855107 
L 330.679678 234.246691 
L 334.789229 250.130441 
L 338.89878 264.105318 
L 343.008331 275.818477 
L 347.117883 284.974176 
L 351.227434 291.341255 
L 355.336985 294.758997 
L 359.446536 295.14119 
L 363.556087 292.478256 
L 367.665639 286.83735 
L 371.77519 278.360504 
L 375.884741 267.261077 
L 379.994292 253.818887 
L 384.103843 238.374131 
L 388.213395 221.319638 
L 392.322946 203.090006 
L 396.432497 184.14833 
" clip-path="url(#pf7f2754d05)" style="fill: none; stroke: #0000ff; stroke-width: 1.5; stroke-linecap: square"/>
   </g>
   <g id="patch_3">
    <path d="M 57.6 307.584 
L 57.6 41.472 
" style="fill: none; stroke: #000000; stroke-width: 0.8; stroke-linejoin: miter; stroke-linecap: square"/>
   </g>
   <g id="patch_4">
    <path d="M 414.72 307.584 
L 414.72 41.472 
" style="fill: none; stroke: #000000; stroke-width: 0.8; stroke-linejoin: miter; stroke-linecap: square"/>
   </g>
   <g id="patch_5">
    <path d="M 57.6 307.584 
L 414.72 307.584 
" style="fill: none; stroke: #000000; stroke-width: 0.8; stroke-linejoin: miter; stroke-linecap: square"/>
   </g>
   <g id="patch_6">
    <path d="M 57.6 41.472 
L 414.72 41.472 
" style="fill: none; stroke: #000000; stroke-width: 0.8; stroke-linejoin: miter; stroke-linecap: square"/>
   </g>
   <g id="legend_1">
    <g id="patch_7">
     <path d="M 174.824687 122.862625 
L 407.72 122.862625 
Q 409.72 122.862625 409.72 120.862625 
L 409.72 48.472 
Q 409.72 46.472 407.72 46.472 
L 174.824687 46.472 
Q 172.824687 46.472 172.824687 48.472 
L 172.824687 120.862625 
Q 172.824687 122.862625 174.824687 122.862625 
z
" style="fill: #ffffff; opacity: 0.8; stroke: #cccccc; stroke-linejoin: miter"/>
    </g>
    <g id="line2d_24">
     <path d="M 176.824687 54.570438 
L 186.824687 54.570438 
L 196.824687 54.570438 
" style="fill: none; stroke: #000000; stroke-width: 1.5; stroke-linecap: square"/>
    </g>
    <g id="text_21">
     <!-- Původní funkce -->
     <g transform="translate(204.824687 58.070438)scale(0.1 -0.1)">
      <defs>
       <path id="DejaVuSans-50" d="M 1259 4147 
L 1259 2394 
L 2053 2394 
Q 2494 2394 2734 2622 
Q 2975 2850 2975 3272 
Q 2975 3691 2734 3919 
Q 2494 4147 2053 4147 
L 1259 4147 
z
M 628 4666 
L 2053 4666 
Q 2838 4666 3239 4311 
Q 3641 3956 3641 3272 
Q 3641 2581 3239 2228 
Q 2838 1875 2053 1875 
L 1259 1875 
L 1259 0 
L 628 0 
L 628 4666 
z
" transform="scale(0.015625)"/>
       <path id="DejaVuSans-16f" d="M 544 1381 
L 544 3500 
L 1119 3500 
L 1119 1403 
Q 1119 906 1312 657 
Q 1506 409 1894 409 
Q 2359 409 2629 706 
Q 2900 1003 2900 1516 
L 2900 3500 
L 3475 3500 
L 3475 0 
L 2900 0 
L 2900 538 
Q 2691 219 2414 64 
Q 2138 -91 1772 -91 
Q 1169 -91 856 284 
Q 544 659 544 1381 
z
M 1991 3584 
L 1991 3584 
z
M 2463 4575 
Q 2463 4771 2325 4908 
Q 2188 5046 1988 5046 
Q 1784 5046 1648 4910 
Q 1513 4775 1513 4575 
Q 1513 4371 1648 4235 
Q 1784 4100 1988 4100 
Q 2188 4100 2325 4237 
Q 2463 4375 2463 4575 
z
M 2844 4575 
Q 2844 4215 2595 3965 
Q 2347 3715 1988 3715 
Q 1628 3715 1379 3965 
Q 1131 4215 1131 4575 
Q 1131 4934 1379 5182 
Q 1628 5431 1988 5431 
Q 2347 5431 2595 5182 
Q 2844 4934 2844 4575 
z
" transform="scale(0.015625)"/>
       <path id="DejaVuSans-76" d="M 191 3500 
L 800 3500 
L 1894 563 
L 2988 3500 
L 3597 3500 
L 2284 0 
L 1503 0 
L 191 3500 
z
" transform="scale(0.015625)"/>
       <path id="DejaVuSans-6f" d="M 1959 3097 
Q 1497 3097 1228 2736 
Q 959 2375 959 1747 
Q 959 1119 1226 758 
Q 1494 397 1959 397 
Q 2419 397 2687 759 
Q 2956 1122 2956 1747 
Q 2956 2369 2687 2733 
Q 2419 3097 1959 3097 
z
M 1959 3584 
Q 2709 3584 3137 3096 
Q 3566 2609 3566 1747 
Q 3566 888 3137 398 
Q 2709 -91 1959 -91 
Q 1206 -91 779 398 
Q 353 888 353 1747 
Q 353 2609 779 3096 
Q 1206 3584 1959 3584 
z
" transform="scale(0.015625)"/>
       <path id="DejaVuSans-64" d="M 2906 2969 
L 2906 4863 
L 3481 4863 
L 3481 0 
L 2906 0 
L 2906 525 
Q 2725 213 2448 61 
Q 2172 -91 1784 -91 
Q 1150 -91 751 415 
Q 353 922 353 1747 
Q 353 2572 751 3078 
Q 1150 3584 1784 3584 
Q 2172 3584 2448 3432 
Q 2725 3281 2906 2969 
z
M 947 1747 
Q 947 1113 1208 752 
Q 1469 391 1925 391 
Q 2381 391 2643 752 
Q 2906 1113 2906 1747 
Q 2906 2381 2643 2742 
Q 2381 3103 1925 3103 
Q 1469 3103 1208 2742 
Q 947 2381 947 1747 
z
" transform="scale(0.015625)"/>
       <path id="DejaVuSans-6e" d="M 3513 2113 
L 3513 0 
L 2938 0 
L 2938 2094 
Q 2938 2591 2744 2837 
Q 2550 3084 2163 3084 
Q 1697 3084 1428 2787 
Q 1159 2491 1159 1978 
L 1159 0 
L 581 0 
L 581 3500 
L 1159 3500 
L 1159 2956 
Q 1366 3272 1645 3428 
Q 1925 3584 2291 3584 
Q 2894 3584 3203 3211 
Q 3513 2838 3513 2113 
z
" transform="scale(0.015625)"/>
       <path id="DejaVuSans-ed" d="M 1325 5119 
L 1947 5119 
L 928 3944 
L 450 3944 
L 1325 5119 
z
M 603 3500 
L 1178 3500 
L 1178 0 
L 603 0 
L 603 3500 
z
M 891 3584 
L 891 3584 
z
" transform="scale(0.015625)"/>
       <path id="DejaVuSans-20" transform="scale(0.015625)"/>
       <path id="DejaVuSans-75" d="M 544 1381 
L 544 3500 
L 1119 3500 
L 1119 1403 
Q 1119 906 1312 657 
Q 1506 409 1894 409 
Q 2359 409 2629 706 
Q 2900 1003 2900 1516 
L 2900 3500 
L 3475 3500 
L 3475 0 
L 2900 0 
L 2900 538 
Q 2691 219 2414 64 
Q 2138 -91 1772 -91 
Q 1169 -91 856 284 
Q 544 659 544 1381 
z
M 1991 3584 
L 1991 3584 
z
" transform="scale(0.015625)"/>
       <path id="DejaVuSans-6b" d="M 581 4863 
L 1159 4863 
L 1159 1991 
L 2875 3500 
L 3609 3500 
L 1753 1863 
L 3688 0 
L 2938 0 
L 1159 1709 
L 1159 0 
L 581 0 
L 581 4863 
z
" transform="scale(0.015625)"/>
       <path id="DejaVuSans-63" d="M 3122 3366 
L 3122 2828 
Q 2878 2963 2633 3030 
Q 2388 3097 2138 3097 
Q 1578 3097 1268 2742 
Q 959 2388 959 1747 
Q 959 1106 1268 751 
Q 1578 397 2138 397 
Q 2388 397 2633 464 
Q 2878 531 3122 666 
L 3122 134 
Q 2881 22 2623 -34 
Q 2366 -91 2075 -91 
Q 1284 -91 818 406 
Q 353 903 353 1747 
Q 353 2603 823 3093 
Q 1294 3584 2113 3584 
Q 2378 3584 2631 3529 
Q 2884 3475 3122 3366 
z
" transform="scale(0.015625)"/>
       <path id="DejaVuSans-65" d="M 3597 1894 
L 3597 1613 
L 953 1613 
Q 991 1019 1311 708 
Q 1631 397 2203 397 
Q 2534 397 2845 478 
Q 3156 559 3463 722 
L 3463 178 
Q 3153 47 2828 -22 
Q 2503 -91 2169 -91 
Q 1331 -91 842 396 
Q 353 884 353 1716 
Q 353 2575 817 3079 
Q 1281 3584 2069 3584 
Q 2775 3584 3186 3129 
Q 3597 2675 3597 1894 
z
M 3022 2063 
Q 3016 2534 2758 2815 
Q 2500 3097 2075 3097 
Q 1594 3097 1305 2825 
Q 1016 2553 972 2059 
L 3022 2063 
z
" transform="scale(0.015625)"/>
      </defs>
      <use xlink:href="#DejaVuSans-50"/>
      <use xlink:href="#DejaVuSans-16f" x="58.552734"/>
      <use xlink:href="#DejaVuSans-76" x="121.931641"/>
      <use xlink:href="#DejaVuSans-6f" x="181.111328"/>
      <use xlink:href="#DejaVuSans-64" x="242.292969"/>
      <use xlink:href="#DejaVuSans-6e" x="305.769531"/>
      <use xlink:href="#DejaVuSans-ed" x="369.148438"/>
      <use xlink:href="#DejaVuSans-20" x="396.931641"/>
      <use xlink:href="#DejaVuSans-66" x="428.71875"/>
      <use xlink:href="#DejaVuSans-75" x="463.923828"/>
      <use xlink:href="#DejaVuSans-6e" x="527.302734"/>
      <use xlink:href="#DejaVuSans-6b" x="590.681641"/>
      <use xlink:href="#DejaVuSans-63" x="648.591797"/>
      <use xlink:href="#DejaVuSans-65" x="703.572266"/>
     </g>
    </g>
    <g id="line2d_25">
     <path d="M 176.824687 69.248563 
L 186.824687 69.248563 
L 196.824687 69.248563 
" style="fill: none; stroke: #008000; stroke-width: 1.5; stroke-linecap: square"/>
    </g>
    <g id="text_22">
     <!-- Rekonstrukce konstatní funkcí -->
     <g transform="translate(204.824687 72.748563)scale(0.1 -0.1)">
      <defs>
       <path id="DejaVuSans-52" d="M 2841 2188 
Q 3044 2119 3236 1894 
Q 3428 1669 3622 1275 
L 4263 0 
L 3584 0 
L 2988 1197 
Q 2756 1666 2539 1819 
Q 2322 1972 1947 1972 
L 1259 1972 
L 1259 0 
L 628 0 
L 628 4666 
L 2053 4666 
Q 2853 4666 3247 4331 
Q 3641 3997 3641 3322 
Q 3641 2881 3436 2590 
Q 3231 2300 2841 2188 
z
M 1259 4147 
L 1259 2491 
L 2053 2491 
Q 2509 2491 2742 2702 
Q 2975 2913 2975 3322 
Q 2975 3731 2742 3939 
Q 2509 4147 2053 4147 
L 1259 4147 
z
" transform="scale(0.015625)"/>
       <path id="DejaVuSans-73" d="M 2834 3397 
L 2834 2853 
Q 2591 2978 2328 3040 
Q 2066 3103 1784 3103 
Q 1356 3103 1142 2972 
Q 928 2841 928 2578 
Q 928 2378 1081 2264 
Q 1234 2150 1697 2047 
L 1894 2003 
Q 2506 1872 2764 1633 
Q 3022 1394 3022 966 
Q 3022 478 2636 193 
Q 2250 -91 1575 -91 
Q 1294 -91 989 -36 
Q 684 19 347 128 
L 347 722 
Q 666 556 975 473 
Q 1284 391 1588 391 
Q 1994 391 2212 530 
Q 2431 669 2431 922 
Q 2431 1156 2273 1281 
Q 2116 1406 1581 1522 
L 1381 1569 
Q 847 1681 609 1914 
Q 372 2147 372 2553 
Q 372 3047 722 3315 
Q 1072 3584 1716 3584 
Q 2034 3584 2315 3537 
Q 2597 3491 2834 3397 
z
" transform="scale(0.015625)"/>
       <path id="DejaVuSans-74" d="M 1172 4494 
L 1172 3500 
L 2356 3500 
L 2356 3053 
L 1172 3053 
L 1172 1153 
Q 1172 725 1289 603 
Q 1406 481 1766 481 
L 2356 481 
L 2356 0 
L 1766 0 
Q 1100 0 847 248 
Q 594 497 594 1153 
L 594 3053 
L 172 3053 
L 172 3500 
L 594 3500 
L 594 4494 
L 1172 4494 
z
" transform="scale(0.015625)"/>
       <path id="DejaVuSans-72" d="M 2631 2963 
Q 2534 3019 2420 3045 
Q 2306 3072 2169 3072 
Q 1681 3072 1420 2755 
Q 1159 2438 1159 1844 
L 1159 0 
L 581 0 
L 581 3500 
L 1159 3500 
L 1159 2956 
Q 1341 3275 1631 3429 
Q 1922 3584 2338 3584 
Q 2397 3584 2469 3576 
Q 2541 3569 2628 3553 
L 2631 2963 
z
" transform="scale(0.015625)"/>
       <path id="DejaVuSans-61" d="M 2194 1759 
Q 1497 1759 1228 1600 
Q 959 1441 959 1056 
Q 959 750 1161 570 
Q 1363 391 1709 391 
Q 2188 391 2477 730 
Q 2766 1069 2766 1631 
L 2766 1759 
L 2194 1759 
z
M 3341 1997 
L 3341 0 
L 2766 0 
L 2766 531 
Q 2569 213 2275 61 
Q 1981 -91 1556 -91 
Q 1019 -91 701 211 
Q 384 513 384 1019 
Q 384 1609 779 1909 
Q 1175 2209 1959 2209 
L 2766 2209 
L 2766 2266 
Q 2766 2663 2505 2880 
Q 2244 3097 1772 3097 
Q 1472 3097 1187 3025 
Q 903 2953 641 2809 
L 641 3341 
Q 956 3463 1253 3523 
Q 1550 3584 1831 3584 
Q 2591 3584 2966 3190 
Q 3341 2797 3341 1997 
z
" transform="scale(0.015625)"/>
      </defs>
      <use xlink:href="#DejaVuSans-52"/>
      <use xlink:href="#DejaVuSans-65" x="64.982422"/>
      <use xlink:href="#DejaVuSans-6b" x="126.505859"/>
      <use xlink:href="#DejaVuSans-6f" x="180.791016"/>
      <use xlink:href="#DejaVuSans-6e" x="241.972656"/>
      <use xlink:href="#DejaVuSans-73" x="305.351562"/>
      <use xlink:href="#DejaVuSans-74" x="357.451172"/>
      <use xlink:href="#DejaVuSans-72" x="396.660156"/>
      <use xlink:href="#DejaVuSans-75" x="437.773438"/>
      <use xlink:href="#DejaVuSans-6b" x="501.152344"/>
      <use xlink:href="#DejaVuSans-63" x="559.0625"/>
      <use xlink:href="#DejaVuSans-65" x="614.042969"/>
      <use xlink:href="#DejaVuSans-20" x="675.566406"/>
      <use xlink:href="#DejaVuSans-6b" x="707.353516"/>
      <use xlink:href="#DejaVuSans-6f" x="761.638672"/>
      <use xlink:href="#DejaVuSans-6e" x="822.820312"/>
      <use xlink:href="#DejaVuSans-73" x="886.199219"/>
      <use xlink:href="#DejaVuSans-74" x="938.298828"/>
      <use xlink:href="#DejaVuSans-61" x="977.507812"/>
      <use xlink:href="#DejaVuSans-74" x="1038.787109"/>
      <use xlink:href="#DejaVuSans-6e" x="1077.996094"/>
      <use xlink:href="#DejaVuSans-ed" x="1141.375"/>
      <use xlink:href="#DejaVuSans-20" x="1169.158203"/>
      <use xlink:href="#DejaVuSans-66" x="1200.945312"/>
      <use xlink:href="#DejaVuSans-75" x="1236.150391"/>
      <use xlink:href="#DejaVuSans-6e" x="1299.529297"/>
      <use xlink:href="#DejaVuSans-6b" x="1362.908203"/>
      <use xlink:href="#DejaVuSans-63" x="1420.818359"/>
      <use xlink:href="#DejaVuSans-ed" x="1475.798828"/>
     </g>
    </g>
    <g id="line2d_26">
     <path d="M 176.824687 83.926688 
L 186.824687 83.926688 
L 196.824687 83.926688 
" style="fill: none; stroke: #ff0000; stroke-width: 1.5; stroke-linecap: square"/>
    </g>
    <g id="text_23">
     <!-- Rekonstrukce lineární funkcí s limiterem -->
     <g transform="translate(204.824687 87.426688)scale(0.1 -0.1)">
      <defs>
       <path id="DejaVuSans-6c" d="M 603 4863 
L 1178 4863 
L 1178 0 
L 603 0 
L 603 4863 
z
" transform="scale(0.015625)"/>
       <path id="DejaVuSans-69" d="M 603 3500 
L 1178 3500 
L 1178 0 
L 603 0 
L 603 3500 
z
M 603 4863 
L 1178 4863 
L 1178 4134 
L 603 4134 
L 603 4863 
z
" transform="scale(0.015625)"/>
       <path id="DejaVuSans-e1" d="M 2194 1759 
Q 1497 1759 1228 1600 
Q 959 1441 959 1056 
Q 959 750 1161 570 
Q 1363 391 1709 391 
Q 2188 391 2477 730 
Q 2766 1069 2766 1631 
L 2766 1759 
L 2194 1759 
z
M 3341 1997 
L 3341 0 
L 2766 0 
L 2766 531 
Q 2569 213 2275 61 
Q 1981 -91 1556 -91 
Q 1019 -91 701 211 
Q 384 513 384 1019 
Q 384 1609 779 1909 
Q 1175 2209 1959 2209 
L 2766 2209 
L 2766 2266 
Q 2766 2663 2505 2880 
Q 2244 3097 1772 3097 
Q 1472 3097 1187 3025 
Q 903 2953 641 2809 
L 641 3341 
Q 956 3463 1253 3523 
Q 1550 3584 1831 3584 
Q 2591 3584 2966 3190 
Q 3341 2797 3341 1997 
z
M 2291 5119 
L 2913 5119 
L 1894 3944 
L 1416 3944 
L 2291 5119 
z
" transform="scale(0.015625)"/>
       <path id="DejaVuSans-6d" d="M 3328 2828 
Q 3544 3216 3844 3400 
Q 4144 3584 4550 3584 
Q 5097 3584 5394 3201 
Q 5691 2819 5691 2113 
L 5691 0 
L 5113 0 
L 5113 2094 
Q 5113 2597 4934 2840 
Q 4756 3084 4391 3084 
Q 3944 3084 3684 2787 
Q 3425 2491 3425 1978 
L 3425 0 
L 2847 0 
L 2847 2094 
Q 2847 2600 2669 2842 
Q 2491 3084 2119 3084 
Q 1678 3084 1418 2786 
Q 1159 2488 1159 1978 
L 1159 0 
L 581 0 
L 581 3500 
L 1159 3500 
L 1159 2956 
Q 1356 3278 1631 3431 
Q 1906 3584 2284 3584 
Q 2666 3584 2933 3390 
Q 3200 3197 3328 2828 
z
" transform="scale(0.015625)"/>
      </defs>
      <use xlink:href="#DejaVuSans-52"/>
      <use xlink:href="#DejaVuSans-65" x="64.982422"/>
      <use xlink:href="#DejaVuSans-6b" x="126.505859"/>
      <use xlink:href="#DejaVuSans-6f" x="180.791016"/>
      <use xlink:href="#DejaVuSans-6e" x="241.972656"/>
      <use xlink:href="#DejaVuSans-73" x="305.351562"/>
      <use xlink:href="#DejaVuSans-74" x="357.451172"/>
      <use xlink:href="#DejaVuSans-72" x="396.660156"/>
      <use xlink:href="#DejaVuSans-75" x="437.773438"/>
      <use xlink:href="#DejaVuSans-6b" x="501.152344"/>
      <use xlink:href="#DejaVuSans-63" x="559.0625"/>
      <use xlink:href="#DejaVuSans-65" x="614.042969"/>
      <use xlink:href="#DejaVuSans-20" x="675.566406"/>
      <use xlink:href="#DejaVuSans-6c" x="707.353516"/>
      <use xlink:href="#DejaVuSans-69" x="735.136719"/>
      <use xlink:href="#DejaVuSans-6e" x="762.919922"/>
      <use xlink:href="#DejaVuSans-65" x="826.298828"/>
      <use xlink:href="#DejaVuSans-e1" x="887.822266"/>
      <use xlink:href="#DejaVuSans-72" x="949.101562"/>
      <use xlink:href="#DejaVuSans-6e" x="988.464844"/>
      <use xlink:href="#DejaVuSans-ed" x="1051.84375"/>
      <use xlink:href="#DejaVuSans-20" x="1079.626953"/>
      <use xlink:href="#DejaVuSans-66" x="1111.414062"/>
      <use xlink:href="#DejaVuSans-75" x="1146.619141"/>
      <use xlink:href="#DejaVuSans-6e" x="1209.998047"/>
      <use xlink:href="#DejaVuSans-6b" x="1273.376953"/>
      <use xlink:href="#DejaVuSans-63" x="1331.287109"/>
      <use xlink:href="#DejaVuSans-ed" x="1386.267578"/>
      <use xlink:href="#DejaVuSans-20" x="1414.050781"/>
      <use xlink:href="#DejaVuSans-73" x="1445.837891"/>
      <use xlink:href="#DejaVuSans-20" x="1497.9375"/>
      <use xlink:href="#DejaVuSans-6c" x="1529.724609"/>
      <use xlink:href="#DejaVuSans-69" x="1557.507812"/>
      <use xlink:href="#DejaVuSans-6d" x="1585.291016"/>
      <use xlink:href="#DejaVuSans-69" x="1682.703125"/>
      <use xlink:href="#DejaVuSans-74" x="1710.486328"/>
      <use xlink:href="#DejaVuSans-65" x="1749.695312"/>
      <use xlink:href="#DejaVuSans-72" x="1811.21875"/>
      <use xlink:href="#DejaVuSans-65" x="1850.082031"/>
      <use xlink:href="#DejaVuSans-6d" x="1911.605469"/>
     </g>
    </g>
    <g id="line2d_27">
     <path d="M 176.824687 98.604813 
L 186.824687 98.604813 
L 196.824687 98.604813 
" style="fill: none; stroke: #ffa500; stroke-width: 1.5; stroke-linecap: square"/>
    </g>
    <g id="text_24">
     <!-- Rekonstrukce lineární funkcí -->
     <g transform="translate(204.824687 102.104813)scale(0.1 -0.1)">
      <use xlink:href="#DejaVuSans-52"/>
      <use xlink:href="#DejaVuSans-65" x="64.982422"/>
      <use xlink:href="#DejaVuSans-6b" x="126.505859"/>
      <use xlink:href="#DejaVuSans-6f" x="180.791016"/>
      <use xlink:href="#DejaVuSans-6e" x="241.972656"/>
      <use xlink:href="#DejaVuSans-73" x="305.351562"/>
      <use xlink:href="#DejaVuSans-74" x="357.451172"/>
      <use xlink:href="#DejaVuSans-72" x="396.660156"/>
      <use xlink:href="#DejaVuSans-75" x="437.773438"/>
      <use xlink:href="#DejaVuSans-6b" x="501.152344"/>
      <use xlink:href="#DejaVuSans-63" x="559.0625"/>
      <use xlink:href="#DejaVuSans-65" x="614.042969"/>
      <use xlink:href="#DejaVuSans-20" x="675.566406"/>
      <use xlink:href="#DejaVuSans-6c" x="707.353516"/>
      <use xlink:href="#DejaVuSans-69" x="735.136719"/>
      <use xlink:href="#DejaVuSans-6e" x="762.919922"/>
      <use xlink:href="#DejaVuSans-65" x="826.298828"/>
      <use xlink:href="#DejaVuSans-e1" x="887.822266"/>
      <use xlink:href="#DejaVuSans-72" x="949.101562"/>
      <use xlink:href="#DejaVuSans-6e" x="988.464844"/>
      <use xlink:href="#DejaVuSans-ed" x="1051.84375"/>
      <use xlink:href="#DejaVuSans-20" x="1079.626953"/>
      <use xlink:href="#DejaVuSans-66" x="1111.414062"/>
      <use xlink:href="#DejaVuSans-75" x="1146.619141"/>
      <use xlink:href="#DejaVuSans-6e" x="1209.998047"/>
      <use xlink:href="#DejaVuSans-6b" x="1273.376953"/>
      <use xlink:href="#DejaVuSans-63" x="1331.287109"/>
      <use xlink:href="#DejaVuSans-ed" x="1386.267578"/>
     </g>
    </g>
    <g id="line2d_28">
     <path d="M 176.824687 113.282938 
L 186.824687 113.282938 
L 196.824687 113.282938 
" style="fill: none; stroke: #0000ff; stroke-width: 1.5; stroke-linecap: square"/>
    </g>
    <g id="text_25">
     <!-- Rekonstrukce polynomem -->
     <g transform="translate(204.824687 116.782938)scale(0.1 -0.1)">
      <defs>
       <path id="DejaVuSans-70" d="M 1159 525 
L 1159 -1331 
L 581 -1331 
L 581 3500 
L 1159 3500 
L 1159 2969 
Q 1341 3281 1617 3432 
Q 1894 3584 2278 3584 
Q 2916 3584 3314 3078 
Q 3713 2572 3713 1747 
Q 3713 922 3314 415 
Q 2916 -91 2278 -91 
Q 1894 -91 1617 61 
Q 1341 213 1159 525 
z
M 3116 1747 
Q 3116 2381 2855 2742 
Q 2594 3103 2138 3103 
Q 1681 3103 1420 2742 
Q 1159 2381 1159 1747 
Q 1159 1113 1420 752 
Q 1681 391 2138 391 
Q 2594 391 2855 752 
Q 3116 1113 3116 1747 
z
" transform="scale(0.015625)"/>
       <path id="DejaVuSans-79" d="M 2059 -325 
Q 1816 -950 1584 -1140 
Q 1353 -1331 966 -1331 
L 506 -1331 
L 506 -850 
L 844 -850 
Q 1081 -850 1212 -737 
Q 1344 -625 1503 -206 
L 1606 56 
L 191 3500 
L 800 3500 
L 1894 763 
L 2988 3500 
L 3597 3500 
L 2059 -325 
z
" transform="scale(0.015625)"/>
      </defs>
      <use xlink:href="#DejaVuSans-52"/>
      <use xlink:href="#DejaVuSans-65" x="64.982422"/>
      <use xlink:href="#DejaVuSans-6b" x="126.505859"/>
      <use xlink:href="#DejaVuSans-6f" x="180.791016"/>
      <use xlink:href="#DejaVuSans-6e" x="241.972656"/>
      <use xlink:href="#DejaVuSans-73" x="305.351562"/>
      <use xlink:href="#DejaVuSans-74" x="357.451172"/>
      <use xlink:href="#DejaVuSans-72" x="396.660156"/>
      <use xlink:href="#DejaVuSans-75" x="437.773438"/>
      <use xlink:href="#DejaVuSans-6b" x="501.152344"/>
      <use xlink:href="#DejaVuSans-63" x="559.0625"/>
      <use xlink:href="#DejaVuSans-65" x="614.042969"/>
      <use xlink:href="#DejaVuSans-20" x="675.566406"/>
      <use xlink:href="#DejaVuSans-70" x="707.353516"/>
      <use xlink:href="#DejaVuSans-6f" x="770.830078"/>
      <use xlink:href="#DejaVuSans-6c" x="832.011719"/>
      <use xlink:href="#DejaVuSans-79" x="859.794922"/>
      <use xlink:href="#DejaVuSans-6e" x="918.974609"/>
      <use xlink:href="#DejaVuSans-6f" x="982.353516"/>
      <use xlink:href="#DejaVuSans-6d" x="1043.535156"/>
      <use xlink:href="#DejaVuSans-65" x="1140.947266"/>
      <use xlink:href="#DejaVuSans-6d" x="1202.470703"/>
     </g>
    </g>
   </g>
  </g>
 </g>
 <defs>
  <clipPath id="pf7f2754d05">
   <rect x="57.6" y="41.472" width="357.12" height="266.112"/>
  </clipPath>
 </defs>
</svg>
