<?xml version="1.0" encoding="utf-8" standalone="no"?>
<!DOCTYPE svg PUBLIC "-//W3C//DTD SVG 1.1//EN"
  "http://www.w3.org/Graphics/SVG/1.1/DTD/svg11.dtd">
<svg xmlns:xlink="http://www.w3.org/1999/xlink" width="460.8pt" height="345.6pt" viewBox="0 0 460.8 345.6" xmlns="http://www.w3.org/2000/svg" version="1.1">
 <metadata>
  <rdf:RDF xmlns:dc="http://purl.org/dc/elements/1.1/" xmlns:cc="http://creativecommons.org/ns#" xmlns:rdf="http://www.w3.org/1999/02/22-rdf-syntax-ns#">
   <cc:Work>
    <dc:type rdf:resource="http://purl.org/dc/dcmitype/StillImage"/>
    <dc:date>2023-08-02T16:55:19.687847</dc:date>
    <dc:format>image/svg+xml</dc:format>
    <dc:creator>
     <cc:Agent>
      <dc:title>Matplotlib v3.5.2, https://matplotlib.org/</dc:title>
     </cc:Agent>
    </dc:creator>
   </cc:Work>
  </rdf:RDF>
 </metadata>
 <defs>
  <style type="text/css">*{stroke-linejoin: round; stroke-linecap: butt}</style>
 </defs>
 <g id="figure_1">
  <g id="patch_1">
   <path d="M 0 345.6 
L 460.8 345.6 
L 460.8 0 
L 0 0 
z
" style="fill: #ffffff"/>
  </g>
  <g id="axes_1">
   <g id="patch_2">
    <path d="M 57.6 307.584 
L 414.72 307.584 
L 414.72 41.472 
L 57.6 41.472 
z
" style="fill: #ffffff"/>
   </g>
   <g id="PathCollection_1">
    <defs>
     <path id="m0c20816c7e" d="M 0 3 
C 0.795609 3 1.55874 2.683901 2.12132 2.12132 
C 2.683901 1.55874 3 0.795609 3 0 
C 3 -0.795609 2.683901 -1.55874 2.12132 -2.12132 
C 1.55874 -2.683901 0.795609 -3 0 -3 
C -0.795609 -3 -1.55874 -2.683901 -2.12132 -2.12132 
C -2.683901 -1.55874 -3 -0.795609 -3 0 
C -3 0.795609 -2.683901 1.55874 -2.12132 2.12132 
C -1.55874 2.683901 -0.795609 3 0 3 
z
" style="stroke: #228b22"/>
    </defs>
    <g clip-path="url(#p7cdc139345)">
     <use xlink:href="#m0c20816c7e" x="74.853654" y="169.749861" style="fill: #228b22; stroke: #228b22"/>
     <use xlink:href="#m0c20816c7e" x="76.895506" y="160.225614" style="fill: #228b22; stroke: #228b22"/>
     <use xlink:href="#m0c20816c7e" x="78.937358" y="150.789803" style="fill: #228b22; stroke: #228b22"/>
     <use xlink:href="#m0c20816c7e" x="80.979211" y="141.501961" style="fill: #228b22; stroke: #228b22"/>
     <use xlink:href="#m0c20816c7e" x="83.021063" y="132.420395" style="fill: #228b22; stroke: #228b22"/>
     <use xlink:href="#m0c20816c7e" x="85.062916" y="123.601812" style="fill: #228b22; stroke: #228b22"/>
     <use xlink:href="#m0c20816c7e" x="87.104768" y="115.101196" style="fill: #228b22; stroke: #228b22"/>
     <use xlink:href="#m0c20816c7e" x="89.146621" y="106.971577" style="fill: #228b22; stroke: #228b22"/>
     <use xlink:href="#m0c20816c7e" x="91.188473" y="99.263709" style="fill: #228b22; stroke: #228b22"/>
     <use xlink:href="#m0c20816c7e" x="93.230326" y="92.02572" style="fill: #228b22; stroke: #228b22"/>
     <use xlink:href="#m0c20816c7e" x="95.272178" y="85.302802" style="fill: #228b22; stroke: #228b22"/>
     <use xlink:href="#m0c20816c7e" x="97.314031" y="79.136926" style="fill: #228b22; stroke: #228b22"/>
     <use xlink:href="#m0c20816c7e" x="99.355883" y="73.566586" style="fill: #228b22; stroke: #228b22"/>
     <use xlink:href="#m0c20816c7e" x="101.397736" y="68.626556" style="fill: #228b22; stroke: #228b22"/>
     <use xlink:href="#m0c20816c7e" x="103.439588" y="64.347677" style="fill: #228b22; stroke: #228b22"/>
     <use xlink:href="#m0c20816c7e" x="105.481441" y="60.756664" style="fill: #228b22; stroke: #228b22"/>
     <use xlink:href="#m0c20816c7e" x="107.523293" y="57.875936" style="fill: #228b22; stroke: #228b22"/>
     <use xlink:href="#m0c20816c7e" x="109.565146" y="55.723476" style="fill: #228b22; stroke: #228b22"/>
     <use xlink:href="#m0c20816c7e" x="111.606998" y="54.312723" style="fill: #228b22; stroke: #228b22"/>
     <use xlink:href="#m0c20816c7e" x="113.648851" y="53.652484" style="fill: #228b22; stroke: #228b22"/>
     <use xlink:href="#m0c20816c7e" x="115.690703" y="53.746882" style="fill: #228b22; stroke: #228b22"/>
     <use xlink:href="#m0c20816c7e" x="117.732556" y="54.595326" style="fill: #228b22; stroke: #228b22"/>
     <use xlink:href="#m0c20816c7e" x="119.774408" y="56.19252" style="fill: #228b22; stroke: #228b22"/>
     <use xlink:href="#m0c20816c7e" x="121.816261" y="58.528493" style="fill: #228b22; stroke: #228b22"/>
     <use xlink:href="#m0c20816c7e" x="123.858113" y="61.58866" style="fill: #228b22; stroke: #228b22"/>
     <use xlink:href="#m0c20816c7e" x="125.899966" y="65.353917" style="fill: #228b22; stroke: #228b22"/>
     <use xlink:href="#m0c20816c7e" x="127.941818" y="69.800757" style="fill: #228b22; stroke: #228b22"/>
     <use xlink:href="#m0c20816c7e" x="129.983671" y="74.901418" style="fill: #228b22; stroke: #228b22"/>
     <use xlink:href="#m0c20816c7e" x="132.025523" y="80.624056" style="fill: #228b22; stroke: #228b22"/>
     <use xlink:href="#m0c20816c7e" x="134.067376" y="86.932945" style="fill: #228b22; stroke: #228b22"/>
     <use xlink:href="#m0c20816c7e" x="136.109228" y="93.788696" style="fill: #228b22; stroke: #228b22"/>
     <use xlink:href="#m0c20816c7e" x="138.151081" y="101.14851" style="fill: #228b22; stroke: #228b22"/>
     <use xlink:href="#m0c20816c7e" x="140.192933" y="108.966439" style="fill: #228b22; stroke: #228b22"/>
     <use xlink:href="#m0c20816c7e" x="142.234786" y="117.193673" style="fill: #228b22; stroke: #228b22"/>
     <use xlink:href="#m0c20816c7e" x="144.276638" y="125.778851" style="fill: #228b22; stroke: #228b22"/>
     <use xlink:href="#m0c20816c7e" x="146.318491" y="134.668374" style="fill: #228b22; stroke: #228b22"/>
     <use xlink:href="#m0c20816c7e" x="148.360343" y="143.806743" style="fill: #228b22; stroke: #228b22"/>
     <use xlink:href="#m0c20816c7e" x="150.402196" y="153.136909" style="fill: #228b22; stroke: #228b22"/>
     <use xlink:href="#m0c20816c7e" x="152.444048" y="162.600621" style="fill: #228b22; stroke: #228b22"/>
     <use xlink:href="#m0c20816c7e" x="154.485901" y="172.138796" style="fill: #228b22; stroke: #228b22"/>
     <use xlink:href="#m0c20816c7e" x="156.527753" y="181.691888" style="fill: #228b22; stroke: #228b22"/>
     <use xlink:href="#m0c20816c7e" x="158.569605" y="191.200255" style="fill: #228b22; stroke: #228b22"/>
     <use xlink:href="#m0c20816c7e" x="160.611458" y="200.604536" style="fill: #228b22; stroke: #228b22"/>
     <use xlink:href="#m0c20816c7e" x="162.65331" y="209.846018" style="fill: #228b22; stroke: #228b22"/>
     <use xlink:href="#m0c20816c7e" x="164.695163" y="218.867007" style="fill: #228b22; stroke: #228b22"/>
     <use xlink:href="#m0c20816c7e" x="166.737015" y="227.611184" style="fill: #228b22; stroke: #228b22"/>
     <use xlink:href="#m0c20816c7e" x="168.778868" y="236.023958" style="fill: #228b22; stroke: #228b22"/>
     <use xlink:href="#m0c20816c7e" x="170.82072" y="244.052807" style="fill: #228b22; stroke: #228b22"/>
     <use xlink:href="#m0c20816c7e" x="172.862573" y="251.647607" style="fill: #228b22; stroke: #228b22"/>
     <use xlink:href="#m0c20816c7e" x="174.904425" y="258.760943" style="fill: #228b22; stroke: #228b22"/>
     <use xlink:href="#m0c20816c7e" x="176.946278" y="265.348405" style="fill: #228b22; stroke: #228b22"/>
     <use xlink:href="#m0c20816c7e" x="178.98813" y="271.368868" style="fill: #228b22; stroke: #228b22"/>
     <use xlink:href="#m0c20816c7e" x="181.029983" y="276.784744" style="fill: #228b22; stroke: #228b22"/>
     <use xlink:href="#m0c20816c7e" x="183.071835" y="281.562223" style="fill: #228b22; stroke: #228b22"/>
     <use xlink:href="#m0c20816c7e" x="185.113688" y="285.671478" style="fill: #228b22; stroke: #228b22"/>
     <use xlink:href="#m0c20816c7e" x="187.15554" y="289.086854" style="fill: #228b22; stroke: #228b22"/>
     <use xlink:href="#m0c20816c7e" x="189.197393" y="291.787029" style="fill: #228b22; stroke: #228b22"/>
     <use xlink:href="#m0c20816c7e" x="191.239245" y="293.755147" style="fill: #228b22; stroke: #228b22"/>
     <use xlink:href="#m0c20816c7e" x="193.281098" y="294.978918" style="fill: #228b22; stroke: #228b22"/>
     <use xlink:href="#m0c20816c7e" x="195.32295" y="295.450705" style="fill: #228b22; stroke: #228b22"/>
     <use xlink:href="#m0c20816c7e" x="197.364803" y="295.16756" style="fill: #228b22; stroke: #228b22"/>
     <use xlink:href="#m0c20816c7e" x="199.406655" y="294.131252" style="fill: #228b22; stroke: #228b22"/>
     <use xlink:href="#m0c20816c7e" x="201.448508" y="292.34825" style="fill: #228b22; stroke: #228b22"/>
     <use xlink:href="#m0c20816c7e" x="203.49036" y="289.829686" style="fill: #228b22; stroke: #228b22"/>
     <use xlink:href="#m0c20816c7e" x="205.532213" y="286.591284" style="fill: #228b22; stroke: #228b22"/>
     <use xlink:href="#m0c20816c7e" x="207.574065" y="282.65326" style="fill: #228b22; stroke: #228b22"/>
     <use xlink:href="#m0c20816c7e" x="209.615918" y="278.040202" style="fill: #228b22; stroke: #228b22"/>
     <use xlink:href="#m0c20816c7e" x="211.65777" y="272.780907" style="fill: #228b22; stroke: #228b22"/>
     <use xlink:href="#m0c20816c7e" x="213.699623" y="266.908211" style="fill: #228b22; stroke: #228b22"/>
     <use xlink:href="#m0c20816c7e" x="215.741475" y="260.458777" style="fill: #228b22; stroke: #228b22"/>
     <use xlink:href="#m0c20816c7e" x="217.783328" y="253.47287" style="fill: #228b22; stroke: #228b22"/>
     <use xlink:href="#m0c20816c7e" x="219.82518" y="245.994103" style="fill: #228b22; stroke: #228b22"/>
     <use xlink:href="#m0c20816c7e" x="221.867033" y="238.069167" style="fill: #228b22; stroke: #228b22"/>
     <use xlink:href="#m0c20816c7e" x="223.908885" y="229.747537" style="fill: #228b22; stroke: #228b22"/>
     <use xlink:href="#m0c20816c7e" x="225.950738" y="221.081168" style="fill: #228b22; stroke: #228b22"/>
     <use xlink:href="#m0c20816c7e" x="227.99259" y="212.124162" style="fill: #228b22; stroke: #228b22"/>
     <use xlink:href="#m0c20816c7e" x="230.034443" y="202.932441" style="fill: #228b22; stroke: #228b22"/>
     <use xlink:href="#m0c20816c7e" x="232.076295" y="193.563388" style="fill: #228b22; stroke: #228b22"/>
     <use xlink:href="#m0c20816c7e" x="234.118148" y="184.075496" style="fill: #228b22; stroke: #228b22"/>
     <use xlink:href="#m0c20816c7e" x="236.16" y="174.527997" style="fill: #228b22; stroke: #228b22"/>
     <use xlink:href="#m0c20816c7e" x="238.201852" y="164.980499" style="fill: #228b22; stroke: #228b22"/>
     <use xlink:href="#m0c20816c7e" x="240.243705" y="155.492607" style="fill: #228b22; stroke: #228b22"/>
     <use xlink:href="#m0c20816c7e" x="242.285557" y="146.123554" style="fill: #228b22; stroke: #228b22"/>
     <use xlink:href="#m0c20816c7e" x="244.32741" y="136.931833" style="fill: #228b22; stroke: #228b22"/>
     <use xlink:href="#m0c20816c7e" x="246.369262" y="127.974828" style="fill: #228b22; stroke: #228b22"/>
     <use xlink:href="#m0c20816c7e" x="248.411115" y="119.308459" style="fill: #228b22; stroke: #228b22"/>
     <use xlink:href="#m0c20816c7e" x="250.452967" y="110.98683" style="fill: #228b22; stroke: #228b22"/>
     <use xlink:href="#m0c20816c7e" x="252.49482" y="103.061894" style="fill: #228b22; stroke: #228b22"/>
     <use xlink:href="#m0c20816c7e" x="254.536672" y="95.583128" style="fill: #228b22; stroke: #228b22"/>
     <use xlink:href="#m0c20816c7e" x="256.578525" y="88.597221" style="fill: #228b22; stroke: #228b22"/>
     <use xlink:href="#m0c20816c7e" x="258.620377" y="82.147788" style="fill: #228b22; stroke: #228b22"/>
     <use xlink:href="#m0c20816c7e" x="260.66223" y="76.275093" style="fill: #228b22; stroke: #228b22"/>
     <use xlink:href="#m0c20816c7e" x="262.704082" y="71.0158" style="fill: #228b22; stroke: #228b22"/>
     <use xlink:href="#m0c20816c7e" x="264.745935" y="66.402742" style="fill: #228b22; stroke: #228b22"/>
     <use xlink:href="#m0c20816c7e" x="266.787787" y="62.46472" style="fill: #228b22; stroke: #228b22"/>
     <use xlink:href="#m0c20816c7e" x="268.82964" y="59.226319" style="fill: #228b22; stroke: #228b22"/>
     <use xlink:href="#m0c20816c7e" x="270.871492" y="56.707757" style="fill: #228b22; stroke: #228b22"/>
     <use xlink:href="#m0c20816c7e" x="272.913345" y="54.924757" style="fill: #228b22; stroke: #228b22"/>
     <use xlink:href="#m0c20816c7e" x="274.955197" y="53.888451" style="fill: #228b22; stroke: #228b22"/>
     <use xlink:href="#m0c20816c7e" x="276.99705" y="53.605308" style="fill: #228b22; stroke: #228b22"/>
     <use xlink:href="#m0c20816c7e" x="279.038902" y="54.077096" style="fill: #228b22; stroke: #228b22"/>
     <use xlink:href="#m0c20816c7e" x="281.080755" y="55.30087" style="fill: #228b22; stroke: #228b22"/>
     <use xlink:href="#m0c20816c7e" x="283.122607" y="57.268989" style="fill: #228b22; stroke: #228b22"/>
     <use xlink:href="#m0c20816c7e" x="285.16446" y="59.969167" style="fill: #228b22; stroke: #228b22"/>
     <use xlink:href="#m0c20816c7e" x="287.206312" y="63.384545" style="fill: #228b22; stroke: #228b22"/>
     <use xlink:href="#m0c20816c7e" x="289.248165" y="67.493802" style="fill: #228b22; stroke: #228b22"/>
     <use xlink:href="#m0c20816c7e" x="291.290017" y="72.271283" style="fill: #228b22; stroke: #228b22"/>
     <use xlink:href="#m0c20816c7e" x="293.33187" y="77.687161" style="fill: #228b22; stroke: #228b22"/>
     <use xlink:href="#m0c20816c7e" x="295.373722" y="83.707625" style="fill: #228b22; stroke: #228b22"/>
     <use xlink:href="#m0c20816c7e" x="297.415575" y="90.295088" style="fill: #228b22; stroke: #228b22"/>
     <use xlink:href="#m0c20816c7e" x="299.457427" y="97.408425" style="fill: #228b22; stroke: #228b22"/>
     <use xlink:href="#m0c20816c7e" x="301.49928" y="105.003226" style="fill: #228b22; stroke: #228b22"/>
     <use xlink:href="#m0c20816c7e" x="303.541132" y="113.032076" style="fill: #228b22; stroke: #228b22"/>
     <use xlink:href="#m0c20816c7e" x="305.582985" y="121.44485" style="fill: #228b22; stroke: #228b22"/>
     <use xlink:href="#m0c20816c7e" x="307.624837" y="130.189026" style="fill: #228b22; stroke: #228b22"/>
     <use xlink:href="#m0c20816c7e" x="309.66669" y="139.210014" style="fill: #228b22; stroke: #228b22"/>
     <use xlink:href="#m0c20816c7e" x="311.708542" y="148.451495" style="fill: #228b22; stroke: #228b22"/>
     <use xlink:href="#m0c20816c7e" x="313.750395" y="157.855774" style="fill: #228b22; stroke: #228b22"/>
     <use xlink:href="#m0c20816c7e" x="315.792247" y="167.364138" style="fill: #228b22; stroke: #228b22"/>
     <use xlink:href="#m0c20816c7e" x="317.834099" y="176.917227" style="fill: #228b22; stroke: #228b22"/>
     <use xlink:href="#m0c20816c7e" x="319.875952" y="186.455399" style="fill: #228b22; stroke: #228b22"/>
     <use xlink:href="#m0c20816c7e" x="321.917804" y="195.919107" style="fill: #228b22; stroke: #228b22"/>
     <use xlink:href="#m0c20816c7e" x="323.959657" y="205.249268" style="fill: #228b22; stroke: #228b22"/>
     <use xlink:href="#m0c20816c7e" x="326.001509" y="214.387633" style="fill: #228b22; stroke: #228b22"/>
     <use xlink:href="#m0c20816c7e" x="328.043362" y="223.277151" style="fill: #228b22; stroke: #228b22"/>
     <use xlink:href="#m0c20816c7e" x="330.085214" y="231.862323" style="fill: #228b22; stroke: #228b22"/>
     <use xlink:href="#m0c20816c7e" x="332.127067" y="240.089552" style="fill: #228b22; stroke: #228b22"/>
     <use xlink:href="#m0c20816c7e" x="334.168919" y="247.907474" style="fill: #228b22; stroke: #228b22"/>
     <use xlink:href="#m0c20816c7e" x="336.210772" y="255.267281" style="fill: #228b22; stroke: #228b22"/>
     <use xlink:href="#m0c20816c7e" x="338.252624" y="262.123027" style="fill: #228b22; stroke: #228b22"/>
     <use xlink:href="#m0c20816c7e" x="340.294477" y="268.431908" style="fill: #228b22; stroke: #228b22"/>
     <use xlink:href="#m0c20816c7e" x="342.336329" y="274.15454" style="fill: #228b22; stroke: #228b22"/>
     <use xlink:href="#m0c20816c7e" x="344.378182" y="279.255195" style="fill: #228b22; stroke: #228b22"/>
     <use xlink:href="#m0c20816c7e" x="346.420034" y="283.702029" style="fill: #228b22; stroke: #228b22"/>
     <use xlink:href="#m0c20816c7e" x="348.461887" y="287.46728" style="fill: #228b22; stroke: #228b22"/>
     <use xlink:href="#m0c20816c7e" x="350.503739" y="290.527443" style="fill: #228b22; stroke: #228b22"/>
     <use xlink:href="#m0c20816c7e" x="352.545592" y="292.863411" style="fill: #228b22; stroke: #228b22"/>
     <use xlink:href="#m0c20816c7e" x="354.587444" y="294.460602" style="fill: #228b22; stroke: #228b22"/>
     <use xlink:href="#m0c20816c7e" x="356.629297" y="295.309044" style="fill: #228b22; stroke: #228b22"/>
     <use xlink:href="#m0c20816c7e" x="358.671149" y="295.40344" style="fill: #228b22; stroke: #228b22"/>
     <use xlink:href="#m0c20816c7e" x="360.713002" y="294.743201" style="fill: #228b22; stroke: #228b22"/>
     <use xlink:href="#m0c20816c7e" x="362.754854" y="293.33245" style="fill: #228b22; stroke: #228b22"/>
     <use xlink:href="#m0c20816c7e" x="364.796707" y="291.179993" style="fill: #228b22; stroke: #228b22"/>
     <use xlink:href="#m0c20816c7e" x="366.838559" y="288.29927" style="fill: #228b22; stroke: #228b22"/>
     <use xlink:href="#m0c20816c7e" x="368.880412" y="284.708264" style="fill: #228b22; stroke: #228b22"/>
     <use xlink:href="#m0c20816c7e" x="370.922264" y="280.429393" style="fill: #228b22; stroke: #228b22"/>
     <use xlink:href="#m0c20816c7e" x="372.964117" y="275.489369" style="fill: #228b22; stroke: #228b22"/>
     <use xlink:href="#m0c20816c7e" x="375.005969" y="269.919034" style="fill: #228b22; stroke: #228b22"/>
     <use xlink:href="#m0c20816c7e" x="377.047822" y="263.753167" style="fill: #228b22; stroke: #228b22"/>
     <use xlink:href="#m0c20816c7e" x="379.089674" y="257.030268" style="fill: #228b22; stroke: #228b22"/>
     <use xlink:href="#m0c20816c7e" x="381.131527" y="249.792318" style="fill: #228b22; stroke: #228b22"/>
     <use xlink:href="#m0c20816c7e" x="383.173379" y="242.084499" style="fill: #228b22; stroke: #228b22"/>
     <use xlink:href="#m0c20816c7e" x="385.215232" y="233.954891" style="fill: #228b22; stroke: #228b22"/>
     <use xlink:href="#m0c20816c7e" x="387.257084" y="225.454177" style="fill: #228b22; stroke: #228b22"/>
     <use xlink:href="#m0c20816c7e" x="389.298937" y="216.635362" style="fill: #228b22; stroke: #228b22"/>
     <use xlink:href="#m0c20816c7e" x="391.340789" y="207.553558" style="fill: #228b22; stroke: #228b22"/>
     <use xlink:href="#m0c20816c7e" x="393.382642" y="198.26577" style="fill: #228b22; stroke: #228b22"/>
     <use xlink:href="#m0c20816c7e" x="395.424494" y="188.830549" style="fill: #228b22; stroke: #228b22"/>
     <use xlink:href="#m0c20816c7e" x="397.466346" y="179.307542" style="fill: #228b22; stroke: #228b22"/>
    </g>
   </g>
   <g id="matplotlib.axis_1">
    <g id="xtick_1">
     <g id="line2d_1">
      <defs>
       <path id="ma4390b668f" d="M 0 0 
L 0 3.5 
" style="stroke: #000000; stroke-width: 0.8"/>
      </defs>
      <g>
       <use xlink:href="#ma4390b668f" x="73.832727" y="307.584" style="stroke: #000000; stroke-width: 0.8"/>
      </g>
     </g>
     <g id="text_1">
      <!-- −1.00 -->
      <g transform="translate(58.510071 322.182437)scale(0.1 -0.1)">
       <defs>
        <path id="DejaVuSans-2212" d="M 678 2272 
L 4684 2272 
L 4684 1741 
L 678 1741 
L 678 2272 
z
" transform="scale(0.015625)"/>
        <path id="DejaVuSans-31" d="M 794 531 
L 1825 531 
L 1825 4091 
L 703 3866 
L 703 4441 
L 1819 4666 
L 2450 4666 
L 2450 531 
L 3481 531 
L 3481 0 
L 794 0 
L 794 531 
z
" transform="scale(0.015625)"/>
        <path id="DejaVuSans-2e" d="M 684 794 
L 1344 794 
L 1344 0 
L 684 0 
L 684 794 
z
" transform="scale(0.015625)"/>
        <path id="DejaVuSans-30" d="M 2034 4250 
Q 1547 4250 1301 3770 
Q 1056 3291 1056 2328 
Q 1056 1369 1301 889 
Q 1547 409 2034 409 
Q 2525 409 2770 889 
Q 3016 1369 3016 2328 
Q 3016 3291 2770 3770 
Q 2525 4250 2034 4250 
z
M 2034 4750 
Q 2819 4750 3233 4129 
Q 3647 3509 3647 2328 
Q 3647 1150 3233 529 
Q 2819 -91 2034 -91 
Q 1250 -91 836 529 
Q 422 1150 422 2328 
Q 422 3509 836 4129 
Q 1250 4750 2034 4750 
z
" transform="scale(0.015625)"/>
       </defs>
       <use xlink:href="#DejaVuSans-2212"/>
       <use xlink:href="#DejaVuSans-31" x="83.789062"/>
       <use xlink:href="#DejaVuSans-2e" x="147.412109"/>
       <use xlink:href="#DejaVuSans-30" x="179.199219"/>
       <use xlink:href="#DejaVuSans-30" x="242.822266"/>
      </g>
     </g>
    </g>
    <g id="xtick_2">
     <g id="line2d_2">
      <g>
       <use xlink:href="#ma4390b668f" x="114.414545" y="307.584" style="stroke: #000000; stroke-width: 0.8"/>
      </g>
     </g>
     <g id="text_2">
      <!-- −0.75 -->
      <g transform="translate(99.091889 322.182437)scale(0.1 -0.1)">
       <defs>
        <path id="DejaVuSans-37" d="M 525 4666 
L 3525 4666 
L 3525 4397 
L 1831 0 
L 1172 0 
L 2766 4134 
L 525 4134 
L 525 4666 
z
" transform="scale(0.015625)"/>
        <path id="DejaVuSans-35" d="M 691 4666 
L 3169 4666 
L 3169 4134 
L 1269 4134 
L 1269 2991 
Q 1406 3038 1543 3061 
Q 1681 3084 1819 3084 
Q 2600 3084 3056 2656 
Q 3513 2228 3513 1497 
Q 3513 744 3044 326 
Q 2575 -91 1722 -91 
Q 1428 -91 1123 -41 
Q 819 9 494 109 
L 494 744 
Q 775 591 1075 516 
Q 1375 441 1709 441 
Q 2250 441 2565 725 
Q 2881 1009 2881 1497 
Q 2881 1984 2565 2268 
Q 2250 2553 1709 2553 
Q 1456 2553 1204 2497 
Q 953 2441 691 2322 
L 691 4666 
z
" transform="scale(0.015625)"/>
       </defs>
       <use xlink:href="#DejaVuSans-2212"/>
       <use xlink:href="#DejaVuSans-30" x="83.789062"/>
       <use xlink:href="#DejaVuSans-2e" x="147.412109"/>
       <use xlink:href="#DejaVuSans-37" x="179.199219"/>
       <use xlink:href="#DejaVuSans-35" x="242.822266"/>
      </g>
     </g>
    </g>
    <g id="xtick_3">
     <g id="line2d_3">
      <g>
       <use xlink:href="#ma4390b668f" x="154.996364" y="307.584" style="stroke: #000000; stroke-width: 0.8"/>
      </g>
     </g>
     <g id="text_3">
      <!-- −0.50 -->
      <g transform="translate(139.673707 322.182437)scale(0.1 -0.1)">
       <use xlink:href="#DejaVuSans-2212"/>
       <use xlink:href="#DejaVuSans-30" x="83.789062"/>
       <use xlink:href="#DejaVuSans-2e" x="147.412109"/>
       <use xlink:href="#DejaVuSans-35" x="179.199219"/>
       <use xlink:href="#DejaVuSans-30" x="242.822266"/>
      </g>
     </g>
    </g>
    <g id="xtick_4">
     <g id="line2d_4">
      <g>
       <use xlink:href="#ma4390b668f" x="195.578182" y="307.584" style="stroke: #000000; stroke-width: 0.8"/>
      </g>
     </g>
     <g id="text_4">
      <!-- −0.25 -->
      <g transform="translate(180.255526 322.182437)scale(0.1 -0.1)">
       <defs>
        <path id="DejaVuSans-32" d="M 1228 531 
L 3431 531 
L 3431 0 
L 469 0 
L 469 531 
Q 828 903 1448 1529 
Q 2069 2156 2228 2338 
Q 2531 2678 2651 2914 
Q 2772 3150 2772 3378 
Q 2772 3750 2511 3984 
Q 2250 4219 1831 4219 
Q 1534 4219 1204 4116 
Q 875 4013 500 3803 
L 500 4441 
Q 881 4594 1212 4672 
Q 1544 4750 1819 4750 
Q 2544 4750 2975 4387 
Q 3406 4025 3406 3419 
Q 3406 3131 3298 2873 
Q 3191 2616 2906 2266 
Q 2828 2175 2409 1742 
Q 1991 1309 1228 531 
z
" transform="scale(0.015625)"/>
       </defs>
       <use xlink:href="#DejaVuSans-2212"/>
       <use xlink:href="#DejaVuSans-30" x="83.789062"/>
       <use xlink:href="#DejaVuSans-2e" x="147.412109"/>
       <use xlink:href="#DejaVuSans-32" x="179.199219"/>
       <use xlink:href="#DejaVuSans-35" x="242.822266"/>
      </g>
     </g>
    </g>
    <g id="xtick_5">
     <g id="line2d_5">
      <g>
       <use xlink:href="#ma4390b668f" x="236.16" y="307.584" style="stroke: #000000; stroke-width: 0.8"/>
      </g>
     </g>
     <g id="text_5">
      <!-- 0.00 -->
      <g transform="translate(225.027187 322.182437)scale(0.1 -0.1)">
       <use xlink:href="#DejaVuSans-30"/>
       <use xlink:href="#DejaVuSans-2e" x="63.623047"/>
       <use xlink:href="#DejaVuSans-30" x="95.410156"/>
       <use xlink:href="#DejaVuSans-30" x="159.033203"/>
      </g>
     </g>
    </g>
    <g id="xtick_6">
     <g id="line2d_6">
      <g>
       <use xlink:href="#ma4390b668f" x="276.741818" y="307.584" style="stroke: #000000; stroke-width: 0.8"/>
      </g>
     </g>
     <g id="text_6">
      <!-- 0.25 -->
      <g transform="translate(265.609006 322.182437)scale(0.1 -0.1)">
       <use xlink:href="#DejaVuSans-30"/>
       <use xlink:href="#DejaVuSans-2e" x="63.623047"/>
       <use xlink:href="#DejaVuSans-32" x="95.410156"/>
       <use xlink:href="#DejaVuSans-35" x="159.033203"/>
      </g>
     </g>
    </g>
    <g id="xtick_7">
     <g id="line2d_7">
      <g>
       <use xlink:href="#ma4390b668f" x="317.323636" y="307.584" style="stroke: #000000; stroke-width: 0.8"/>
      </g>
     </g>
     <g id="text_7">
      <!-- 0.50 -->
      <g transform="translate(306.190824 322.182437)scale(0.1 -0.1)">
       <use xlink:href="#DejaVuSans-30"/>
       <use xlink:href="#DejaVuSans-2e" x="63.623047"/>
       <use xlink:href="#DejaVuSans-35" x="95.410156"/>
       <use xlink:href="#DejaVuSans-30" x="159.033203"/>
      </g>
     </g>
    </g>
    <g id="xtick_8">
     <g id="line2d_8">
      <g>
       <use xlink:href="#ma4390b668f" x="357.905455" y="307.584" style="stroke: #000000; stroke-width: 0.8"/>
      </g>
     </g>
     <g id="text_8">
      <!-- 0.75 -->
      <g transform="translate(346.772642 322.182437)scale(0.1 -0.1)">
       <use xlink:href="#DejaVuSans-30"/>
       <use xlink:href="#DejaVuSans-2e" x="63.623047"/>
       <use xlink:href="#DejaVuSans-37" x="95.410156"/>
       <use xlink:href="#DejaVuSans-35" x="159.033203"/>
      </g>
     </g>
    </g>
    <g id="xtick_9">
     <g id="line2d_9">
      <g>
       <use xlink:href="#ma4390b668f" x="398.487273" y="307.584" style="stroke: #000000; stroke-width: 0.8"/>
      </g>
     </g>
     <g id="text_9">
      <!-- 1.00 -->
      <g transform="translate(387.35446 322.182437)scale(0.1 -0.1)">
       <use xlink:href="#DejaVuSans-31"/>
       <use xlink:href="#DejaVuSans-2e" x="63.623047"/>
       <use xlink:href="#DejaVuSans-30" x="95.410156"/>
       <use xlink:href="#DejaVuSans-30" x="159.033203"/>
      </g>
     </g>
    </g>
    <g id="text_10">
     <!-- x -->
     <g transform="translate(233.200625 335.860562)scale(0.1 -0.1)">
      <defs>
       <path id="DejaVuSans-78" d="M 3513 3500 
L 2247 1797 
L 3578 0 
L 2900 0 
L 1881 1375 
L 863 0 
L 184 0 
L 1544 1831 
L 300 3500 
L 978 3500 
L 1906 2253 
L 2834 3500 
L 3513 3500 
z
" transform="scale(0.015625)"/>
      </defs>
      <use xlink:href="#DejaVuSans-78"/>
     </g>
    </g>
   </g>
   <g id="matplotlib.axis_2">
    <g id="ytick_1">
     <g id="line2d_10">
      <defs>
       <path id="m4a1a00d3c9" d="M 0 0 
L -3.5 0 
" style="stroke: #000000; stroke-width: 0.8"/>
      </defs>
      <g>
       <use xlink:href="#m4a1a00d3c9" x="57.6" y="295.48815" style="stroke: #000000; stroke-width: 0.8"/>
      </g>
     </g>
     <g id="text_11">
      <!-- 0.00 -->
      <g transform="translate(28.334375 299.287368)scale(0.1 -0.1)">
       <use xlink:href="#DejaVuSans-30"/>
       <use xlink:href="#DejaVuSans-2e" x="63.623047"/>
       <use xlink:href="#DejaVuSans-30" x="95.410156"/>
       <use xlink:href="#DejaVuSans-30" x="159.033203"/>
      </g>
     </g>
    </g>
    <g id="ytick_2">
     <g id="line2d_11">
      <g>
       <use xlink:href="#m4a1a00d3c9" x="57.6" y="265.248112" style="stroke: #000000; stroke-width: 0.8"/>
      </g>
     </g>
     <g id="text_12">
      <!-- 0.25 -->
      <g transform="translate(28.334375 269.047331)scale(0.1 -0.1)">
       <use xlink:href="#DejaVuSans-30"/>
       <use xlink:href="#DejaVuSans-2e" x="63.623047"/>
       <use xlink:href="#DejaVuSans-32" x="95.410156"/>
       <use xlink:href="#DejaVuSans-35" x="159.033203"/>
      </g>
     </g>
    </g>
    <g id="ytick_3">
     <g id="line2d_12">
      <g>
       <use xlink:href="#m4a1a00d3c9" x="57.6" y="235.008075" style="stroke: #000000; stroke-width: 0.8"/>
      </g>
     </g>
     <g id="text_13">
      <!-- 0.50 -->
      <g transform="translate(28.334375 238.807294)scale(0.1 -0.1)">
       <use xlink:href="#DejaVuSans-30"/>
       <use xlink:href="#DejaVuSans-2e" x="63.623047"/>
       <use xlink:href="#DejaVuSans-35" x="95.410156"/>
       <use xlink:href="#DejaVuSans-30" x="159.033203"/>
      </g>
     </g>
    </g>
    <g id="ytick_4">
     <g id="line2d_13">
      <g>
       <use xlink:href="#m4a1a00d3c9" x="57.6" y="204.768037" style="stroke: #000000; stroke-width: 0.8"/>
      </g>
     </g>
     <g id="text_14">
      <!-- 0.75 -->
      <g transform="translate(28.334375 208.567256)scale(0.1 -0.1)">
       <use xlink:href="#DejaVuSans-30"/>
       <use xlink:href="#DejaVuSans-2e" x="63.623047"/>
       <use xlink:href="#DejaVuSans-37" x="95.410156"/>
       <use xlink:href="#DejaVuSans-35" x="159.033203"/>
      </g>
     </g>
    </g>
    <g id="ytick_5">
     <g id="line2d_14">
      <g>
       <use xlink:href="#m4a1a00d3c9" x="57.6" y="174.528" style="stroke: #000000; stroke-width: 0.8"/>
      </g>
     </g>
     <g id="text_15">
      <!-- 1.00 -->
      <g transform="translate(28.334375 178.327219)scale(0.1 -0.1)">
       <use xlink:href="#DejaVuSans-31"/>
       <use xlink:href="#DejaVuSans-2e" x="63.623047"/>
       <use xlink:href="#DejaVuSans-30" x="95.410156"/>
       <use xlink:href="#DejaVuSans-30" x="159.033203"/>
      </g>
     </g>
    </g>
    <g id="ytick_6">
     <g id="line2d_15">
      <g>
       <use xlink:href="#m4a1a00d3c9" x="57.6" y="144.287963" style="stroke: #000000; stroke-width: 0.8"/>
      </g>
     </g>
     <g id="text_16">
      <!-- 1.25 -->
      <g transform="translate(28.334375 148.087181)scale(0.1 -0.1)">
       <use xlink:href="#DejaVuSans-31"/>
       <use xlink:href="#DejaVuSans-2e" x="63.623047"/>
       <use xlink:href="#DejaVuSans-32" x="95.410156"/>
       <use xlink:href="#DejaVuSans-35" x="159.033203"/>
      </g>
     </g>
    </g>
    <g id="ytick_7">
     <g id="line2d_16">
      <g>
       <use xlink:href="#m4a1a00d3c9" x="57.6" y="114.047925" style="stroke: #000000; stroke-width: 0.8"/>
      </g>
     </g>
     <g id="text_17">
      <!-- 1.50 -->
      <g transform="translate(28.334375 117.847144)scale(0.1 -0.1)">
       <use xlink:href="#DejaVuSans-31"/>
       <use xlink:href="#DejaVuSans-2e" x="63.623047"/>
       <use xlink:href="#DejaVuSans-35" x="95.410156"/>
       <use xlink:href="#DejaVuSans-30" x="159.033203"/>
      </g>
     </g>
    </g>
    <g id="ytick_8">
     <g id="line2d_17">
      <g>
       <use xlink:href="#m4a1a00d3c9" x="57.6" y="83.807888" style="stroke: #000000; stroke-width: 0.8"/>
      </g>
     </g>
     <g id="text_18">
      <!-- 1.75 -->
      <g transform="translate(28.334375 87.607107)scale(0.1 -0.1)">
       <use xlink:href="#DejaVuSans-31"/>
       <use xlink:href="#DejaVuSans-2e" x="63.623047"/>
       <use xlink:href="#DejaVuSans-37" x="95.410156"/>
       <use xlink:href="#DejaVuSans-35" x="159.033203"/>
      </g>
     </g>
    </g>
    <g id="ytick_9">
     <g id="line2d_18">
      <g>
       <use xlink:href="#m4a1a00d3c9" x="57.6" y="53.56785" style="stroke: #000000; stroke-width: 0.8"/>
      </g>
     </g>
     <g id="text_19">
      <!-- 2.00 -->
      <g transform="translate(28.334375 57.367069)scale(0.1 -0.1)">
       <use xlink:href="#DejaVuSans-32"/>
       <use xlink:href="#DejaVuSans-2e" x="63.623047"/>
       <use xlink:href="#DejaVuSans-30" x="95.410156"/>
       <use xlink:href="#DejaVuSans-30" x="159.033203"/>
      </g>
     </g>
    </g>
    <g id="text_20">
     <!-- $f_i$ -->
     <g transform="translate(22.254688 177.428)rotate(-90)scale(0.1 -0.1)">
      <defs>
       <path id="DejaVuSans-Oblique-66" d="M 3059 4863 
L 2969 4384 
L 2419 4384 
Q 2106 4384 1964 4261 
Q 1822 4138 1753 3809 
L 1691 3500 
L 2638 3500 
L 2553 3053 
L 1606 3053 
L 1013 0 
L 434 0 
L 1031 3053 
L 481 3053 
L 563 3500 
L 1113 3500 
L 1159 3744 
Q 1278 4363 1576 4613 
Q 1875 4863 2516 4863 
L 3059 4863 
z
" transform="scale(0.015625)"/>
       <path id="DejaVuSans-Oblique-69" d="M 1172 4863 
L 1747 4863 
L 1606 4134 
L 1031 4134 
L 1172 4863 
z
M 909 3500 
L 1484 3500 
L 800 0 
L 225 0 
L 909 3500 
z
" transform="scale(0.015625)"/>
      </defs>
      <use xlink:href="#DejaVuSans-Oblique-66" transform="translate(0 0.015625)"/>
      <use xlink:href="#DejaVuSans-Oblique-69" transform="translate(35.205078 -16.390625)scale(0.7)"/>
     </g>
    </g>
   </g>
   <g id="line2d_19">
    <path d="M 73.832727 174.528 
L 81.307256 140.018485 
L 85.53199 121.605151 
L 88.781785 108.377449 
L 91.706601 97.360637 
L 94.306437 88.393211 
L 96.581294 81.258748 
L 98.856151 74.84696 
L 100.806028 69.964149 
L 102.755905 65.676681 
L 104.380803 62.576283 
L 106.0057 59.918591 
L 107.630598 57.714117 
L 108.930516 56.282772 
L 110.230434 55.150723 
L 111.530352 54.320836 
L 112.83027 53.795211 
L 113.805209 53.601493 
L 114.780147 53.579962 
L 115.755086 53.730649 
L 117.055004 54.199054 
L 118.354922 54.97203 
L 119.65484 56.047618 
L 120.954758 57.423098 
L 122.254676 59.094987 
L 123.879574 61.595157 
L 125.504472 64.541914 
L 127.129369 67.923605 
L 129.079247 72.5368 
L 131.029124 77.73069 
L 133.30398 84.484533 
L 135.578837 91.936057 
L 138.178673 101.232091 
L 141.103489 112.571615 
L 144.353284 126.09475 
L 148.253038 143.313076 
L 153.77769 168.824297 
L 162.552138 209.401923 
L 166.451892 226.422366 
L 169.701687 239.720225 
L 172.626503 250.813164 
L 175.226339 259.857773 
L 177.501196 267.066482 
L 179.776052 273.558178 
L 181.72593 278.513519 
L 183.675807 282.876811 
L 185.300704 286.0426 
L 186.925602 288.767411 
L 188.5505 291.040468 
L 189.850418 292.52755 
L 191.150336 293.715958 
L 192.450254 294.602683 
L 193.750172 295.185483 
L 195.05009 295.46288 
L 196.025029 295.470057 
L 196.999967 295.305025 
L 198.299885 294.817541 
L 199.599803 294.025587 
L 200.899722 292.931168 
L 202.19964 291.537053 
L 203.499558 289.84677 
L 205.124455 287.324021 
L 206.749353 284.355227 
L 208.374251 280.952126 
L 210.324128 276.314187 
L 212.274005 271.096721 
L 214.548862 264.317026 
L 216.823718 256.841623 
L 219.423554 247.520947 
L 222.34837 236.157378 
L 225.598165 222.612448 
L 229.49792 205.375267 
L 235.022572 179.85171 
L 243.797019 139.290015 
L 247.696773 122.290289 
L 250.946568 109.015684 
L 253.871384 97.948011 
L 256.47122 88.929041 
L 258.746077 81.74501 
L 261.020934 75.279886 
L 262.970811 70.348673 
L 264.920688 66.010613 
L 266.545586 62.866589 
L 268.170483 60.164125 
L 269.795381 57.913907 
L 271.095299 56.445389 
L 272.395217 55.275757 
L 273.695135 54.407968 
L 274.995053 53.844222 
L 276.294971 53.585943 
L 277.26991 53.59312 
L 278.244848 53.772496 
L 279.544767 54.279053 
L 280.844685 55.089977 
L 282.144603 56.203217 
L 283.444521 57.615954 
L 284.744439 59.324612 
L 286.369337 61.869915 
L 287.994234 64.860719 
L 289.619132 68.285195 
L 291.569009 72.947832 
L 293.518886 78.188822 
L 295.793743 84.994302 
L 298.0686 92.493512 
L 300.668436 101.838736 
L 303.593251 113.226239 
L 306.843047 126.792831 
L 310.742801 144.048696 
L 316.592432 171.104966 
L 325.0419 210.129699 
L 328.941654 227.10854 
L 332.19145 240.359759 
L 335.116265 251.402056 
L 337.716102 260.395299 
L 339.990958 267.554581 
L 342.265815 273.993069 
L 344.215692 278.900105 
L 346.165569 283.212891 
L 347.790467 286.335117 
L 349.415364 289.015208 
L 351.040262 291.242565 
L 352.34018 292.692503 
L 353.640098 293.84335 
L 354.940016 294.692192 
L 356.239934 295.236881 
L 357.539853 295.476038 
L 358.514791 295.454507 
L 359.48973 295.260789 
L 360.789648 294.735164 
L 362.089566 293.905277 
L 363.389484 292.773228 
L 364.689402 291.341883 
L 365.98932 289.614866 
L 367.614218 287.047034 
L 369.239115 284.034251 
L 370.864013 280.588433 
L 372.81389 275.901145 
L 374.763767 270.636682 
L 377.038624 263.805485 
L 379.313481 256.282543 
L 381.913317 246.912862 
L 384.838133 235.501538 
L 388.087928 221.913419 
L 391.987682 204.63904 
L 397.837314 177.570782 
L 398.487273 174.528 
L 398.487273 174.528 
" clip-path="url(#p7cdc139345)" style="fill: none; stroke: #0000ff; stroke-width: 1.5; stroke-linecap: square"/>
   </g>
   <g id="line2d_20">
    <path d="M 73.840844 174.488093 
L 74.245968 172.592023 
L 74.651092 170.69631 
L 75.056215 168.801425 
L 75.461339 166.907839 
L 75.866463 165.016029 
" clip-path="url(#p7cdc139345)" style="fill: none; stroke: #008000; stroke-width: 1.5; stroke-linecap: square"/>
   </g>
   <g id="line2d_21">
    <path d="M 75.882696 164.940064 
L 76.28782 163.050664 
L 76.692944 161.164049 
L 77.098068 159.280683 
L 77.503192 157.401027 
L 77.908316 155.525548 
" clip-path="url(#p7cdc139345)" style="fill: none; stroke: #008000; stroke-width: 1.5; stroke-linecap: square"/>
   </g>
   <g id="line2d_22">
    <path d="M 77.924549 155.450441 
L 78.329673 153.579805 
L 78.734797 151.714308 
L 79.13992 149.854412 
L 79.545044 148.000577 
L 79.950168 146.15326 
" clip-path="url(#p7cdc139345)" style="fill: none; stroke: #008000; stroke-width: 1.5; stroke-linecap: square"/>
   </g>
   <g id="line2d_23">
    <path d="M 79.966401 146.079371 
L 80.371525 144.239321 
L 80.776649 142.406723 
L 81.181773 140.582027 
L 81.586897 138.765684 
L 81.992021 136.95814 
" clip-path="url(#p7cdc139345)" style="fill: none; stroke: #008000; stroke-width: 1.5; stroke-linecap: square"/>
   </g>
   <g id="line2d_24">
    <path d="M 82.008254 136.885899 
L 82.413378 135.087978 
L 82.818501 133.299761 
L 83.223625 131.521687 
L 83.628749 129.754191 
L 84.033873 127.997708 
" clip-path="url(#p7cdc139345)" style="fill: none; stroke: #008000; stroke-width: 1.5; stroke-linecap: square"/>
   </g>
   <g id="line2d_25">
    <path d="M 84.050106 127.927556 
L 84.45523 126.182984 
L 84.860354 124.450303 
L 85.265478 122.729937 
L 85.670602 121.022308 
L 86.075726 119.327835 
" clip-path="url(#p7cdc139345)" style="fill: none; stroke: #008000; stroke-width: 1.5; stroke-linecap: square"/>
   </g>
   <g id="line2d_26">
    <path d="M 86.091959 119.260209 
L 86.497083 117.579862 
L 86.902206 115.913519 
L 87.30733 114.261588 
L 87.712454 112.624476 
L 88.117578 111.002583 
" clip-path="url(#p7cdc139345)" style="fill: none; stroke: #008000; stroke-width: 1.5; stroke-linecap: square"/>
   </g>
   <g id="line2d_27">
    <path d="M 88.133811 110.937908 
L 88.538935 109.332269 
L 88.944059 107.742662 
L 89.349183 106.169476 
L 89.754307 104.613099 
L 90.159431 103.073912 
" clip-path="url(#p7cdc139345)" style="fill: none; stroke: #008000; stroke-width: 1.5; stroke-linecap: square"/>
   </g>
   <g id="line2d_28">
    <path d="M 90.175664 103.012592 
L 90.580787 101.491686 
L 90.985911 99.98874 
L 91.391035 98.504122 
L 91.796159 97.038198 
L 92.201283 95.591327 
" clip-path="url(#p7cdc139345)" style="fill: none; stroke: #008000; stroke-width: 1.5; stroke-linecap: square"/>
   </g>
   <g id="line2d_29">
    <path d="M 92.217516 95.533746 
L 92.62264 94.10707 
L 93.027764 92.70017 
L 93.432888 91.313391 
L 93.838012 89.947073 
L 94.243136 88.601553 
" clip-path="url(#p7cdc139345)" style="fill: none; stroke: #008000; stroke-width: 1.5; stroke-linecap: square"/>
   </g>
   <g id="line2d_30">
    <path d="M 94.259369 88.548069 
L 94.664492 87.224531 
L 95.069616 85.92246 
L 95.47474 84.642178 
L 95.879864 83.383997 
L 96.284988 82.148227 
" clip-path="url(#p7cdc139345)" style="fill: none; stroke: #008000; stroke-width: 1.5; stroke-linecap: square"/>
   </g>
   <g id="line2d_31">
    <path d="M 96.301221 82.099175 
L 96.706345 80.887037 
L 97.111469 79.697925 
L 97.516593 78.532131 
L 97.921717 77.389942 
L 98.326841 76.271637 
" clip-path="url(#p7cdc139345)" style="fill: none; stroke: #008000; stroke-width: 1.5; stroke-linecap: square"/>
   </g>
   <g id="line2d_32">
    <path d="M 98.343073 76.227322 
L 98.748197 75.134152 
L 99.153321 74.065422 
L 99.558445 73.021395 
L 99.963569 72.002328 
L 100.368693 71.00847 
" clip-path="url(#p7cdc139345)" style="fill: none; stroke: #008000; stroke-width: 1.5; stroke-linecap: square"/>
   </g>
   <g id="line2d_33">
    <path d="M 100.384926 70.96917 
L 100.79005 70.001791 
L 101.195174 69.060115 
L 101.600298 68.144373 
L 102.005422 67.25479 
L 102.410546 66.391584 
" clip-path="url(#p7cdc139345)" style="fill: none; stroke: #008000; stroke-width: 1.5; stroke-linecap: square"/>
   </g>
   <g id="line2d_34">
    <path d="M 102.426778 66.357543 
L 102.831902 65.521996 
L 103.237026 64.713254 
L 103.64215 63.931514 
L 104.047274 63.176968 
L 104.452398 62.449803 
" clip-path="url(#p7cdc139345)" style="fill: none; stroke: #008000; stroke-width: 1.5; stroke-linecap: square"/>
   </g>
   <g id="line2d_35">
    <path d="M 104.468631 62.421234 
L 104.873755 61.722736 
L 105.278879 61.051975 
L 105.684003 60.409118 
L 106.089127 59.794321 
L 106.494251 59.207735 
" clip-path="url(#p7cdc139345)" style="fill: none; stroke: #008000; stroke-width: 1.5; stroke-linecap: square"/>
   </g>
   <g id="line2d_36">
    <path d="M 106.510483 59.184818 
L 106.915607 58.627728 
L 107.320731 58.099137 
L 107.725855 57.599176 
L 108.130979 57.127965 
L 108.536103 56.685623 
" clip-path="url(#p7cdc139345)" style="fill: none; stroke: #008000; stroke-width: 1.5; stroke-linecap: square"/>
   </g>
   <g id="line2d_37">
    <path d="M 108.552336 56.668499 
L 108.95746 56.256296 
L 109.362584 55.873175 
L 109.767708 55.51923 
L 110.172832 55.194549 
L 110.577956 54.89921 
" clip-path="url(#p7cdc139345)" style="fill: none; stroke: #008000; stroke-width: 1.5; stroke-linecap: square"/>
   </g>
   <g id="line2d_38">
    <path d="M 110.594188 54.887987 
L 110.999312 54.623244 
L 111.404436 54.387985 
L 111.80956 54.182267 
L 112.214684 54.006141 
L 112.619808 53.85965 
" clip-path="url(#p7cdc139345)" style="fill: none; stroke: #008000; stroke-width: 1.5; stroke-linecap: square"/>
   </g>
   <g id="line2d_39">
    <path d="M 112.636041 53.854398 
L 113.041165 53.738768 
L 113.446289 53.652839 
L 113.851413 53.596632 
L 114.256537 53.570161 
L 114.661661 53.573433 
" clip-path="url(#p7cdc139345)" style="fill: none; stroke: #008000; stroke-width: 1.5; stroke-linecap: square"/>
   </g>
   <g id="line2d_40">
    <path d="M 114.677893 53.574184 
L 115.083017 53.608389 
L 115.488141 53.672327 
L 115.893265 53.765982 
L 116.298389 53.889332 
L 116.703513 54.042346 
" clip-path="url(#p7cdc139345)" style="fill: none; stroke: #008000; stroke-width: 1.5; stroke-linecap: square"/>
   </g>
   <g id="line2d_41">
    <path d="M 116.719746 54.049095 
L 117.12487 54.232922 
L 117.529994 54.446327 
L 117.935118 54.68926 
L 118.340242 54.96166 
L 118.745366 55.26346 
" clip-path="url(#p7cdc139345)" style="fill: none; stroke: #008000; stroke-width: 1.5; stroke-linecap: square"/>
   </g>
   <g id="line2d_42">
    <path d="M 118.761598 55.276167 
L 119.166722 55.608467 
L 119.571846 55.970008 
L 119.97697 56.360701 
L 120.382094 56.780451 
L 120.787218 57.229154 
" clip-path="url(#p7cdc139345)" style="fill: none; stroke: #008000; stroke-width: 1.5; stroke-linecap: square"/>
   </g>
   <g id="line2d_43">
    <path d="M 120.803451 57.247737 
L 121.208575 57.726436 
L 121.613699 58.233856 
L 122.018823 58.76987 
L 122.423947 59.334349 
L 122.829071 59.927154 
" clip-path="url(#p7cdc139345)" style="fill: none; stroke: #008000; stroke-width: 1.5; stroke-linecap: square"/>
   </g>
   <g id="line2d_44">
    <path d="M 122.845303 59.951499 
L 123.250427 60.573608 
L 123.655551 61.223738 
L 124.060675 61.901728 
L 124.465799 62.607412 
L 124.870923 63.340616 
" clip-path="url(#p7cdc139345)" style="fill: none; stroke: #008000; stroke-width: 1.5; stroke-linecap: square"/>
   </g>
   <g id="line2d_45">
    <path d="M 124.887156 63.370571 
L 125.29228 64.132207 
L 125.697404 64.920988 
L 126.102528 65.73672 
L 126.507652 66.579204 
L 126.912776 67.448231 
" clip-path="url(#p7cdc139345)" style="fill: none; stroke: #008000; stroke-width: 1.5; stroke-linecap: square"/>
   </g>
   <g id="line2d_46">
    <path d="M 126.929008 67.483608 
L 127.334132 68.380016 
L 127.739256 69.302524 
L 128.14438 70.250906 
L 128.549504 71.224929 
L 128.954628 72.224354 
" clip-path="url(#p7cdc139345)" style="fill: none; stroke: #008000; stroke-width: 1.5; stroke-linecap: square"/>
   </g>
   <g id="line2d_47">
    <path d="M 128.970861 72.264932 
L 129.375985 73.290515 
L 129.781109 74.340992 
L 130.186233 75.416102 
L 130.591357 76.515584 
L 130.996481 77.639167 
" clip-path="url(#p7cdc139345)" style="fill: none; stroke: #008000; stroke-width: 1.5; stroke-linecap: square"/>
   </g>
   <g id="line2d_48">
    <path d="M 131.012713 77.684694 
L 131.417837 78.833049 
L 131.822961 80.004935 
L 132.228085 81.200063 
L 132.633209 82.418139 
L 133.038333 83.658866 
" clip-path="url(#p7cdc139345)" style="fill: none; stroke: #008000; stroke-width: 1.5; stroke-linecap: square"/>
   </g>
   <g id="line2d_49">
    <path d="M 133.054566 83.709056 
L 133.45969 84.973015 
L 133.864814 86.258994 
L 134.269938 87.566677 
L 134.675062 88.895744 
L 135.080186 90.245868 
" clip-path="url(#p7cdc139345)" style="fill: none; stroke: #008000; stroke-width: 1.5; stroke-linecap: square"/>
   </g>
   <g id="line2d_50">
    <path d="M 135.096418 90.300408 
L 135.501542 91.67208 
L 135.906666 93.064124 
L 136.31179 94.476199 
L 136.716914 95.907958 
L 137.122038 97.35905 
" clip-path="url(#p7cdc139345)" style="fill: none; stroke: #008000; stroke-width: 1.5; stroke-linecap: square"/>
   </g>
   <g id="line2d_51">
    <path d="M 137.138271 97.417601 
L 137.543395 98.888421 
L 137.948519 100.377839 
L 138.353643 101.88549 
L 138.758767 103.411004 
L 139.16389 104.954005 
" clip-path="url(#p7cdc139345)" style="fill: none; stroke: #008000; stroke-width: 1.5; stroke-linecap: square"/>
   </g>
   <g id="line2d_52">
    <path d="M 139.180123 105.0162 
L 139.585247 106.576987 
L 139.990371 108.154481 
L 140.395495 109.748295 
L 140.800619 111.358039 
L 141.205743 112.983316 
" clip-path="url(#p7cdc139345)" style="fill: none; stroke: #008000; stroke-width: 1.5; stroke-linecap: square"/>
   </g>
   <g id="line2d_53">
    <path d="M 141.221976 113.048767 
L 141.6271 114.689776 
L 142.032224 116.345497 
L 142.437348 118.015525 
L 142.842472 119.699449 
L 143.247595 121.396856 
" clip-path="url(#p7cdc139345)" style="fill: none; stroke: #008000; stroke-width: 1.5; stroke-linecap: square"/>
   </g>
   <g id="line2d_54">
    <path d="M 143.263828 121.465155 
L 143.668952 123.176141 
L 144.074076 124.899752 
L 144.4792 126.635567 
L 144.884324 128.383159 
L 145.289448 130.142098 
" clip-path="url(#p7cdc139345)" style="fill: none; stroke: #008000; stroke-width: 1.5; stroke-linecap: square"/>
   </g>
   <g id="line2d_55">
    <path d="M 145.305681 130.212818 
L 145.710805 131.983099 
L 146.115929 133.763841 
L 146.521053 135.554606 
L 146.926176 137.354954 
L 147.3313 139.164444 
" clip-path="url(#p7cdc139345)" style="fill: none; stroke: #008000; stroke-width: 1.5; stroke-linecap: square"/>
   </g>
   <g id="line2d_56">
    <path d="M 147.347533 139.237144 
L 147.752657 141.055669 
L 148.157781 142.882423 
L 148.562905 144.716959 
L 148.968029 146.558824 
L 149.373153 148.407569 
" clip-path="url(#p7cdc139345)" style="fill: none; stroke: #008000; stroke-width: 1.5; stroke-linecap: square"/>
   </g>
   <g id="line2d_57">
    <path d="M 149.389386 148.481794 
L 149.79451 150.33721 
L 150.199634 152.198572 
L 150.604758 154.065424 
L 151.009881 155.937309 
L 151.415005 157.813766 
" clip-path="url(#p7cdc139345)" style="fill: none; stroke: #008000; stroke-width: 1.5; stroke-linecap: square"/>
   </g>
   <g id="line2d_58">
    <path d="M 151.431238 157.889054 
L 151.836362 159.769775 
L 152.241486 161.654125 
L 152.64661 163.54164 
L 153.051734 165.431856 
L 153.456858 167.324311 
" clip-path="url(#p7cdc139345)" style="fill: none; stroke: #008000; stroke-width: 1.5; stroke-linecap: square"/>
   </g>
   <g id="line2d_59">
    <path d="M 153.473091 167.400191 
L 153.878215 169.294478 
L 154.283339 171.190051 
L 154.688462 173.086444 
L 155.093586 174.983192 
L 155.49871 176.87983 
" clip-path="url(#p7cdc139345)" style="fill: none; stroke: #008000; stroke-width: 1.5; stroke-linecap: square"/>
   </g>
   <g id="line2d_60">
    <path d="M 155.514943 176.955829 
L 155.920067 178.851855 
L 156.325191 180.746816 
L 156.730315 182.640249 
L 157.135439 184.531686 
L 157.540563 186.420666 
" clip-path="url(#p7cdc139345)" style="fill: none; stroke: #008000; stroke-width: 1.5; stroke-linecap: square"/>
   </g>
   <g id="line2d_61">
    <path d="M 157.556796 186.496309 
L 157.96192 188.382237 
L 158.367044 190.264757 
L 158.772167 192.143408 
L 159.177291 194.017727 
L 159.582415 195.887255 
" clip-path="url(#p7cdc139345)" style="fill: none; stroke: #008000; stroke-width: 1.5; stroke-linecap: square"/>
   </g>
   <g id="line2d_62">
    <path d="M 159.598648 195.96207 
L 160.003772 197.826126 
L 160.408896 199.684452 
L 160.81402 201.536592 
L 161.219144 203.382091 
L 161.624268 205.220496 
" clip-path="url(#p7cdc139345)" style="fill: none; stroke: #008000; stroke-width: 1.5; stroke-linecap: square"/>
   </g>
   <g id="line2d_63">
    <path d="M 161.640501 205.294016 
L 162.045625 207.124563 
L 162.450748 208.947093 
L 162.855872 210.761159 
L 163.260996 212.566317 
L 163.66612 214.362122 
" clip-path="url(#p7cdc139345)" style="fill: none; stroke: #008000; stroke-width: 1.5; stroke-linecap: square"/>
   </g>
   <g id="line2d_64">
    <path d="M 163.682353 214.433888 
L 164.087477 216.219496 
L 164.492601 217.994852 
L 164.897725 219.75952 
L 165.302849 221.513066 
L 165.707973 223.255059 
" clip-path="url(#p7cdc139345)" style="fill: none; stroke: #008000; stroke-width: 1.5; stroke-linecap: square"/>
   </g>
   <g id="line2d_65">
    <path d="M 165.724206 223.324623 
L 166.12933 225.054146 
L 166.534453 226.771245 
L 166.939577 228.475496 
L 167.344701 230.166483 
L 167.749825 231.84379 
" clip-path="url(#p7cdc139345)" style="fill: none; stroke: #008000; stroke-width: 1.5; stroke-linecap: square"/>
   </g>
   <g id="line2d_66">
    <path d="M 167.766058 231.910717 
L 168.171182 233.573357 
L 168.576306 235.221478 
L 168.98143 236.854674 
L 169.386554 238.472544 
L 169.791678 240.074693 
" clip-path="url(#p7cdc139345)" style="fill: none; stroke: #008000; stroke-width: 1.5; stroke-linecap: square"/>
   </g>
   <g id="line2d_67">
    <path d="M 169.807911 240.138566 
L 170.213034 241.723943 
L 170.618158 243.292796 
L 171.023282 244.84474 
L 171.428406 246.379394 
L 171.83353 247.896382 
" clip-path="url(#p7cdc139345)" style="fill: none; stroke: #008000; stroke-width: 1.5; stroke-linecap: square"/>
   </g>
   <g id="line2d_68">
    <path d="M 171.849763 247.956802 
L 172.254887 249.455018 
L 172.660011 250.93481 
L 173.065135 252.395813 
L 173.470259 253.83767 
L 173.875383 255.260026 
" clip-path="url(#p7cdc139345)" style="fill: none; stroke: #008000; stroke-width: 1.5; stroke-linecap: square"/>
   </g>
   <g id="line2d_69">
    <path d="M 173.891616 255.316616 
L 174.296739 256.718318 
L 174.701863 258.099809 
L 175.106987 259.460751 
L 175.512111 260.800808 
L 175.917235 262.119653 
" clip-path="url(#p7cdc139345)" style="fill: none; stroke: #008000; stroke-width: 1.5; stroke-linecap: square"/>
   </g>
   <g id="line2d_70">
    <path d="M 175.933468 262.172059 
L 176.338592 263.468496 
L 176.743716 264.743063 
L 177.14884 265.995446 
L 177.553964 267.225338 
L 177.959088 268.432438 
" clip-path="url(#p7cdc139345)" style="fill: none; stroke: #008000; stroke-width: 1.5; stroke-linecap: square"/>
   </g>
   <g id="line2d_71">
    <path d="M 177.97532 268.480333 
L 178.380444 269.663412 
L 178.785568 270.823096 
L 179.190692 271.959102 
L 179.595816 273.071151 
L 180.00094 274.158969 
" clip-path="url(#p7cdc139345)" style="fill: none; stroke: #008000; stroke-width: 1.5; stroke-linecap: square"/>
   </g>
   <g id="line2d_72">
    <path d="M 180.017173 274.202055 
L 180.422297 275.264388 
L 180.827421 276.30195 
L 181.232545 277.314487 
L 181.637669 278.30175 
L 182.042793 279.263496 
" clip-path="url(#p7cdc139345)" style="fill: none; stroke: #008000; stroke-width: 1.5; stroke-linecap: square"/>
   </g>
   <g id="line2d_73">
    <path d="M 182.059025 279.301503 
L 182.464149 280.236459 
L 182.869273 281.145421 
L 183.274397 282.028167 
L 183.679521 282.88448 
L 184.084645 283.71415 
" clip-path="url(#p7cdc139345)" style="fill: none; stroke: #008000; stroke-width: 1.5; stroke-linecap: square"/>
   </g>
   <g id="line2d_74">
    <path d="M 184.100878 283.74684 
L 184.506002 284.548582 
L 184.911126 285.32327 
L 185.31625 286.070714 
L 185.721374 286.790732 
L 186.126498 287.483145 
" clip-path="url(#p7cdc139345)" style="fill: none; stroke: #008000; stroke-width: 1.5; stroke-linecap: square"/>
   </g>
   <g id="line2d_75">
    <path d="M 186.14273 287.510315 
L 186.547854 288.173838 
L 186.952978 288.809415 
L 187.358102 289.416891 
L 187.763226 289.996117 
L 188.16835 290.546951 
" clip-path="url(#p7cdc139345)" style="fill: none; stroke: #008000; stroke-width: 1.5; stroke-linecap: square"/>
   </g>
   <g id="line2d_76">
    <path d="M 188.184583 290.568432 
L 188.589707 291.089592 
L 188.994831 291.58209 
L 189.399955 292.045806 
L 189.805079 292.480625 
L 190.210203 292.886441 
" clip-path="url(#p7cdc139345)" style="fill: none; stroke: #008000; stroke-width: 1.5; stroke-linecap: square"/>
   </g>
   <g id="line2d_77">
    <path d="M 190.226435 292.902098 
L 190.631559 293.277643 
L 191.036683 293.623987 
L 191.441807 293.941047 
L 191.846931 294.228745 
L 192.252055 294.487009 
" clip-path="url(#p7cdc139345)" style="fill: none; stroke: #008000; stroke-width: 1.5; stroke-linecap: square"/>
   </g>
   <g id="line2d_78">
    <path d="M 192.268288 294.496744 
L 192.673412 294.724329 
L 193.078536 294.922357 
L 193.48366 295.090782 
L 193.888784 295.229562 
L 194.293908 295.338662 
" clip-path="url(#p7cdc139345)" style="fill: none; stroke: #008000; stroke-width: 1.5; stroke-linecap: square"/>
   </g>
   <g id="line2d_79">
    <path d="M 194.31014 295.342415 
L 194.715264 295.420618 
L 195.120388 295.469095 
L 195.525512 295.487833 
L 195.930636 295.476829 
L 196.33576 295.436084 
" clip-path="url(#p7cdc139345)" style="fill: none; stroke: #008000; stroke-width: 1.5; stroke-linecap: square"/>
   </g>
   <g id="line2d_80">
    <path d="M 196.351993 295.433831 
L 196.757117 295.362165 
L 197.162241 295.260787 
L 197.567365 295.129722 
L 197.972489 294.969002 
L 198.377613 294.778666 
" clip-path="url(#p7cdc139345)" style="fill: none; stroke: #008000; stroke-width: 1.5; stroke-linecap: square"/>
   </g>
   <g id="line2d_81">
    <path d="M 198.393845 294.770422 
L 198.798969 294.549334 
L 199.204093 294.298734 
L 199.609217 294.018683 
L 200.014341 293.709251 
L 200.419465 293.370513 
" clip-path="url(#p7cdc139345)" style="fill: none; stroke: #008000; stroke-width: 1.5; stroke-linecap: square"/>
   </g>
   <g id="line2d_82">
    <path d="M 200.435698 293.356328 
L 200.840822 292.987198 
L 201.245946 292.588941 
L 201.65107 292.161654 
L 202.056194 291.705441 
L 202.461318 291.220415 
" clip-path="url(#p7cdc139345)" style="fill: none; stroke: #008000; stroke-width: 1.5; stroke-linecap: square"/>
   </g>
   <g id="line2d_83">
    <path d="M 202.47755 291.200379 
L 202.882674 290.685512 
L 203.287798 290.142084 
L 203.692922 289.570227 
L 204.098046 288.970082 
L 204.50317 288.341797 
" clip-path="url(#p7cdc139345)" style="fill: none; stroke: #008000; stroke-width: 1.5; stroke-linecap: square"/>
   </g>
   <g id="line2d_84">
    <path d="M 204.519403 288.316034 
L 204.924527 287.658644 
L 205.329651 286.973437 
L 205.734775 286.260581 
L 206.139899 285.520251 
L 206.545023 284.752629 
" clip-path="url(#p7cdc139345)" style="fill: none; stroke: #008000; stroke-width: 1.5; stroke-linecap: square"/>
   </g>
   <g id="line2d_85">
    <path d="M 206.561255 284.7213 
L 206.966379 283.925492 
L 207.371503 283.102785 
L 207.776627 282.25338 
L 208.181751 281.377486 
L 208.586875 280.475319 
" clip-path="url(#p7cdc139345)" style="fill: none; stroke: #008000; stroke-width: 1.5; stroke-linecap: square"/>
   </g>
   <g id="line2d_86">
    <path d="M 208.603108 280.43862 
L 209.008232 279.509361 
L 209.413356 278.55429 
L 209.81848 277.573639 
L 210.223604 276.56765 
L 210.628728 275.53657 
" clip-path="url(#p7cdc139345)" style="fill: none; stroke: #008000; stroke-width: 1.5; stroke-linecap: square"/>
   </g>
   <g id="line2d_87">
    <path d="M 210.64496 275.49473 
L 211.050084 274.437823 
L 211.455208 273.35635 
L 211.860332 272.250575 
L 212.265456 271.120772 
L 212.67058 269.967216 
" clip-path="url(#p7cdc139345)" style="fill: none; stroke: #008000; stroke-width: 1.5; stroke-linecap: square"/>
   </g>
   <g id="line2d_88">
    <path d="M 212.686813 269.920496 
L 213.091937 268.742539 
L 213.497061 267.541415 
L 213.902185 266.317421 
L 214.307309 265.070856 
L 214.712433 263.802027 
" clip-path="url(#p7cdc139345)" style="fill: none; stroke: #008000; stroke-width: 1.5; stroke-linecap: square"/>
   </g>
   <g id="line2d_89">
    <path d="M 214.728665 263.750719 
L 215.133789 262.459065 
L 215.538913 261.14579 
L 215.944037 259.811217 
L 216.349161 258.455674 
L 216.754285 257.079492 
" clip-path="url(#p7cdc139345)" style="fill: none; stroke: #008000; stroke-width: 1.5; stroke-linecap: square"/>
   </g>
   <g id="line2d_90">
    <path d="M 216.770518 257.023916 
L 217.175642 255.62663 
L 217.580766 254.209403 
L 217.98589 252.772583 
L 218.391014 251.316523 
L 218.796137 249.841581 
" clip-path="url(#p7cdc139345)" style="fill: none; stroke: #008000; stroke-width: 1.5; stroke-linecap: square"/>
   </g>
   <g id="line2d_91">
    <path d="M 218.81237 249.782084 
L 219.217494 248.287889 
L 219.622618 246.775557 
L 220.027742 245.245461 
L 220.432866 243.697975 
L 220.83799 242.133481 
" clip-path="url(#p7cdc139345)" style="fill: none; stroke: #008000; stroke-width: 1.5; stroke-linecap: square"/>
   </g>
   <g id="line2d_92">
    <path d="M 220.854223 242.070434 
L 221.259347 240.488658 
L 221.664471 238.890664 
L 222.069595 237.276843 
L 222.474719 235.647593 
L 222.879842 234.003313 
" clip-path="url(#p7cdc139345)" style="fill: none; stroke: #008000; stroke-width: 1.5; stroke-linecap: square"/>
   </g>
   <g id="line2d_93">
    <path d="M 222.896075 233.937111 
L 223.301199 232.277629 
L 223.706323 230.603948 
L 224.111447 228.916479 
L 224.516571 227.215636 
L 224.921695 225.501836 
" clip-path="url(#p7cdc139345)" style="fill: none; stroke: #008000; stroke-width: 1.5; stroke-linecap: square"/>
   </g>
   <g id="line2d_94">
    <path d="M 224.937928 225.432892 
L 225.343052 223.706065 
L 225.748176 221.967146 
L 226.1533 220.216563 
L 226.558423 218.454745 
L 226.963547 216.682125 
" clip-path="url(#p7cdc139345)" style="fill: none; stroke: #008000; stroke-width: 1.5; stroke-linecap: square"/>
   </g>
   <g id="line2d_95">
    <path d="M 226.97978 216.610868 
L 227.384904 214.827477 
L 227.790028 213.034177 
L 228.195152 211.231409 
L 228.600276 209.419616 
L 229.0054 207.599242 
" clip-path="url(#p7cdc139345)" style="fill: none; stroke: #008000; stroke-width: 1.5; stroke-linecap: square"/>
   </g>
   <g id="line2d_96">
    <path d="M 229.021633 207.526118 
L 229.426757 205.697296 
L 229.831881 203.86081 
L 230.237005 202.017113 
L 230.642128 200.166655 
L 231.047252 198.309892 
" clip-path="url(#p7cdc139345)" style="fill: none; stroke: #008000; stroke-width: 1.5; stroke-linecap: square"/>
   </g>
   <g id="line2d_97">
    <path d="M 231.063485 198.235358 
L 231.468609 196.372522 
L 231.873733 194.504317 
L 232.278857 192.631199 
L 232.683981 190.75363 
L 233.089105 188.87207 
" clip-path="url(#p7cdc139345)" style="fill: none; stroke: #008000; stroke-width: 1.5; stroke-linecap: square"/>
   </g>
   <g id="line2d_98">
    <path d="M 233.105338 188.79659 
L 233.510462 186.911371 
L 233.915586 185.023109 
L 234.320709 183.132266 
L 234.725833 181.239307 
L 235.130957 179.344697 
" clip-path="url(#p7cdc139345)" style="fill: none; stroke: #008000; stroke-width: 1.5; stroke-linecap: square"/>
   </g>
   <g id="line2d_99">
    <path d="M 235.14719 179.268742 
L 235.552314 177.37291 
L 235.957438 175.476379 
L 236.362562 173.579616 
L 236.767686 171.683085 
L 237.17281 169.787252 
" clip-path="url(#p7cdc139345)" style="fill: none; stroke: #008000; stroke-width: 1.5; stroke-linecap: square"/>
   </g>
   <g id="line2d_100">
    <path d="M 237.189043 169.711298 
L 237.594167 167.816688 
L 237.999291 165.923729 
L 238.404414 164.032886 
L 238.809538 162.144623 
L 239.214662 160.259405 
" clip-path="url(#p7cdc139345)" style="fill: none; stroke: #008000; stroke-width: 1.5; stroke-linecap: square"/>
   </g>
   <g id="line2d_101">
    <path d="M 239.230895 160.183924 
L 239.636019 158.302364 
L 240.041143 156.424795 
L 240.446267 154.551678 
L 240.851391 152.683473 
L 241.256515 150.820637 
" clip-path="url(#p7cdc139345)" style="fill: none; stroke: #008000; stroke-width: 1.5; stroke-linecap: square"/>
   </g>
   <g id="line2d_102">
    <path d="M 241.272748 150.746102 
L 241.677872 148.88934 
L 242.082995 147.038882 
L 242.488119 145.195185 
L 242.893243 143.358699 
L 243.298367 141.529877 
" clip-path="url(#p7cdc139345)" style="fill: none; stroke: #008000; stroke-width: 1.5; stroke-linecap: square"/>
   </g>
   <g id="line2d_103">
    <path d="M 243.3146 141.456753 
L 243.719724 139.636379 
L 244.124848 137.824586 
L 244.529972 136.021818 
L 244.935096 134.228518 
L 245.34022 132.445127 
" clip-path="url(#p7cdc139345)" style="fill: none; stroke: #008000; stroke-width: 1.5; stroke-linecap: square"/>
   </g>
   <g id="line2d_104">
    <path d="M 245.356453 132.37387 
L 245.761577 130.60125 
L 246.1667 128.839432 
L 246.571824 127.088849 
L 246.976948 125.349931 
L 247.382072 123.623104 
" clip-path="url(#p7cdc139345)" style="fill: none; stroke: #008000; stroke-width: 1.5; stroke-linecap: square"/>
   </g>
   <g id="line2d_105">
    <path d="M 247.398305 123.554159 
L 247.803429 121.84036 
L 248.208553 120.139516 
L 248.613677 118.452047 
L 249.018801 116.778367 
L 249.423925 115.118885 
" clip-path="url(#p7cdc139345)" style="fill: none; stroke: #008000; stroke-width: 1.5; stroke-linecap: square"/>
   </g>
   <g id="line2d_106">
    <path d="M 249.440158 115.052683 
L 249.845281 113.408403 
L 250.250405 111.779153 
L 250.655529 110.165333 
L 251.060653 108.567338 
L 251.465777 106.985562 
" clip-path="url(#p7cdc139345)" style="fill: none; stroke: #008000; stroke-width: 1.5; stroke-linecap: square"/>
   </g>
   <g id="line2d_107">
    <path d="M 251.48201 106.922516 
L 251.887134 105.358021 
L 252.292258 103.810536 
L 252.697382 102.28044 
L 253.102506 100.768108 
L 253.50763 99.273913 
" clip-path="url(#p7cdc139345)" style="fill: none; stroke: #008000; stroke-width: 1.5; stroke-linecap: square"/>
   </g>
   <g id="line2d_108">
    <path d="M 253.523863 99.214416 
L 253.928986 97.739474 
L 254.33411 96.283414 
L 254.739234 94.846595 
L 255.144358 93.429368 
L 255.549482 92.032082 
" clip-path="url(#p7cdc139345)" style="fill: none; stroke: #008000; stroke-width: 1.5; stroke-linecap: square"/>
   </g>
   <g id="line2d_109">
    <path d="M 255.565715 91.976506 
L 255.970839 90.600324 
L 256.375963 89.244781 
L 256.781087 87.910208 
L 257.186211 86.596934 
L 257.591335 85.30528 
" clip-path="url(#p7cdc139345)" style="fill: none; stroke: #008000; stroke-width: 1.5; stroke-linecap: square"/>
   </g>
   <g id="line2d_110">
    <path d="M 257.607567 85.253972 
L 258.012691 83.985143 
L 258.417815 82.738578 
L 258.822939 81.514584 
L 259.228063 80.313461 
L 259.633187 79.135503 
" clip-path="url(#p7cdc139345)" style="fill: none; stroke: #008000; stroke-width: 1.5; stroke-linecap: square"/>
   </g>
   <g id="line2d_111">
    <path d="M 259.64942 79.088783 
L 260.054544 77.935228 
L 260.459668 76.805425 
L 260.864792 75.699651 
L 261.269916 74.618177 
L 261.67504 73.561271 
" clip-path="url(#p7cdc139345)" style="fill: none; stroke: #008000; stroke-width: 1.5; stroke-linecap: square"/>
   </g>
   <g id="line2d_112">
    <path d="M 261.691272 73.519431 
L 262.096396 72.488351 
L 262.50152 71.482362 
L 262.906644 70.501712 
L 263.311768 69.54664 
L 263.716892 68.617382 
" clip-path="url(#p7cdc139345)" style="fill: none; stroke: #008000; stroke-width: 1.5; stroke-linecap: square"/>
   </g>
   <g id="line2d_113">
    <path d="M 263.733125 68.580683 
L 264.138249 67.678516 
L 264.543373 66.802623 
L 264.948497 65.953218 
L 265.353621 65.130511 
L 265.758745 64.334703 
" clip-path="url(#p7cdc139345)" style="fill: none; stroke: #008000; stroke-width: 1.5; stroke-linecap: square"/>
   </g>
   <g id="line2d_114">
    <path d="M 265.774977 64.303375 
L 266.180101 63.535752 
L 266.585225 62.795422 
L 266.990349 62.082567 
L 267.395473 61.39736 
L 267.800597 60.739971 
" clip-path="url(#p7cdc139345)" style="fill: none; stroke: #008000; stroke-width: 1.5; stroke-linecap: square"/>
   </g>
   <g id="line2d_115">
    <path d="M 267.81683 60.714208 
L 268.221954 60.085923 
L 268.627078 59.485778 
L 269.032202 58.913922 
L 269.437326 58.370494 
L 269.84245 57.855627 
" clip-path="url(#p7cdc139345)" style="fill: none; stroke: #008000; stroke-width: 1.5; stroke-linecap: square"/>
   </g>
   <g id="line2d_116">
    <path d="M 269.858682 57.835591 
L 270.263806 57.350566 
L 270.66893 56.894353 
L 271.074054 56.467066 
L 271.479178 56.068809 
L 271.884302 55.69968 
" clip-path="url(#p7cdc139345)" style="fill: none; stroke: #008000; stroke-width: 1.5; stroke-linecap: square"/>
   </g>
   <g id="line2d_117">
    <path d="M 271.900535 55.685495 
L 272.305659 55.346757 
L 272.710783 55.037325 
L 273.115907 54.757275 
L 273.521031 54.506676 
L 273.926155 54.285588 
" clip-path="url(#p7cdc139345)" style="fill: none; stroke: #008000; stroke-width: 1.5; stroke-linecap: square"/>
   </g>
   <g id="line2d_118">
    <path d="M 273.942387 54.277344 
L 274.347511 54.087008 
L 274.752635 53.926289 
L 275.157759 53.795224 
L 275.562883 53.693846 
L 275.968007 53.62218 
" clip-path="url(#p7cdc139345)" style="fill: none; stroke: #008000; stroke-width: 1.5; stroke-linecap: square"/>
   </g>
   <g id="line2d_119">
    <path d="M 275.98424 53.619928 
L 276.389364 53.579183 
L 276.794488 53.568179 
L 277.199612 53.586918 
L 277.604736 53.635395 
L 278.00986 53.713598 
" clip-path="url(#p7cdc139345)" style="fill: none; stroke: #008000; stroke-width: 1.5; stroke-linecap: square"/>
   </g>
   <g id="line2d_120">
    <path d="M 278.026092 53.717351 
L 278.431216 53.826452 
L 278.83634 53.965232 
L 279.241464 54.133657 
L 279.646588 54.331687 
L 280.051712 54.559271 
" clip-path="url(#p7cdc139345)" style="fill: none; stroke: #008000; stroke-width: 1.5; stroke-linecap: square"/>
   </g>
   <g id="line2d_121">
    <path d="M 280.067945 54.569007 
L 280.473069 54.827271 
L 280.878193 55.114969 
L 281.283317 55.43203 
L 281.688441 55.778375 
L 282.093565 56.15392 
" clip-path="url(#p7cdc139345)" style="fill: none; stroke: #008000; stroke-width: 1.5; stroke-linecap: square"/>
   </g>
   <g id="line2d_122">
    <path d="M 282.109797 56.169577 
L 282.514921 56.575393 
L 282.920045 57.010213 
L 283.325169 57.473929 
L 283.730293 57.966427 
L 284.135417 58.487588 
" clip-path="url(#p7cdc139345)" style="fill: none; stroke: #008000; stroke-width: 1.5; stroke-linecap: square"/>
   </g>
   <g id="line2d_123">
    <path d="M 284.15165 58.509069 
L 284.556774 59.059903 
L 284.961898 59.63913 
L 285.367022 60.246606 
L 285.772146 60.882184 
L 286.17727 61.545706 
" clip-path="url(#p7cdc139345)" style="fill: none; stroke: #008000; stroke-width: 1.5; stroke-linecap: square"/>
   </g>
   <g id="line2d_124">
    <path d="M 286.193502 61.572877 
L 286.598626 62.265291 
L 287.00375 62.985308 
L 287.408874 63.732753 
L 287.813998 64.507441 
L 288.219122 65.309183 
" clip-path="url(#p7cdc139345)" style="fill: none; stroke: #008000; stroke-width: 1.5; stroke-linecap: square"/>
   </g>
   <g id="line2d_125">
    <path d="M 288.235355 65.341874 
L 288.640479 66.171544 
L 289.045603 67.027857 
L 289.450727 67.910604 
L 289.855851 68.819567 
L 290.260975 69.754523 
" clip-path="url(#p7cdc139345)" style="fill: none; stroke: #008000; stroke-width: 1.5; stroke-linecap: square"/>
   </g>
   <g id="line2d_126">
    <path d="M 290.277207 69.79253 
L 290.682331 70.754277 
L 291.087455 71.74154 
L 291.492579 72.754077 
L 291.897703 73.791639 
L 292.302827 74.853973 
" clip-path="url(#p7cdc139345)" style="fill: none; stroke: #008000; stroke-width: 1.5; stroke-linecap: square"/>
   </g>
   <g id="line2d_127">
    <path d="M 292.31906 74.897058 
L 292.724184 75.984877 
L 293.129308 77.096926 
L 293.534432 78.232933 
L 293.939556 79.392618 
L 294.34468 80.575696 
" clip-path="url(#p7cdc139345)" style="fill: none; stroke: #008000; stroke-width: 1.5; stroke-linecap: square"/>
   </g>
   <g id="line2d_128">
    <path d="M 294.360912 80.623591 
L 294.766036 81.830691 
L 295.17116 83.060584 
L 295.576284 84.312967 
L 295.981408 85.587534 
L 296.386532 86.883972 
" clip-path="url(#p7cdc139345)" style="fill: none; stroke: #008000; stroke-width: 1.5; stroke-linecap: square"/>
   </g>
   <g id="line2d_129">
    <path d="M 296.402765 86.936378 
L 296.807889 88.255223 
L 297.213013 89.595281 
L 297.618137 90.956222 
L 298.023261 92.337714 
L 298.428384 93.739416 
" clip-path="url(#p7cdc139345)" style="fill: none; stroke: #008000; stroke-width: 1.5; stroke-linecap: square"/>
   </g>
   <g id="line2d_130">
    <path d="M 298.444617 93.796006 
L 298.849741 95.218362 
L 299.254865 96.660219 
L 299.659989 98.121223 
L 300.065113 99.601015 
L 300.470237 101.099231 
" clip-path="url(#p7cdc139345)" style="fill: none; stroke: #008000; stroke-width: 1.5; stroke-linecap: square"/>
   </g>
   <g id="line2d_131">
    <path d="M 300.48647 101.159651 
L 300.891594 102.676639 
L 301.296718 104.211293 
L 301.701842 105.763237 
L 302.106966 107.332091 
L 302.512089 108.917468 
" clip-path="url(#p7cdc139345)" style="fill: none; stroke: #008000; stroke-width: 1.5; stroke-linecap: square"/>
   </g>
   <g id="line2d_132">
    <path d="M 302.528322 108.981341 
L 302.933446 110.583489 
L 303.33857 112.20136 
L 303.743694 113.834556 
L 304.148818 115.482677 
L 304.553942 117.145317 
" clip-path="url(#p7cdc139345)" style="fill: none; stroke: #008000; stroke-width: 1.5; stroke-linecap: square"/>
   </g>
   <g id="line2d_133">
    <path d="M 304.570175 117.212244 
L 304.975299 118.889551 
L 305.380423 120.580538 
L 305.785547 122.284789 
L 306.19067 124.001887 
L 306.595794 125.731411 
" clip-path="url(#p7cdc139345)" style="fill: none; stroke: #008000; stroke-width: 1.5; stroke-linecap: square"/>
   </g>
   <g id="line2d_134">
    <path d="M 306.612027 125.800974 
L 307.017151 127.542968 
L 307.422275 129.296514 
L 307.827399 131.061181 
L 308.232523 132.836537 
L 308.637647 134.622145 
" clip-path="url(#p7cdc139345)" style="fill: none; stroke: #008000; stroke-width: 1.5; stroke-linecap: square"/>
   </g>
   <g id="line2d_135">
    <path d="M 308.65388 134.693911 
L 309.059004 136.489716 
L 309.464128 138.294873 
L 309.869252 140.108939 
L 310.274375 141.931469 
L 310.679499 143.762015 
" clip-path="url(#p7cdc139345)" style="fill: none; stroke: #008000; stroke-width: 1.5; stroke-linecap: square"/>
   </g>
   <g id="line2d_136">
    <path d="M 310.695732 143.835535 
L 311.100856 145.67394 
L 311.50598 147.519439 
L 311.911104 149.371579 
L 312.316228 151.229904 
L 312.721352 153.09396 
" clip-path="url(#p7cdc139345)" style="fill: none; stroke: #008000; stroke-width: 1.5; stroke-linecap: square"/>
   </g>
   <g id="line2d_137">
    <path d="M 312.737585 153.168775 
L 313.142709 155.038303 
L 313.547833 156.912621 
L 313.952956 158.791271 
L 314.35808 160.673791 
L 314.763204 162.559719 
" clip-path="url(#p7cdc139345)" style="fill: none; stroke: #008000; stroke-width: 1.5; stroke-linecap: square"/>
   </g>
   <g id="line2d_138">
    <path d="M 314.779437 162.635362 
L 315.184561 164.524341 
L 315.589685 166.415778 
L 315.994809 168.309209 
L 316.399933 170.204171 
L 316.805057 172.100196 
" clip-path="url(#p7cdc139345)" style="fill: none; stroke: #008000; stroke-width: 1.5; stroke-linecap: square"/>
   </g>
   <g id="line2d_139">
    <path d="M 316.82129 172.176195 
L 317.226414 174.072832 
L 317.631538 175.969579 
L 318.036661 177.865972 
L 318.441785 179.761544 
L 318.846909 181.65583 
" clip-path="url(#p7cdc139345)" style="fill: none; stroke: #008000; stroke-width: 1.5; stroke-linecap: square"/>
   </g>
   <g id="line2d_140">
    <path d="M 318.863142 181.73171 
L 319.268266 183.624164 
L 319.67339 185.51438 
L 320.078514 187.401894 
L 320.483638 189.286243 
L 320.888762 191.166964 
" clip-path="url(#p7cdc139345)" style="fill: none; stroke: #008000; stroke-width: 1.5; stroke-linecap: square"/>
   </g>
   <g id="line2d_141">
    <path d="M 320.904995 191.242252 
L 321.310119 193.118708 
L 321.715242 194.990592 
L 322.120366 196.857444 
L 322.52549 198.718805 
L 322.930614 200.574219 
" clip-path="url(#p7cdc139345)" style="fill: none; stroke: #008000; stroke-width: 1.5; stroke-linecap: square"/>
   </g>
   <g id="line2d_142">
    <path d="M 322.946847 200.648445 
L 323.351971 202.497188 
L 323.757095 204.339053 
L 324.162219 206.173588 
L 324.567343 208.000341 
L 324.972467 209.818865 
" clip-path="url(#p7cdc139345)" style="fill: none; stroke: #008000; stroke-width: 1.5; stroke-linecap: square"/>
   </g>
   <g id="line2d_143">
    <path d="M 324.9887 209.891565 
L 325.393824 211.701054 
L 325.798947 213.501402 
L 326.204071 215.292166 
L 326.609195 217.072906 
L 327.014319 218.843187 
" clip-path="url(#p7cdc139345)" style="fill: none; stroke: #008000; stroke-width: 1.5; stroke-linecap: square"/>
   </g>
   <g id="line2d_144">
    <path d="M 327.030552 218.913907 
L 327.435676 220.672845 
L 327.8408 222.420435 
L 328.245924 224.156249 
L 328.651048 225.87986 
L 329.056172 227.590844 
" clip-path="url(#p7cdc139345)" style="fill: none; stroke: #008000; stroke-width: 1.5; stroke-linecap: square"/>
   </g>
   <g id="line2d_145">
    <path d="M 329.072405 227.659143 
L 329.477528 229.356549 
L 329.882652 231.040472 
L 330.287776 232.710498 
L 330.6929 234.366218 
L 331.098024 236.007226 
" clip-path="url(#p7cdc139345)" style="fill: none; stroke: #008000; stroke-width: 1.5; stroke-linecap: square"/>
   </g>
   <g id="line2d_146">
    <path d="M 331.114257 236.072677 
L 331.519381 237.697954 
L 331.924505 239.307696 
L 332.329629 240.901509 
L 332.734753 242.479002 
L 333.139877 244.039787 
" clip-path="url(#p7cdc139345)" style="fill: none; stroke: #008000; stroke-width: 1.5; stroke-linecap: square"/>
   </g>
   <g id="line2d_147">
    <path d="M 333.15611 244.101982 
L 333.561233 245.644982 
L 333.966357 247.170494 
L 334.371481 248.678144 
L 334.776605 250.167561 
L 335.181729 251.63838 
" clip-path="url(#p7cdc139345)" style="fill: none; stroke: #008000; stroke-width: 1.5; stroke-linecap: square"/>
   </g>
   <g id="line2d_148">
    <path d="M 335.197962 251.696931 
L 335.603086 253.148022 
L 336.00821 254.57978 
L 336.413334 255.991853 
L 336.818458 257.383896 
L 337.223582 258.755566 
" clip-path="url(#p7cdc139345)" style="fill: none; stroke: #008000; stroke-width: 1.5; stroke-linecap: square"/>
   </g>
   <g id="line2d_149">
    <path d="M 337.239814 258.810107 
L 337.644938 260.160229 
L 338.050062 261.489294 
L 338.455186 262.796976 
L 338.86031 264.082954 
L 339.265434 265.346912 
" clip-path="url(#p7cdc139345)" style="fill: none; stroke: #008000; stroke-width: 1.5; stroke-linecap: square"/>
   </g>
   <g id="line2d_150">
    <path d="M 339.281667 265.397102 
L 339.686791 266.637827 
L 340.091915 267.855902 
L 340.497039 269.051029 
L 340.902163 270.222913 
L 341.307287 271.371268 
" clip-path="url(#p7cdc139345)" style="fill: none; stroke: #008000; stroke-width: 1.5; stroke-linecap: square"/>
   </g>
   <g id="line2d_151">
    <path d="M 341.323519 271.416794 
L 341.728643 272.540375 
L 342.133767 273.639856 
L 342.538891 274.714966 
L 342.944015 275.76544 
L 343.349139 276.791023 
" clip-path="url(#p7cdc139345)" style="fill: none; stroke: #008000; stroke-width: 1.5; stroke-linecap: square"/>
   </g>
   <g id="line2d_152">
    <path d="M 343.365372 276.8316 
L 343.770496 277.831024 
L 344.17562 278.805046 
L 344.580744 279.753427 
L 344.985868 280.675934 
L 345.390992 281.572341 
" clip-path="url(#p7cdc139345)" style="fill: none; stroke: #008000; stroke-width: 1.5; stroke-linecap: square"/>
   </g>
   <g id="line2d_153">
    <path d="M 345.407224 281.607717 
L 345.812348 282.476744 
L 346.217472 283.319226 
L 346.622596 284.134957 
L 347.02772 284.923737 
L 347.432844 285.685372 
" clip-path="url(#p7cdc139345)" style="fill: none; stroke: #008000; stroke-width: 1.5; stroke-linecap: square"/>
   </g>
   <g id="line2d_154">
    <path d="M 347.449077 285.715326 
L 347.854201 286.44853 
L 348.259325 287.154213 
L 348.664449 287.832202 
L 349.069573 288.48233 
L 349.474697 289.104439 
" clip-path="url(#p7cdc139345)" style="fill: none; stroke: #008000; stroke-width: 1.5; stroke-linecap: square"/>
   </g>
   <g id="line2d_155">
    <path d="M 349.490929 289.128784 
L 349.896053 289.721587 
L 350.301177 290.286065 
L 350.706301 290.822079 
L 351.111425 291.329497 
L 351.516549 291.808196 
" clip-path="url(#p7cdc139345)" style="fill: none; stroke: #008000; stroke-width: 1.5; stroke-linecap: square"/>
   </g>
   <g id="line2d_156">
    <path d="M 351.532782 291.826779 
L 351.937906 292.275482 
L 352.34303 292.69523 
L 352.748154 293.085923 
L 353.153278 293.447463 
L 353.558402 293.779763 
" clip-path="url(#p7cdc139345)" style="fill: none; stroke: #008000; stroke-width: 1.5; stroke-linecap: square"/>
   </g>
   <g id="line2d_157">
    <path d="M 353.574634 293.792469 
L 353.979758 294.094269 
L 354.384882 294.366668 
L 354.790006 294.6096 
L 355.19513 294.823005 
L 355.600254 295.006831 
" clip-path="url(#p7cdc139345)" style="fill: none; stroke: #008000; stroke-width: 1.5; stroke-linecap: square"/>
   </g>
   <g id="line2d_158">
    <path d="M 355.616487 295.013581 
L 356.021611 295.166594 
L 356.426735 295.289944 
L 356.831859 295.383598 
L 357.236983 295.447536 
L 357.642107 295.481741 
" clip-path="url(#p7cdc139345)" style="fill: none; stroke: #008000; stroke-width: 1.5; stroke-linecap: square"/>
   </g>
   <g id="line2d_159">
    <path d="M 357.658339 295.482492 
L 358.063463 295.485763 
L 358.468587 295.459292 
L 358.873711 295.403086 
L 359.278835 295.317157 
L 359.683959 295.201527 
" clip-path="url(#p7cdc139345)" style="fill: none; stroke: #008000; stroke-width: 1.5; stroke-linecap: square"/>
   </g>
   <g id="line2d_160">
    <path d="M 359.700192 295.196274 
L 360.105316 295.049783 
L 360.51044 294.873658 
L 360.915564 294.66794 
L 361.320688 294.432681 
L 361.725812 294.167938 
" clip-path="url(#p7cdc139345)" style="fill: none; stroke: #008000; stroke-width: 1.5; stroke-linecap: square"/>
   </g>
   <g id="line2d_161">
    <path d="M 361.742044 294.156715 
L 362.147168 293.861377 
L 362.552292 293.536696 
L 362.957416 293.182751 
L 363.36254 292.799631 
L 363.767664 292.387428 
" clip-path="url(#p7cdc139345)" style="fill: none; stroke: #008000; stroke-width: 1.5; stroke-linecap: square"/>
   </g>
   <g id="line2d_162">
    <path d="M 363.783897 292.370305 
L 364.189021 291.927963 
L 364.594145 291.456753 
L 364.999269 290.956792 
L 365.404393 290.428202 
L 365.809517 289.871113 
" clip-path="url(#p7cdc139345)" style="fill: none; stroke: #008000; stroke-width: 1.5; stroke-linecap: square"/>
   </g>
   <g id="line2d_163">
    <path d="M 365.825749 289.848196 
L 366.230873 289.261612 
L 366.635997 288.646816 
L 367.041121 288.00396 
L 367.446245 287.3332 
L 367.851369 286.634703 
" clip-path="url(#p7cdc139345)" style="fill: none; stroke: #008000; stroke-width: 1.5; stroke-linecap: square"/>
   </g>
   <g id="line2d_164">
    <path d="M 367.867602 286.606135 
L 368.272726 285.878971 
L 368.67785 285.124426 
L 369.082974 284.342688 
L 369.488098 283.533947 
L 369.893222 282.698401 
" clip-path="url(#p7cdc139345)" style="fill: none; stroke: #008000; stroke-width: 1.5; stroke-linecap: square"/>
   </g>
   <g id="line2d_165">
    <path d="M 369.909454 282.664361 
L 370.314578 281.801156 
L 370.719702 280.911574 
L 371.124826 279.995834 
L 371.52995 279.05416 
L 371.935074 278.086782 
" clip-path="url(#p7cdc139345)" style="fill: none; stroke: #008000; stroke-width: 1.5; stroke-linecap: square"/>
   </g>
   <g id="line2d_166">
    <path d="M 371.951307 278.047482 
L 372.356431 277.053626 
L 372.761555 276.03456 
L 373.166679 274.990534 
L 373.571803 273.921805 
L 373.976927 272.828636 
" clip-path="url(#p7cdc139345)" style="fill: none; stroke: #008000; stroke-width: 1.5; stroke-linecap: square"/>
   </g>
   <g id="line2d_167">
    <path d="M 373.993159 272.784321 
L 374.398283 271.666018 
L 374.803407 270.523829 
L 375.208531 269.358037 
L 375.613655 268.168926 
L 376.018779 266.956789 
" clip-path="url(#p7cdc139345)" style="fill: none; stroke: #008000; stroke-width: 1.5; stroke-linecap: square"/>
   </g>
   <g id="line2d_168">
    <path d="M 376.035012 266.907737 
L 376.440136 265.671968 
L 376.84526 264.41379 
L 377.250384 263.133509 
L 377.655508 261.831442 
L 378.060631 260.507907 
" clip-path="url(#p7cdc139345)" style="fill: none; stroke: #008000; stroke-width: 1.5; stroke-linecap: square"/>
   </g>
   <g id="line2d_169">
    <path d="M 378.076864 260.454423 
L 378.481988 259.108906 
L 378.887112 257.742594 
L 379.292236 256.35582 
L 379.69736 254.948927 
L 380.102484 253.522259 
" clip-path="url(#p7cdc139345)" style="fill: none; stroke: #008000; stroke-width: 1.5; stroke-linecap: square"/>
   </g>
   <g id="line2d_170">
    <path d="M 380.118717 253.464677 
L 380.523841 252.017814 
L 380.928965 250.5519 
L 381.334089 249.067292 
L 381.739213 247.564356 
L 382.144336 246.043461 
" clip-path="url(#p7cdc139345)" style="fill: none; stroke: #008000; stroke-width: 1.5; stroke-linecap: square"/>
   </g>
   <g id="line2d_171">
    <path d="M 382.160569 245.982142 
L 382.565693 244.442965 
L 382.970817 242.886597 
L 383.375941 241.31342 
L 383.781065 239.723819 
L 384.186189 238.118185 
" clip-path="url(#p7cdc139345)" style="fill: none; stroke: #008000; stroke-width: 1.5; stroke-linecap: square"/>
   </g>
   <g id="line2d_172">
    <path d="M 384.202422 238.053512 
L 384.607546 236.431621 
L 385.01267 234.794506 
L 385.417794 233.142569 
L 385.822917 231.476214 
L 386.228041 229.795851 
" clip-path="url(#p7cdc139345)" style="fill: none; stroke: #008000; stroke-width: 1.5; stroke-linecap: square"/>
   </g>
   <g id="line2d_173">
    <path d="M 386.244274 229.728227 
L 386.649398 228.033732 
L 387.054522 226.326075 
L 387.459646 224.605674 
L 387.86477 222.872952 
L 388.269894 221.128334 
" clip-path="url(#p7cdc139345)" style="fill: none; stroke: #008000; stroke-width: 1.5; stroke-linecap: square"/>
   </g>
   <g id="line2d_174">
    <path d="M 388.286127 221.058181 
L 388.691251 219.301647 
L 389.096375 217.534098 
L 389.501499 215.755968 
L 389.906622 213.967696 
L 390.311746 212.169721 
" clip-path="url(#p7cdc139345)" style="fill: none; stroke: #008000; stroke-width: 1.5; stroke-linecap: square"/>
   </g>
   <g id="line2d_175">
    <path d="M 390.327979 212.097472 
L 390.733103 210.289879 
L 391.138227 208.473496 
L 391.543351 206.648771 
L 391.948475 204.816156 
L 392.353599 202.976104 
" clip-path="url(#p7cdc139345)" style="fill: none; stroke: #008000; stroke-width: 1.5; stroke-linecap: square"/>
   </g>
   <g id="line2d_176">
    <path d="M 392.369832 202.902213 
L 392.774956 201.054912 
L 393.18008 199.201112 
L 393.585203 197.341272 
L 393.990327 195.475855 
L 394.395451 193.605322 
" clip-path="url(#p7cdc139345)" style="fill: none; stroke: #008000; stroke-width: 1.5; stroke-linecap: square"/>
   </g>
   <g id="line2d_177">
    <path d="M 394.411684 193.530219 
L 394.816808 191.654868 
L 395.221932 189.775367 
L 395.627056 187.89218 
L 396.03218 186.005771 
L 396.437304 184.116604 
" clip-path="url(#p7cdc139345)" style="fill: none; stroke: #008000; stroke-width: 1.5; stroke-linecap: square"/>
   </g>
   <g id="line2d_178">
    <path d="M 396.453537 184.04069 
L 396.858661 182.149141 
L 397.263785 180.255829 
L 397.668908 178.361226 
L 398.074032 176.465803 
L 398.479156 174.570026 
" clip-path="url(#p7cdc139345)" style="fill: none; stroke: #008000; stroke-width: 1.5; stroke-linecap: square"/>
   </g>
   <g id="patch_3">
    <path d="M 57.6 307.584 
L 57.6 41.472 
" style="fill: none; stroke: #000000; stroke-width: 0.8; stroke-linejoin: miter; stroke-linecap: square"/>
   </g>
   <g id="patch_4">
    <path d="M 414.72 307.584 
L 414.72 41.472 
" style="fill: none; stroke: #000000; stroke-width: 0.8; stroke-linejoin: miter; stroke-linecap: square"/>
   </g>
   <g id="patch_5">
    <path d="M 57.6 307.584 
L 414.72 307.584 
" style="fill: none; stroke: #000000; stroke-width: 0.8; stroke-linejoin: miter; stroke-linecap: square"/>
   </g>
   <g id="patch_6">
    <path d="M 57.6 41.472 
L 414.72 41.472 
" style="fill: none; stroke: #000000; stroke-width: 0.8; stroke-linejoin: miter; stroke-linecap: square"/>
   </g>
   <g id="legend_1">
    <g id="patch_7">
     <path d="M 64.6 93.906375 
L 210.795312 93.906375 
Q 212.795312 93.906375 212.795312 91.906375 
L 212.795312 48.472 
Q 212.795312 46.472 210.795312 46.472 
L 64.6 46.472 
Q 62.6 46.472 62.6 48.472 
L 62.6 91.906375 
Q 62.6 93.906375 64.6 93.906375 
z
" style="fill: #ffffff; opacity: 0.8; stroke: #cccccc; stroke-linejoin: miter"/>
    </g>
    <g id="line2d_179">
     <path d="M 66.6 54.570437 
L 76.6 54.570437 
L 86.6 54.570437 
" style="fill: none; stroke: #0000ff; stroke-width: 1.5; stroke-linecap: square"/>
    </g>
    <g id="text_21">
     <!-- Původní funkce -->
     <g transform="translate(94.6 58.070437)scale(0.1 -0.1)">
      <defs>
       <path id="DejaVuSans-50" d="M 1259 4147 
L 1259 2394 
L 2053 2394 
Q 2494 2394 2734 2622 
Q 2975 2850 2975 3272 
Q 2975 3691 2734 3919 
Q 2494 4147 2053 4147 
L 1259 4147 
z
M 628 4666 
L 2053 4666 
Q 2838 4666 3239 4311 
Q 3641 3956 3641 3272 
Q 3641 2581 3239 2228 
Q 2838 1875 2053 1875 
L 1259 1875 
L 1259 0 
L 628 0 
L 628 4666 
z
" transform="scale(0.015625)"/>
       <path id="DejaVuSans-16f" d="M 544 1381 
L 544 3500 
L 1119 3500 
L 1119 1403 
Q 1119 906 1312 657 
Q 1506 409 1894 409 
Q 2359 409 2629 706 
Q 2900 1003 2900 1516 
L 2900 3500 
L 3475 3500 
L 3475 0 
L 2900 0 
L 2900 538 
Q 2691 219 2414 64 
Q 2138 -91 1772 -91 
Q 1169 -91 856 284 
Q 544 659 544 1381 
z
M 1991 3584 
L 1991 3584 
z
M 2463 4575 
Q 2463 4771 2325 4908 
Q 2188 5046 1988 5046 
Q 1784 5046 1648 4910 
Q 1513 4775 1513 4575 
Q 1513 4371 1648 4235 
Q 1784 4100 1988 4100 
Q 2188 4100 2325 4237 
Q 2463 4375 2463 4575 
z
M 2844 4575 
Q 2844 4215 2595 3965 
Q 2347 3715 1988 3715 
Q 1628 3715 1379 3965 
Q 1131 4215 1131 4575 
Q 1131 4934 1379 5182 
Q 1628 5431 1988 5431 
Q 2347 5431 2595 5182 
Q 2844 4934 2844 4575 
z
" transform="scale(0.015625)"/>
       <path id="DejaVuSans-76" d="M 191 3500 
L 800 3500 
L 1894 563 
L 2988 3500 
L 3597 3500 
L 2284 0 
L 1503 0 
L 191 3500 
z
" transform="scale(0.015625)"/>
       <path id="DejaVuSans-6f" d="M 1959 3097 
Q 1497 3097 1228 2736 
Q 959 2375 959 1747 
Q 959 1119 1226 758 
Q 1494 397 1959 397 
Q 2419 397 2687 759 
Q 2956 1122 2956 1747 
Q 2956 2369 2687 2733 
Q 2419 3097 1959 3097 
z
M 1959 3584 
Q 2709 3584 3137 3096 
Q 3566 2609 3566 1747 
Q 3566 888 3137 398 
Q 2709 -91 1959 -91 
Q 1206 -91 779 398 
Q 353 888 353 1747 
Q 353 2609 779 3096 
Q 1206 3584 1959 3584 
z
" transform="scale(0.015625)"/>
       <path id="DejaVuSans-64" d="M 2906 2969 
L 2906 4863 
L 3481 4863 
L 3481 0 
L 2906 0 
L 2906 525 
Q 2725 213 2448 61 
Q 2172 -91 1784 -91 
Q 1150 -91 751 415 
Q 353 922 353 1747 
Q 353 2572 751 3078 
Q 1150 3584 1784 3584 
Q 2172 3584 2448 3432 
Q 2725 3281 2906 2969 
z
M 947 1747 
Q 947 1113 1208 752 
Q 1469 391 1925 391 
Q 2381 391 2643 752 
Q 2906 1113 2906 1747 
Q 2906 2381 2643 2742 
Q 2381 3103 1925 3103 
Q 1469 3103 1208 2742 
Q 947 2381 947 1747 
z
" transform="scale(0.015625)"/>
       <path id="DejaVuSans-6e" d="M 3513 2113 
L 3513 0 
L 2938 0 
L 2938 2094 
Q 2938 2591 2744 2837 
Q 2550 3084 2163 3084 
Q 1697 3084 1428 2787 
Q 1159 2491 1159 1978 
L 1159 0 
L 581 0 
L 581 3500 
L 1159 3500 
L 1159 2956 
Q 1366 3272 1645 3428 
Q 1925 3584 2291 3584 
Q 2894 3584 3203 3211 
Q 3513 2838 3513 2113 
z
" transform="scale(0.015625)"/>
       <path id="DejaVuSans-ed" d="M 1325 5119 
L 1947 5119 
L 928 3944 
L 450 3944 
L 1325 5119 
z
M 603 3500 
L 1178 3500 
L 1178 0 
L 603 0 
L 603 3500 
z
M 891 3584 
L 891 3584 
z
" transform="scale(0.015625)"/>
       <path id="DejaVuSans-20" transform="scale(0.015625)"/>
       <path id="DejaVuSans-66" d="M 2375 4863 
L 2375 4384 
L 1825 4384 
Q 1516 4384 1395 4259 
Q 1275 4134 1275 3809 
L 1275 3500 
L 2222 3500 
L 2222 3053 
L 1275 3053 
L 1275 0 
L 697 0 
L 697 3053 
L 147 3053 
L 147 3500 
L 697 3500 
L 697 3744 
Q 697 4328 969 4595 
Q 1241 4863 1831 4863 
L 2375 4863 
z
" transform="scale(0.015625)"/>
       <path id="DejaVuSans-75" d="M 544 1381 
L 544 3500 
L 1119 3500 
L 1119 1403 
Q 1119 906 1312 657 
Q 1506 409 1894 409 
Q 2359 409 2629 706 
Q 2900 1003 2900 1516 
L 2900 3500 
L 3475 3500 
L 3475 0 
L 2900 0 
L 2900 538 
Q 2691 219 2414 64 
Q 2138 -91 1772 -91 
Q 1169 -91 856 284 
Q 544 659 544 1381 
z
M 1991 3584 
L 1991 3584 
z
" transform="scale(0.015625)"/>
       <path id="DejaVuSans-6b" d="M 581 4863 
L 1159 4863 
L 1159 1991 
L 2875 3500 
L 3609 3500 
L 1753 1863 
L 3688 0 
L 2938 0 
L 1159 1709 
L 1159 0 
L 581 0 
L 581 4863 
z
" transform="scale(0.015625)"/>
       <path id="DejaVuSans-63" d="M 3122 3366 
L 3122 2828 
Q 2878 2963 2633 3030 
Q 2388 3097 2138 3097 
Q 1578 3097 1268 2742 
Q 959 2388 959 1747 
Q 959 1106 1268 751 
Q 1578 397 2138 397 
Q 2388 397 2633 464 
Q 2878 531 3122 666 
L 3122 134 
Q 2881 22 2623 -34 
Q 2366 -91 2075 -91 
Q 1284 -91 818 406 
Q 353 903 353 1747 
Q 353 2603 823 3093 
Q 1294 3584 2113 3584 
Q 2378 3584 2631 3529 
Q 2884 3475 3122 3366 
z
" transform="scale(0.015625)"/>
       <path id="DejaVuSans-65" d="M 3597 1894 
L 3597 1613 
L 953 1613 
Q 991 1019 1311 708 
Q 1631 397 2203 397 
Q 2534 397 2845 478 
Q 3156 559 3463 722 
L 3463 178 
Q 3153 47 2828 -22 
Q 2503 -91 2169 -91 
Q 1331 -91 842 396 
Q 353 884 353 1716 
Q 353 2575 817 3079 
Q 1281 3584 2069 3584 
Q 2775 3584 3186 3129 
Q 3597 2675 3597 1894 
z
M 3022 2063 
Q 3016 2534 2758 2815 
Q 2500 3097 2075 3097 
Q 1594 3097 1305 2825 
Q 1016 2553 972 2059 
L 3022 2063 
z
" transform="scale(0.015625)"/>
      </defs>
      <use xlink:href="#DejaVuSans-50"/>
      <use xlink:href="#DejaVuSans-16f" x="58.552734"/>
      <use xlink:href="#DejaVuSans-76" x="121.931641"/>
      <use xlink:href="#DejaVuSans-6f" x="181.111328"/>
      <use xlink:href="#DejaVuSans-64" x="242.292969"/>
      <use xlink:href="#DejaVuSans-6e" x="305.769531"/>
      <use xlink:href="#DejaVuSans-ed" x="369.148438"/>
      <use xlink:href="#DejaVuSans-20" x="396.931641"/>
      <use xlink:href="#DejaVuSans-66" x="428.71875"/>
      <use xlink:href="#DejaVuSans-75" x="463.923828"/>
      <use xlink:href="#DejaVuSans-6e" x="527.302734"/>
      <use xlink:href="#DejaVuSans-6b" x="590.681641"/>
      <use xlink:href="#DejaVuSans-63" x="648.591797"/>
      <use xlink:href="#DejaVuSans-65" x="703.572266"/>
     </g>
    </g>
    <g id="PathCollection_2">
     <g>
      <use xlink:href="#m0c20816c7e" x="76.6" y="70.523562" style="fill: #228b22; stroke: #228b22"/>
     </g>
    </g>
    <g id="text_22">
     <!-- Střední hodnoty buněk -->
     <g transform="translate(94.6 73.148562)scale(0.1 -0.1)">
      <defs>
       <path id="DejaVuSans-53" d="M 3425 4513 
L 3425 3897 
Q 3066 4069 2747 4153 
Q 2428 4238 2131 4238 
Q 1616 4238 1336 4038 
Q 1056 3838 1056 3469 
Q 1056 3159 1242 3001 
Q 1428 2844 1947 2747 
L 2328 2669 
Q 3034 2534 3370 2195 
Q 3706 1856 3706 1288 
Q 3706 609 3251 259 
Q 2797 -91 1919 -91 
Q 1588 -91 1214 -16 
Q 841 59 441 206 
L 441 856 
Q 825 641 1194 531 
Q 1563 422 1919 422 
Q 2459 422 2753 634 
Q 3047 847 3047 1241 
Q 3047 1584 2836 1778 
Q 2625 1972 2144 2069 
L 1759 2144 
Q 1053 2284 737 2584 
Q 422 2884 422 3419 
Q 422 4038 858 4394 
Q 1294 4750 2059 4750 
Q 2388 4750 2728 4690 
Q 3069 4631 3425 4513 
z
" transform="scale(0.015625)"/>
       <path id="DejaVuSans-74" d="M 1172 4494 
L 1172 3500 
L 2356 3500 
L 2356 3053 
L 1172 3053 
L 1172 1153 
Q 1172 725 1289 603 
Q 1406 481 1766 481 
L 2356 481 
L 2356 0 
L 1766 0 
Q 1100 0 847 248 
Q 594 497 594 1153 
L 594 3053 
L 172 3053 
L 172 3500 
L 594 3500 
L 594 4494 
L 1172 4494 
z
" transform="scale(0.015625)"/>
       <path id="DejaVuSans-159" d="M 2631 2963 
Q 2534 3019 2420 3045 
Q 2306 3072 2169 3072 
Q 1681 3072 1420 2755 
Q 1159 2438 1159 1844 
L 1159 0 
L 581 0 
L 581 3500 
L 1159 3500 
L 1159 2956 
Q 1341 3275 1631 3429 
Q 1922 3584 2338 3584 
Q 2397 3584 2469 3576 
Q 2541 3569 2628 3553 
L 2631 2963 
z
M 1453 3944 
L 688 5119 
L 1122 5119 
L 1684 4353 
L 2247 5119 
L 2681 5119 
L 1916 3944 
L 1453 3944 
z
" transform="scale(0.015625)"/>
       <path id="DejaVuSans-68" d="M 3513 2113 
L 3513 0 
L 2938 0 
L 2938 2094 
Q 2938 2591 2744 2837 
Q 2550 3084 2163 3084 
Q 1697 3084 1428 2787 
Q 1159 2491 1159 1978 
L 1159 0 
L 581 0 
L 581 4863 
L 1159 4863 
L 1159 2956 
Q 1366 3272 1645 3428 
Q 1925 3584 2291 3584 
Q 2894 3584 3203 3211 
Q 3513 2838 3513 2113 
z
" transform="scale(0.015625)"/>
       <path id="DejaVuSans-79" d="M 2059 -325 
Q 1816 -950 1584 -1140 
Q 1353 -1331 966 -1331 
L 506 -1331 
L 506 -850 
L 844 -850 
Q 1081 -850 1212 -737 
Q 1344 -625 1503 -206 
L 1606 56 
L 191 3500 
L 800 3500 
L 1894 763 
L 2988 3500 
L 3597 3500 
L 2059 -325 
z
" transform="scale(0.015625)"/>
       <path id="DejaVuSans-62" d="M 3116 1747 
Q 3116 2381 2855 2742 
Q 2594 3103 2138 3103 
Q 1681 3103 1420 2742 
Q 1159 2381 1159 1747 
Q 1159 1113 1420 752 
Q 1681 391 2138 391 
Q 2594 391 2855 752 
Q 3116 1113 3116 1747 
z
M 1159 2969 
Q 1341 3281 1617 3432 
Q 1894 3584 2278 3584 
Q 2916 3584 3314 3078 
Q 3713 2572 3713 1747 
Q 3713 922 3314 415 
Q 2916 -91 2278 -91 
Q 1894 -91 1617 61 
Q 1341 213 1159 525 
L 1159 0 
L 581 0 
L 581 4863 
L 1159 4863 
L 1159 2969 
z
" transform="scale(0.015625)"/>
       <path id="DejaVuSans-11b" d="M 3597 1894 
L 3597 1613 
L 953 1613 
Q 991 1019 1311 708 
Q 1631 397 2203 397 
Q 2534 397 2845 478 
Q 3156 559 3463 722 
L 3463 178 
Q 3153 47 2828 -22 
Q 2503 -91 2169 -91 
Q 1331 -91 842 396 
Q 353 884 353 1716 
Q 353 2575 817 3079 
Q 1281 3584 2069 3584 
Q 2775 3584 3186 3129 
Q 3597 2675 3597 1894 
z
M 3022 2063 
Q 3016 2534 2758 2815 
Q 2500 3097 2075 3097 
Q 1594 3097 1305 2825 
Q 1016 2553 972 2059 
L 3022 2063 
z
M 1831 3928 
L 1066 5103 
L 1500 5103 
L 2063 4337 
L 2625 5103 
L 3059 5103 
L 2294 3928 
L 1831 3928 
z
" transform="scale(0.015625)"/>
      </defs>
      <use xlink:href="#DejaVuSans-53"/>
      <use xlink:href="#DejaVuSans-74" x="63.476562"/>
      <use xlink:href="#DejaVuSans-159" x="102.685547"/>
      <use xlink:href="#DejaVuSans-65" x="141.548828"/>
      <use xlink:href="#DejaVuSans-64" x="203.072266"/>
      <use xlink:href="#DejaVuSans-6e" x="266.548828"/>
      <use xlink:href="#DejaVuSans-ed" x="329.927734"/>
      <use xlink:href="#DejaVuSans-20" x="357.710938"/>
      <use xlink:href="#DejaVuSans-68" x="389.498047"/>
      <use xlink:href="#DejaVuSans-6f" x="452.876953"/>
      <use xlink:href="#DejaVuSans-64" x="514.058594"/>
      <use xlink:href="#DejaVuSans-6e" x="577.535156"/>
      <use xlink:href="#DejaVuSans-6f" x="640.914062"/>
      <use xlink:href="#DejaVuSans-74" x="702.095703"/>
      <use xlink:href="#DejaVuSans-79" x="741.304688"/>
      <use xlink:href="#DejaVuSans-20" x="800.484375"/>
      <use xlink:href="#DejaVuSans-62" x="832.271484"/>
      <use xlink:href="#DejaVuSans-75" x="895.748047"/>
      <use xlink:href="#DejaVuSans-6e" x="959.126953"/>
      <use xlink:href="#DejaVuSans-11b" x="1022.505859"/>
      <use xlink:href="#DejaVuSans-6b" x="1084.029297"/>
     </g>
    </g>
    <g id="line2d_180">
     <path d="M 66.6 84.326687 
L 76.6 84.326687 
L 86.6 84.326687 
" style="fill: none; stroke: #008000; stroke-width: 1.5; stroke-linecap: square"/>
    </g>
    <g id="text_23">
     <!-- Rekonstrukce -->
     <g transform="translate(94.6 87.826687)scale(0.1 -0.1)">
      <defs>
       <path id="DejaVuSans-52" d="M 2841 2188 
Q 3044 2119 3236 1894 
Q 3428 1669 3622 1275 
L 4263 0 
L 3584 0 
L 2988 1197 
Q 2756 1666 2539 1819 
Q 2322 1972 1947 1972 
L 1259 1972 
L 1259 0 
L 628 0 
L 628 4666 
L 2053 4666 
Q 2853 4666 3247 4331 
Q 3641 3997 3641 3322 
Q 3641 2881 3436 2590 
Q 3231 2300 2841 2188 
z
M 1259 4147 
L 1259 2491 
L 2053 2491 
Q 2509 2491 2742 2702 
Q 2975 2913 2975 3322 
Q 2975 3731 2742 3939 
Q 2509 4147 2053 4147 
L 1259 4147 
z
" transform="scale(0.015625)"/>
       <path id="DejaVuSans-73" d="M 2834 3397 
L 2834 2853 
Q 2591 2978 2328 3040 
Q 2066 3103 1784 3103 
Q 1356 3103 1142 2972 
Q 928 2841 928 2578 
Q 928 2378 1081 2264 
Q 1234 2150 1697 2047 
L 1894 2003 
Q 2506 1872 2764 1633 
Q 3022 1394 3022 966 
Q 3022 478 2636 193 
Q 2250 -91 1575 -91 
Q 1294 -91 989 -36 
Q 684 19 347 128 
L 347 722 
Q 666 556 975 473 
Q 1284 391 1588 391 
Q 1994 391 2212 530 
Q 2431 669 2431 922 
Q 2431 1156 2273 1281 
Q 2116 1406 1581 1522 
L 1381 1569 
Q 847 1681 609 1914 
Q 372 2147 372 2553 
Q 372 3047 722 3315 
Q 1072 3584 1716 3584 
Q 2034 3584 2315 3537 
Q 2597 3491 2834 3397 
z
" transform="scale(0.015625)"/>
       <path id="DejaVuSans-72" d="M 2631 2963 
Q 2534 3019 2420 3045 
Q 2306 3072 2169 3072 
Q 1681 3072 1420 2755 
Q 1159 2438 1159 1844 
L 1159 0 
L 581 0 
L 581 3500 
L 1159 3500 
L 1159 2956 
Q 1341 3275 1631 3429 
Q 1922 3584 2338 3584 
Q 2397 3584 2469 3576 
Q 2541 3569 2628 3553 
L 2631 2963 
z
" transform="scale(0.015625)"/>
      </defs>
      <use xlink:href="#DejaVuSans-52"/>
      <use xlink:href="#DejaVuSans-65" x="64.982422"/>
      <use xlink:href="#DejaVuSans-6b" x="126.505859"/>
      <use xlink:href="#DejaVuSans-6f" x="180.791016"/>
      <use xlink:href="#DejaVuSans-6e" x="241.972656"/>
      <use xlink:href="#DejaVuSans-73" x="305.351562"/>
      <use xlink:href="#DejaVuSans-74" x="357.451172"/>
      <use xlink:href="#DejaVuSans-72" x="396.660156"/>
      <use xlink:href="#DejaVuSans-75" x="437.773438"/>
      <use xlink:href="#DejaVuSans-6b" x="501.152344"/>
      <use xlink:href="#DejaVuSans-63" x="559.0625"/>
      <use xlink:href="#DejaVuSans-65" x="614.042969"/>
     </g>
    </g>
   </g>
  </g>
 </g>
 <defs>
  <clipPath id="p7cdc139345">
   <rect x="57.6" y="41.472" width="357.12" height="266.112"/>
  </clipPath>
 </defs>
</svg>
