<?xml version="1.0" encoding="utf-8" standalone="no"?>
<!DOCTYPE svg PUBLIC "-//W3C//DTD SVG 1.1//EN"
  "http://www.w3.org/Graphics/SVG/1.1/DTD/svg11.dtd">
<!-- Created with matplotlib (https://matplotlib.org/) -->
<svg height="345.6pt" version="1.1" viewBox="0 0 460.8 345.6" width="460.8pt" xmlns="http://www.w3.org/2000/svg" xmlns:xlink="http://www.w3.org/1999/xlink">
 <metadata>
  <rdf:RDF xmlns:cc="http://creativecommons.org/ns#" xmlns:dc="http://purl.org/dc/elements/1.1/" xmlns:rdf="http://www.w3.org/1999/02/22-rdf-syntax-ns#">
   <cc:Work>
    <dc:type rdf:resource="http://purl.org/dc/dcmitype/StillImage"/>
    <dc:date>2022-06-28T10:27:06.175251</dc:date>
    <dc:format>image/svg+xml</dc:format>
    <dc:creator>
     <cc:Agent>
      <dc:title>Matplotlib v3.3.2, https://matplotlib.org/</dc:title>
     </cc:Agent>
    </dc:creator>
   </cc:Work>
  </rdf:RDF>
 </metadata>
 <defs>
  <style type="text/css">*{stroke-linecap:butt;stroke-linejoin:round;}</style>
 </defs>
 <g id="figure_1">
  <g id="patch_1">
   <path d="M 0 345.6 
L 460.8 345.6 
L 460.8 0 
L 0 0 
z
" style="fill:#ffffff;"/>
  </g>
  <g id="axes_1">
   <g id="patch_2">
    <path d="M 57.6 307.584 
L 414.72 307.584 
L 414.72 41.472 
L 57.6 41.472 
z
" style="fill:#ffffff;"/>
   </g>
   <g id="PathCollection_1">
    <defs>
     <path d="M 0 3 
C 0.795609 3 1.55874 2.683901 2.12132 2.12132 
C 2.683901 1.55874 3 0.795609 3 0 
C 3 -0.795609 2.683901 -1.55874 2.12132 -2.12132 
C 1.55874 -2.683901 0.795609 -3 0 -3 
C -0.795609 -3 -1.55874 -2.683901 -2.12132 -2.12132 
C -2.683901 -1.55874 -3 -0.795609 -3 0 
C -3 0.795609 -2.683901 1.55874 -2.12132 2.12132 
C -1.55874 2.683901 -0.795609 3 0 3 
z
" id="m5bc4d32296" style="stroke:#ff0000;"/>
    </defs>
    <g clip-path="url(#pc5e648c09b)">
     <use style="fill:#ff0000;stroke:#ff0000;" x="73.832727" xlink:href="#m5bc4d32296" y="211.80611"/>
    </g>
   </g>
   <g id="PathCollection_2">
    <g clip-path="url(#pc5e648c09b)">
     <use style="fill:#ff0000;stroke:#ff0000;" x="77.994965" xlink:href="#m5bc4d32296" y="278.352236"/>
    </g>
   </g>
   <g id="PathCollection_3">
    <g clip-path="url(#pc5e648c09b)">
     <use style="fill:#ff0000;stroke:#ff0000;" x="82.157203" xlink:href="#m5bc4d32296" y="265.197086"/>
    </g>
   </g>
   <g id="PathCollection_4">
    <g clip-path="url(#pc5e648c09b)">
     <use style="fill:#ff0000;stroke:#ff0000;" x="86.319441" xlink:href="#m5bc4d32296" y="284.122704"/>
    </g>
   </g>
   <g id="PathCollection_5">
    <g clip-path="url(#pc5e648c09b)">
     <use style="fill:#ff0000;stroke:#ff0000;" x="90.481678" xlink:href="#m5bc4d32296" y="295.432512"/>
    </g>
   </g>
   <g id="PathCollection_6">
    <g clip-path="url(#pc5e648c09b)">
     <use style="fill:#ff0000;stroke:#ff0000;" x="94.643916" xlink:href="#m5bc4d32296" y="294.478626"/>
    </g>
   </g>
   <g id="PathCollection_7">
    <g clip-path="url(#pc5e648c09b)">
     <use style="fill:#ff0000;stroke:#ff0000;" x="98.806154" xlink:href="#m5bc4d32296" y="289.331614"/>
    </g>
   </g>
   <g id="PathCollection_8">
    <g clip-path="url(#pc5e648c09b)">
     <use style="fill:#ff0000;stroke:#ff0000;" x="102.968392" xlink:href="#m5bc4d32296" y="285.252198"/>
    </g>
   </g>
   <g id="PathCollection_9">
    <g clip-path="url(#pc5e648c09b)">
     <use style="fill:#ff0000;stroke:#ff0000;" x="107.130629" xlink:href="#m5bc4d32296" y="282.810641"/>
    </g>
   </g>
   <g id="PathCollection_10">
    <g clip-path="url(#pc5e648c09b)">
     <use style="fill:#ff0000;stroke:#ff0000;" x="111.292867" xlink:href="#m5bc4d32296" y="281.021956"/>
    </g>
   </g>
   <g id="PathCollection_11">
    <g clip-path="url(#pc5e648c09b)">
     <use style="fill:#ff0000;stroke:#ff0000;" x="115.455105" xlink:href="#m5bc4d32296" y="279.344546"/>
    </g>
   </g>
   <g id="PathCollection_12">
    <g clip-path="url(#pc5e648c09b)">
     <use style="fill:#ff0000;stroke:#ff0000;" x="119.617343" xlink:href="#m5bc4d32296" y="277.818312"/>
    </g>
   </g>
   <g id="PathCollection_13">
    <g clip-path="url(#pc5e648c09b)">
     <use style="fill:#ff0000;stroke:#ff0000;" x="123.77958" xlink:href="#m5bc4d32296" y="276.614221"/>
    </g>
   </g>
   <g id="PathCollection_14">
    <g clip-path="url(#pc5e648c09b)">
     <use style="fill:#ff0000;stroke:#ff0000;" x="127.941818" xlink:href="#m5bc4d32296" y="275.796"/>
    </g>
   </g>
   <g id="PathCollection_15">
    <g clip-path="url(#pc5e648c09b)">
     <use style="fill:#ff0000;stroke:#ff0000;" x="132.104056" xlink:href="#m5bc4d32296" y="275.336488"/>
    </g>
   </g>
   <g id="PathCollection_16">
    <g clip-path="url(#pc5e648c09b)">
     <use style="fill:#ff0000;stroke:#ff0000;" x="136.266294" xlink:href="#m5bc4d32296" y="275.194061"/>
    </g>
   </g>
   <g id="PathCollection_17">
    <g clip-path="url(#pc5e648c09b)">
     <use style="fill:#ff0000;stroke:#ff0000;" x="140.428531" xlink:href="#m5bc4d32296" y="275.347932"/>
    </g>
   </g>
   <g id="PathCollection_18">
    <g clip-path="url(#pc5e648c09b)">
     <use style="fill:#ff0000;stroke:#ff0000;" x="144.590769" xlink:href="#m5bc4d32296" y="275.795227"/>
    </g>
   </g>
   <g id="PathCollection_19">
    <g clip-path="url(#pc5e648c09b)">
     <use style="fill:#ff0000;stroke:#ff0000;" x="148.753007" xlink:href="#m5bc4d32296" y="276.530334"/>
    </g>
   </g>
   <g id="PathCollection_20">
    <g clip-path="url(#pc5e648c09b)">
     <use style="fill:#ff0000;stroke:#ff0000;" x="152.915245" xlink:href="#m5bc4d32296" y="277.515903"/>
    </g>
   </g>
   <g id="PathCollection_21">
    <g clip-path="url(#pc5e648c09b)">
     <use style="fill:#ff0000;stroke:#ff0000;" x="157.077483" xlink:href="#m5bc4d32296" y="278.664019"/>
    </g>
   </g>
   <g id="PathCollection_22">
    <g clip-path="url(#pc5e648c09b)">
     <use style="fill:#ff0000;stroke:#ff0000;" x="161.23972" xlink:href="#m5bc4d32296" y="279.854323"/>
    </g>
   </g>
   <g id="PathCollection_23">
    <g clip-path="url(#pc5e648c09b)">
     <use style="fill:#ff0000;stroke:#ff0000;" x="165.401958" xlink:href="#m5bc4d32296" y="280.988765"/>
    </g>
   </g>
   <g id="PathCollection_24">
    <g clip-path="url(#pc5e648c09b)">
     <use style="fill:#ff0000;stroke:#ff0000;" x="169.564196" xlink:href="#m5bc4d32296" y="282.040078"/>
    </g>
   </g>
   <g id="PathCollection_25">
    <g clip-path="url(#pc5e648c09b)">
     <use style="fill:#ff0000;stroke:#ff0000;" x="173.726434" xlink:href="#m5bc4d32296" y="283.047998"/>
    </g>
   </g>
   <g id="PathCollection_26">
    <g clip-path="url(#pc5e648c09b)">
     <use style="fill:#ff0000;stroke:#ff0000;" x="177.888671" xlink:href="#m5bc4d32296" y="284.066751"/>
    </g>
   </g>
   <g id="PathCollection_27">
    <g clip-path="url(#pc5e648c09b)">
     <use style="fill:#ff0000;stroke:#ff0000;" x="182.050909" xlink:href="#m5bc4d32296" y="285.115194"/>
    </g>
   </g>
   <g id="PathCollection_28">
    <g clip-path="url(#pc5e648c09b)">
     <use style="fill:#ff0000;stroke:#ff0000;" x="186.213147" xlink:href="#m5bc4d32296" y="286.171996"/>
    </g>
   </g>
   <g id="PathCollection_29">
    <g clip-path="url(#pc5e648c09b)">
     <use style="fill:#ff0000;stroke:#ff0000;" x="190.375385" xlink:href="#m5bc4d32296" y="287.206506"/>
    </g>
   </g>
   <g id="PathCollection_30">
    <g clip-path="url(#pc5e648c09b)">
     <use style="fill:#ff0000;stroke:#ff0000;" x="194.537622" xlink:href="#m5bc4d32296" y="288.204349"/>
    </g>
   </g>
   <g id="PathCollection_31">
    <g clip-path="url(#pc5e648c09b)">
     <use style="fill:#ff0000;stroke:#ff0000;" x="198.69986" xlink:href="#m5bc4d32296" y="289.085983"/>
    </g>
   </g>
   <g id="PathCollection_32">
    <g clip-path="url(#pc5e648c09b)">
     <use style="fill:#ff0000;stroke:#ff0000;" x="202.862098" xlink:href="#m5bc4d32296" y="289.841819"/>
    </g>
   </g>
   <g id="PathCollection_33">
    <g clip-path="url(#pc5e648c09b)">
     <use style="fill:#ff0000;stroke:#ff0000;" x="207.024336" xlink:href="#m5bc4d32296" y="290.697415"/>
    </g>
   </g>
   <g id="PathCollection_34">
    <g clip-path="url(#pc5e648c09b)">
     <use style="fill:#ff0000;stroke:#ff0000;" x="211.186573" xlink:href="#m5bc4d32296" y="291.248388"/>
    </g>
   </g>
   <g id="PathCollection_35">
    <g clip-path="url(#pc5e648c09b)">
     <use style="fill:#ff0000;stroke:#ff0000;" x="215.348811" xlink:href="#m5bc4d32296" y="291.932225"/>
    </g>
   </g>
   <g id="PathCollection_36">
    <g clip-path="url(#pc5e648c09b)">
     <use style="fill:#ff0000;stroke:#ff0000;" x="219.511049" xlink:href="#m5bc4d32296" y="292.331418"/>
    </g>
   </g>
   <g id="PathCollection_37">
    <g clip-path="url(#pc5e648c09b)">
     <use style="fill:#ff0000;stroke:#ff0000;" x="223.673287" xlink:href="#m5bc4d32296" y="292.636493"/>
    </g>
   </g>
   <g id="PathCollection_38">
    <g clip-path="url(#pc5e648c09b)">
     <use style="fill:#ff0000;stroke:#ff0000;" x="227.835524" xlink:href="#m5bc4d32296" y="293.005665"/>
    </g>
   </g>
   <g id="PathCollection_39">
    <g clip-path="url(#pc5e648c09b)">
     <use style="fill:#ff0000;stroke:#ff0000;" x="231.997762" xlink:href="#m5bc4d32296" y="293.113197"/>
    </g>
   </g>
   <g id="PathCollection_40">
    <g clip-path="url(#pc5e648c09b)">
     <use style="fill:#ff0000;stroke:#ff0000;" x="236.16" xlink:href="#m5bc4d32296" y="293.258663"/>
    </g>
   </g>
   <g id="PathCollection_41">
    <g clip-path="url(#pc5e648c09b)">
     <use style="fill:#ff0000;stroke:#ff0000;" x="240.322238" xlink:href="#m5bc4d32296" y="293.457197"/>
    </g>
   </g>
   <g id="PathCollection_42">
    <g clip-path="url(#pc5e648c09b)">
     <use style="fill:#ff0000;stroke:#ff0000;" x="244.484476" xlink:href="#m5bc4d32296" y="293.41933"/>
    </g>
   </g>
   <g id="PathCollection_43">
    <g clip-path="url(#pc5e648c09b)">
     <use style="fill:#ff0000;stroke:#ff0000;" x="248.646713" xlink:href="#m5bc4d32296" y="293.368591"/>
    </g>
   </g>
   <g id="PathCollection_44">
    <g clip-path="url(#pc5e648c09b)">
     <use style="fill:#ff0000;stroke:#ff0000;" x="252.808951" xlink:href="#m5bc4d32296" y="293.451008"/>
    </g>
   </g>
   <g id="PathCollection_45">
    <g clip-path="url(#pc5e648c09b)">
     <use style="fill:#ff0000;stroke:#ff0000;" x="256.971189" xlink:href="#m5bc4d32296" y="293.567111"/>
    </g>
   </g>
   <g id="PathCollection_46">
    <g clip-path="url(#pc5e648c09b)">
     <use style="fill:#ff0000;stroke:#ff0000;" x="261.133427" xlink:href="#m5bc4d32296" y="293.563031"/>
    </g>
   </g>
   <g id="PathCollection_47">
    <g clip-path="url(#pc5e648c09b)">
     <use style="fill:#ff0000;stroke:#ff0000;" x="265.295664" xlink:href="#m5bc4d32296" y="293.656027"/>
    </g>
   </g>
   <g id="PathCollection_48">
    <g clip-path="url(#pc5e648c09b)">
     <use style="fill:#ff0000;stroke:#ff0000;" x="269.457902" xlink:href="#m5bc4d32296" y="293.958148"/>
    </g>
   </g>
   <g id="PathCollection_49">
    <g clip-path="url(#pc5e648c09b)">
     <use style="fill:#ff0000;stroke:#ff0000;" x="273.62014" xlink:href="#m5bc4d32296" y="294.405019"/>
    </g>
   </g>
   <g id="PathCollection_50">
    <g clip-path="url(#pc5e648c09b)">
     <use style="fill:#ff0000;stroke:#ff0000;" x="277.782378" xlink:href="#m5bc4d32296" y="294.868929"/>
    </g>
   </g>
   <g id="PathCollection_51">
    <g clip-path="url(#pc5e648c09b)">
     <use style="fill:#ff0000;stroke:#ff0000;" x="281.944615" xlink:href="#m5bc4d32296" y="295.488"/>
    </g>
   </g>
   <g id="PathCollection_52">
    <g clip-path="url(#pc5e648c09b)">
     <use style="fill:#ff0000;stroke:#ff0000;" x="286.106853" xlink:href="#m5bc4d32296" y="294.92615"/>
    </g>
   </g>
   <g id="PathCollection_53">
    <g clip-path="url(#pc5e648c09b)">
     <use style="fill:#ff0000;stroke:#ff0000;" x="290.269091" xlink:href="#m5bc4d32296" y="293.738754"/>
    </g>
   </g>
   <g id="PathCollection_54">
    <g clip-path="url(#pc5e648c09b)">
     <use style="fill:#ff0000;stroke:#ff0000;" x="294.431329" xlink:href="#m5bc4d32296" y="292.330872"/>
    </g>
   </g>
   <g id="PathCollection_55">
    <g clip-path="url(#pc5e648c09b)">
     <use style="fill:#ff0000;stroke:#ff0000;" x="298.593566" xlink:href="#m5bc4d32296" y="290.745419"/>
    </g>
   </g>
   <g id="PathCollection_56">
    <g clip-path="url(#pc5e648c09b)">
     <use style="fill:#ff0000;stroke:#ff0000;" x="302.755804" xlink:href="#m5bc4d32296" y="288.910832"/>
    </g>
   </g>
   <g id="PathCollection_57">
    <g clip-path="url(#pc5e648c09b)">
     <use style="fill:#ff0000;stroke:#ff0000;" x="306.918042" xlink:href="#m5bc4d32296" y="286.762145"/>
    </g>
   </g>
   <g id="PathCollection_58">
    <g clip-path="url(#pc5e648c09b)">
     <use style="fill:#ff0000;stroke:#ff0000;" x="311.08028" xlink:href="#m5bc4d32296" y="284.335036"/>
    </g>
   </g>
   <g id="PathCollection_59">
    <g clip-path="url(#pc5e648c09b)">
     <use style="fill:#ff0000;stroke:#ff0000;" x="315.242517" xlink:href="#m5bc4d32296" y="281.683212"/>
    </g>
   </g>
   <g id="PathCollection_60">
    <g clip-path="url(#pc5e648c09b)">
     <use style="fill:#ff0000;stroke:#ff0000;" x="319.404755" xlink:href="#m5bc4d32296" y="278.843909"/>
    </g>
   </g>
   <g id="PathCollection_61">
    <g clip-path="url(#pc5e648c09b)">
     <use style="fill:#ff0000;stroke:#ff0000;" x="323.566993" xlink:href="#m5bc4d32296" y="275.889629"/>
    </g>
   </g>
   <g id="PathCollection_62">
    <g clip-path="url(#pc5e648c09b)">
     <use style="fill:#ff0000;stroke:#ff0000;" x="327.729231" xlink:href="#m5bc4d32296" y="272.92514"/>
    </g>
   </g>
   <g id="PathCollection_63">
    <g clip-path="url(#pc5e648c09b)">
     <use style="fill:#ff0000;stroke:#ff0000;" x="331.891469" xlink:href="#m5bc4d32296" y="269.854725"/>
    </g>
   </g>
   <g id="PathCollection_64">
    <g clip-path="url(#pc5e648c09b)">
     <use style="fill:#ff0000;stroke:#ff0000;" x="336.053706" xlink:href="#m5bc4d32296" y="266.941707"/>
    </g>
   </g>
   <g id="PathCollection_65">
    <g clip-path="url(#pc5e648c09b)">
     <use style="fill:#ff0000;stroke:#ff0000;" x="340.215944" xlink:href="#m5bc4d32296" y="264.273895"/>
    </g>
   </g>
   <g id="PathCollection_66">
    <g clip-path="url(#pc5e648c09b)">
     <use style="fill:#ff0000;stroke:#ff0000;" x="344.378182" xlink:href="#m5bc4d32296" y="261.975393"/>
    </g>
   </g>
   <g id="PathCollection_67">
    <g clip-path="url(#pc5e648c09b)">
     <use style="fill:#ff0000;stroke:#ff0000;" x="348.54042" xlink:href="#m5bc4d32296" y="260.039798"/>
    </g>
   </g>
   <g id="PathCollection_68">
    <g clip-path="url(#pc5e648c09b)">
     <use style="fill:#ff0000;stroke:#ff0000;" x="352.702657" xlink:href="#m5bc4d32296" y="258.467835"/>
    </g>
   </g>
   <g id="PathCollection_69">
    <g clip-path="url(#pc5e648c09b)">
     <use style="fill:#ff0000;stroke:#ff0000;" x="356.864895" xlink:href="#m5bc4d32296" y="257.662939"/>
    </g>
   </g>
   <g id="PathCollection_70">
    <g clip-path="url(#pc5e648c09b)">
     <use style="fill:#ff0000;stroke:#ff0000;" x="361.027133" xlink:href="#m5bc4d32296" y="258.68164"/>
    </g>
   </g>
   <g id="PathCollection_71">
    <g clip-path="url(#pc5e648c09b)">
     <use style="fill:#ff0000;stroke:#ff0000;" x="365.189371" xlink:href="#m5bc4d32296" y="262.896589"/>
    </g>
   </g>
   <g id="PathCollection_72">
    <g clip-path="url(#pc5e648c09b)">
     <use style="fill:#ff0000;stroke:#ff0000;" x="369.351608" xlink:href="#m5bc4d32296" y="270.212621"/>
    </g>
   </g>
   <g id="PathCollection_73">
    <g clip-path="url(#pc5e648c09b)">
     <use style="fill:#ff0000;stroke:#ff0000;" x="373.513846" xlink:href="#m5bc4d32296" y="276.463871"/>
    </g>
   </g>
   <g id="PathCollection_74">
    <g clip-path="url(#pc5e648c09b)">
     <use style="fill:#ff0000;stroke:#ff0000;" x="377.676084" xlink:href="#m5bc4d32296" y="273.1005"/>
    </g>
   </g>
   <g id="PathCollection_75">
    <g clip-path="url(#pc5e648c09b)">
     <use style="fill:#ff0000;stroke:#ff0000;" x="381.838322" xlink:href="#m5bc4d32296" y="253.497001"/>
    </g>
   </g>
   <g id="PathCollection_76">
    <g clip-path="url(#pc5e648c09b)">
     <use style="fill:#ff0000;stroke:#ff0000;" x="386.000559" xlink:href="#m5bc4d32296" y="226.533"/>
    </g>
   </g>
   <g id="PathCollection_77">
    <g clip-path="url(#pc5e648c09b)">
     <use style="fill:#ff0000;stroke:#ff0000;" x="390.162797" xlink:href="#m5bc4d32296" y="229.093213"/>
    </g>
   </g>
   <g id="PathCollection_78">
    <g clip-path="url(#pc5e648c09b)">
     <use style="fill:#ff0000;stroke:#ff0000;" x="394.325035" xlink:href="#m5bc4d32296" y="273.684286"/>
    </g>
   </g>
   <g id="PathCollection_79">
    <g clip-path="url(#pc5e648c09b)">
     <use style="fill:#ff0000;stroke:#ff0000;" x="398.487273" xlink:href="#m5bc4d32296" y="53.568"/>
    </g>
   </g>
   <g id="PathCollection_80">
    <g clip-path="url(#pc5e648c09b)">
     <use style="fill:#ff0000;stroke:#ff0000;" x="73.832727" xlink:href="#m5bc4d32296" y="211.80611"/>
    </g>
   </g>
   <g id="PathCollection_81">
    <g clip-path="url(#pc5e648c09b)">
     <use style="fill:#ff0000;stroke:#ff0000;" x="77.994965" xlink:href="#m5bc4d32296" y="278.352236"/>
    </g>
   </g>
   <g id="PathCollection_82">
    <g clip-path="url(#pc5e648c09b)">
     <use style="fill:#ff0000;stroke:#ff0000;" x="82.157203" xlink:href="#m5bc4d32296" y="265.197086"/>
    </g>
   </g>
   <g id="PathCollection_83">
    <g clip-path="url(#pc5e648c09b)">
     <use style="fill:#ff0000;stroke:#ff0000;" x="86.319441" xlink:href="#m5bc4d32296" y="284.122704"/>
    </g>
   </g>
   <g id="PathCollection_84">
    <g clip-path="url(#pc5e648c09b)">
     <use style="fill:#ff0000;stroke:#ff0000;" x="90.481678" xlink:href="#m5bc4d32296" y="295.432512"/>
    </g>
   </g>
   <g id="PathCollection_85">
    <g clip-path="url(#pc5e648c09b)">
     <use style="fill:#ff0000;stroke:#ff0000;" x="94.643916" xlink:href="#m5bc4d32296" y="294.478626"/>
    </g>
   </g>
   <g id="PathCollection_86">
    <g clip-path="url(#pc5e648c09b)">
     <use style="fill:#ff0000;stroke:#ff0000;" x="98.806154" xlink:href="#m5bc4d32296" y="289.331614"/>
    </g>
   </g>
   <g id="PathCollection_87">
    <g clip-path="url(#pc5e648c09b)">
     <use style="fill:#ff0000;stroke:#ff0000;" x="102.968392" xlink:href="#m5bc4d32296" y="285.252198"/>
    </g>
   </g>
   <g id="PathCollection_88">
    <g clip-path="url(#pc5e648c09b)">
     <use style="fill:#ff0000;stroke:#ff0000;" x="107.130629" xlink:href="#m5bc4d32296" y="282.810641"/>
    </g>
   </g>
   <g id="PathCollection_89">
    <g clip-path="url(#pc5e648c09b)">
     <use style="fill:#ff0000;stroke:#ff0000;" x="111.292867" xlink:href="#m5bc4d32296" y="281.021956"/>
    </g>
   </g>
   <g id="PathCollection_90">
    <g clip-path="url(#pc5e648c09b)">
     <use style="fill:#ff0000;stroke:#ff0000;" x="115.455105" xlink:href="#m5bc4d32296" y="279.344546"/>
    </g>
   </g>
   <g id="PathCollection_91">
    <g clip-path="url(#pc5e648c09b)">
     <use style="fill:#ff0000;stroke:#ff0000;" x="119.617343" xlink:href="#m5bc4d32296" y="277.818312"/>
    </g>
   </g>
   <g id="PathCollection_92">
    <g clip-path="url(#pc5e648c09b)">
     <use style="fill:#ff0000;stroke:#ff0000;" x="123.77958" xlink:href="#m5bc4d32296" y="276.614221"/>
    </g>
   </g>
   <g id="PathCollection_93">
    <g clip-path="url(#pc5e648c09b)">
     <use style="fill:#ff0000;stroke:#ff0000;" x="127.941818" xlink:href="#m5bc4d32296" y="275.796"/>
    </g>
   </g>
   <g id="PathCollection_94">
    <g clip-path="url(#pc5e648c09b)">
     <use style="fill:#ff0000;stroke:#ff0000;" x="132.104056" xlink:href="#m5bc4d32296" y="275.336488"/>
    </g>
   </g>
   <g id="PathCollection_95">
    <g clip-path="url(#pc5e648c09b)">
     <use style="fill:#ff0000;stroke:#ff0000;" x="136.266294" xlink:href="#m5bc4d32296" y="275.194061"/>
    </g>
   </g>
   <g id="PathCollection_96">
    <g clip-path="url(#pc5e648c09b)">
     <use style="fill:#ff0000;stroke:#ff0000;" x="140.428531" xlink:href="#m5bc4d32296" y="275.347932"/>
    </g>
   </g>
   <g id="PathCollection_97">
    <g clip-path="url(#pc5e648c09b)">
     <use style="fill:#ff0000;stroke:#ff0000;" x="144.590769" xlink:href="#m5bc4d32296" y="275.795227"/>
    </g>
   </g>
   <g id="PathCollection_98">
    <g clip-path="url(#pc5e648c09b)">
     <use style="fill:#ff0000;stroke:#ff0000;" x="148.753007" xlink:href="#m5bc4d32296" y="276.530334"/>
    </g>
   </g>
   <g id="PathCollection_99">
    <g clip-path="url(#pc5e648c09b)">
     <use style="fill:#ff0000;stroke:#ff0000;" x="152.915245" xlink:href="#m5bc4d32296" y="277.515903"/>
    </g>
   </g>
   <g id="PathCollection_100">
    <g clip-path="url(#pc5e648c09b)">
     <use style="fill:#ff0000;stroke:#ff0000;" x="157.077483" xlink:href="#m5bc4d32296" y="278.664019"/>
    </g>
   </g>
   <g id="PathCollection_101">
    <g clip-path="url(#pc5e648c09b)">
     <use style="fill:#ff0000;stroke:#ff0000;" x="161.23972" xlink:href="#m5bc4d32296" y="279.854323"/>
    </g>
   </g>
   <g id="PathCollection_102">
    <g clip-path="url(#pc5e648c09b)">
     <use style="fill:#ff0000;stroke:#ff0000;" x="165.401958" xlink:href="#m5bc4d32296" y="280.988765"/>
    </g>
   </g>
   <g id="PathCollection_103">
    <g clip-path="url(#pc5e648c09b)">
     <use style="fill:#ff0000;stroke:#ff0000;" x="169.564196" xlink:href="#m5bc4d32296" y="282.040078"/>
    </g>
   </g>
   <g id="PathCollection_104">
    <g clip-path="url(#pc5e648c09b)">
     <use style="fill:#ff0000;stroke:#ff0000;" x="173.726434" xlink:href="#m5bc4d32296" y="283.047998"/>
    </g>
   </g>
   <g id="PathCollection_105">
    <g clip-path="url(#pc5e648c09b)">
     <use style="fill:#ff0000;stroke:#ff0000;" x="177.888671" xlink:href="#m5bc4d32296" y="284.066751"/>
    </g>
   </g>
   <g id="PathCollection_106">
    <g clip-path="url(#pc5e648c09b)">
     <use style="fill:#ff0000;stroke:#ff0000;" x="182.050909" xlink:href="#m5bc4d32296" y="285.115194"/>
    </g>
   </g>
   <g id="PathCollection_107">
    <g clip-path="url(#pc5e648c09b)">
     <use style="fill:#ff0000;stroke:#ff0000;" x="186.213147" xlink:href="#m5bc4d32296" y="286.171996"/>
    </g>
   </g>
   <g id="PathCollection_108">
    <g clip-path="url(#pc5e648c09b)">
     <use style="fill:#ff0000;stroke:#ff0000;" x="190.375385" xlink:href="#m5bc4d32296" y="287.206506"/>
    </g>
   </g>
   <g id="PathCollection_109">
    <g clip-path="url(#pc5e648c09b)">
     <use style="fill:#ff0000;stroke:#ff0000;" x="194.537622" xlink:href="#m5bc4d32296" y="288.204349"/>
    </g>
   </g>
   <g id="PathCollection_110">
    <g clip-path="url(#pc5e648c09b)">
     <use style="fill:#ff0000;stroke:#ff0000;" x="198.69986" xlink:href="#m5bc4d32296" y="289.085983"/>
    </g>
   </g>
   <g id="PathCollection_111">
    <g clip-path="url(#pc5e648c09b)">
     <use style="fill:#ff0000;stroke:#ff0000;" x="202.862098" xlink:href="#m5bc4d32296" y="289.841819"/>
    </g>
   </g>
   <g id="PathCollection_112">
    <g clip-path="url(#pc5e648c09b)">
     <use style="fill:#ff0000;stroke:#ff0000;" x="207.024336" xlink:href="#m5bc4d32296" y="290.697415"/>
    </g>
   </g>
   <g id="PathCollection_113">
    <g clip-path="url(#pc5e648c09b)">
     <use style="fill:#ff0000;stroke:#ff0000;" x="211.186573" xlink:href="#m5bc4d32296" y="291.248388"/>
    </g>
   </g>
   <g id="PathCollection_114">
    <g clip-path="url(#pc5e648c09b)">
     <use style="fill:#ff0000;stroke:#ff0000;" x="215.348811" xlink:href="#m5bc4d32296" y="291.932225"/>
    </g>
   </g>
   <g id="PathCollection_115">
    <g clip-path="url(#pc5e648c09b)">
     <use style="fill:#ff0000;stroke:#ff0000;" x="219.511049" xlink:href="#m5bc4d32296" y="292.331418"/>
    </g>
   </g>
   <g id="PathCollection_116">
    <g clip-path="url(#pc5e648c09b)">
     <use style="fill:#ff0000;stroke:#ff0000;" x="223.673287" xlink:href="#m5bc4d32296" y="292.636493"/>
    </g>
   </g>
   <g id="PathCollection_117">
    <g clip-path="url(#pc5e648c09b)">
     <use style="fill:#ff0000;stroke:#ff0000;" x="227.835524" xlink:href="#m5bc4d32296" y="293.005665"/>
    </g>
   </g>
   <g id="PathCollection_118">
    <g clip-path="url(#pc5e648c09b)">
     <use style="fill:#ff0000;stroke:#ff0000;" x="231.997762" xlink:href="#m5bc4d32296" y="293.113197"/>
    </g>
   </g>
   <g id="PathCollection_119">
    <g clip-path="url(#pc5e648c09b)">
     <use style="fill:#ff0000;stroke:#ff0000;" x="236.16" xlink:href="#m5bc4d32296" y="293.258663"/>
    </g>
   </g>
   <g id="PathCollection_120">
    <g clip-path="url(#pc5e648c09b)">
     <use style="fill:#ff0000;stroke:#ff0000;" x="240.322238" xlink:href="#m5bc4d32296" y="293.457197"/>
    </g>
   </g>
   <g id="PathCollection_121">
    <g clip-path="url(#pc5e648c09b)">
     <use style="fill:#ff0000;stroke:#ff0000;" x="244.484476" xlink:href="#m5bc4d32296" y="293.41933"/>
    </g>
   </g>
   <g id="PathCollection_122">
    <g clip-path="url(#pc5e648c09b)">
     <use style="fill:#ff0000;stroke:#ff0000;" x="248.646713" xlink:href="#m5bc4d32296" y="293.368591"/>
    </g>
   </g>
   <g id="PathCollection_123">
    <g clip-path="url(#pc5e648c09b)">
     <use style="fill:#ff0000;stroke:#ff0000;" x="252.808951" xlink:href="#m5bc4d32296" y="293.451008"/>
    </g>
   </g>
   <g id="PathCollection_124">
    <g clip-path="url(#pc5e648c09b)">
     <use style="fill:#ff0000;stroke:#ff0000;" x="256.971189" xlink:href="#m5bc4d32296" y="293.567111"/>
    </g>
   </g>
   <g id="PathCollection_125">
    <g clip-path="url(#pc5e648c09b)">
     <use style="fill:#ff0000;stroke:#ff0000;" x="261.133427" xlink:href="#m5bc4d32296" y="293.563031"/>
    </g>
   </g>
   <g id="PathCollection_126">
    <g clip-path="url(#pc5e648c09b)">
     <use style="fill:#ff0000;stroke:#ff0000;" x="265.295664" xlink:href="#m5bc4d32296" y="293.656027"/>
    </g>
   </g>
   <g id="PathCollection_127">
    <g clip-path="url(#pc5e648c09b)">
     <use style="fill:#ff0000;stroke:#ff0000;" x="269.457902" xlink:href="#m5bc4d32296" y="293.958148"/>
    </g>
   </g>
   <g id="PathCollection_128">
    <g clip-path="url(#pc5e648c09b)">
     <use style="fill:#ff0000;stroke:#ff0000;" x="273.62014" xlink:href="#m5bc4d32296" y="294.405019"/>
    </g>
   </g>
   <g id="PathCollection_129">
    <g clip-path="url(#pc5e648c09b)">
     <use style="fill:#ff0000;stroke:#ff0000;" x="277.782378" xlink:href="#m5bc4d32296" y="294.868929"/>
    </g>
   </g>
   <g id="PathCollection_130">
    <g clip-path="url(#pc5e648c09b)">
     <use style="fill:#ff0000;stroke:#ff0000;" x="281.944615" xlink:href="#m5bc4d32296" y="295.488"/>
    </g>
   </g>
   <g id="PathCollection_131">
    <g clip-path="url(#pc5e648c09b)">
     <use style="fill:#ff0000;stroke:#ff0000;" x="286.106853" xlink:href="#m5bc4d32296" y="294.92615"/>
    </g>
   </g>
   <g id="PathCollection_132">
    <g clip-path="url(#pc5e648c09b)">
     <use style="fill:#ff0000;stroke:#ff0000;" x="290.269091" xlink:href="#m5bc4d32296" y="293.738754"/>
    </g>
   </g>
   <g id="PathCollection_133">
    <g clip-path="url(#pc5e648c09b)">
     <use style="fill:#ff0000;stroke:#ff0000;" x="294.431329" xlink:href="#m5bc4d32296" y="292.330872"/>
    </g>
   </g>
   <g id="PathCollection_134">
    <g clip-path="url(#pc5e648c09b)">
     <use style="fill:#ff0000;stroke:#ff0000;" x="298.593566" xlink:href="#m5bc4d32296" y="290.745419"/>
    </g>
   </g>
   <g id="PathCollection_135">
    <g clip-path="url(#pc5e648c09b)">
     <use style="fill:#ff0000;stroke:#ff0000;" x="302.755804" xlink:href="#m5bc4d32296" y="288.910832"/>
    </g>
   </g>
   <g id="PathCollection_136">
    <g clip-path="url(#pc5e648c09b)">
     <use style="fill:#ff0000;stroke:#ff0000;" x="306.918042" xlink:href="#m5bc4d32296" y="286.762145"/>
    </g>
   </g>
   <g id="PathCollection_137">
    <g clip-path="url(#pc5e648c09b)">
     <use style="fill:#ff0000;stroke:#ff0000;" x="311.08028" xlink:href="#m5bc4d32296" y="284.335036"/>
    </g>
   </g>
   <g id="PathCollection_138">
    <g clip-path="url(#pc5e648c09b)">
     <use style="fill:#ff0000;stroke:#ff0000;" x="315.242517" xlink:href="#m5bc4d32296" y="281.683212"/>
    </g>
   </g>
   <g id="PathCollection_139">
    <g clip-path="url(#pc5e648c09b)">
     <use style="fill:#ff0000;stroke:#ff0000;" x="319.404755" xlink:href="#m5bc4d32296" y="278.843909"/>
    </g>
   </g>
   <g id="PathCollection_140">
    <g clip-path="url(#pc5e648c09b)">
     <use style="fill:#ff0000;stroke:#ff0000;" x="323.566993" xlink:href="#m5bc4d32296" y="275.889629"/>
    </g>
   </g>
   <g id="PathCollection_141">
    <g clip-path="url(#pc5e648c09b)">
     <use style="fill:#ff0000;stroke:#ff0000;" x="327.729231" xlink:href="#m5bc4d32296" y="272.92514"/>
    </g>
   </g>
   <g id="PathCollection_142">
    <g clip-path="url(#pc5e648c09b)">
     <use style="fill:#ff0000;stroke:#ff0000;" x="331.891469" xlink:href="#m5bc4d32296" y="269.854725"/>
    </g>
   </g>
   <g id="PathCollection_143">
    <g clip-path="url(#pc5e648c09b)">
     <use style="fill:#ff0000;stroke:#ff0000;" x="336.053706" xlink:href="#m5bc4d32296" y="266.941707"/>
    </g>
   </g>
   <g id="PathCollection_144">
    <g clip-path="url(#pc5e648c09b)">
     <use style="fill:#ff0000;stroke:#ff0000;" x="340.215944" xlink:href="#m5bc4d32296" y="264.273895"/>
    </g>
   </g>
   <g id="PathCollection_145">
    <g clip-path="url(#pc5e648c09b)">
     <use style="fill:#ff0000;stroke:#ff0000;" x="344.378182" xlink:href="#m5bc4d32296" y="261.975393"/>
    </g>
   </g>
   <g id="PathCollection_146">
    <g clip-path="url(#pc5e648c09b)">
     <use style="fill:#ff0000;stroke:#ff0000;" x="348.54042" xlink:href="#m5bc4d32296" y="260.039798"/>
    </g>
   </g>
   <g id="PathCollection_147">
    <g clip-path="url(#pc5e648c09b)">
     <use style="fill:#ff0000;stroke:#ff0000;" x="352.702657" xlink:href="#m5bc4d32296" y="258.467835"/>
    </g>
   </g>
   <g id="PathCollection_148">
    <g clip-path="url(#pc5e648c09b)">
     <use style="fill:#ff0000;stroke:#ff0000;" x="356.864895" xlink:href="#m5bc4d32296" y="257.662939"/>
    </g>
   </g>
   <g id="PathCollection_149">
    <g clip-path="url(#pc5e648c09b)">
     <use style="fill:#ff0000;stroke:#ff0000;" x="361.027133" xlink:href="#m5bc4d32296" y="258.68164"/>
    </g>
   </g>
   <g id="PathCollection_150">
    <g clip-path="url(#pc5e648c09b)">
     <use style="fill:#ff0000;stroke:#ff0000;" x="365.189371" xlink:href="#m5bc4d32296" y="262.896589"/>
    </g>
   </g>
   <g id="PathCollection_151">
    <g clip-path="url(#pc5e648c09b)">
     <use style="fill:#ff0000;stroke:#ff0000;" x="369.351608" xlink:href="#m5bc4d32296" y="270.212621"/>
    </g>
   </g>
   <g id="PathCollection_152">
    <g clip-path="url(#pc5e648c09b)">
     <use style="fill:#ff0000;stroke:#ff0000;" x="373.513846" xlink:href="#m5bc4d32296" y="276.463871"/>
    </g>
   </g>
   <g id="PathCollection_153">
    <g clip-path="url(#pc5e648c09b)">
     <use style="fill:#ff0000;stroke:#ff0000;" x="377.676084" xlink:href="#m5bc4d32296" y="273.1005"/>
    </g>
   </g>
   <g id="PathCollection_154">
    <g clip-path="url(#pc5e648c09b)">
     <use style="fill:#ff0000;stroke:#ff0000;" x="381.838322" xlink:href="#m5bc4d32296" y="253.497001"/>
    </g>
   </g>
   <g id="PathCollection_155">
    <g clip-path="url(#pc5e648c09b)">
     <use style="fill:#ff0000;stroke:#ff0000;" x="386.000559" xlink:href="#m5bc4d32296" y="226.533"/>
    </g>
   </g>
   <g id="PathCollection_156">
    <g clip-path="url(#pc5e648c09b)">
     <use style="fill:#ff0000;stroke:#ff0000;" x="390.162797" xlink:href="#m5bc4d32296" y="229.093213"/>
    </g>
   </g>
   <g id="PathCollection_157">
    <g clip-path="url(#pc5e648c09b)">
     <use style="fill:#ff0000;stroke:#ff0000;" x="394.325035" xlink:href="#m5bc4d32296" y="273.684286"/>
    </g>
   </g>
   <g id="PathCollection_158">
    <g clip-path="url(#pc5e648c09b)">
     <use style="fill:#ff0000;stroke:#ff0000;" x="398.487273" xlink:href="#m5bc4d32296" y="53.568"/>
    </g>
   </g>
   <g id="matplotlib.axis_1">
    <g id="xtick_1">
     <g id="line2d_1">
      <defs>
       <path d="M 0 0 
L 0 3.5 
" id="me7f8b7a7fa" style="stroke:#000000;stroke-width:0.8;"/>
      </defs>
      <g>
       <use style="stroke:#000000;stroke-width:0.8;" x="71.751608" xlink:href="#me7f8b7a7fa" y="307.584"/>
      </g>
     </g>
     <g id="text_1">
      <!-- −1.00 -->
      <g transform="translate(56.428952 322.182437)scale(0.1 -0.1)">
       <defs>
        <path d="M 10.59375 35.5 
L 73.1875 35.5 
L 73.1875 27.203125 
L 10.59375 27.203125 
z
" id="DejaVuSans-8722"/>
        <path d="M 12.40625 8.296875 
L 28.515625 8.296875 
L 28.515625 63.921875 
L 10.984375 60.40625 
L 10.984375 69.390625 
L 28.421875 72.90625 
L 38.28125 72.90625 
L 38.28125 8.296875 
L 54.390625 8.296875 
L 54.390625 0 
L 12.40625 0 
z
" id="DejaVuSans-49"/>
        <path d="M 10.6875 12.40625 
L 21 12.40625 
L 21 0 
L 10.6875 0 
z
" id="DejaVuSans-46"/>
        <path d="M 31.78125 66.40625 
Q 24.171875 66.40625 20.328125 58.90625 
Q 16.5 51.421875 16.5 36.375 
Q 16.5 21.390625 20.328125 13.890625 
Q 24.171875 6.390625 31.78125 6.390625 
Q 39.453125 6.390625 43.28125 13.890625 
Q 47.125 21.390625 47.125 36.375 
Q 47.125 51.421875 43.28125 58.90625 
Q 39.453125 66.40625 31.78125 66.40625 
z
M 31.78125 74.21875 
Q 44.046875 74.21875 50.515625 64.515625 
Q 56.984375 54.828125 56.984375 36.375 
Q 56.984375 17.96875 50.515625 8.265625 
Q 44.046875 -1.421875 31.78125 -1.421875 
Q 19.53125 -1.421875 13.0625 8.265625 
Q 6.59375 17.96875 6.59375 36.375 
Q 6.59375 54.828125 13.0625 64.515625 
Q 19.53125 74.21875 31.78125 74.21875 
z
" id="DejaVuSans-48"/>
       </defs>
       <use xlink:href="#DejaVuSans-8722"/>
       <use x="83.789062" xlink:href="#DejaVuSans-49"/>
       <use x="147.412109" xlink:href="#DejaVuSans-46"/>
       <use x="179.199219" xlink:href="#DejaVuSans-48"/>
       <use x="242.822266" xlink:href="#DejaVuSans-48"/>
      </g>
     </g>
    </g>
    <g id="xtick_2">
     <g id="line2d_2">
      <g>
       <use style="stroke:#000000;stroke-width:0.8;" x="112.853706" xlink:href="#me7f8b7a7fa" y="307.584"/>
      </g>
     </g>
     <g id="text_2">
      <!-- −0.75 -->
      <g transform="translate(97.53105 322.182437)scale(0.1 -0.1)">
       <defs>
        <path d="M 8.203125 72.90625 
L 55.078125 72.90625 
L 55.078125 68.703125 
L 28.609375 0 
L 18.3125 0 
L 43.21875 64.59375 
L 8.203125 64.59375 
z
" id="DejaVuSans-55"/>
        <path d="M 10.796875 72.90625 
L 49.515625 72.90625 
L 49.515625 64.59375 
L 19.828125 64.59375 
L 19.828125 46.734375 
Q 21.96875 47.46875 24.109375 47.828125 
Q 26.265625 48.1875 28.421875 48.1875 
Q 40.625 48.1875 47.75 41.5 
Q 54.890625 34.8125 54.890625 23.390625 
Q 54.890625 11.625 47.5625 5.09375 
Q 40.234375 -1.421875 26.90625 -1.421875 
Q 22.3125 -1.421875 17.546875 -0.640625 
Q 12.796875 0.140625 7.71875 1.703125 
L 7.71875 11.625 
Q 12.109375 9.234375 16.796875 8.0625 
Q 21.484375 6.890625 26.703125 6.890625 
Q 35.15625 6.890625 40.078125 11.328125 
Q 45.015625 15.765625 45.015625 23.390625 
Q 45.015625 31 40.078125 35.4375 
Q 35.15625 39.890625 26.703125 39.890625 
Q 22.75 39.890625 18.8125 39.015625 
Q 14.890625 38.140625 10.796875 36.28125 
z
" id="DejaVuSans-53"/>
       </defs>
       <use xlink:href="#DejaVuSans-8722"/>
       <use x="83.789062" xlink:href="#DejaVuSans-48"/>
       <use x="147.412109" xlink:href="#DejaVuSans-46"/>
       <use x="179.199219" xlink:href="#DejaVuSans-55"/>
       <use x="242.822266" xlink:href="#DejaVuSans-53"/>
      </g>
     </g>
    </g>
    <g id="xtick_3">
     <g id="line2d_3">
      <g>
       <use style="stroke:#000000;stroke-width:0.8;" x="153.955804" xlink:href="#me7f8b7a7fa" y="307.584"/>
      </g>
     </g>
     <g id="text_3">
      <!-- −0.50 -->
      <g transform="translate(138.633148 322.182437)scale(0.1 -0.1)">
       <use xlink:href="#DejaVuSans-8722"/>
       <use x="83.789062" xlink:href="#DejaVuSans-48"/>
       <use x="147.412109" xlink:href="#DejaVuSans-46"/>
       <use x="179.199219" xlink:href="#DejaVuSans-53"/>
       <use x="242.822266" xlink:href="#DejaVuSans-48"/>
      </g>
     </g>
    </g>
    <g id="xtick_4">
     <g id="line2d_4">
      <g>
       <use style="stroke:#000000;stroke-width:0.8;" x="195.057902" xlink:href="#me7f8b7a7fa" y="307.584"/>
      </g>
     </g>
     <g id="text_4">
      <!-- −0.25 -->
      <g transform="translate(179.735246 322.182437)scale(0.1 -0.1)">
       <defs>
        <path d="M 19.1875 8.296875 
L 53.609375 8.296875 
L 53.609375 0 
L 7.328125 0 
L 7.328125 8.296875 
Q 12.9375 14.109375 22.625 23.890625 
Q 32.328125 33.6875 34.8125 36.53125 
Q 39.546875 41.84375 41.421875 45.53125 
Q 43.3125 49.21875 43.3125 52.78125 
Q 43.3125 58.59375 39.234375 62.25 
Q 35.15625 65.921875 28.609375 65.921875 
Q 23.96875 65.921875 18.8125 64.3125 
Q 13.671875 62.703125 7.8125 59.421875 
L 7.8125 69.390625 
Q 13.765625 71.78125 18.9375 73 
Q 24.125 74.21875 28.421875 74.21875 
Q 39.75 74.21875 46.484375 68.546875 
Q 53.21875 62.890625 53.21875 53.421875 
Q 53.21875 48.921875 51.53125 44.890625 
Q 49.859375 40.875 45.40625 35.40625 
Q 44.1875 33.984375 37.640625 27.21875 
Q 31.109375 20.453125 19.1875 8.296875 
z
" id="DejaVuSans-50"/>
       </defs>
       <use xlink:href="#DejaVuSans-8722"/>
       <use x="83.789062" xlink:href="#DejaVuSans-48"/>
       <use x="147.412109" xlink:href="#DejaVuSans-46"/>
       <use x="179.199219" xlink:href="#DejaVuSans-50"/>
       <use x="242.822266" xlink:href="#DejaVuSans-53"/>
      </g>
     </g>
    </g>
    <g id="xtick_5">
     <g id="line2d_5">
      <g>
       <use style="stroke:#000000;stroke-width:0.8;" x="236.16" xlink:href="#me7f8b7a7fa" y="307.584"/>
      </g>
     </g>
     <g id="text_5">
      <!-- 0.00 -->
      <g transform="translate(225.027187 322.182437)scale(0.1 -0.1)">
       <use xlink:href="#DejaVuSans-48"/>
       <use x="63.623047" xlink:href="#DejaVuSans-46"/>
       <use x="95.410156" xlink:href="#DejaVuSans-48"/>
       <use x="159.033203" xlink:href="#DejaVuSans-48"/>
      </g>
     </g>
    </g>
    <g id="xtick_6">
     <g id="line2d_6">
      <g>
       <use style="stroke:#000000;stroke-width:0.8;" x="277.262098" xlink:href="#me7f8b7a7fa" y="307.584"/>
      </g>
     </g>
     <g id="text_6">
      <!-- 0.25 -->
      <g transform="translate(266.129285 322.182437)scale(0.1 -0.1)">
       <use xlink:href="#DejaVuSans-48"/>
       <use x="63.623047" xlink:href="#DejaVuSans-46"/>
       <use x="95.410156" xlink:href="#DejaVuSans-50"/>
       <use x="159.033203" xlink:href="#DejaVuSans-53"/>
      </g>
     </g>
    </g>
    <g id="xtick_7">
     <g id="line2d_7">
      <g>
       <use style="stroke:#000000;stroke-width:0.8;" x="318.364196" xlink:href="#me7f8b7a7fa" y="307.584"/>
      </g>
     </g>
     <g id="text_7">
      <!-- 0.50 -->
      <g transform="translate(307.231383 322.182437)scale(0.1 -0.1)">
       <use xlink:href="#DejaVuSans-48"/>
       <use x="63.623047" xlink:href="#DejaVuSans-46"/>
       <use x="95.410156" xlink:href="#DejaVuSans-53"/>
       <use x="159.033203" xlink:href="#DejaVuSans-48"/>
      </g>
     </g>
    </g>
    <g id="xtick_8">
     <g id="line2d_8">
      <g>
       <use style="stroke:#000000;stroke-width:0.8;" x="359.466294" xlink:href="#me7f8b7a7fa" y="307.584"/>
      </g>
     </g>
     <g id="text_8">
      <!-- 0.75 -->
      <g transform="translate(348.333481 322.182437)scale(0.1 -0.1)">
       <use xlink:href="#DejaVuSans-48"/>
       <use x="63.623047" xlink:href="#DejaVuSans-46"/>
       <use x="95.410156" xlink:href="#DejaVuSans-55"/>
       <use x="159.033203" xlink:href="#DejaVuSans-53"/>
      </g>
     </g>
    </g>
    <g id="xtick_9">
     <g id="line2d_9">
      <g>
       <use style="stroke:#000000;stroke-width:0.8;" x="400.568392" xlink:href="#me7f8b7a7fa" y="307.584"/>
      </g>
     </g>
     <g id="text_9">
      <!-- 1.00 -->
      <g transform="translate(389.435579 322.182437)scale(0.1 -0.1)">
       <use xlink:href="#DejaVuSans-49"/>
       <use x="63.623047" xlink:href="#DejaVuSans-46"/>
       <use x="95.410156" xlink:href="#DejaVuSans-48"/>
       <use x="159.033203" xlink:href="#DejaVuSans-48"/>
      </g>
     </g>
    </g>
   </g>
   <g id="matplotlib.axis_2">
    <g id="ytick_1">
     <g id="line2d_10">
      <defs>
       <path d="M 0 0 
L -3.5 0 
" id="m400a56b765" style="stroke:#000000;stroke-width:0.8;"/>
      </defs>
      <g>
       <use style="stroke:#000000;stroke-width:0.8;" x="57.6" xlink:href="#m400a56b765" y="295.666661"/>
      </g>
     </g>
     <g id="text_10">
      <!-- 0.0 -->
      <g transform="translate(34.696875 299.46588)scale(0.1 -0.1)">
       <use xlink:href="#DejaVuSans-48"/>
       <use x="63.623047" xlink:href="#DejaVuSans-46"/>
       <use x="95.410156" xlink:href="#DejaVuSans-48"/>
      </g>
     </g>
    </g>
    <g id="ytick_2">
     <g id="line2d_11">
      <g>
       <use style="stroke:#000000;stroke-width:0.8;" x="57.6" xlink:href="#m400a56b765" y="246.332063"/>
      </g>
     </g>
     <g id="text_11">
      <!-- 0.5 -->
      <g transform="translate(34.696875 250.131281)scale(0.1 -0.1)">
       <use xlink:href="#DejaVuSans-48"/>
       <use x="63.623047" xlink:href="#DejaVuSans-46"/>
       <use x="95.410156" xlink:href="#DejaVuSans-53"/>
      </g>
     </g>
    </g>
    <g id="ytick_3">
     <g id="line2d_12">
      <g>
       <use style="stroke:#000000;stroke-width:0.8;" x="57.6" xlink:href="#m400a56b765" y="196.997464"/>
      </g>
     </g>
     <g id="text_12">
      <!-- 1.0 -->
      <g transform="translate(34.696875 200.796683)scale(0.1 -0.1)">
       <use xlink:href="#DejaVuSans-49"/>
       <use x="63.623047" xlink:href="#DejaVuSans-46"/>
       <use x="95.410156" xlink:href="#DejaVuSans-48"/>
      </g>
     </g>
    </g>
    <g id="ytick_4">
     <g id="line2d_13">
      <g>
       <use style="stroke:#000000;stroke-width:0.8;" x="57.6" xlink:href="#m400a56b765" y="147.662865"/>
      </g>
     </g>
     <g id="text_13">
      <!-- 1.5 -->
      <g transform="translate(34.696875 151.462084)scale(0.1 -0.1)">
       <use xlink:href="#DejaVuSans-49"/>
       <use x="63.623047" xlink:href="#DejaVuSans-46"/>
       <use x="95.410156" xlink:href="#DejaVuSans-53"/>
      </g>
     </g>
    </g>
    <g id="ytick_5">
     <g id="line2d_14">
      <g>
       <use style="stroke:#000000;stroke-width:0.8;" x="57.6" xlink:href="#m400a56b765" y="98.328266"/>
      </g>
     </g>
     <g id="text_14">
      <!-- 2.0 -->
      <g transform="translate(34.696875 102.127485)scale(0.1 -0.1)">
       <use xlink:href="#DejaVuSans-50"/>
       <use x="63.623047" xlink:href="#DejaVuSans-46"/>
       <use x="95.410156" xlink:href="#DejaVuSans-48"/>
      </g>
     </g>
    </g>
    <g id="ytick_6">
     <g id="line2d_15">
      <g>
       <use style="stroke:#000000;stroke-width:0.8;" x="57.6" xlink:href="#m400a56b765" y="48.993667"/>
      </g>
     </g>
     <g id="text_15">
      <!-- 2.5 -->
      <g transform="translate(34.696875 52.792886)scale(0.1 -0.1)">
       <use xlink:href="#DejaVuSans-50"/>
       <use x="63.623047" xlink:href="#DejaVuSans-46"/>
       <use x="95.410156" xlink:href="#DejaVuSans-53"/>
      </g>
     </g>
    </g>
    <g id="text_16">
     <!-- 1e−7 -->
     <g transform="translate(57.6 38.472)scale(0.1 -0.1)">
      <defs>
       <path d="M 56.203125 29.59375 
L 56.203125 25.203125 
L 14.890625 25.203125 
Q 15.484375 15.921875 20.484375 11.0625 
Q 25.484375 6.203125 34.421875 6.203125 
Q 39.59375 6.203125 44.453125 7.46875 
Q 49.3125 8.734375 54.109375 11.28125 
L 54.109375 2.78125 
Q 49.265625 0.734375 44.1875 -0.34375 
Q 39.109375 -1.421875 33.890625 -1.421875 
Q 20.796875 -1.421875 13.15625 6.1875 
Q 5.515625 13.8125 5.515625 26.8125 
Q 5.515625 40.234375 12.765625 48.109375 
Q 20.015625 56 32.328125 56 
Q 43.359375 56 49.78125 48.890625 
Q 56.203125 41.796875 56.203125 29.59375 
z
M 47.21875 32.234375 
Q 47.125 39.59375 43.09375 43.984375 
Q 39.0625 48.390625 32.421875 48.390625 
Q 24.90625 48.390625 20.390625 44.140625 
Q 15.875 39.890625 15.1875 32.171875 
z
" id="DejaVuSans-101"/>
      </defs>
      <use xlink:href="#DejaVuSans-49"/>
      <use x="63.623047" xlink:href="#DejaVuSans-101"/>
      <use x="125.146484" xlink:href="#DejaVuSans-8722"/>
      <use x="208.935547" xlink:href="#DejaVuSans-55"/>
     </g>
    </g>
   </g>
   <g id="patch_3">
    <path d="M 57.6 307.584 
L 57.6 41.472 
" style="fill:none;stroke:#000000;stroke-linecap:square;stroke-linejoin:miter;stroke-width:0.8;"/>
   </g>
   <g id="patch_4">
    <path d="M 414.72 307.584 
L 414.72 41.472 
" style="fill:none;stroke:#000000;stroke-linecap:square;stroke-linejoin:miter;stroke-width:0.8;"/>
   </g>
   <g id="patch_5">
    <path d="M 57.6 307.584 
L 414.72 307.584 
" style="fill:none;stroke:#000000;stroke-linecap:square;stroke-linejoin:miter;stroke-width:0.8;"/>
   </g>
   <g id="patch_6">
    <path d="M 57.6 41.472 
L 414.72 41.472 
" style="fill:none;stroke:#000000;stroke-linecap:square;stroke-linejoin:miter;stroke-width:0.8;"/>
   </g>
  </g>
 </g>
 <defs>
  <clipPath id="pc5e648c09b">
   <rect height="266.112" width="357.12" x="57.6" y="41.472"/>
  </clipPath>
 </defs>
</svg>
