<?xml version="1.0" encoding="utf-8" standalone="no"?>
<!DOCTYPE svg PUBLIC "-//W3C//DTD SVG 1.1//EN"
  "http://www.w3.org/Graphics/SVG/1.1/DTD/svg11.dtd">
<!-- Created with matplotlib (https://matplotlib.org/) -->
<svg height="345.6pt" version="1.1" viewBox="0 0 460.8 345.6" width="460.8pt" xmlns="http://www.w3.org/2000/svg" xmlns:xlink="http://www.w3.org/1999/xlink">
 <metadata>
  <rdf:RDF xmlns:cc="http://creativecommons.org/ns#" xmlns:dc="http://purl.org/dc/elements/1.1/" xmlns:rdf="http://www.w3.org/1999/02/22-rdf-syntax-ns#">
   <cc:Work>
    <dc:type rdf:resource="http://purl.org/dc/dcmitype/StillImage"/>
    <dc:date>2022-06-28T10:27:00.019868</dc:date>
    <dc:format>image/svg+xml</dc:format>
    <dc:creator>
     <cc:Agent>
      <dc:title>Matplotlib v3.3.2, https://matplotlib.org/</dc:title>
     </cc:Agent>
    </dc:creator>
   </cc:Work>
  </rdf:RDF>
 </metadata>
 <defs>
  <style type="text/css">*{stroke-linecap:butt;stroke-linejoin:round;}</style>
 </defs>
 <g id="figure_1">
  <g id="patch_1">
   <path d="M 0 345.6 
L 460.8 345.6 
L 460.8 0 
L 0 0 
z
" style="fill:#ffffff;"/>
  </g>
  <g id="axes_1">
   <g id="patch_2">
    <path d="M 57.6 307.584 
L 414.72 307.584 
L 414.72 41.472 
L 57.6 41.472 
z
" style="fill:#ffffff;"/>
   </g>
   <g id="PathCollection_1">
    <defs>
     <path d="M 0 3 
C 0.795609 3 1.55874 2.683901 2.12132 2.12132 
C 2.683901 1.55874 3 0.795609 3 0 
C 3 -0.795609 2.683901 -1.55874 2.12132 -2.12132 
C 1.55874 -2.683901 0.795609 -3 0 -3 
C -0.795609 -3 -1.55874 -2.683901 -2.12132 -2.12132 
C -2.683901 -1.55874 -3 -0.795609 -3 0 
C -3 0.795609 -2.683901 1.55874 -2.12132 2.12132 
C -1.55874 2.683901 -0.795609 3 0 3 
z
" id="mda401d4a51" style="stroke:#ff0000;"/>
    </defs>
    <g clip-path="url(#pba5fbadff7)">
     <use style="fill:#ff0000;stroke:#ff0000;" x="73.832727" xlink:href="#mda401d4a51" y="295.488"/>
    </g>
   </g>
   <g id="PathCollection_2">
    <g clip-path="url(#pba5fbadff7)">
     <use style="fill:#ff0000;stroke:#ff0000;" x="79.430219" xlink:href="#mda401d4a51" y="295.488"/>
    </g>
   </g>
   <g id="PathCollection_3">
    <g clip-path="url(#pba5fbadff7)">
     <use style="fill:#ff0000;stroke:#ff0000;" x="85.027712" xlink:href="#mda401d4a51" y="295.487997"/>
    </g>
   </g>
   <g id="PathCollection_4">
    <g clip-path="url(#pba5fbadff7)">
     <use style="fill:#ff0000;stroke:#ff0000;" x="90.625204" xlink:href="#mda401d4a51" y="295.487992"/>
    </g>
   </g>
   <g id="PathCollection_5">
    <g clip-path="url(#pba5fbadff7)">
     <use style="fill:#ff0000;stroke:#ff0000;" x="96.222696" xlink:href="#mda401d4a51" y="295.487949"/>
    </g>
   </g>
   <g id="PathCollection_6">
    <g clip-path="url(#pba5fbadff7)">
     <use style="fill:#ff0000;stroke:#ff0000;" x="101.820188" xlink:href="#mda401d4a51" y="295.487997"/>
    </g>
   </g>
   <g id="PathCollection_7">
    <g clip-path="url(#pba5fbadff7)">
     <use style="fill:#ff0000;stroke:#ff0000;" x="107.41768" xlink:href="#mda401d4a51" y="295.487619"/>
    </g>
   </g>
   <g id="PathCollection_8">
    <g clip-path="url(#pba5fbadff7)">
     <use style="fill:#ff0000;stroke:#ff0000;" x="113.015172" xlink:href="#mda401d4a51" y="295.487357"/>
    </g>
   </g>
   <g id="PathCollection_9">
    <g clip-path="url(#pba5fbadff7)">
     <use style="fill:#ff0000;stroke:#ff0000;" x="118.612665" xlink:href="#mda401d4a51" y="295.487095"/>
    </g>
   </g>
   <g id="PathCollection_10">
    <g clip-path="url(#pba5fbadff7)">
     <use style="fill:#ff0000;stroke:#ff0000;" x="124.210157" xlink:href="#mda401d4a51" y="295.482977"/>
    </g>
   </g>
   <g id="PathCollection_11">
    <g clip-path="url(#pba5fbadff7)">
     <use style="fill:#ff0000;stroke:#ff0000;" x="129.807649" xlink:href="#mda401d4a51" y="295.481779"/>
    </g>
   </g>
   <g id="PathCollection_12">
    <g clip-path="url(#pba5fbadff7)">
     <use style="fill:#ff0000;stroke:#ff0000;" x="135.405141" xlink:href="#mda401d4a51" y="295.479747"/>
    </g>
   </g>
   <g id="PathCollection_13">
    <g clip-path="url(#pba5fbadff7)">
     <use style="fill:#ff0000;stroke:#ff0000;" x="141.002633" xlink:href="#mda401d4a51" y="295.444742"/>
    </g>
   </g>
   <g id="PathCollection_14">
    <g clip-path="url(#pba5fbadff7)">
     <use style="fill:#ff0000;stroke:#ff0000;" x="146.600125" xlink:href="#mda401d4a51" y="295.422187"/>
    </g>
   </g>
   <g id="PathCollection_15">
    <g clip-path="url(#pba5fbadff7)">
     <use style="fill:#ff0000;stroke:#ff0000;" x="152.197618" xlink:href="#mda401d4a51" y="295.481537"/>
    </g>
   </g>
   <g id="PathCollection_16">
    <g clip-path="url(#pba5fbadff7)">
     <use style="fill:#ff0000;stroke:#ff0000;" x="157.79511" xlink:href="#mda401d4a51" y="295.243283"/>
    </g>
   </g>
   <g id="PathCollection_17">
    <g clip-path="url(#pba5fbadff7)">
     <use style="fill:#ff0000;stroke:#ff0000;" x="163.392602" xlink:href="#mda401d4a51" y="294.929913"/>
    </g>
   </g>
   <g id="PathCollection_18">
    <g clip-path="url(#pba5fbadff7)">
     <use style="fill:#ff0000;stroke:#ff0000;" x="168.990094" xlink:href="#mda401d4a51" y="294.939749"/>
    </g>
   </g>
   <g id="PathCollection_19">
    <g clip-path="url(#pba5fbadff7)">
     <use style="fill:#ff0000;stroke:#ff0000;" x="174.587586" xlink:href="#mda401d4a51" y="295.079598"/>
    </g>
   </g>
   <g id="PathCollection_20">
    <g clip-path="url(#pba5fbadff7)">
     <use style="fill:#ff0000;stroke:#ff0000;" x="180.185078" xlink:href="#mda401d4a51" y="292.839286"/>
    </g>
   </g>
   <g id="PathCollection_21">
    <g clip-path="url(#pba5fbadff7)">
     <use style="fill:#ff0000;stroke:#ff0000;" x="185.782571" xlink:href="#mda401d4a51" y="290.123505"/>
    </g>
   </g>
   <g id="PathCollection_22">
    <g clip-path="url(#pba5fbadff7)">
     <use style="fill:#ff0000;stroke:#ff0000;" x="191.380063" xlink:href="#mda401d4a51" y="289.558792"/>
    </g>
   </g>
   <g id="PathCollection_23">
    <g clip-path="url(#pba5fbadff7)">
     <use style="fill:#ff0000;stroke:#ff0000;" x="196.977555" xlink:href="#mda401d4a51" y="295.254499"/>
    </g>
   </g>
   <g id="PathCollection_24">
    <g clip-path="url(#pba5fbadff7)">
     <use style="fill:#ff0000;stroke:#ff0000;" x="202.575047" xlink:href="#mda401d4a51" y="280.198422"/>
    </g>
   </g>
   <g id="PathCollection_25">
    <g clip-path="url(#pba5fbadff7)">
     <use style="fill:#ff0000;stroke:#ff0000;" x="208.172539" xlink:href="#mda401d4a51" y="255.534019"/>
    </g>
   </g>
   <g id="PathCollection_26">
    <g clip-path="url(#pba5fbadff7)">
     <use style="fill:#ff0000;stroke:#ff0000;" x="213.770031" xlink:href="#mda401d4a51" y="230.769705"/>
    </g>
   </g>
   <g id="PathCollection_27">
    <g clip-path="url(#pba5fbadff7)">
     <use style="fill:#ff0000;stroke:#ff0000;" x="219.367524" xlink:href="#mda401d4a51" y="225.319214"/>
    </g>
   </g>
   <g id="PathCollection_28">
    <g clip-path="url(#pba5fbadff7)">
     <use style="fill:#ff0000;stroke:#ff0000;" x="224.965016" xlink:href="#mda401d4a51" y="266.516036"/>
    </g>
   </g>
   <g id="PathCollection_29">
    <g clip-path="url(#pba5fbadff7)">
     <use style="fill:#ff0000;stroke:#ff0000;" x="230.562508" xlink:href="#mda401d4a51" y="208.016353"/>
    </g>
   </g>
   <g id="PathCollection_30">
    <g clip-path="url(#pba5fbadff7)">
     <use style="fill:#ff0000;stroke:#ff0000;" x="234.761453" xlink:href="#mda401d4a51" y="59.031501"/>
    </g>
   </g>
   <g id="PathCollection_31">
    <g clip-path="url(#pba5fbadff7)">
     <use style="fill:#ff0000;stroke:#ff0000;" x="236.16" xlink:href="#mda401d4a51" y="292.897371"/>
    </g>
   </g>
   <g id="PathCollection_32">
    <g clip-path="url(#pba5fbadff7)">
     <use style="fill:#ff0000;stroke:#ff0000;" x="237.560199" xlink:href="#mda401d4a51" y="53.568"/>
    </g>
   </g>
   <g id="PathCollection_33">
    <g clip-path="url(#pba5fbadff7)">
     <use style="fill:#ff0000;stroke:#ff0000;" x="241.757492" xlink:href="#mda401d4a51" y="204.456171"/>
    </g>
   </g>
   <g id="PathCollection_34">
    <g clip-path="url(#pba5fbadff7)">
     <use style="fill:#ff0000;stroke:#ff0000;" x="247.354984" xlink:href="#mda401d4a51" y="266.34634"/>
    </g>
   </g>
   <g id="PathCollection_35">
    <g clip-path="url(#pba5fbadff7)">
     <use style="fill:#ff0000;stroke:#ff0000;" x="252.952476" xlink:href="#mda401d4a51" y="222.734172"/>
    </g>
   </g>
   <g id="PathCollection_36">
    <g clip-path="url(#pba5fbadff7)">
     <use style="fill:#ff0000;stroke:#ff0000;" x="258.549969" xlink:href="#mda401d4a51" y="228.629711"/>
    </g>
   </g>
   <g id="PathCollection_37">
    <g clip-path="url(#pba5fbadff7)">
     <use style="fill:#ff0000;stroke:#ff0000;" x="264.147461" xlink:href="#mda401d4a51" y="254.244332"/>
    </g>
   </g>
   <g id="PathCollection_38">
    <g clip-path="url(#pba5fbadff7)">
     <use style="fill:#ff0000;stroke:#ff0000;" x="269.744953" xlink:href="#mda401d4a51" y="279.743847"/>
    </g>
   </g>
   <g id="PathCollection_39">
    <g clip-path="url(#pba5fbadff7)">
     <use style="fill:#ff0000;stroke:#ff0000;" x="275.342445" xlink:href="#mda401d4a51" y="295.226486"/>
    </g>
   </g>
   <g id="PathCollection_40">
    <g clip-path="url(#pba5fbadff7)">
     <use style="fill:#ff0000;stroke:#ff0000;" x="280.939937" xlink:href="#mda401d4a51" y="289.338958"/>
    </g>
   </g>
   <g id="PathCollection_41">
    <g clip-path="url(#pba5fbadff7)">
     <use style="fill:#ff0000;stroke:#ff0000;" x="286.537429" xlink:href="#mda401d4a51" y="289.932493"/>
    </g>
   </g>
   <g id="PathCollection_42">
    <g clip-path="url(#pba5fbadff7)">
     <use style="fill:#ff0000;stroke:#ff0000;" x="292.134922" xlink:href="#mda401d4a51" y="292.746355"/>
    </g>
   </g>
   <g id="PathCollection_43">
    <g clip-path="url(#pba5fbadff7)">
     <use style="fill:#ff0000;stroke:#ff0000;" x="297.732414" xlink:href="#mda401d4a51" y="295.051539"/>
    </g>
   </g>
   <g id="PathCollection_44">
    <g clip-path="url(#pba5fbadff7)">
     <use style="fill:#ff0000;stroke:#ff0000;" x="303.329906" xlink:href="#mda401d4a51" y="294.930615"/>
    </g>
   </g>
   <g id="PathCollection_45">
    <g clip-path="url(#pba5fbadff7)">
     <use style="fill:#ff0000;stroke:#ff0000;" x="308.927398" xlink:href="#mda401d4a51" y="294.899995"/>
    </g>
   </g>
   <g id="PathCollection_46">
    <g clip-path="url(#pba5fbadff7)">
     <use style="fill:#ff0000;stroke:#ff0000;" x="314.52489" xlink:href="#mda401d4a51" y="295.211821"/>
    </g>
   </g>
   <g id="PathCollection_47">
    <g clip-path="url(#pba5fbadff7)">
     <use style="fill:#ff0000;stroke:#ff0000;" x="320.122382" xlink:href="#mda401d4a51" y="295.464555"/>
    </g>
   </g>
   <g id="PathCollection_48">
    <g clip-path="url(#pba5fbadff7)">
     <use style="fill:#ff0000;stroke:#ff0000;" x="325.719875" xlink:href="#mda401d4a51" y="295.421682"/>
    </g>
   </g>
   <g id="PathCollection_49">
    <g clip-path="url(#pba5fbadff7)">
     <use style="fill:#ff0000;stroke:#ff0000;" x="331.317367" xlink:href="#mda401d4a51" y="295.435442"/>
    </g>
   </g>
   <g id="PathCollection_50">
    <g clip-path="url(#pba5fbadff7)">
     <use style="fill:#ff0000;stroke:#ff0000;" x="336.914859" xlink:href="#mda401d4a51" y="295.472044"/>
    </g>
   </g>
   <g id="PathCollection_51">
    <g clip-path="url(#pba5fbadff7)">
     <use style="fill:#ff0000;stroke:#ff0000;" x="342.512351" xlink:href="#mda401d4a51" y="295.483669"/>
    </g>
   </g>
   <g id="PathCollection_52">
    <g clip-path="url(#pba5fbadff7)">
     <use style="fill:#ff0000;stroke:#ff0000;" x="348.109843" xlink:href="#mda401d4a51" y="295.481166"/>
    </g>
   </g>
   <g id="PathCollection_53">
    <g clip-path="url(#pba5fbadff7)">
     <use style="fill:#ff0000;stroke:#ff0000;" x="353.707335" xlink:href="#mda401d4a51" y="295.485216"/>
    </g>
   </g>
   <g id="PathCollection_54">
    <g clip-path="url(#pba5fbadff7)">
     <use style="fill:#ff0000;stroke:#ff0000;" x="359.304828" xlink:href="#mda401d4a51" y="295.487817"/>
    </g>
   </g>
   <g id="PathCollection_55">
    <g clip-path="url(#pba5fbadff7)">
     <use style="fill:#ff0000;stroke:#ff0000;" x="364.90232" xlink:href="#mda401d4a51" y="295.487268"/>
    </g>
   </g>
   <g id="PathCollection_56">
    <g clip-path="url(#pba5fbadff7)">
     <use style="fill:#ff0000;stroke:#ff0000;" x="370.499812" xlink:href="#mda401d4a51" y="295.487718"/>
    </g>
   </g>
   <g id="PathCollection_57">
    <g clip-path="url(#pba5fbadff7)">
     <use style="fill:#ff0000;stroke:#ff0000;" x="376.097304" xlink:href="#mda401d4a51" y="295.487963"/>
    </g>
   </g>
   <g id="PathCollection_58">
    <g clip-path="url(#pba5fbadff7)">
     <use style="fill:#ff0000;stroke:#ff0000;" x="381.694796" xlink:href="#mda401d4a51" y="295.48794"/>
    </g>
   </g>
   <g id="PathCollection_59">
    <g clip-path="url(#pba5fbadff7)">
     <use style="fill:#ff0000;stroke:#ff0000;" x="387.292288" xlink:href="#mda401d4a51" y="295.487992"/>
    </g>
   </g>
   <g id="PathCollection_60">
    <g clip-path="url(#pba5fbadff7)">
     <use style="fill:#ff0000;stroke:#ff0000;" x="392.889781" xlink:href="#mda401d4a51" y="295.487994"/>
    </g>
   </g>
   <g id="PathCollection_61">
    <g clip-path="url(#pba5fbadff7)">
     <use style="fill:#ff0000;stroke:#ff0000;" x="398.487273" xlink:href="#mda401d4a51" y="295.488"/>
    </g>
   </g>
   <g id="PathCollection_62">
    <g clip-path="url(#pba5fbadff7)">
     <use style="fill:#ff0000;stroke:#ff0000;" x="73.832727" xlink:href="#mda401d4a51" y="295.488"/>
    </g>
   </g>
   <g id="PathCollection_63">
    <g clip-path="url(#pba5fbadff7)">
     <use style="fill:#ff0000;stroke:#ff0000;" x="79.430219" xlink:href="#mda401d4a51" y="295.488"/>
    </g>
   </g>
   <g id="PathCollection_64">
    <g clip-path="url(#pba5fbadff7)">
     <use style="fill:#ff0000;stroke:#ff0000;" x="85.027712" xlink:href="#mda401d4a51" y="295.487997"/>
    </g>
   </g>
   <g id="PathCollection_65">
    <g clip-path="url(#pba5fbadff7)">
     <use style="fill:#ff0000;stroke:#ff0000;" x="90.625204" xlink:href="#mda401d4a51" y="295.487992"/>
    </g>
   </g>
   <g id="PathCollection_66">
    <g clip-path="url(#pba5fbadff7)">
     <use style="fill:#ff0000;stroke:#ff0000;" x="96.222696" xlink:href="#mda401d4a51" y="295.487949"/>
    </g>
   </g>
   <g id="PathCollection_67">
    <g clip-path="url(#pba5fbadff7)">
     <use style="fill:#ff0000;stroke:#ff0000;" x="101.820188" xlink:href="#mda401d4a51" y="295.487997"/>
    </g>
   </g>
   <g id="PathCollection_68">
    <g clip-path="url(#pba5fbadff7)">
     <use style="fill:#ff0000;stroke:#ff0000;" x="107.41768" xlink:href="#mda401d4a51" y="295.487619"/>
    </g>
   </g>
   <g id="PathCollection_69">
    <g clip-path="url(#pba5fbadff7)">
     <use style="fill:#ff0000;stroke:#ff0000;" x="113.015172" xlink:href="#mda401d4a51" y="295.487357"/>
    </g>
   </g>
   <g id="PathCollection_70">
    <g clip-path="url(#pba5fbadff7)">
     <use style="fill:#ff0000;stroke:#ff0000;" x="118.612665" xlink:href="#mda401d4a51" y="295.487095"/>
    </g>
   </g>
   <g id="PathCollection_71">
    <g clip-path="url(#pba5fbadff7)">
     <use style="fill:#ff0000;stroke:#ff0000;" x="124.210157" xlink:href="#mda401d4a51" y="295.482977"/>
    </g>
   </g>
   <g id="PathCollection_72">
    <g clip-path="url(#pba5fbadff7)">
     <use style="fill:#ff0000;stroke:#ff0000;" x="129.807649" xlink:href="#mda401d4a51" y="295.481779"/>
    </g>
   </g>
   <g id="PathCollection_73">
    <g clip-path="url(#pba5fbadff7)">
     <use style="fill:#ff0000;stroke:#ff0000;" x="135.405141" xlink:href="#mda401d4a51" y="295.479747"/>
    </g>
   </g>
   <g id="PathCollection_74">
    <g clip-path="url(#pba5fbadff7)">
     <use style="fill:#ff0000;stroke:#ff0000;" x="141.002633" xlink:href="#mda401d4a51" y="295.444742"/>
    </g>
   </g>
   <g id="PathCollection_75">
    <g clip-path="url(#pba5fbadff7)">
     <use style="fill:#ff0000;stroke:#ff0000;" x="146.600125" xlink:href="#mda401d4a51" y="295.422187"/>
    </g>
   </g>
   <g id="PathCollection_76">
    <g clip-path="url(#pba5fbadff7)">
     <use style="fill:#ff0000;stroke:#ff0000;" x="152.197618" xlink:href="#mda401d4a51" y="295.481537"/>
    </g>
   </g>
   <g id="PathCollection_77">
    <g clip-path="url(#pba5fbadff7)">
     <use style="fill:#ff0000;stroke:#ff0000;" x="157.79511" xlink:href="#mda401d4a51" y="295.243283"/>
    </g>
   </g>
   <g id="PathCollection_78">
    <g clip-path="url(#pba5fbadff7)">
     <use style="fill:#ff0000;stroke:#ff0000;" x="163.392602" xlink:href="#mda401d4a51" y="294.929913"/>
    </g>
   </g>
   <g id="PathCollection_79">
    <g clip-path="url(#pba5fbadff7)">
     <use style="fill:#ff0000;stroke:#ff0000;" x="168.990094" xlink:href="#mda401d4a51" y="294.939749"/>
    </g>
   </g>
   <g id="PathCollection_80">
    <g clip-path="url(#pba5fbadff7)">
     <use style="fill:#ff0000;stroke:#ff0000;" x="174.587586" xlink:href="#mda401d4a51" y="295.079598"/>
    </g>
   </g>
   <g id="PathCollection_81">
    <g clip-path="url(#pba5fbadff7)">
     <use style="fill:#ff0000;stroke:#ff0000;" x="180.185078" xlink:href="#mda401d4a51" y="292.839286"/>
    </g>
   </g>
   <g id="PathCollection_82">
    <g clip-path="url(#pba5fbadff7)">
     <use style="fill:#ff0000;stroke:#ff0000;" x="185.782571" xlink:href="#mda401d4a51" y="290.123505"/>
    </g>
   </g>
   <g id="PathCollection_83">
    <g clip-path="url(#pba5fbadff7)">
     <use style="fill:#ff0000;stroke:#ff0000;" x="191.380063" xlink:href="#mda401d4a51" y="289.558792"/>
    </g>
   </g>
   <g id="PathCollection_84">
    <g clip-path="url(#pba5fbadff7)">
     <use style="fill:#ff0000;stroke:#ff0000;" x="196.977555" xlink:href="#mda401d4a51" y="295.254499"/>
    </g>
   </g>
   <g id="PathCollection_85">
    <g clip-path="url(#pba5fbadff7)">
     <use style="fill:#ff0000;stroke:#ff0000;" x="202.575047" xlink:href="#mda401d4a51" y="280.198422"/>
    </g>
   </g>
   <g id="PathCollection_86">
    <g clip-path="url(#pba5fbadff7)">
     <use style="fill:#ff0000;stroke:#ff0000;" x="208.172539" xlink:href="#mda401d4a51" y="255.534019"/>
    </g>
   </g>
   <g id="PathCollection_87">
    <g clip-path="url(#pba5fbadff7)">
     <use style="fill:#ff0000;stroke:#ff0000;" x="213.770031" xlink:href="#mda401d4a51" y="230.769705"/>
    </g>
   </g>
   <g id="PathCollection_88">
    <g clip-path="url(#pba5fbadff7)">
     <use style="fill:#ff0000;stroke:#ff0000;" x="219.367524" xlink:href="#mda401d4a51" y="225.319214"/>
    </g>
   </g>
   <g id="PathCollection_89">
    <g clip-path="url(#pba5fbadff7)">
     <use style="fill:#ff0000;stroke:#ff0000;" x="224.965016" xlink:href="#mda401d4a51" y="266.516036"/>
    </g>
   </g>
   <g id="PathCollection_90">
    <g clip-path="url(#pba5fbadff7)">
     <use style="fill:#ff0000;stroke:#ff0000;" x="230.562508" xlink:href="#mda401d4a51" y="208.016353"/>
    </g>
   </g>
   <g id="PathCollection_91">
    <g clip-path="url(#pba5fbadff7)">
     <use style="fill:#ff0000;stroke:#ff0000;" x="234.761453" xlink:href="#mda401d4a51" y="59.031501"/>
    </g>
   </g>
   <g id="PathCollection_92">
    <g clip-path="url(#pba5fbadff7)">
     <use style="fill:#ff0000;stroke:#ff0000;" x="236.16" xlink:href="#mda401d4a51" y="292.897371"/>
    </g>
   </g>
   <g id="PathCollection_93">
    <g clip-path="url(#pba5fbadff7)">
     <use style="fill:#ff0000;stroke:#ff0000;" x="237.560199" xlink:href="#mda401d4a51" y="53.568"/>
    </g>
   </g>
   <g id="PathCollection_94">
    <g clip-path="url(#pba5fbadff7)">
     <use style="fill:#ff0000;stroke:#ff0000;" x="241.757492" xlink:href="#mda401d4a51" y="204.456171"/>
    </g>
   </g>
   <g id="PathCollection_95">
    <g clip-path="url(#pba5fbadff7)">
     <use style="fill:#ff0000;stroke:#ff0000;" x="247.354984" xlink:href="#mda401d4a51" y="266.34634"/>
    </g>
   </g>
   <g id="PathCollection_96">
    <g clip-path="url(#pba5fbadff7)">
     <use style="fill:#ff0000;stroke:#ff0000;" x="252.952476" xlink:href="#mda401d4a51" y="222.734172"/>
    </g>
   </g>
   <g id="PathCollection_97">
    <g clip-path="url(#pba5fbadff7)">
     <use style="fill:#ff0000;stroke:#ff0000;" x="258.549969" xlink:href="#mda401d4a51" y="228.629711"/>
    </g>
   </g>
   <g id="PathCollection_98">
    <g clip-path="url(#pba5fbadff7)">
     <use style="fill:#ff0000;stroke:#ff0000;" x="264.147461" xlink:href="#mda401d4a51" y="254.244332"/>
    </g>
   </g>
   <g id="PathCollection_99">
    <g clip-path="url(#pba5fbadff7)">
     <use style="fill:#ff0000;stroke:#ff0000;" x="269.744953" xlink:href="#mda401d4a51" y="279.743847"/>
    </g>
   </g>
   <g id="PathCollection_100">
    <g clip-path="url(#pba5fbadff7)">
     <use style="fill:#ff0000;stroke:#ff0000;" x="275.342445" xlink:href="#mda401d4a51" y="295.226486"/>
    </g>
   </g>
   <g id="PathCollection_101">
    <g clip-path="url(#pba5fbadff7)">
     <use style="fill:#ff0000;stroke:#ff0000;" x="280.939937" xlink:href="#mda401d4a51" y="289.338958"/>
    </g>
   </g>
   <g id="PathCollection_102">
    <g clip-path="url(#pba5fbadff7)">
     <use style="fill:#ff0000;stroke:#ff0000;" x="286.537429" xlink:href="#mda401d4a51" y="289.932493"/>
    </g>
   </g>
   <g id="PathCollection_103">
    <g clip-path="url(#pba5fbadff7)">
     <use style="fill:#ff0000;stroke:#ff0000;" x="292.134922" xlink:href="#mda401d4a51" y="292.746355"/>
    </g>
   </g>
   <g id="PathCollection_104">
    <g clip-path="url(#pba5fbadff7)">
     <use style="fill:#ff0000;stroke:#ff0000;" x="297.732414" xlink:href="#mda401d4a51" y="295.051539"/>
    </g>
   </g>
   <g id="PathCollection_105">
    <g clip-path="url(#pba5fbadff7)">
     <use style="fill:#ff0000;stroke:#ff0000;" x="303.329906" xlink:href="#mda401d4a51" y="294.930615"/>
    </g>
   </g>
   <g id="PathCollection_106">
    <g clip-path="url(#pba5fbadff7)">
     <use style="fill:#ff0000;stroke:#ff0000;" x="308.927398" xlink:href="#mda401d4a51" y="294.899995"/>
    </g>
   </g>
   <g id="PathCollection_107">
    <g clip-path="url(#pba5fbadff7)">
     <use style="fill:#ff0000;stroke:#ff0000;" x="314.52489" xlink:href="#mda401d4a51" y="295.211821"/>
    </g>
   </g>
   <g id="PathCollection_108">
    <g clip-path="url(#pba5fbadff7)">
     <use style="fill:#ff0000;stroke:#ff0000;" x="320.122382" xlink:href="#mda401d4a51" y="295.464555"/>
    </g>
   </g>
   <g id="PathCollection_109">
    <g clip-path="url(#pba5fbadff7)">
     <use style="fill:#ff0000;stroke:#ff0000;" x="325.719875" xlink:href="#mda401d4a51" y="295.421682"/>
    </g>
   </g>
   <g id="PathCollection_110">
    <g clip-path="url(#pba5fbadff7)">
     <use style="fill:#ff0000;stroke:#ff0000;" x="331.317367" xlink:href="#mda401d4a51" y="295.435442"/>
    </g>
   </g>
   <g id="PathCollection_111">
    <g clip-path="url(#pba5fbadff7)">
     <use style="fill:#ff0000;stroke:#ff0000;" x="336.914859" xlink:href="#mda401d4a51" y="295.472044"/>
    </g>
   </g>
   <g id="PathCollection_112">
    <g clip-path="url(#pba5fbadff7)">
     <use style="fill:#ff0000;stroke:#ff0000;" x="342.512351" xlink:href="#mda401d4a51" y="295.483669"/>
    </g>
   </g>
   <g id="PathCollection_113">
    <g clip-path="url(#pba5fbadff7)">
     <use style="fill:#ff0000;stroke:#ff0000;" x="348.109843" xlink:href="#mda401d4a51" y="295.481166"/>
    </g>
   </g>
   <g id="PathCollection_114">
    <g clip-path="url(#pba5fbadff7)">
     <use style="fill:#ff0000;stroke:#ff0000;" x="353.707335" xlink:href="#mda401d4a51" y="295.485216"/>
    </g>
   </g>
   <g id="PathCollection_115">
    <g clip-path="url(#pba5fbadff7)">
     <use style="fill:#ff0000;stroke:#ff0000;" x="359.304828" xlink:href="#mda401d4a51" y="295.487817"/>
    </g>
   </g>
   <g id="PathCollection_116">
    <g clip-path="url(#pba5fbadff7)">
     <use style="fill:#ff0000;stroke:#ff0000;" x="364.90232" xlink:href="#mda401d4a51" y="295.487268"/>
    </g>
   </g>
   <g id="PathCollection_117">
    <g clip-path="url(#pba5fbadff7)">
     <use style="fill:#ff0000;stroke:#ff0000;" x="370.499812" xlink:href="#mda401d4a51" y="295.487718"/>
    </g>
   </g>
   <g id="PathCollection_118">
    <g clip-path="url(#pba5fbadff7)">
     <use style="fill:#ff0000;stroke:#ff0000;" x="376.097304" xlink:href="#mda401d4a51" y="295.487963"/>
    </g>
   </g>
   <g id="PathCollection_119">
    <g clip-path="url(#pba5fbadff7)">
     <use style="fill:#ff0000;stroke:#ff0000;" x="381.694796" xlink:href="#mda401d4a51" y="295.48794"/>
    </g>
   </g>
   <g id="PathCollection_120">
    <g clip-path="url(#pba5fbadff7)">
     <use style="fill:#ff0000;stroke:#ff0000;" x="387.292288" xlink:href="#mda401d4a51" y="295.487992"/>
    </g>
   </g>
   <g id="PathCollection_121">
    <g clip-path="url(#pba5fbadff7)">
     <use style="fill:#ff0000;stroke:#ff0000;" x="392.889781" xlink:href="#mda401d4a51" y="295.487994"/>
    </g>
   </g>
   <g id="PathCollection_122">
    <g clip-path="url(#pba5fbadff7)">
     <use style="fill:#ff0000;stroke:#ff0000;" x="398.487273" xlink:href="#mda401d4a51" y="295.488"/>
    </g>
   </g>
   <g id="matplotlib.axis_1">
    <g id="xtick_1">
     <g id="line2d_1">
      <defs>
       <path d="M 0 0 
L 0 3.5 
" id="m105aaca77b" style="stroke:#000000;stroke-width:0.8;"/>
      </defs>
      <g>
       <use style="stroke:#000000;stroke-width:0.8;" x="71.033981" xlink:href="#m105aaca77b" y="307.584"/>
      </g>
     </g>
     <g id="text_1">
      <!-- −1.00 -->
      <g transform="translate(55.711325 322.182437)scale(0.1 -0.1)">
       <defs>
        <path d="M 10.59375 35.5 
L 73.1875 35.5 
L 73.1875 27.203125 
L 10.59375 27.203125 
z
" id="DejaVuSans-8722"/>
        <path d="M 12.40625 8.296875 
L 28.515625 8.296875 
L 28.515625 63.921875 
L 10.984375 60.40625 
L 10.984375 69.390625 
L 28.421875 72.90625 
L 38.28125 72.90625 
L 38.28125 8.296875 
L 54.390625 8.296875 
L 54.390625 0 
L 12.40625 0 
z
" id="DejaVuSans-49"/>
        <path d="M 10.6875 12.40625 
L 21 12.40625 
L 21 0 
L 10.6875 0 
z
" id="DejaVuSans-46"/>
        <path d="M 31.78125 66.40625 
Q 24.171875 66.40625 20.328125 58.90625 
Q 16.5 51.421875 16.5 36.375 
Q 16.5 21.390625 20.328125 13.890625 
Q 24.171875 6.390625 31.78125 6.390625 
Q 39.453125 6.390625 43.28125 13.890625 
Q 47.125 21.390625 47.125 36.375 
Q 47.125 51.421875 43.28125 58.90625 
Q 39.453125 66.40625 31.78125 66.40625 
z
M 31.78125 74.21875 
Q 44.046875 74.21875 50.515625 64.515625 
Q 56.984375 54.828125 56.984375 36.375 
Q 56.984375 17.96875 50.515625 8.265625 
Q 44.046875 -1.421875 31.78125 -1.421875 
Q 19.53125 -1.421875 13.0625 8.265625 
Q 6.59375 17.96875 6.59375 36.375 
Q 6.59375 54.828125 13.0625 64.515625 
Q 19.53125 74.21875 31.78125 74.21875 
z
" id="DejaVuSans-48"/>
       </defs>
       <use xlink:href="#DejaVuSans-8722"/>
       <use x="83.789062" xlink:href="#DejaVuSans-49"/>
       <use x="147.412109" xlink:href="#DejaVuSans-46"/>
       <use x="179.199219" xlink:href="#DejaVuSans-48"/>
       <use x="242.822266" xlink:href="#DejaVuSans-48"/>
      </g>
     </g>
    </g>
    <g id="xtick_2">
     <g id="line2d_2">
      <g>
       <use style="stroke:#000000;stroke-width:0.8;" x="112.315486" xlink:href="#m105aaca77b" y="307.584"/>
      </g>
     </g>
     <g id="text_2">
      <!-- −0.75 -->
      <g transform="translate(96.99283 322.182437)scale(0.1 -0.1)">
       <defs>
        <path d="M 8.203125 72.90625 
L 55.078125 72.90625 
L 55.078125 68.703125 
L 28.609375 0 
L 18.3125 0 
L 43.21875 64.59375 
L 8.203125 64.59375 
z
" id="DejaVuSans-55"/>
        <path d="M 10.796875 72.90625 
L 49.515625 72.90625 
L 49.515625 64.59375 
L 19.828125 64.59375 
L 19.828125 46.734375 
Q 21.96875 47.46875 24.109375 47.828125 
Q 26.265625 48.1875 28.421875 48.1875 
Q 40.625 48.1875 47.75 41.5 
Q 54.890625 34.8125 54.890625 23.390625 
Q 54.890625 11.625 47.5625 5.09375 
Q 40.234375 -1.421875 26.90625 -1.421875 
Q 22.3125 -1.421875 17.546875 -0.640625 
Q 12.796875 0.140625 7.71875 1.703125 
L 7.71875 11.625 
Q 12.109375 9.234375 16.796875 8.0625 
Q 21.484375 6.890625 26.703125 6.890625 
Q 35.15625 6.890625 40.078125 11.328125 
Q 45.015625 15.765625 45.015625 23.390625 
Q 45.015625 31 40.078125 35.4375 
Q 35.15625 39.890625 26.703125 39.890625 
Q 22.75 39.890625 18.8125 39.015625 
Q 14.890625 38.140625 10.796875 36.28125 
z
" id="DejaVuSans-53"/>
       </defs>
       <use xlink:href="#DejaVuSans-8722"/>
       <use x="83.789062" xlink:href="#DejaVuSans-48"/>
       <use x="147.412109" xlink:href="#DejaVuSans-46"/>
       <use x="179.199219" xlink:href="#DejaVuSans-55"/>
       <use x="242.822266" xlink:href="#DejaVuSans-53"/>
      </g>
     </g>
    </g>
    <g id="xtick_3">
     <g id="line2d_3">
      <g>
       <use style="stroke:#000000;stroke-width:0.8;" x="153.596991" xlink:href="#m105aaca77b" y="307.584"/>
      </g>
     </g>
     <g id="text_3">
      <!-- −0.50 -->
      <g transform="translate(138.274334 322.182437)scale(0.1 -0.1)">
       <use xlink:href="#DejaVuSans-8722"/>
       <use x="83.789062" xlink:href="#DejaVuSans-48"/>
       <use x="147.412109" xlink:href="#DejaVuSans-46"/>
       <use x="179.199219" xlink:href="#DejaVuSans-53"/>
       <use x="242.822266" xlink:href="#DejaVuSans-48"/>
      </g>
     </g>
    </g>
    <g id="xtick_4">
     <g id="line2d_4">
      <g>
       <use style="stroke:#000000;stroke-width:0.8;" x="194.878495" xlink:href="#m105aaca77b" y="307.584"/>
      </g>
     </g>
     <g id="text_4">
      <!-- −0.25 -->
      <g transform="translate(179.555839 322.182437)scale(0.1 -0.1)">
       <defs>
        <path d="M 19.1875 8.296875 
L 53.609375 8.296875 
L 53.609375 0 
L 7.328125 0 
L 7.328125 8.296875 
Q 12.9375 14.109375 22.625 23.890625 
Q 32.328125 33.6875 34.8125 36.53125 
Q 39.546875 41.84375 41.421875 45.53125 
Q 43.3125 49.21875 43.3125 52.78125 
Q 43.3125 58.59375 39.234375 62.25 
Q 35.15625 65.921875 28.609375 65.921875 
Q 23.96875 65.921875 18.8125 64.3125 
Q 13.671875 62.703125 7.8125 59.421875 
L 7.8125 69.390625 
Q 13.765625 71.78125 18.9375 73 
Q 24.125 74.21875 28.421875 74.21875 
Q 39.75 74.21875 46.484375 68.546875 
Q 53.21875 62.890625 53.21875 53.421875 
Q 53.21875 48.921875 51.53125 44.890625 
Q 49.859375 40.875 45.40625 35.40625 
Q 44.1875 33.984375 37.640625 27.21875 
Q 31.109375 20.453125 19.1875 8.296875 
z
" id="DejaVuSans-50"/>
       </defs>
       <use xlink:href="#DejaVuSans-8722"/>
       <use x="83.789062" xlink:href="#DejaVuSans-48"/>
       <use x="147.412109" xlink:href="#DejaVuSans-46"/>
       <use x="179.199219" xlink:href="#DejaVuSans-50"/>
       <use x="242.822266" xlink:href="#DejaVuSans-53"/>
      </g>
     </g>
    </g>
    <g id="xtick_5">
     <g id="line2d_5">
      <g>
       <use style="stroke:#000000;stroke-width:0.8;" x="236.16" xlink:href="#m105aaca77b" y="307.584"/>
      </g>
     </g>
     <g id="text_5">
      <!-- 0.00 -->
      <g transform="translate(225.027187 322.182437)scale(0.1 -0.1)">
       <use xlink:href="#DejaVuSans-48"/>
       <use x="63.623047" xlink:href="#DejaVuSans-46"/>
       <use x="95.410156" xlink:href="#DejaVuSans-48"/>
       <use x="159.033203" xlink:href="#DejaVuSans-48"/>
      </g>
     </g>
    </g>
    <g id="xtick_6">
     <g id="line2d_6">
      <g>
       <use style="stroke:#000000;stroke-width:0.8;" x="277.441505" xlink:href="#m105aaca77b" y="307.584"/>
      </g>
     </g>
     <g id="text_6">
      <!-- 0.25 -->
      <g transform="translate(266.308692 322.182437)scale(0.1 -0.1)">
       <use xlink:href="#DejaVuSans-48"/>
       <use x="63.623047" xlink:href="#DejaVuSans-46"/>
       <use x="95.410156" xlink:href="#DejaVuSans-50"/>
       <use x="159.033203" xlink:href="#DejaVuSans-53"/>
      </g>
     </g>
    </g>
    <g id="xtick_7">
     <g id="line2d_7">
      <g>
       <use style="stroke:#000000;stroke-width:0.8;" x="318.723009" xlink:href="#m105aaca77b" y="307.584"/>
      </g>
     </g>
     <g id="text_7">
      <!-- 0.50 -->
      <g transform="translate(307.590197 322.182437)scale(0.1 -0.1)">
       <use xlink:href="#DejaVuSans-48"/>
       <use x="63.623047" xlink:href="#DejaVuSans-46"/>
       <use x="95.410156" xlink:href="#DejaVuSans-53"/>
       <use x="159.033203" xlink:href="#DejaVuSans-48"/>
      </g>
     </g>
    </g>
    <g id="xtick_8">
     <g id="line2d_8">
      <g>
       <use style="stroke:#000000;stroke-width:0.8;" x="360.004514" xlink:href="#m105aaca77b" y="307.584"/>
      </g>
     </g>
     <g id="text_8">
      <!-- 0.75 -->
      <g transform="translate(348.871702 322.182437)scale(0.1 -0.1)">
       <use xlink:href="#DejaVuSans-48"/>
       <use x="63.623047" xlink:href="#DejaVuSans-46"/>
       <use x="95.410156" xlink:href="#DejaVuSans-55"/>
       <use x="159.033203" xlink:href="#DejaVuSans-53"/>
      </g>
     </g>
    </g>
    <g id="xtick_9">
     <g id="line2d_9">
      <g>
       <use style="stroke:#000000;stroke-width:0.8;" x="401.286019" xlink:href="#m105aaca77b" y="307.584"/>
      </g>
     </g>
     <g id="text_9">
      <!-- 1.00 -->
      <g transform="translate(390.153206 322.182437)scale(0.1 -0.1)">
       <use xlink:href="#DejaVuSans-49"/>
       <use x="63.623047" xlink:href="#DejaVuSans-46"/>
       <use x="95.410156" xlink:href="#DejaVuSans-48"/>
       <use x="159.033203" xlink:href="#DejaVuSans-48"/>
      </g>
     </g>
    </g>
   </g>
   <g id="matplotlib.axis_2">
    <g id="ytick_1">
     <g id="line2d_10">
      <defs>
       <path d="M 0 0 
L -3.5 0 
" id="mcd4a0875a7" style="stroke:#000000;stroke-width:0.8;"/>
      </defs>
      <g>
       <use style="stroke:#000000;stroke-width:0.8;" x="57.6" xlink:href="#mcd4a0875a7" y="295.488"/>
      </g>
     </g>
     <g id="text_10">
      <!-- 0.000 -->
      <g transform="translate(21.971875 299.287219)scale(0.1 -0.1)">
       <use xlink:href="#DejaVuSans-48"/>
       <use x="63.623047" xlink:href="#DejaVuSans-46"/>
       <use x="95.410156" xlink:href="#DejaVuSans-48"/>
       <use x="159.033203" xlink:href="#DejaVuSans-48"/>
       <use x="222.65625" xlink:href="#DejaVuSans-48"/>
      </g>
     </g>
    </g>
    <g id="ytick_2">
     <g id="line2d_11">
      <g>
       <use style="stroke:#000000;stroke-width:0.8;" x="57.6" xlink:href="#mcd4a0875a7" y="260.615248"/>
      </g>
     </g>
     <g id="text_11">
      <!-- 0.005 -->
      <g transform="translate(21.971875 264.414467)scale(0.1 -0.1)">
       <use xlink:href="#DejaVuSans-48"/>
       <use x="63.623047" xlink:href="#DejaVuSans-46"/>
       <use x="95.410156" xlink:href="#DejaVuSans-48"/>
       <use x="159.033203" xlink:href="#DejaVuSans-48"/>
       <use x="222.65625" xlink:href="#DejaVuSans-53"/>
      </g>
     </g>
    </g>
    <g id="ytick_3">
     <g id="line2d_12">
      <g>
       <use style="stroke:#000000;stroke-width:0.8;" x="57.6" xlink:href="#mcd4a0875a7" y="225.742496"/>
      </g>
     </g>
     <g id="text_12">
      <!-- 0.010 -->
      <g transform="translate(21.971875 229.541715)scale(0.1 -0.1)">
       <use xlink:href="#DejaVuSans-48"/>
       <use x="63.623047" xlink:href="#DejaVuSans-46"/>
       <use x="95.410156" xlink:href="#DejaVuSans-48"/>
       <use x="159.033203" xlink:href="#DejaVuSans-49"/>
       <use x="222.65625" xlink:href="#DejaVuSans-48"/>
      </g>
     </g>
    </g>
    <g id="ytick_4">
     <g id="line2d_13">
      <g>
       <use style="stroke:#000000;stroke-width:0.8;" x="57.6" xlink:href="#mcd4a0875a7" y="190.869745"/>
      </g>
     </g>
     <g id="text_13">
      <!-- 0.015 -->
      <g transform="translate(21.971875 194.668963)scale(0.1 -0.1)">
       <use xlink:href="#DejaVuSans-48"/>
       <use x="63.623047" xlink:href="#DejaVuSans-46"/>
       <use x="95.410156" xlink:href="#DejaVuSans-48"/>
       <use x="159.033203" xlink:href="#DejaVuSans-49"/>
       <use x="222.65625" xlink:href="#DejaVuSans-53"/>
      </g>
     </g>
    </g>
    <g id="ytick_5">
     <g id="line2d_14">
      <g>
       <use style="stroke:#000000;stroke-width:0.8;" x="57.6" xlink:href="#mcd4a0875a7" y="155.996993"/>
      </g>
     </g>
     <g id="text_14">
      <!-- 0.020 -->
      <g transform="translate(21.971875 159.796212)scale(0.1 -0.1)">
       <use xlink:href="#DejaVuSans-48"/>
       <use x="63.623047" xlink:href="#DejaVuSans-46"/>
       <use x="95.410156" xlink:href="#DejaVuSans-48"/>
       <use x="159.033203" xlink:href="#DejaVuSans-50"/>
       <use x="222.65625" xlink:href="#DejaVuSans-48"/>
      </g>
     </g>
    </g>
    <g id="ytick_6">
     <g id="line2d_15">
      <g>
       <use style="stroke:#000000;stroke-width:0.8;" x="57.6" xlink:href="#mcd4a0875a7" y="121.124241"/>
      </g>
     </g>
     <g id="text_15">
      <!-- 0.025 -->
      <g transform="translate(21.971875 124.92346)scale(0.1 -0.1)">
       <use xlink:href="#DejaVuSans-48"/>
       <use x="63.623047" xlink:href="#DejaVuSans-46"/>
       <use x="95.410156" xlink:href="#DejaVuSans-48"/>
       <use x="159.033203" xlink:href="#DejaVuSans-50"/>
       <use x="222.65625" xlink:href="#DejaVuSans-53"/>
      </g>
     </g>
    </g>
    <g id="ytick_7">
     <g id="line2d_16">
      <g>
       <use style="stroke:#000000;stroke-width:0.8;" x="57.6" xlink:href="#mcd4a0875a7" y="86.251489"/>
      </g>
     </g>
     <g id="text_16">
      <!-- 0.030 -->
      <g transform="translate(21.971875 90.050708)scale(0.1 -0.1)">
       <defs>
        <path d="M 40.578125 39.3125 
Q 47.65625 37.796875 51.625 33 
Q 55.609375 28.21875 55.609375 21.1875 
Q 55.609375 10.40625 48.1875 4.484375 
Q 40.765625 -1.421875 27.09375 -1.421875 
Q 22.515625 -1.421875 17.65625 -0.515625 
Q 12.796875 0.390625 7.625 2.203125 
L 7.625 11.71875 
Q 11.71875 9.328125 16.59375 8.109375 
Q 21.484375 6.890625 26.8125 6.890625 
Q 36.078125 6.890625 40.9375 10.546875 
Q 45.796875 14.203125 45.796875 21.1875 
Q 45.796875 27.640625 41.28125 31.265625 
Q 36.765625 34.90625 28.71875 34.90625 
L 20.21875 34.90625 
L 20.21875 43.015625 
L 29.109375 43.015625 
Q 36.375 43.015625 40.234375 45.921875 
Q 44.09375 48.828125 44.09375 54.296875 
Q 44.09375 59.90625 40.109375 62.90625 
Q 36.140625 65.921875 28.71875 65.921875 
Q 24.65625 65.921875 20.015625 65.03125 
Q 15.375 64.15625 9.8125 62.3125 
L 9.8125 71.09375 
Q 15.4375 72.65625 20.34375 73.4375 
Q 25.25 74.21875 29.59375 74.21875 
Q 40.828125 74.21875 47.359375 69.109375 
Q 53.90625 64.015625 53.90625 55.328125 
Q 53.90625 49.265625 50.4375 45.09375 
Q 46.96875 40.921875 40.578125 39.3125 
z
" id="DejaVuSans-51"/>
       </defs>
       <use xlink:href="#DejaVuSans-48"/>
       <use x="63.623047" xlink:href="#DejaVuSans-46"/>
       <use x="95.410156" xlink:href="#DejaVuSans-48"/>
       <use x="159.033203" xlink:href="#DejaVuSans-51"/>
       <use x="222.65625" xlink:href="#DejaVuSans-48"/>
      </g>
     </g>
    </g>
    <g id="ytick_8">
     <g id="line2d_17">
      <g>
       <use style="stroke:#000000;stroke-width:0.8;" x="57.6" xlink:href="#mcd4a0875a7" y="51.378737"/>
      </g>
     </g>
     <g id="text_17">
      <!-- 0.035 -->
      <g transform="translate(21.971875 55.177956)scale(0.1 -0.1)">
       <use xlink:href="#DejaVuSans-48"/>
       <use x="63.623047" xlink:href="#DejaVuSans-46"/>
       <use x="95.410156" xlink:href="#DejaVuSans-48"/>
       <use x="159.033203" xlink:href="#DejaVuSans-51"/>
       <use x="222.65625" xlink:href="#DejaVuSans-53"/>
      </g>
     </g>
    </g>
   </g>
   <g id="patch_3">
    <path d="M 57.6 307.584 
L 57.6 41.472 
" style="fill:none;stroke:#000000;stroke-linecap:square;stroke-linejoin:miter;stroke-width:0.8;"/>
   </g>
   <g id="patch_4">
    <path d="M 414.72 307.584 
L 414.72 41.472 
" style="fill:none;stroke:#000000;stroke-linecap:square;stroke-linejoin:miter;stroke-width:0.8;"/>
   </g>
   <g id="patch_5">
    <path d="M 57.6 307.584 
L 414.72 307.584 
" style="fill:none;stroke:#000000;stroke-linecap:square;stroke-linejoin:miter;stroke-width:0.8;"/>
   </g>
   <g id="patch_6">
    <path d="M 57.6 41.472 
L 414.72 41.472 
" style="fill:none;stroke:#000000;stroke-linecap:square;stroke-linejoin:miter;stroke-width:0.8;"/>
   </g>
  </g>
 </g>
 <defs>
  <clipPath id="pba5fbadff7">
   <rect height="266.112" width="357.12" x="57.6" y="41.472"/>
  </clipPath>
 </defs>
</svg>
