<?xml version="1.0" encoding="utf-8" standalone="no"?>
<!DOCTYPE svg PUBLIC "-//W3C//DTD SVG 1.1//EN"
  "http://www.w3.org/Graphics/SVG/1.1/DTD/svg11.dtd">
<!-- Created with matplotlib (https://matplotlib.org/) -->
<svg height="345.6pt" version="1.1" viewBox="0 0 460.8 345.6" width="460.8pt" xmlns="http://www.w3.org/2000/svg" xmlns:xlink="http://www.w3.org/1999/xlink">
 <metadata>
  <rdf:RDF xmlns:cc="http://creativecommons.org/ns#" xmlns:dc="http://purl.org/dc/elements/1.1/" xmlns:rdf="http://www.w3.org/1999/02/22-rdf-syntax-ns#">
   <cc:Work>
    <dc:type rdf:resource="http://purl.org/dc/dcmitype/StillImage"/>
    <dc:date>2022-06-28T10:27:08.585793</dc:date>
    <dc:format>image/svg+xml</dc:format>
    <dc:creator>
     <cc:Agent>
      <dc:title>Matplotlib v3.3.2, https://matplotlib.org/</dc:title>
     </cc:Agent>
    </dc:creator>
   </cc:Work>
  </rdf:RDF>
 </metadata>
 <defs>
  <style type="text/css">*{stroke-linecap:butt;stroke-linejoin:round;}</style>
 </defs>
 <g id="figure_1">
  <g id="patch_1">
   <path d="M 0 345.6 
L 460.8 345.6 
L 460.8 0 
L 0 0 
z
" style="fill:#ffffff;"/>
  </g>
  <g id="axes_1">
   <g id="patch_2">
    <path d="M 57.6 307.584 
L 414.72 307.584 
L 414.72 41.472 
L 57.6 41.472 
z
" style="fill:#ffffff;"/>
   </g>
   <g id="PathCollection_1">
    <defs>
     <path d="M 0 3 
C 0.795609 3 1.55874 2.683901 2.12132 2.12132 
C 2.683901 1.55874 3 0.795609 3 0 
C 3 -0.795609 2.683901 -1.55874 2.12132 -2.12132 
C 1.55874 -2.683901 0.795609 -3 0 -3 
C -0.795609 -3 -1.55874 -2.683901 -2.12132 -2.12132 
C -2.683901 -1.55874 -3 -0.795609 -3 0 
C -3 0.795609 -2.683901 1.55874 -2.12132 2.12132 
C -1.55874 2.683901 -0.795609 3 0 3 
z
" id="m4ec6867bf9" style="stroke:#ffa500;"/>
    </defs>
    <g clip-path="url(#p0d6d96fca0)">
     <use style="fill:#ffa500;stroke:#ffa500;" x="82.376268" xlink:href="#m4ec6867bf9" y="295.488"/>
    </g>
   </g>
   <g id="PathCollection_2">
    <g clip-path="url(#p0d6d96fca0)">
     <use style="fill:#ffa500;stroke:#ffa500;" x="99.463349" xlink:href="#m4ec6867bf9" y="295.488"/>
    </g>
   </g>
   <g id="PathCollection_3">
    <g clip-path="url(#p0d6d96fca0)">
     <use style="fill:#ffa500;stroke:#ffa500;" x="116.550431" xlink:href="#m4ec6867bf9" y="295.488"/>
    </g>
   </g>
   <g id="PathCollection_4">
    <g clip-path="url(#p0d6d96fca0)">
     <use style="fill:#ffa500;stroke:#ffa500;" x="133.637512" xlink:href="#m4ec6867bf9" y="295.488"/>
    </g>
   </g>
   <g id="PathCollection_5">
    <g clip-path="url(#p0d6d96fca0)">
     <use style="fill:#ffa500;stroke:#ffa500;" x="150.724593" xlink:href="#m4ec6867bf9" y="295.488"/>
    </g>
   </g>
   <g id="PathCollection_6">
    <g clip-path="url(#p0d6d96fca0)">
     <use style="fill:#ffa500;stroke:#ffa500;" x="167.811675" xlink:href="#m4ec6867bf9" y="295.488"/>
    </g>
   </g>
   <g id="PathCollection_7">
    <g clip-path="url(#p0d6d96fca0)">
     <use style="fill:#ffa500;stroke:#ffa500;" x="184.898756" xlink:href="#m4ec6867bf9" y="295.488"/>
    </g>
   </g>
   <g id="PathCollection_8">
    <g clip-path="url(#p0d6d96fca0)">
     <use style="fill:#ffa500;stroke:#ffa500;" x="201.985837" xlink:href="#m4ec6867bf9" y="295.488"/>
    </g>
   </g>
   <g id="PathCollection_9">
    <g clip-path="url(#p0d6d96fca0)">
     <use style="fill:#ffa500;stroke:#ffa500;" x="219.072919" xlink:href="#m4ec6867bf9" y="295.488"/>
    </g>
   </g>
   <g id="PathCollection_10">
    <g clip-path="url(#p0d6d96fca0)">
     <use style="fill:#ffa500;stroke:#ffa500;" x="236.16" xlink:href="#m4ec6867bf9" y="174.522857"/>
    </g>
   </g>
   <g id="PathCollection_11">
    <g clip-path="url(#p0d6d96fca0)">
     <use style="fill:#ffa500;stroke:#ffa500;" x="253.247081" xlink:href="#m4ec6867bf9" y="53.568"/>
    </g>
   </g>
   <g id="PathCollection_12">
    <g clip-path="url(#p0d6d96fca0)">
     <use style="fill:#ffa500;stroke:#ffa500;" x="270.334163" xlink:href="#m4ec6867bf9" y="53.568"/>
    </g>
   </g>
   <g id="PathCollection_13">
    <g clip-path="url(#p0d6d96fca0)">
     <use style="fill:#ffa500;stroke:#ffa500;" x="287.421244" xlink:href="#m4ec6867bf9" y="53.568"/>
    </g>
   </g>
   <g id="PathCollection_14">
    <g clip-path="url(#p0d6d96fca0)">
     <use style="fill:#ffa500;stroke:#ffa500;" x="304.508325" xlink:href="#m4ec6867bf9" y="53.568"/>
    </g>
   </g>
   <g id="PathCollection_15">
    <g clip-path="url(#p0d6d96fca0)">
     <use style="fill:#ffa500;stroke:#ffa500;" x="321.595407" xlink:href="#m4ec6867bf9" y="53.568"/>
    </g>
   </g>
   <g id="PathCollection_16">
    <g clip-path="url(#p0d6d96fca0)">
     <use style="fill:#ffa500;stroke:#ffa500;" x="338.682488" xlink:href="#m4ec6867bf9" y="53.568"/>
    </g>
   </g>
   <g id="PathCollection_17">
    <g clip-path="url(#p0d6d96fca0)">
     <use style="fill:#ffa500;stroke:#ffa500;" x="355.769569" xlink:href="#m4ec6867bf9" y="53.568"/>
    </g>
   </g>
   <g id="PathCollection_18">
    <g clip-path="url(#p0d6d96fca0)">
     <use style="fill:#ffa500;stroke:#ffa500;" x="372.856651" xlink:href="#m4ec6867bf9" y="53.568"/>
    </g>
   </g>
   <g id="PathCollection_19">
    <g clip-path="url(#p0d6d96fca0)">
     <use style="fill:#ffa500;stroke:#ffa500;" x="389.943732" xlink:href="#m4ec6867bf9" y="53.568"/>
    </g>
   </g>
   <g id="matplotlib.axis_1">
    <g id="xtick_1">
     <g id="line2d_1">
      <defs>
       <path d="M 0 0 
L 0 3.5 
" id="m2083cb1b9c" style="stroke:#000000;stroke-width:0.8;"/>
      </defs>
      <g>
       <use style="stroke:#000000;stroke-width:0.8;" x="73.832727" xlink:href="#m2083cb1b9c" y="307.584"/>
      </g>
     </g>
     <g id="text_1">
      <!-- −1.00 -->
      <g transform="translate(58.510071 322.182437)scale(0.1 -0.1)">
       <defs>
        <path d="M 10.59375 35.5 
L 73.1875 35.5 
L 73.1875 27.203125 
L 10.59375 27.203125 
z
" id="DejaVuSans-8722"/>
        <path d="M 12.40625 8.296875 
L 28.515625 8.296875 
L 28.515625 63.921875 
L 10.984375 60.40625 
L 10.984375 69.390625 
L 28.421875 72.90625 
L 38.28125 72.90625 
L 38.28125 8.296875 
L 54.390625 8.296875 
L 54.390625 0 
L 12.40625 0 
z
" id="DejaVuSans-49"/>
        <path d="M 10.6875 12.40625 
L 21 12.40625 
L 21 0 
L 10.6875 0 
z
" id="DejaVuSans-46"/>
        <path d="M 31.78125 66.40625 
Q 24.171875 66.40625 20.328125 58.90625 
Q 16.5 51.421875 16.5 36.375 
Q 16.5 21.390625 20.328125 13.890625 
Q 24.171875 6.390625 31.78125 6.390625 
Q 39.453125 6.390625 43.28125 13.890625 
Q 47.125 21.390625 47.125 36.375 
Q 47.125 51.421875 43.28125 58.90625 
Q 39.453125 66.40625 31.78125 66.40625 
z
M 31.78125 74.21875 
Q 44.046875 74.21875 50.515625 64.515625 
Q 56.984375 54.828125 56.984375 36.375 
Q 56.984375 17.96875 50.515625 8.265625 
Q 44.046875 -1.421875 31.78125 -1.421875 
Q 19.53125 -1.421875 13.0625 8.265625 
Q 6.59375 17.96875 6.59375 36.375 
Q 6.59375 54.828125 13.0625 64.515625 
Q 19.53125 74.21875 31.78125 74.21875 
z
" id="DejaVuSans-48"/>
       </defs>
       <use xlink:href="#DejaVuSans-8722"/>
       <use x="83.789062" xlink:href="#DejaVuSans-49"/>
       <use x="147.412109" xlink:href="#DejaVuSans-46"/>
       <use x="179.199219" xlink:href="#DejaVuSans-48"/>
       <use x="242.822266" xlink:href="#DejaVuSans-48"/>
      </g>
     </g>
    </g>
    <g id="xtick_2">
     <g id="line2d_2">
      <g>
       <use style="stroke:#000000;stroke-width:0.8;" x="114.414545" xlink:href="#m2083cb1b9c" y="307.584"/>
      </g>
     </g>
     <g id="text_2">
      <!-- −0.75 -->
      <g transform="translate(99.091889 322.182437)scale(0.1 -0.1)">
       <defs>
        <path d="M 8.203125 72.90625 
L 55.078125 72.90625 
L 55.078125 68.703125 
L 28.609375 0 
L 18.3125 0 
L 43.21875 64.59375 
L 8.203125 64.59375 
z
" id="DejaVuSans-55"/>
        <path d="M 10.796875 72.90625 
L 49.515625 72.90625 
L 49.515625 64.59375 
L 19.828125 64.59375 
L 19.828125 46.734375 
Q 21.96875 47.46875 24.109375 47.828125 
Q 26.265625 48.1875 28.421875 48.1875 
Q 40.625 48.1875 47.75 41.5 
Q 54.890625 34.8125 54.890625 23.390625 
Q 54.890625 11.625 47.5625 5.09375 
Q 40.234375 -1.421875 26.90625 -1.421875 
Q 22.3125 -1.421875 17.546875 -0.640625 
Q 12.796875 0.140625 7.71875 1.703125 
L 7.71875 11.625 
Q 12.109375 9.234375 16.796875 8.0625 
Q 21.484375 6.890625 26.703125 6.890625 
Q 35.15625 6.890625 40.078125 11.328125 
Q 45.015625 15.765625 45.015625 23.390625 
Q 45.015625 31 40.078125 35.4375 
Q 35.15625 39.890625 26.703125 39.890625 
Q 22.75 39.890625 18.8125 39.015625 
Q 14.890625 38.140625 10.796875 36.28125 
z
" id="DejaVuSans-53"/>
       </defs>
       <use xlink:href="#DejaVuSans-8722"/>
       <use x="83.789062" xlink:href="#DejaVuSans-48"/>
       <use x="147.412109" xlink:href="#DejaVuSans-46"/>
       <use x="179.199219" xlink:href="#DejaVuSans-55"/>
       <use x="242.822266" xlink:href="#DejaVuSans-53"/>
      </g>
     </g>
    </g>
    <g id="xtick_3">
     <g id="line2d_3">
      <g>
       <use style="stroke:#000000;stroke-width:0.8;" x="154.996364" xlink:href="#m2083cb1b9c" y="307.584"/>
      </g>
     </g>
     <g id="text_3">
      <!-- −0.50 -->
      <g transform="translate(139.673707 322.182437)scale(0.1 -0.1)">
       <use xlink:href="#DejaVuSans-8722"/>
       <use x="83.789062" xlink:href="#DejaVuSans-48"/>
       <use x="147.412109" xlink:href="#DejaVuSans-46"/>
       <use x="179.199219" xlink:href="#DejaVuSans-53"/>
       <use x="242.822266" xlink:href="#DejaVuSans-48"/>
      </g>
     </g>
    </g>
    <g id="xtick_4">
     <g id="line2d_4">
      <g>
       <use style="stroke:#000000;stroke-width:0.8;" x="195.578182" xlink:href="#m2083cb1b9c" y="307.584"/>
      </g>
     </g>
     <g id="text_4">
      <!-- −0.25 -->
      <g transform="translate(180.255526 322.182437)scale(0.1 -0.1)">
       <defs>
        <path d="M 19.1875 8.296875 
L 53.609375 8.296875 
L 53.609375 0 
L 7.328125 0 
L 7.328125 8.296875 
Q 12.9375 14.109375 22.625 23.890625 
Q 32.328125 33.6875 34.8125 36.53125 
Q 39.546875 41.84375 41.421875 45.53125 
Q 43.3125 49.21875 43.3125 52.78125 
Q 43.3125 58.59375 39.234375 62.25 
Q 35.15625 65.921875 28.609375 65.921875 
Q 23.96875 65.921875 18.8125 64.3125 
Q 13.671875 62.703125 7.8125 59.421875 
L 7.8125 69.390625 
Q 13.765625 71.78125 18.9375 73 
Q 24.125 74.21875 28.421875 74.21875 
Q 39.75 74.21875 46.484375 68.546875 
Q 53.21875 62.890625 53.21875 53.421875 
Q 53.21875 48.921875 51.53125 44.890625 
Q 49.859375 40.875 45.40625 35.40625 
Q 44.1875 33.984375 37.640625 27.21875 
Q 31.109375 20.453125 19.1875 8.296875 
z
" id="DejaVuSans-50"/>
       </defs>
       <use xlink:href="#DejaVuSans-8722"/>
       <use x="83.789062" xlink:href="#DejaVuSans-48"/>
       <use x="147.412109" xlink:href="#DejaVuSans-46"/>
       <use x="179.199219" xlink:href="#DejaVuSans-50"/>
       <use x="242.822266" xlink:href="#DejaVuSans-53"/>
      </g>
     </g>
    </g>
    <g id="xtick_5">
     <g id="line2d_5">
      <g>
       <use style="stroke:#000000;stroke-width:0.8;" x="236.16" xlink:href="#m2083cb1b9c" y="307.584"/>
      </g>
     </g>
     <g id="text_5">
      <!-- 0.00 -->
      <g transform="translate(225.027187 322.182437)scale(0.1 -0.1)">
       <use xlink:href="#DejaVuSans-48"/>
       <use x="63.623047" xlink:href="#DejaVuSans-46"/>
       <use x="95.410156" xlink:href="#DejaVuSans-48"/>
       <use x="159.033203" xlink:href="#DejaVuSans-48"/>
      </g>
     </g>
    </g>
    <g id="xtick_6">
     <g id="line2d_6">
      <g>
       <use style="stroke:#000000;stroke-width:0.8;" x="276.741818" xlink:href="#m2083cb1b9c" y="307.584"/>
      </g>
     </g>
     <g id="text_6">
      <!-- 0.25 -->
      <g transform="translate(265.609006 322.182437)scale(0.1 -0.1)">
       <use xlink:href="#DejaVuSans-48"/>
       <use x="63.623047" xlink:href="#DejaVuSans-46"/>
       <use x="95.410156" xlink:href="#DejaVuSans-50"/>
       <use x="159.033203" xlink:href="#DejaVuSans-53"/>
      </g>
     </g>
    </g>
    <g id="xtick_7">
     <g id="line2d_7">
      <g>
       <use style="stroke:#000000;stroke-width:0.8;" x="317.323636" xlink:href="#m2083cb1b9c" y="307.584"/>
      </g>
     </g>
     <g id="text_7">
      <!-- 0.50 -->
      <g transform="translate(306.190824 322.182437)scale(0.1 -0.1)">
       <use xlink:href="#DejaVuSans-48"/>
       <use x="63.623047" xlink:href="#DejaVuSans-46"/>
       <use x="95.410156" xlink:href="#DejaVuSans-53"/>
       <use x="159.033203" xlink:href="#DejaVuSans-48"/>
      </g>
     </g>
    </g>
    <g id="xtick_8">
     <g id="line2d_8">
      <g>
       <use style="stroke:#000000;stroke-width:0.8;" x="357.905455" xlink:href="#m2083cb1b9c" y="307.584"/>
      </g>
     </g>
     <g id="text_8">
      <!-- 0.75 -->
      <g transform="translate(346.772642 322.182437)scale(0.1 -0.1)">
       <use xlink:href="#DejaVuSans-48"/>
       <use x="63.623047" xlink:href="#DejaVuSans-46"/>
       <use x="95.410156" xlink:href="#DejaVuSans-55"/>
       <use x="159.033203" xlink:href="#DejaVuSans-53"/>
      </g>
     </g>
    </g>
    <g id="xtick_9">
     <g id="line2d_9">
      <g>
       <use style="stroke:#000000;stroke-width:0.8;" x="398.487273" xlink:href="#m2083cb1b9c" y="307.584"/>
      </g>
     </g>
     <g id="text_9">
      <!-- 1.00 -->
      <g transform="translate(387.35446 322.182437)scale(0.1 -0.1)">
       <use xlink:href="#DejaVuSans-49"/>
       <use x="63.623047" xlink:href="#DejaVuSans-46"/>
       <use x="95.410156" xlink:href="#DejaVuSans-48"/>
       <use x="159.033203" xlink:href="#DejaVuSans-48"/>
      </g>
     </g>
    </g>
   </g>
   <g id="matplotlib.axis_2">
    <g id="ytick_1">
     <g id="line2d_10">
      <defs>
       <path d="M 0 0 
L -3.5 0 
" id="m65a893b2f1" style="stroke:#000000;stroke-width:0.8;"/>
      </defs>
      <g>
       <use style="stroke:#000000;stroke-width:0.8;" x="57.6" xlink:href="#m65a893b2f1" y="295.488"/>
      </g>
     </g>
     <g id="text_10">
      <!-- 1.0 -->
      <g transform="translate(34.696875 299.287219)scale(0.1 -0.1)">
       <use xlink:href="#DejaVuSans-49"/>
       <use x="63.623047" xlink:href="#DejaVuSans-46"/>
       <use x="95.410156" xlink:href="#DejaVuSans-48"/>
      </g>
     </g>
    </g>
    <g id="ytick_2">
     <g id="line2d_11">
      <g>
       <use style="stroke:#000000;stroke-width:0.8;" x="57.6" xlink:href="#m65a893b2f1" y="247.104"/>
      </g>
     </g>
     <g id="text_11">
      <!-- 1.2 -->
      <g transform="translate(34.696875 250.903219)scale(0.1 -0.1)">
       <use xlink:href="#DejaVuSans-49"/>
       <use x="63.623047" xlink:href="#DejaVuSans-46"/>
       <use x="95.410156" xlink:href="#DejaVuSans-50"/>
      </g>
     </g>
    </g>
    <g id="ytick_3">
     <g id="line2d_12">
      <g>
       <use style="stroke:#000000;stroke-width:0.8;" x="57.6" xlink:href="#m65a893b2f1" y="198.72"/>
      </g>
     </g>
     <g id="text_12">
      <!-- 1.4 -->
      <g transform="translate(34.696875 202.519219)scale(0.1 -0.1)">
       <defs>
        <path d="M 37.796875 64.3125 
L 12.890625 25.390625 
L 37.796875 25.390625 
z
M 35.203125 72.90625 
L 47.609375 72.90625 
L 47.609375 25.390625 
L 58.015625 25.390625 
L 58.015625 17.1875 
L 47.609375 17.1875 
L 47.609375 0 
L 37.796875 0 
L 37.796875 17.1875 
L 4.890625 17.1875 
L 4.890625 26.703125 
z
" id="DejaVuSans-52"/>
       </defs>
       <use xlink:href="#DejaVuSans-49"/>
       <use x="63.623047" xlink:href="#DejaVuSans-46"/>
       <use x="95.410156" xlink:href="#DejaVuSans-52"/>
      </g>
     </g>
    </g>
    <g id="ytick_4">
     <g id="line2d_13">
      <g>
       <use style="stroke:#000000;stroke-width:0.8;" x="57.6" xlink:href="#m65a893b2f1" y="150.336"/>
      </g>
     </g>
     <g id="text_13">
      <!-- 1.6 -->
      <g transform="translate(34.696875 154.135219)scale(0.1 -0.1)">
       <defs>
        <path d="M 33.015625 40.375 
Q 26.375 40.375 22.484375 35.828125 
Q 18.609375 31.296875 18.609375 23.390625 
Q 18.609375 15.53125 22.484375 10.953125 
Q 26.375 6.390625 33.015625 6.390625 
Q 39.65625 6.390625 43.53125 10.953125 
Q 47.40625 15.53125 47.40625 23.390625 
Q 47.40625 31.296875 43.53125 35.828125 
Q 39.65625 40.375 33.015625 40.375 
z
M 52.59375 71.296875 
L 52.59375 62.3125 
Q 48.875 64.0625 45.09375 64.984375 
Q 41.3125 65.921875 37.59375 65.921875 
Q 27.828125 65.921875 22.671875 59.328125 
Q 17.53125 52.734375 16.796875 39.40625 
Q 19.671875 43.65625 24.015625 45.921875 
Q 28.375 48.1875 33.59375 48.1875 
Q 44.578125 48.1875 50.953125 41.515625 
Q 57.328125 34.859375 57.328125 23.390625 
Q 57.328125 12.15625 50.6875 5.359375 
Q 44.046875 -1.421875 33.015625 -1.421875 
Q 20.359375 -1.421875 13.671875 8.265625 
Q 6.984375 17.96875 6.984375 36.375 
Q 6.984375 53.65625 15.1875 63.9375 
Q 23.390625 74.21875 37.203125 74.21875 
Q 40.921875 74.21875 44.703125 73.484375 
Q 48.484375 72.75 52.59375 71.296875 
z
" id="DejaVuSans-54"/>
       </defs>
       <use xlink:href="#DejaVuSans-49"/>
       <use x="63.623047" xlink:href="#DejaVuSans-46"/>
       <use x="95.410156" xlink:href="#DejaVuSans-54"/>
      </g>
     </g>
    </g>
    <g id="ytick_5">
     <g id="line2d_14">
      <g>
       <use style="stroke:#000000;stroke-width:0.8;" x="57.6" xlink:href="#m65a893b2f1" y="101.952"/>
      </g>
     </g>
     <g id="text_14">
      <!-- 1.8 -->
      <g transform="translate(34.696875 105.751219)scale(0.1 -0.1)">
       <defs>
        <path d="M 31.78125 34.625 
Q 24.75 34.625 20.71875 30.859375 
Q 16.703125 27.09375 16.703125 20.515625 
Q 16.703125 13.921875 20.71875 10.15625 
Q 24.75 6.390625 31.78125 6.390625 
Q 38.8125 6.390625 42.859375 10.171875 
Q 46.921875 13.96875 46.921875 20.515625 
Q 46.921875 27.09375 42.890625 30.859375 
Q 38.875 34.625 31.78125 34.625 
z
M 21.921875 38.8125 
Q 15.578125 40.375 12.03125 44.71875 
Q 8.5 49.078125 8.5 55.328125 
Q 8.5 64.0625 14.71875 69.140625 
Q 20.953125 74.21875 31.78125 74.21875 
Q 42.671875 74.21875 48.875 69.140625 
Q 55.078125 64.0625 55.078125 55.328125 
Q 55.078125 49.078125 51.53125 44.71875 
Q 48 40.375 41.703125 38.8125 
Q 48.828125 37.15625 52.796875 32.3125 
Q 56.78125 27.484375 56.78125 20.515625 
Q 56.78125 9.90625 50.3125 4.234375 
Q 43.84375 -1.421875 31.78125 -1.421875 
Q 19.734375 -1.421875 13.25 4.234375 
Q 6.78125 9.90625 6.78125 20.515625 
Q 6.78125 27.484375 10.78125 32.3125 
Q 14.796875 37.15625 21.921875 38.8125 
z
M 18.3125 54.390625 
Q 18.3125 48.734375 21.84375 45.5625 
Q 25.390625 42.390625 31.78125 42.390625 
Q 38.140625 42.390625 41.71875 45.5625 
Q 45.3125 48.734375 45.3125 54.390625 
Q 45.3125 60.0625 41.71875 63.234375 
Q 38.140625 66.40625 31.78125 66.40625 
Q 25.390625 66.40625 21.84375 63.234375 
Q 18.3125 60.0625 18.3125 54.390625 
z
" id="DejaVuSans-56"/>
       </defs>
       <use xlink:href="#DejaVuSans-49"/>
       <use x="63.623047" xlink:href="#DejaVuSans-46"/>
       <use x="95.410156" xlink:href="#DejaVuSans-56"/>
      </g>
     </g>
    </g>
    <g id="ytick_6">
     <g id="line2d_15">
      <g>
       <use style="stroke:#000000;stroke-width:0.8;" x="57.6" xlink:href="#m65a893b2f1" y="53.568"/>
      </g>
     </g>
     <g id="text_15">
      <!-- 2.0 -->
      <g transform="translate(34.696875 57.367219)scale(0.1 -0.1)">
       <use xlink:href="#DejaVuSans-50"/>
       <use x="63.623047" xlink:href="#DejaVuSans-46"/>
       <use x="95.410156" xlink:href="#DejaVuSans-48"/>
      </g>
     </g>
    </g>
   </g>
   <g id="line2d_16">
    <path clip-path="url(#p0d6d96fca0)" d="M 73.832727 295.488 
L 235.99751 295.488 
L 236.32249 53.568 
L 398.487273 53.568 
L 398.487273 53.568 
" style="fill:none;stroke:#ff00ff;stroke-linecap:square;stroke-width:1.5;"/>
   </g>
   <g id="line2d_17">
    <path clip-path="url(#p0d6d96fca0)" d="M 73.840844 295.488 
L 74.189228 295.488 
L 74.537613 295.488 
L 74.885998 295.488 
L 75.234382 295.488 
L 75.582767 295.488 
L 75.931152 295.488 
L 76.279536 295.488 
L 76.627921 295.488 
L 76.976306 295.488 
L 77.32469 295.488 
L 77.673075 295.488 
L 78.02146 295.488 
L 78.369844 295.488 
L 78.718229 295.488 
L 79.066614 295.488 
L 79.414998 295.488 
L 79.763383 295.488 
L 80.111768 295.488 
L 80.460152 295.488 
L 80.808537 295.488 
L 81.156922 295.488 
L 81.505306 295.488 
L 81.853691 295.488 
L 82.202076 295.488 
L 82.55046 295.488 
L 82.898845 295.488 
L 83.24723 295.488 
L 83.595614 295.488 
L 83.943999 295.488 
L 84.292384 295.488 
L 84.640768 295.488 
L 84.989153 295.488 
L 85.337538 295.488 
L 85.685922 295.488 
L 86.034307 295.488 
L 86.382692 295.488 
L 86.731076 295.488 
L 87.079461 295.488 
L 87.427846 295.488 
L 87.77623 295.488 
L 88.124615 295.488 
L 88.473 295.488 
L 88.821384 295.488 
L 89.169769 295.488 
L 89.518154 295.488 
L 89.866538 295.488 
L 90.214923 295.488 
L 90.563308 295.488 
L 90.911692 295.488 
" style="fill:none;stroke:#ffa500;stroke-linecap:square;stroke-width:1.5;"/>
   </g>
   <g id="line2d_18">
    <path clip-path="url(#p0d6d96fca0)" d="M 90.927925 295.488 
L 91.27631 295.488 
L 91.624694 295.488 
L 91.973079 295.488 
L 92.321464 295.488 
L 92.669848 295.488 
L 93.018233 295.488 
L 93.366618 295.488 
L 93.715002 295.488 
L 94.063387 295.488 
L 94.411772 295.488 
L 94.760156 295.488 
L 95.108541 295.488 
L 95.456926 295.488 
L 95.80531 295.488 
L 96.153695 295.488 
L 96.50208 295.488 
L 96.850464 295.488 
L 97.198849 295.488 
L 97.547234 295.488 
L 97.895618 295.488 
L 98.244003 295.488 
L 98.592388 295.488 
L 98.940772 295.488 
L 99.289157 295.488 
L 99.637542 295.488 
L 99.985926 295.488 
L 100.334311 295.488 
L 100.682696 295.488 
L 101.03108 295.488 
L 101.379465 295.488 
L 101.72785 295.488 
L 102.076234 295.488 
L 102.424619 295.488 
L 102.773004 295.488 
L 103.121388 295.488 
L 103.469773 295.488 
L 103.818158 295.488 
L 104.166542 295.488 
L 104.514927 295.488 
L 104.863312 295.488 
L 105.211696 295.488 
L 105.560081 295.488 
L 105.908466 295.488 
L 106.25685 295.488 
L 106.605235 295.488 
L 106.95362 295.488 
L 107.302004 295.488 
L 107.650389 295.488 
L 107.998774 295.488 
" style="fill:none;stroke:#ffa500;stroke-linecap:square;stroke-width:1.5;"/>
   </g>
   <g id="line2d_19">
    <path clip-path="url(#p0d6d96fca0)" d="M 108.015006 295.488 
L 108.363391 295.488 
L 108.711776 295.488 
L 109.06016 295.488 
L 109.408545 295.488 
L 109.75693 295.488 
L 110.105314 295.488 
L 110.453699 295.488 
L 110.802084 295.488 
L 111.150468 295.488 
L 111.498853 295.488 
L 111.847238 295.488 
L 112.195622 295.488 
L 112.544007 295.488 
L 112.892392 295.488 
L 113.240776 295.488 
L 113.589161 295.488 
L 113.937546 295.488 
L 114.28593 295.488 
L 114.634315 295.488 
L 114.9827 295.488 
L 115.331084 295.488 
L 115.679469 295.488 
L 116.027854 295.488 
L 116.376238 295.488 
L 116.724623 295.488 
L 117.073008 295.488 
L 117.421392 295.488 
L 117.769777 295.488 
L 118.118162 295.488 
L 118.466546 295.488 
L 118.814931 295.488 
L 119.163316 295.488 
L 119.5117 295.488 
L 119.860085 295.488 
L 120.20847 295.488 
L 120.556854 295.488 
L 120.905239 295.488 
L 121.253624 295.488 
L 121.602008 295.488 
L 121.950393 295.488 
L 122.298778 295.488 
L 122.647162 295.488 
L 122.995547 295.488 
L 123.343932 295.488 
L 123.692316 295.488 
L 124.040701 295.488 
L 124.389086 295.488 
L 124.73747 295.488 
L 125.085855 295.488 
" style="fill:none;stroke:#ffa500;stroke-linecap:square;stroke-width:1.5;"/>
   </g>
   <g id="line2d_20">
    <path clip-path="url(#p0d6d96fca0)" d="M 125.102088 295.488 
L 125.450472 295.488 
L 125.798857 295.488 
L 126.147242 295.488 
L 126.495626 295.488 
L 126.844011 295.488 
L 127.192396 295.488 
L 127.54078 295.488 
L 127.889165 295.488 
L 128.23755 295.488 
L 128.585934 295.488 
L 128.934319 295.488 
L 129.282704 295.488 
L 129.631088 295.488 
L 129.979473 295.488 
L 130.327858 295.488 
L 130.676242 295.488 
L 131.024627 295.488 
L 131.373012 295.488 
L 131.721396 295.488 
L 132.069781 295.488 
L 132.418166 295.488 
L 132.76655 295.488 
L 133.114935 295.488 
L 133.46332 295.488 
L 133.811704 295.488 
L 134.160089 295.488 
L 134.508474 295.488 
L 134.856858 295.488 
L 135.205243 295.488 
L 135.553628 295.488 
L 135.902012 295.488 
L 136.250397 295.488 
L 136.598782 295.488 
L 136.947166 295.488 
L 137.295551 295.488 
L 137.643936 295.488 
L 137.99232 295.488 
L 138.340705 295.488 
L 138.68909 295.488 
L 139.037474 295.488 
L 139.385859 295.488 
L 139.734244 295.488 
L 140.082628 295.488 
L 140.431013 295.488 
L 140.779398 295.488 
L 141.127782 295.488 
L 141.476167 295.488 
L 141.824552 295.488 
L 142.172936 295.488 
" style="fill:none;stroke:#ffa500;stroke-linecap:square;stroke-width:1.5;"/>
   </g>
   <g id="line2d_21">
    <path clip-path="url(#p0d6d96fca0)" d="M 142.189169 295.488 
L 142.537554 295.488 
L 142.885938 295.488 
L 143.234323 295.488 
L 143.582708 295.488 
L 143.931092 295.488 
L 144.279477 295.488 
L 144.627862 295.488 
L 144.976246 295.488 
L 145.324631 295.488 
L 145.673016 295.488 
L 146.0214 295.488 
L 146.369785 295.488 
L 146.71817 295.488 
L 147.066554 295.488 
L 147.414939 295.488 
L 147.763324 295.488 
L 148.111708 295.488 
L 148.460093 295.488 
L 148.808478 295.488 
L 149.156862 295.488 
L 149.505247 295.488 
L 149.853632 295.488 
L 150.202016 295.488 
L 150.550401 295.488 
L 150.898786 295.488 
L 151.24717 295.488 
L 151.595555 295.488 
L 151.94394 295.488 
L 152.292324 295.488 
L 152.640709 295.488 
L 152.989094 295.488 
L 153.337478 295.488 
L 153.685863 295.488 
L 154.034248 295.488 
L 154.382632 295.488 
L 154.731017 295.488 
L 155.079402 295.488 
L 155.427786 295.488 
L 155.776171 295.488 
L 156.124556 295.488 
L 156.47294 295.488 
L 156.821325 295.488 
L 157.16971 295.488 
L 157.518094 295.488 
L 157.866479 295.488 
L 158.214864 295.488 
L 158.563248 295.488 
L 158.911633 295.488 
L 159.260018 295.488 
" style="fill:none;stroke:#ffa500;stroke-linecap:square;stroke-width:1.5;"/>
   </g>
   <g id="line2d_22">
    <path clip-path="url(#p0d6d96fca0)" d="M 159.27625 295.488 
L 159.624635 295.488 
L 159.97302 295.488 
L 160.321404 295.488 
L 160.669789 295.488 
L 161.018174 295.488 
L 161.366558 295.488 
L 161.714943 295.488 
L 162.063328 295.488 
L 162.411712 295.488 
L 162.760097 295.488 
L 163.108482 295.488 
L 163.456866 295.488 
L 163.805251 295.488 
L 164.153636 295.488 
L 164.50202 295.488 
L 164.850405 295.488 
L 165.19879 295.488 
L 165.547174 295.488 
L 165.895559 295.488 
L 166.243944 295.488 
L 166.592328 295.488 
L 166.940713 295.488 
L 167.289098 295.488 
L 167.637482 295.488 
L 167.985867 295.488 
L 168.334252 295.488 
L 168.682636 295.488 
L 169.031021 295.488 
L 169.379406 295.488 
L 169.72779 295.488 
L 170.076175 295.488 
L 170.42456 295.488 
L 170.772944 295.488 
L 171.121329 295.488 
L 171.469714 295.488 
L 171.818098 295.488 
L 172.166483 295.488 
L 172.514868 295.488 
L 172.863252 295.488 
L 173.211637 295.488 
L 173.560022 295.488 
L 173.908406 295.488 
L 174.256791 295.488 
L 174.605176 295.488 
L 174.95356 295.488 
L 175.301945 295.488 
L 175.65033 295.488 
L 175.998714 295.488 
L 176.347099 295.488 
" style="fill:none;stroke:#ffa500;stroke-linecap:square;stroke-width:1.5;"/>
   </g>
   <g id="line2d_23">
    <path clip-path="url(#p0d6d96fca0)" d="M 176.363332 295.488 
L 176.711716 295.488 
L 177.060101 295.488 
L 177.408486 295.488 
L 177.75687 295.488 
L 178.105255 295.488 
L 178.45364 295.488 
L 178.802024 295.488 
L 179.150409 295.488 
L 179.498794 295.488 
L 179.847178 295.488 
L 180.195563 295.488 
L 180.543948 295.488 
L 180.892332 295.488 
L 181.240717 295.488 
L 181.589102 295.488 
L 181.937486 295.488 
L 182.285871 295.488 
L 182.634256 295.488 
L 182.98264 295.488 
L 183.331025 295.488 
L 183.67941 295.488 
L 184.027794 295.488 
L 184.376179 295.488 
L 184.724564 295.488 
L 185.072948 295.488 
L 185.421333 295.488 
L 185.769718 295.488 
L 186.118102 295.488 
L 186.466487 295.488 
L 186.814872 295.488 
L 187.163256 295.488 
L 187.511641 295.488 
L 187.860026 295.488 
L 188.20841 295.488 
L 188.556795 295.488 
L 188.90518 295.488 
L 189.253564 295.488 
L 189.601949 295.488 
L 189.950334 295.488 
L 190.298718 295.488 
L 190.647103 295.488 
L 190.995488 295.488 
L 191.343872 295.488 
L 191.692257 295.488 
L 192.040642 295.488 
L 192.389026 295.488 
L 192.737411 295.488 
L 193.085796 295.488 
L 193.43418 295.488 
" style="fill:none;stroke:#ffa500;stroke-linecap:square;stroke-width:1.5;"/>
   </g>
   <g id="line2d_24">
    <path clip-path="url(#p0d6d96fca0)" d="M 193.450413 295.488 
L 193.798798 295.488 
L 194.147182 295.488 
L 194.495567 295.488 
L 194.843952 295.488 
L 195.192336 295.488 
L 195.540721 295.488 
L 195.889106 295.488 
L 196.23749 295.488 
L 196.585875 295.488 
L 196.93426 295.488 
L 197.282644 295.488 
L 197.631029 295.488 
L 197.979414 295.488 
L 198.327798 295.488 
L 198.676183 295.488 
L 199.024568 295.488 
L 199.372952 295.488 
L 199.721337 295.488 
L 200.069722 295.488 
L 200.418106 295.488 
L 200.766491 295.488 
L 201.114876 295.488 
L 201.46326 295.488 
L 201.811645 295.488 
L 202.16003 295.488 
L 202.508414 295.488 
L 202.856799 295.488 
L 203.205184 295.488 
L 203.553568 295.488 
L 203.901953 295.488 
L 204.250338 295.488 
L 204.598722 295.488 
L 204.947107 295.488 
L 205.295492 295.488 
L 205.643876 295.488 
L 205.992261 295.488 
L 206.340646 295.488 
L 206.68903 295.488 
L 207.037415 295.488 
L 207.3858 295.488 
L 207.734184 295.488 
L 208.082569 295.488 
L 208.430954 295.488 
L 208.779338 295.488 
L 209.127723 295.488 
L 209.476108 295.488 
L 209.824492 295.488 
L 210.172877 295.488 
L 210.521262 295.488 
" style="fill:none;stroke:#ffa500;stroke-linecap:square;stroke-width:1.5;"/>
   </g>
   <g id="line2d_25">
    <path clip-path="url(#p0d6d96fca0)" d="M 210.537494 295.488 
L 210.885879 295.488 
L 211.234264 295.488 
L 211.582648 295.488 
L 211.931033 295.488 
L 212.279418 295.488 
L 212.627802 295.488 
L 212.976187 295.488 
L 213.324572 295.488 
L 213.672956 295.488 
L 214.021341 295.488 
L 214.369726 295.488 
L 214.71811 295.488 
L 215.066495 295.488 
L 215.41488 295.488 
L 215.763264 295.488 
L 216.111649 295.488 
L 216.460034 295.488 
L 216.808418 295.488 
L 217.156803 295.488 
L 217.505188 295.488 
L 217.853572 295.488 
L 218.201957 295.488 
L 218.550342 295.488 
L 218.898726 295.488 
L 219.247111 295.488 
L 219.595496 295.488 
L 219.94388 295.488 
L 220.292265 295.488 
L 220.64065 295.488 
L 220.989034 295.488 
L 221.337419 295.488 
L 221.685804 295.488 
L 222.034188 295.488 
L 222.382573 295.488 
L 222.730958 295.488 
L 223.079342 295.488 
L 223.427727 295.488 
L 223.776112 295.488 
L 224.124496 295.488 
L 224.472881 295.488 
L 224.821266 295.488 
L 225.16965 295.488 
L 225.518035 295.488 
L 225.86642 295.488 
L 226.214804 295.488 
L 226.563189 295.488 
L 226.911574 295.488 
L 227.259958 295.488 
L 227.608343 295.488 
" style="fill:none;stroke:#ffa500;stroke-linecap:square;stroke-width:1.5;"/>
   </g>
   <g id="line2d_26">
    <path clip-path="url(#p0d6d96fca0)" d="M 227.624576 295.488 
L 227.97296 295.488 
L 228.321345 295.488 
L 228.66973 295.488 
L 229.018114 295.488 
L 229.366499 295.488 
L 229.714884 295.488 
L 230.063268 295.488 
L 230.411653 295.488 
L 230.760038 295.488 
L 231.108422 295.488 
L 231.456807 295.488 
L 231.805192 295.488 
L 232.153576 295.488 
L 232.501961 295.488 
L 232.850346 295.488 
L 233.19873 295.488 
L 233.547115 295.488 
L 233.8955 295.488 
L 234.243884 295.488 
L 234.592269 295.488 
L 234.940654 295.488 
L 235.289038 295.488 
L 235.637423 295.488 
L 235.985808 295.488 
L 236.334192 53.568 
L 236.682577 53.568 
L 237.030962 53.568 
L 237.379346 53.568 
L 237.727731 53.568 
L 238.076116 53.568 
L 238.4245 53.568 
L 238.772885 53.568 
L 239.12127 53.568 
L 239.469654 53.568 
L 239.818039 53.568 
L 240.166424 53.568 
L 240.514808 53.568 
L 240.863193 53.568 
L 241.211578 53.568 
L 241.559962 53.568 
L 241.908347 53.568 
L 242.256732 53.568 
L 242.605116 53.568 
L 242.953501 53.568 
L 243.301886 53.568 
L 243.65027 53.568 
L 243.998655 53.568 
L 244.34704 53.568 
L 244.695424 53.568 
" style="fill:none;stroke:#ffa500;stroke-linecap:square;stroke-width:1.5;"/>
   </g>
   <g id="line2d_27">
    <path clip-path="url(#p0d6d96fca0)" d="M 244.711657 53.568 
L 245.060042 53.568 
L 245.408426 53.568 
L 245.756811 53.568 
L 246.105196 53.568 
L 246.45358 53.568 
L 246.801965 53.568 
L 247.15035 53.568 
L 247.498734 53.568 
L 247.847119 53.568 
L 248.195504 53.568 
L 248.543888 53.568 
L 248.892273 53.568 
L 249.240658 53.568 
L 249.589042 53.568 
L 249.937427 53.568 
L 250.285812 53.568 
L 250.634196 53.568 
L 250.982581 53.568 
L 251.330966 53.568 
L 251.67935 53.568 
L 252.027735 53.568 
L 252.37612 53.568 
L 252.724504 53.568 
L 253.072889 53.568 
L 253.421274 53.568 
L 253.769658 53.568 
L 254.118043 53.568 
L 254.466428 53.568 
L 254.814812 53.568 
L 255.163197 53.568 
L 255.511582 53.568 
L 255.859966 53.568 
L 256.208351 53.568 
L 256.556736 53.568 
L 256.90512 53.568 
L 257.253505 53.568 
L 257.60189 53.568 
L 257.950274 53.568 
L 258.298659 53.568 
L 258.647044 53.568 
L 258.995428 53.568 
L 259.343813 53.568 
L 259.692198 53.568 
L 260.040582 53.568 
L 260.388967 53.568 
L 260.737352 53.568 
L 261.085736 53.568 
L 261.434121 53.568 
L 261.782506 53.568 
" style="fill:none;stroke:#ffa500;stroke-linecap:square;stroke-width:1.5;"/>
   </g>
   <g id="line2d_28">
    <path clip-path="url(#p0d6d96fca0)" d="M 261.798738 53.568 
L 262.147123 53.568 
L 262.495508 53.568 
L 262.843892 53.568 
L 263.192277 53.568 
L 263.540662 53.568 
L 263.889046 53.568 
L 264.237431 53.568 
L 264.585816 53.568 
L 264.9342 53.568 
L 265.282585 53.568 
L 265.63097 53.568 
L 265.979354 53.568 
L 266.327739 53.568 
L 266.676124 53.568 
L 267.024508 53.568 
L 267.372893 53.568 
L 267.721278 53.568 
L 268.069662 53.568 
L 268.418047 53.568 
L 268.766432 53.568 
L 269.114816 53.568 
L 269.463201 53.568 
L 269.811586 53.568 
L 270.15997 53.568 
L 270.508355 53.568 
L 270.85674 53.568 
L 271.205124 53.568 
L 271.553509 53.568 
L 271.901894 53.568 
L 272.250278 53.568 
L 272.598663 53.568 
L 272.947048 53.568 
L 273.295432 53.568 
L 273.643817 53.568 
L 273.992202 53.568 
L 274.340586 53.568 
L 274.688971 53.568 
L 275.037356 53.568 
L 275.38574 53.568 
L 275.734125 53.568 
L 276.08251 53.568 
L 276.430894 53.568 
L 276.779279 53.568 
L 277.127664 53.568 
L 277.476048 53.568 
L 277.824433 53.568 
L 278.172818 53.568 
L 278.521202 53.568 
L 278.869587 53.568 
" style="fill:none;stroke:#ffa500;stroke-linecap:square;stroke-width:1.5;"/>
   </g>
   <g id="line2d_29">
    <path clip-path="url(#p0d6d96fca0)" d="M 278.88582 53.568 
L 279.234204 53.568 
L 279.582589 53.568 
L 279.930974 53.568 
L 280.279358 53.568 
L 280.627743 53.568 
L 280.976128 53.568 
L 281.324512 53.568 
L 281.672897 53.568 
L 282.021282 53.568 
L 282.369666 53.568 
L 282.718051 53.568 
L 283.066436 53.568 
L 283.41482 53.568 
L 283.763205 53.568 
L 284.11159 53.568 
L 284.459974 53.568 
L 284.808359 53.568 
L 285.156744 53.568 
L 285.505128 53.568 
L 285.853513 53.568 
L 286.201898 53.568 
L 286.550282 53.568 
L 286.898667 53.568 
L 287.247052 53.568 
L 287.595436 53.568 
L 287.943821 53.568 
L 288.292206 53.568 
L 288.64059 53.568 
L 288.988975 53.568 
L 289.33736 53.568 
L 289.685744 53.568 
L 290.034129 53.568 
L 290.382514 53.568 
L 290.730898 53.568 
L 291.079283 53.568 
L 291.427668 53.568 
L 291.776052 53.568 
L 292.124437 53.568 
L 292.472822 53.568 
L 292.821206 53.568 
L 293.169591 53.568 
L 293.517976 53.568 
L 293.86636 53.568 
L 294.214745 53.568 
L 294.56313 53.568 
L 294.911514 53.568 
L 295.259899 53.568 
L 295.608284 53.568 
L 295.956668 53.568 
" style="fill:none;stroke:#ffa500;stroke-linecap:square;stroke-width:1.5;"/>
   </g>
   <g id="line2d_30">
    <path clip-path="url(#p0d6d96fca0)" d="M 295.972901 53.568 
L 296.321286 53.568 
L 296.66967 53.568 
L 297.018055 53.568 
L 297.36644 53.568 
L 297.714824 53.568 
L 298.063209 53.568 
L 298.411594 53.568 
L 298.759978 53.568 
L 299.108363 53.568 
L 299.456748 53.568 
L 299.805132 53.568 
L 300.153517 53.568 
L 300.501902 53.568 
L 300.850286 53.568 
L 301.198671 53.568 
L 301.547056 53.568 
L 301.89544 53.568 
L 302.243825 53.568 
L 302.59221 53.568 
L 302.940594 53.568 
L 303.288979 53.568 
L 303.637364 53.568 
L 303.985748 53.568 
L 304.334133 53.568 
L 304.682518 53.568 
L 305.030902 53.568 
L 305.379287 53.568 
L 305.727672 53.568 
L 306.076056 53.568 
L 306.424441 53.568 
L 306.772826 53.568 
L 307.12121 53.568 
L 307.469595 53.568 
L 307.81798 53.568 
L 308.166364 53.568 
L 308.514749 53.568 
L 308.863134 53.568 
L 309.211518 53.568 
L 309.559903 53.568 
L 309.908288 53.568 
L 310.256672 53.568 
L 310.605057 53.568 
L 310.953442 53.568 
L 311.301826 53.568 
L 311.650211 53.568 
L 311.998596 53.568 
L 312.34698 53.568 
L 312.695365 53.568 
L 313.04375 53.568 
" style="fill:none;stroke:#ffa500;stroke-linecap:square;stroke-width:1.5;"/>
   </g>
   <g id="line2d_31">
    <path clip-path="url(#p0d6d96fca0)" d="M 313.059982 53.568 
L 313.408367 53.568 
L 313.756752 53.568 
L 314.105136 53.568 
L 314.453521 53.568 
L 314.801906 53.568 
L 315.15029 53.568 
L 315.498675 53.568 
L 315.84706 53.568 
L 316.195444 53.568 
L 316.543829 53.568 
L 316.892214 53.568 
L 317.240598 53.568 
L 317.588983 53.568 
L 317.937368 53.568 
L 318.285752 53.568 
L 318.634137 53.568 
L 318.982522 53.568 
L 319.330906 53.568 
L 319.679291 53.568 
L 320.027676 53.568 
L 320.37606 53.568 
L 320.724445 53.568 
L 321.07283 53.568 
L 321.421214 53.568 
L 321.769599 53.568 
L 322.117984 53.568 
L 322.466368 53.568 
L 322.814753 53.568 
L 323.163138 53.568 
L 323.511522 53.568 
L 323.859907 53.568 
L 324.208292 53.568 
L 324.556676 53.568 
L 324.905061 53.568 
L 325.253446 53.568 
L 325.60183 53.568 
L 325.950215 53.568 
L 326.2986 53.568 
L 326.646984 53.568 
L 326.995369 53.568 
L 327.343754 53.568 
L 327.692138 53.568 
L 328.040523 53.568 
L 328.388908 53.568 
L 328.737292 53.568 
L 329.085677 53.568 
L 329.434062 53.568 
L 329.782446 53.568 
L 330.130831 53.568 
" style="fill:none;stroke:#ffa500;stroke-linecap:square;stroke-width:1.5;"/>
   </g>
   <g id="line2d_32">
    <path clip-path="url(#p0d6d96fca0)" d="M 330.147064 53.568 
L 330.495448 53.568 
L 330.843833 53.568 
L 331.192218 53.568 
L 331.540602 53.568 
L 331.888987 53.568 
L 332.237372 53.568 
L 332.585756 53.568 
L 332.934141 53.568 
L 333.282526 53.568 
L 333.63091 53.568 
L 333.979295 53.568 
L 334.32768 53.568 
L 334.676064 53.568 
L 335.024449 53.568 
L 335.372834 53.568 
L 335.721218 53.568 
L 336.069603 53.568 
L 336.417988 53.568 
L 336.766372 53.568 
L 337.114757 53.568 
L 337.463142 53.568 
L 337.811526 53.568 
L 338.159911 53.568 
L 338.508296 53.568 
L 338.85668 53.568 
L 339.205065 53.568 
L 339.55345 53.568 
L 339.901834 53.568 
L 340.250219 53.568 
L 340.598604 53.568 
L 340.946988 53.568 
L 341.295373 53.568 
L 341.643758 53.568 
L 341.992142 53.568 
L 342.340527 53.568 
L 342.688912 53.568 
L 343.037296 53.568 
L 343.385681 53.568 
L 343.734066 53.568 
L 344.08245 53.568 
L 344.430835 53.568 
L 344.77922 53.568 
L 345.127604 53.568 
L 345.475989 53.568 
L 345.824374 53.568 
L 346.172758 53.568 
L 346.521143 53.568 
L 346.869528 53.568 
L 347.217912 53.568 
" style="fill:none;stroke:#ffa500;stroke-linecap:square;stroke-width:1.5;"/>
   </g>
   <g id="line2d_33">
    <path clip-path="url(#p0d6d96fca0)" d="M 347.234145 53.568 
L 347.58253 53.568 
L 347.930914 53.568 
L 348.279299 53.568 
L 348.627684 53.568 
L 348.976068 53.568 
L 349.324453 53.568 
L 349.672838 53.568 
L 350.021222 53.568 
L 350.369607 53.568 
L 350.717992 53.568 
L 351.066376 53.568 
L 351.414761 53.568 
L 351.763146 53.568 
L 352.11153 53.568 
L 352.459915 53.568 
L 352.8083 53.568 
L 353.156684 53.568 
L 353.505069 53.568 
L 353.853454 53.568 
L 354.201838 53.568 
L 354.550223 53.568 
L 354.898608 53.568 
L 355.246992 53.568 
L 355.595377 53.568 
L 355.943762 53.568 
L 356.292146 53.568 
L 356.640531 53.568 
L 356.988916 53.568 
L 357.3373 53.568 
L 357.685685 53.568 
L 358.03407 53.568 
L 358.382454 53.568 
L 358.730839 53.568 
L 359.079224 53.568 
L 359.427608 53.568 
L 359.775993 53.568 
L 360.124378 53.568 
L 360.472762 53.568 
L 360.821147 53.568 
L 361.169532 53.568 
L 361.517916 53.568 
L 361.866301 53.568 
L 362.214686 53.568 
L 362.56307 53.568 
L 362.911455 53.568 
L 363.25984 53.568 
L 363.608224 53.568 
L 363.956609 53.568 
L 364.304994 53.568 
" style="fill:none;stroke:#ffa500;stroke-linecap:square;stroke-width:1.5;"/>
   </g>
   <g id="line2d_34">
    <path clip-path="url(#p0d6d96fca0)" d="M 364.321226 53.568 
L 364.669611 53.568 
L 365.017996 53.568 
L 365.36638 53.568 
L 365.714765 53.568 
L 366.06315 53.568 
L 366.411534 53.568 
L 366.759919 53.568 
L 367.108304 53.568 
L 367.456688 53.568 
L 367.805073 53.568 
L 368.153458 53.568 
L 368.501842 53.568 
L 368.850227 53.568 
L 369.198612 53.568 
L 369.546996 53.568 
L 369.895381 53.568 
L 370.243766 53.568 
L 370.59215 53.568 
L 370.940535 53.568 
L 371.28892 53.568 
L 371.637304 53.568 
L 371.985689 53.568 
L 372.334074 53.568 
L 372.682458 53.568 
L 373.030843 53.568 
L 373.379228 53.568 
L 373.727612 53.568 
L 374.075997 53.568 
L 374.424382 53.568 
L 374.772766 53.568 
L 375.121151 53.568 
L 375.469536 53.568 
L 375.81792 53.568 
L 376.166305 53.568 
L 376.51469 53.568 
L 376.863074 53.568 
L 377.211459 53.568 
L 377.559844 53.568 
L 377.908228 53.568 
L 378.256613 53.568 
L 378.604998 53.568 
L 378.953382 53.568 
L 379.301767 53.568 
L 379.650152 53.568 
L 379.998536 53.568 
L 380.346921 53.568 
L 380.695306 53.568 
L 381.04369 53.568 
L 381.392075 53.568 
" style="fill:none;stroke:#ffa500;stroke-linecap:square;stroke-width:1.5;"/>
   </g>
   <g id="line2d_35">
    <path clip-path="url(#p0d6d96fca0)" d="M 381.408308 53.568 
L 381.756692 53.568 
L 382.105077 53.568 
L 382.453462 53.568 
L 382.801846 53.568 
L 383.150231 53.568 
L 383.498616 53.568 
L 383.847 53.568 
L 384.195385 53.568 
L 384.54377 53.568 
L 384.892154 53.568 
L 385.240539 53.568 
L 385.588924 53.568 
L 385.937308 53.568 
L 386.285693 53.568 
L 386.634078 53.568 
L 386.982462 53.568 
L 387.330847 53.568 
L 387.679232 53.568 
L 388.027616 53.568 
L 388.376001 53.568 
L 388.724386 53.568 
L 389.07277 53.568 
L 389.421155 53.568 
L 389.76954 53.568 
L 390.117924 53.568 
L 390.466309 53.568 
L 390.814694 53.568 
L 391.163078 53.568 
L 391.511463 53.568 
L 391.859848 53.568 
L 392.208232 53.568 
L 392.556617 53.568 
L 392.905002 53.568 
L 393.253386 53.568 
L 393.601771 53.568 
L 393.950156 53.568 
L 394.29854 53.568 
L 394.646925 53.568 
L 394.99531 53.568 
L 395.343694 53.568 
L 395.692079 53.568 
L 396.040464 53.568 
L 396.388848 53.568 
L 396.737233 53.568 
L 397.085618 53.568 
L 397.434002 53.568 
L 397.782387 53.568 
L 398.130772 53.568 
L 398.479156 53.568 
" style="fill:none;stroke:#ffa500;stroke-linecap:square;stroke-width:1.5;"/>
   </g>
   <g id="patch_3">
    <path d="M 57.6 307.584 
L 57.6 41.472 
" style="fill:none;stroke:#000000;stroke-linecap:square;stroke-linejoin:miter;stroke-width:0.8;"/>
   </g>
   <g id="patch_4">
    <path d="M 414.72 307.584 
L 414.72 41.472 
" style="fill:none;stroke:#000000;stroke-linecap:square;stroke-linejoin:miter;stroke-width:0.8;"/>
   </g>
   <g id="patch_5">
    <path d="M 57.6 307.584 
L 414.72 307.584 
" style="fill:none;stroke:#000000;stroke-linecap:square;stroke-linejoin:miter;stroke-width:0.8;"/>
   </g>
   <g id="patch_6">
    <path d="M 57.6 41.472 
L 414.72 41.472 
" style="fill:none;stroke:#000000;stroke-linecap:square;stroke-linejoin:miter;stroke-width:0.8;"/>
   </g>
  </g>
 </g>
 <defs>
  <clipPath id="p0d6d96fca0">
   <rect height="266.112" width="357.12" x="57.6" y="41.472"/>
  </clipPath>
 </defs>
</svg>
