<?xml version="1.0" encoding="utf-8" standalone="no"?>
<!DOCTYPE svg PUBLIC "-//W3C//DTD SVG 1.1//EN"
  "http://www.w3.org/Graphics/SVG/1.1/DTD/svg11.dtd">
<!-- Created with matplotlib (https://matplotlib.org/) -->
<svg height="345.6pt" version="1.1" viewBox="0 0 460.8 345.6" width="460.8pt" xmlns="http://www.w3.org/2000/svg" xmlns:xlink="http://www.w3.org/1999/xlink">
 <metadata>
  <rdf:RDF xmlns:cc="http://creativecommons.org/ns#" xmlns:dc="http://purl.org/dc/elements/1.1/" xmlns:rdf="http://www.w3.org/1999/02/22-rdf-syntax-ns#">
   <cc:Work>
    <dc:type rdf:resource="http://purl.org/dc/dcmitype/StillImage"/>
    <dc:date>2022-06-28T10:27:14.615146</dc:date>
    <dc:format>image/svg+xml</dc:format>
    <dc:creator>
     <cc:Agent>
      <dc:title>Matplotlib v3.3.2, https://matplotlib.org/</dc:title>
     </cc:Agent>
    </dc:creator>
   </cc:Work>
  </rdf:RDF>
 </metadata>
 <defs>
  <style type="text/css">*{stroke-linecap:butt;stroke-linejoin:round;}</style>
 </defs>
 <g id="figure_1">
  <g id="patch_1">
   <path d="M 0 345.6 
L 460.8 345.6 
L 460.8 0 
L 0 0 
z
" style="fill:#ffffff;"/>
  </g>
  <g id="axes_1">
   <g id="patch_2">
    <path d="M 57.6 307.584 
L 414.72 307.584 
L 414.72 41.472 
L 57.6 41.472 
z
" style="fill:#ffffff;"/>
   </g>
   <g id="PathCollection_1">
    <defs>
     <path d="M 0 3 
C 0.795609 3 1.55874 2.683901 2.12132 2.12132 
C 2.683901 1.55874 3 0.795609 3 0 
C 3 -0.795609 2.683901 -1.55874 2.12132 -2.12132 
C 1.55874 -2.683901 0.795609 -3 0 -3 
C -0.795609 -3 -1.55874 -2.683901 -2.12132 -2.12132 
C -2.683901 -1.55874 -3 -0.795609 -3 0 
C -3 0.795609 -2.683901 1.55874 -2.12132 2.12132 
C -1.55874 2.683901 -0.795609 3 0 3 
z
" id="mcbaf6922c3" style="stroke:#0000ff;"/>
    </defs>
    <g clip-path="url(#p88506dc16f)">
     <use style="fill:#0000ff;stroke:#0000ff;" x="82.376268" xlink:href="#mcbaf6922c3" y="53.568"/>
    </g>
   </g>
   <g id="PathCollection_2">
    <g clip-path="url(#p88506dc16f)">
     <use style="fill:#0000ff;stroke:#0000ff;" x="99.463349" xlink:href="#mcbaf6922c3" y="53.568"/>
    </g>
   </g>
   <g id="PathCollection_3">
    <g clip-path="url(#p88506dc16f)">
     <use style="fill:#0000ff;stroke:#0000ff;" x="116.550431" xlink:href="#mcbaf6922c3" y="53.568"/>
    </g>
   </g>
   <g id="PathCollection_4">
    <g clip-path="url(#p88506dc16f)">
     <use style="fill:#0000ff;stroke:#0000ff;" x="133.637512" xlink:href="#mcbaf6922c3" y="53.568"/>
    </g>
   </g>
   <g id="PathCollection_5">
    <g clip-path="url(#p88506dc16f)">
     <use style="fill:#0000ff;stroke:#0000ff;" x="150.724593" xlink:href="#mcbaf6922c3" y="53.568"/>
    </g>
   </g>
   <g id="PathCollection_6">
    <g clip-path="url(#p88506dc16f)">
     <use style="fill:#0000ff;stroke:#0000ff;" x="167.811675" xlink:href="#mcbaf6922c3" y="53.568"/>
    </g>
   </g>
   <g id="PathCollection_7">
    <g clip-path="url(#p88506dc16f)">
     <use style="fill:#0000ff;stroke:#0000ff;" x="184.898756" xlink:href="#mcbaf6922c3" y="53.568"/>
    </g>
   </g>
   <g id="PathCollection_8">
    <g clip-path="url(#p88506dc16f)">
     <use style="fill:#0000ff;stroke:#0000ff;" x="201.985837" xlink:href="#mcbaf6922c3" y="53.568"/>
    </g>
   </g>
   <g id="PathCollection_9">
    <g clip-path="url(#p88506dc16f)">
     <use style="fill:#0000ff;stroke:#0000ff;" x="219.072919" xlink:href="#mcbaf6922c3" y="53.568"/>
    </g>
   </g>
   <g id="PathCollection_10">
    <g clip-path="url(#p88506dc16f)">
     <use style="fill:#0000ff;stroke:#0000ff;" x="231.88823" xlink:href="#mcbaf6922c3" y="53.568"/>
    </g>
   </g>
   <g id="PathCollection_11">
    <defs>
     <path d="M 0 3 
C 0.795609 3 1.55874 2.683901 2.12132 2.12132 
C 2.683901 1.55874 3 0.795609 3 0 
C 3 -0.795609 2.683901 -1.55874 2.12132 -2.12132 
C 1.55874 -2.683901 0.795609 -3 0 -3 
C -0.795609 -3 -1.55874 -2.683901 -2.12132 -2.12132 
C -2.683901 -1.55874 -3 -0.795609 -3 0 
C -3 0.795609 -2.683901 1.55874 -2.12132 2.12132 
C -1.55874 2.683901 -0.795609 3 0 3 
z
" id="md9e5aaba5b" style="stroke:#ffa500;"/>
    </defs>
    <g clip-path="url(#p88506dc16f)">
     <use style="fill:#ffa500;stroke:#ffa500;" x="236.16" xlink:href="#md9e5aaba5b" y="174.528"/>
    </g>
   </g>
   <g id="PathCollection_12">
    <defs>
     <path d="M 0 3 
C 0.795609 3 1.55874 2.683901 2.12132 2.12132 
C 2.683901 1.55874 3 0.795609 3 0 
C 3 -0.795609 2.683901 -1.55874 2.12132 -2.12132 
C 1.55874 -2.683901 0.795609 -3 0 -3 
C -0.795609 -3 -1.55874 -2.683901 -2.12132 -2.12132 
C -2.683901 -1.55874 -3 -0.795609 -3 0 
C -3 0.795609 -2.683901 1.55874 -2.12132 2.12132 
C -1.55874 2.683901 -0.795609 3 0 3 
z
" id="m5fd4c4a7b3" style="stroke:#ff0000;"/>
    </defs>
    <g clip-path="url(#p88506dc16f)">
     <use style="fill:#ff0000;stroke:#ff0000;" x="240.43177" xlink:href="#m5fd4c4a7b3" y="295.488"/>
    </g>
   </g>
   <g id="PathCollection_13">
    <g clip-path="url(#p88506dc16f)">
     <use style="fill:#ff0000;stroke:#ff0000;" x="253.247081" xlink:href="#m5fd4c4a7b3" y="295.488"/>
    </g>
   </g>
   <g id="PathCollection_14">
    <g clip-path="url(#p88506dc16f)">
     <use style="fill:#ff0000;stroke:#ff0000;" x="270.334163" xlink:href="#m5fd4c4a7b3" y="295.488"/>
    </g>
   </g>
   <g id="PathCollection_15">
    <g clip-path="url(#p88506dc16f)">
     <use style="fill:#ff0000;stroke:#ff0000;" x="287.421244" xlink:href="#m5fd4c4a7b3" y="295.488"/>
    </g>
   </g>
   <g id="PathCollection_16">
    <g clip-path="url(#p88506dc16f)">
     <use style="fill:#ff0000;stroke:#ff0000;" x="304.508325" xlink:href="#m5fd4c4a7b3" y="295.488"/>
    </g>
   </g>
   <g id="PathCollection_17">
    <g clip-path="url(#p88506dc16f)">
     <use style="fill:#ff0000;stroke:#ff0000;" x="321.595407" xlink:href="#m5fd4c4a7b3" y="295.488"/>
    </g>
   </g>
   <g id="PathCollection_18">
    <g clip-path="url(#p88506dc16f)">
     <use style="fill:#ff0000;stroke:#ff0000;" x="338.682488" xlink:href="#m5fd4c4a7b3" y="295.488"/>
    </g>
   </g>
   <g id="PathCollection_19">
    <g clip-path="url(#p88506dc16f)">
     <use style="fill:#ff0000;stroke:#ff0000;" x="355.769569" xlink:href="#m5fd4c4a7b3" y="295.488"/>
    </g>
   </g>
   <g id="PathCollection_20">
    <g clip-path="url(#p88506dc16f)">
     <use style="fill:#ff0000;stroke:#ff0000;" x="372.856651" xlink:href="#m5fd4c4a7b3" y="295.488"/>
    </g>
   </g>
   <g id="PathCollection_21">
    <g clip-path="url(#p88506dc16f)">
     <use style="fill:#ff0000;stroke:#ff0000;" x="389.943732" xlink:href="#m5fd4c4a7b3" y="295.488"/>
    </g>
   </g>
   <g id="PathCollection_22">
    <g clip-path="url(#p88506dc16f)">
     <use style="fill:#0000ff;stroke:#0000ff;" x="82.376268" xlink:href="#mcbaf6922c3" y="53.568"/>
    </g>
   </g>
   <g id="PathCollection_23">
    <g clip-path="url(#p88506dc16f)">
     <use style="fill:#0000ff;stroke:#0000ff;" x="99.463349" xlink:href="#mcbaf6922c3" y="53.568"/>
    </g>
   </g>
   <g id="PathCollection_24">
    <g clip-path="url(#p88506dc16f)">
     <use style="fill:#0000ff;stroke:#0000ff;" x="116.550431" xlink:href="#mcbaf6922c3" y="53.568"/>
    </g>
   </g>
   <g id="PathCollection_25">
    <g clip-path="url(#p88506dc16f)">
     <use style="fill:#0000ff;stroke:#0000ff;" x="133.637512" xlink:href="#mcbaf6922c3" y="53.568"/>
    </g>
   </g>
   <g id="PathCollection_26">
    <g clip-path="url(#p88506dc16f)">
     <use style="fill:#0000ff;stroke:#0000ff;" x="150.724593" xlink:href="#mcbaf6922c3" y="53.568"/>
    </g>
   </g>
   <g id="PathCollection_27">
    <g clip-path="url(#p88506dc16f)">
     <use style="fill:#0000ff;stroke:#0000ff;" x="167.811675" xlink:href="#mcbaf6922c3" y="53.568"/>
    </g>
   </g>
   <g id="PathCollection_28">
    <g clip-path="url(#p88506dc16f)">
     <use style="fill:#0000ff;stroke:#0000ff;" x="184.898756" xlink:href="#mcbaf6922c3" y="53.568"/>
    </g>
   </g>
   <g id="PathCollection_29">
    <g clip-path="url(#p88506dc16f)">
     <use style="fill:#0000ff;stroke:#0000ff;" x="201.985837" xlink:href="#mcbaf6922c3" y="53.568"/>
    </g>
   </g>
   <g id="PathCollection_30">
    <g clip-path="url(#p88506dc16f)">
     <use style="fill:#0000ff;stroke:#0000ff;" x="219.072919" xlink:href="#mcbaf6922c3" y="53.568"/>
    </g>
   </g>
   <g id="PathCollection_31">
    <g clip-path="url(#p88506dc16f)">
     <use style="fill:#0000ff;stroke:#0000ff;" x="231.88823" xlink:href="#mcbaf6922c3" y="53.568"/>
    </g>
   </g>
   <g id="PathCollection_32">
    <g clip-path="url(#p88506dc16f)">
     <use style="fill:#ffa500;stroke:#ffa500;" x="236.16" xlink:href="#md9e5aaba5b" y="174.528"/>
    </g>
   </g>
   <g id="PathCollection_33">
    <g clip-path="url(#p88506dc16f)">
     <use style="fill:#ff0000;stroke:#ff0000;" x="240.43177" xlink:href="#m5fd4c4a7b3" y="295.488"/>
    </g>
   </g>
   <g id="PathCollection_34">
    <g clip-path="url(#p88506dc16f)">
     <use style="fill:#ff0000;stroke:#ff0000;" x="253.247081" xlink:href="#m5fd4c4a7b3" y="295.488"/>
    </g>
   </g>
   <g id="PathCollection_35">
    <g clip-path="url(#p88506dc16f)">
     <use style="fill:#ff0000;stroke:#ff0000;" x="270.334163" xlink:href="#m5fd4c4a7b3" y="295.488"/>
    </g>
   </g>
   <g id="PathCollection_36">
    <g clip-path="url(#p88506dc16f)">
     <use style="fill:#ff0000;stroke:#ff0000;" x="287.421244" xlink:href="#m5fd4c4a7b3" y="295.488"/>
    </g>
   </g>
   <g id="PathCollection_37">
    <g clip-path="url(#p88506dc16f)">
     <use style="fill:#ff0000;stroke:#ff0000;" x="304.508325" xlink:href="#m5fd4c4a7b3" y="295.488"/>
    </g>
   </g>
   <g id="PathCollection_38">
    <g clip-path="url(#p88506dc16f)">
     <use style="fill:#ff0000;stroke:#ff0000;" x="321.595407" xlink:href="#m5fd4c4a7b3" y="295.488"/>
    </g>
   </g>
   <g id="PathCollection_39">
    <g clip-path="url(#p88506dc16f)">
     <use style="fill:#ff0000;stroke:#ff0000;" x="338.682488" xlink:href="#m5fd4c4a7b3" y="295.488"/>
    </g>
   </g>
   <g id="PathCollection_40">
    <g clip-path="url(#p88506dc16f)">
     <use style="fill:#ff0000;stroke:#ff0000;" x="355.769569" xlink:href="#m5fd4c4a7b3" y="295.488"/>
    </g>
   </g>
   <g id="PathCollection_41">
    <g clip-path="url(#p88506dc16f)">
     <use style="fill:#ff0000;stroke:#ff0000;" x="372.856651" xlink:href="#m5fd4c4a7b3" y="295.488"/>
    </g>
   </g>
   <g id="PathCollection_42">
    <g clip-path="url(#p88506dc16f)">
     <use style="fill:#ff0000;stroke:#ff0000;" x="389.943732" xlink:href="#m5fd4c4a7b3" y="295.488"/>
    </g>
   </g>
   <g id="matplotlib.axis_1">
    <g id="xtick_1">
     <g id="line2d_1">
      <defs>
       <path d="M 0 0 
L 0 3.5 
" id="m37c3d775b3" style="stroke:#000000;stroke-width:0.8;"/>
      </defs>
      <g>
       <use style="stroke:#000000;stroke-width:0.8;" x="73.832727" xlink:href="#m37c3d775b3" y="307.584"/>
      </g>
     </g>
     <g id="text_1">
      <!-- −1.00 -->
      <g transform="translate(58.510071 322.182437)scale(0.1 -0.1)">
       <defs>
        <path d="M 10.59375 35.5 
L 73.1875 35.5 
L 73.1875 27.203125 
L 10.59375 27.203125 
z
" id="DejaVuSans-8722"/>
        <path d="M 12.40625 8.296875 
L 28.515625 8.296875 
L 28.515625 63.921875 
L 10.984375 60.40625 
L 10.984375 69.390625 
L 28.421875 72.90625 
L 38.28125 72.90625 
L 38.28125 8.296875 
L 54.390625 8.296875 
L 54.390625 0 
L 12.40625 0 
z
" id="DejaVuSans-49"/>
        <path d="M 10.6875 12.40625 
L 21 12.40625 
L 21 0 
L 10.6875 0 
z
" id="DejaVuSans-46"/>
        <path d="M 31.78125 66.40625 
Q 24.171875 66.40625 20.328125 58.90625 
Q 16.5 51.421875 16.5 36.375 
Q 16.5 21.390625 20.328125 13.890625 
Q 24.171875 6.390625 31.78125 6.390625 
Q 39.453125 6.390625 43.28125 13.890625 
Q 47.125 21.390625 47.125 36.375 
Q 47.125 51.421875 43.28125 58.90625 
Q 39.453125 66.40625 31.78125 66.40625 
z
M 31.78125 74.21875 
Q 44.046875 74.21875 50.515625 64.515625 
Q 56.984375 54.828125 56.984375 36.375 
Q 56.984375 17.96875 50.515625 8.265625 
Q 44.046875 -1.421875 31.78125 -1.421875 
Q 19.53125 -1.421875 13.0625 8.265625 
Q 6.59375 17.96875 6.59375 36.375 
Q 6.59375 54.828125 13.0625 64.515625 
Q 19.53125 74.21875 31.78125 74.21875 
z
" id="DejaVuSans-48"/>
       </defs>
       <use xlink:href="#DejaVuSans-8722"/>
       <use x="83.789062" xlink:href="#DejaVuSans-49"/>
       <use x="147.412109" xlink:href="#DejaVuSans-46"/>
       <use x="179.199219" xlink:href="#DejaVuSans-48"/>
       <use x="242.822266" xlink:href="#DejaVuSans-48"/>
      </g>
     </g>
    </g>
    <g id="xtick_2">
     <g id="line2d_2">
      <g>
       <use style="stroke:#000000;stroke-width:0.8;" x="114.414545" xlink:href="#m37c3d775b3" y="307.584"/>
      </g>
     </g>
     <g id="text_2">
      <!-- −0.75 -->
      <g transform="translate(99.091889 322.182437)scale(0.1 -0.1)">
       <defs>
        <path d="M 8.203125 72.90625 
L 55.078125 72.90625 
L 55.078125 68.703125 
L 28.609375 0 
L 18.3125 0 
L 43.21875 64.59375 
L 8.203125 64.59375 
z
" id="DejaVuSans-55"/>
        <path d="M 10.796875 72.90625 
L 49.515625 72.90625 
L 49.515625 64.59375 
L 19.828125 64.59375 
L 19.828125 46.734375 
Q 21.96875 47.46875 24.109375 47.828125 
Q 26.265625 48.1875 28.421875 48.1875 
Q 40.625 48.1875 47.75 41.5 
Q 54.890625 34.8125 54.890625 23.390625 
Q 54.890625 11.625 47.5625 5.09375 
Q 40.234375 -1.421875 26.90625 -1.421875 
Q 22.3125 -1.421875 17.546875 -0.640625 
Q 12.796875 0.140625 7.71875 1.703125 
L 7.71875 11.625 
Q 12.109375 9.234375 16.796875 8.0625 
Q 21.484375 6.890625 26.703125 6.890625 
Q 35.15625 6.890625 40.078125 11.328125 
Q 45.015625 15.765625 45.015625 23.390625 
Q 45.015625 31 40.078125 35.4375 
Q 35.15625 39.890625 26.703125 39.890625 
Q 22.75 39.890625 18.8125 39.015625 
Q 14.890625 38.140625 10.796875 36.28125 
z
" id="DejaVuSans-53"/>
       </defs>
       <use xlink:href="#DejaVuSans-8722"/>
       <use x="83.789062" xlink:href="#DejaVuSans-48"/>
       <use x="147.412109" xlink:href="#DejaVuSans-46"/>
       <use x="179.199219" xlink:href="#DejaVuSans-55"/>
       <use x="242.822266" xlink:href="#DejaVuSans-53"/>
      </g>
     </g>
    </g>
    <g id="xtick_3">
     <g id="line2d_3">
      <g>
       <use style="stroke:#000000;stroke-width:0.8;" x="154.996364" xlink:href="#m37c3d775b3" y="307.584"/>
      </g>
     </g>
     <g id="text_3">
      <!-- −0.50 -->
      <g transform="translate(139.673707 322.182437)scale(0.1 -0.1)">
       <use xlink:href="#DejaVuSans-8722"/>
       <use x="83.789062" xlink:href="#DejaVuSans-48"/>
       <use x="147.412109" xlink:href="#DejaVuSans-46"/>
       <use x="179.199219" xlink:href="#DejaVuSans-53"/>
       <use x="242.822266" xlink:href="#DejaVuSans-48"/>
      </g>
     </g>
    </g>
    <g id="xtick_4">
     <g id="line2d_4">
      <g>
       <use style="stroke:#000000;stroke-width:0.8;" x="195.578182" xlink:href="#m37c3d775b3" y="307.584"/>
      </g>
     </g>
     <g id="text_4">
      <!-- −0.25 -->
      <g transform="translate(180.255526 322.182437)scale(0.1 -0.1)">
       <defs>
        <path d="M 19.1875 8.296875 
L 53.609375 8.296875 
L 53.609375 0 
L 7.328125 0 
L 7.328125 8.296875 
Q 12.9375 14.109375 22.625 23.890625 
Q 32.328125 33.6875 34.8125 36.53125 
Q 39.546875 41.84375 41.421875 45.53125 
Q 43.3125 49.21875 43.3125 52.78125 
Q 43.3125 58.59375 39.234375 62.25 
Q 35.15625 65.921875 28.609375 65.921875 
Q 23.96875 65.921875 18.8125 64.3125 
Q 13.671875 62.703125 7.8125 59.421875 
L 7.8125 69.390625 
Q 13.765625 71.78125 18.9375 73 
Q 24.125 74.21875 28.421875 74.21875 
Q 39.75 74.21875 46.484375 68.546875 
Q 53.21875 62.890625 53.21875 53.421875 
Q 53.21875 48.921875 51.53125 44.890625 
Q 49.859375 40.875 45.40625 35.40625 
Q 44.1875 33.984375 37.640625 27.21875 
Q 31.109375 20.453125 19.1875 8.296875 
z
" id="DejaVuSans-50"/>
       </defs>
       <use xlink:href="#DejaVuSans-8722"/>
       <use x="83.789062" xlink:href="#DejaVuSans-48"/>
       <use x="147.412109" xlink:href="#DejaVuSans-46"/>
       <use x="179.199219" xlink:href="#DejaVuSans-50"/>
       <use x="242.822266" xlink:href="#DejaVuSans-53"/>
      </g>
     </g>
    </g>
    <g id="xtick_5">
     <g id="line2d_5">
      <g>
       <use style="stroke:#000000;stroke-width:0.8;" x="236.16" xlink:href="#m37c3d775b3" y="307.584"/>
      </g>
     </g>
     <g id="text_5">
      <!-- 0.00 -->
      <g transform="translate(225.027187 322.182437)scale(0.1 -0.1)">
       <use xlink:href="#DejaVuSans-48"/>
       <use x="63.623047" xlink:href="#DejaVuSans-46"/>
       <use x="95.410156" xlink:href="#DejaVuSans-48"/>
       <use x="159.033203" xlink:href="#DejaVuSans-48"/>
      </g>
     </g>
    </g>
    <g id="xtick_6">
     <g id="line2d_6">
      <g>
       <use style="stroke:#000000;stroke-width:0.8;" x="276.741818" xlink:href="#m37c3d775b3" y="307.584"/>
      </g>
     </g>
     <g id="text_6">
      <!-- 0.25 -->
      <g transform="translate(265.609006 322.182437)scale(0.1 -0.1)">
       <use xlink:href="#DejaVuSans-48"/>
       <use x="63.623047" xlink:href="#DejaVuSans-46"/>
       <use x="95.410156" xlink:href="#DejaVuSans-50"/>
       <use x="159.033203" xlink:href="#DejaVuSans-53"/>
      </g>
     </g>
    </g>
    <g id="xtick_7">
     <g id="line2d_7">
      <g>
       <use style="stroke:#000000;stroke-width:0.8;" x="317.323636" xlink:href="#m37c3d775b3" y="307.584"/>
      </g>
     </g>
     <g id="text_7">
      <!-- 0.50 -->
      <g transform="translate(306.190824 322.182437)scale(0.1 -0.1)">
       <use xlink:href="#DejaVuSans-48"/>
       <use x="63.623047" xlink:href="#DejaVuSans-46"/>
       <use x="95.410156" xlink:href="#DejaVuSans-53"/>
       <use x="159.033203" xlink:href="#DejaVuSans-48"/>
      </g>
     </g>
    </g>
    <g id="xtick_8">
     <g id="line2d_8">
      <g>
       <use style="stroke:#000000;stroke-width:0.8;" x="357.905455" xlink:href="#m37c3d775b3" y="307.584"/>
      </g>
     </g>
     <g id="text_8">
      <!-- 0.75 -->
      <g transform="translate(346.772642 322.182437)scale(0.1 -0.1)">
       <use xlink:href="#DejaVuSans-48"/>
       <use x="63.623047" xlink:href="#DejaVuSans-46"/>
       <use x="95.410156" xlink:href="#DejaVuSans-55"/>
       <use x="159.033203" xlink:href="#DejaVuSans-53"/>
      </g>
     </g>
    </g>
    <g id="xtick_9">
     <g id="line2d_9">
      <g>
       <use style="stroke:#000000;stroke-width:0.8;" x="398.487273" xlink:href="#m37c3d775b3" y="307.584"/>
      </g>
     </g>
     <g id="text_9">
      <!-- 1.00 -->
      <g transform="translate(387.35446 322.182437)scale(0.1 -0.1)">
       <use xlink:href="#DejaVuSans-49"/>
       <use x="63.623047" xlink:href="#DejaVuSans-46"/>
       <use x="95.410156" xlink:href="#DejaVuSans-48"/>
       <use x="159.033203" xlink:href="#DejaVuSans-48"/>
      </g>
     </g>
    </g>
   </g>
   <g id="matplotlib.axis_2">
    <g id="ytick_1">
     <g id="line2d_10">
      <defs>
       <path d="M 0 0 
L -3.5 0 
" id="m2ecc53d33c" style="stroke:#000000;stroke-width:0.8;"/>
      </defs>
      <g>
       <use style="stroke:#000000;stroke-width:0.8;" x="57.6" xlink:href="#m2ecc53d33c" y="295.488"/>
      </g>
     </g>
     <g id="text_10">
      <!-- 1.0 -->
      <g transform="translate(34.696875 299.287219)scale(0.1 -0.1)">
       <use xlink:href="#DejaVuSans-49"/>
       <use x="63.623047" xlink:href="#DejaVuSans-46"/>
       <use x="95.410156" xlink:href="#DejaVuSans-48"/>
      </g>
     </g>
    </g>
    <g id="ytick_2">
     <g id="line2d_11">
      <g>
       <use style="stroke:#000000;stroke-width:0.8;" x="57.6" xlink:href="#m2ecc53d33c" y="247.104"/>
      </g>
     </g>
     <g id="text_11">
      <!-- 1.2 -->
      <g transform="translate(34.696875 250.903219)scale(0.1 -0.1)">
       <use xlink:href="#DejaVuSans-49"/>
       <use x="63.623047" xlink:href="#DejaVuSans-46"/>
       <use x="95.410156" xlink:href="#DejaVuSans-50"/>
      </g>
     </g>
    </g>
    <g id="ytick_3">
     <g id="line2d_12">
      <g>
       <use style="stroke:#000000;stroke-width:0.8;" x="57.6" xlink:href="#m2ecc53d33c" y="198.72"/>
      </g>
     </g>
     <g id="text_12">
      <!-- 1.4 -->
      <g transform="translate(34.696875 202.519219)scale(0.1 -0.1)">
       <defs>
        <path d="M 37.796875 64.3125 
L 12.890625 25.390625 
L 37.796875 25.390625 
z
M 35.203125 72.90625 
L 47.609375 72.90625 
L 47.609375 25.390625 
L 58.015625 25.390625 
L 58.015625 17.1875 
L 47.609375 17.1875 
L 47.609375 0 
L 37.796875 0 
L 37.796875 17.1875 
L 4.890625 17.1875 
L 4.890625 26.703125 
z
" id="DejaVuSans-52"/>
       </defs>
       <use xlink:href="#DejaVuSans-49"/>
       <use x="63.623047" xlink:href="#DejaVuSans-46"/>
       <use x="95.410156" xlink:href="#DejaVuSans-52"/>
      </g>
     </g>
    </g>
    <g id="ytick_4">
     <g id="line2d_13">
      <g>
       <use style="stroke:#000000;stroke-width:0.8;" x="57.6" xlink:href="#m2ecc53d33c" y="150.336"/>
      </g>
     </g>
     <g id="text_13">
      <!-- 1.6 -->
      <g transform="translate(34.696875 154.135219)scale(0.1 -0.1)">
       <defs>
        <path d="M 33.015625 40.375 
Q 26.375 40.375 22.484375 35.828125 
Q 18.609375 31.296875 18.609375 23.390625 
Q 18.609375 15.53125 22.484375 10.953125 
Q 26.375 6.390625 33.015625 6.390625 
Q 39.65625 6.390625 43.53125 10.953125 
Q 47.40625 15.53125 47.40625 23.390625 
Q 47.40625 31.296875 43.53125 35.828125 
Q 39.65625 40.375 33.015625 40.375 
z
M 52.59375 71.296875 
L 52.59375 62.3125 
Q 48.875 64.0625 45.09375 64.984375 
Q 41.3125 65.921875 37.59375 65.921875 
Q 27.828125 65.921875 22.671875 59.328125 
Q 17.53125 52.734375 16.796875 39.40625 
Q 19.671875 43.65625 24.015625 45.921875 
Q 28.375 48.1875 33.59375 48.1875 
Q 44.578125 48.1875 50.953125 41.515625 
Q 57.328125 34.859375 57.328125 23.390625 
Q 57.328125 12.15625 50.6875 5.359375 
Q 44.046875 -1.421875 33.015625 -1.421875 
Q 20.359375 -1.421875 13.671875 8.265625 
Q 6.984375 17.96875 6.984375 36.375 
Q 6.984375 53.65625 15.1875 63.9375 
Q 23.390625 74.21875 37.203125 74.21875 
Q 40.921875 74.21875 44.703125 73.484375 
Q 48.484375 72.75 52.59375 71.296875 
z
" id="DejaVuSans-54"/>
       </defs>
       <use xlink:href="#DejaVuSans-49"/>
       <use x="63.623047" xlink:href="#DejaVuSans-46"/>
       <use x="95.410156" xlink:href="#DejaVuSans-54"/>
      </g>
     </g>
    </g>
    <g id="ytick_5">
     <g id="line2d_14">
      <g>
       <use style="stroke:#000000;stroke-width:0.8;" x="57.6" xlink:href="#m2ecc53d33c" y="101.952"/>
      </g>
     </g>
     <g id="text_14">
      <!-- 1.8 -->
      <g transform="translate(34.696875 105.751219)scale(0.1 -0.1)">
       <defs>
        <path d="M 31.78125 34.625 
Q 24.75 34.625 20.71875 30.859375 
Q 16.703125 27.09375 16.703125 20.515625 
Q 16.703125 13.921875 20.71875 10.15625 
Q 24.75 6.390625 31.78125 6.390625 
Q 38.8125 6.390625 42.859375 10.171875 
Q 46.921875 13.96875 46.921875 20.515625 
Q 46.921875 27.09375 42.890625 30.859375 
Q 38.875 34.625 31.78125 34.625 
z
M 21.921875 38.8125 
Q 15.578125 40.375 12.03125 44.71875 
Q 8.5 49.078125 8.5 55.328125 
Q 8.5 64.0625 14.71875 69.140625 
Q 20.953125 74.21875 31.78125 74.21875 
Q 42.671875 74.21875 48.875 69.140625 
Q 55.078125 64.0625 55.078125 55.328125 
Q 55.078125 49.078125 51.53125 44.71875 
Q 48 40.375 41.703125 38.8125 
Q 48.828125 37.15625 52.796875 32.3125 
Q 56.78125 27.484375 56.78125 20.515625 
Q 56.78125 9.90625 50.3125 4.234375 
Q 43.84375 -1.421875 31.78125 -1.421875 
Q 19.734375 -1.421875 13.25 4.234375 
Q 6.78125 9.90625 6.78125 20.515625 
Q 6.78125 27.484375 10.78125 32.3125 
Q 14.796875 37.15625 21.921875 38.8125 
z
M 18.3125 54.390625 
Q 18.3125 48.734375 21.84375 45.5625 
Q 25.390625 42.390625 31.78125 42.390625 
Q 38.140625 42.390625 41.71875 45.5625 
Q 45.3125 48.734375 45.3125 54.390625 
Q 45.3125 60.0625 41.71875 63.234375 
Q 38.140625 66.40625 31.78125 66.40625 
Q 25.390625 66.40625 21.84375 63.234375 
Q 18.3125 60.0625 18.3125 54.390625 
z
" id="DejaVuSans-56"/>
       </defs>
       <use xlink:href="#DejaVuSans-49"/>
       <use x="63.623047" xlink:href="#DejaVuSans-46"/>
       <use x="95.410156" xlink:href="#DejaVuSans-56"/>
      </g>
     </g>
    </g>
    <g id="ytick_6">
     <g id="line2d_15">
      <g>
       <use style="stroke:#000000;stroke-width:0.8;" x="57.6" xlink:href="#m2ecc53d33c" y="53.568"/>
      </g>
     </g>
     <g id="text_15">
      <!-- 2.0 -->
      <g transform="translate(34.696875 57.367219)scale(0.1 -0.1)">
       <use xlink:href="#DejaVuSans-50"/>
       <use x="63.623047" xlink:href="#DejaVuSans-46"/>
       <use x="95.410156" xlink:href="#DejaVuSans-48"/>
      </g>
     </g>
    </g>
   </g>
   <g id="line2d_16">
    <path clip-path="url(#p88506dc16f)" d="M 73.832727 53.568 
L 236.078796 53.568 
L 236.241204 295.488 
L 398.487273 295.488 
L 398.487273 295.488 
" style="fill:none;stroke:#ff00ff;stroke-linecap:square;stroke-width:1.5;"/>
   </g>
   <g id="line2d_17">
    <path clip-path="url(#p88506dc16f)" d="M 73.832727 53.568 
L 74.005324 53.568 
L 74.177921 53.568 
L 74.350518 53.568 
L 74.523114 53.568 
L 74.695711 53.568 
L 74.868308 53.568 
L 75.040905 53.568 
L 75.213502 53.568 
L 75.386098 53.568 
L 75.558695 53.568 
L 75.731292 53.568 
L 75.903889 53.568 
L 76.076485 53.568 
L 76.249082 53.568 
L 76.421679 53.568 
L 76.594276 53.568 
L 76.766873 53.568 
L 76.939469 53.568 
L 77.112066 53.568 
L 77.284663 53.568 
L 77.45726 53.568 
L 77.629856 53.568 
L 77.802453 53.568 
L 77.97505 53.568 
L 78.147647 53.568 
L 78.320244 53.568 
L 78.49284 53.568 
L 78.665437 53.568 
L 78.838034 53.568 
L 79.010631 53.568 
L 79.183227 53.568 
L 79.355824 53.568 
L 79.528421 53.568 
L 79.701018 53.568 
L 79.873615 53.568 
L 80.046211 53.568 
L 80.218808 53.568 
L 80.391405 53.568 
L 80.564002 53.568 
L 80.736599 53.568 
L 80.909195 53.568 
L 81.081792 53.568 
L 81.254389 53.568 
L 81.426986 53.568 
L 81.599582 53.568 
L 81.772179 53.568 
L 81.944776 53.568 
L 82.117373 53.568 
L 82.28997 53.568 
L 82.462566 53.568 
L 82.635163 53.568 
L 82.80776 53.568 
L 82.980357 53.568 
L 83.152953 53.568 
L 83.32555 53.568 
L 83.498147 53.568 
L 83.670744 53.568 
L 83.843341 53.568 
L 84.015937 53.568 
L 84.188534 53.568 
L 84.361131 53.568 
L 84.533728 53.568 
L 84.706324 53.568 
L 84.878921 53.568 
L 85.051518 53.568 
L 85.224115 53.568 
L 85.396712 53.568 
L 85.569308 53.568 
L 85.741905 53.568 
L 85.914502 53.568 
L 86.087099 53.568 
L 86.259696 53.568 
L 86.432292 53.568 
L 86.604889 53.568 
L 86.777486 53.568 
L 86.950083 53.568 
L 87.122679 53.568 
L 87.295276 53.568 
L 87.467873 53.568 
L 87.64047 53.568 
L 87.813067 53.568 
L 87.985663 53.568 
L 88.15826 53.568 
L 88.330857 53.568 
L 88.503454 53.568 
L 88.67605 53.568 
L 88.848647 53.568 
L 89.021244 53.568 
L 89.193841 53.568 
L 89.366438 53.568 
L 89.539034 53.568 
L 89.711631 53.568 
L 89.884228 53.568 
L 90.056825 53.568 
L 90.229421 53.568 
L 90.402018 53.568 
L 90.574615 53.568 
L 90.747212 53.568 
L 90.919809 53.568 
" style="fill:none;stroke:#0000ff;stroke-linecap:square;stroke-width:1.5;"/>
   </g>
   <g id="line2d_18">
    <path clip-path="url(#p88506dc16f)" d="M 90.919809 53.568 
L 91.092405 53.568 
L 91.265002 53.568 
L 91.437599 53.568 
L 91.610196 53.568 
L 91.782793 53.568 
L 91.955389 53.568 
L 92.127986 53.568 
L 92.300583 53.568 
L 92.47318 53.568 
L 92.645776 53.568 
L 92.818373 53.568 
L 92.99097 53.568 
L 93.163567 53.568 
L 93.336164 53.568 
L 93.50876 53.568 
L 93.681357 53.568 
L 93.853954 53.568 
L 94.026551 53.568 
L 94.199147 53.568 
L 94.371744 53.568 
L 94.544341 53.568 
L 94.716938 53.568 
L 94.889535 53.568 
L 95.062131 53.568 
L 95.234728 53.568 
L 95.407325 53.568 
L 95.579922 53.568 
L 95.752518 53.568 
L 95.925115 53.568 
L 96.097712 53.568 
L 96.270309 53.568 
L 96.442906 53.568 
L 96.615502 53.568 
L 96.788099 53.568 
L 96.960696 53.568 
L 97.133293 53.568 
L 97.30589 53.568 
L 97.478486 53.568 
L 97.651083 53.568 
L 97.82368 53.568 
L 97.996277 53.568 
L 98.168873 53.568 
L 98.34147 53.568 
L 98.514067 53.568 
L 98.686664 53.568 
L 98.859261 53.568 
L 99.031857 53.568 
L 99.204454 53.568 
L 99.377051 53.568 
L 99.549648 53.568 
L 99.722244 53.568 
L 99.894841 53.568 
L 100.067438 53.568 
L 100.240035 53.568 
L 100.412632 53.568 
L 100.585228 53.568 
L 100.757825 53.568 
L 100.930422 53.568 
L 101.103019 53.568 
L 101.275615 53.568 
L 101.448212 53.568 
L 101.620809 53.568 
L 101.793406 53.568 
L 101.966003 53.568 
L 102.138599 53.568 
L 102.311196 53.568 
L 102.483793 53.568 
L 102.65639 53.568 
L 102.828987 53.568 
L 103.001583 53.568 
L 103.17418 53.568 
L 103.346777 53.568 
L 103.519374 53.568 
L 103.69197 53.568 
L 103.864567 53.568 
L 104.037164 53.568 
L 104.209761 53.568 
L 104.382358 53.568 
L 104.554954 53.568 
L 104.727551 53.568 
L 104.900148 53.568 
L 105.072745 53.568 
L 105.245341 53.568 
L 105.417938 53.568 
L 105.590535 53.568 
L 105.763132 53.568 
L 105.935729 53.568 
L 106.108325 53.568 
L 106.280922 53.568 
L 106.453519 53.568 
L 106.626116 53.568 
L 106.798712 53.568 
L 106.971309 53.568 
L 107.143906 53.568 
L 107.316503 53.568 
L 107.4891 53.568 
L 107.661696 53.568 
L 107.834293 53.568 
L 108.00689 53.568 
" style="fill:none;stroke:#0000ff;stroke-linecap:square;stroke-width:1.5;"/>
   </g>
   <g id="line2d_19">
    <path clip-path="url(#p88506dc16f)" d="M 108.00689 53.568 
L 108.179487 53.568 
L 108.352084 53.568 
L 108.52468 53.568 
L 108.697277 53.568 
L 108.869874 53.568 
L 109.042471 53.568 
L 109.215067 53.568 
L 109.387664 53.568 
L 109.560261 53.568 
L 109.732858 53.568 
L 109.905455 53.568 
L 110.078051 53.568 
L 110.250648 53.568 
L 110.423245 53.568 
L 110.595842 53.568 
L 110.768438 53.568 
L 110.941035 53.568 
L 111.113632 53.568 
L 111.286229 53.568 
L 111.458826 53.568 
L 111.631422 53.568 
L 111.804019 53.568 
L 111.976616 53.568 
L 112.149213 53.568 
L 112.321809 53.568 
L 112.494406 53.568 
L 112.667003 53.568 
L 112.8396 53.568 
L 113.012197 53.568 
L 113.184793 53.568 
L 113.35739 53.568 
L 113.529987 53.568 
L 113.702584 53.568 
L 113.875181 53.568 
L 114.047777 53.568 
L 114.220374 53.568 
L 114.392971 53.568 
L 114.565568 53.568 
L 114.738164 53.568 
L 114.910761 53.568 
L 115.083358 53.568 
L 115.255955 53.568 
L 115.428552 53.568 
L 115.601148 53.568 
L 115.773745 53.568 
L 115.946342 53.568 
L 116.118939 53.568 
L 116.291535 53.568 
L 116.464132 53.568 
L 116.636729 53.568 
L 116.809326 53.568 
L 116.981923 53.568 
L 117.154519 53.568 
L 117.327116 53.568 
L 117.499713 53.568 
L 117.67231 53.568 
L 117.844906 53.568 
L 118.017503 53.568 
L 118.1901 53.568 
L 118.362697 53.568 
L 118.535294 53.568 
L 118.70789 53.568 
L 118.880487 53.568 
L 119.053084 53.568 
L 119.225681 53.568 
L 119.398278 53.568 
L 119.570874 53.568 
L 119.743471 53.568 
L 119.916068 53.568 
L 120.088665 53.568 
L 120.261261 53.568 
L 120.433858 53.568 
L 120.606455 53.568 
L 120.779052 53.568 
L 120.951649 53.568 
L 121.124245 53.568 
L 121.296842 53.568 
L 121.469439 53.568 
L 121.642036 53.568 
L 121.814632 53.568 
L 121.987229 53.568 
L 122.159826 53.568 
L 122.332423 53.568 
L 122.50502 53.568 
L 122.677616 53.568 
L 122.850213 53.568 
L 123.02281 53.568 
L 123.195407 53.568 
L 123.368003 53.568 
L 123.5406 53.568 
L 123.713197 53.568 
L 123.885794 53.568 
L 124.058391 53.568 
L 124.230987 53.568 
L 124.403584 53.568 
L 124.576181 53.568 
L 124.748778 53.568 
L 124.921374 53.568 
L 125.093971 53.568 
" style="fill:none;stroke:#0000ff;stroke-linecap:square;stroke-width:1.5;"/>
   </g>
   <g id="line2d_20">
    <path clip-path="url(#p88506dc16f)" d="M 125.093971 53.568 
L 125.266568 53.568 
L 125.439165 53.568 
L 125.611762 53.568 
L 125.784358 53.568 
L 125.956955 53.568 
L 126.129552 53.568 
L 126.302149 53.568 
L 126.474746 53.568 
L 126.647342 53.568 
L 126.819939 53.568 
L 126.992536 53.568 
L 127.165133 53.568 
L 127.337729 53.568 
L 127.510326 53.568 
L 127.682923 53.568 
L 127.85552 53.568 
L 128.028117 53.568 
L 128.200713 53.568 
L 128.37331 53.568 
L 128.545907 53.568 
L 128.718504 53.568 
L 128.8911 53.568 
L 129.063697 53.568 
L 129.236294 53.568 
L 129.408891 53.568 
L 129.581488 53.568 
L 129.754084 53.568 
L 129.926681 53.568 
L 130.099278 53.568 
L 130.271875 53.568 
L 130.444472 53.568 
L 130.617068 53.568 
L 130.789665 53.568 
L 130.962262 53.568 
L 131.134859 53.568 
L 131.307455 53.568 
L 131.480052 53.568 
L 131.652649 53.568 
L 131.825246 53.568 
L 131.997843 53.568 
L 132.170439 53.568 
L 132.343036 53.568 
L 132.515633 53.568 
L 132.68823 53.568 
L 132.860826 53.568 
L 133.033423 53.568 
L 133.20602 53.568 
L 133.378617 53.568 
L 133.551214 53.568 
L 133.72381 53.568 
L 133.896407 53.568 
L 134.069004 53.568 
L 134.241601 53.568 
L 134.414197 53.568 
L 134.586794 53.568 
L 134.759391 53.568 
L 134.931988 53.568 
L 135.104585 53.568 
L 135.277181 53.568 
L 135.449778 53.568 
L 135.622375 53.568 
L 135.794972 53.568 
L 135.967569 53.568 
L 136.140165 53.568 
L 136.312762 53.568 
L 136.485359 53.568 
L 136.657956 53.568 
L 136.830552 53.568 
L 137.003149 53.568 
L 137.175746 53.568 
L 137.348343 53.568 
L 137.52094 53.568 
L 137.693536 53.568 
L 137.866133 53.568 
L 138.03873 53.568 
L 138.211327 53.568 
L 138.383923 53.568 
L 138.55652 53.568 
L 138.729117 53.568 
L 138.901714 53.568 
L 139.074311 53.568 
L 139.246907 53.568 
L 139.419504 53.568 
L 139.592101 53.568 
L 139.764698 53.568 
L 139.937294 53.568 
L 140.109891 53.568 
L 140.282488 53.568 
L 140.455085 53.568 
L 140.627682 53.568 
L 140.800278 53.568 
L 140.972875 53.568 
L 141.145472 53.568 
L 141.318069 53.568 
L 141.490665 53.568 
L 141.663262 53.568 
L 141.835859 53.568 
L 142.008456 53.568 
L 142.181053 53.568 
" style="fill:none;stroke:#0000ff;stroke-linecap:square;stroke-width:1.5;"/>
   </g>
   <g id="line2d_21">
    <path clip-path="url(#p88506dc16f)" d="M 142.181053 53.568 
L 142.353649 53.568 
L 142.526246 53.568 
L 142.698843 53.568 
L 142.87144 53.568 
L 143.044037 53.568 
L 143.216633 53.568 
L 143.38923 53.568 
L 143.561827 53.568 
L 143.734424 53.568 
L 143.90702 53.568 
L 144.079617 53.568 
L 144.252214 53.568 
L 144.424811 53.568 
L 144.597408 53.568 
L 144.770004 53.568 
L 144.942601 53.568 
L 145.115198 53.568 
L 145.287795 53.568 
L 145.460391 53.568 
L 145.632988 53.568 
L 145.805585 53.568 
L 145.978182 53.568 
L 146.150779 53.568 
L 146.323375 53.568 
L 146.495972 53.568 
L 146.668569 53.568 
L 146.841166 53.568 
L 147.013763 53.568 
L 147.186359 53.568 
L 147.358956 53.568 
L 147.531553 53.568 
L 147.70415 53.568 
L 147.876746 53.568 
L 148.049343 53.568 
L 148.22194 53.568 
L 148.394537 53.568 
L 148.567134 53.568 
L 148.73973 53.568 
L 148.912327 53.568 
L 149.084924 53.568 
L 149.257521 53.568 
L 149.430117 53.568 
L 149.602714 53.568 
L 149.775311 53.568 
L 149.947908 53.568 
L 150.120505 53.568 
L 150.293101 53.568 
L 150.465698 53.568 
L 150.638295 53.568 
L 150.810892 53.568 
L 150.983488 53.568 
L 151.156085 53.568 
L 151.328682 53.568 
L 151.501279 53.568 
L 151.673876 53.568 
L 151.846472 53.568 
L 152.019069 53.568 
L 152.191666 53.568 
L 152.364263 53.568 
L 152.53686 53.568 
L 152.709456 53.568 
L 152.882053 53.568 
L 153.05465 53.568 
L 153.227247 53.568 
L 153.399843 53.568 
L 153.57244 53.568 
L 153.745037 53.568 
L 153.917634 53.568 
L 154.090231 53.568 
L 154.262827 53.568 
L 154.435424 53.568 
L 154.608021 53.568 
L 154.780618 53.568 
L 154.953214 53.568 
L 155.125811 53.568 
L 155.298408 53.568 
L 155.471005 53.568 
L 155.643602 53.568 
L 155.816198 53.568 
L 155.988795 53.568 
L 156.161392 53.568 
L 156.333989 53.568 
L 156.506585 53.568 
L 156.679182 53.568 
L 156.851779 53.568 
L 157.024376 53.568 
L 157.196973 53.568 
L 157.369569 53.568 
L 157.542166 53.568 
L 157.714763 53.568 
L 157.88736 53.568 
L 158.059956 53.568 
L 158.232553 53.568 
L 158.40515 53.568 
L 158.577747 53.568 
L 158.750344 53.568 
L 158.92294 53.568 
L 159.095537 53.568 
L 159.268134 53.568 
" style="fill:none;stroke:#0000ff;stroke-linecap:square;stroke-width:1.5;"/>
   </g>
   <g id="line2d_22">
    <path clip-path="url(#p88506dc16f)" d="M 159.268134 53.568 
L 159.440731 53.568 
L 159.613328 53.568 
L 159.785924 53.568 
L 159.958521 53.568 
L 160.131118 53.568 
L 160.303715 53.568 
L 160.476311 53.568 
L 160.648908 53.568 
L 160.821505 53.568 
L 160.994102 53.568 
L 161.166699 53.568 
L 161.339295 53.568 
L 161.511892 53.568 
L 161.684489 53.568 
L 161.857086 53.568 
L 162.029682 53.568 
L 162.202279 53.568 
L 162.374876 53.568 
L 162.547473 53.568 
L 162.72007 53.568 
L 162.892666 53.568 
L 163.065263 53.568 
L 163.23786 53.568 
L 163.410457 53.568 
L 163.583054 53.568 
L 163.75565 53.568 
L 163.928247 53.568 
L 164.100844 53.568 
L 164.273441 53.568 
L 164.446037 53.568 
L 164.618634 53.568 
L 164.791231 53.568 
L 164.963828 53.568 
L 165.136425 53.568 
L 165.309021 53.568 
L 165.481618 53.568 
L 165.654215 53.568 
L 165.826812 53.568 
L 165.999408 53.568 
L 166.172005 53.568 
L 166.344602 53.568 
L 166.517199 53.568 
L 166.689796 53.568 
L 166.862392 53.568 
L 167.034989 53.568 
L 167.207586 53.568 
L 167.380183 53.568 
L 167.552779 53.568 
L 167.725376 53.568 
L 167.897973 53.568 
L 168.07057 53.568 
L 168.243167 53.568 
L 168.415763 53.568 
L 168.58836 53.568 
L 168.760957 53.568 
L 168.933554 53.568 
L 169.10615 53.568 
L 169.278747 53.568 
L 169.451344 53.568 
L 169.623941 53.568 
L 169.796538 53.568 
L 169.969134 53.568 
L 170.141731 53.568 
L 170.314328 53.568 
L 170.486925 53.568 
L 170.659522 53.568 
L 170.832118 53.568 
L 171.004715 53.568 
L 171.177312 53.568 
L 171.349909 53.568 
L 171.522505 53.568 
L 171.695102 53.568 
L 171.867699 53.568 
L 172.040296 53.568 
L 172.212893 53.568 
L 172.385489 53.568 
L 172.558086 53.568 
L 172.730683 53.568 
L 172.90328 53.568 
L 173.075876 53.568 
L 173.248473 53.568 
L 173.42107 53.568 
L 173.593667 53.568 
L 173.766264 53.568 
L 173.93886 53.568 
L 174.111457 53.568 
L 174.284054 53.568 
L 174.456651 53.568 
L 174.629247 53.568 
L 174.801844 53.568 
L 174.974441 53.568 
L 175.147038 53.568 
L 175.319635 53.568 
L 175.492231 53.568 
L 175.664828 53.568 
L 175.837425 53.568 
L 176.010022 53.568 
L 176.182619 53.568 
L 176.355215 53.568 
" style="fill:none;stroke:#0000ff;stroke-linecap:square;stroke-width:1.5;"/>
   </g>
   <g id="line2d_23">
    <path clip-path="url(#p88506dc16f)" d="M 176.355215 53.568 
L 176.527812 53.568 
L 176.700409 53.568 
L 176.873006 53.568 
L 177.045602 53.568 
L 177.218199 53.568 
L 177.390796 53.568 
L 177.563393 53.568 
L 177.73599 53.568 
L 177.908586 53.568 
L 178.081183 53.568 
L 178.25378 53.568 
L 178.426377 53.568 
L 178.598973 53.568 
L 178.77157 53.568 
L 178.944167 53.568 
L 179.116764 53.568 
L 179.289361 53.568 
L 179.461957 53.568 
L 179.634554 53.568 
L 179.807151 53.568 
L 179.979748 53.568 
L 180.152345 53.568 
L 180.324941 53.568 
L 180.497538 53.568 
L 180.670135 53.568 
L 180.842732 53.568 
L 181.015328 53.568 
L 181.187925 53.568 
L 181.360522 53.568 
L 181.533119 53.568 
L 181.705716 53.568 
L 181.878312 53.568 
L 182.050909 53.568 
L 182.223506 53.568 
L 182.396103 53.568 
L 182.568699 53.568 
L 182.741296 53.568 
L 182.913893 53.568 
L 183.08649 53.568 
L 183.259087 53.568 
L 183.431683 53.568 
L 183.60428 53.568 
L 183.776877 53.568 
L 183.949474 53.568 
L 184.12207 53.568 
L 184.294667 53.568 
L 184.467264 53.568 
L 184.639861 53.568 
L 184.812458 53.568 
L 184.985054 53.568 
L 185.157651 53.568 
L 185.330248 53.568 
L 185.502845 53.568 
L 185.675441 53.568 
L 185.848038 53.568 
L 186.020635 53.568 
L 186.193232 53.568 
L 186.365829 53.568 
L 186.538425 53.568 
L 186.711022 53.568 
L 186.883619 53.568 
L 187.056216 53.568 
L 187.228813 53.568 
L 187.401409 53.568 
L 187.574006 53.568 
L 187.746603 53.568 
L 187.9192 53.568 
L 188.091796 53.568 
L 188.264393 53.568 
L 188.43699 53.568 
L 188.609587 53.568 
L 188.782184 53.568 
L 188.95478 53.568 
L 189.127377 53.568 
L 189.299974 53.568 
L 189.472571 53.568 
L 189.645167 53.568 
L 189.817764 53.568 
L 189.990361 53.568 
L 190.162958 53.568 
L 190.335555 53.568 
L 190.508151 53.568 
L 190.680748 53.568 
L 190.853345 53.568 
L 191.025942 53.568 
L 191.198538 53.568 
L 191.371135 53.568 
L 191.543732 53.568 
L 191.716329 53.568 
L 191.888926 53.568 
L 192.061522 53.568 
L 192.234119 53.568 
L 192.406716 53.568 
L 192.579313 53.568 
L 192.75191 53.568 
L 192.924506 53.568 
L 193.097103 53.568 
L 193.2697 53.568 
L 193.442297 53.568 
" style="fill:none;stroke:#0000ff;stroke-linecap:square;stroke-width:1.5;"/>
   </g>
   <g id="line2d_24">
    <path clip-path="url(#p88506dc16f)" d="M 193.442297 53.568 
L 193.614893 53.568 
L 193.78749 53.568 
L 193.960087 53.568 
L 194.132684 53.568 
L 194.305281 53.568 
L 194.477877 53.568 
L 194.650474 53.568 
L 194.823071 53.568 
L 194.995668 53.568 
L 195.168264 53.568 
L 195.340861 53.568 
L 195.513458 53.568 
L 195.686055 53.568 
L 195.858652 53.568 
L 196.031248 53.568 
L 196.203845 53.568 
L 196.376442 53.568 
L 196.549039 53.568 
L 196.721636 53.568 
L 196.894232 53.568 
L 197.066829 53.568 
L 197.239426 53.568 
L 197.412023 53.568 
L 197.584619 53.568 
L 197.757216 53.568 
L 197.929813 53.568 
L 198.10241 53.568 
L 198.275007 53.568 
L 198.447603 53.568 
L 198.6202 53.568 
L 198.792797 53.568 
L 198.965394 53.568 
L 199.13799 53.568 
L 199.310587 53.568 
L 199.483184 53.568 
L 199.655781 53.568 
L 199.828378 53.568 
L 200.000974 53.568 
L 200.173571 53.568 
L 200.346168 53.568 
L 200.518765 53.568 
L 200.691361 53.568 
L 200.863958 53.568 
L 201.036555 53.568 
L 201.209152 53.568 
L 201.381749 53.568 
L 201.554345 53.568 
L 201.726942 53.568 
L 201.899539 53.568 
L 202.072136 53.568 
L 202.244732 53.568 
L 202.417329 53.568 
L 202.589926 53.568 
L 202.762523 53.568 
L 202.93512 53.568 
L 203.107716 53.568 
L 203.280313 53.568 
L 203.45291 53.568 
L 203.625507 53.568 
L 203.798104 53.568 
L 203.9707 53.568 
L 204.143297 53.568 
L 204.315894 53.568 
L 204.488491 53.568 
L 204.661087 53.568 
L 204.833684 53.568 
L 205.006281 53.568 
L 205.178878 53.568 
L 205.351475 53.568 
L 205.524071 53.568 
L 205.696668 53.568 
L 205.869265 53.568 
L 206.041862 53.568 
L 206.214458 53.568 
L 206.387055 53.568 
L 206.559652 53.568 
L 206.732249 53.568 
L 206.904846 53.568 
L 207.077442 53.568 
L 207.250039 53.568 
L 207.422636 53.568 
L 207.595233 53.568 
L 207.767829 53.568 
L 207.940426 53.568 
L 208.113023 53.568 
L 208.28562 53.568 
L 208.458217 53.568 
L 208.630813 53.568 
L 208.80341 53.568 
L 208.976007 53.568 
L 209.148604 53.568 
L 209.321201 53.568 
L 209.493797 53.568 
L 209.666394 53.568 
L 209.838991 53.568 
L 210.011588 53.568 
L 210.184184 53.568 
L 210.356781 53.568 
L 210.529378 53.568 
" style="fill:none;stroke:#0000ff;stroke-linecap:square;stroke-width:1.5;"/>
   </g>
   <g id="line2d_25">
    <path clip-path="url(#p88506dc16f)" d="M 210.529378 53.568 
L 210.701975 53.568 
L 210.874572 53.568 
L 211.047168 53.568 
L 211.219765 53.568 
L 211.392362 53.568 
L 211.564959 53.568 
L 211.737555 53.568 
L 211.910152 53.568 
L 212.082749 53.568 
L 212.255346 53.568 
L 212.427943 53.568 
L 212.600539 53.568 
L 212.773136 53.568 
L 212.945733 53.568 
L 213.11833 53.568 
L 213.290927 53.568 
L 213.463523 53.568 
L 213.63612 53.568 
L 213.808717 53.568 
L 213.981314 53.568 
L 214.15391 53.568 
L 214.326507 53.568 
L 214.499104 53.568 
L 214.671701 53.568 
L 214.844298 53.568 
L 215.016894 53.568 
L 215.189491 53.568 
L 215.362088 53.568 
L 215.534685 53.568 
L 215.707281 53.568 
L 215.879878 53.568 
L 216.052475 53.568 
L 216.225072 53.568 
L 216.397669 53.568 
L 216.570265 53.568 
L 216.742862 53.568 
L 216.915459 53.568 
L 217.088056 53.568 
L 217.260652 53.568 
L 217.433249 53.568 
L 217.605846 53.568 
L 217.778443 53.568 
L 217.95104 53.568 
L 218.123636 53.568 
L 218.296233 53.568 
L 218.46883 53.568 
L 218.641427 53.568 
L 218.814023 53.568 
L 218.98662 53.568 
L 219.159217 53.568 
L 219.331814 53.568 
L 219.504411 53.568 
L 219.677007 53.568 
L 219.849604 53.568 
L 220.022201 53.568 
L 220.194798 53.568 
L 220.367395 53.568 
L 220.539991 53.568 
L 220.712588 53.568 
L 220.885185 53.568 
L 221.057782 53.568 
L 221.230378 53.568 
L 221.402975 53.568 
L 221.575572 53.568 
L 221.748169 53.568 
L 221.920766 53.568 
L 222.093362 53.568 
L 222.265959 53.568 
L 222.438556 53.568 
L 222.611153 53.568 
L 222.783749 53.568 
L 222.956346 53.568 
L 223.128943 53.568 
L 223.30154 53.568 
L 223.474137 53.568 
L 223.646733 53.568 
L 223.81933 53.568 
L 223.991927 53.568 
L 224.164524 53.568 
L 224.33712 53.568 
L 224.509717 53.568 
L 224.682314 53.568 
L 224.854911 53.568 
L 225.027508 53.568 
L 225.200104 53.568 
L 225.372701 53.568 
L 225.545298 53.568 
L 225.717895 53.568 
L 225.890492 53.568 
L 226.063088 53.568 
L 226.235685 53.568 
L 226.408282 53.568 
L 226.580879 53.568 
L 226.753475 53.568 
L 226.926072 53.568 
L 227.098669 53.568 
L 227.271266 53.568 
L 227.443863 53.568 
L 227.616459 53.568 
" style="fill:none;stroke:#0000ff;stroke-linecap:square;stroke-width:1.5;"/>
   </g>
   <g id="line2d_26">
    <path clip-path="url(#p88506dc16f)" d="M 227.616459 53.568 
L 227.702758 53.568 
L 227.789056 53.568 
L 227.875355 53.568 
L 227.961653 53.568 
L 228.047951 53.568 
L 228.13425 53.568 
L 228.220548 53.568 
L 228.306846 53.568 
L 228.393145 53.568 
L 228.479443 53.568 
L 228.565742 53.568 
L 228.65204 53.568 
L 228.738338 53.568 
L 228.824637 53.568 
L 228.910935 53.568 
L 228.997234 53.568 
L 229.083532 53.568 
L 229.16983 53.568 
L 229.256129 53.568 
L 229.342427 53.568 
L 229.428726 53.568 
L 229.515024 53.568 
L 229.601322 53.568 
L 229.687621 53.568 
L 229.773919 53.568 
L 229.860217 53.568 
L 229.946516 53.568 
L 230.032814 53.568 
L 230.119113 53.568 
L 230.205411 53.568 
L 230.291709 53.568 
L 230.378008 53.568 
L 230.464306 53.568 
L 230.550605 53.568 
L 230.636903 53.568 
L 230.723201 53.568 
L 230.8095 53.568 
L 230.895798 53.568 
L 230.982097 53.568 
L 231.068395 53.568 
L 231.154693 53.568 
L 231.240992 53.568 
L 231.32729 53.568 
L 231.413589 53.568 
L 231.499887 53.568 
L 231.586185 53.568 
L 231.672484 53.568 
L 231.758782 53.568 
L 231.84508 53.568 
L 231.931379 53.568 
L 232.017677 53.568 
L 232.103976 53.568 
L 232.190274 53.568 
L 232.276572 53.568 
L 232.362871 53.568 
L 232.449169 53.568 
L 232.535468 53.568 
L 232.621766 53.568 
L 232.708064 53.568 
L 232.794363 53.568 
L 232.880661 53.568 
L 232.96696 53.568 
L 233.053258 53.568 
L 233.139556 53.568 
L 233.225855 53.568 
L 233.312153 53.568 
L 233.398451 53.568 
L 233.48475 53.568 
L 233.571048 53.568 
L 233.657347 53.568 
L 233.743645 53.568 
L 233.829943 53.568 
L 233.916242 53.568 
L 234.00254 53.568 
L 234.088839 53.568 
L 234.175137 53.568 
L 234.261435 53.568 
L 234.347734 53.568 
L 234.434032 53.568 
L 234.520331 53.568 
L 234.606629 53.568 
L 234.692927 53.568 
L 234.779226 53.568 
L 234.865524 53.568 
L 234.951823 53.568 
L 235.038121 53.568 
L 235.124419 53.568 
L 235.210718 53.568 
L 235.297016 53.568 
L 235.383314 53.568 
L 235.469613 53.568 
L 235.555911 53.568 
L 235.64221 53.568 
L 235.728508 53.568 
L 235.814806 53.568 
L 235.901105 53.568 
L 235.987403 53.568 
L 236.073702 53.568 
L 236.16 53.568 
" style="fill:none;stroke:#0000ff;stroke-linecap:square;stroke-width:1.5;"/>
   </g>
   <g id="line2d_27">
    <path clip-path="url(#p88506dc16f)" d="M 236.16 295.488 
L 236.246298 295.488 
L 236.332597 295.488 
L 236.418895 295.488 
L 236.505194 295.488 
L 236.591492 295.488 
L 236.67779 295.488 
L 236.764089 295.488 
L 236.850387 295.488 
L 236.936686 295.488 
L 237.022984 295.488 
L 237.109282 295.488 
L 237.195581 295.488 
L 237.281879 295.488 
L 237.368177 295.488 
L 237.454476 295.488 
L 237.540774 295.488 
L 237.627073 295.488 
L 237.713371 295.488 
L 237.799669 295.488 
L 237.885968 295.488 
L 237.972266 295.488 
L 238.058565 295.488 
L 238.144863 295.488 
L 238.231161 295.488 
L 238.31746 295.488 
L 238.403758 295.488 
L 238.490057 295.488 
L 238.576355 295.488 
L 238.662653 295.488 
L 238.748952 295.488 
L 238.83525 295.488 
L 238.921549 295.488 
L 239.007847 295.488 
L 239.094145 295.488 
L 239.180444 295.488 
L 239.266742 295.488 
L 239.35304 295.488 
L 239.439339 295.488 
L 239.525637 295.488 
L 239.611936 295.488 
L 239.698234 295.488 
L 239.784532 295.488 
L 239.870831 295.488 
L 239.957129 295.488 
L 240.043428 295.488 
L 240.129726 295.488 
L 240.216024 295.488 
L 240.302323 295.488 
L 240.388621 295.488 
L 240.47492 295.488 
L 240.561218 295.488 
L 240.647516 295.488 
L 240.733815 295.488 
L 240.820113 295.488 
L 240.906411 295.488 
L 240.99271 295.488 
L 241.079008 295.488 
L 241.165307 295.488 
L 241.251605 295.488 
L 241.337903 295.488 
L 241.424202 295.488 
L 241.5105 295.488 
L 241.596799 295.488 
L 241.683097 295.488 
L 241.769395 295.488 
L 241.855694 295.488 
L 241.941992 295.488 
L 242.028291 295.488 
L 242.114589 295.488 
L 242.200887 295.488 
L 242.287186 295.488 
L 242.373484 295.488 
L 242.459783 295.488 
L 242.546081 295.488 
L 242.632379 295.488 
L 242.718678 295.488 
L 242.804976 295.488 
L 242.891274 295.488 
L 242.977573 295.488 
L 243.063871 295.488 
L 243.15017 295.488 
L 243.236468 295.488 
L 243.322766 295.488 
L 243.409065 295.488 
L 243.495363 295.488 
L 243.581662 295.488 
L 243.66796 295.488 
L 243.754258 295.488 
L 243.840557 295.488 
L 243.926855 295.488 
L 244.013154 295.488 
L 244.099452 295.488 
L 244.18575 295.488 
L 244.272049 295.488 
L 244.358347 295.488 
L 244.444645 295.488 
L 244.530944 295.488 
L 244.617242 295.488 
L 244.703541 295.488 
" style="fill:none;stroke:#ff0000;stroke-linecap:square;stroke-width:1.5;"/>
   </g>
   <g id="line2d_28">
    <path clip-path="url(#p88506dc16f)" d="M 244.703541 295.488 
L 244.876137 295.488 
L 245.048734 295.488 
L 245.221331 295.488 
L 245.393928 295.488 
L 245.566525 295.488 
L 245.739121 295.488 
L 245.911718 295.488 
L 246.084315 295.488 
L 246.256912 295.488 
L 246.429508 295.488 
L 246.602105 295.488 
L 246.774702 295.488 
L 246.947299 295.488 
L 247.119896 295.488 
L 247.292492 295.488 
L 247.465089 295.488 
L 247.637686 295.488 
L 247.810283 295.488 
L 247.98288 295.488 
L 248.155476 295.488 
L 248.328073 295.488 
L 248.50067 295.488 
L 248.673267 295.488 
L 248.845863 295.488 
L 249.01846 295.488 
L 249.191057 295.488 
L 249.363654 295.488 
L 249.536251 295.488 
L 249.708847 295.488 
L 249.881444 295.488 
L 250.054041 295.488 
L 250.226638 295.488 
L 250.399234 295.488 
L 250.571831 295.488 
L 250.744428 295.488 
L 250.917025 295.488 
L 251.089622 295.488 
L 251.262218 295.488 
L 251.434815 295.488 
L 251.607412 295.488 
L 251.780009 295.488 
L 251.952605 295.488 
L 252.125202 295.488 
L 252.297799 295.488 
L 252.470396 295.488 
L 252.642993 295.488 
L 252.815589 295.488 
L 252.988186 295.488 
L 253.160783 295.488 
L 253.33338 295.488 
L 253.505977 295.488 
L 253.678573 295.488 
L 253.85117 295.488 
L 254.023767 295.488 
L 254.196364 295.488 
L 254.36896 295.488 
L 254.541557 295.488 
L 254.714154 295.488 
L 254.886751 295.488 
L 255.059348 295.488 
L 255.231944 295.488 
L 255.404541 295.488 
L 255.577138 295.488 
L 255.749735 295.488 
L 255.922331 295.488 
L 256.094928 295.488 
L 256.267525 295.488 
L 256.440122 295.488 
L 256.612719 295.488 
L 256.785315 295.488 
L 256.957912 295.488 
L 257.130509 295.488 
L 257.303106 295.488 
L 257.475702 295.488 
L 257.648299 295.488 
L 257.820896 295.488 
L 257.993493 295.488 
L 258.16609 295.488 
L 258.338686 295.488 
L 258.511283 295.488 
L 258.68388 295.488 
L 258.856477 295.488 
L 259.029073 295.488 
L 259.20167 295.488 
L 259.374267 295.488 
L 259.546864 295.488 
L 259.719461 295.488 
L 259.892057 295.488 
L 260.064654 295.488 
L 260.237251 295.488 
L 260.409848 295.488 
L 260.582445 295.488 
L 260.755041 295.488 
L 260.927638 295.488 
L 261.100235 295.488 
L 261.272832 295.488 
L 261.445428 295.488 
L 261.618025 295.488 
L 261.790622 295.488 
" style="fill:none;stroke:#ff0000;stroke-linecap:square;stroke-width:1.5;"/>
   </g>
   <g id="line2d_29">
    <path clip-path="url(#p88506dc16f)" d="M 261.790622 295.488 
L 261.963219 295.488 
L 262.135816 295.488 
L 262.308412 295.488 
L 262.481009 295.488 
L 262.653606 295.488 
L 262.826203 295.488 
L 262.998799 295.488 
L 263.171396 295.488 
L 263.343993 295.488 
L 263.51659 295.488 
L 263.689187 295.488 
L 263.861783 295.488 
L 264.03438 295.488 
L 264.206977 295.488 
L 264.379574 295.488 
L 264.552171 295.488 
L 264.724767 295.488 
L 264.897364 295.488 
L 265.069961 295.488 
L 265.242558 295.488 
L 265.415154 295.488 
L 265.587751 295.488 
L 265.760348 295.488 
L 265.932945 295.488 
L 266.105542 295.488 
L 266.278138 295.488 
L 266.450735 295.488 
L 266.623332 295.488 
L 266.795929 295.488 
L 266.968525 295.488 
L 267.141122 295.488 
L 267.313719 295.488 
L 267.486316 295.488 
L 267.658913 295.488 
L 267.831509 295.488 
L 268.004106 295.488 
L 268.176703 295.488 
L 268.3493 295.488 
L 268.521896 295.488 
L 268.694493 295.488 
L 268.86709 295.488 
L 269.039687 295.488 
L 269.212284 295.488 
L 269.38488 295.488 
L 269.557477 295.488 
L 269.730074 295.488 
L 269.902671 295.488 
L 270.075268 295.488 
L 270.247864 295.488 
L 270.420461 295.488 
L 270.593058 295.488 
L 270.765655 295.488 
L 270.938251 295.488 
L 271.110848 295.488 
L 271.283445 295.488 
L 271.456042 295.488 
L 271.628639 295.488 
L 271.801235 295.488 
L 271.973832 295.488 
L 272.146429 295.488 
L 272.319026 295.488 
L 272.491622 295.488 
L 272.664219 295.488 
L 272.836816 295.488 
L 273.009413 295.488 
L 273.18201 295.488 
L 273.354606 295.488 
L 273.527203 295.488 
L 273.6998 295.488 
L 273.872397 295.488 
L 274.044993 295.488 
L 274.21759 295.488 
L 274.390187 295.488 
L 274.562784 295.488 
L 274.735381 295.488 
L 274.907977 295.488 
L 275.080574 295.488 
L 275.253171 295.488 
L 275.425768 295.488 
L 275.598364 295.488 
L 275.770961 295.488 
L 275.943558 295.488 
L 276.116155 295.488 
L 276.288752 295.488 
L 276.461348 295.488 
L 276.633945 295.488 
L 276.806542 295.488 
L 276.979139 295.488 
L 277.151736 295.488 
L 277.324332 295.488 
L 277.496929 295.488 
L 277.669526 295.488 
L 277.842123 295.488 
L 278.014719 295.488 
L 278.187316 295.488 
L 278.359913 295.488 
L 278.53251 295.488 
L 278.705107 295.488 
L 278.877703 295.488 
" style="fill:none;stroke:#ff0000;stroke-linecap:square;stroke-width:1.5;"/>
   </g>
   <g id="line2d_30">
    <path clip-path="url(#p88506dc16f)" d="M 278.877703 295.488 
L 279.0503 295.488 
L 279.222897 295.488 
L 279.395494 295.488 
L 279.56809 295.488 
L 279.740687 295.488 
L 279.913284 295.488 
L 280.085881 295.488 
L 280.258478 295.488 
L 280.431074 295.488 
L 280.603671 295.488 
L 280.776268 295.488 
L 280.948865 295.488 
L 281.121462 295.488 
L 281.294058 295.488 
L 281.466655 295.488 
L 281.639252 295.488 
L 281.811849 295.488 
L 281.984445 295.488 
L 282.157042 295.488 
L 282.329639 295.488 
L 282.502236 295.488 
L 282.674833 295.488 
L 282.847429 295.488 
L 283.020026 295.488 
L 283.192623 295.488 
L 283.36522 295.488 
L 283.537816 295.488 
L 283.710413 295.488 
L 283.88301 295.488 
L 284.055607 295.488 
L 284.228204 295.488 
L 284.4008 295.488 
L 284.573397 295.488 
L 284.745994 295.488 
L 284.918591 295.488 
L 285.091187 295.488 
L 285.263784 295.488 
L 285.436381 295.488 
L 285.608978 295.488 
L 285.781575 295.488 
L 285.954171 295.488 
L 286.126768 295.488 
L 286.299365 295.488 
L 286.471962 295.488 
L 286.644559 295.488 
L 286.817155 295.488 
L 286.989752 295.488 
L 287.162349 295.488 
L 287.334946 295.488 
L 287.507542 295.488 
L 287.680139 295.488 
L 287.852736 295.488 
L 288.025333 295.488 
L 288.19793 295.488 
L 288.370526 295.488 
L 288.543123 295.488 
L 288.71572 295.488 
L 288.888317 295.488 
L 289.060913 295.488 
L 289.23351 295.488 
L 289.406107 295.488 
L 289.578704 295.488 
L 289.751301 295.488 
L 289.923897 295.488 
L 290.096494 295.488 
L 290.269091 295.488 
L 290.441688 295.488 
L 290.614284 295.488 
L 290.786881 295.488 
L 290.959478 295.488 
L 291.132075 295.488 
L 291.304672 295.488 
L 291.477268 295.488 
L 291.649865 295.488 
L 291.822462 295.488 
L 291.995059 295.488 
L 292.167655 295.488 
L 292.340252 295.488 
L 292.512849 295.488 
L 292.685446 295.488 
L 292.858043 295.488 
L 293.030639 295.488 
L 293.203236 295.488 
L 293.375833 295.488 
L 293.54843 295.488 
L 293.721027 295.488 
L 293.893623 295.488 
L 294.06622 295.488 
L 294.238817 295.488 
L 294.411414 295.488 
L 294.58401 295.488 
L 294.756607 295.488 
L 294.929204 295.488 
L 295.101801 295.488 
L 295.274398 295.488 
L 295.446994 295.488 
L 295.619591 295.488 
L 295.792188 295.488 
L 295.964785 295.488 
" style="fill:none;stroke:#ff0000;stroke-linecap:square;stroke-width:1.5;"/>
   </g>
   <g id="line2d_31">
    <path clip-path="url(#p88506dc16f)" d="M 295.964785 295.488 
L 296.137381 295.488 
L 296.309978 295.488 
L 296.482575 295.488 
L 296.655172 295.488 
L 296.827769 295.488 
L 297.000365 295.488 
L 297.172962 295.488 
L 297.345559 295.488 
L 297.518156 295.488 
L 297.690753 295.488 
L 297.863349 295.488 
L 298.035946 295.488 
L 298.208543 295.488 
L 298.38114 295.488 
L 298.553736 295.488 
L 298.726333 295.488 
L 298.89893 295.488 
L 299.071527 295.488 
L 299.244124 295.488 
L 299.41672 295.488 
L 299.589317 295.488 
L 299.761914 295.488 
L 299.934511 295.488 
L 300.107107 295.488 
L 300.279704 295.488 
L 300.452301 295.488 
L 300.624898 295.488 
L 300.797495 295.488 
L 300.970091 295.488 
L 301.142688 295.488 
L 301.315285 295.488 
L 301.487882 295.488 
L 301.660478 295.488 
L 301.833075 295.488 
L 302.005672 295.488 
L 302.178269 295.488 
L 302.350866 295.488 
L 302.523462 295.488 
L 302.696059 295.488 
L 302.868656 295.488 
L 303.041253 295.488 
L 303.21385 295.488 
L 303.386446 295.488 
L 303.559043 295.488 
L 303.73164 295.488 
L 303.904237 295.488 
L 304.076833 295.488 
L 304.24943 295.488 
L 304.422027 295.488 
L 304.594624 295.488 
L 304.767221 295.488 
L 304.939817 295.488 
L 305.112414 295.488 
L 305.285011 295.488 
L 305.457608 295.488 
L 305.630204 295.488 
L 305.802801 295.488 
L 305.975398 295.488 
L 306.147995 295.488 
L 306.320592 295.488 
L 306.493188 295.488 
L 306.665785 295.488 
L 306.838382 295.488 
L 307.010979 295.488 
L 307.183575 295.488 
L 307.356172 295.488 
L 307.528769 295.488 
L 307.701366 295.488 
L 307.873963 295.488 
L 308.046559 295.488 
L 308.219156 295.488 
L 308.391753 295.488 
L 308.56435 295.488 
L 308.736946 295.488 
L 308.909543 295.488 
L 309.08214 295.488 
L 309.254737 295.488 
L 309.427334 295.488 
L 309.59993 295.488 
L 309.772527 295.488 
L 309.945124 295.488 
L 310.117721 295.488 
L 310.290318 295.488 
L 310.462914 295.488 
L 310.635511 295.488 
L 310.808108 295.488 
L 310.980705 295.488 
L 311.153301 295.488 
L 311.325898 295.488 
L 311.498495 295.488 
L 311.671092 295.488 
L 311.843689 295.488 
L 312.016285 295.488 
L 312.188882 295.488 
L 312.361479 295.488 
L 312.534076 295.488 
L 312.706672 295.488 
L 312.879269 295.488 
L 313.051866 295.488 
" style="fill:none;stroke:#ff0000;stroke-linecap:square;stroke-width:1.5;"/>
   </g>
   <g id="line2d_32">
    <path clip-path="url(#p88506dc16f)" d="M 313.051866 295.488 
L 313.224463 295.488 
L 313.39706 295.488 
L 313.569656 295.488 
L 313.742253 295.488 
L 313.91485 295.488 
L 314.087447 295.488 
L 314.260044 295.488 
L 314.43264 295.488 
L 314.605237 295.488 
L 314.777834 295.488 
L 314.950431 295.488 
L 315.123027 295.488 
L 315.295624 295.488 
L 315.468221 295.488 
L 315.640818 295.488 
L 315.813415 295.488 
L 315.986011 295.488 
L 316.158608 295.488 
L 316.331205 295.488 
L 316.503802 295.488 
L 316.676398 295.488 
L 316.848995 295.488 
L 317.021592 295.488 
L 317.194189 295.488 
L 317.366786 295.488 
L 317.539382 295.488 
L 317.711979 295.488 
L 317.884576 295.488 
L 318.057173 295.488 
L 318.229769 295.488 
L 318.402366 295.488 
L 318.574963 295.488 
L 318.74756 295.488 
L 318.920157 295.488 
L 319.092753 295.488 
L 319.26535 295.488 
L 319.437947 295.488 
L 319.610544 295.488 
L 319.78314 295.488 
L 319.955737 295.488 
L 320.128334 295.488 
L 320.300931 295.488 
L 320.473528 295.488 
L 320.646124 295.488 
L 320.818721 295.488 
L 320.991318 295.488 
L 321.163915 295.488 
L 321.336512 295.488 
L 321.509108 295.488 
L 321.681705 295.488 
L 321.854302 295.488 
L 322.026899 295.488 
L 322.199495 295.488 
L 322.372092 295.488 
L 322.544689 295.488 
L 322.717286 295.488 
L 322.889883 295.488 
L 323.062479 295.488 
L 323.235076 295.488 
L 323.407673 295.488 
L 323.58027 295.488 
L 323.752866 295.488 
L 323.925463 295.488 
L 324.09806 295.488 
L 324.270657 295.488 
L 324.443254 295.488 
L 324.61585 295.488 
L 324.788447 295.488 
L 324.961044 295.488 
L 325.133641 295.488 
L 325.306237 295.488 
L 325.478834 295.488 
L 325.651431 295.488 
L 325.824028 295.488 
L 325.996625 295.488 
L 326.169221 295.488 
L 326.341818 295.488 
L 326.514415 295.488 
L 326.687012 295.488 
L 326.859609 295.488 
L 327.032205 295.488 
L 327.204802 295.488 
L 327.377399 295.488 
L 327.549996 295.488 
L 327.722592 295.488 
L 327.895189 295.488 
L 328.067786 295.488 
L 328.240383 295.488 
L 328.41298 295.488 
L 328.585576 295.488 
L 328.758173 295.488 
L 328.93077 295.488 
L 329.103367 295.488 
L 329.275963 295.488 
L 329.44856 295.488 
L 329.621157 295.488 
L 329.793754 295.488 
L 329.966351 295.488 
L 330.138947 295.488 
" style="fill:none;stroke:#ff0000;stroke-linecap:square;stroke-width:1.5;"/>
   </g>
   <g id="line2d_33">
    <path clip-path="url(#p88506dc16f)" d="M 330.138947 295.488 
L 330.311544 295.488 
L 330.484141 295.488 
L 330.656738 295.488 
L 330.829335 295.488 
L 331.001931 295.488 
L 331.174528 295.488 
L 331.347125 295.488 
L 331.519722 295.488 
L 331.692318 295.488 
L 331.864915 295.488 
L 332.037512 295.488 
L 332.210109 295.488 
L 332.382706 295.488 
L 332.555302 295.488 
L 332.727899 295.488 
L 332.900496 295.488 
L 333.073093 295.488 
L 333.245689 295.488 
L 333.418286 295.488 
L 333.590883 295.488 
L 333.76348 295.488 
L 333.936077 295.488 
L 334.108673 295.488 
L 334.28127 295.488 
L 334.453867 295.488 
L 334.626464 295.488 
L 334.79906 295.488 
L 334.971657 295.488 
L 335.144254 295.488 
L 335.316851 295.488 
L 335.489448 295.488 
L 335.662044 295.488 
L 335.834641 295.488 
L 336.007238 295.488 
L 336.179835 295.488 
L 336.352431 295.488 
L 336.525028 295.488 
L 336.697625 295.488 
L 336.870222 295.488 
L 337.042819 295.488 
L 337.215415 295.488 
L 337.388012 295.488 
L 337.560609 295.488 
L 337.733206 295.488 
L 337.905803 295.488 
L 338.078399 295.488 
L 338.250996 295.488 
L 338.423593 295.488 
L 338.59619 295.488 
L 338.768786 295.488 
L 338.941383 295.488 
L 339.11398 295.488 
L 339.286577 295.488 
L 339.459174 295.488 
L 339.63177 295.488 
L 339.804367 295.488 
L 339.976964 295.488 
L 340.149561 295.488 
L 340.322157 295.488 
L 340.494754 295.488 
L 340.667351 295.488 
L 340.839948 295.488 
L 341.012545 295.488 
L 341.185141 295.488 
L 341.357738 295.488 
L 341.530335 295.488 
L 341.702932 295.488 
L 341.875528 295.488 
L 342.048125 295.488 
L 342.220722 295.488 
L 342.393319 295.488 
L 342.565916 295.488 
L 342.738512 295.488 
L 342.911109 295.488 
L 343.083706 295.488 
L 343.256303 295.488 
L 343.4289 295.488 
L 343.601496 295.488 
L 343.774093 295.488 
L 343.94669 295.488 
L 344.119287 295.488 
L 344.291883 295.488 
L 344.46448 295.488 
L 344.637077 295.488 
L 344.809674 295.488 
L 344.982271 295.488 
L 345.154867 295.488 
L 345.327464 295.488 
L 345.500061 295.488 
L 345.672658 295.488 
L 345.845254 295.488 
L 346.017851 295.488 
L 346.190448 295.488 
L 346.363045 295.488 
L 346.535642 295.488 
L 346.708238 295.488 
L 346.880835 295.488 
L 347.053432 295.488 
L 347.226029 295.488 
" style="fill:none;stroke:#ff0000;stroke-linecap:square;stroke-width:1.5;"/>
   </g>
   <g id="line2d_34">
    <path clip-path="url(#p88506dc16f)" d="M 347.226029 295.488 
L 347.398626 295.488 
L 347.571222 295.488 
L 347.743819 295.488 
L 347.916416 295.488 
L 348.089013 295.488 
L 348.261609 295.488 
L 348.434206 295.488 
L 348.606803 295.488 
L 348.7794 295.488 
L 348.951997 295.488 
L 349.124593 295.488 
L 349.29719 295.488 
L 349.469787 295.488 
L 349.642384 295.488 
L 349.81498 295.488 
L 349.987577 295.488 
L 350.160174 295.488 
L 350.332771 295.488 
L 350.505368 295.488 
L 350.677964 295.488 
L 350.850561 295.488 
L 351.023158 295.488 
L 351.195755 295.488 
L 351.368351 295.488 
L 351.540948 295.488 
L 351.713545 295.488 
L 351.886142 295.488 
L 352.058739 295.488 
L 352.231335 295.488 
L 352.403932 295.488 
L 352.576529 295.488 
L 352.749126 295.488 
L 352.921722 295.488 
L 353.094319 295.488 
L 353.266916 295.488 
L 353.439513 295.488 
L 353.61211 295.488 
L 353.784706 295.488 
L 353.957303 295.488 
L 354.1299 295.488 
L 354.302497 295.488 
L 354.475094 295.488 
L 354.64769 295.488 
L 354.820287 295.488 
L 354.992884 295.488 
L 355.165481 295.488 
L 355.338077 295.488 
L 355.510674 295.488 
L 355.683271 295.488 
L 355.855868 295.488 
L 356.028465 295.488 
L 356.201061 295.488 
L 356.373658 295.488 
L 356.546255 295.488 
L 356.718852 295.488 
L 356.891448 295.488 
L 357.064045 295.488 
L 357.236642 295.488 
L 357.409239 295.488 
L 357.581836 295.488 
L 357.754432 295.488 
L 357.927029 295.488 
L 358.099626 295.488 
L 358.272223 295.488 
L 358.444819 295.488 
L 358.617416 295.488 
L 358.790013 295.488 
L 358.96261 295.488 
L 359.135207 295.488 
L 359.307803 295.488 
L 359.4804 295.488 
L 359.652997 295.488 
L 359.825594 295.488 
L 359.998191 295.488 
L 360.170787 295.488 
L 360.343384 295.488 
L 360.515981 295.488 
L 360.688578 295.488 
L 360.861174 295.488 
L 361.033771 295.488 
L 361.206368 295.488 
L 361.378965 295.488 
L 361.551562 295.488 
L 361.724158 295.488 
L 361.896755 295.488 
L 362.069352 295.488 
L 362.241949 295.488 
L 362.414545 295.488 
L 362.587142 295.488 
L 362.759739 295.488 
L 362.932336 295.488 
L 363.104933 295.488 
L 363.277529 295.488 
L 363.450126 295.488 
L 363.622723 295.488 
L 363.79532 295.488 
L 363.967916 295.488 
L 364.140513 295.488 
L 364.31311 295.488 
" style="fill:none;stroke:#ff0000;stroke-linecap:square;stroke-width:1.5;"/>
   </g>
   <g id="line2d_35">
    <path clip-path="url(#p88506dc16f)" d="M 364.31311 295.488 
L 364.485707 295.488 
L 364.658304 295.488 
L 364.8309 295.488 
L 365.003497 295.488 
L 365.176094 295.488 
L 365.348691 295.488 
L 365.521288 295.488 
L 365.693884 295.488 
L 365.866481 295.488 
L 366.039078 295.488 
L 366.211675 295.488 
L 366.384271 295.488 
L 366.556868 295.488 
L 366.729465 295.488 
L 366.902062 295.488 
L 367.074659 295.488 
L 367.247255 295.488 
L 367.419852 295.488 
L 367.592449 295.488 
L 367.765046 295.488 
L 367.937642 295.488 
L 368.110239 295.488 
L 368.282836 295.488 
L 368.455433 295.488 
L 368.62803 295.488 
L 368.800626 295.488 
L 368.973223 295.488 
L 369.14582 295.488 
L 369.318417 295.488 
L 369.491013 295.488 
L 369.66361 295.488 
L 369.836207 295.488 
L 370.008804 295.488 
L 370.181401 295.488 
L 370.353997 295.488 
L 370.526594 295.488 
L 370.699191 295.488 
L 370.871788 295.488 
L 371.044385 295.488 
L 371.216981 295.488 
L 371.389578 295.488 
L 371.562175 295.488 
L 371.734772 295.488 
L 371.907368 295.488 
L 372.079965 295.488 
L 372.252562 295.488 
L 372.425159 295.488 
L 372.597756 295.488 
L 372.770352 295.488 
L 372.942949 295.488 
L 373.115546 295.488 
L 373.288143 295.488 
L 373.460739 295.488 
L 373.633336 295.488 
L 373.805933 295.488 
L 373.97853 295.488 
L 374.151127 295.488 
L 374.323723 295.488 
L 374.49632 295.488 
L 374.668917 295.488 
L 374.841514 295.488 
L 375.01411 295.488 
L 375.186707 295.488 
L 375.359304 295.488 
L 375.531901 295.488 
L 375.704498 295.488 
L 375.877094 295.488 
L 376.049691 295.488 
L 376.222288 295.488 
L 376.394885 295.488 
L 376.567482 295.488 
L 376.740078 295.488 
L 376.912675 295.488 
L 377.085272 295.488 
L 377.257869 295.488 
L 377.430465 295.488 
L 377.603062 295.488 
L 377.775659 295.488 
L 377.948256 295.488 
L 378.120853 295.488 
L 378.293449 295.488 
L 378.466046 295.488 
L 378.638643 295.488 
L 378.81124 295.488 
L 378.983836 295.488 
L 379.156433 295.488 
L 379.32903 295.488 
L 379.501627 295.488 
L 379.674224 295.488 
L 379.84682 295.488 
L 380.019417 295.488 
L 380.192014 295.488 
L 380.364611 295.488 
L 380.537207 295.488 
L 380.709804 295.488 
L 380.882401 295.488 
L 381.054998 295.488 
L 381.227595 295.488 
L 381.400191 295.488 
" style="fill:none;stroke:#ff0000;stroke-linecap:square;stroke-width:1.5;"/>
   </g>
   <g id="line2d_36">
    <path clip-path="url(#p88506dc16f)" d="M 381.400191 295.488 
L 381.572788 295.488 
L 381.745385 295.488 
L 381.917982 295.488 
L 382.090579 295.488 
L 382.263175 295.488 
L 382.435772 295.488 
L 382.608369 295.488 
L 382.780966 295.488 
L 382.953562 295.488 
L 383.126159 295.488 
L 383.298756 295.488 
L 383.471353 295.488 
L 383.64395 295.488 
L 383.816546 295.488 
L 383.989143 295.488 
L 384.16174 295.488 
L 384.334337 295.488 
L 384.506933 295.488 
L 384.67953 295.488 
L 384.852127 295.488 
L 385.024724 295.488 
L 385.197321 295.488 
L 385.369917 295.488 
L 385.542514 295.488 
L 385.715111 295.488 
L 385.887708 295.488 
L 386.060304 295.488 
L 386.232901 295.488 
L 386.405498 295.488 
L 386.578095 295.488 
L 386.750692 295.488 
L 386.923288 295.488 
L 387.095885 295.488 
L 387.268482 295.488 
L 387.441079 295.488 
L 387.613676 295.488 
L 387.786272 295.488 
L 387.958869 295.488 
L 388.131466 295.488 
L 388.304063 295.488 
L 388.476659 295.488 
L 388.649256 295.488 
L 388.821853 295.488 
L 388.99445 295.488 
L 389.167047 295.488 
L 389.339643 295.488 
L 389.51224 295.488 
L 389.684837 295.488 
L 389.857434 295.488 
L 390.03003 295.488 
L 390.202627 295.488 
L 390.375224 295.488 
L 390.547821 295.488 
L 390.720418 295.488 
L 390.893014 295.488 
L 391.065611 295.488 
L 391.238208 295.488 
L 391.410805 295.488 
L 391.583401 295.488 
L 391.755998 295.488 
L 391.928595 295.488 
L 392.101192 295.488 
L 392.273789 295.488 
L 392.446385 295.488 
L 392.618982 295.488 
L 392.791579 295.488 
L 392.964176 295.488 
L 393.136773 295.488 
L 393.309369 295.488 
L 393.481966 295.488 
L 393.654563 295.488 
L 393.82716 295.488 
L 393.999756 295.488 
L 394.172353 295.488 
L 394.34495 295.488 
L 394.517547 295.488 
L 394.690144 295.488 
L 394.86274 295.488 
L 395.035337 295.488 
L 395.207934 295.488 
L 395.380531 295.488 
L 395.553127 295.488 
L 395.725724 295.488 
L 395.898321 295.488 
L 396.070918 295.488 
L 396.243515 295.488 
L 396.416111 295.488 
L 396.588708 295.488 
L 396.761305 295.488 
L 396.933902 295.488 
L 397.106498 295.488 
L 397.279095 295.488 
L 397.451692 295.488 
L 397.624289 295.488 
L 397.796886 295.488 
L 397.969482 295.488 
L 398.142079 295.488 
L 398.314676 295.488 
L 398.487273 295.488 
" style="fill:none;stroke:#ff0000;stroke-linecap:square;stroke-width:1.5;"/>
   </g>
   <g id="patch_3">
    <path d="M 57.6 307.584 
L 57.6 41.472 
" style="fill:none;stroke:#000000;stroke-linecap:square;stroke-linejoin:miter;stroke-width:0.8;"/>
   </g>
   <g id="patch_4">
    <path d="M 414.72 307.584 
L 414.72 41.472 
" style="fill:none;stroke:#000000;stroke-linecap:square;stroke-linejoin:miter;stroke-width:0.8;"/>
   </g>
   <g id="patch_5">
    <path d="M 57.6 307.584 
L 414.72 307.584 
" style="fill:none;stroke:#000000;stroke-linecap:square;stroke-linejoin:miter;stroke-width:0.8;"/>
   </g>
   <g id="patch_6">
    <path d="M 57.6 41.472 
L 414.72 41.472 
" style="fill:none;stroke:#000000;stroke-linecap:square;stroke-linejoin:miter;stroke-width:0.8;"/>
   </g>
  </g>
 </g>
 <defs>
  <clipPath id="p88506dc16f">
   <rect height="266.112" width="357.12" x="57.6" y="41.472"/>
  </clipPath>
 </defs>
</svg>
