<?xml version="1.0" encoding="utf-8" standalone="no"?>
<!DOCTYPE svg PUBLIC "-//W3C//DTD SVG 1.1//EN"
  "http://www.w3.org/Graphics/SVG/1.1/DTD/svg11.dtd">
<!-- Created with matplotlib (https://matplotlib.org/) -->
<svg height="345.6pt" version="1.1" viewBox="0 0 460.8 345.6" width="460.8pt" xmlns="http://www.w3.org/2000/svg" xmlns:xlink="http://www.w3.org/1999/xlink">
 <metadata>
  <rdf:RDF xmlns:cc="http://creativecommons.org/ns#" xmlns:dc="http://purl.org/dc/elements/1.1/" xmlns:rdf="http://www.w3.org/1999/02/22-rdf-syntax-ns#">
   <cc:Work>
    <dc:type rdf:resource="http://purl.org/dc/dcmitype/StillImage"/>
    <dc:date>2022-06-28T10:27:11.429431</dc:date>
    <dc:format>image/svg+xml</dc:format>
    <dc:creator>
     <cc:Agent>
      <dc:title>Matplotlib v3.3.2, https://matplotlib.org/</dc:title>
     </cc:Agent>
    </dc:creator>
   </cc:Work>
  </rdf:RDF>
 </metadata>
 <defs>
  <style type="text/css">*{stroke-linecap:butt;stroke-linejoin:round;}</style>
 </defs>
 <g id="figure_1">
  <g id="patch_1">
   <path d="M 0 345.6 
L 460.8 345.6 
L 460.8 0 
L 0 0 
z
" style="fill:#ffffff;"/>
  </g>
  <g id="axes_1">
   <g id="patch_2">
    <path d="M 57.6 307.584 
L 414.72 307.584 
L 414.72 41.472 
L 57.6 41.472 
z
" style="fill:#ffffff;"/>
   </g>
   <g id="PathCollection_1">
    <defs>
     <path d="M 0 3 
C 0.795609 3 1.55874 2.683901 2.12132 2.12132 
C 2.683901 1.55874 3 0.795609 3 0 
C 3 -0.795609 2.683901 -1.55874 2.12132 -2.12132 
C 1.55874 -2.683901 0.795609 -3 0 -3 
C -0.795609 -3 -1.55874 -2.683901 -2.12132 -2.12132 
C -2.683901 -1.55874 -3 -0.795609 -3 0 
C -3 0.795609 -2.683901 1.55874 -2.12132 2.12132 
C -1.55874 2.683901 -0.795609 3 0 3 
z
" id="m1169808a20" style="stroke:#0000ff;"/>
    </defs>
    <g clip-path="url(#p4a90c05686)">
     <use style="fill:#0000ff;stroke:#0000ff;" x="82.376268" xlink:href="#m1169808a20" y="66.300632"/>
    </g>
   </g>
   <g id="PathCollection_2">
    <g clip-path="url(#p4a90c05686)">
     <use style="fill:#0000ff;stroke:#0000ff;" x="99.463349" xlink:href="#m1169808a20" y="91.765895"/>
    </g>
   </g>
   <g id="PathCollection_3">
    <g clip-path="url(#p4a90c05686)">
     <use style="fill:#0000ff;stroke:#0000ff;" x="116.550431" xlink:href="#m1169808a20" y="117.231158"/>
    </g>
   </g>
   <g id="PathCollection_4">
    <g clip-path="url(#p4a90c05686)">
     <use style="fill:#0000ff;stroke:#0000ff;" x="133.637512" xlink:href="#m1169808a20" y="142.696421"/>
    </g>
   </g>
   <g id="PathCollection_5">
    <g clip-path="url(#p4a90c05686)">
     <use style="fill:#0000ff;stroke:#0000ff;" x="150.724593" xlink:href="#m1169808a20" y="168.161684"/>
    </g>
   </g>
   <g id="PathCollection_6">
    <g clip-path="url(#p4a90c05686)">
     <use style="fill:#0000ff;stroke:#0000ff;" x="167.811675" xlink:href="#m1169808a20" y="193.626947"/>
    </g>
   </g>
   <g id="PathCollection_7">
    <g clip-path="url(#p4a90c05686)">
     <use style="fill:#0000ff;stroke:#0000ff;" x="184.898756" xlink:href="#m1169808a20" y="219.092211"/>
    </g>
   </g>
   <g id="PathCollection_8">
    <g clip-path="url(#p4a90c05686)">
     <use style="fill:#0000ff;stroke:#0000ff;" x="201.985837" xlink:href="#m1169808a20" y="244.557474"/>
    </g>
   </g>
   <g id="PathCollection_9">
    <g clip-path="url(#p4a90c05686)">
     <use style="fill:#0000ff;stroke:#0000ff;" x="219.072919" xlink:href="#m1169808a20" y="270.022737"/>
    </g>
   </g>
   <g id="PathCollection_10">
    <g clip-path="url(#p4a90c05686)">
     <use style="fill:#0000ff;stroke:#0000ff;" x="231.88823" xlink:href="#m1169808a20" y="289.121684"/>
    </g>
   </g>
   <g id="PathCollection_11">
    <defs>
     <path d="M 0 3 
C 0.795609 3 1.55874 2.683901 2.12132 2.12132 
C 2.683901 1.55874 3 0.795609 3 0 
C 3 -0.795609 2.683901 -1.55874 2.12132 -2.12132 
C 1.55874 -2.683901 0.795609 -3 0 -3 
C -0.795609 -3 -1.55874 -2.683901 -2.12132 -2.12132 
C -2.683901 -1.55874 -3 -0.795609 -3 0 
C -3 0.795609 -2.683901 1.55874 -2.12132 2.12132 
C -1.55874 2.683901 -0.795609 3 0 3 
z
" id="m19d385e811" style="stroke:#ffa500;"/>
    </defs>
    <g clip-path="url(#p4a90c05686)">
     <use style="fill:#ffa500;stroke:#ffa500;" x="236.16" xlink:href="#m19d385e811" y="230.233263"/>
    </g>
   </g>
   <g id="PathCollection_12">
    <defs>
     <path d="M 0 3 
C 0.795609 3 1.55874 2.683901 2.12132 2.12132 
C 2.683901 1.55874 3 0.795609 3 0 
C 3 -0.795609 2.683901 -1.55874 2.12132 -2.12132 
C 1.55874 -2.683901 0.795609 -3 0 -3 
C -0.795609 -3 -1.55874 -2.683901 -2.12132 -2.12132 
C -2.683901 -1.55874 -3 -0.795609 -3 0 
C -3 0.795609 -2.683901 1.55874 -2.12132 2.12132 
C -1.55874 2.683901 -0.795609 3 0 3 
z
" id="m187d503c35" style="stroke:#ff0000;"/>
    </defs>
    <g clip-path="url(#p4a90c05686)">
     <use style="fill:#ff0000;stroke:#ff0000;" x="240.43177" xlink:href="#m187d503c35" y="171.344842"/>
    </g>
   </g>
   <g id="PathCollection_13">
    <g clip-path="url(#p4a90c05686)">
     <use style="fill:#ff0000;stroke:#ff0000;" x="253.247081" xlink:href="#m187d503c35" y="161.795368"/>
    </g>
   </g>
   <g id="PathCollection_14">
    <g clip-path="url(#p4a90c05686)">
     <use style="fill:#ff0000;stroke:#ff0000;" x="270.334163" xlink:href="#m187d503c35" y="149.062737"/>
    </g>
   </g>
   <g id="PathCollection_15">
    <g clip-path="url(#p4a90c05686)">
     <use style="fill:#ff0000;stroke:#ff0000;" x="287.421244" xlink:href="#m187d503c35" y="136.330105"/>
    </g>
   </g>
   <g id="PathCollection_16">
    <g clip-path="url(#p4a90c05686)">
     <use style="fill:#ff0000;stroke:#ff0000;" x="304.508325" xlink:href="#m187d503c35" y="123.597474"/>
    </g>
   </g>
   <g id="PathCollection_17">
    <g clip-path="url(#p4a90c05686)">
     <use style="fill:#ff0000;stroke:#ff0000;" x="321.595407" xlink:href="#m187d503c35" y="110.864842"/>
    </g>
   </g>
   <g id="PathCollection_18">
    <g clip-path="url(#p4a90c05686)">
     <use style="fill:#ff0000;stroke:#ff0000;" x="338.682488" xlink:href="#m187d503c35" y="98.132211"/>
    </g>
   </g>
   <g id="PathCollection_19">
    <g clip-path="url(#p4a90c05686)">
     <use style="fill:#ff0000;stroke:#ff0000;" x="355.769569" xlink:href="#m187d503c35" y="85.399579"/>
    </g>
   </g>
   <g id="PathCollection_20">
    <g clip-path="url(#p4a90c05686)">
     <use style="fill:#ff0000;stroke:#ff0000;" x="372.856651" xlink:href="#m187d503c35" y="72.666947"/>
    </g>
   </g>
   <g id="PathCollection_21">
    <g clip-path="url(#p4a90c05686)">
     <use style="fill:#ff0000;stroke:#ff0000;" x="389.943732" xlink:href="#m187d503c35" y="59.934316"/>
    </g>
   </g>
   <g id="PathCollection_22">
    <g clip-path="url(#p4a90c05686)">
     <use style="fill:#0000ff;stroke:#0000ff;" x="82.376268" xlink:href="#m1169808a20" y="66.300632"/>
    </g>
   </g>
   <g id="PathCollection_23">
    <g clip-path="url(#p4a90c05686)">
     <use style="fill:#0000ff;stroke:#0000ff;" x="99.463349" xlink:href="#m1169808a20" y="91.765895"/>
    </g>
   </g>
   <g id="PathCollection_24">
    <g clip-path="url(#p4a90c05686)">
     <use style="fill:#0000ff;stroke:#0000ff;" x="116.550431" xlink:href="#m1169808a20" y="117.231158"/>
    </g>
   </g>
   <g id="PathCollection_25">
    <g clip-path="url(#p4a90c05686)">
     <use style="fill:#0000ff;stroke:#0000ff;" x="133.637512" xlink:href="#m1169808a20" y="142.696421"/>
    </g>
   </g>
   <g id="PathCollection_26">
    <g clip-path="url(#p4a90c05686)">
     <use style="fill:#0000ff;stroke:#0000ff;" x="150.724593" xlink:href="#m1169808a20" y="168.161684"/>
    </g>
   </g>
   <g id="PathCollection_27">
    <g clip-path="url(#p4a90c05686)">
     <use style="fill:#0000ff;stroke:#0000ff;" x="167.811675" xlink:href="#m1169808a20" y="193.626947"/>
    </g>
   </g>
   <g id="PathCollection_28">
    <g clip-path="url(#p4a90c05686)">
     <use style="fill:#0000ff;stroke:#0000ff;" x="184.898756" xlink:href="#m1169808a20" y="219.092211"/>
    </g>
   </g>
   <g id="PathCollection_29">
    <g clip-path="url(#p4a90c05686)">
     <use style="fill:#0000ff;stroke:#0000ff;" x="201.985837" xlink:href="#m1169808a20" y="244.557474"/>
    </g>
   </g>
   <g id="PathCollection_30">
    <g clip-path="url(#p4a90c05686)">
     <use style="fill:#0000ff;stroke:#0000ff;" x="219.072919" xlink:href="#m1169808a20" y="270.022737"/>
    </g>
   </g>
   <g id="PathCollection_31">
    <g clip-path="url(#p4a90c05686)">
     <use style="fill:#0000ff;stroke:#0000ff;" x="231.88823" xlink:href="#m1169808a20" y="289.121684"/>
    </g>
   </g>
   <g id="PathCollection_32">
    <g clip-path="url(#p4a90c05686)">
     <use style="fill:#ffa500;stroke:#ffa500;" x="236.16" xlink:href="#m19d385e811" y="230.233263"/>
    </g>
   </g>
   <g id="PathCollection_33">
    <g clip-path="url(#p4a90c05686)">
     <use style="fill:#ff0000;stroke:#ff0000;" x="240.43177" xlink:href="#m187d503c35" y="171.344842"/>
    </g>
   </g>
   <g id="PathCollection_34">
    <g clip-path="url(#p4a90c05686)">
     <use style="fill:#ff0000;stroke:#ff0000;" x="253.247081" xlink:href="#m187d503c35" y="161.795368"/>
    </g>
   </g>
   <g id="PathCollection_35">
    <g clip-path="url(#p4a90c05686)">
     <use style="fill:#ff0000;stroke:#ff0000;" x="270.334163" xlink:href="#m187d503c35" y="149.062737"/>
    </g>
   </g>
   <g id="PathCollection_36">
    <g clip-path="url(#p4a90c05686)">
     <use style="fill:#ff0000;stroke:#ff0000;" x="287.421244" xlink:href="#m187d503c35" y="136.330105"/>
    </g>
   </g>
   <g id="PathCollection_37">
    <g clip-path="url(#p4a90c05686)">
     <use style="fill:#ff0000;stroke:#ff0000;" x="304.508325" xlink:href="#m187d503c35" y="123.597474"/>
    </g>
   </g>
   <g id="PathCollection_38">
    <g clip-path="url(#p4a90c05686)">
     <use style="fill:#ff0000;stroke:#ff0000;" x="321.595407" xlink:href="#m187d503c35" y="110.864842"/>
    </g>
   </g>
   <g id="PathCollection_39">
    <g clip-path="url(#p4a90c05686)">
     <use style="fill:#ff0000;stroke:#ff0000;" x="338.682488" xlink:href="#m187d503c35" y="98.132211"/>
    </g>
   </g>
   <g id="PathCollection_40">
    <g clip-path="url(#p4a90c05686)">
     <use style="fill:#ff0000;stroke:#ff0000;" x="355.769569" xlink:href="#m187d503c35" y="85.399579"/>
    </g>
   </g>
   <g id="PathCollection_41">
    <g clip-path="url(#p4a90c05686)">
     <use style="fill:#ff0000;stroke:#ff0000;" x="372.856651" xlink:href="#m187d503c35" y="72.666947"/>
    </g>
   </g>
   <g id="PathCollection_42">
    <g clip-path="url(#p4a90c05686)">
     <use style="fill:#ff0000;stroke:#ff0000;" x="389.943732" xlink:href="#m187d503c35" y="59.934316"/>
    </g>
   </g>
   <g id="matplotlib.axis_1">
    <g id="xtick_1">
     <g id="line2d_1">
      <defs>
       <path d="M 0 0 
L 0 3.5 
" id="mb1680e26f3" style="stroke:#000000;stroke-width:0.8;"/>
      </defs>
      <g>
       <use style="stroke:#000000;stroke-width:0.8;" x="73.832727" xlink:href="#mb1680e26f3" y="307.584"/>
      </g>
     </g>
     <g id="text_1">
      <!-- −1.00 -->
      <g transform="translate(58.510071 322.182437)scale(0.1 -0.1)">
       <defs>
        <path d="M 10.59375 35.5 
L 73.1875 35.5 
L 73.1875 27.203125 
L 10.59375 27.203125 
z
" id="DejaVuSans-8722"/>
        <path d="M 12.40625 8.296875 
L 28.515625 8.296875 
L 28.515625 63.921875 
L 10.984375 60.40625 
L 10.984375 69.390625 
L 28.421875 72.90625 
L 38.28125 72.90625 
L 38.28125 8.296875 
L 54.390625 8.296875 
L 54.390625 0 
L 12.40625 0 
z
" id="DejaVuSans-49"/>
        <path d="M 10.6875 12.40625 
L 21 12.40625 
L 21 0 
L 10.6875 0 
z
" id="DejaVuSans-46"/>
        <path d="M 31.78125 66.40625 
Q 24.171875 66.40625 20.328125 58.90625 
Q 16.5 51.421875 16.5 36.375 
Q 16.5 21.390625 20.328125 13.890625 
Q 24.171875 6.390625 31.78125 6.390625 
Q 39.453125 6.390625 43.28125 13.890625 
Q 47.125 21.390625 47.125 36.375 
Q 47.125 51.421875 43.28125 58.90625 
Q 39.453125 66.40625 31.78125 66.40625 
z
M 31.78125 74.21875 
Q 44.046875 74.21875 50.515625 64.515625 
Q 56.984375 54.828125 56.984375 36.375 
Q 56.984375 17.96875 50.515625 8.265625 
Q 44.046875 -1.421875 31.78125 -1.421875 
Q 19.53125 -1.421875 13.0625 8.265625 
Q 6.59375 17.96875 6.59375 36.375 
Q 6.59375 54.828125 13.0625 64.515625 
Q 19.53125 74.21875 31.78125 74.21875 
z
" id="DejaVuSans-48"/>
       </defs>
       <use xlink:href="#DejaVuSans-8722"/>
       <use x="83.789062" xlink:href="#DejaVuSans-49"/>
       <use x="147.412109" xlink:href="#DejaVuSans-46"/>
       <use x="179.199219" xlink:href="#DejaVuSans-48"/>
       <use x="242.822266" xlink:href="#DejaVuSans-48"/>
      </g>
     </g>
    </g>
    <g id="xtick_2">
     <g id="line2d_2">
      <g>
       <use style="stroke:#000000;stroke-width:0.8;" x="114.414545" xlink:href="#mb1680e26f3" y="307.584"/>
      </g>
     </g>
     <g id="text_2">
      <!-- −0.75 -->
      <g transform="translate(99.091889 322.182437)scale(0.1 -0.1)">
       <defs>
        <path d="M 8.203125 72.90625 
L 55.078125 72.90625 
L 55.078125 68.703125 
L 28.609375 0 
L 18.3125 0 
L 43.21875 64.59375 
L 8.203125 64.59375 
z
" id="DejaVuSans-55"/>
        <path d="M 10.796875 72.90625 
L 49.515625 72.90625 
L 49.515625 64.59375 
L 19.828125 64.59375 
L 19.828125 46.734375 
Q 21.96875 47.46875 24.109375 47.828125 
Q 26.265625 48.1875 28.421875 48.1875 
Q 40.625 48.1875 47.75 41.5 
Q 54.890625 34.8125 54.890625 23.390625 
Q 54.890625 11.625 47.5625 5.09375 
Q 40.234375 -1.421875 26.90625 -1.421875 
Q 22.3125 -1.421875 17.546875 -0.640625 
Q 12.796875 0.140625 7.71875 1.703125 
L 7.71875 11.625 
Q 12.109375 9.234375 16.796875 8.0625 
Q 21.484375 6.890625 26.703125 6.890625 
Q 35.15625 6.890625 40.078125 11.328125 
Q 45.015625 15.765625 45.015625 23.390625 
Q 45.015625 31 40.078125 35.4375 
Q 35.15625 39.890625 26.703125 39.890625 
Q 22.75 39.890625 18.8125 39.015625 
Q 14.890625 38.140625 10.796875 36.28125 
z
" id="DejaVuSans-53"/>
       </defs>
       <use xlink:href="#DejaVuSans-8722"/>
       <use x="83.789062" xlink:href="#DejaVuSans-48"/>
       <use x="147.412109" xlink:href="#DejaVuSans-46"/>
       <use x="179.199219" xlink:href="#DejaVuSans-55"/>
       <use x="242.822266" xlink:href="#DejaVuSans-53"/>
      </g>
     </g>
    </g>
    <g id="xtick_3">
     <g id="line2d_3">
      <g>
       <use style="stroke:#000000;stroke-width:0.8;" x="154.996364" xlink:href="#mb1680e26f3" y="307.584"/>
      </g>
     </g>
     <g id="text_3">
      <!-- −0.50 -->
      <g transform="translate(139.673707 322.182437)scale(0.1 -0.1)">
       <use xlink:href="#DejaVuSans-8722"/>
       <use x="83.789062" xlink:href="#DejaVuSans-48"/>
       <use x="147.412109" xlink:href="#DejaVuSans-46"/>
       <use x="179.199219" xlink:href="#DejaVuSans-53"/>
       <use x="242.822266" xlink:href="#DejaVuSans-48"/>
      </g>
     </g>
    </g>
    <g id="xtick_4">
     <g id="line2d_4">
      <g>
       <use style="stroke:#000000;stroke-width:0.8;" x="195.578182" xlink:href="#mb1680e26f3" y="307.584"/>
      </g>
     </g>
     <g id="text_4">
      <!-- −0.25 -->
      <g transform="translate(180.255526 322.182437)scale(0.1 -0.1)">
       <defs>
        <path d="M 19.1875 8.296875 
L 53.609375 8.296875 
L 53.609375 0 
L 7.328125 0 
L 7.328125 8.296875 
Q 12.9375 14.109375 22.625 23.890625 
Q 32.328125 33.6875 34.8125 36.53125 
Q 39.546875 41.84375 41.421875 45.53125 
Q 43.3125 49.21875 43.3125 52.78125 
Q 43.3125 58.59375 39.234375 62.25 
Q 35.15625 65.921875 28.609375 65.921875 
Q 23.96875 65.921875 18.8125 64.3125 
Q 13.671875 62.703125 7.8125 59.421875 
L 7.8125 69.390625 
Q 13.765625 71.78125 18.9375 73 
Q 24.125 74.21875 28.421875 74.21875 
Q 39.75 74.21875 46.484375 68.546875 
Q 53.21875 62.890625 53.21875 53.421875 
Q 53.21875 48.921875 51.53125 44.890625 
Q 49.859375 40.875 45.40625 35.40625 
Q 44.1875 33.984375 37.640625 27.21875 
Q 31.109375 20.453125 19.1875 8.296875 
z
" id="DejaVuSans-50"/>
       </defs>
       <use xlink:href="#DejaVuSans-8722"/>
       <use x="83.789062" xlink:href="#DejaVuSans-48"/>
       <use x="147.412109" xlink:href="#DejaVuSans-46"/>
       <use x="179.199219" xlink:href="#DejaVuSans-50"/>
       <use x="242.822266" xlink:href="#DejaVuSans-53"/>
      </g>
     </g>
    </g>
    <g id="xtick_5">
     <g id="line2d_5">
      <g>
       <use style="stroke:#000000;stroke-width:0.8;" x="236.16" xlink:href="#mb1680e26f3" y="307.584"/>
      </g>
     </g>
     <g id="text_5">
      <!-- 0.00 -->
      <g transform="translate(225.027187 322.182437)scale(0.1 -0.1)">
       <use xlink:href="#DejaVuSans-48"/>
       <use x="63.623047" xlink:href="#DejaVuSans-46"/>
       <use x="95.410156" xlink:href="#DejaVuSans-48"/>
       <use x="159.033203" xlink:href="#DejaVuSans-48"/>
      </g>
     </g>
    </g>
    <g id="xtick_6">
     <g id="line2d_6">
      <g>
       <use style="stroke:#000000;stroke-width:0.8;" x="276.741818" xlink:href="#mb1680e26f3" y="307.584"/>
      </g>
     </g>
     <g id="text_6">
      <!-- 0.25 -->
      <g transform="translate(265.609006 322.182437)scale(0.1 -0.1)">
       <use xlink:href="#DejaVuSans-48"/>
       <use x="63.623047" xlink:href="#DejaVuSans-46"/>
       <use x="95.410156" xlink:href="#DejaVuSans-50"/>
       <use x="159.033203" xlink:href="#DejaVuSans-53"/>
      </g>
     </g>
    </g>
    <g id="xtick_7">
     <g id="line2d_7">
      <g>
       <use style="stroke:#000000;stroke-width:0.8;" x="317.323636" xlink:href="#mb1680e26f3" y="307.584"/>
      </g>
     </g>
     <g id="text_7">
      <!-- 0.50 -->
      <g transform="translate(306.190824 322.182437)scale(0.1 -0.1)">
       <use xlink:href="#DejaVuSans-48"/>
       <use x="63.623047" xlink:href="#DejaVuSans-46"/>
       <use x="95.410156" xlink:href="#DejaVuSans-53"/>
       <use x="159.033203" xlink:href="#DejaVuSans-48"/>
      </g>
     </g>
    </g>
    <g id="xtick_8">
     <g id="line2d_8">
      <g>
       <use style="stroke:#000000;stroke-width:0.8;" x="357.905455" xlink:href="#mb1680e26f3" y="307.584"/>
      </g>
     </g>
     <g id="text_8">
      <!-- 0.75 -->
      <g transform="translate(346.772642 322.182437)scale(0.1 -0.1)">
       <use xlink:href="#DejaVuSans-48"/>
       <use x="63.623047" xlink:href="#DejaVuSans-46"/>
       <use x="95.410156" xlink:href="#DejaVuSans-55"/>
       <use x="159.033203" xlink:href="#DejaVuSans-53"/>
      </g>
     </g>
    </g>
    <g id="xtick_9">
     <g id="line2d_9">
      <g>
       <use style="stroke:#000000;stroke-width:0.8;" x="398.487273" xlink:href="#mb1680e26f3" y="307.584"/>
      </g>
     </g>
     <g id="text_9">
      <!-- 1.00 -->
      <g transform="translate(387.35446 322.182437)scale(0.1 -0.1)">
       <use xlink:href="#DejaVuSans-49"/>
       <use x="63.623047" xlink:href="#DejaVuSans-46"/>
       <use x="95.410156" xlink:href="#DejaVuSans-48"/>
       <use x="159.033203" xlink:href="#DejaVuSans-48"/>
      </g>
     </g>
    </g>
   </g>
   <g id="matplotlib.axis_2">
    <g id="ytick_1">
     <g id="line2d_10">
      <defs>
       <path d="M 0 0 
L -3.5 0 
" id="mfc27724879" style="stroke:#000000;stroke-width:0.8;"/>
      </defs>
      <g>
       <use style="stroke:#000000;stroke-width:0.8;" x="57.6" xlink:href="#mfc27724879" y="295.488"/>
      </g>
     </g>
     <g id="text_10">
      <!-- 1.00 -->
      <g transform="translate(28.334375 299.287219)scale(0.1 -0.1)">
       <use xlink:href="#DejaVuSans-49"/>
       <use x="63.623047" xlink:href="#DejaVuSans-46"/>
       <use x="95.410156" xlink:href="#DejaVuSans-48"/>
       <use x="159.033203" xlink:href="#DejaVuSans-48"/>
      </g>
     </g>
    </g>
    <g id="ytick_2">
     <g id="line2d_11">
      <g>
       <use style="stroke:#000000;stroke-width:0.8;" x="57.6" xlink:href="#mfc27724879" y="265.248"/>
      </g>
     </g>
     <g id="text_11">
      <!-- 1.25 -->
      <g transform="translate(28.334375 269.047219)scale(0.1 -0.1)">
       <use xlink:href="#DejaVuSans-49"/>
       <use x="63.623047" xlink:href="#DejaVuSans-46"/>
       <use x="95.410156" xlink:href="#DejaVuSans-50"/>
       <use x="159.033203" xlink:href="#DejaVuSans-53"/>
      </g>
     </g>
    </g>
    <g id="ytick_3">
     <g id="line2d_12">
      <g>
       <use style="stroke:#000000;stroke-width:0.8;" x="57.6" xlink:href="#mfc27724879" y="235.008"/>
      </g>
     </g>
     <g id="text_12">
      <!-- 1.50 -->
      <g transform="translate(28.334375 238.807219)scale(0.1 -0.1)">
       <use xlink:href="#DejaVuSans-49"/>
       <use x="63.623047" xlink:href="#DejaVuSans-46"/>
       <use x="95.410156" xlink:href="#DejaVuSans-53"/>
       <use x="159.033203" xlink:href="#DejaVuSans-48"/>
      </g>
     </g>
    </g>
    <g id="ytick_4">
     <g id="line2d_13">
      <g>
       <use style="stroke:#000000;stroke-width:0.8;" x="57.6" xlink:href="#mfc27724879" y="204.768"/>
      </g>
     </g>
     <g id="text_13">
      <!-- 1.75 -->
      <g transform="translate(28.334375 208.567219)scale(0.1 -0.1)">
       <use xlink:href="#DejaVuSans-49"/>
       <use x="63.623047" xlink:href="#DejaVuSans-46"/>
       <use x="95.410156" xlink:href="#DejaVuSans-55"/>
       <use x="159.033203" xlink:href="#DejaVuSans-53"/>
      </g>
     </g>
    </g>
    <g id="ytick_5">
     <g id="line2d_14">
      <g>
       <use style="stroke:#000000;stroke-width:0.8;" x="57.6" xlink:href="#mfc27724879" y="174.528"/>
      </g>
     </g>
     <g id="text_14">
      <!-- 2.00 -->
      <g transform="translate(28.334375 178.327219)scale(0.1 -0.1)">
       <use xlink:href="#DejaVuSans-50"/>
       <use x="63.623047" xlink:href="#DejaVuSans-46"/>
       <use x="95.410156" xlink:href="#DejaVuSans-48"/>
       <use x="159.033203" xlink:href="#DejaVuSans-48"/>
      </g>
     </g>
    </g>
    <g id="ytick_6">
     <g id="line2d_15">
      <g>
       <use style="stroke:#000000;stroke-width:0.8;" x="57.6" xlink:href="#mfc27724879" y="144.288"/>
      </g>
     </g>
     <g id="text_15">
      <!-- 2.25 -->
      <g transform="translate(28.334375 148.087219)scale(0.1 -0.1)">
       <use xlink:href="#DejaVuSans-50"/>
       <use x="63.623047" xlink:href="#DejaVuSans-46"/>
       <use x="95.410156" xlink:href="#DejaVuSans-50"/>
       <use x="159.033203" xlink:href="#DejaVuSans-53"/>
      </g>
     </g>
    </g>
    <g id="ytick_7">
     <g id="line2d_16">
      <g>
       <use style="stroke:#000000;stroke-width:0.8;" x="57.6" xlink:href="#mfc27724879" y="114.048"/>
      </g>
     </g>
     <g id="text_16">
      <!-- 2.50 -->
      <g transform="translate(28.334375 117.847219)scale(0.1 -0.1)">
       <use xlink:href="#DejaVuSans-50"/>
       <use x="63.623047" xlink:href="#DejaVuSans-46"/>
       <use x="95.410156" xlink:href="#DejaVuSans-53"/>
       <use x="159.033203" xlink:href="#DejaVuSans-48"/>
      </g>
     </g>
    </g>
    <g id="ytick_8">
     <g id="line2d_17">
      <g>
       <use style="stroke:#000000;stroke-width:0.8;" x="57.6" xlink:href="#mfc27724879" y="83.808"/>
      </g>
     </g>
     <g id="text_17">
      <!-- 2.75 -->
      <g transform="translate(28.334375 87.607219)scale(0.1 -0.1)">
       <use xlink:href="#DejaVuSans-50"/>
       <use x="63.623047" xlink:href="#DejaVuSans-46"/>
       <use x="95.410156" xlink:href="#DejaVuSans-55"/>
       <use x="159.033203" xlink:href="#DejaVuSans-53"/>
      </g>
     </g>
    </g>
    <g id="ytick_9">
     <g id="line2d_18">
      <g>
       <use style="stroke:#000000;stroke-width:0.8;" x="57.6" xlink:href="#mfc27724879" y="53.568"/>
      </g>
     </g>
     <g id="text_18">
      <!-- 3.00 -->
      <g transform="translate(28.334375 57.367219)scale(0.1 -0.1)">
       <defs>
        <path d="M 40.578125 39.3125 
Q 47.65625 37.796875 51.625 33 
Q 55.609375 28.21875 55.609375 21.1875 
Q 55.609375 10.40625 48.1875 4.484375 
Q 40.765625 -1.421875 27.09375 -1.421875 
Q 22.515625 -1.421875 17.65625 -0.515625 
Q 12.796875 0.390625 7.625 2.203125 
L 7.625 11.71875 
Q 11.71875 9.328125 16.59375 8.109375 
Q 21.484375 6.890625 26.8125 6.890625 
Q 36.078125 6.890625 40.9375 10.546875 
Q 45.796875 14.203125 45.796875 21.1875 
Q 45.796875 27.640625 41.28125 31.265625 
Q 36.765625 34.90625 28.71875 34.90625 
L 20.21875 34.90625 
L 20.21875 43.015625 
L 29.109375 43.015625 
Q 36.375 43.015625 40.234375 45.921875 
Q 44.09375 48.828125 44.09375 54.296875 
Q 44.09375 59.90625 40.109375 62.90625 
Q 36.140625 65.921875 28.71875 65.921875 
Q 24.65625 65.921875 20.015625 65.03125 
Q 15.375 64.15625 9.8125 62.3125 
L 9.8125 71.09375 
Q 15.4375 72.65625 20.34375 73.4375 
Q 25.25 74.21875 29.59375 74.21875 
Q 40.828125 74.21875 47.359375 69.109375 
Q 53.90625 64.015625 53.90625 55.328125 
Q 53.90625 49.265625 50.4375 45.09375 
Q 46.96875 40.921875 40.578125 39.3125 
z
" id="DejaVuSans-51"/>
       </defs>
       <use xlink:href="#DejaVuSans-51"/>
       <use x="63.623047" xlink:href="#DejaVuSans-46"/>
       <use x="95.410156" xlink:href="#DejaVuSans-48"/>
       <use x="159.033203" xlink:href="#DejaVuSans-48"/>
      </g>
     </g>
    </g>
   </g>
   <g id="line2d_19">
    <path clip-path="url(#p4a90c05686)" d="M 73.832727 53.568 
L 236.078796 295.36698 
L 236.241204 174.46749 
L 398.487273 53.568 
L 398.487273 53.568 
" style="fill:none;stroke:#ff00ff;stroke-linecap:square;stroke-width:1.5;"/>
   </g>
   <g id="line2d_20">
    <path clip-path="url(#p4a90c05686)" d="M 73.832727 53.568 
L 74.005324 53.825225 
L 74.177921 54.08245 
L 74.350518 54.339675 
L 74.523114 54.5969 
L 74.695711 54.854124 
L 74.868308 55.111349 
L 75.040905 55.368574 
L 75.213502 55.625799 
L 75.386098 55.883024 
L 75.558695 56.140249 
L 75.731292 56.397474 
L 75.903889 56.654699 
L 76.076485 56.911923 
L 76.249082 57.169148 
L 76.421679 57.426373 
L 76.594276 57.683598 
L 76.766873 57.940823 
L 76.939469 58.198048 
L 77.112066 58.455273 
L 77.284663 58.712498 
L 77.45726 58.969723 
L 77.629856 59.226947 
L 77.802453 59.484172 
L 77.97505 59.741397 
L 78.147647 59.998622 
L 78.320244 60.255847 
L 78.49284 60.513072 
L 78.665437 60.770297 
L 78.838034 61.027522 
L 79.010631 61.284746 
L 79.183227 61.541971 
L 79.355824 61.799196 
L 79.528421 62.056421 
L 79.701018 62.313646 
L 79.873615 62.570871 
L 80.046211 62.828096 
L 80.218808 63.085321 
L 80.391405 63.342545 
L 80.564002 63.59977 
L 80.736599 63.856995 
L 80.909195 64.11422 
L 81.081792 64.371445 
L 81.254389 64.62867 
L 81.426986 64.885895 
L 81.599582 65.14312 
L 81.772179 65.400345 
L 81.944776 65.657569 
L 82.117373 65.914794 
L 82.28997 66.172019 
L 82.462566 66.429244 
L 82.635163 66.686469 
L 82.80776 66.943694 
L 82.980357 67.200919 
L 83.152953 67.458144 
L 83.32555 67.715368 
L 83.498147 67.972593 
L 83.670744 68.229818 
L 83.843341 68.487043 
L 84.015937 68.744268 
L 84.188534 69.001493 
L 84.361131 69.258718 
L 84.533728 69.515943 
L 84.706324 69.773167 
L 84.878921 70.030392 
L 85.051518 70.287617 
L 85.224115 70.544842 
L 85.396712 70.802067 
L 85.569308 71.059292 
L 85.741905 71.316517 
L 85.914502 71.573742 
L 86.087099 71.830966 
L 86.259696 72.088191 
L 86.432292 72.345416 
L 86.604889 72.602641 
L 86.777486 72.859866 
L 86.950083 73.117091 
L 87.122679 73.374316 
L 87.295276 73.631541 
L 87.467873 73.888766 
L 87.64047 74.14599 
L 87.813067 74.403215 
L 87.985663 74.66044 
L 88.15826 74.917665 
L 88.330857 75.17489 
L 88.503454 75.432115 
L 88.67605 75.68934 
L 88.848647 75.946565 
L 89.021244 76.203789 
L 89.193841 76.461014 
L 89.366438 76.718239 
L 89.539034 76.975464 
L 89.711631 77.232689 
L 89.884228 77.489914 
L 90.056825 77.747139 
L 90.229421 78.004364 
L 90.402018 78.261588 
L 90.574615 78.518813 
L 90.747212 78.776038 
L 90.919809 79.033263 
" style="fill:none;stroke:#0000ff;stroke-linecap:square;stroke-width:1.5;"/>
   </g>
   <g id="line2d_21">
    <path clip-path="url(#p4a90c05686)" d="M 90.919809 79.033263 
L 91.092405 79.290488 
L 91.265002 79.547713 
L 91.437599 79.804938 
L 91.610196 80.062163 
L 91.782793 80.319388 
L 91.955389 80.576612 
L 92.127986 80.833837 
L 92.300583 81.091062 
L 92.47318 81.348287 
L 92.645776 81.605512 
L 92.818373 81.862737 
L 92.99097 82.119962 
L 93.163567 82.377187 
L 93.336164 82.634412 
L 93.50876 82.891636 
L 93.681357 83.148861 
L 93.853954 83.406086 
L 94.026551 83.663311 
L 94.199147 83.920536 
L 94.371744 84.177761 
L 94.544341 84.434986 
L 94.716938 84.692211 
L 94.889535 84.949435 
L 95.062131 85.20666 
L 95.234728 85.463885 
L 95.407325 85.72111 
L 95.579922 85.978335 
L 95.752518 86.23556 
L 95.925115 86.492785 
L 96.097712 86.75001 
L 96.270309 87.007234 
L 96.442906 87.264459 
L 96.615502 87.521684 
L 96.788099 87.778909 
L 96.960696 88.036134 
L 97.133293 88.293359 
L 97.30589 88.550584 
L 97.478486 88.807809 
L 97.651083 89.065034 
L 97.82368 89.322258 
L 97.996277 89.579483 
L 98.168873 89.836708 
L 98.34147 90.093933 
L 98.514067 90.351158 
L 98.686664 90.608383 
L 98.859261 90.865608 
L 99.031857 91.122833 
L 99.204454 91.380057 
L 99.377051 91.637282 
L 99.549648 91.894507 
L 99.722244 92.151732 
L 99.894841 92.408957 
L 100.067438 92.666182 
L 100.240035 92.923407 
L 100.412632 93.180632 
L 100.585228 93.437856 
L 100.757825 93.695081 
L 100.930422 93.952306 
L 101.103019 94.209531 
L 101.275615 94.466756 
L 101.448212 94.723981 
L 101.620809 94.981206 
L 101.793406 95.238431 
L 101.966003 95.495655 
L 102.138599 95.75288 
L 102.311196 96.010105 
L 102.483793 96.26733 
L 102.65639 96.524555 
L 102.828987 96.78178 
L 103.001583 97.039005 
L 103.17418 97.29623 
L 103.346777 97.553455 
L 103.519374 97.810679 
L 103.69197 98.067904 
L 103.864567 98.325129 
L 104.037164 98.582354 
L 104.209761 98.839579 
L 104.382358 99.096804 
L 104.554954 99.354029 
L 104.727551 99.611254 
L 104.900148 99.868478 
L 105.072745 100.125703 
L 105.245341 100.382928 
L 105.417938 100.640153 
L 105.590535 100.897378 
L 105.763132 101.154603 
L 105.935729 101.411828 
L 106.108325 101.669053 
L 106.280922 101.926277 
L 106.453519 102.183502 
L 106.626116 102.440727 
L 106.798712 102.697952 
L 106.971309 102.955177 
L 107.143906 103.212402 
L 107.316503 103.469627 
L 107.4891 103.726852 
L 107.661696 103.984077 
L 107.834293 104.241301 
L 108.00689 104.498526 
" style="fill:none;stroke:#0000ff;stroke-linecap:square;stroke-width:1.5;"/>
   </g>
   <g id="line2d_22">
    <path clip-path="url(#p4a90c05686)" d="M 108.00689 104.498526 
L 108.179487 104.755751 
L 108.352084 105.012976 
L 108.52468 105.270201 
L 108.697277 105.527426 
L 108.869874 105.784651 
L 109.042471 106.041876 
L 109.215067 106.299101 
L 109.387664 106.556325 
L 109.560261 106.81355 
L 109.732858 107.070775 
L 109.905455 107.328 
L 110.078051 107.585225 
L 110.250648 107.84245 
L 110.423245 108.099675 
L 110.595842 108.3569 
L 110.768438 108.614124 
L 110.941035 108.871349 
L 111.113632 109.128574 
L 111.286229 109.385799 
L 111.458826 109.643024 
L 111.631422 109.900249 
L 111.804019 110.157474 
L 111.976616 110.414699 
L 112.149213 110.671923 
L 112.321809 110.929148 
L 112.494406 111.186373 
L 112.667003 111.443598 
L 112.8396 111.700823 
L 113.012197 111.958048 
L 113.184793 112.215273 
L 113.35739 112.472498 
L 113.529987 112.729723 
L 113.702584 112.986947 
L 113.875181 113.244172 
L 114.047777 113.501397 
L 114.220374 113.758622 
L 114.392971 114.015847 
L 114.565568 114.273072 
L 114.738164 114.530297 
L 114.910761 114.787522 
L 115.083358 115.044746 
L 115.255955 115.301971 
L 115.428552 115.559196 
L 115.601148 115.816421 
L 115.773745 116.073646 
L 115.946342 116.330871 
L 116.118939 116.588096 
L 116.291535 116.845321 
L 116.464132 117.102545 
L 116.636729 117.35977 
L 116.809326 117.616995 
L 116.981923 117.87422 
L 117.154519 118.131445 
L 117.327116 118.38867 
L 117.499713 118.645895 
L 117.67231 118.90312 
L 117.844906 119.160345 
L 118.017503 119.417569 
L 118.1901 119.674794 
L 118.362697 119.932019 
L 118.535294 120.189244 
L 118.70789 120.446469 
L 118.880487 120.703694 
L 119.053084 120.960919 
L 119.225681 121.218144 
L 119.398278 121.475368 
L 119.570874 121.732593 
L 119.743471 121.989818 
L 119.916068 122.247043 
L 120.088665 122.504268 
L 120.261261 122.761493 
L 120.433858 123.018718 
L 120.606455 123.275943 
L 120.779052 123.533167 
L 120.951649 123.790392 
L 121.124245 124.047617 
L 121.296842 124.304842 
L 121.469439 124.562067 
L 121.642036 124.819292 
L 121.814632 125.076517 
L 121.987229 125.333742 
L 122.159826 125.590966 
L 122.332423 125.848191 
L 122.50502 126.105416 
L 122.677616 126.362641 
L 122.850213 126.619866 
L 123.02281 126.877091 
L 123.195407 127.134316 
L 123.368003 127.391541 
L 123.5406 127.648766 
L 123.713197 127.90599 
L 123.885794 128.163215 
L 124.058391 128.42044 
L 124.230987 128.677665 
L 124.403584 128.93489 
L 124.576181 129.192115 
L 124.748778 129.44934 
L 124.921374 129.706565 
L 125.093971 129.963789 
" style="fill:none;stroke:#0000ff;stroke-linecap:square;stroke-width:1.5;"/>
   </g>
   <g id="line2d_23">
    <path clip-path="url(#p4a90c05686)" d="M 125.093971 129.96379 
L 125.266568 130.221014 
L 125.439165 130.478239 
L 125.611762 130.735464 
L 125.784358 130.992689 
L 125.956955 131.249914 
L 126.129552 131.507139 
L 126.302149 131.764364 
L 126.474746 132.021589 
L 126.647342 132.278813 
L 126.819939 132.536038 
L 126.992536 132.793263 
L 127.165133 133.050488 
L 127.337729 133.307713 
L 127.510326 133.564938 
L 127.682923 133.822163 
L 127.85552 134.079388 
L 128.028117 134.336612 
L 128.200713 134.593837 
L 128.37331 134.851062 
L 128.545907 135.108287 
L 128.718504 135.365512 
L 128.8911 135.622737 
L 129.063697 135.879962 
L 129.236294 136.137187 
L 129.408891 136.394412 
L 129.581488 136.651636 
L 129.754084 136.908861 
L 129.926681 137.166086 
L 130.099278 137.423311 
L 130.271875 137.680536 
L 130.444472 137.937761 
L 130.617068 138.194986 
L 130.789665 138.452211 
L 130.962262 138.709435 
L 131.134859 138.96666 
L 131.307455 139.223885 
L 131.480052 139.48111 
L 131.652649 139.738335 
L 131.825246 139.99556 
L 131.997843 140.252785 
L 132.170439 140.51001 
L 132.343036 140.767234 
L 132.515633 141.024459 
L 132.68823 141.281684 
L 132.860826 141.538909 
L 133.033423 141.796134 
L 133.20602 142.053359 
L 133.378617 142.310584 
L 133.551214 142.567809 
L 133.72381 142.825034 
L 133.896407 143.082258 
L 134.069004 143.339483 
L 134.241601 143.596708 
L 134.414197 143.853933 
L 134.586794 144.111158 
L 134.759391 144.368383 
L 134.931988 144.625608 
L 135.104585 144.882833 
L 135.277181 145.140057 
L 135.449778 145.397282 
L 135.622375 145.654507 
L 135.794972 145.911732 
L 135.967569 146.168957 
L 136.140165 146.426182 
L 136.312762 146.683407 
L 136.485359 146.940632 
L 136.657956 147.197856 
L 136.830552 147.455081 
L 137.003149 147.712306 
L 137.175746 147.969531 
L 137.348343 148.226756 
L 137.52094 148.483981 
L 137.693536 148.741206 
L 137.866133 148.998431 
L 138.03873 149.255655 
L 138.211327 149.51288 
L 138.383923 149.770105 
L 138.55652 150.02733 
L 138.729117 150.284555 
L 138.901714 150.54178 
L 139.074311 150.799005 
L 139.246907 151.05623 
L 139.419504 151.313455 
L 139.592101 151.570679 
L 139.764698 151.827904 
L 139.937294 152.085129 
L 140.109891 152.342354 
L 140.282488 152.599579 
L 140.455085 152.856804 
L 140.627682 153.114029 
L 140.800278 153.371254 
L 140.972875 153.628478 
L 141.145472 153.885703 
L 141.318069 154.142928 
L 141.490665 154.400153 
L 141.663262 154.657378 
L 141.835859 154.914603 
L 142.008456 155.171828 
L 142.181053 155.429053 
" style="fill:none;stroke:#0000ff;stroke-linecap:square;stroke-width:1.5;"/>
   </g>
   <g id="line2d_24">
    <path clip-path="url(#p4a90c05686)" d="M 142.181053 155.429053 
L 142.353649 155.686278 
L 142.526246 155.943502 
L 142.698843 156.200727 
L 142.87144 156.457952 
L 143.044037 156.715177 
L 143.216633 156.972402 
L 143.38923 157.229627 
L 143.561827 157.486852 
L 143.734424 157.744077 
L 143.90702 158.001301 
L 144.079617 158.258526 
L 144.252214 158.515751 
L 144.424811 158.772976 
L 144.597408 159.030201 
L 144.770004 159.287426 
L 144.942601 159.544651 
L 145.115198 159.801876 
L 145.287795 160.059101 
L 145.460391 160.316325 
L 145.632988 160.57355 
L 145.805585 160.830775 
L 145.978182 161.088 
L 146.150779 161.345225 
L 146.323375 161.60245 
L 146.495972 161.859675 
L 146.668569 162.1169 
L 146.841166 162.374124 
L 147.013763 162.631349 
L 147.186359 162.888574 
L 147.358956 163.145799 
L 147.531553 163.403024 
L 147.70415 163.660249 
L 147.876746 163.917474 
L 148.049343 164.174699 
L 148.22194 164.431923 
L 148.394537 164.689148 
L 148.567134 164.946373 
L 148.73973 165.203598 
L 148.912327 165.460823 
L 149.084924 165.718048 
L 149.257521 165.975273 
L 149.430117 166.232498 
L 149.602714 166.489723 
L 149.775311 166.746947 
L 149.947908 167.004172 
L 150.120505 167.261397 
L 150.293101 167.518622 
L 150.465698 167.775847 
L 150.638295 168.033072 
L 150.810892 168.290297 
L 150.983488 168.547522 
L 151.156085 168.804746 
L 151.328682 169.061971 
L 151.501279 169.319196 
L 151.673876 169.576421 
L 151.846472 169.833646 
L 152.019069 170.090871 
L 152.191666 170.348096 
L 152.364263 170.605321 
L 152.53686 170.862545 
L 152.709456 171.11977 
L 152.882053 171.376995 
L 153.05465 171.63422 
L 153.227247 171.891445 
L 153.399843 172.14867 
L 153.57244 172.405895 
L 153.745037 172.66312 
L 153.917634 172.920345 
L 154.090231 173.177569 
L 154.262827 173.434794 
L 154.435424 173.692019 
L 154.608021 173.949244 
L 154.780618 174.206469 
L 154.953214 174.463694 
L 155.125811 174.720919 
L 155.298408 174.978144 
L 155.471005 175.235368 
L 155.643602 175.492593 
L 155.816198 175.749818 
L 155.988795 176.007043 
L 156.161392 176.264268 
L 156.333989 176.521493 
L 156.506585 176.778718 
L 156.679182 177.035943 
L 156.851779 177.293167 
L 157.024376 177.550392 
L 157.196973 177.807617 
L 157.369569 178.064842 
L 157.542166 178.322067 
L 157.714763 178.579292 
L 157.88736 178.836517 
L 158.059956 179.093742 
L 158.232553 179.350966 
L 158.40515 179.608191 
L 158.577747 179.865416 
L 158.750344 180.122641 
L 158.92294 180.379866 
L 159.095537 180.637091 
L 159.268134 180.894316 
" style="fill:none;stroke:#0000ff;stroke-linecap:square;stroke-width:1.5;"/>
   </g>
   <g id="line2d_25">
    <path clip-path="url(#p4a90c05686)" d="M 159.268134 180.894316 
L 159.440731 181.151541 
L 159.613328 181.408766 
L 159.785924 181.66599 
L 159.958521 181.923215 
L 160.131118 182.18044 
L 160.303715 182.437665 
L 160.476311 182.69489 
L 160.648908 182.952115 
L 160.821505 183.20934 
L 160.994102 183.466565 
L 161.166699 183.72379 
L 161.339295 183.981014 
L 161.511892 184.238239 
L 161.684489 184.495464 
L 161.857086 184.752689 
L 162.029682 185.009914 
L 162.202279 185.267139 
L 162.374876 185.524364 
L 162.547473 185.781589 
L 162.72007 186.038813 
L 162.892666 186.296038 
L 163.065263 186.553263 
L 163.23786 186.810488 
L 163.410457 187.067713 
L 163.583054 187.324938 
L 163.75565 187.582163 
L 163.928247 187.839388 
L 164.100844 188.096612 
L 164.273441 188.353837 
L 164.446037 188.611062 
L 164.618634 188.868287 
L 164.791231 189.125512 
L 164.963828 189.382737 
L 165.136425 189.639962 
L 165.309021 189.897187 
L 165.481618 190.154412 
L 165.654215 190.411636 
L 165.826812 190.668861 
L 165.999408 190.926086 
L 166.172005 191.183311 
L 166.344602 191.440536 
L 166.517199 191.697761 
L 166.689796 191.954986 
L 166.862392 192.212211 
L 167.034989 192.469435 
L 167.207586 192.72666 
L 167.380183 192.983885 
L 167.552779 193.24111 
L 167.725376 193.498335 
L 167.897973 193.75556 
L 168.07057 194.012785 
L 168.243167 194.27001 
L 168.415763 194.527234 
L 168.58836 194.784459 
L 168.760957 195.041684 
L 168.933554 195.298909 
L 169.10615 195.556134 
L 169.278747 195.813359 
L 169.451344 196.070584 
L 169.623941 196.327809 
L 169.796538 196.585034 
L 169.969134 196.842258 
L 170.141731 197.099483 
L 170.314328 197.356708 
L 170.486925 197.613933 
L 170.659522 197.871158 
L 170.832118 198.128383 
L 171.004715 198.385608 
L 171.177312 198.642833 
L 171.349909 198.900057 
L 171.522505 199.157282 
L 171.695102 199.414507 
L 171.867699 199.671732 
L 172.040296 199.928957 
L 172.212893 200.186182 
L 172.385489 200.443407 
L 172.558086 200.700632 
L 172.730683 200.957856 
L 172.90328 201.215081 
L 173.075876 201.472306 
L 173.248473 201.729531 
L 173.42107 201.986756 
L 173.593667 202.243981 
L 173.766264 202.501206 
L 173.93886 202.758431 
L 174.111457 203.015655 
L 174.284054 203.27288 
L 174.456651 203.530105 
L 174.629247 203.78733 
L 174.801844 204.044555 
L 174.974441 204.30178 
L 175.147038 204.559005 
L 175.319635 204.81623 
L 175.492231 205.073455 
L 175.664828 205.330679 
L 175.837425 205.587904 
L 176.010022 205.845129 
L 176.182619 206.102354 
L 176.355215 206.359579 
" style="fill:none;stroke:#0000ff;stroke-linecap:square;stroke-width:1.5;"/>
   </g>
   <g id="line2d_26">
    <path clip-path="url(#p4a90c05686)" d="M 176.355215 206.359579 
L 176.527812 206.616804 
L 176.700409 206.874029 
L 176.873006 207.131254 
L 177.045602 207.388479 
L 177.218199 207.645703 
L 177.390796 207.902928 
L 177.563393 208.160153 
L 177.73599 208.417378 
L 177.908586 208.674603 
L 178.081183 208.931828 
L 178.25378 209.189053 
L 178.426377 209.446278 
L 178.598973 209.703502 
L 178.77157 209.960727 
L 178.944167 210.217952 
L 179.116764 210.475177 
L 179.289361 210.732402 
L 179.461957 210.989627 
L 179.634554 211.246852 
L 179.807151 211.504077 
L 179.979748 211.761301 
L 180.152345 212.018526 
L 180.324941 212.275751 
L 180.497538 212.532976 
L 180.670135 212.790201 
L 180.842732 213.047426 
L 181.015328 213.304651 
L 181.187925 213.561876 
L 181.360522 213.819101 
L 181.533119 214.076325 
L 181.705716 214.33355 
L 181.878312 214.590775 
L 182.050909 214.848 
L 182.223506 215.105225 
L 182.396103 215.36245 
L 182.568699 215.619675 
L 182.741296 215.8769 
L 182.913893 216.134124 
L 183.08649 216.391349 
L 183.259087 216.648574 
L 183.431683 216.905799 
L 183.60428 217.163024 
L 183.776877 217.420249 
L 183.949474 217.677474 
L 184.12207 217.934699 
L 184.294667 218.191923 
L 184.467264 218.449148 
L 184.639861 218.706373 
L 184.812458 218.963598 
L 184.985054 219.220823 
L 185.157651 219.478048 
L 185.330248 219.735273 
L 185.502845 219.992498 
L 185.675441 220.249723 
L 185.848038 220.506947 
L 186.020635 220.764172 
L 186.193232 221.021397 
L 186.365829 221.278622 
L 186.538425 221.535847 
L 186.711022 221.793072 
L 186.883619 222.050297 
L 187.056216 222.307522 
L 187.228813 222.564746 
L 187.401409 222.821971 
L 187.574006 223.079196 
L 187.746603 223.336421 
L 187.9192 223.593646 
L 188.091796 223.850871 
L 188.264393 224.108096 
L 188.43699 224.365321 
L 188.609587 224.622545 
L 188.782184 224.87977 
L 188.95478 225.136995 
L 189.127377 225.39422 
L 189.299974 225.651445 
L 189.472571 225.90867 
L 189.645167 226.165895 
L 189.817764 226.42312 
L 189.990361 226.680345 
L 190.162958 226.937569 
L 190.335555 227.194794 
L 190.508151 227.452019 
L 190.680748 227.709244 
L 190.853345 227.966469 
L 191.025942 228.223694 
L 191.198538 228.480919 
L 191.371135 228.738144 
L 191.543732 228.995368 
L 191.716329 229.252593 
L 191.888926 229.509818 
L 192.061522 229.767043 
L 192.234119 230.024268 
L 192.406716 230.281493 
L 192.579313 230.538718 
L 192.75191 230.795943 
L 192.924506 231.053167 
L 193.097103 231.310392 
L 193.2697 231.567617 
L 193.442297 231.824842 
" style="fill:none;stroke:#0000ff;stroke-linecap:square;stroke-width:1.5;"/>
   </g>
   <g id="line2d_27">
    <path clip-path="url(#p4a90c05686)" d="M 193.442297 231.824842 
L 193.614893 232.082067 
L 193.78749 232.339292 
L 193.960087 232.596517 
L 194.132684 232.853742 
L 194.305281 233.110967 
L 194.477877 233.368191 
L 194.650474 233.625416 
L 194.823071 233.882641 
L 194.995668 234.139866 
L 195.168264 234.397091 
L 195.340861 234.654316 
L 195.513458 234.911541 
L 195.686055 235.168766 
L 195.858652 235.42599 
L 196.031248 235.683215 
L 196.203845 235.94044 
L 196.376442 236.197665 
L 196.549039 236.45489 
L 196.721636 236.712115 
L 196.894232 236.96934 
L 197.066829 237.226565 
L 197.239426 237.48379 
L 197.412023 237.741014 
L 197.584619 237.998239 
L 197.757216 238.255464 
L 197.929813 238.512689 
L 198.10241 238.769914 
L 198.275007 239.027139 
L 198.447603 239.284364 
L 198.6202 239.541589 
L 198.792797 239.798813 
L 198.965394 240.056038 
L 199.13799 240.313263 
L 199.310587 240.570488 
L 199.483184 240.827713 
L 199.655781 241.084938 
L 199.828378 241.342163 
L 200.000974 241.599388 
L 200.173571 241.856612 
L 200.346168 242.113837 
L 200.518765 242.371062 
L 200.691361 242.628287 
L 200.863958 242.885512 
L 201.036555 243.142737 
L 201.209152 243.399962 
L 201.381749 243.657187 
L 201.554345 243.914412 
L 201.726942 244.171636 
L 201.899539 244.428861 
L 202.072136 244.686086 
L 202.244732 244.943311 
L 202.417329 245.200536 
L 202.589926 245.457761 
L 202.762523 245.714986 
L 202.93512 245.972211 
L 203.107716 246.229435 
L 203.280313 246.48666 
L 203.45291 246.743885 
L 203.625507 247.00111 
L 203.798104 247.258335 
L 203.9707 247.51556 
L 204.143297 247.772785 
L 204.315894 248.03001 
L 204.488491 248.287234 
L 204.661087 248.544459 
L 204.833684 248.801684 
L 205.006281 249.058909 
L 205.178878 249.316134 
L 205.351475 249.573359 
L 205.524071 249.830584 
L 205.696668 250.087809 
L 205.869265 250.345034 
L 206.041862 250.602258 
L 206.214458 250.859483 
L 206.387055 251.116708 
L 206.559652 251.373933 
L 206.732249 251.631158 
L 206.904846 251.888383 
L 207.077442 252.145608 
L 207.250039 252.402833 
L 207.422636 252.660057 
L 207.595233 252.917282 
L 207.767829 253.174507 
L 207.940426 253.431732 
L 208.113023 253.688957 
L 208.28562 253.946182 
L 208.458217 254.203407 
L 208.630813 254.460632 
L 208.80341 254.717856 
L 208.976007 254.975081 
L 209.148604 255.232306 
L 209.321201 255.489531 
L 209.493797 255.746756 
L 209.666394 256.003981 
L 209.838991 256.261206 
L 210.011588 256.518431 
L 210.184184 256.775655 
L 210.356781 257.03288 
L 210.529378 257.290105 
" style="fill:none;stroke:#0000ff;stroke-linecap:square;stroke-width:1.5;"/>
   </g>
   <g id="line2d_28">
    <path clip-path="url(#p4a90c05686)" d="M 210.529378 257.290105 
L 210.701975 257.54733 
L 210.874572 257.804555 
L 211.047168 258.06178 
L 211.219765 258.319005 
L 211.392362 258.57623 
L 211.564959 258.833455 
L 211.737555 259.090679 
L 211.910152 259.347904 
L 212.082749 259.605129 
L 212.255346 259.862354 
L 212.427943 260.119579 
L 212.600539 260.376804 
L 212.773136 260.634029 
L 212.945733 260.891254 
L 213.11833 261.148479 
L 213.290927 261.405703 
L 213.463523 261.662928 
L 213.63612 261.920153 
L 213.808717 262.177378 
L 213.981314 262.434603 
L 214.15391 262.691828 
L 214.326507 262.949053 
L 214.499104 263.206278 
L 214.671701 263.463502 
L 214.844298 263.720727 
L 215.016894 263.977952 
L 215.189491 264.235177 
L 215.362088 264.492402 
L 215.534685 264.749627 
L 215.707281 265.006852 
L 215.879878 265.264077 
L 216.052475 265.521301 
L 216.225072 265.778526 
L 216.397669 266.035751 
L 216.570265 266.292976 
L 216.742862 266.550201 
L 216.915459 266.807426 
L 217.088056 267.064651 
L 217.260652 267.321876 
L 217.433249 267.579101 
L 217.605846 267.836325 
L 217.778443 268.09355 
L 217.95104 268.350775 
L 218.123636 268.608 
L 218.296233 268.865225 
L 218.46883 269.12245 
L 218.641427 269.379675 
L 218.814023 269.6369 
L 218.98662 269.894124 
L 219.159217 270.151349 
L 219.331814 270.408574 
L 219.504411 270.665799 
L 219.677007 270.923024 
L 219.849604 271.180249 
L 220.022201 271.437474 
L 220.194798 271.694699 
L 220.367395 271.951923 
L 220.539991 272.209148 
L 220.712588 272.466373 
L 220.885185 272.723598 
L 221.057782 272.980823 
L 221.230378 273.238048 
L 221.402975 273.495273 
L 221.575572 273.752498 
L 221.748169 274.009723 
L 221.920766 274.266947 
L 222.093362 274.524172 
L 222.265959 274.781397 
L 222.438556 275.038622 
L 222.611153 275.295847 
L 222.783749 275.553072 
L 222.956346 275.810297 
L 223.128943 276.067522 
L 223.30154 276.324746 
L 223.474137 276.581971 
L 223.646733 276.839196 
L 223.81933 277.096421 
L 223.991927 277.353646 
L 224.164524 277.610871 
L 224.33712 277.868096 
L 224.509717 278.125321 
L 224.682314 278.382545 
L 224.854911 278.63977 
L 225.027508 278.896995 
L 225.200104 279.15422 
L 225.372701 279.411445 
L 225.545298 279.66867 
L 225.717895 279.925895 
L 225.890492 280.18312 
L 226.063088 280.440345 
L 226.235685 280.697569 
L 226.408282 280.954794 
L 226.580879 281.212019 
L 226.753475 281.469244 
L 226.926072 281.726469 
L 227.098669 281.983694 
L 227.271266 282.240919 
L 227.443863 282.498144 
L 227.616459 282.755368 
" style="fill:none;stroke:#0000ff;stroke-linecap:square;stroke-width:1.5;"/>
   </g>
   <g id="line2d_29">
    <path clip-path="url(#p4a90c05686)" d="M 227.616459 282.755368 
L 227.702758 282.883981 
L 227.789056 283.012593 
L 227.875355 283.141206 
L 227.961653 283.269818 
L 228.047951 283.398431 
L 228.13425 283.527043 
L 228.220548 283.655656 
L 228.306846 283.784268 
L 228.393145 283.91288 
L 228.479443 284.041493 
L 228.565742 284.170105 
L 228.65204 284.298718 
L 228.738338 284.42733 
L 228.824637 284.555943 
L 228.910935 284.684555 
L 228.997234 284.813168 
L 229.083532 284.94178 
L 229.16983 285.070392 
L 229.256129 285.199005 
L 229.342427 285.327617 
L 229.428726 285.45623 
L 229.515024 285.584842 
L 229.601322 285.713455 
L 229.687621 285.842067 
L 229.773919 285.970679 
L 229.860217 286.099292 
L 229.946516 286.227904 
L 230.032814 286.356517 
L 230.119113 286.485129 
L 230.205411 286.613742 
L 230.291709 286.742354 
L 230.378008 286.870967 
L 230.464306 286.999579 
L 230.550605 287.128191 
L 230.636903 287.256804 
L 230.723201 287.385416 
L 230.8095 287.514029 
L 230.895798 287.642641 
L 230.982097 287.771254 
L 231.068395 287.899866 
L 231.154693 288.028478 
L 231.240992 288.157091 
L 231.32729 288.285703 
L 231.413589 288.414316 
L 231.499887 288.542928 
L 231.586185 288.671541 
L 231.672484 288.800153 
L 231.758782 288.928766 
L 231.84508 289.057378 
L 231.931379 289.18599 
L 232.017677 289.314603 
L 232.103976 289.443215 
L 232.190274 289.571828 
L 232.276572 289.70044 
L 232.362871 289.829053 
L 232.449169 289.957665 
L 232.535468 290.086278 
L 232.621766 290.21489 
L 232.708064 290.343502 
L 232.794363 290.472115 
L 232.880661 290.600727 
L 232.96696 290.72934 
L 233.053258 290.857952 
L 233.139556 290.986565 
L 233.225855 291.115177 
L 233.312153 291.243789 
L 233.398451 291.372402 
L 233.48475 291.501014 
L 233.571048 291.629627 
L 233.657347 291.758239 
L 233.743645 291.886852 
L 233.829943 292.015464 
L 233.916242 292.144077 
L 234.00254 292.272689 
L 234.088839 292.401301 
L 234.175137 292.529914 
L 234.261435 292.658526 
L 234.347734 292.787139 
L 234.434032 292.915751 
L 234.520331 293.044364 
L 234.606629 293.172976 
L 234.692927 293.301589 
L 234.779226 293.430201 
L 234.865524 293.558813 
L 234.951823 293.687426 
L 235.038121 293.816038 
L 235.124419 293.944651 
L 235.210718 294.073263 
L 235.297016 294.201876 
L 235.383314 294.330488 
L 235.469613 294.4591 
L 235.555911 294.587713 
L 235.64221 294.716325 
L 235.728508 294.844938 
L 235.814806 294.97355 
L 235.901105 295.102163 
L 235.987403 295.230775 
L 236.073702 295.359388 
L 236.16 295.488 
" style="fill:none;stroke:#0000ff;stroke-linecap:square;stroke-width:1.5;"/>
   </g>
   <g id="line2d_30">
    <path clip-path="url(#p4a90c05686)" d="M 236.16 174.528 
L 236.246298 174.463694 
L 236.332597 174.399388 
L 236.418895 174.335081 
L 236.505194 174.270775 
L 236.591492 174.206469 
L 236.67779 174.142163 
L 236.764089 174.077856 
L 236.850387 174.01355 
L 236.936686 173.949244 
L 237.022984 173.884938 
L 237.109282 173.820632 
L 237.195581 173.756325 
L 237.281879 173.692019 
L 237.368177 173.627713 
L 237.454476 173.563407 
L 237.540774 173.4991 
L 237.627073 173.434794 
L 237.713371 173.370488 
L 237.799669 173.306182 
L 237.885968 173.241876 
L 237.972266 173.177569 
L 238.058565 173.113263 
L 238.144863 173.048957 
L 238.231161 172.984651 
L 238.31746 172.920345 
L 238.403758 172.856038 
L 238.490057 172.791732 
L 238.576355 172.727426 
L 238.662653 172.66312 
L 238.748952 172.598813 
L 238.83525 172.534507 
L 238.921549 172.470201 
L 239.007847 172.405895 
L 239.094145 172.341589 
L 239.180444 172.277282 
L 239.266742 172.212976 
L 239.35304 172.14867 
L 239.439339 172.084364 
L 239.525637 172.020057 
L 239.611936 171.955751 
L 239.698234 171.891445 
L 239.784532 171.827139 
L 239.870831 171.762833 
L 239.957129 171.698526 
L 240.043428 171.63422 
L 240.129726 171.569914 
L 240.216024 171.505608 
L 240.302323 171.441301 
L 240.388621 171.376995 
L 240.47492 171.312689 
L 240.561218 171.248383 
L 240.647516 171.184077 
L 240.733815 171.11977 
L 240.820113 171.055464 
L 240.906411 170.991158 
L 240.99271 170.926852 
L 241.079008 170.862545 
L 241.165307 170.798239 
L 241.251605 170.733933 
L 241.337903 170.669627 
L 241.424202 170.605321 
L 241.5105 170.541014 
L 241.596799 170.476708 
L 241.683097 170.412402 
L 241.769395 170.348096 
L 241.855694 170.283789 
L 241.941992 170.219483 
L 242.028291 170.155177 
L 242.114589 170.090871 
L 242.200887 170.026565 
L 242.287186 169.962258 
L 242.373484 169.897952 
L 242.459783 169.833646 
L 242.546081 169.76934 
L 242.632379 169.705034 
L 242.718678 169.640727 
L 242.804976 169.576421 
L 242.891274 169.512115 
L 242.977573 169.447809 
L 243.063871 169.383502 
L 243.15017 169.319196 
L 243.236468 169.25489 
L 243.322766 169.190584 
L 243.409065 169.126278 
L 243.495363 169.061971 
L 243.581662 168.997665 
L 243.66796 168.933359 
L 243.754258 168.869053 
L 243.840557 168.804746 
L 243.926855 168.74044 
L 244.013154 168.676134 
L 244.099452 168.611828 
L 244.18575 168.547522 
L 244.272049 168.483215 
L 244.358347 168.418909 
L 244.444645 168.354603 
L 244.530944 168.290297 
L 244.617242 168.22599 
L 244.703541 168.161684 
" style="fill:none;stroke:#ff0000;stroke-linecap:square;stroke-width:1.5;"/>
   </g>
   <g id="line2d_31">
    <path clip-path="url(#p4a90c05686)" d="M 244.703541 168.161684 
L 244.876137 168.033072 
L 245.048734 167.904459 
L 245.221331 167.775847 
L 245.393928 167.647234 
L 245.566525 167.518622 
L 245.739121 167.39001 
L 245.911718 167.261397 
L 246.084315 167.132785 
L 246.256912 167.004172 
L 246.429508 166.87556 
L 246.602105 166.746947 
L 246.774702 166.618335 
L 246.947299 166.489722 
L 247.119896 166.36111 
L 247.292492 166.232498 
L 247.465089 166.103885 
L 247.637686 165.975273 
L 247.810283 165.84666 
L 247.98288 165.718048 
L 248.155476 165.589435 
L 248.328073 165.460823 
L 248.50067 165.332211 
L 248.673267 165.203598 
L 248.845863 165.074986 
L 249.01846 164.946373 
L 249.191057 164.817761 
L 249.363654 164.689148 
L 249.536251 164.560536 
L 249.708847 164.431923 
L 249.881444 164.303311 
L 250.054041 164.174699 
L 250.226638 164.046086 
L 250.399234 163.917474 
L 250.571831 163.788861 
L 250.744428 163.660249 
L 250.917025 163.531636 
L 251.089622 163.403024 
L 251.262218 163.274411 
L 251.434815 163.145799 
L 251.607412 163.017187 
L 251.780009 162.888574 
L 251.952605 162.759962 
L 252.125202 162.631349 
L 252.297799 162.502737 
L 252.470396 162.374124 
L 252.642993 162.245512 
L 252.815589 162.1169 
L 252.988186 161.988287 
L 253.160783 161.859675 
L 253.33338 161.731062 
L 253.505977 161.60245 
L 253.678573 161.473837 
L 253.85117 161.345225 
L 254.023767 161.216612 
L 254.196364 161.088 
L 254.36896 160.959388 
L 254.541557 160.830775 
L 254.714154 160.702163 
L 254.886751 160.57355 
L 255.059348 160.444938 
L 255.231944 160.316325 
L 255.404541 160.187713 
L 255.577138 160.0591 
L 255.749735 159.930488 
L 255.922331 159.801876 
L 256.094928 159.673263 
L 256.267525 159.544651 
L 256.440122 159.416038 
L 256.612719 159.287426 
L 256.785315 159.158813 
L 256.957912 159.030201 
L 257.130509 158.901589 
L 257.303106 158.772976 
L 257.475702 158.644364 
L 257.648299 158.515751 
L 257.820896 158.387139 
L 257.993493 158.258526 
L 258.16609 158.129914 
L 258.338686 158.001301 
L 258.511283 157.872689 
L 258.68388 157.744077 
L 258.856477 157.615464 
L 259.029073 157.486852 
L 259.20167 157.358239 
L 259.374267 157.229627 
L 259.546864 157.101014 
L 259.719461 156.972402 
L 259.892057 156.843789 
L 260.064654 156.715177 
L 260.237251 156.586565 
L 260.409848 156.457952 
L 260.582445 156.32934 
L 260.755041 156.200727 
L 260.927638 156.072115 
L 261.100235 155.943502 
L 261.272832 155.81489 
L 261.445428 155.686278 
L 261.618025 155.557665 
L 261.790622 155.429053 
" style="fill:none;stroke:#ff0000;stroke-linecap:square;stroke-width:1.5;"/>
   </g>
   <g id="line2d_32">
    <path clip-path="url(#p4a90c05686)" d="M 261.790622 155.429053 
L 261.963219 155.30044 
L 262.135816 155.171828 
L 262.308412 155.043215 
L 262.481009 154.914603 
L 262.653606 154.78599 
L 262.826203 154.657378 
L 262.998799 154.528766 
L 263.171396 154.400153 
L 263.343993 154.271541 
L 263.51659 154.142928 
L 263.689187 154.014316 
L 263.861783 153.885703 
L 264.03438 153.757091 
L 264.206977 153.628478 
L 264.379574 153.499866 
L 264.552171 153.371254 
L 264.724767 153.242641 
L 264.897364 153.114029 
L 265.069961 152.985416 
L 265.242558 152.856804 
L 265.415154 152.728191 
L 265.587751 152.599579 
L 265.760348 152.470967 
L 265.932945 152.342354 
L 266.105542 152.213742 
L 266.278138 152.085129 
L 266.450735 151.956517 
L 266.623332 151.827904 
L 266.795929 151.699292 
L 266.968525 151.570679 
L 267.141122 151.442067 
L 267.313719 151.313455 
L 267.486316 151.184842 
L 267.658913 151.05623 
L 267.831509 150.927617 
L 268.004106 150.799005 
L 268.176703 150.670392 
L 268.3493 150.54178 
L 268.521896 150.413167 
L 268.694493 150.284555 
L 268.86709 150.155943 
L 269.039687 150.02733 
L 269.212284 149.898718 
L 269.38488 149.770105 
L 269.557477 149.641493 
L 269.730074 149.51288 
L 269.902671 149.384268 
L 270.075268 149.255656 
L 270.247864 149.127043 
L 270.420461 148.998431 
L 270.593058 148.869818 
L 270.765655 148.741206 
L 270.938251 148.612593 
L 271.110848 148.483981 
L 271.283445 148.355368 
L 271.456042 148.226756 
L 271.628639 148.098144 
L 271.801235 147.969531 
L 271.973832 147.840919 
L 272.146429 147.712306 
L 272.319026 147.583694 
L 272.491622 147.455081 
L 272.664219 147.326469 
L 272.836816 147.197856 
L 273.009413 147.069244 
L 273.18201 146.940632 
L 273.354606 146.812019 
L 273.527203 146.683407 
L 273.6998 146.554794 
L 273.872397 146.426182 
L 274.044993 146.297569 
L 274.21759 146.168957 
L 274.390187 146.040345 
L 274.562784 145.911732 
L 274.735381 145.78312 
L 274.907977 145.654507 
L 275.080574 145.525895 
L 275.253171 145.397282 
L 275.425768 145.26867 
L 275.598364 145.140057 
L 275.770961 145.011445 
L 275.943558 144.882833 
L 276.116155 144.75422 
L 276.288752 144.625608 
L 276.461348 144.496995 
L 276.633945 144.368383 
L 276.806542 144.23977 
L 276.979139 144.111158 
L 277.151736 143.982545 
L 277.324332 143.853933 
L 277.496929 143.725321 
L 277.669526 143.596708 
L 277.842123 143.468096 
L 278.014719 143.339483 
L 278.187316 143.210871 
L 278.359913 143.082258 
L 278.53251 142.953646 
L 278.705107 142.825034 
L 278.877703 142.696421 
" style="fill:none;stroke:#ff0000;stroke-linecap:square;stroke-width:1.5;"/>
   </g>
   <g id="line2d_33">
    <path clip-path="url(#p4a90c05686)" d="M 278.877703 142.696421 
L 279.0503 142.567809 
L 279.222897 142.439196 
L 279.395494 142.310584 
L 279.56809 142.181971 
L 279.740687 142.053359 
L 279.913284 141.924746 
L 280.085881 141.796134 
L 280.258478 141.667522 
L 280.431074 141.538909 
L 280.603671 141.410297 
L 280.776268 141.281684 
L 280.948865 141.153072 
L 281.121462 141.024459 
L 281.294058 140.895847 
L 281.466655 140.767234 
L 281.639252 140.638622 
L 281.811849 140.51001 
L 281.984445 140.381397 
L 282.157042 140.252785 
L 282.329639 140.124172 
L 282.502236 139.99556 
L 282.674833 139.866947 
L 282.847429 139.738335 
L 283.020026 139.609722 
L 283.192623 139.48111 
L 283.36522 139.352498 
L 283.537816 139.223885 
L 283.710413 139.095273 
L 283.88301 138.96666 
L 284.055607 138.838048 
L 284.228204 138.709435 
L 284.4008 138.580823 
L 284.573397 138.452211 
L 284.745994 138.323598 
L 284.918591 138.194986 
L 285.091187 138.066373 
L 285.263784 137.937761 
L 285.436381 137.809148 
L 285.608978 137.680536 
L 285.781575 137.551923 
L 285.954171 137.423311 
L 286.126768 137.294699 
L 286.299365 137.166086 
L 286.471962 137.037474 
L 286.644559 136.908861 
L 286.817155 136.780249 
L 286.989752 136.651636 
L 287.162349 136.523024 
L 287.334946 136.394411 
L 287.507542 136.265799 
L 287.680139 136.137187 
L 287.852736 136.008574 
L 288.025333 135.879962 
L 288.19793 135.751349 
L 288.370526 135.622737 
L 288.543123 135.494124 
L 288.71572 135.365512 
L 288.888317 135.2369 
L 289.060913 135.108287 
L 289.23351 134.979675 
L 289.406107 134.851062 
L 289.578704 134.72245 
L 289.751301 134.593837 
L 289.923897 134.465225 
L 290.096494 134.336612 
L 290.269091 134.208 
L 290.441688 134.079388 
L 290.614284 133.950775 
L 290.786881 133.822163 
L 290.959478 133.69355 
L 291.132075 133.564938 
L 291.304672 133.436325 
L 291.477268 133.307713 
L 291.649865 133.1791 
L 291.822462 133.050488 
L 291.995059 132.921876 
L 292.167655 132.793263 
L 292.340252 132.664651 
L 292.512849 132.536038 
L 292.685446 132.407426 
L 292.858043 132.278813 
L 293.030639 132.150201 
L 293.203236 132.021589 
L 293.375833 131.892976 
L 293.54843 131.764364 
L 293.721027 131.635751 
L 293.893623 131.507139 
L 294.06622 131.378526 
L 294.238817 131.249914 
L 294.411414 131.121301 
L 294.58401 130.992689 
L 294.756607 130.864077 
L 294.929204 130.735464 
L 295.101801 130.606852 
L 295.274398 130.478239 
L 295.446994 130.349627 
L 295.619591 130.221014 
L 295.792188 130.092402 
L 295.964785 129.963789 
" style="fill:none;stroke:#ff0000;stroke-linecap:square;stroke-width:1.5;"/>
   </g>
   <g id="line2d_34">
    <path clip-path="url(#p4a90c05686)" d="M 295.964785 129.963789 
L 296.137381 129.835177 
L 296.309978 129.706565 
L 296.482575 129.577952 
L 296.655172 129.44934 
L 296.827769 129.320727 
L 297.000365 129.192115 
L 297.172962 129.063502 
L 297.345559 128.93489 
L 297.518156 128.806278 
L 297.690753 128.677665 
L 297.863349 128.549053 
L 298.035946 128.42044 
L 298.208543 128.291828 
L 298.38114 128.163215 
L 298.553736 128.034603 
L 298.726333 127.90599 
L 298.89893 127.777378 
L 299.071527 127.648766 
L 299.244124 127.520153 
L 299.41672 127.391541 
L 299.589317 127.262928 
L 299.761914 127.134316 
L 299.934511 127.005703 
L 300.107107 126.877091 
L 300.279704 126.748478 
L 300.452301 126.619866 
L 300.624898 126.491254 
L 300.797495 126.362641 
L 300.970091 126.234029 
L 301.142688 126.105416 
L 301.315285 125.976804 
L 301.487882 125.848191 
L 301.660478 125.719579 
L 301.833075 125.590967 
L 302.005672 125.462354 
L 302.178269 125.333742 
L 302.350866 125.205129 
L 302.523462 125.076517 
L 302.696059 124.947904 
L 302.868656 124.819292 
L 303.041253 124.690679 
L 303.21385 124.562067 
L 303.386446 124.433455 
L 303.559043 124.304842 
L 303.73164 124.17623 
L 303.904237 124.047617 
L 304.076833 123.919005 
L 304.24943 123.790392 
L 304.422027 123.66178 
L 304.594624 123.533167 
L 304.767221 123.404555 
L 304.939817 123.275943 
L 305.112414 123.14733 
L 305.285011 123.018718 
L 305.457608 122.890105 
L 305.630204 122.761493 
L 305.802801 122.63288 
L 305.975398 122.504268 
L 306.147995 122.375656 
L 306.320592 122.247043 
L 306.493188 122.118431 
L 306.665785 121.989818 
L 306.838382 121.861206 
L 307.010979 121.732593 
L 307.183575 121.603981 
L 307.356172 121.475368 
L 307.528769 121.346756 
L 307.701366 121.218144 
L 307.873963 121.089531 
L 308.046559 120.960919 
L 308.219156 120.832306 
L 308.391753 120.703694 
L 308.56435 120.575081 
L 308.736946 120.446469 
L 308.909543 120.317856 
L 309.08214 120.189244 
L 309.254737 120.060632 
L 309.427334 119.932019 
L 309.59993 119.803407 
L 309.772527 119.674794 
L 309.945124 119.546182 
L 310.117721 119.417569 
L 310.290318 119.288957 
L 310.462914 119.160345 
L 310.635511 119.031732 
L 310.808108 118.90312 
L 310.980705 118.774507 
L 311.153301 118.645895 
L 311.325898 118.517282 
L 311.498495 118.38867 
L 311.671092 118.260057 
L 311.843689 118.131445 
L 312.016285 118.002833 
L 312.188882 117.87422 
L 312.361479 117.745608 
L 312.534076 117.616995 
L 312.706672 117.488383 
L 312.879269 117.35977 
L 313.051866 117.231158 
" style="fill:none;stroke:#ff0000;stroke-linecap:square;stroke-width:1.5;"/>
   </g>
   <g id="line2d_35">
    <path clip-path="url(#p4a90c05686)" d="M 313.051866 117.231158 
L 313.224463 117.102545 
L 313.39706 116.973933 
L 313.569656 116.845321 
L 313.742253 116.716708 
L 313.91485 116.588096 
L 314.087447 116.459483 
L 314.260044 116.330871 
L 314.43264 116.202258 
L 314.605237 116.073646 
L 314.777834 115.945033 
L 314.950431 115.816421 
L 315.123027 115.687809 
L 315.295624 115.559196 
L 315.468221 115.430584 
L 315.640818 115.301971 
L 315.813415 115.173359 
L 315.986011 115.044746 
L 316.158608 114.916134 
L 316.331205 114.787522 
L 316.503802 114.658909 
L 316.676398 114.530297 
L 316.848995 114.401684 
L 317.021592 114.273072 
L 317.194189 114.144459 
L 317.366786 114.015847 
L 317.539382 113.887234 
L 317.711979 113.758622 
L 317.884576 113.63001 
L 318.057173 113.501397 
L 318.229769 113.372785 
L 318.402366 113.244172 
L 318.574963 113.11556 
L 318.74756 112.986947 
L 318.920157 112.858335 
L 319.092753 112.729722 
L 319.26535 112.60111 
L 319.437947 112.472498 
L 319.610544 112.343885 
L 319.78314 112.215273 
L 319.955737 112.08666 
L 320.128334 111.958048 
L 320.300931 111.829435 
L 320.473528 111.700823 
L 320.646124 111.572211 
L 320.818721 111.443598 
L 320.991318 111.314986 
L 321.163915 111.186373 
L 321.336512 111.057761 
L 321.509108 110.929148 
L 321.681705 110.800536 
L 321.854302 110.671923 
L 322.026899 110.543311 
L 322.199495 110.414699 
L 322.372092 110.286086 
L 322.544689 110.157474 
L 322.717286 110.028861 
L 322.889883 109.900249 
L 323.062479 109.771636 
L 323.235076 109.643024 
L 323.407673 109.514411 
L 323.58027 109.385799 
L 323.752866 109.257187 
L 323.925463 109.128574 
L 324.09806 108.999962 
L 324.270657 108.871349 
L 324.443254 108.742737 
L 324.61585 108.614124 
L 324.788447 108.485512 
L 324.961044 108.3569 
L 325.133641 108.228287 
L 325.306237 108.099675 
L 325.478834 107.971062 
L 325.651431 107.84245 
L 325.824028 107.713837 
L 325.996625 107.585225 
L 326.169221 107.456612 
L 326.341818 107.328 
L 326.514415 107.199388 
L 326.687012 107.070775 
L 326.859609 106.942163 
L 327.032205 106.81355 
L 327.204802 106.684938 
L 327.377399 106.556325 
L 327.549996 106.427713 
L 327.722592 106.2991 
L 327.895189 106.170488 
L 328.067786 106.041876 
L 328.240383 105.913263 
L 328.41298 105.784651 
L 328.585576 105.656038 
L 328.758173 105.527426 
L 328.93077 105.398813 
L 329.103367 105.270201 
L 329.275963 105.141589 
L 329.44856 105.012976 
L 329.621157 104.884364 
L 329.793754 104.755751 
L 329.966351 104.627139 
L 330.138947 104.498526 
" style="fill:none;stroke:#ff0000;stroke-linecap:square;stroke-width:1.5;"/>
   </g>
   <g id="line2d_36">
    <path clip-path="url(#p4a90c05686)" d="M 330.138947 104.498526 
L 330.311544 104.369914 
L 330.484141 104.241301 
L 330.656738 104.112689 
L 330.829335 103.984077 
L 331.001931 103.855464 
L 331.174528 103.726852 
L 331.347125 103.598239 
L 331.519722 103.469627 
L 331.692318 103.341014 
L 331.864915 103.212402 
L 332.037512 103.083789 
L 332.210109 102.955177 
L 332.382706 102.826565 
L 332.555302 102.697952 
L 332.727899 102.56934 
L 332.900496 102.440727 
L 333.073093 102.312115 
L 333.245689 102.183502 
L 333.418286 102.05489 
L 333.590883 101.926278 
L 333.76348 101.797665 
L 333.936077 101.669053 
L 334.108673 101.54044 
L 334.28127 101.411828 
L 334.453867 101.283215 
L 334.626464 101.154603 
L 334.79906 101.02599 
L 334.971657 100.897378 
L 335.144254 100.768766 
L 335.316851 100.640153 
L 335.489448 100.511541 
L 335.662044 100.382928 
L 335.834641 100.254316 
L 336.007238 100.125703 
L 336.179835 99.997091 
L 336.352431 99.868478 
L 336.525028 99.739866 
L 336.697625 99.611254 
L 336.870222 99.482641 
L 337.042819 99.354029 
L 337.215415 99.225416 
L 337.388012 99.096804 
L 337.560609 98.968191 
L 337.733206 98.839579 
L 337.905803 98.710967 
L 338.078399 98.582354 
L 338.250996 98.453742 
L 338.423593 98.325129 
L 338.59619 98.196517 
L 338.768786 98.067904 
L 338.941383 97.939292 
L 339.11398 97.810679 
L 339.286577 97.682067 
L 339.459174 97.553455 
L 339.63177 97.424842 
L 339.804367 97.29623 
L 339.976964 97.167617 
L 340.149561 97.039005 
L 340.322157 96.910392 
L 340.494754 96.78178 
L 340.667351 96.653167 
L 340.839948 96.524555 
L 341.012545 96.395943 
L 341.185141 96.26733 
L 341.357738 96.138718 
L 341.530335 96.010105 
L 341.702932 95.881493 
L 341.875528 95.75288 
L 342.048125 95.624268 
L 342.220722 95.495656 
L 342.393319 95.367043 
L 342.565916 95.238431 
L 342.738512 95.109818 
L 342.911109 94.981206 
L 343.083706 94.852593 
L 343.256303 94.723981 
L 343.4289 94.595368 
L 343.601496 94.466756 
L 343.774093 94.338144 
L 343.94669 94.209531 
L 344.119287 94.080919 
L 344.291883 93.952306 
L 344.46448 93.823694 
L 344.637077 93.695081 
L 344.809674 93.566469 
L 344.982271 93.437856 
L 345.154867 93.309244 
L 345.327464 93.180632 
L 345.500061 93.052019 
L 345.672658 92.923407 
L 345.845254 92.794794 
L 346.017851 92.666182 
L 346.190448 92.537569 
L 346.363045 92.408957 
L 346.535642 92.280345 
L 346.708238 92.151732 
L 346.880835 92.02312 
L 347.053432 91.894507 
L 347.226029 91.765895 
" style="fill:none;stroke:#ff0000;stroke-linecap:square;stroke-width:1.5;"/>
   </g>
   <g id="line2d_37">
    <path clip-path="url(#p4a90c05686)" d="M 347.226029 91.765895 
L 347.398626 91.637282 
L 347.571222 91.50867 
L 347.743819 91.380057 
L 347.916416 91.251445 
L 348.089013 91.122833 
L 348.261609 90.99422 
L 348.434206 90.865608 
L 348.606803 90.736995 
L 348.7794 90.608383 
L 348.951997 90.47977 
L 349.124593 90.351158 
L 349.29719 90.222545 
L 349.469787 90.093933 
L 349.642384 89.965321 
L 349.81498 89.836708 
L 349.987577 89.708096 
L 350.160174 89.579483 
L 350.332771 89.450871 
L 350.505368 89.322258 
L 350.677964 89.193646 
L 350.850561 89.065033 
L 351.023158 88.936421 
L 351.195755 88.807809 
L 351.368351 88.679196 
L 351.540948 88.550584 
L 351.713545 88.421971 
L 351.886142 88.293359 
L 352.058739 88.164746 
L 352.231335 88.036134 
L 352.403932 87.907522 
L 352.576529 87.778909 
L 352.749126 87.650297 
L 352.921722 87.521684 
L 353.094319 87.393072 
L 353.266916 87.264459 
L 353.439513 87.135847 
L 353.61211 87.007234 
L 353.784706 86.878622 
L 353.957303 86.75001 
L 354.1299 86.621397 
L 354.302497 86.492785 
L 354.475094 86.364172 
L 354.64769 86.23556 
L 354.820287 86.106947 
L 354.992884 85.978335 
L 355.165481 85.849722 
L 355.338077 85.72111 
L 355.510674 85.592498 
L 355.683271 85.463885 
L 355.855868 85.335273 
L 356.028465 85.20666 
L 356.201061 85.078048 
L 356.373658 84.949435 
L 356.546255 84.820823 
L 356.718852 84.692211 
L 356.891448 84.563598 
L 357.064045 84.434986 
L 357.236642 84.306373 
L 357.409239 84.177761 
L 357.581836 84.049148 
L 357.754432 83.920536 
L 357.927029 83.791923 
L 358.099626 83.663311 
L 358.272223 83.534699 
L 358.444819 83.406086 
L 358.617416 83.277474 
L 358.790013 83.148861 
L 358.96261 83.020249 
L 359.135207 82.891636 
L 359.307803 82.763024 
L 359.4804 82.634411 
L 359.652997 82.505799 
L 359.825594 82.377187 
L 359.998191 82.248574 
L 360.170787 82.119962 
L 360.343384 81.991349 
L 360.515981 81.862737 
L 360.688578 81.734124 
L 360.861174 81.605512 
L 361.033771 81.4769 
L 361.206368 81.348287 
L 361.378965 81.219675 
L 361.551562 81.091062 
L 361.724158 80.96245 
L 361.896755 80.833837 
L 362.069352 80.705225 
L 362.241949 80.576612 
L 362.414545 80.448 
L 362.587142 80.319388 
L 362.759739 80.190775 
L 362.932336 80.062163 
L 363.104933 79.93355 
L 363.277529 79.804938 
L 363.450126 79.676325 
L 363.622723 79.547713 
L 363.79532 79.4191 
L 363.967916 79.290488 
L 364.140513 79.161876 
L 364.31311 79.033263 
" style="fill:none;stroke:#ff0000;stroke-linecap:square;stroke-width:1.5;"/>
   </g>
   <g id="line2d_38">
    <path clip-path="url(#p4a90c05686)" d="M 364.31311 79.033263 
L 364.485707 78.904651 
L 364.658304 78.776038 
L 364.8309 78.647426 
L 365.003497 78.518813 
L 365.176094 78.390201 
L 365.348691 78.261589 
L 365.521288 78.132976 
L 365.693884 78.004364 
L 365.866481 77.875751 
L 366.039078 77.747139 
L 366.211675 77.618526 
L 366.384271 77.489914 
L 366.556868 77.361301 
L 366.729465 77.232689 
L 366.902062 77.104077 
L 367.074659 76.975464 
L 367.247255 76.846852 
L 367.419852 76.718239 
L 367.592449 76.589627 
L 367.765046 76.461014 
L 367.937642 76.332402 
L 368.110239 76.203789 
L 368.282836 76.075177 
L 368.455433 75.946565 
L 368.62803 75.817952 
L 368.800626 75.68934 
L 368.973223 75.560727 
L 369.14582 75.432115 
L 369.318417 75.303502 
L 369.491013 75.17489 
L 369.66361 75.046278 
L 369.836207 74.917665 
L 370.008804 74.789053 
L 370.181401 74.66044 
L 370.353997 74.531828 
L 370.526594 74.403215 
L 370.699191 74.274603 
L 370.871788 74.14599 
L 371.044385 74.017378 
L 371.216981 73.888766 
L 371.389578 73.760153 
L 371.562175 73.631541 
L 371.734772 73.502928 
L 371.907368 73.374316 
L 372.079965 73.245703 
L 372.252562 73.117091 
L 372.425159 72.988478 
L 372.597756 72.859866 
L 372.770352 72.731254 
L 372.942949 72.602641 
L 373.115546 72.474029 
L 373.288143 72.345416 
L 373.460739 72.216804 
L 373.633336 72.088191 
L 373.805933 71.959579 
L 373.97853 71.830967 
L 374.151127 71.702354 
L 374.323723 71.573742 
L 374.49632 71.445129 
L 374.668917 71.316517 
L 374.841514 71.187904 
L 375.01411 71.059292 
L 375.186707 70.930679 
L 375.359304 70.802067 
L 375.531901 70.673455 
L 375.704498 70.544842 
L 375.877094 70.41623 
L 376.049691 70.287617 
L 376.222288 70.159005 
L 376.394885 70.030392 
L 376.567482 69.90178 
L 376.740078 69.773167 
L 376.912675 69.644555 
L 377.085272 69.515943 
L 377.257869 69.38733 
L 377.430465 69.258718 
L 377.603062 69.130105 
L 377.775659 69.001493 
L 377.948256 68.87288 
L 378.120853 68.744268 
L 378.293449 68.615656 
L 378.466046 68.487043 
L 378.638643 68.358431 
L 378.81124 68.229818 
L 378.983836 68.101206 
L 379.156433 67.972593 
L 379.32903 67.843981 
L 379.501627 67.715368 
L 379.674224 67.586756 
L 379.84682 67.458144 
L 380.019417 67.329531 
L 380.192014 67.200919 
L 380.364611 67.072306 
L 380.537207 66.943694 
L 380.709804 66.815081 
L 380.882401 66.686469 
L 381.054998 66.557856 
L 381.227595 66.429244 
L 381.400191 66.300632 
" style="fill:none;stroke:#ff0000;stroke-linecap:square;stroke-width:1.5;"/>
   </g>
   <g id="line2d_39">
    <path clip-path="url(#p4a90c05686)" d="M 381.400191 66.300632 
L 381.572788 66.172019 
L 381.745385 66.043407 
L 381.917982 65.914794 
L 382.090579 65.786182 
L 382.263175 65.657569 
L 382.435772 65.528957 
L 382.608369 65.400344 
L 382.780966 65.271732 
L 382.953562 65.14312 
L 383.126159 65.014507 
L 383.298756 64.885895 
L 383.471353 64.757282 
L 383.64395 64.62867 
L 383.816546 64.500057 
L 383.989143 64.371445 
L 384.16174 64.242833 
L 384.334337 64.11422 
L 384.506933 63.985608 
L 384.67953 63.856995 
L 384.852127 63.728383 
L 385.024724 63.59977 
L 385.197321 63.471158 
L 385.369917 63.342545 
L 385.542514 63.213933 
L 385.715111 63.085321 
L 385.887708 62.956708 
L 386.060304 62.828096 
L 386.232901 62.699483 
L 386.405498 62.570871 
L 386.578095 62.442258 
L 386.750692 62.313646 
L 386.923288 62.185033 
L 387.095885 62.056421 
L 387.268482 61.927809 
L 387.441079 61.799196 
L 387.613676 61.670584 
L 387.786272 61.541971 
L 387.958869 61.413359 
L 388.131466 61.284746 
L 388.304063 61.156134 
L 388.476659 61.027522 
L 388.649256 60.898909 
L 388.821853 60.770297 
L 388.99445 60.641684 
L 389.167047 60.513072 
L 389.339643 60.384459 
L 389.51224 60.255847 
L 389.684837 60.127234 
L 389.857434 59.998622 
L 390.03003 59.87001 
L 390.202627 59.741397 
L 390.375224 59.612785 
L 390.547821 59.484172 
L 390.720418 59.35556 
L 390.893014 59.226947 
L 391.065611 59.098335 
L 391.238208 58.969722 
L 391.410805 58.84111 
L 391.583401 58.712498 
L 391.755998 58.583885 
L 391.928595 58.455273 
L 392.101192 58.32666 
L 392.273789 58.198048 
L 392.446385 58.069435 
L 392.618982 57.940823 
L 392.791579 57.812211 
L 392.964176 57.683598 
L 393.136773 57.554986 
L 393.309369 57.426373 
L 393.481966 57.297761 
L 393.654563 57.169148 
L 393.82716 57.040536 
L 393.999756 56.911923 
L 394.172353 56.783311 
L 394.34495 56.654699 
L 394.517547 56.526086 
L 394.690144 56.397474 
L 394.86274 56.268861 
L 395.035337 56.140249 
L 395.207934 56.011636 
L 395.380531 55.883024 
L 395.553127 55.754411 
L 395.725724 55.625799 
L 395.898321 55.497187 
L 396.070918 55.368574 
L 396.243515 55.239962 
L 396.416111 55.111349 
L 396.588708 54.982737 
L 396.761305 54.854124 
L 396.933902 54.725512 
L 397.106498 54.5969 
L 397.279095 54.468287 
L 397.451692 54.339675 
L 397.624289 54.211062 
L 397.796886 54.08245 
L 397.969482 53.953837 
L 398.142079 53.825225 
L 398.314676 53.696612 
L 398.487273 53.568 
" style="fill:none;stroke:#ff0000;stroke-linecap:square;stroke-width:1.5;"/>
   </g>
   <g id="patch_3">
    <path d="M 57.6 307.584 
L 57.6 41.472 
" style="fill:none;stroke:#000000;stroke-linecap:square;stroke-linejoin:miter;stroke-width:0.8;"/>
   </g>
   <g id="patch_4">
    <path d="M 414.72 307.584 
L 414.72 41.472 
" style="fill:none;stroke:#000000;stroke-linecap:square;stroke-linejoin:miter;stroke-width:0.8;"/>
   </g>
   <g id="patch_5">
    <path d="M 57.6 307.584 
L 414.72 307.584 
" style="fill:none;stroke:#000000;stroke-linecap:square;stroke-linejoin:miter;stroke-width:0.8;"/>
   </g>
   <g id="patch_6">
    <path d="M 57.6 41.472 
L 414.72 41.472 
" style="fill:none;stroke:#000000;stroke-linecap:square;stroke-linejoin:miter;stroke-width:0.8;"/>
   </g>
  </g>
 </g>
 <defs>
  <clipPath id="p4a90c05686">
   <rect height="266.112" width="357.12" x="57.6" y="41.472"/>
  </clipPath>
 </defs>
</svg>
