<?xml version="1.0" encoding="utf-8" standalone="no"?>
<!DOCTYPE svg PUBLIC "-//W3C//DTD SVG 1.1//EN"
  "http://www.w3.org/Graphics/SVG/1.1/DTD/svg11.dtd">
<!-- Created with matplotlib (https://matplotlib.org/) -->
<svg height="345.6pt" version="1.1" viewBox="0 0 460.8 345.6" width="460.8pt" xmlns="http://www.w3.org/2000/svg" xmlns:xlink="http://www.w3.org/1999/xlink">
 <metadata>
  <rdf:RDF xmlns:cc="http://creativecommons.org/ns#" xmlns:dc="http://purl.org/dc/elements/1.1/" xmlns:rdf="http://www.w3.org/1999/02/22-rdf-syntax-ns#">
   <cc:Work>
    <dc:type rdf:resource="http://purl.org/dc/dcmitype/StillImage"/>
    <dc:date>2022-06-28T10:27:19.459234</dc:date>
    <dc:format>image/svg+xml</dc:format>
    <dc:creator>
     <cc:Agent>
      <dc:title>Matplotlib v3.3.2, https://matplotlib.org/</dc:title>
     </cc:Agent>
    </dc:creator>
   </cc:Work>
  </rdf:RDF>
 </metadata>
 <defs>
  <style type="text/css">*{stroke-linecap:butt;stroke-linejoin:round;}</style>
 </defs>
 <g id="figure_1">
  <g id="patch_1">
   <path d="M 0 345.6 
L 460.8 345.6 
L 460.8 0 
L 0 0 
z
" style="fill:#ffffff;"/>
  </g>
  <g id="axes_1">
   <g id="patch_2">
    <path d="M 57.6 307.584 
L 414.72 307.584 
L 414.72 41.472 
L 57.6 41.472 
z
" style="fill:#ffffff;"/>
   </g>
   <g id="PathCollection_1">
    <defs>
     <path d="M 0 3 
C 0.795609 3 1.55874 2.683901 2.12132 2.12132 
C 2.683901 1.55874 3 0.795609 3 0 
C 3 -0.795609 2.683901 -1.55874 2.12132 -2.12132 
C 1.55874 -2.683901 0.795609 -3 0 -3 
C -0.795609 -3 -1.55874 -2.683901 -2.12132 -2.12132 
C -2.683901 -1.55874 -3 -0.795609 -3 0 
C -3 0.795609 -2.683901 1.55874 -2.12132 2.12132 
C -1.55874 2.683901 -0.795609 3 0 3 
z
" id="mb3109ec936" style="stroke:#0000ff;"/>
    </defs>
    <g clip-path="url(#p4cc68f2453)">
     <use style="fill:#0000ff;stroke:#0000ff;" x="82.376268" xlink:href="#mb3109ec936" y="239.226402"/>
    </g>
   </g>
   <g id="PathCollection_2">
    <g clip-path="url(#p4cc68f2453)">
     <use style="fill:#0000ff;stroke:#0000ff;" x="99.463349" xlink:href="#mb3109ec936" y="173.556347"/>
    </g>
   </g>
   <g id="PathCollection_3">
    <g clip-path="url(#p4cc68f2453)">
     <use style="fill:#0000ff;stroke:#0000ff;" x="116.550431" xlink:href="#mb3109ec936" y="113.112422"/>
    </g>
   </g>
   <g id="PathCollection_4">
    <g clip-path="url(#p4cc68f2453)">
     <use style="fill:#0000ff;stroke:#0000ff;" x="133.637512" xlink:href="#mb3109ec936" y="79.963042"/>
    </g>
   </g>
   <g id="PathCollection_5">
    <g clip-path="url(#p4cc68f2453)">
     <use style="fill:#0000ff;stroke:#0000ff;" x="150.724593" xlink:href="#mb3109ec936" y="83.294022"/>
    </g>
   </g>
   <g id="PathCollection_6">
    <g clip-path="url(#p4cc68f2453)">
     <use style="fill:#0000ff;stroke:#0000ff;" x="167.811675" xlink:href="#mb3109ec936" y="119.928313"/>
    </g>
   </g>
   <g id="PathCollection_7">
    <g clip-path="url(#p4cc68f2453)">
     <use style="fill:#0000ff;stroke:#0000ff;" x="184.898756" xlink:href="#mb3109ec936" y="175.088281"/>
    </g>
   </g>
   <g id="PathCollection_8">
    <g clip-path="url(#p4cc68f2453)">
     <use style="fill:#0000ff;stroke:#0000ff;" x="201.985837" xlink:href="#mb3109ec936" y="228.169521"/>
    </g>
   </g>
   <g id="PathCollection_9">
    <g clip-path="url(#p4cc68f2453)">
     <use style="fill:#0000ff;stroke:#0000ff;" x="219.072919" xlink:href="#mb3109ec936" y="261.660357"/>
    </g>
   </g>
   <g id="PathCollection_10">
    <g clip-path="url(#p4cc68f2453)">
     <use style="fill:#0000ff;stroke:#0000ff;" x="231.889041" xlink:href="#mb3109ec936" y="269.737085"/>
    </g>
   </g>
   <g id="PathCollection_11">
    <defs>
     <path d="M 0 3 
C 0.795609 3 1.55874 2.683901 2.12132 2.12132 
C 2.683901 1.55874 3 0.795609 3 0 
C 3 -0.795609 2.683901 -1.55874 2.12132 -2.12132 
C 1.55874 -2.683901 0.795609 -3 0 -3 
C -0.795609 -3 -1.55874 -2.683901 -2.12132 -2.12132 
C -2.683901 -1.55874 -3 -0.795609 -3 0 
C -3 0.795609 -2.683901 1.55874 -2.12132 2.12132 
C -1.55874 2.683901 -0.795609 3 0 3 
z
" id="m37372cff21" style="stroke:#ffa500;"/>
    </defs>
    <g clip-path="url(#p4cc68f2453)">
     <use style="fill:#ffa500;stroke:#ffa500;" x="236.16" xlink:href="#m37372cff21" y="224.472589"/>
    </g>
   </g>
   <g id="PathCollection_12">
    <defs>
     <path d="M 0 3 
C 0.795609 3 1.55874 2.683901 2.12132 2.12132 
C 2.683901 1.55874 3 0.795609 3 0 
C 3 -0.795609 2.683901 -1.55874 2.12132 -2.12132 
C 1.55874 -2.683901 0.795609 -3 0 -3 
C -0.795609 -3 -1.55874 -2.683901 -2.12132 -2.12132 
C -2.683901 -1.55874 -3 -0.795609 -3 0 
C -3 0.795609 -2.683901 1.55874 -2.12132 2.12132 
C -1.55874 2.683901 -0.795609 3 0 3 
z
" id="m84207418fd" style="stroke:#ff0000;"/>
    </defs>
    <g clip-path="url(#p4cc68f2453)">
     <use style="fill:#ff0000;stroke:#ff0000;" x="240.432582" xlink:href="#m84207418fd" y="179.190889"/>
    </g>
   </g>
   <g id="PathCollection_13">
    <g clip-path="url(#p4cc68f2453)">
     <use style="fill:#ff0000;stroke:#ff0000;" x="253.247081" xlink:href="#m84207418fd" y="178.930503"/>
    </g>
   </g>
   <g id="PathCollection_14">
    <g clip-path="url(#p4cc68f2453)">
     <use style="fill:#ff0000;stroke:#ff0000;" x="270.334163" xlink:href="#m84207418fd" y="178.344743"/>
    </g>
   </g>
   <g id="PathCollection_15">
    <g clip-path="url(#p4cc68f2453)">
     <use style="fill:#ff0000;stroke:#ff0000;" x="287.421244" xlink:href="#m84207418fd" y="178.910709"/>
    </g>
   </g>
   <g id="PathCollection_16">
    <g clip-path="url(#p4cc68f2453)">
     <use style="fill:#ff0000;stroke:#ff0000;" x="304.508325" xlink:href="#m84207418fd" y="182.354974"/>
    </g>
   </g>
   <g id="PathCollection_17">
    <g clip-path="url(#p4cc68f2453)">
     <use style="fill:#ff0000;stroke:#ff0000;" x="321.595407" xlink:href="#m84207418fd" y="190.098131"/>
    </g>
   </g>
   <g id="PathCollection_18">
    <g clip-path="url(#p4cc68f2453)">
     <use style="fill:#ff0000;stroke:#ff0000;" x="338.682488" xlink:href="#m84207418fd" y="202.799845"/>
    </g>
   </g>
   <g id="PathCollection_19">
    <g clip-path="url(#p4cc68f2453)">
     <use style="fill:#ff0000;stroke:#ff0000;" x="355.769569" xlink:href="#m84207418fd" y="220.216664"/>
    </g>
   </g>
   <g id="PathCollection_20">
    <g clip-path="url(#p4cc68f2453)">
     <use style="fill:#ff0000;stroke:#ff0000;" x="372.856651" xlink:href="#m84207418fd" y="241.421624"/>
    </g>
   </g>
   <g id="PathCollection_21">
    <g clip-path="url(#p4cc68f2453)">
     <use style="fill:#ff0000;stroke:#ff0000;" x="389.943732" xlink:href="#m84207418fd" y="265.217463"/>
    </g>
   </g>
   <g id="PathCollection_22">
    <g clip-path="url(#p4cc68f2453)">
     <use style="fill:#0000ff;stroke:#0000ff;" x="82.376268" xlink:href="#mb3109ec936" y="239.226402"/>
    </g>
   </g>
   <g id="PathCollection_23">
    <g clip-path="url(#p4cc68f2453)">
     <use style="fill:#0000ff;stroke:#0000ff;" x="99.463349" xlink:href="#mb3109ec936" y="173.556347"/>
    </g>
   </g>
   <g id="PathCollection_24">
    <g clip-path="url(#p4cc68f2453)">
     <use style="fill:#0000ff;stroke:#0000ff;" x="116.550431" xlink:href="#mb3109ec936" y="113.112422"/>
    </g>
   </g>
   <g id="PathCollection_25">
    <g clip-path="url(#p4cc68f2453)">
     <use style="fill:#0000ff;stroke:#0000ff;" x="133.637512" xlink:href="#mb3109ec936" y="79.963042"/>
    </g>
   </g>
   <g id="PathCollection_26">
    <g clip-path="url(#p4cc68f2453)">
     <use style="fill:#0000ff;stroke:#0000ff;" x="150.724593" xlink:href="#mb3109ec936" y="83.294022"/>
    </g>
   </g>
   <g id="PathCollection_27">
    <g clip-path="url(#p4cc68f2453)">
     <use style="fill:#0000ff;stroke:#0000ff;" x="167.811675" xlink:href="#mb3109ec936" y="119.928313"/>
    </g>
   </g>
   <g id="PathCollection_28">
    <g clip-path="url(#p4cc68f2453)">
     <use style="fill:#0000ff;stroke:#0000ff;" x="184.898756" xlink:href="#mb3109ec936" y="175.088281"/>
    </g>
   </g>
   <g id="PathCollection_29">
    <g clip-path="url(#p4cc68f2453)">
     <use style="fill:#0000ff;stroke:#0000ff;" x="201.985837" xlink:href="#mb3109ec936" y="228.169521"/>
    </g>
   </g>
   <g id="PathCollection_30">
    <g clip-path="url(#p4cc68f2453)">
     <use style="fill:#0000ff;stroke:#0000ff;" x="219.072919" xlink:href="#mb3109ec936" y="261.660357"/>
    </g>
   </g>
   <g id="PathCollection_31">
    <g clip-path="url(#p4cc68f2453)">
     <use style="fill:#0000ff;stroke:#0000ff;" x="231.889041" xlink:href="#mb3109ec936" y="269.737085"/>
    </g>
   </g>
   <g id="PathCollection_32">
    <g clip-path="url(#p4cc68f2453)">
     <use style="fill:#ffa500;stroke:#ffa500;" x="236.16" xlink:href="#m37372cff21" y="224.472589"/>
    </g>
   </g>
   <g id="PathCollection_33">
    <g clip-path="url(#p4cc68f2453)">
     <use style="fill:#ff0000;stroke:#ff0000;" x="240.432582" xlink:href="#m84207418fd" y="179.190889"/>
    </g>
   </g>
   <g id="PathCollection_34">
    <g clip-path="url(#p4cc68f2453)">
     <use style="fill:#ff0000;stroke:#ff0000;" x="253.247081" xlink:href="#m84207418fd" y="178.930503"/>
    </g>
   </g>
   <g id="PathCollection_35">
    <g clip-path="url(#p4cc68f2453)">
     <use style="fill:#ff0000;stroke:#ff0000;" x="270.334163" xlink:href="#m84207418fd" y="178.344743"/>
    </g>
   </g>
   <g id="PathCollection_36">
    <g clip-path="url(#p4cc68f2453)">
     <use style="fill:#ff0000;stroke:#ff0000;" x="287.421244" xlink:href="#m84207418fd" y="178.910709"/>
    </g>
   </g>
   <g id="PathCollection_37">
    <g clip-path="url(#p4cc68f2453)">
     <use style="fill:#ff0000;stroke:#ff0000;" x="304.508325" xlink:href="#m84207418fd" y="182.354974"/>
    </g>
   </g>
   <g id="PathCollection_38">
    <g clip-path="url(#p4cc68f2453)">
     <use style="fill:#ff0000;stroke:#ff0000;" x="321.595407" xlink:href="#m84207418fd" y="190.098131"/>
    </g>
   </g>
   <g id="PathCollection_39">
    <g clip-path="url(#p4cc68f2453)">
     <use style="fill:#ff0000;stroke:#ff0000;" x="338.682488" xlink:href="#m84207418fd" y="202.799845"/>
    </g>
   </g>
   <g id="PathCollection_40">
    <g clip-path="url(#p4cc68f2453)">
     <use style="fill:#ff0000;stroke:#ff0000;" x="355.769569" xlink:href="#m84207418fd" y="220.216664"/>
    </g>
   </g>
   <g id="PathCollection_41">
    <g clip-path="url(#p4cc68f2453)">
     <use style="fill:#ff0000;stroke:#ff0000;" x="372.856651" xlink:href="#m84207418fd" y="241.421624"/>
    </g>
   </g>
   <g id="PathCollection_42">
    <g clip-path="url(#p4cc68f2453)">
     <use style="fill:#ff0000;stroke:#ff0000;" x="389.943732" xlink:href="#m84207418fd" y="265.217463"/>
    </g>
   </g>
   <g id="matplotlib.axis_1">
    <g id="xtick_1">
     <g id="line2d_1">
      <defs>
       <path d="M 0 0 
L 0 3.5 
" id="m808599c052" style="stroke:#000000;stroke-width:0.8;"/>
      </defs>
      <g>
       <use style="stroke:#000000;stroke-width:0.8;" x="73.832727" xlink:href="#m808599c052" y="307.584"/>
      </g>
     </g>
     <g id="text_1">
      <!-- −1.00 -->
      <g transform="translate(58.510071 322.182437)scale(0.1 -0.1)">
       <defs>
        <path d="M 10.59375 35.5 
L 73.1875 35.5 
L 73.1875 27.203125 
L 10.59375 27.203125 
z
" id="DejaVuSans-8722"/>
        <path d="M 12.40625 8.296875 
L 28.515625 8.296875 
L 28.515625 63.921875 
L 10.984375 60.40625 
L 10.984375 69.390625 
L 28.421875 72.90625 
L 38.28125 72.90625 
L 38.28125 8.296875 
L 54.390625 8.296875 
L 54.390625 0 
L 12.40625 0 
z
" id="DejaVuSans-49"/>
        <path d="M 10.6875 12.40625 
L 21 12.40625 
L 21 0 
L 10.6875 0 
z
" id="DejaVuSans-46"/>
        <path d="M 31.78125 66.40625 
Q 24.171875 66.40625 20.328125 58.90625 
Q 16.5 51.421875 16.5 36.375 
Q 16.5 21.390625 20.328125 13.890625 
Q 24.171875 6.390625 31.78125 6.390625 
Q 39.453125 6.390625 43.28125 13.890625 
Q 47.125 21.390625 47.125 36.375 
Q 47.125 51.421875 43.28125 58.90625 
Q 39.453125 66.40625 31.78125 66.40625 
z
M 31.78125 74.21875 
Q 44.046875 74.21875 50.515625 64.515625 
Q 56.984375 54.828125 56.984375 36.375 
Q 56.984375 17.96875 50.515625 8.265625 
Q 44.046875 -1.421875 31.78125 -1.421875 
Q 19.53125 -1.421875 13.0625 8.265625 
Q 6.59375 17.96875 6.59375 36.375 
Q 6.59375 54.828125 13.0625 64.515625 
Q 19.53125 74.21875 31.78125 74.21875 
z
" id="DejaVuSans-48"/>
       </defs>
       <use xlink:href="#DejaVuSans-8722"/>
       <use x="83.789062" xlink:href="#DejaVuSans-49"/>
       <use x="147.412109" xlink:href="#DejaVuSans-46"/>
       <use x="179.199219" xlink:href="#DejaVuSans-48"/>
       <use x="242.822266" xlink:href="#DejaVuSans-48"/>
      </g>
     </g>
    </g>
    <g id="xtick_2">
     <g id="line2d_2">
      <g>
       <use style="stroke:#000000;stroke-width:0.8;" x="114.414545" xlink:href="#m808599c052" y="307.584"/>
      </g>
     </g>
     <g id="text_2">
      <!-- −0.75 -->
      <g transform="translate(99.091889 322.182437)scale(0.1 -0.1)">
       <defs>
        <path d="M 8.203125 72.90625 
L 55.078125 72.90625 
L 55.078125 68.703125 
L 28.609375 0 
L 18.3125 0 
L 43.21875 64.59375 
L 8.203125 64.59375 
z
" id="DejaVuSans-55"/>
        <path d="M 10.796875 72.90625 
L 49.515625 72.90625 
L 49.515625 64.59375 
L 19.828125 64.59375 
L 19.828125 46.734375 
Q 21.96875 47.46875 24.109375 47.828125 
Q 26.265625 48.1875 28.421875 48.1875 
Q 40.625 48.1875 47.75 41.5 
Q 54.890625 34.8125 54.890625 23.390625 
Q 54.890625 11.625 47.5625 5.09375 
Q 40.234375 -1.421875 26.90625 -1.421875 
Q 22.3125 -1.421875 17.546875 -0.640625 
Q 12.796875 0.140625 7.71875 1.703125 
L 7.71875 11.625 
Q 12.109375 9.234375 16.796875 8.0625 
Q 21.484375 6.890625 26.703125 6.890625 
Q 35.15625 6.890625 40.078125 11.328125 
Q 45.015625 15.765625 45.015625 23.390625 
Q 45.015625 31 40.078125 35.4375 
Q 35.15625 39.890625 26.703125 39.890625 
Q 22.75 39.890625 18.8125 39.015625 
Q 14.890625 38.140625 10.796875 36.28125 
z
" id="DejaVuSans-53"/>
       </defs>
       <use xlink:href="#DejaVuSans-8722"/>
       <use x="83.789062" xlink:href="#DejaVuSans-48"/>
       <use x="147.412109" xlink:href="#DejaVuSans-46"/>
       <use x="179.199219" xlink:href="#DejaVuSans-55"/>
       <use x="242.822266" xlink:href="#DejaVuSans-53"/>
      </g>
     </g>
    </g>
    <g id="xtick_3">
     <g id="line2d_3">
      <g>
       <use style="stroke:#000000;stroke-width:0.8;" x="154.996364" xlink:href="#m808599c052" y="307.584"/>
      </g>
     </g>
     <g id="text_3">
      <!-- −0.50 -->
      <g transform="translate(139.673707 322.182437)scale(0.1 -0.1)">
       <use xlink:href="#DejaVuSans-8722"/>
       <use x="83.789062" xlink:href="#DejaVuSans-48"/>
       <use x="147.412109" xlink:href="#DejaVuSans-46"/>
       <use x="179.199219" xlink:href="#DejaVuSans-53"/>
       <use x="242.822266" xlink:href="#DejaVuSans-48"/>
      </g>
     </g>
    </g>
    <g id="xtick_4">
     <g id="line2d_4">
      <g>
       <use style="stroke:#000000;stroke-width:0.8;" x="195.578182" xlink:href="#m808599c052" y="307.584"/>
      </g>
     </g>
     <g id="text_4">
      <!-- −0.25 -->
      <g transform="translate(180.255526 322.182437)scale(0.1 -0.1)">
       <defs>
        <path d="M 19.1875 8.296875 
L 53.609375 8.296875 
L 53.609375 0 
L 7.328125 0 
L 7.328125 8.296875 
Q 12.9375 14.109375 22.625 23.890625 
Q 32.328125 33.6875 34.8125 36.53125 
Q 39.546875 41.84375 41.421875 45.53125 
Q 43.3125 49.21875 43.3125 52.78125 
Q 43.3125 58.59375 39.234375 62.25 
Q 35.15625 65.921875 28.609375 65.921875 
Q 23.96875 65.921875 18.8125 64.3125 
Q 13.671875 62.703125 7.8125 59.421875 
L 7.8125 69.390625 
Q 13.765625 71.78125 18.9375 73 
Q 24.125 74.21875 28.421875 74.21875 
Q 39.75 74.21875 46.484375 68.546875 
Q 53.21875 62.890625 53.21875 53.421875 
Q 53.21875 48.921875 51.53125 44.890625 
Q 49.859375 40.875 45.40625 35.40625 
Q 44.1875 33.984375 37.640625 27.21875 
Q 31.109375 20.453125 19.1875 8.296875 
z
" id="DejaVuSans-50"/>
       </defs>
       <use xlink:href="#DejaVuSans-8722"/>
       <use x="83.789062" xlink:href="#DejaVuSans-48"/>
       <use x="147.412109" xlink:href="#DejaVuSans-46"/>
       <use x="179.199219" xlink:href="#DejaVuSans-50"/>
       <use x="242.822266" xlink:href="#DejaVuSans-53"/>
      </g>
     </g>
    </g>
    <g id="xtick_5">
     <g id="line2d_5">
      <g>
       <use style="stroke:#000000;stroke-width:0.8;" x="236.16" xlink:href="#m808599c052" y="307.584"/>
      </g>
     </g>
     <g id="text_5">
      <!-- 0.00 -->
      <g transform="translate(225.027187 322.182437)scale(0.1 -0.1)">
       <use xlink:href="#DejaVuSans-48"/>
       <use x="63.623047" xlink:href="#DejaVuSans-46"/>
       <use x="95.410156" xlink:href="#DejaVuSans-48"/>
       <use x="159.033203" xlink:href="#DejaVuSans-48"/>
      </g>
     </g>
    </g>
    <g id="xtick_6">
     <g id="line2d_6">
      <g>
       <use style="stroke:#000000;stroke-width:0.8;" x="276.741818" xlink:href="#m808599c052" y="307.584"/>
      </g>
     </g>
     <g id="text_6">
      <!-- 0.25 -->
      <g transform="translate(265.609006 322.182437)scale(0.1 -0.1)">
       <use xlink:href="#DejaVuSans-48"/>
       <use x="63.623047" xlink:href="#DejaVuSans-46"/>
       <use x="95.410156" xlink:href="#DejaVuSans-50"/>
       <use x="159.033203" xlink:href="#DejaVuSans-53"/>
      </g>
     </g>
    </g>
    <g id="xtick_7">
     <g id="line2d_7">
      <g>
       <use style="stroke:#000000;stroke-width:0.8;" x="317.323636" xlink:href="#m808599c052" y="307.584"/>
      </g>
     </g>
     <g id="text_7">
      <!-- 0.50 -->
      <g transform="translate(306.190824 322.182437)scale(0.1 -0.1)">
       <use xlink:href="#DejaVuSans-48"/>
       <use x="63.623047" xlink:href="#DejaVuSans-46"/>
       <use x="95.410156" xlink:href="#DejaVuSans-53"/>
       <use x="159.033203" xlink:href="#DejaVuSans-48"/>
      </g>
     </g>
    </g>
    <g id="xtick_8">
     <g id="line2d_8">
      <g>
       <use style="stroke:#000000;stroke-width:0.8;" x="357.905455" xlink:href="#m808599c052" y="307.584"/>
      </g>
     </g>
     <g id="text_8">
      <!-- 0.75 -->
      <g transform="translate(346.772642 322.182437)scale(0.1 -0.1)">
       <use xlink:href="#DejaVuSans-48"/>
       <use x="63.623047" xlink:href="#DejaVuSans-46"/>
       <use x="95.410156" xlink:href="#DejaVuSans-55"/>
       <use x="159.033203" xlink:href="#DejaVuSans-53"/>
      </g>
     </g>
    </g>
    <g id="xtick_9">
     <g id="line2d_9">
      <g>
       <use style="stroke:#000000;stroke-width:0.8;" x="398.487273" xlink:href="#m808599c052" y="307.584"/>
      </g>
     </g>
     <g id="text_9">
      <!-- 1.00 -->
      <g transform="translate(387.35446 322.182437)scale(0.1 -0.1)">
       <use xlink:href="#DejaVuSans-49"/>
       <use x="63.623047" xlink:href="#DejaVuSans-46"/>
       <use x="95.410156" xlink:href="#DejaVuSans-48"/>
       <use x="159.033203" xlink:href="#DejaVuSans-48"/>
      </g>
     </g>
    </g>
   </g>
   <g id="matplotlib.axis_2">
    <g id="ytick_1">
     <g id="line2d_10">
      <defs>
       <path d="M 0 0 
L -3.5 0 
" id="m3d07281a8b" style="stroke:#000000;stroke-width:0.8;"/>
      </defs>
      <g>
       <use style="stroke:#000000;stroke-width:0.8;" x="57.6" xlink:href="#m3d07281a8b" y="295.488369"/>
      </g>
     </g>
     <g id="text_10">
      <!-- 0.00 -->
      <g transform="translate(28.334375 299.287587)scale(0.1 -0.1)">
       <use xlink:href="#DejaVuSans-48"/>
       <use x="63.623047" xlink:href="#DejaVuSans-46"/>
       <use x="95.410156" xlink:href="#DejaVuSans-48"/>
       <use x="159.033203" xlink:href="#DejaVuSans-48"/>
      </g>
     </g>
    </g>
    <g id="ytick_2">
     <g id="line2d_11">
      <g>
       <use style="stroke:#000000;stroke-width:0.8;" x="57.6" xlink:href="#m3d07281a8b" y="265.248305"/>
      </g>
     </g>
     <g id="text_11">
      <!-- 0.25 -->
      <g transform="translate(28.334375 269.047524)scale(0.1 -0.1)">
       <use xlink:href="#DejaVuSans-48"/>
       <use x="63.623047" xlink:href="#DejaVuSans-46"/>
       <use x="95.410156" xlink:href="#DejaVuSans-50"/>
       <use x="159.033203" xlink:href="#DejaVuSans-53"/>
      </g>
     </g>
    </g>
    <g id="ytick_3">
     <g id="line2d_12">
      <g>
       <use style="stroke:#000000;stroke-width:0.8;" x="57.6" xlink:href="#m3d07281a8b" y="235.008242"/>
      </g>
     </g>
     <g id="text_12">
      <!-- 0.50 -->
      <g transform="translate(28.334375 238.807461)scale(0.1 -0.1)">
       <use xlink:href="#DejaVuSans-48"/>
       <use x="63.623047" xlink:href="#DejaVuSans-46"/>
       <use x="95.410156" xlink:href="#DejaVuSans-53"/>
       <use x="159.033203" xlink:href="#DejaVuSans-48"/>
      </g>
     </g>
    </g>
    <g id="ytick_4">
     <g id="line2d_13">
      <g>
       <use style="stroke:#000000;stroke-width:0.8;" x="57.6" xlink:href="#m3d07281a8b" y="204.768178"/>
      </g>
     </g>
     <g id="text_13">
      <!-- 0.75 -->
      <g transform="translate(28.334375 208.567397)scale(0.1 -0.1)">
       <use xlink:href="#DejaVuSans-48"/>
       <use x="63.623047" xlink:href="#DejaVuSans-46"/>
       <use x="95.410156" xlink:href="#DejaVuSans-55"/>
       <use x="159.033203" xlink:href="#DejaVuSans-53"/>
      </g>
     </g>
    </g>
    <g id="ytick_5">
     <g id="line2d_14">
      <g>
       <use style="stroke:#000000;stroke-width:0.8;" x="57.6" xlink:href="#m3d07281a8b" y="174.528115"/>
      </g>
     </g>
     <g id="text_14">
      <!-- 1.00 -->
      <g transform="translate(28.334375 178.327334)scale(0.1 -0.1)">
       <use xlink:href="#DejaVuSans-49"/>
       <use x="63.623047" xlink:href="#DejaVuSans-46"/>
       <use x="95.410156" xlink:href="#DejaVuSans-48"/>
       <use x="159.033203" xlink:href="#DejaVuSans-48"/>
      </g>
     </g>
    </g>
    <g id="ytick_6">
     <g id="line2d_15">
      <g>
       <use style="stroke:#000000;stroke-width:0.8;" x="57.6" xlink:href="#m3d07281a8b" y="144.288052"/>
      </g>
     </g>
     <g id="text_15">
      <!-- 1.25 -->
      <g transform="translate(28.334375 148.087271)scale(0.1 -0.1)">
       <use xlink:href="#DejaVuSans-49"/>
       <use x="63.623047" xlink:href="#DejaVuSans-46"/>
       <use x="95.410156" xlink:href="#DejaVuSans-50"/>
       <use x="159.033203" xlink:href="#DejaVuSans-53"/>
      </g>
     </g>
    </g>
    <g id="ytick_7">
     <g id="line2d_16">
      <g>
       <use style="stroke:#000000;stroke-width:0.8;" x="57.6" xlink:href="#m3d07281a8b" y="114.047988"/>
      </g>
     </g>
     <g id="text_16">
      <!-- 1.50 -->
      <g transform="translate(28.334375 117.847207)scale(0.1 -0.1)">
       <use xlink:href="#DejaVuSans-49"/>
       <use x="63.623047" xlink:href="#DejaVuSans-46"/>
       <use x="95.410156" xlink:href="#DejaVuSans-53"/>
       <use x="159.033203" xlink:href="#DejaVuSans-48"/>
      </g>
     </g>
    </g>
    <g id="ytick_8">
     <g id="line2d_17">
      <g>
       <use style="stroke:#000000;stroke-width:0.8;" x="57.6" xlink:href="#m3d07281a8b" y="83.807925"/>
      </g>
     </g>
     <g id="text_17">
      <!-- 1.75 -->
      <g transform="translate(28.334375 87.607144)scale(0.1 -0.1)">
       <use xlink:href="#DejaVuSans-49"/>
       <use x="63.623047" xlink:href="#DejaVuSans-46"/>
       <use x="95.410156" xlink:href="#DejaVuSans-55"/>
       <use x="159.033203" xlink:href="#DejaVuSans-53"/>
      </g>
     </g>
    </g>
    <g id="ytick_9">
     <g id="line2d_18">
      <g>
       <use style="stroke:#000000;stroke-width:0.8;" x="57.6" xlink:href="#m3d07281a8b" y="53.567862"/>
      </g>
     </g>
     <g id="text_18">
      <!-- 2.00 -->
      <g transform="translate(28.334375 57.367081)scale(0.1 -0.1)">
       <use xlink:href="#DejaVuSans-50"/>
       <use x="63.623047" xlink:href="#DejaVuSans-46"/>
       <use x="95.410156" xlink:href="#DejaVuSans-48"/>
       <use x="159.033203" xlink:href="#DejaVuSans-48"/>
      </g>
     </g>
    </g>
   </g>
   <g id="line2d_19">
    <path clip-path="url(#p4cc68f2453)" d="M 73.832727 276.312659 
L 75.944037 270.907805 
L 78.217756 264.432125 
L 80.653883 256.790958 
L 83.252419 247.907319 
L 86.175772 237.10902 
L 89.58635 223.597742 
L 93.646561 206.516082 
L 99.16845 182.207765 
L 109.075367 138.475661 
L 113.135579 121.617819 
L 116.546157 108.361537 
L 119.469509 97.827277 
L 122.230453 88.69778 
L 124.666581 81.381133 
L 126.940299 75.232101 
L 129.051609 70.149047 
L 131.000511 66.020282 
L 132.787004 62.729535 
L 134.411089 60.160478 
L 136.035174 58.003432 
L 137.49685 56.420815 
L 138.796118 55.303269 
L 140.095386 54.460638 
L 141.394654 53.894867 
L 142.531513 53.62797 
L 143.668372 53.574522 
L 144.805232 53.734619 
L 145.942091 54.107977 
L 147.07895 54.693938 
L 148.378218 55.622593 
L 149.677486 56.825427 
L 151.139162 58.502869 
L 152.600839 60.518896 
L 154.224923 63.148845 
L 156.011417 66.504819 
L 157.79791 70.331643 
L 159.746812 75.023709 
L 161.858122 80.688382 
L 164.13184 87.426534 
L 166.567968 95.326923 
L 169.328912 105.052824 
L 172.414673 116.773466 
L 175.987659 131.271822 
L 180.372688 150.067599 
L 187.843478 183.29179 
L 194.177409 211.039839 
L 198.237621 227.870928 
L 201.648199 241.097192 
L 204.571551 251.600617 
L 207.332495 260.697006 
L 209.768622 267.981501 
L 212.042341 274.098279 
L 214.153651 279.149645 
L 216.102553 283.247846 
L 217.889046 286.509606 
L 219.513131 289.051617 
L 221.137216 291.181054 
L 222.598892 292.738425 
L 223.89816 293.833276 
L 225.197428 294.653026 
L 226.496696 295.195784 
L 227.633555 295.442478 
L 228.770414 295.475698 
L 229.907274 295.295383 
L 231.044133 294.901854 
L 232.343401 294.191934 
L 233.642669 293.206086 
L 234.941936 291.946583 
L 236.078796 290.622303 
L 236.241204 193.638488 
L 240.463825 190.382961 
L 244.524037 187.520774 
L 248.584248 184.92872 
L 252.482052 182.700515 
L 256.379855 180.732383 
L 260.11525 179.094506 
L 263.850645 177.703122 
L 267.423632 176.605605 
L 270.996618 175.738439 
L 274.569605 175.103302 
L 278.142591 174.701427 
L 281.553169 174.536137 
L 284.963747 174.584388 
L 288.374325 174.846097 
L 291.947312 175.348704 
L 295.520298 176.084098 
L 299.093285 177.050852 
L 302.666271 178.247093 
L 306.401666 179.740559 
L 310.137061 181.479149 
L 313.872456 183.459182 
L 317.77026 185.778178 
L 321.830472 188.462721 
L 325.890684 191.41504 
L 330.113304 194.761562 
L 334.498333 198.525168 
L 339.04577 202.726889 
L 343.755616 207.385393 
L 348.62787 212.516445 
L 353.824942 218.318558 
L 359.34683 224.829302 
L 365.193535 232.078704 
L 371.365057 240.086886 
L 378.186213 249.308576 
L 385.819412 260.011436 
L 394.914286 273.165072 
L 398.487273 278.418457 
L 398.487273 278.418457 
" style="fill:none;stroke:#ff00ff;stroke-linecap:square;stroke-width:1.5;"/>
   </g>
   <g id="line2d_20">
    <path clip-path="url(#p4cc68f2453)" d="M 73.832727 263.902943 
L 74.005324 263.485587 
L 74.177921 263.065734 
L 74.350518 262.643384 
L 74.523114 262.218537 
L 74.695711 261.791192 
L 74.868308 261.36135 
L 75.040905 260.929011 
L 75.213502 260.494175 
L 75.386098 260.056841 
L 75.558695 259.61701 
L 75.731292 259.174682 
L 75.903889 258.729857 
L 76.076485 258.282534 
L 76.249082 257.832715 
L 76.421679 257.380398 
L 76.594276 256.925583 
L 76.766873 256.468272 
L 76.939469 256.008463 
L 77.112066 255.546157 
L 77.284663 255.081354 
L 77.45726 254.614054 
L 77.629856 254.144256 
L 77.802453 253.671961 
L 77.97505 253.197169 
L 78.147647 252.719879 
L 78.320244 252.240093 
L 78.49284 251.757809 
L 78.665437 251.273028 
L 78.838034 250.785749 
L 79.010631 250.295974 
L 79.183227 249.803701 
L 79.355824 249.308931 
L 79.528421 248.811663 
L 79.701018 248.311899 
L 79.873615 247.809637 
L 80.046211 247.304878 
L 80.218808 246.797621 
L 80.391405 246.287868 
L 80.564002 245.775617 
L 80.736599 245.260869 
L 80.909195 244.743624 
L 81.081792 244.223881 
L 81.254389 243.701641 
L 81.426986 243.176904 
L 81.599582 242.64967 
L 81.772179 242.119939 
L 81.944776 241.58771 
L 82.117373 241.052984 
L 82.28997 240.515761 
L 82.462566 239.97604 
L 82.635163 239.433823 
L 82.80776 238.889108 
L 82.980357 238.341896 
L 83.152953 237.792186 
L 83.32555 237.23998 
L 83.498147 236.685276 
L 83.670744 236.128074 
L 83.843341 235.568376 
L 84.015937 235.00618 
L 84.188534 234.441488 
L 84.361131 233.874297 
L 84.533728 233.30461 
L 84.706324 232.732426 
L 84.878921 232.157744 
L 85.051518 231.580565 
L 85.224115 231.000888 
L 85.396712 230.418715 
L 85.569308 229.834044 
L 85.741905 229.246876 
L 85.914502 228.657211 
L 86.087099 228.065048 
L 86.259696 227.470388 
L 86.432292 226.873231 
L 86.604889 226.273577 
L 86.777486 225.671426 
L 86.950083 225.066777 
L 87.122679 224.459631 
L 87.295276 223.849988 
L 87.467873 223.237847 
L 87.64047 222.62321 
L 87.813067 222.006075 
L 87.985663 221.386443 
L 88.15826 220.764313 
L 88.330857 220.139687 
L 88.503454 219.512563 
L 88.67605 218.882942 
L 88.848647 218.250823 
L 89.021244 217.616208 
L 89.193841 216.979095 
L 89.366438 216.339485 
L 89.539034 215.697377 
L 89.711631 215.052773 
L 89.884228 214.405671 
L 90.056825 213.756072 
L 90.229421 213.103975 
L 90.402018 212.449382 
L 90.574615 211.792291 
L 90.747212 211.132703 
L 90.919809 210.470618 
" style="fill:none;stroke:#0000ff;stroke-linecap:square;stroke-width:1.5;"/>
   </g>
   <g id="line2d_21">
    <path clip-path="url(#p4cc68f2453)" d="M 90.919809 205.520353 
L 91.092405 204.857285 
L 91.265002 204.194751 
L 91.437599 203.53275 
L 91.610196 202.871283 
L 91.782793 202.210348 
L 91.955389 201.549947 
L 92.127986 200.890079 
L 92.300583 200.230745 
L 92.47318 199.571943 
L 92.645776 198.913675 
L 92.818373 198.25594 
L 92.99097 197.598738 
L 93.163567 196.942069 
L 93.336164 196.285934 
L 93.50876 195.630332 
L 93.681357 194.975263 
L 93.853954 194.320727 
L 94.026551 193.666725 
L 94.199147 193.013256 
L 94.371744 192.36032 
L 94.544341 191.707917 
L 94.716938 191.056047 
L 94.889535 190.404711 
L 95.062131 189.753908 
L 95.234728 189.103638 
L 95.407325 188.453901 
L 95.579922 187.804698 
L 95.752518 187.156028 
L 95.925115 186.507891 
L 96.097712 185.860287 
L 96.270309 185.213216 
L 96.442906 184.566679 
L 96.615502 183.920675 
L 96.788099 183.275204 
L 96.960696 182.630266 
L 97.133293 181.985862 
L 97.30589 181.341991 
L 97.478486 180.698653 
L 97.651083 180.055848 
L 97.82368 179.413576 
L 97.996277 178.771838 
L 98.168873 178.130633 
L 98.34147 177.489961 
L 98.514067 176.849822 
L 98.686664 176.210217 
L 98.859261 175.571145 
L 99.031857 174.932606 
L 99.204454 174.2946 
L 99.377051 173.657128 
L 99.549648 173.020188 
L 99.722244 172.383782 
L 99.894841 171.747909 
L 100.067438 171.11257 
L 100.240035 170.477763 
L 100.412632 169.84349 
L 100.585228 169.20975 
L 100.757825 168.576544 
L 100.930422 167.94387 
L 101.103019 167.31173 
L 101.275615 166.680123 
L 101.448212 166.049049 
L 101.620809 165.418508 
L 101.793406 164.788501 
L 101.966003 164.159027 
L 102.138599 163.530086 
L 102.311196 162.901678 
L 102.483793 162.273804 
L 102.65639 161.646462 
L 102.828987 161.019654 
L 103.001583 160.39338 
L 103.17418 159.767638 
L 103.346777 159.14243 
L 103.519374 158.517755 
L 103.69197 157.893613 
L 103.864567 157.270004 
L 104.037164 156.646928 
L 104.209761 156.024386 
L 104.382358 155.402377 
L 104.554954 154.780901 
L 104.727551 154.159959 
L 104.900148 153.53955 
L 105.072745 152.919673 
L 105.245341 152.300331 
L 105.417938 151.681521 
L 105.590535 151.063244 
L 105.763132 150.445501 
L 105.935729 149.828291 
L 106.108325 149.211614 
L 106.280922 148.595471 
L 106.453519 147.979861 
L 106.626116 147.364783 
L 106.798712 146.75024 
L 106.971309 146.136229 
L 107.143906 145.522752 
L 107.316503 144.909807 
L 107.4891 144.297396 
L 107.661696 143.685519 
L 107.834293 143.074174 
L 108.00689 142.463363 
" style="fill:none;stroke:#0000ff;stroke-linecap:square;stroke-width:1.5;"/>
   </g>
   <g id="line2d_22">
    <path clip-path="url(#p4cc68f2453)" d="M 108.00689 138.785294 
L 108.179487 138.176141 
L 108.352084 137.569774 
L 108.52468 136.966192 
L 108.697277 136.365394 
L 108.869874 135.767381 
L 109.042471 135.172153 
L 109.215067 134.57971 
L 109.387664 133.990052 
L 109.560261 133.403179 
L 109.732858 132.81909 
L 109.905455 132.237787 
L 110.078051 131.659268 
L 110.250648 131.083534 
L 110.423245 130.510586 
L 110.595842 129.940422 
L 110.768438 129.373042 
L 110.941035 128.808448 
L 111.113632 128.246639 
L 111.286229 127.687614 
L 111.458826 127.131374 
L 111.631422 126.57792 
L 111.804019 126.02725 
L 111.976616 125.479365 
L 112.149213 124.934265 
L 112.321809 124.391949 
L 112.494406 123.852419 
L 112.667003 123.315673 
L 112.8396 122.781713 
L 113.012197 122.250537 
L 113.184793 121.722146 
L 113.35739 121.19654 
L 113.529987 120.673719 
L 113.702584 120.153682 
L 113.875181 119.636431 
L 114.047777 119.121964 
L 114.220374 118.610283 
L 114.392971 118.101386 
L 114.565568 117.595274 
L 114.738164 117.091947 
L 114.910761 116.591405 
L 115.083358 116.093647 
L 115.255955 115.598675 
L 115.428552 115.106487 
L 115.601148 114.617085 
L 115.773745 114.130467 
L 115.946342 113.646634 
L 116.118939 113.165586 
L 116.291535 112.687323 
L 116.464132 112.211844 
L 116.636729 111.739151 
L 116.809326 111.269242 
L 116.981923 110.802119 
L 117.154519 110.33778 
L 117.327116 109.876226 
L 117.499713 109.417457 
L 117.67231 108.961472 
L 117.844906 108.508273 
L 118.017503 108.057859 
L 118.1901 107.610229 
L 118.362697 107.165384 
L 118.535294 106.723324 
L 118.70789 106.284049 
L 118.880487 105.847559 
L 119.053084 105.413854 
L 119.225681 104.982934 
L 119.398278 104.554798 
L 119.570874 104.129448 
L 119.743471 103.706882 
L 119.916068 103.287101 
L 120.088665 102.870105 
L 120.261261 102.455894 
L 120.433858 102.044468 
L 120.606455 101.635826 
L 120.779052 101.22997 
L 120.951649 100.826898 
L 121.124245 100.426611 
L 121.296842 100.02911 
L 121.469439 99.634393 
L 121.642036 99.24246 
L 121.814632 98.853313 
L 121.987229 98.466951 
L 122.159826 98.083373 
L 122.332423 97.702581 
L 122.50502 97.324573 
L 122.677616 96.94935 
L 122.850213 96.576912 
L 123.02281 96.207259 
L 123.195407 95.840391 
L 123.368003 95.476307 
L 123.5406 95.115009 
L 123.713197 94.756495 
L 123.885794 94.400766 
L 124.058391 94.047822 
L 124.230987 93.697663 
L 124.403584 93.350289 
L 124.576181 93.0057 
L 124.748778 92.663895 
L 124.921374 92.324876 
L 125.093971 91.988641 
" style="fill:none;stroke:#0000ff;stroke-linecap:square;stroke-width:1.5;"/>
   </g>
   <g id="line2d_23">
    <path clip-path="url(#p4cc68f2453)" d="M 125.093971 90.457672 
L 125.266568 90.124691 
L 125.439165 89.795432 
L 125.611762 89.469895 
L 125.784358 89.14808 
L 125.956955 88.829987 
L 126.129552 88.515617 
L 126.302149 88.204968 
L 126.474746 87.898042 
L 126.647342 87.594837 
L 126.819939 87.295355 
L 126.992536 86.999595 
L 127.165133 86.707557 
L 127.337729 86.419241 
L 127.510326 86.134647 
L 127.682923 85.853776 
L 127.85552 85.576626 
L 128.028117 85.303198 
L 128.200713 85.033493 
L 128.37331 84.76751 
L 128.545907 84.505249 
L 128.718504 84.24671 
L 128.8911 83.991893 
L 129.063697 83.740798 
L 129.236294 83.493425 
L 129.408891 83.249774 
L 129.581488 83.009846 
L 129.754084 82.77364 
L 129.926681 82.541155 
L 130.099278 82.312393 
L 130.271875 82.087353 
L 130.444472 81.866035 
L 130.617068 81.648439 
L 130.789665 81.434565 
L 130.962262 81.224414 
L 131.134859 81.017984 
L 131.307455 80.815277 
L 131.480052 80.616291 
L 131.652649 80.421028 
L 131.825246 80.229487 
L 131.997843 80.041668 
L 132.170439 79.857571 
L 132.343036 79.677196 
L 132.515633 79.500543 
L 132.68823 79.327613 
L 132.860826 79.158404 
L 133.033423 78.992918 
L 133.20602 78.831153 
L 133.378617 78.673111 
L 133.551214 78.518791 
L 133.72381 78.368193 
L 133.896407 78.221317 
L 134.069004 78.078164 
L 134.241601 77.938732 
L 134.414197 77.803022 
L 134.586794 77.671035 
L 134.759391 77.54277 
L 134.931988 77.418226 
L 135.104585 77.297405 
L 135.277181 77.180306 
L 135.449778 77.066929 
L 135.622375 76.957274 
L 135.794972 76.851342 
L 135.967569 76.749131 
L 136.140165 76.650643 
L 136.312762 76.555876 
L 136.485359 76.464832 
L 136.657956 76.37751 
L 136.830552 76.29391 
L 137.003149 76.214032 
L 137.175746 76.137876 
L 137.348343 76.065442 
L 137.52094 75.99673 
L 137.693536 75.931741 
L 137.866133 75.870473 
L 138.03873 75.812928 
L 138.211327 75.759105 
L 138.383923 75.709004 
L 138.55652 75.662625 
L 138.729117 75.619968 
L 138.901714 75.581033 
L 139.074311 75.54582 
L 139.246907 75.51433 
L 139.419504 75.486561 
L 139.592101 75.462515 
L 139.764698 75.442191 
L 139.937294 75.425588 
L 140.109891 75.412708 
L 140.282488 75.40355 
L 140.455085 75.398114 
L 140.627682 75.396401 
L 140.800278 75.398409 
L 140.972875 75.40414 
L 141.145472 75.413592 
L 141.318069 75.426767 
L 141.490665 75.443664 
L 141.663262 75.464282 
L 141.835859 75.488623 
L 142.008456 75.516687 
L 142.181053 75.548472 
" style="fill:none;stroke:#0000ff;stroke-linecap:square;stroke-width:1.5;"/>
   </g>
   <g id="line2d_24">
    <path clip-path="url(#p4cc68f2453)" d="M 142.181053 76.07798 
L 142.353649 76.113325 
L 142.526246 76.152068 
L 142.698843 76.194209 
L 142.87144 76.239748 
L 143.044037 76.288685 
L 143.216633 76.34102 
L 143.38923 76.396753 
L 143.561827 76.455884 
L 143.734424 76.518413 
L 143.90702 76.58434 
L 144.079617 76.653665 
L 144.252214 76.726387 
L 144.424811 76.802508 
L 144.597408 76.882027 
L 144.770004 76.964943 
L 144.942601 77.051258 
L 145.115198 77.14097 
L 145.287795 77.23408 
L 145.460391 77.330589 
L 145.632988 77.430495 
L 145.805585 77.533799 
L 145.978182 77.640501 
L 146.150779 77.750602 
L 146.323375 77.8641 
L 146.495972 77.980996 
L 146.668569 78.10129 
L 146.841166 78.224982 
L 147.013763 78.352072 
L 147.186359 78.482559 
L 147.358956 78.616445 
L 147.531553 78.753729 
L 147.70415 78.894411 
L 147.876746 79.03849 
L 148.049343 79.185968 
L 148.22194 79.336843 
L 148.394537 79.491117 
L 148.567134 79.648788 
L 148.73973 79.809858 
L 148.912327 79.974325 
L 149.084924 80.14219 
L 149.257521 80.313454 
L 149.430117 80.488115 
L 149.602714 80.666174 
L 149.775311 80.847631 
L 149.947908 81.032486 
L 150.120505 81.220739 
L 150.293101 81.41239 
L 150.465698 81.607439 
L 150.638295 81.805886 
L 150.810892 82.007731 
L 150.983488 82.212974 
L 151.156085 82.421614 
L 151.328682 82.633653 
L 151.501279 82.849089 
L 151.673876 83.067924 
L 151.846472 83.290157 
L 152.019069 83.515787 
L 152.191666 83.744815 
L 152.364263 83.977242 
L 152.53686 84.213066 
L 152.709456 84.452288 
L 152.882053 84.694909 
L 153.05465 84.940927 
L 153.227247 85.190343 
L 153.399843 85.443157 
L 153.57244 85.699369 
L 153.745037 85.958979 
L 153.917634 86.221987 
L 154.090231 86.488393 
L 154.262827 86.758196 
L 154.435424 87.031398 
L 154.608021 87.307998 
L 154.780618 87.587996 
L 154.953214 87.871391 
L 155.125811 88.158185 
L 155.298408 88.448376 
L 155.471005 88.741966 
L 155.643602 89.038953 
L 155.816198 89.339339 
L 155.988795 89.643122 
L 156.161392 89.950303 
L 156.333989 90.260882 
L 156.506585 90.57486 
L 156.679182 90.892235 
L 156.851779 91.213008 
L 157.024376 91.537179 
L 157.196973 91.864748 
L 157.369569 92.195715 
L 157.542166 92.530079 
L 157.714763 92.867842 
L 157.88736 93.209003 
L 158.059956 93.553562 
L 158.232553 93.901518 
L 158.40515 94.252873 
L 158.577747 94.607626 
L 158.750344 94.965776 
L 158.92294 95.327325 
L 159.095537 95.692271 
L 159.268134 96.060615 
" style="fill:none;stroke:#0000ff;stroke-linecap:square;stroke-width:1.5;"/>
   </g>
   <g id="line2d_25">
    <path clip-path="url(#p4cc68f2453)" d="M 159.268134 98.523555 
L 159.440731 98.894543 
L 159.613328 99.267422 
L 159.785924 99.642191 
L 159.958521 100.01885 
L 160.131118 100.397399 
L 160.303715 100.777838 
L 160.476311 101.160168 
L 160.648908 101.544388 
L 160.821505 101.930497 
L 160.994102 102.318497 
L 161.166699 102.708388 
L 161.339295 103.100168 
L 161.511892 103.493839 
L 161.684489 103.8894 
L 161.857086 104.286851 
L 162.029682 104.686192 
L 162.202279 105.087423 
L 162.374876 105.490545 
L 162.547473 105.895556 
L 162.72007 106.302458 
L 162.892666 106.71125 
L 163.065263 107.121933 
L 163.23786 107.534505 
L 163.410457 107.948968 
L 163.583054 108.365321 
L 163.75565 108.783564 
L 163.928247 109.203697 
L 164.100844 109.62572 
L 164.273441 110.049634 
L 164.446037 110.475437 
L 164.618634 110.903131 
L 164.791231 111.332715 
L 164.963828 111.76419 
L 165.136425 112.197554 
L 165.309021 112.632809 
L 165.481618 113.069954 
L 165.654215 113.508989 
L 165.826812 113.949914 
L 165.999408 114.392729 
L 166.172005 114.837435 
L 166.344602 115.28403 
L 166.517199 115.732516 
L 166.689796 116.182892 
L 166.862392 116.635159 
L 167.034989 117.089315 
L 167.207586 117.545362 
L 167.380183 118.003299 
L 167.552779 118.463126 
L 167.725376 118.924843 
L 167.897973 119.38845 
L 168.07057 119.853948 
L 168.243167 120.321335 
L 168.415763 120.790613 
L 168.58836 121.261781 
L 168.760957 121.73484 
L 168.933554 122.209788 
L 169.10615 122.686627 
L 169.278747 123.165356 
L 169.451344 123.645975 
L 169.623941 124.128484 
L 169.796538 124.612883 
L 169.969134 125.099173 
L 170.141731 125.587353 
L 170.314328 126.077423 
L 170.486925 126.569383 
L 170.659522 127.063233 
L 170.832118 127.558973 
L 171.004715 128.056604 
L 171.177312 128.556125 
L 171.349909 129.057536 
L 171.522505 129.560837 
L 171.695102 130.066028 
L 171.867699 130.57311 
L 172.040296 131.082082 
L 172.212893 131.592944 
L 172.385489 132.105696 
L 172.558086 132.620338 
L 172.730683 133.136871 
L 172.90328 133.655293 
L 173.075876 134.175606 
L 173.248473 134.697809 
L 173.42107 135.221902 
L 173.593667 135.747886 
L 173.766264 136.275759 
L 173.93886 136.805523 
L 174.111457 137.337177 
L 174.284054 137.870721 
L 174.456651 138.406155 
L 174.629247 138.94348 
L 174.801844 139.482694 
L 174.974441 140.023799 
L 175.147038 140.566794 
L 175.319635 141.11168 
L 175.492231 141.658455 
L 175.664828 142.20712 
L 175.837425 142.757676 
L 176.010022 143.310122 
L 176.182619 143.864458 
L 176.355215 144.420685 
" style="fill:none;stroke:#0000ff;stroke-linecap:square;stroke-width:1.5;"/>
   </g>
   <g id="line2d_26">
    <path clip-path="url(#p4cc68f2453)" d="M 176.355215 147.854752 
L 176.527812 148.411817 
L 176.700409 148.968671 
L 176.873006 149.525312 
L 177.045602 150.081741 
L 177.218199 150.637958 
L 177.390796 151.193963 
L 177.563393 151.749756 
L 177.73599 152.305336 
L 177.908586 152.860705 
L 178.081183 153.415861 
L 178.25378 153.970806 
L 178.426377 154.525538 
L 178.598973 155.080058 
L 178.77157 155.634366 
L 178.944167 156.188462 
L 179.116764 156.742346 
L 179.289361 157.296018 
L 179.461957 157.849478 
L 179.634554 158.402726 
L 179.807151 158.955761 
L 179.979748 159.508585 
L 180.152345 160.061196 
L 180.324941 160.613595 
L 180.497538 161.165783 
L 180.670135 161.717758 
L 180.842732 162.269521 
L 181.015328 162.821072 
L 181.187925 163.37241 
L 181.360522 163.923537 
L 181.533119 164.474452 
L 181.705716 165.025154 
L 181.878312 165.575645 
L 182.050909 166.125923 
L 182.223506 166.675989 
L 182.396103 167.225844 
L 182.568699 167.775486 
L 182.741296 168.324916 
L 182.913893 168.874133 
L 183.08649 169.423139 
L 183.259087 169.971933 
L 183.431683 170.520515 
L 183.60428 171.068884 
L 183.776877 171.617042 
L 183.949474 172.164987 
L 184.12207 172.71272 
L 184.294667 173.260241 
L 184.467264 173.80755 
L 184.639861 174.354647 
L 184.812458 174.901532 
L 184.985054 175.448205 
L 185.157651 175.994665 
L 185.330248 176.540914 
L 185.502845 177.086951 
L 185.675441 177.632775 
L 185.848038 178.178387 
L 186.020635 178.723787 
L 186.193232 179.268976 
L 186.365829 179.813952 
L 186.538425 180.358715 
L 186.711022 180.903267 
L 186.883619 181.447607 
L 187.056216 181.991735 
L 187.228813 182.53565 
L 187.401409 183.079354 
L 187.574006 183.622845 
L 187.746603 184.166124 
L 187.9192 184.709191 
L 188.091796 185.252047 
L 188.264393 185.79469 
L 188.43699 186.33712 
L 188.609587 186.879339 
L 188.782184 187.421346 
L 188.95478 187.963141 
L 189.127377 188.504723 
L 189.299974 189.046094 
L 189.472571 189.587252 
L 189.645167 190.128198 
L 189.817764 190.668932 
L 189.990361 191.209454 
L 190.162958 191.749764 
L 190.335555 192.289862 
L 190.508151 192.829748 
L 190.680748 193.369422 
L 190.853345 193.908883 
L 191.025942 194.448133 
L 191.198538 194.98717 
L 191.371135 195.525995 
L 191.543732 196.064609 
L 191.716329 196.60301 
L 191.888926 197.141199 
L 192.061522 197.679176 
L 192.234119 198.21694 
L 192.406716 198.754493 
L 192.579313 199.291834 
L 192.75191 199.828962 
L 192.924506 200.365879 
L 193.097103 200.902583 
L 193.2697 201.439075 
L 193.442297 201.975356 
" style="fill:none;stroke:#0000ff;stroke-linecap:square;stroke-width:1.5;"/>
   </g>
   <g id="line2d_27">
    <path clip-path="url(#p4cc68f2453)" d="M 193.442297 204.893968 
L 193.614893 205.429143 
L 193.78749 205.962319 
L 193.960087 206.493496 
L 194.132684 207.022674 
L 194.305281 207.549854 
L 194.477877 208.075034 
L 194.650474 208.598216 
L 194.823071 209.119399 
L 194.995668 209.638583 
L 195.168264 210.155769 
L 195.340861 210.670955 
L 195.513458 211.184143 
L 195.686055 211.695332 
L 195.858652 212.204522 
L 196.031248 212.711713 
L 196.203845 213.216906 
L 196.376442 213.720099 
L 196.549039 214.221294 
L 196.721636 214.72049 
L 196.894232 215.217687 
L 197.066829 215.712886 
L 197.239426 216.206085 
L 197.412023 216.697286 
L 197.584619 217.186488 
L 197.757216 217.673691 
L 197.929813 218.158896 
L 198.10241 218.642101 
L 198.275007 219.123308 
L 198.447603 219.602516 
L 198.6202 220.079725 
L 198.792797 220.554935 
L 198.965394 221.028146 
L 199.13799 221.499359 
L 199.310587 221.968573 
L 199.483184 222.435788 
L 199.655781 222.901004 
L 199.828378 223.364221 
L 200.000974 223.82544 
L 200.173571 224.284659 
L 200.346168 224.74188 
L 200.518765 225.197102 
L 200.691361 225.650325 
L 200.863958 226.10155 
L 201.036555 226.550775 
L 201.209152 226.998002 
L 201.381749 227.44323 
L 201.554345 227.886459 
L 201.726942 228.32769 
L 201.899539 228.766921 
L 202.072136 229.204154 
L 202.244732 229.639388 
L 202.417329 230.072623 
L 202.589926 230.503859 
L 202.762523 230.933097 
L 202.93512 231.360335 
L 203.107716 231.785575 
L 203.280313 232.208816 
L 203.45291 232.630058 
L 203.625507 233.049302 
L 203.798104 233.466546 
L 203.9707 233.881792 
L 204.143297 234.295039 
L 204.315894 234.706287 
L 204.488491 235.115536 
L 204.661087 235.522787 
L 204.833684 235.928038 
L 205.006281 236.331291 
L 205.178878 236.732545 
L 205.351475 237.1318 
L 205.524071 237.529057 
L 205.696668 237.924314 
L 205.869265 238.317573 
L 206.041862 238.708833 
L 206.214458 239.098094 
L 206.387055 239.485356 
L 206.559652 239.87062 
L 206.732249 240.253884 
L 206.904846 240.63515 
L 207.077442 241.014417 
L 207.250039 241.391685 
L 207.422636 241.766955 
L 207.595233 242.140225 
L 207.767829 242.511497 
L 207.940426 242.88077 
L 208.113023 243.248044 
L 208.28562 243.61332 
L 208.458217 243.976596 
L 208.630813 244.337874 
L 208.80341 244.697153 
L 208.976007 245.054433 
L 209.148604 245.409714 
L 209.321201 245.762996 
L 209.493797 246.11428 
L 209.666394 246.463565 
L 209.838991 246.810851 
L 210.011588 247.156138 
L 210.184184 247.499426 
L 210.356781 247.840715 
L 210.529378 248.180006 
" style="fill:none;stroke:#0000ff;stroke-linecap:square;stroke-width:1.5;"/>
   </g>
   <g id="line2d_28">
    <path clip-path="url(#p4cc68f2453)" d="M 210.529378 249.459276 
L 210.701975 249.796177 
L 210.874572 250.130295 
L 211.047168 250.461631 
L 211.219765 250.790186 
L 211.392362 251.115958 
L 211.564959 251.438949 
L 211.737555 251.759157 
L 211.910152 252.076584 
L 212.082749 252.391228 
L 212.255346 252.703091 
L 212.427943 253.012172 
L 212.600539 253.31847 
L 212.773136 253.621987 
L 212.945733 253.922722 
L 213.11833 254.220675 
L 213.290927 254.515845 
L 213.463523 254.808234 
L 213.63612 255.097841 
L 213.808717 255.384666 
L 213.981314 255.668709 
L 214.15391 255.94997 
L 214.326507 256.228449 
L 214.499104 256.504146 
L 214.671701 256.777062 
L 214.844298 257.047195 
L 215.016894 257.314546 
L 215.189491 257.579115 
L 215.362088 257.840902 
L 215.534685 258.099908 
L 215.707281 258.356131 
L 215.879878 258.609573 
L 216.052475 258.860232 
L 216.225072 259.108109 
L 216.397669 259.353205 
L 216.570265 259.595518 
L 216.742862 259.83505 
L 216.915459 260.0718 
L 217.088056 260.305767 
L 217.260652 260.536953 
L 217.433249 260.765357 
L 217.605846 260.990979 
L 217.778443 261.213818 
L 217.95104 261.433876 
L 218.123636 261.651152 
L 218.296233 261.865646 
L 218.46883 262.077358 
L 218.641427 262.286288 
L 218.814023 262.492436 
L 218.98662 262.695802 
L 219.159217 262.896386 
L 219.331814 263.094188 
L 219.504411 263.289208 
L 219.677007 263.481447 
L 219.849604 263.670903 
L 220.022201 263.857577 
L 220.194798 264.041469 
L 220.367395 264.22258 
L 220.539991 264.400908 
L 220.712588 264.576455 
L 220.885185 264.749219 
L 221.057782 264.919201 
L 221.230378 265.086402 
L 221.402975 265.250821 
L 221.575572 265.412457 
L 221.748169 265.571312 
L 221.920766 265.727385 
L 222.093362 265.880675 
L 222.265959 266.031184 
L 222.438556 266.178911 
L 222.611153 266.323856 
L 222.783749 266.466018 
L 222.956346 266.605399 
L 223.128943 266.741998 
L 223.30154 266.875815 
L 223.474137 267.00685 
L 223.646733 267.135103 
L 223.81933 267.260574 
L 223.991927 267.383264 
L 224.164524 267.503171 
L 224.33712 267.620296 
L 224.509717 267.734639 
L 224.682314 267.8462 
L 224.854911 267.95498 
L 225.027508 268.060977 
L 225.200104 268.164192 
L 225.372701 268.264626 
L 225.545298 268.362277 
L 225.717895 268.457147 
L 225.890492 268.549234 
L 226.063088 268.63854 
L 226.235685 268.725063 
L 226.408282 268.808805 
L 226.580879 268.889765 
L 226.753475 268.967942 
L 226.926072 269.043338 
L 227.098669 269.115952 
L 227.271266 269.185784 
L 227.443863 269.252834 
L 227.616459 269.317102 
" style="fill:none;stroke:#0000ff;stroke-linecap:square;stroke-width:1.5;"/>
   </g>
   <g id="line2d_29">
    <path clip-path="url(#p4cc68f2453)" d="M 227.616459 269.737085 
L 227.702774 269.737085 
L 227.789089 269.737085 
L 227.875404 269.737085 
L 227.961718 269.737085 
L 228.048033 269.737085 
L 228.134348 269.737085 
L 228.220663 269.737085 
L 228.306978 269.737085 
L 228.393292 269.737085 
L 228.479607 269.737085 
L 228.565922 269.737085 
L 228.652237 269.737085 
L 228.738552 269.737085 
L 228.824866 269.737085 
L 228.911181 269.737085 
L 228.997496 269.737085 
L 229.083811 269.737085 
L 229.170126 269.737085 
L 229.25644 269.737085 
L 229.342755 269.737085 
L 229.42907 269.737085 
L 229.515385 269.737085 
L 229.601699 269.737085 
L 229.688014 269.737085 
L 229.774329 269.737085 
L 229.860644 269.737085 
L 229.946959 269.737085 
L 230.033273 269.737085 
L 230.119588 269.737085 
L 230.205903 269.737085 
L 230.292218 269.737085 
L 230.378533 269.737085 
L 230.464847 269.737085 
L 230.551162 269.737085 
L 230.637477 269.737085 
L 230.723792 269.737085 
L 230.810106 269.737085 
L 230.896421 269.737085 
L 230.982736 269.737085 
L 231.069051 269.737085 
L 231.155366 269.737085 
L 231.24168 269.737085 
L 231.327995 269.737085 
L 231.41431 269.737085 
L 231.500625 269.737085 
L 231.58694 269.737085 
L 231.673254 269.737085 
L 231.759569 269.737085 
L 231.845884 269.737085 
L 231.932199 269.737085 
L 232.018513 269.737085 
L 232.104828 269.737085 
L 232.191143 269.737085 
L 232.277458 269.737085 
L 232.363773 269.737085 
L 232.450087 269.737085 
L 232.536402 269.737085 
L 232.622717 269.737085 
L 232.709032 269.737085 
L 232.795347 269.737085 
L 232.881661 269.737085 
L 232.967976 269.737085 
L 233.054291 269.737085 
L 233.140606 269.737085 
L 233.22692 269.737085 
L 233.313235 269.737085 
L 233.39955 269.737085 
L 233.485865 269.737085 
L 233.57218 269.737085 
L 233.658494 269.737085 
L 233.744809 269.737085 
L 233.831124 269.737085 
L 233.917439 269.737085 
L 234.003754 269.737085 
L 234.090068 269.737085 
L 234.176383 269.737085 
L 234.262698 269.737085 
L 234.349013 269.737085 
L 234.435328 269.737085 
L 234.521642 269.737085 
L 234.607957 269.737085 
L 234.694272 269.737085 
L 234.780587 269.737085 
L 234.866901 269.737085 
L 234.953216 269.737085 
L 235.039531 269.737085 
L 235.125846 269.737085 
L 235.212161 269.737085 
L 235.298475 269.737085 
L 235.38479 269.737085 
L 235.471105 269.737085 
L 235.55742 269.737085 
L 235.643735 269.737085 
L 235.730049 269.737085 
L 235.816364 269.737085 
L 235.902679 269.737085 
L 235.988994 269.737085 
L 236.075308 269.737085 
L 236.161623 269.737085 
" style="fill:none;stroke:#0000ff;stroke-linecap:square;stroke-width:1.5;"/>
   </g>
   <g id="line2d_30">
    <path clip-path="url(#p4cc68f2453)" d="M 236.161623 179.190889 
L 236.247905 179.190889 
L 236.334187 179.190889 
L 236.420469 179.190889 
L 236.506751 179.190889 
L 236.593033 179.190889 
L 236.679315 179.190889 
L 236.765597 179.190889 
L 236.851879 179.190889 
L 236.938161 179.190889 
L 237.024443 179.190889 
L 237.110725 179.190889 
L 237.197007 179.190889 
L 237.283289 179.190889 
L 237.369571 179.190889 
L 237.455853 179.190889 
L 237.542135 179.190889 
L 237.628417 179.190889 
L 237.714699 179.190889 
L 237.800981 179.190889 
L 237.887263 179.190889 
L 237.973545 179.190889 
L 238.059827 179.190889 
L 238.146109 179.190889 
L 238.232391 179.190889 
L 238.318673 179.190889 
L 238.404955 179.190889 
L 238.491237 179.190889 
L 238.577519 179.190889 
L 238.663801 179.190889 
L 238.750083 179.190889 
L 238.836365 179.190889 
L 238.922647 179.190889 
L 239.008929 179.190889 
L 239.095211 179.190889 
L 239.181493 179.190889 
L 239.267775 179.190889 
L 239.354057 179.190889 
L 239.440339 179.190889 
L 239.526621 179.190889 
L 239.612903 179.190889 
L 239.699185 179.190889 
L 239.785467 179.190889 
L 239.871749 179.190889 
L 239.958031 179.190889 
L 240.044313 179.190889 
L 240.130595 179.190889 
L 240.216877 179.190889 
L 240.303159 179.190889 
L 240.389441 179.190889 
L 240.475723 179.190889 
L 240.562005 179.190889 
L 240.648287 179.190889 
L 240.734569 179.190889 
L 240.820851 179.190889 
L 240.907133 179.190889 
L 240.993415 179.190889 
L 241.079697 179.190889 
L 241.165979 179.190889 
L 241.252261 179.190889 
L 241.338543 179.190889 
L 241.424825 179.190889 
L 241.511107 179.190889 
L 241.597389 179.190889 
L 241.683671 179.190889 
L 241.769953 179.190889 
L 241.856235 179.190889 
L 241.942517 179.190889 
L 242.028799 179.190889 
L 242.115081 179.190889 
L 242.201363 179.190889 
L 242.287645 179.190889 
L 242.373927 179.190889 
L 242.460209 179.190889 
L 242.546491 179.190889 
L 242.632773 179.190889 
L 242.719055 179.190889 
L 242.805337 179.190889 
L 242.891619 179.190889 
L 242.977901 179.190889 
L 243.064183 179.190889 
L 243.150465 179.190889 
L 243.236747 179.190889 
L 243.323029 179.190889 
L 243.409311 179.190889 
L 243.495593 179.190889 
L 243.581875 179.190889 
L 243.668157 179.190889 
L 243.754439 179.190889 
L 243.840721 179.190889 
L 243.927003 179.190889 
L 244.013285 179.190889 
L 244.099567 179.190889 
L 244.185849 179.190889 
L 244.272131 179.190889 
L 244.358413 179.190889 
L 244.444695 179.190889 
L 244.530977 179.190889 
L 244.617259 179.190889 
L 244.703541 179.190889 
" style="fill:none;stroke:#ff0000;stroke-linecap:square;stroke-width:1.5;"/>
   </g>
   <g id="line2d_31">
    <path clip-path="url(#p4cc68f2453)" d="M 244.703541 179.127956 
L 244.876137 179.124917 
L 245.048734 179.121848 
L 245.221331 179.11875 
L 245.393928 179.115622 
L 245.566525 179.112466 
L 245.739121 179.10928 
L 245.911718 179.106065 
L 246.084315 179.102821 
L 246.256912 179.099548 
L 246.429508 179.096245 
L 246.602105 179.092914 
L 246.774702 179.089553 
L 246.947299 179.086162 
L 247.119896 179.082743 
L 247.292492 179.079294 
L 247.465089 179.075817 
L 247.637686 179.07231 
L 247.810283 179.068773 
L 247.98288 179.065208 
L 248.155476 179.061613 
L 248.328073 179.057989 
L 248.50067 179.054336 
L 248.673267 179.050654 
L 248.845863 179.046943 
L 249.01846 179.043202 
L 249.191057 179.039432 
L 249.363654 179.035633 
L 249.536251 179.031805 
L 249.708847 179.027947 
L 249.881444 179.02406 
L 250.054041 179.020144 
L 250.226638 179.016199 
L 250.399234 179.012225 
L 250.571831 179.008221 
L 250.744428 179.004189 
L 250.917025 179.000127 
L 251.089622 178.996035 
L 251.262218 178.991915 
L 251.434815 178.987765 
L 251.607412 178.983587 
L 251.780009 178.979378 
L 251.952605 178.975141 
L 252.125202 178.970875 
L 252.297799 178.966579 
L 252.470396 178.962254 
L 252.642993 178.9579 
L 252.815589 178.953517 
L 252.988186 178.949104 
L 253.160783 178.944663 
L 253.33338 178.940192 
L 253.505977 178.935692 
L 253.678573 178.931162 
L 253.85117 178.926604 
L 254.023767 178.922016 
L 254.196364 178.917399 
L 254.36896 178.912753 
L 254.541557 178.908078 
L 254.714154 178.903373 
L 254.886751 178.898639 
L 255.059348 178.893876 
L 255.231944 178.889084 
L 255.404541 178.884263 
L 255.577138 178.879412 
L 255.749735 178.874532 
L 255.922331 178.869623 
L 256.094928 178.864685 
L 256.267525 178.859717 
L 256.440122 178.854721 
L 256.612719 178.849695 
L 256.785315 178.84464 
L 256.957912 178.839555 
L 257.130509 178.834442 
L 257.303106 178.829299 
L 257.475702 178.824127 
L 257.648299 178.818926 
L 257.820896 178.813696 
L 257.993493 178.808436 
L 258.16609 178.803147 
L 258.338686 178.797829 
L 258.511283 178.792482 
L 258.68388 178.787106 
L 258.856477 178.7817 
L 259.029073 178.776265 
L 259.20167 178.770801 
L 259.374267 178.765308 
L 259.546864 178.759786 
L 259.719461 178.754234 
L 259.892057 178.748653 
L 260.064654 178.743043 
L 260.237251 178.737404 
L 260.409848 178.731735 
L 260.582445 178.726038 
L 260.755041 178.720311 
L 260.927638 178.714555 
L 261.100235 178.708769 
L 261.272832 178.702955 
L 261.445428 178.697111 
L 261.618025 178.691238 
L 261.790622 178.685336 
" style="fill:none;stroke:#ff0000;stroke-linecap:square;stroke-width:1.5;"/>
   </g>
   <g id="line2d_32">
    <path clip-path="url(#p4cc68f2453)" d="M 261.790622 178.445669 
L 261.963219 178.439811 
L 262.135816 178.43407 
L 262.308412 178.428447 
L 262.481009 178.422942 
L 262.653606 178.417554 
L 262.826203 178.412283 
L 262.998799 178.40713 
L 263.171396 178.402095 
L 263.343993 178.397177 
L 263.51659 178.392377 
L 263.689187 178.387694 
L 263.861783 178.383128 
L 264.03438 178.378681 
L 264.206977 178.37435 
L 264.379574 178.370137 
L 264.552171 178.366042 
L 264.724767 178.362064 
L 264.897364 178.358204 
L 265.069961 178.354461 
L 265.242558 178.350836 
L 265.415154 178.347328 
L 265.587751 178.343938 
L 265.760348 178.340665 
L 265.932945 178.33751 
L 266.105542 178.334472 
L 266.278138 178.331552 
L 266.450735 178.328749 
L 266.623332 178.326064 
L 266.795929 178.323496 
L 266.968525 178.321046 
L 267.141122 178.318713 
L 267.313719 178.316498 
L 267.486316 178.3144 
L 267.658913 178.31242 
L 267.831509 178.310558 
L 268.004106 178.308812 
L 268.176703 178.307185 
L 268.3493 178.305675 
L 268.521896 178.304282 
L 268.694493 178.303007 
L 268.86709 178.301849 
L 269.039687 178.300809 
L 269.212284 178.299887 
L 269.38488 178.299082 
L 269.557477 178.298394 
L 269.730074 178.297824 
L 269.902671 178.297372 
L 270.075268 178.297037 
L 270.247864 178.296819 
L 270.420461 178.296719 
L 270.593058 178.296737 
L 270.765655 178.296872 
L 270.938251 178.297125 
L 271.110848 178.297495 
L 271.283445 178.297982 
L 271.456042 178.298587 
L 271.628639 178.29931 
L 271.801235 178.30015 
L 271.973832 178.301108 
L 272.146429 178.302183 
L 272.319026 178.303375 
L 272.491622 178.304686 
L 272.664219 178.306113 
L 272.836816 178.307658 
L 273.009413 178.309321 
L 273.18201 178.311101 
L 273.354606 178.312999 
L 273.527203 178.315014 
L 273.6998 178.317147 
L 273.872397 178.319397 
L 274.044993 178.321765 
L 274.21759 178.32425 
L 274.390187 178.326853 
L 274.562784 178.329573 
L 274.735381 178.332411 
L 274.907977 178.335367 
L 275.080574 178.338439 
L 275.253171 178.34163 
L 275.425768 178.344938 
L 275.598364 178.348363 
L 275.770961 178.351906 
L 275.943558 178.355566 
L 276.116155 178.359344 
L 276.288752 178.363239 
L 276.461348 178.367252 
L 276.633945 178.371383 
L 276.806542 178.375631 
L 276.979139 178.379996 
L 277.151736 178.384479 
L 277.324332 178.38908 
L 277.496929 178.393798 
L 277.669526 178.398633 
L 277.842123 178.403586 
L 278.014719 178.408657 
L 278.187316 178.413845 
L 278.359913 178.41915 
L 278.53251 178.424573 
L 278.705107 178.430114 
L 278.877703 178.435772 
" style="fill:none;stroke:#ff0000;stroke-linecap:square;stroke-width:1.5;"/>
   </g>
   <g id="line2d_33">
    <path clip-path="url(#p4cc68f2453)" d="M 278.877703 178.14801 
L 279.0503 178.153873 
L 279.222897 178.160031 
L 279.395494 178.166482 
L 279.56809 178.173226 
L 279.740687 178.180265 
L 279.913284 178.187597 
L 280.085881 178.195222 
L 280.258478 178.203142 
L 280.431074 178.211355 
L 280.603671 178.219862 
L 280.776268 178.228662 
L 280.948865 178.237756 
L 281.121462 178.247144 
L 281.294058 178.256825 
L 281.466655 178.2668 
L 281.639252 178.277069 
L 281.811849 178.287631 
L 281.984445 178.298488 
L 282.157042 178.309637 
L 282.329639 178.321081 
L 282.502236 178.332818 
L 282.674833 178.344849 
L 282.847429 178.357173 
L 283.020026 178.369791 
L 283.192623 178.382703 
L 283.36522 178.395909 
L 283.537816 178.409408 
L 283.710413 178.423201 
L 283.88301 178.437287 
L 284.055607 178.451668 
L 284.228204 178.466342 
L 284.4008 178.481309 
L 284.573397 178.49657 
L 284.745994 178.512125 
L 284.918591 178.527974 
L 285.091187 178.544116 
L 285.263784 178.560552 
L 285.436381 178.577282 
L 285.608978 178.594305 
L 285.781575 178.611622 
L 285.954171 178.629232 
L 286.126768 178.647137 
L 286.299365 178.665335 
L 286.471962 178.683826 
L 286.644559 178.702612 
L 286.817155 178.721691 
L 286.989752 178.741063 
L 287.162349 178.76073 
L 287.334946 178.78069 
L 287.507542 178.800943 
L 287.680139 178.821491 
L 287.852736 178.842332 
L 288.025333 178.863466 
L 288.19793 178.884895 
L 288.370526 178.906617 
L 288.543123 178.928633 
L 288.71572 178.950942 
L 288.888317 178.973545 
L 289.060913 178.996442 
L 289.23351 179.019632 
L 289.406107 179.043116 
L 289.578704 179.066894 
L 289.751301 179.090966 
L 289.923897 179.115331 
L 290.096494 179.13999 
L 290.269091 179.164942 
L 290.441688 179.190188 
L 290.614284 179.215728 
L 290.786881 179.241562 
L 290.959478 179.267689 
L 291.132075 179.29411 
L 291.304672 179.320824 
L 291.477268 179.347832 
L 291.649865 179.375134 
L 291.822462 179.40273 
L 291.995059 179.430619 
L 292.167655 179.458802 
L 292.340252 179.487278 
L 292.512849 179.516049 
L 292.685446 179.545112 
L 292.858043 179.57447 
L 293.030639 179.604121 
L 293.203236 179.634066 
L 293.375833 179.664305 
L 293.54843 179.694837 
L 293.721027 179.725663 
L 293.893623 179.756783 
L 294.06622 179.788196 
L 294.238817 179.819903 
L 294.411414 179.851904 
L 294.58401 179.884198 
L 294.756607 179.916786 
L 294.929204 179.949668 
L 295.101801 179.982843 
L 295.274398 180.016312 
L 295.446994 180.050075 
L 295.619591 180.084131 
L 295.792188 180.118481 
L 295.964785 180.153125 
" style="fill:none;stroke:#ff0000;stroke-linecap:square;stroke-width:1.5;"/>
   </g>
   <g id="line2d_34">
    <path clip-path="url(#p4cc68f2453)" d="M 295.964785 179.916359 
L 296.137381 179.951369 
L 296.309978 179.986818 
L 296.482575 180.022705 
L 296.655172 180.05903 
L 296.827769 180.095795 
L 297.000365 180.132998 
L 297.172962 180.170639 
L 297.345559 180.20872 
L 297.518156 180.247238 
L 297.690753 180.286196 
L 297.863349 180.325592 
L 298.035946 180.365426 
L 298.208543 180.4057 
L 298.38114 180.446412 
L 298.553736 180.487562 
L 298.726333 180.529151 
L 298.89893 180.571179 
L 299.071527 180.613645 
L 299.244124 180.65655 
L 299.41672 180.699894 
L 299.589317 180.743676 
L 299.761914 180.787897 
L 299.934511 180.832556 
L 300.107107 180.877654 
L 300.279704 180.923191 
L 300.452301 180.969166 
L 300.624898 181.01558 
L 300.797495 181.062433 
L 300.970091 181.109724 
L 301.142688 181.157454 
L 301.315285 181.205622 
L 301.487882 181.254229 
L 301.660478 181.303275 
L 301.833075 181.352759 
L 302.005672 181.402682 
L 302.178269 181.453044 
L 302.350866 181.503844 
L 302.523462 181.555082 
L 302.696059 181.60676 
L 302.868656 181.658876 
L 303.041253 181.71143 
L 303.21385 181.764423 
L 303.386446 181.817855 
L 303.559043 181.871726 
L 303.73164 181.926035 
L 303.904237 181.980782 
L 304.076833 182.035969 
L 304.24943 182.091593 
L 304.422027 182.147657 
L 304.594624 182.204159 
L 304.767221 182.2611 
L 304.939817 182.318479 
L 305.112414 182.376297 
L 305.285011 182.434554 
L 305.457608 182.493249 
L 305.630204 182.552383 
L 305.802801 182.611955 
L 305.975398 182.671966 
L 306.147995 182.732416 
L 306.320592 182.793304 
L 306.493188 182.854631 
L 306.665785 182.916397 
L 306.838382 182.978601 
L 307.010979 183.041244 
L 307.183575 183.104325 
L 307.356172 183.167845 
L 307.528769 183.231804 
L 307.701366 183.296201 
L 307.873963 183.361037 
L 308.046559 183.426311 
L 308.219156 183.492024 
L 308.391753 183.558176 
L 308.56435 183.624767 
L 308.736946 183.691796 
L 308.909543 183.759263 
L 309.08214 183.827169 
L 309.254737 183.895514 
L 309.427334 183.964297 
L 309.59993 184.03352 
L 309.772527 184.10318 
L 309.945124 184.173279 
L 310.117721 184.243817 
L 310.290318 184.314794 
L 310.462914 184.386209 
L 310.635511 184.458063 
L 310.808108 184.530355 
L 310.980705 184.603086 
L 311.153301 184.676256 
L 311.325898 184.749864 
L 311.498495 184.823911 
L 311.671092 184.898396 
L 311.843689 184.97332 
L 312.016285 185.048683 
L 312.188882 185.124484 
L 312.361479 185.200724 
L 312.534076 185.277403 
L 312.706672 185.35452 
L 312.879269 185.432076 
L 313.051866 185.51007 
" style="fill:none;stroke:#ff0000;stroke-linecap:square;stroke-width:1.5;"/>
   </g>
   <g id="line2d_35">
    <path clip-path="url(#p4cc68f2453)" d="M 313.051866 185.400126 
L 313.224463 185.478593 
L 313.39706 185.557565 
L 313.569656 185.637044 
L 313.742253 185.717028 
L 313.91485 185.797518 
L 314.087447 185.878515 
L 314.260044 185.960017 
L 314.43264 186.042025 
L 314.605237 186.124539 
L 314.777834 186.207559 
L 314.950431 186.291085 
L 315.123027 186.375117 
L 315.295624 186.459655 
L 315.468221 186.544698 
L 315.640818 186.630248 
L 315.813415 186.716303 
L 315.986011 186.802865 
L 316.158608 186.889932 
L 316.331205 186.977505 
L 316.503802 187.065585 
L 316.676398 187.15417 
L 316.848995 187.243261 
L 317.021592 187.332858 
L 317.194189 187.422961 
L 317.366786 187.51357 
L 317.539382 187.604684 
L 317.711979 187.696305 
L 317.884576 187.788432 
L 318.057173 187.881064 
L 318.229769 187.974203 
L 318.402366 188.067847 
L 318.574963 188.161997 
L 318.74756 188.256654 
L 318.920157 188.351816 
L 319.092753 188.447484 
L 319.26535 188.543658 
L 319.437947 188.640338 
L 319.610544 188.737524 
L 319.78314 188.835215 
L 319.955737 188.933413 
L 320.128334 189.032117 
L 320.300931 189.131326 
L 320.473528 189.231042 
L 320.646124 189.331263 
L 320.818721 189.43199 
L 320.991318 189.533223 
L 321.163915 189.634963 
L 321.336512 189.737208 
L 321.509108 189.839959 
L 321.681705 189.943216 
L 321.854302 190.046979 
L 322.026899 190.151247 
L 322.199495 190.256022 
L 322.372092 190.361303 
L 322.544689 190.467089 
L 322.717286 190.573382 
L 322.889883 190.68018 
L 323.062479 190.787484 
L 323.235076 190.895295 
L 323.407673 191.003611 
L 323.58027 191.112433 
L 323.752866 191.221761 
L 323.925463 191.331595 
L 324.09806 191.441935 
L 324.270657 191.55278 
L 324.443254 191.664132 
L 324.61585 191.77599 
L 324.788447 191.888353 
L 324.961044 192.001223 
L 325.133641 192.114598 
L 325.306237 192.228479 
L 325.478834 192.342867 
L 325.651431 192.45776 
L 325.824028 192.573159 
L 325.996625 192.689064 
L 326.169221 192.805475 
L 326.341818 192.922392 
L 326.514415 193.039815 
L 326.687012 193.157743 
L 326.859609 193.276178 
L 327.032205 193.395118 
L 327.204802 193.514565 
L 327.377399 193.634517 
L 327.549996 193.754976 
L 327.722592 193.87594 
L 327.895189 193.99741 
L 328.067786 194.119386 
L 328.240383 194.241868 
L 328.41298 194.364856 
L 328.585576 194.48835 
L 328.758173 194.61235 
L 328.93077 194.736856 
L 329.103367 194.861867 
L 329.275963 194.987385 
L 329.44856 195.113408 
L 329.621157 195.239938 
L 329.793754 195.366973 
L 329.966351 195.494514 
L 330.138947 195.622561 
" style="fill:none;stroke:#ff0000;stroke-linecap:square;stroke-width:1.5;"/>
   </g>
   <g id="line2d_36">
    <path clip-path="url(#p4cc68f2453)" d="M 330.138947 195.663137 
L 330.311544 195.791678 
L 330.484141 195.9207 
L 330.656738 196.050202 
L 330.829335 196.180186 
L 331.001931 196.310651 
L 331.174528 196.441598 
L 331.347125 196.573025 
L 331.519722 196.704933 
L 331.692318 196.837322 
L 331.864915 196.970193 
L 332.037512 197.103544 
L 332.210109 197.237377 
L 332.382706 197.371691 
L 332.555302 197.506485 
L 332.727899 197.641761 
L 332.900496 197.777518 
L 333.073093 197.913756 
L 333.245689 198.050475 
L 333.418286 198.187676 
L 333.590883 198.325357 
L 333.76348 198.463519 
L 333.936077 198.602163 
L 334.108673 198.741287 
L 334.28127 198.880893 
L 334.453867 199.02098 
L 334.626464 199.161547 
L 334.79906 199.302596 
L 334.971657 199.444126 
L 335.144254 199.586137 
L 335.316851 199.728629 
L 335.489448 199.871603 
L 335.662044 200.015057 
L 335.834641 200.158992 
L 336.007238 200.303409 
L 336.179835 200.448306 
L 336.352431 200.593685 
L 336.525028 200.739545 
L 336.697625 200.885885 
L 336.870222 201.032707 
L 337.042819 201.18001 
L 337.215415 201.327794 
L 337.388012 201.476059 
L 337.560609 201.624806 
L 337.733206 201.774033 
L 337.905803 201.923741 
L 338.078399 202.073931 
L 338.250996 202.224601 
L 338.423593 202.375753 
L 338.59619 202.527386 
L 338.768786 202.679499 
L 338.941383 202.832094 
L 339.11398 202.98517 
L 339.286577 203.138727 
L 339.459174 203.292765 
L 339.63177 203.447285 
L 339.804367 203.602285 
L 339.976964 203.757766 
L 340.149561 203.913729 
L 340.322157 204.070172 
L 340.494754 204.227097 
L 340.667351 204.384503 
L 340.839948 204.54239 
L 341.012545 204.700758 
L 341.185141 204.859606 
L 341.357738 205.018937 
L 341.530335 205.178748 
L 341.702932 205.33904 
L 341.875528 205.499813 
L 342.048125 205.661068 
L 342.220722 205.822803 
L 342.393319 205.98502 
L 342.565916 206.147717 
L 342.738512 206.310896 
L 342.911109 206.474556 
L 343.083706 206.638697 
L 343.256303 206.803319 
L 343.4289 206.968422 
L 343.601496 207.134006 
L 343.774093 207.300071 
L 343.94669 207.466618 
L 344.119287 207.633645 
L 344.291883 207.801153 
L 344.46448 207.969143 
L 344.637077 208.137614 
L 344.809674 208.306565 
L 344.982271 208.475998 
L 345.154867 208.645912 
L 345.327464 208.816307 
L 345.500061 208.987183 
L 345.672658 209.15854 
L 345.845254 209.330379 
L 346.017851 209.502698 
L 346.190448 209.675498 
L 346.363045 209.84878 
L 346.535642 210.022542 
L 346.708238 210.196786 
L 346.880835 210.371511 
L 347.053432 210.546717 
L 347.226029 210.722404 
" style="fill:none;stroke:#ff0000;stroke-linecap:square;stroke-width:1.5;"/>
   </g>
   <g id="line2d_37">
    <path clip-path="url(#p4cc68f2453)" d="M 347.226029 210.876897 
L 347.398626 211.053018 
L 347.571222 211.229525 
L 347.743819 211.406419 
L 347.916416 211.583699 
L 348.089013 211.761366 
L 348.261609 211.939419 
L 348.434206 212.117859 
L 348.606803 212.296685 
L 348.7794 212.475898 
L 348.951997 212.655497 
L 349.124593 212.835483 
L 349.29719 213.015855 
L 349.469787 213.196614 
L 349.642384 213.377759 
L 349.81498 213.559291 
L 349.987577 213.741209 
L 350.160174 213.923514 
L 350.332771 214.106206 
L 350.505368 214.289283 
L 350.677964 214.472748 
L 350.850561 214.656598 
L 351.023158 214.840836 
L 351.195755 215.02546 
L 351.368351 215.21047 
L 351.540948 215.395867 
L 351.713545 215.58165 
L 351.886142 215.76782 
L 352.058739 215.954376 
L 352.231335 216.141319 
L 352.403932 216.328649 
L 352.576529 216.516365 
L 352.749126 216.704467 
L 352.921722 216.892956 
L 353.094319 217.081831 
L 353.266916 217.271093 
L 353.439513 217.460742 
L 353.61211 217.650776 
L 353.784706 217.841198 
L 353.957303 218.032006 
L 354.1299 218.2232 
L 354.302497 218.414781 
L 354.475094 218.606749 
L 354.64769 218.799103 
L 354.820287 218.991843 
L 354.992884 219.18497 
L 355.165481 219.378483 
L 355.338077 219.572383 
L 355.510674 219.76667 
L 355.683271 219.961343 
L 355.855868 220.156402 
L 356.028465 220.351848 
L 356.201061 220.547681 
L 356.373658 220.7439 
L 356.546255 220.940505 
L 356.718852 221.137497 
L 356.891448 221.334876 
L 357.064045 221.532641 
L 357.236642 221.730792 
L 357.409239 221.929331 
L 357.581836 222.128255 
L 357.754432 222.327566 
L 357.927029 222.527264 
L 358.099626 222.727348 
L 358.272223 222.927818 
L 358.444819 223.128675 
L 358.617416 223.329919 
L 358.790013 223.531549 
L 358.96261 223.733566 
L 359.135207 223.935969 
L 359.307803 224.138758 
L 359.4804 224.341934 
L 359.652997 224.545497 
L 359.825594 224.749446 
L 359.998191 224.953782 
L 360.170787 225.158504 
L 360.343384 225.363613 
L 360.515981 225.569108 
L 360.688578 225.774989 
L 360.861174 225.981257 
L 361.033771 226.187912 
L 361.206368 226.394953 
L 361.378965 226.602381 
L 361.551562 226.810195 
L 361.724158 227.018396 
L 361.896755 227.226983 
L 362.069352 227.435957 
L 362.241949 227.645317 
L 362.414545 227.855064 
L 362.587142 228.065197 
L 362.759739 228.275717 
L 362.932336 228.486623 
L 363.104933 228.697915 
L 363.277529 228.909595 
L 363.450126 229.12166 
L 363.622723 229.334113 
L 363.79532 229.546951 
L 363.967916 229.760177 
L 364.140513 229.973788 
L 364.31311 230.187787 
" style="fill:none;stroke:#ff0000;stroke-linecap:square;stroke-width:1.5;"/>
   </g>
   <g id="line2d_38">
    <path clip-path="url(#p4cc68f2453)" d="M 364.31311 230.387331 
L 364.485707 230.601654 
L 364.658304 230.816242 
L 364.8309 231.031095 
L 365.003497 231.246211 
L 365.176094 231.461592 
L 365.348691 231.677238 
L 365.521288 231.893148 
L 365.693884 232.109322 
L 365.866481 232.32576 
L 366.039078 232.542463 
L 366.211675 232.75943 
L 366.384271 232.976662 
L 366.556868 233.194158 
L 366.729465 233.411918 
L 366.902062 233.629942 
L 367.074659 233.848231 
L 367.247255 234.066785 
L 367.419852 234.285602 
L 367.592449 234.504684 
L 367.765046 234.724031 
L 367.937642 234.943641 
L 368.110239 235.163516 
L 368.282836 235.383656 
L 368.455433 235.604059 
L 368.62803 235.824727 
L 368.800626 236.04566 
L 368.973223 236.266857 
L 369.14582 236.488318 
L 369.318417 236.710043 
L 369.491013 236.932033 
L 369.66361 237.154287 
L 369.836207 237.376805 
L 370.008804 237.599588 
L 370.181401 237.822636 
L 370.353997 238.045947 
L 370.526594 238.269523 
L 370.699191 238.493363 
L 370.871788 238.717468 
L 371.044385 238.941837 
L 371.216981 239.16647 
L 371.389578 239.391368 
L 371.562175 239.61653 
L 371.734772 239.841956 
L 371.907368 240.067647 
L 372.079965 240.293602 
L 372.252562 240.519821 
L 372.425159 240.746305 
L 372.597756 240.973053 
L 372.770352 241.200065 
L 372.942949 241.427342 
L 373.115546 241.654883 
L 373.288143 241.882689 
L 373.460739 242.110758 
L 373.633336 242.339092 
L 373.805933 242.567691 
L 373.97853 242.796554 
L 374.151127 243.025681 
L 374.323723 243.255073 
L 374.49632 243.484728 
L 374.668917 243.714649 
L 374.841514 243.944833 
L 375.01411 244.175282 
L 375.186707 244.405996 
L 375.359304 244.636973 
L 375.531901 244.868215 
L 375.704498 245.099722 
L 375.877094 245.331492 
L 376.049691 245.563527 
L 376.222288 245.795827 
L 376.394885 246.02839 
L 376.567482 246.261218 
L 376.740078 246.494311 
L 376.912675 246.727668 
L 377.085272 246.961289 
L 377.257869 247.195174 
L 377.430465 247.429324 
L 377.603062 247.663738 
L 377.775659 247.898417 
L 377.948256 248.13336 
L 378.120853 248.368567 
L 378.293449 248.604038 
L 378.466046 248.839774 
L 378.638643 249.075775 
L 378.81124 249.312039 
L 378.983836 249.548568 
L 379.156433 249.785362 
L 379.32903 250.022419 
L 379.501627 250.259741 
L 379.674224 250.497328 
L 379.84682 250.735178 
L 380.019417 250.973293 
L 380.192014 251.211673 
L 380.364611 251.450316 
L 380.537207 251.689225 
L 380.709804 251.928397 
L 380.882401 252.167834 
L 381.054998 252.407535 
L 381.227595 252.6475 
L 381.400191 252.88773 
" style="fill:none;stroke:#ff0000;stroke-linecap:square;stroke-width:1.5;"/>
   </g>
   <g id="line2d_39">
    <path clip-path="url(#p4cc68f2453)" d="M 381.400191 253.073663 
L 381.572788 253.3141 
L 381.745385 253.554688 
L 381.917982 253.795426 
L 382.090579 254.036315 
L 382.263175 254.277354 
L 382.435772 254.518544 
L 382.608369 254.759885 
L 382.780966 255.001376 
L 382.953562 255.243017 
L 383.126159 255.484809 
L 383.298756 255.726752 
L 383.471353 255.968845 
L 383.64395 256.211088 
L 383.816546 256.453482 
L 383.989143 256.696027 
L 384.16174 256.938722 
L 384.334337 257.181568 
L 384.506933 257.424564 
L 384.67953 257.66771 
L 384.852127 257.911008 
L 385.024724 258.154455 
L 385.197321 258.398054 
L 385.369917 258.641803 
L 385.542514 258.885702 
L 385.715111 259.129752 
L 385.887708 259.373952 
L 386.060304 259.618303 
L 386.232901 259.862804 
L 386.405498 260.107456 
L 386.578095 260.352259 
L 386.750692 260.597212 
L 386.923288 260.842315 
L 387.095885 261.087569 
L 387.268482 261.332974 
L 387.441079 261.578529 
L 387.613676 261.824235 
L 387.786272 262.070091 
L 387.958869 262.316097 
L 388.131466 262.562255 
L 388.304063 262.808562 
L 388.476659 263.055021 
L 388.649256 263.301629 
L 388.821853 263.548389 
L 388.99445 263.795298 
L 389.167047 264.042359 
L 389.339643 264.289569 
L 389.51224 264.536931 
L 389.684837 264.784443 
L 389.857434 265.032105 
L 390.03003 265.279918 
L 390.202627 265.527882 
L 390.375224 265.775996 
L 390.547821 266.02426 
L 390.720418 266.272675 
L 390.893014 266.521241 
L 391.065611 266.769957 
L 391.238208 267.018823 
L 391.410805 267.267841 
L 391.583401 267.517008 
L 391.755998 267.766326 
L 391.928595 268.015795 
L 392.101192 268.265414 
L 392.273789 268.515184 
L 392.446385 268.765104 
L 392.618982 269.015175 
L 392.791579 269.265396 
L 392.964176 269.515768 
L 393.136773 269.766291 
L 393.309369 270.016964 
L 393.481966 270.267787 
L 393.654563 270.518761 
L 393.82716 270.769885 
L 393.999756 271.02116 
L 394.172353 271.272586 
L 394.34495 271.524162 
L 394.517547 271.775889 
L 394.690144 272.027766 
L 394.86274 272.279793 
L 395.035337 272.531971 
L 395.207934 272.7843 
L 395.380531 273.036779 
L 395.553127 273.289409 
L 395.725724 273.542189 
L 395.898321 273.79512 
L 396.070918 274.048201 
L 396.243515 274.301433 
L 396.416111 274.554815 
L 396.588708 274.808348 
L 396.761305 275.062031 
L 396.933902 275.315865 
L 397.106498 275.56985 
L 397.279095 275.823985 
L 397.451692 276.07827 
L 397.624289 276.332706 
L 397.796886 276.587293 
L 397.969482 276.84203 
L 398.142079 277.096917 
L 398.314676 277.351955 
L 398.487273 277.607144 
" style="fill:none;stroke:#ff0000;stroke-linecap:square;stroke-width:1.5;"/>
   </g>
   <g id="patch_3">
    <path d="M 57.6 307.584 
L 57.6 41.472 
" style="fill:none;stroke:#000000;stroke-linecap:square;stroke-linejoin:miter;stroke-width:0.8;"/>
   </g>
   <g id="patch_4">
    <path d="M 414.72 307.584 
L 414.72 41.472 
" style="fill:none;stroke:#000000;stroke-linecap:square;stroke-linejoin:miter;stroke-width:0.8;"/>
   </g>
   <g id="patch_5">
    <path d="M 57.6 307.584 
L 414.72 307.584 
" style="fill:none;stroke:#000000;stroke-linecap:square;stroke-linejoin:miter;stroke-width:0.8;"/>
   </g>
   <g id="patch_6">
    <path d="M 57.6 41.472 
L 414.72 41.472 
" style="fill:none;stroke:#000000;stroke-linecap:square;stroke-linejoin:miter;stroke-width:0.8;"/>
   </g>
  </g>
 </g>
 <defs>
  <clipPath id="p4cc68f2453">
   <rect height="266.112" width="357.12" x="57.6" y="41.472"/>
  </clipPath>
 </defs>
</svg>
