<?xml version="1.0" encoding="utf-8" standalone="no"?>
<!DOCTYPE svg PUBLIC "-//W3C//DTD SVG 1.1//EN"
  "http://www.w3.org/Graphics/SVG/1.1/DTD/svg11.dtd">
<!-- Created with matplotlib (https://matplotlib.org/) -->
<svg height="345.6pt" version="1.1" viewBox="0 0 460.8 345.6" width="460.8pt" xmlns="http://www.w3.org/2000/svg" xmlns:xlink="http://www.w3.org/1999/xlink">
 <metadata>
  <rdf:RDF xmlns:cc="http://creativecommons.org/ns#" xmlns:dc="http://purl.org/dc/elements/1.1/" xmlns:rdf="http://www.w3.org/1999/02/22-rdf-syntax-ns#">
   <cc:Work>
    <dc:type rdf:resource="http://purl.org/dc/dcmitype/StillImage"/>
    <dc:date>2022-06-28T10:27:26.797892</dc:date>
    <dc:format>image/svg+xml</dc:format>
    <dc:creator>
     <cc:Agent>
      <dc:title>Matplotlib v3.3.2, https://matplotlib.org/</dc:title>
     </cc:Agent>
    </dc:creator>
   </cc:Work>
  </rdf:RDF>
 </metadata>
 <defs>
  <style type="text/css">*{stroke-linecap:butt;stroke-linejoin:round;}</style>
 </defs>
 <g id="figure_1">
  <g id="patch_1">
   <path d="M 0 345.6 
L 460.8 345.6 
L 460.8 0 
L 0 0 
z
" style="fill:#ffffff;"/>
  </g>
  <g id="axes_1">
   <g id="patch_2">
    <path d="M 57.6 307.584 
L 414.72 307.584 
L 414.72 41.472 
L 57.6 41.472 
z
" style="fill:#ffffff;"/>
   </g>
   <g id="PathCollection_1">
    <defs>
     <path d="M 0 3 
C 0.795609 3 1.55874 2.683901 2.12132 2.12132 
C 2.683901 1.55874 3 0.795609 3 0 
C 3 -0.795609 2.683901 -1.55874 2.12132 -2.12132 
C 1.55874 -2.683901 0.795609 -3 0 -3 
C -0.795609 -3 -1.55874 -2.683901 -2.12132 -2.12132 
C -2.683901 -1.55874 -3 -0.795609 -3 0 
C -3 0.795609 -2.683901 1.55874 -2.12132 2.12132 
C -1.55874 2.683901 -0.795609 3 0 3 
z
" id="m93d9e5f26a" style="stroke:#0000ff;"/>
    </defs>
    <g clip-path="url(#p1e7409b4e2)">
     <use style="fill:#0000ff;stroke:#0000ff;" x="82.376268" xlink:href="#m93d9e5f26a" y="295.488"/>
    </g>
   </g>
   <g id="PathCollection_2">
    <g clip-path="url(#p1e7409b4e2)">
     <use style="fill:#0000ff;stroke:#0000ff;" x="99.463349" xlink:href="#m93d9e5f26a" y="295.488"/>
    </g>
   </g>
   <g id="PathCollection_3">
    <g clip-path="url(#p1e7409b4e2)">
     <use style="fill:#0000ff;stroke:#0000ff;" x="116.550431" xlink:href="#m93d9e5f26a" y="295.487983"/>
    </g>
   </g>
   <g id="PathCollection_4">
    <g clip-path="url(#p1e7409b4e2)">
     <use style="fill:#0000ff;stroke:#0000ff;" x="133.637512" xlink:href="#m93d9e5f26a" y="295.486785"/>
    </g>
   </g>
   <g id="PathCollection_5">
    <g clip-path="url(#p1e7409b4e2)">
     <use style="fill:#0000ff;stroke:#0000ff;" x="150.724593" xlink:href="#m93d9e5f26a" y="295.360254"/>
    </g>
   </g>
   <g id="PathCollection_6">
    <g clip-path="url(#p1e7409b4e2)">
     <use style="fill:#0000ff;stroke:#0000ff;" x="167.811675" xlink:href="#m93d9e5f26a" y="294.224802"/>
    </g>
   </g>
   <g id="PathCollection_7">
    <g clip-path="url(#p1e7409b4e2)">
     <use style="fill:#0000ff;stroke:#0000ff;" x="184.898756" xlink:href="#m93d9e5f26a" y="288.314733"/>
    </g>
   </g>
   <g id="PathCollection_8">
    <g clip-path="url(#p1e7409b4e2)">
     <use style="fill:#0000ff;stroke:#0000ff;" x="201.985837" xlink:href="#m93d9e5f26a" y="266.538423"/>
    </g>
   </g>
   <g id="PathCollection_9">
    <g clip-path="url(#p1e7409b4e2)">
     <use style="fill:#0000ff;stroke:#0000ff;" x="219.072919" xlink:href="#m93d9e5f26a" y="225.954528"/>
    </g>
   </g>
   <g id="PathCollection_10">
    <g clip-path="url(#p1e7409b4e2)">
     <use style="fill:#0000ff;stroke:#0000ff;" x="236.16" xlink:href="#m93d9e5f26a" y="174.788319"/>
    </g>
   </g>
   <g id="PathCollection_11">
    <g clip-path="url(#p1e7409b4e2)">
     <use style="fill:#0000ff;stroke:#0000ff;" x="253.247081" xlink:href="#m93d9e5f26a" y="124.434792"/>
    </g>
   </g>
   <g id="PathCollection_12">
    <g clip-path="url(#p1e7409b4e2)">
     <use style="fill:#0000ff;stroke:#0000ff;" x="270.334163" xlink:href="#m93d9e5f26a" y="83.765795"/>
    </g>
   </g>
   <g id="PathCollection_13">
    <g clip-path="url(#p1e7409b4e2)">
     <use style="fill:#0000ff;stroke:#0000ff;" x="287.421244" xlink:href="#m93d9e5f26a" y="58.954809"/>
    </g>
   </g>
   <g id="PathCollection_14">
    <g clip-path="url(#p1e7409b4e2)">
     <use style="fill:#0000ff;stroke:#0000ff;" x="304.508325" xlink:href="#m93d9e5f26a" y="53.876936"/>
    </g>
   </g>
   <g id="PathCollection_15">
    <g clip-path="url(#p1e7409b4e2)">
     <use style="fill:#0000ff;stroke:#0000ff;" x="321.595407" xlink:href="#m93d9e5f26a" y="53.593563"/>
    </g>
   </g>
   <g id="PathCollection_16">
    <g clip-path="url(#p1e7409b4e2)">
     <use style="fill:#0000ff;stroke:#0000ff;" x="338.682488" xlink:href="#m93d9e5f26a" y="53.570147"/>
    </g>
   </g>
   <g id="PathCollection_17">
    <g clip-path="url(#p1e7409b4e2)">
     <use style="fill:#0000ff;stroke:#0000ff;" x="355.769569" xlink:href="#m93d9e5f26a" y="53.568125"/>
    </g>
   </g>
   <g id="PathCollection_18">
    <g clip-path="url(#p1e7409b4e2)">
     <use style="fill:#0000ff;stroke:#0000ff;" x="372.856651" xlink:href="#m93d9e5f26a" y="53.568004"/>
    </g>
   </g>
   <g id="PathCollection_19">
    <g clip-path="url(#p1e7409b4e2)">
     <use style="fill:#0000ff;stroke:#0000ff;" x="389.943732" xlink:href="#m93d9e5f26a" y="53.568"/>
    </g>
   </g>
   <g id="PathCollection_20">
    <g clip-path="url(#p1e7409b4e2)">
     <use style="fill:#0000ff;stroke:#0000ff;" x="82.376268" xlink:href="#m93d9e5f26a" y="295.488"/>
    </g>
   </g>
   <g id="PathCollection_21">
    <g clip-path="url(#p1e7409b4e2)">
     <use style="fill:#0000ff;stroke:#0000ff;" x="99.463349" xlink:href="#m93d9e5f26a" y="295.488"/>
    </g>
   </g>
   <g id="PathCollection_22">
    <g clip-path="url(#p1e7409b4e2)">
     <use style="fill:#0000ff;stroke:#0000ff;" x="116.550431" xlink:href="#m93d9e5f26a" y="295.487983"/>
    </g>
   </g>
   <g id="PathCollection_23">
    <g clip-path="url(#p1e7409b4e2)">
     <use style="fill:#0000ff;stroke:#0000ff;" x="133.637512" xlink:href="#m93d9e5f26a" y="295.486785"/>
    </g>
   </g>
   <g id="PathCollection_24">
    <g clip-path="url(#p1e7409b4e2)">
     <use style="fill:#0000ff;stroke:#0000ff;" x="150.724593" xlink:href="#m93d9e5f26a" y="295.360254"/>
    </g>
   </g>
   <g id="PathCollection_25">
    <g clip-path="url(#p1e7409b4e2)">
     <use style="fill:#0000ff;stroke:#0000ff;" x="167.811675" xlink:href="#m93d9e5f26a" y="294.224802"/>
    </g>
   </g>
   <g id="PathCollection_26">
    <g clip-path="url(#p1e7409b4e2)">
     <use style="fill:#0000ff;stroke:#0000ff;" x="184.898756" xlink:href="#m93d9e5f26a" y="288.314733"/>
    </g>
   </g>
   <g id="PathCollection_27">
    <g clip-path="url(#p1e7409b4e2)">
     <use style="fill:#0000ff;stroke:#0000ff;" x="201.985837" xlink:href="#m93d9e5f26a" y="266.538423"/>
    </g>
   </g>
   <g id="PathCollection_28">
    <g clip-path="url(#p1e7409b4e2)">
     <use style="fill:#0000ff;stroke:#0000ff;" x="219.072919" xlink:href="#m93d9e5f26a" y="225.954528"/>
    </g>
   </g>
   <g id="PathCollection_29">
    <g clip-path="url(#p1e7409b4e2)">
     <use style="fill:#0000ff;stroke:#0000ff;" x="236.16" xlink:href="#m93d9e5f26a" y="174.788319"/>
    </g>
   </g>
   <g id="PathCollection_30">
    <g clip-path="url(#p1e7409b4e2)">
     <use style="fill:#0000ff;stroke:#0000ff;" x="253.247081" xlink:href="#m93d9e5f26a" y="124.434792"/>
    </g>
   </g>
   <g id="PathCollection_31">
    <g clip-path="url(#p1e7409b4e2)">
     <use style="fill:#0000ff;stroke:#0000ff;" x="270.334163" xlink:href="#m93d9e5f26a" y="83.765795"/>
    </g>
   </g>
   <g id="PathCollection_32">
    <g clip-path="url(#p1e7409b4e2)">
     <use style="fill:#0000ff;stroke:#0000ff;" x="287.421244" xlink:href="#m93d9e5f26a" y="58.954809"/>
    </g>
   </g>
   <g id="PathCollection_33">
    <g clip-path="url(#p1e7409b4e2)">
     <use style="fill:#0000ff;stroke:#0000ff;" x="304.508325" xlink:href="#m93d9e5f26a" y="53.876936"/>
    </g>
   </g>
   <g id="PathCollection_34">
    <g clip-path="url(#p1e7409b4e2)">
     <use style="fill:#0000ff;stroke:#0000ff;" x="321.595407" xlink:href="#m93d9e5f26a" y="53.593563"/>
    </g>
   </g>
   <g id="PathCollection_35">
    <g clip-path="url(#p1e7409b4e2)">
     <use style="fill:#0000ff;stroke:#0000ff;" x="338.682488" xlink:href="#m93d9e5f26a" y="53.570147"/>
    </g>
   </g>
   <g id="PathCollection_36">
    <g clip-path="url(#p1e7409b4e2)">
     <use style="fill:#0000ff;stroke:#0000ff;" x="355.769569" xlink:href="#m93d9e5f26a" y="53.568125"/>
    </g>
   </g>
   <g id="PathCollection_37">
    <g clip-path="url(#p1e7409b4e2)">
     <use style="fill:#0000ff;stroke:#0000ff;" x="372.856651" xlink:href="#m93d9e5f26a" y="53.568004"/>
    </g>
   </g>
   <g id="PathCollection_38">
    <g clip-path="url(#p1e7409b4e2)">
     <use style="fill:#0000ff;stroke:#0000ff;" x="389.943732" xlink:href="#m93d9e5f26a" y="53.568"/>
    </g>
   </g>
   <g id="matplotlib.axis_1">
    <g id="xtick_1">
     <g id="line2d_1">
      <defs>
       <path d="M 0 0 
L 0 3.5 
" id="m58348f07df" style="stroke:#000000;stroke-width:0.8;"/>
      </defs>
      <g>
       <use style="stroke:#000000;stroke-width:0.8;" x="73.832727" xlink:href="#m58348f07df" y="307.584"/>
      </g>
     </g>
     <g id="text_1">
      <!-- −1.00 -->
      <g transform="translate(58.510071 322.182437)scale(0.1 -0.1)">
       <defs>
        <path d="M 10.59375 35.5 
L 73.1875 35.5 
L 73.1875 27.203125 
L 10.59375 27.203125 
z
" id="DejaVuSans-8722"/>
        <path d="M 12.40625 8.296875 
L 28.515625 8.296875 
L 28.515625 63.921875 
L 10.984375 60.40625 
L 10.984375 69.390625 
L 28.421875 72.90625 
L 38.28125 72.90625 
L 38.28125 8.296875 
L 54.390625 8.296875 
L 54.390625 0 
L 12.40625 0 
z
" id="DejaVuSans-49"/>
        <path d="M 10.6875 12.40625 
L 21 12.40625 
L 21 0 
L 10.6875 0 
z
" id="DejaVuSans-46"/>
        <path d="M 31.78125 66.40625 
Q 24.171875 66.40625 20.328125 58.90625 
Q 16.5 51.421875 16.5 36.375 
Q 16.5 21.390625 20.328125 13.890625 
Q 24.171875 6.390625 31.78125 6.390625 
Q 39.453125 6.390625 43.28125 13.890625 
Q 47.125 21.390625 47.125 36.375 
Q 47.125 51.421875 43.28125 58.90625 
Q 39.453125 66.40625 31.78125 66.40625 
z
M 31.78125 74.21875 
Q 44.046875 74.21875 50.515625 64.515625 
Q 56.984375 54.828125 56.984375 36.375 
Q 56.984375 17.96875 50.515625 8.265625 
Q 44.046875 -1.421875 31.78125 -1.421875 
Q 19.53125 -1.421875 13.0625 8.265625 
Q 6.59375 17.96875 6.59375 36.375 
Q 6.59375 54.828125 13.0625 64.515625 
Q 19.53125 74.21875 31.78125 74.21875 
z
" id="DejaVuSans-48"/>
       </defs>
       <use xlink:href="#DejaVuSans-8722"/>
       <use x="83.789062" xlink:href="#DejaVuSans-49"/>
       <use x="147.412109" xlink:href="#DejaVuSans-46"/>
       <use x="179.199219" xlink:href="#DejaVuSans-48"/>
       <use x="242.822266" xlink:href="#DejaVuSans-48"/>
      </g>
     </g>
    </g>
    <g id="xtick_2">
     <g id="line2d_2">
      <g>
       <use style="stroke:#000000;stroke-width:0.8;" x="114.414545" xlink:href="#m58348f07df" y="307.584"/>
      </g>
     </g>
     <g id="text_2">
      <!-- −0.75 -->
      <g transform="translate(99.091889 322.182437)scale(0.1 -0.1)">
       <defs>
        <path d="M 8.203125 72.90625 
L 55.078125 72.90625 
L 55.078125 68.703125 
L 28.609375 0 
L 18.3125 0 
L 43.21875 64.59375 
L 8.203125 64.59375 
z
" id="DejaVuSans-55"/>
        <path d="M 10.796875 72.90625 
L 49.515625 72.90625 
L 49.515625 64.59375 
L 19.828125 64.59375 
L 19.828125 46.734375 
Q 21.96875 47.46875 24.109375 47.828125 
Q 26.265625 48.1875 28.421875 48.1875 
Q 40.625 48.1875 47.75 41.5 
Q 54.890625 34.8125 54.890625 23.390625 
Q 54.890625 11.625 47.5625 5.09375 
Q 40.234375 -1.421875 26.90625 -1.421875 
Q 22.3125 -1.421875 17.546875 -0.640625 
Q 12.796875 0.140625 7.71875 1.703125 
L 7.71875 11.625 
Q 12.109375 9.234375 16.796875 8.0625 
Q 21.484375 6.890625 26.703125 6.890625 
Q 35.15625 6.890625 40.078125 11.328125 
Q 45.015625 15.765625 45.015625 23.390625 
Q 45.015625 31 40.078125 35.4375 
Q 35.15625 39.890625 26.703125 39.890625 
Q 22.75 39.890625 18.8125 39.015625 
Q 14.890625 38.140625 10.796875 36.28125 
z
" id="DejaVuSans-53"/>
       </defs>
       <use xlink:href="#DejaVuSans-8722"/>
       <use x="83.789062" xlink:href="#DejaVuSans-48"/>
       <use x="147.412109" xlink:href="#DejaVuSans-46"/>
       <use x="179.199219" xlink:href="#DejaVuSans-55"/>
       <use x="242.822266" xlink:href="#DejaVuSans-53"/>
      </g>
     </g>
    </g>
    <g id="xtick_3">
     <g id="line2d_3">
      <g>
       <use style="stroke:#000000;stroke-width:0.8;" x="154.996364" xlink:href="#m58348f07df" y="307.584"/>
      </g>
     </g>
     <g id="text_3">
      <!-- −0.50 -->
      <g transform="translate(139.673707 322.182437)scale(0.1 -0.1)">
       <use xlink:href="#DejaVuSans-8722"/>
       <use x="83.789062" xlink:href="#DejaVuSans-48"/>
       <use x="147.412109" xlink:href="#DejaVuSans-46"/>
       <use x="179.199219" xlink:href="#DejaVuSans-53"/>
       <use x="242.822266" xlink:href="#DejaVuSans-48"/>
      </g>
     </g>
    </g>
    <g id="xtick_4">
     <g id="line2d_4">
      <g>
       <use style="stroke:#000000;stroke-width:0.8;" x="195.578182" xlink:href="#m58348f07df" y="307.584"/>
      </g>
     </g>
     <g id="text_4">
      <!-- −0.25 -->
      <g transform="translate(180.255526 322.182437)scale(0.1 -0.1)">
       <defs>
        <path d="M 19.1875 8.296875 
L 53.609375 8.296875 
L 53.609375 0 
L 7.328125 0 
L 7.328125 8.296875 
Q 12.9375 14.109375 22.625 23.890625 
Q 32.328125 33.6875 34.8125 36.53125 
Q 39.546875 41.84375 41.421875 45.53125 
Q 43.3125 49.21875 43.3125 52.78125 
Q 43.3125 58.59375 39.234375 62.25 
Q 35.15625 65.921875 28.609375 65.921875 
Q 23.96875 65.921875 18.8125 64.3125 
Q 13.671875 62.703125 7.8125 59.421875 
L 7.8125 69.390625 
Q 13.765625 71.78125 18.9375 73 
Q 24.125 74.21875 28.421875 74.21875 
Q 39.75 74.21875 46.484375 68.546875 
Q 53.21875 62.890625 53.21875 53.421875 
Q 53.21875 48.921875 51.53125 44.890625 
Q 49.859375 40.875 45.40625 35.40625 
Q 44.1875 33.984375 37.640625 27.21875 
Q 31.109375 20.453125 19.1875 8.296875 
z
" id="DejaVuSans-50"/>
       </defs>
       <use xlink:href="#DejaVuSans-8722"/>
       <use x="83.789062" xlink:href="#DejaVuSans-48"/>
       <use x="147.412109" xlink:href="#DejaVuSans-46"/>
       <use x="179.199219" xlink:href="#DejaVuSans-50"/>
       <use x="242.822266" xlink:href="#DejaVuSans-53"/>
      </g>
     </g>
    </g>
    <g id="xtick_5">
     <g id="line2d_5">
      <g>
       <use style="stroke:#000000;stroke-width:0.8;" x="236.16" xlink:href="#m58348f07df" y="307.584"/>
      </g>
     </g>
     <g id="text_5">
      <!-- 0.00 -->
      <g transform="translate(225.027187 322.182437)scale(0.1 -0.1)">
       <use xlink:href="#DejaVuSans-48"/>
       <use x="63.623047" xlink:href="#DejaVuSans-46"/>
       <use x="95.410156" xlink:href="#DejaVuSans-48"/>
       <use x="159.033203" xlink:href="#DejaVuSans-48"/>
      </g>
     </g>
    </g>
    <g id="xtick_6">
     <g id="line2d_6">
      <g>
       <use style="stroke:#000000;stroke-width:0.8;" x="276.741818" xlink:href="#m58348f07df" y="307.584"/>
      </g>
     </g>
     <g id="text_6">
      <!-- 0.25 -->
      <g transform="translate(265.609006 322.182437)scale(0.1 -0.1)">
       <use xlink:href="#DejaVuSans-48"/>
       <use x="63.623047" xlink:href="#DejaVuSans-46"/>
       <use x="95.410156" xlink:href="#DejaVuSans-50"/>
       <use x="159.033203" xlink:href="#DejaVuSans-53"/>
      </g>
     </g>
    </g>
    <g id="xtick_7">
     <g id="line2d_7">
      <g>
       <use style="stroke:#000000;stroke-width:0.8;" x="317.323636" xlink:href="#m58348f07df" y="307.584"/>
      </g>
     </g>
     <g id="text_7">
      <!-- 0.50 -->
      <g transform="translate(306.190824 322.182437)scale(0.1 -0.1)">
       <use xlink:href="#DejaVuSans-48"/>
       <use x="63.623047" xlink:href="#DejaVuSans-46"/>
       <use x="95.410156" xlink:href="#DejaVuSans-53"/>
       <use x="159.033203" xlink:href="#DejaVuSans-48"/>
      </g>
     </g>
    </g>
    <g id="xtick_8">
     <g id="line2d_8">
      <g>
       <use style="stroke:#000000;stroke-width:0.8;" x="357.905455" xlink:href="#m58348f07df" y="307.584"/>
      </g>
     </g>
     <g id="text_8">
      <!-- 0.75 -->
      <g transform="translate(346.772642 322.182437)scale(0.1 -0.1)">
       <use xlink:href="#DejaVuSans-48"/>
       <use x="63.623047" xlink:href="#DejaVuSans-46"/>
       <use x="95.410156" xlink:href="#DejaVuSans-55"/>
       <use x="159.033203" xlink:href="#DejaVuSans-53"/>
      </g>
     </g>
    </g>
    <g id="xtick_9">
     <g id="line2d_9">
      <g>
       <use style="stroke:#000000;stroke-width:0.8;" x="398.487273" xlink:href="#m58348f07df" y="307.584"/>
      </g>
     </g>
     <g id="text_9">
      <!-- 1.00 -->
      <g transform="translate(387.35446 322.182437)scale(0.1 -0.1)">
       <use xlink:href="#DejaVuSans-49"/>
       <use x="63.623047" xlink:href="#DejaVuSans-46"/>
       <use x="95.410156" xlink:href="#DejaVuSans-48"/>
       <use x="159.033203" xlink:href="#DejaVuSans-48"/>
      </g>
     </g>
    </g>
   </g>
   <g id="matplotlib.axis_2">
    <g id="ytick_1">
     <g id="line2d_10">
      <defs>
       <path d="M 0 0 
L -3.5 0 
" id="mc67a86f5ad" style="stroke:#000000;stroke-width:0.8;"/>
      </defs>
      <g>
       <use style="stroke:#000000;stroke-width:0.8;" x="57.6" xlink:href="#mc67a86f5ad" y="295.488"/>
      </g>
     </g>
     <g id="text_10">
      <!-- 1.0 -->
      <g transform="translate(34.696875 299.287219)scale(0.1 -0.1)">
       <use xlink:href="#DejaVuSans-49"/>
       <use x="63.623047" xlink:href="#DejaVuSans-46"/>
       <use x="95.410156" xlink:href="#DejaVuSans-48"/>
      </g>
     </g>
    </g>
    <g id="ytick_2">
     <g id="line2d_11">
      <g>
       <use style="stroke:#000000;stroke-width:0.8;" x="57.6" xlink:href="#mc67a86f5ad" y="247.104"/>
      </g>
     </g>
     <g id="text_11">
      <!-- 1.2 -->
      <g transform="translate(34.696875 250.903219)scale(0.1 -0.1)">
       <use xlink:href="#DejaVuSans-49"/>
       <use x="63.623047" xlink:href="#DejaVuSans-46"/>
       <use x="95.410156" xlink:href="#DejaVuSans-50"/>
      </g>
     </g>
    </g>
    <g id="ytick_3">
     <g id="line2d_12">
      <g>
       <use style="stroke:#000000;stroke-width:0.8;" x="57.6" xlink:href="#mc67a86f5ad" y="198.72"/>
      </g>
     </g>
     <g id="text_12">
      <!-- 1.4 -->
      <g transform="translate(34.696875 202.519219)scale(0.1 -0.1)">
       <defs>
        <path d="M 37.796875 64.3125 
L 12.890625 25.390625 
L 37.796875 25.390625 
z
M 35.203125 72.90625 
L 47.609375 72.90625 
L 47.609375 25.390625 
L 58.015625 25.390625 
L 58.015625 17.1875 
L 47.609375 17.1875 
L 47.609375 0 
L 37.796875 0 
L 37.796875 17.1875 
L 4.890625 17.1875 
L 4.890625 26.703125 
z
" id="DejaVuSans-52"/>
       </defs>
       <use xlink:href="#DejaVuSans-49"/>
       <use x="63.623047" xlink:href="#DejaVuSans-46"/>
       <use x="95.410156" xlink:href="#DejaVuSans-52"/>
      </g>
     </g>
    </g>
    <g id="ytick_4">
     <g id="line2d_13">
      <g>
       <use style="stroke:#000000;stroke-width:0.8;" x="57.6" xlink:href="#mc67a86f5ad" y="150.336"/>
      </g>
     </g>
     <g id="text_13">
      <!-- 1.6 -->
      <g transform="translate(34.696875 154.135219)scale(0.1 -0.1)">
       <defs>
        <path d="M 33.015625 40.375 
Q 26.375 40.375 22.484375 35.828125 
Q 18.609375 31.296875 18.609375 23.390625 
Q 18.609375 15.53125 22.484375 10.953125 
Q 26.375 6.390625 33.015625 6.390625 
Q 39.65625 6.390625 43.53125 10.953125 
Q 47.40625 15.53125 47.40625 23.390625 
Q 47.40625 31.296875 43.53125 35.828125 
Q 39.65625 40.375 33.015625 40.375 
z
M 52.59375 71.296875 
L 52.59375 62.3125 
Q 48.875 64.0625 45.09375 64.984375 
Q 41.3125 65.921875 37.59375 65.921875 
Q 27.828125 65.921875 22.671875 59.328125 
Q 17.53125 52.734375 16.796875 39.40625 
Q 19.671875 43.65625 24.015625 45.921875 
Q 28.375 48.1875 33.59375 48.1875 
Q 44.578125 48.1875 50.953125 41.515625 
Q 57.328125 34.859375 57.328125 23.390625 
Q 57.328125 12.15625 50.6875 5.359375 
Q 44.046875 -1.421875 33.015625 -1.421875 
Q 20.359375 -1.421875 13.671875 8.265625 
Q 6.984375 17.96875 6.984375 36.375 
Q 6.984375 53.65625 15.1875 63.9375 
Q 23.390625 74.21875 37.203125 74.21875 
Q 40.921875 74.21875 44.703125 73.484375 
Q 48.484375 72.75 52.59375 71.296875 
z
" id="DejaVuSans-54"/>
       </defs>
       <use xlink:href="#DejaVuSans-49"/>
       <use x="63.623047" xlink:href="#DejaVuSans-46"/>
       <use x="95.410156" xlink:href="#DejaVuSans-54"/>
      </g>
     </g>
    </g>
    <g id="ytick_5">
     <g id="line2d_14">
      <g>
       <use style="stroke:#000000;stroke-width:0.8;" x="57.6" xlink:href="#mc67a86f5ad" y="101.952"/>
      </g>
     </g>
     <g id="text_14">
      <!-- 1.8 -->
      <g transform="translate(34.696875 105.751219)scale(0.1 -0.1)">
       <defs>
        <path d="M 31.78125 34.625 
Q 24.75 34.625 20.71875 30.859375 
Q 16.703125 27.09375 16.703125 20.515625 
Q 16.703125 13.921875 20.71875 10.15625 
Q 24.75 6.390625 31.78125 6.390625 
Q 38.8125 6.390625 42.859375 10.171875 
Q 46.921875 13.96875 46.921875 20.515625 
Q 46.921875 27.09375 42.890625 30.859375 
Q 38.875 34.625 31.78125 34.625 
z
M 21.921875 38.8125 
Q 15.578125 40.375 12.03125 44.71875 
Q 8.5 49.078125 8.5 55.328125 
Q 8.5 64.0625 14.71875 69.140625 
Q 20.953125 74.21875 31.78125 74.21875 
Q 42.671875 74.21875 48.875 69.140625 
Q 55.078125 64.0625 55.078125 55.328125 
Q 55.078125 49.078125 51.53125 44.71875 
Q 48 40.375 41.703125 38.8125 
Q 48.828125 37.15625 52.796875 32.3125 
Q 56.78125 27.484375 56.78125 20.515625 
Q 56.78125 9.90625 50.3125 4.234375 
Q 43.84375 -1.421875 31.78125 -1.421875 
Q 19.734375 -1.421875 13.25 4.234375 
Q 6.78125 9.90625 6.78125 20.515625 
Q 6.78125 27.484375 10.78125 32.3125 
Q 14.796875 37.15625 21.921875 38.8125 
z
M 18.3125 54.390625 
Q 18.3125 48.734375 21.84375 45.5625 
Q 25.390625 42.390625 31.78125 42.390625 
Q 38.140625 42.390625 41.71875 45.5625 
Q 45.3125 48.734375 45.3125 54.390625 
Q 45.3125 60.0625 41.71875 63.234375 
Q 38.140625 66.40625 31.78125 66.40625 
Q 25.390625 66.40625 21.84375 63.234375 
Q 18.3125 60.0625 18.3125 54.390625 
z
" id="DejaVuSans-56"/>
       </defs>
       <use xlink:href="#DejaVuSans-49"/>
       <use x="63.623047" xlink:href="#DejaVuSans-46"/>
       <use x="95.410156" xlink:href="#DejaVuSans-56"/>
      </g>
     </g>
    </g>
    <g id="ytick_6">
     <g id="line2d_15">
      <g>
       <use style="stroke:#000000;stroke-width:0.8;" x="57.6" xlink:href="#mc67a86f5ad" y="53.568"/>
      </g>
     </g>
     <g id="text_15">
      <!-- 2.0 -->
      <g transform="translate(34.696875 57.367219)scale(0.1 -0.1)">
       <use xlink:href="#DejaVuSans-50"/>
       <use x="63.623047" xlink:href="#DejaVuSans-46"/>
       <use x="95.410156" xlink:href="#DejaVuSans-48"/>
      </g>
     </g>
    </g>
   </g>
   <g id="line2d_16">
    <path clip-path="url(#p1e7409b4e2)" d="M 73.832727 295.488 
L 236.078796 295.488 
L 236.241204 53.568 
L 398.487273 53.568 
L 398.487273 53.568 
" style="fill:none;stroke:#ff00ff;stroke-linecap:square;stroke-width:1.5;"/>
   </g>
   <g id="line2d_17">
    <path clip-path="url(#p1e7409b4e2)" d="M 73.832727 295.488 
L 74.005324 295.488 
L 74.177921 295.488 
L 74.350518 295.488 
L 74.523114 295.488 
L 74.695711 295.488 
L 74.868308 295.488 
L 75.040905 295.488 
L 75.213502 295.488 
L 75.386098 295.488 
L 75.558695 295.488 
L 75.731292 295.488 
L 75.903889 295.488 
L 76.076485 295.488 
L 76.249082 295.488 
L 76.421679 295.488 
L 76.594276 295.488 
L 76.766873 295.488 
L 76.939469 295.488 
L 77.112066 295.488 
L 77.284663 295.488 
L 77.45726 295.488 
L 77.629856 295.488 
L 77.802453 295.488 
L 77.97505 295.488 
L 78.147647 295.488 
L 78.320244 295.488 
L 78.49284 295.488 
L 78.665437 295.488 
L 78.838034 295.488 
L 79.010631 295.488 
L 79.183227 295.488 
L 79.355824 295.488 
L 79.528421 295.488 
L 79.701018 295.488 
L 79.873615 295.488 
L 80.046211 295.488 
L 80.218808 295.488 
L 80.391405 295.488 
L 80.564002 295.488 
L 80.736599 295.488 
L 80.909195 295.488 
L 81.081792 295.488 
L 81.254389 295.488 
L 81.426986 295.488 
L 81.599582 295.488 
L 81.772179 295.488 
L 81.944776 295.488 
L 82.117373 295.488 
L 82.28997 295.488 
L 82.462566 295.488 
L 82.635163 295.488 
L 82.80776 295.488 
L 82.980357 295.488 
L 83.152953 295.488 
L 83.32555 295.488 
L 83.498147 295.488 
L 83.670744 295.488 
L 83.843341 295.488 
L 84.015937 295.488 
L 84.188534 295.488 
L 84.361131 295.488 
L 84.533728 295.488 
L 84.706324 295.488 
L 84.878921 295.488 
L 85.051518 295.488 
L 85.224115 295.488 
L 85.396712 295.488 
L 85.569308 295.488 
L 85.741905 295.488 
L 85.914502 295.488 
L 86.087099 295.488 
L 86.259696 295.488 
L 86.432292 295.488 
L 86.604889 295.488 
L 86.777486 295.488 
L 86.950083 295.488 
L 87.122679 295.488 
L 87.295276 295.488 
L 87.467873 295.488 
L 87.64047 295.488 
L 87.813067 295.488 
L 87.985663 295.488 
L 88.15826 295.488 
L 88.330857 295.488 
L 88.503454 295.488 
L 88.67605 295.488 
L 88.848647 295.488 
L 89.021244 295.488 
L 89.193841 295.488 
L 89.366438 295.488 
L 89.539034 295.488 
L 89.711631 295.488 
L 89.884228 295.488 
L 90.056825 295.488 
L 90.229421 295.488 
L 90.402018 295.488 
L 90.574615 295.488 
L 90.747212 295.488 
L 90.919809 295.488 
" style="fill:none;stroke:#0000ff;stroke-linecap:square;stroke-width:1.5;"/>
   </g>
   <g id="line2d_18">
    <path clip-path="url(#p1e7409b4e2)" d="M 90.919809 295.488 
L 91.092405 295.488 
L 91.265002 295.488 
L 91.437599 295.488 
L 91.610196 295.488 
L 91.782793 295.488 
L 91.955389 295.488 
L 92.127986 295.488 
L 92.300583 295.488 
L 92.47318 295.488 
L 92.645776 295.488 
L 92.818373 295.488 
L 92.99097 295.488 
L 93.163567 295.488 
L 93.336164 295.488 
L 93.50876 295.488 
L 93.681357 295.488 
L 93.853954 295.488 
L 94.026551 295.488 
L 94.199147 295.488 
L 94.371744 295.488 
L 94.544341 295.488 
L 94.716938 295.488 
L 94.889535 295.488 
L 95.062131 295.488 
L 95.234728 295.488 
L 95.407325 295.488 
L 95.579922 295.488 
L 95.752518 295.488 
L 95.925115 295.488 
L 96.097712 295.488 
L 96.270309 295.488 
L 96.442906 295.488 
L 96.615502 295.488 
L 96.788099 295.488 
L 96.960696 295.488 
L 97.133293 295.488 
L 97.30589 295.488 
L 97.478486 295.488 
L 97.651083 295.488 
L 97.82368 295.488 
L 97.996277 295.488 
L 98.168873 295.488 
L 98.34147 295.488 
L 98.514067 295.488 
L 98.686664 295.488 
L 98.859261 295.488 
L 99.031857 295.488 
L 99.204454 295.488 
L 99.377051 295.488 
L 99.549648 295.488 
L 99.722244 295.488 
L 99.894841 295.488 
L 100.067438 295.488 
L 100.240035 295.488 
L 100.412632 295.488 
L 100.585228 295.488 
L 100.757825 295.488 
L 100.930422 295.488 
L 101.103019 295.488 
L 101.275615 295.488 
L 101.448212 295.488 
L 101.620809 295.488 
L 101.793406 295.488 
L 101.966003 295.488 
L 102.138599 295.488 
L 102.311196 295.488 
L 102.483793 295.488 
L 102.65639 295.488 
L 102.828987 295.488 
L 103.001583 295.488 
L 103.17418 295.488 
L 103.346777 295.488 
L 103.519374 295.488 
L 103.69197 295.488 
L 103.864567 295.488 
L 104.037164 295.488 
L 104.209761 295.488 
L 104.382358 295.488 
L 104.554954 295.488 
L 104.727551 295.488 
L 104.900148 295.488 
L 105.072745 295.488 
L 105.245341 295.488 
L 105.417938 295.488 
L 105.590535 295.488 
L 105.763132 295.488 
L 105.935729 295.488 
L 106.108325 295.488 
L 106.280922 295.488 
L 106.453519 295.488 
L 106.626116 295.488 
L 106.798712 295.488 
L 106.971309 295.488 
L 107.143906 295.488 
L 107.316503 295.488 
L 107.4891 295.488 
L 107.661696 295.488 
L 107.834293 295.488 
L 108.00689 295.488 
" style="fill:none;stroke:#0000ff;stroke-linecap:square;stroke-width:1.5;"/>
   </g>
   <g id="line2d_19">
    <path clip-path="url(#p1e7409b4e2)" d="M 108.00689 295.488 
L 108.179487 295.487999 
L 108.352084 295.487999 
L 108.52468 295.487999 
L 108.697277 295.487998 
L 108.869874 295.487998 
L 109.042471 295.487998 
L 109.215067 295.487997 
L 109.387664 295.487997 
L 109.560261 295.487997 
L 109.732858 295.487996 
L 109.905455 295.487996 
L 110.078051 295.487996 
L 110.250648 295.487995 
L 110.423245 295.487995 
L 110.595842 295.487995 
L 110.768438 295.487994 
L 110.941035 295.487994 
L 111.113632 295.487994 
L 111.286229 295.487993 
L 111.458826 295.487993 
L 111.631422 295.487993 
L 111.804019 295.487992 
L 111.976616 295.487992 
L 112.149213 295.487992 
L 112.321809 295.487991 
L 112.494406 295.487991 
L 112.667003 295.487991 
L 112.8396 295.48799 
L 113.012197 295.48799 
L 113.184793 295.487989 
L 113.35739 295.487989 
L 113.529987 295.487989 
L 113.702584 295.487988 
L 113.875181 295.487988 
L 114.047777 295.487988 
L 114.220374 295.487987 
L 114.392971 295.487987 
L 114.565568 295.487987 
L 114.738164 295.487986 
L 114.910761 295.487986 
L 115.083358 295.487986 
L 115.255955 295.487985 
L 115.428552 295.487985 
L 115.601148 295.487985 
L 115.773745 295.487984 
L 115.946342 295.487984 
L 116.118939 295.487984 
L 116.291535 295.487983 
L 116.464132 295.487983 
L 116.636729 295.487983 
L 116.809326 295.487982 
L 116.981923 295.487982 
L 117.154519 295.487982 
L 117.327116 295.487981 
L 117.499713 295.487981 
L 117.67231 295.487981 
L 117.844906 295.48798 
L 118.017503 295.48798 
L 118.1901 295.48798 
L 118.362697 295.487979 
L 118.535294 295.487979 
L 118.70789 295.487979 
L 118.880487 295.487978 
L 119.053084 295.487978 
L 119.225681 295.487977 
L 119.398278 295.487977 
L 119.570874 295.487977 
L 119.743471 295.487976 
L 119.916068 295.487976 
L 120.088665 295.487976 
L 120.261261 295.487975 
L 120.433858 295.487975 
L 120.606455 295.487975 
L 120.779052 295.487974 
L 120.951649 295.487974 
L 121.124245 295.487974 
L 121.296842 295.487973 
L 121.469439 295.487973 
L 121.642036 295.487973 
L 121.814632 295.487972 
L 121.987229 295.487972 
L 122.159826 295.487972 
L 122.332423 295.487971 
L 122.50502 295.487971 
L 122.677616 295.487971 
L 122.850213 295.48797 
L 123.02281 295.48797 
L 123.195407 295.48797 
L 123.368003 295.487969 
L 123.5406 295.487969 
L 123.713197 295.487969 
L 123.885794 295.487968 
L 124.058391 295.487968 
L 124.230987 295.487968 
L 124.403584 295.487967 
L 124.576181 295.487967 
L 124.748778 295.487966 
L 124.921374 295.487966 
L 125.093971 295.487966 
" style="fill:none;stroke:#0000ff;stroke-linecap:square;stroke-width:1.5;"/>
   </g>
   <g id="line2d_20">
    <path clip-path="url(#p1e7409b4e2)" d="M 125.093971 295.487983 
L 125.266568 295.487959 
L 125.439165 295.487934 
L 125.611762 295.48791 
L 125.784358 295.487886 
L 125.956955 295.487862 
L 126.129552 295.487838 
L 126.302149 295.487813 
L 126.474746 295.487789 
L 126.647342 295.487765 
L 126.819939 295.487741 
L 126.992536 295.487717 
L 127.165133 295.487692 
L 127.337729 295.487668 
L 127.510326 295.487644 
L 127.682923 295.48762 
L 127.85552 295.487596 
L 128.028117 295.487571 
L 128.200713 295.487547 
L 128.37331 295.487523 
L 128.545907 295.487499 
L 128.718504 295.487475 
L 128.8911 295.48745 
L 129.063697 295.487426 
L 129.236294 295.487402 
L 129.408891 295.487378 
L 129.581488 295.487354 
L 129.754084 295.48733 
L 129.926681 295.487305 
L 130.099278 295.487281 
L 130.271875 295.487257 
L 130.444472 295.487233 
L 130.617068 295.487209 
L 130.789665 295.487184 
L 130.962262 295.48716 
L 131.134859 295.487136 
L 131.307455 295.487112 
L 131.480052 295.487088 
L 131.652649 295.487063 
L 131.825246 295.487039 
L 131.997843 295.487015 
L 132.170439 295.486991 
L 132.343036 295.486967 
L 132.515633 295.486942 
L 132.68823 295.486918 
L 132.860826 295.486894 
L 133.033423 295.48687 
L 133.20602 295.486846 
L 133.378617 295.486821 
L 133.551214 295.486797 
L 133.72381 295.486773 
L 133.896407 295.486749 
L 134.069004 295.486725 
L 134.241601 295.4867 
L 134.414197 295.486676 
L 134.586794 295.486652 
L 134.759391 295.486628 
L 134.931988 295.486604 
L 135.104585 295.486579 
L 135.277181 295.486555 
L 135.449778 295.486531 
L 135.622375 295.486507 
L 135.794972 295.486483 
L 135.967569 295.486458 
L 136.140165 295.486434 
L 136.312762 295.48641 
L 136.485359 295.486386 
L 136.657956 295.486362 
L 136.830552 295.486338 
L 137.003149 295.486313 
L 137.175746 295.486289 
L 137.348343 295.486265 
L 137.52094 295.486241 
L 137.693536 295.486217 
L 137.866133 295.486192 
L 138.03873 295.486168 
L 138.211327 295.486144 
L 138.383923 295.48612 
L 138.55652 295.486096 
L 138.729117 295.486071 
L 138.901714 295.486047 
L 139.074311 295.486023 
L 139.246907 295.485999 
L 139.419504 295.485975 
L 139.592101 295.48595 
L 139.764698 295.485926 
L 139.937294 295.485902 
L 140.109891 295.485878 
L 140.282488 295.485854 
L 140.455085 295.485829 
L 140.627682 295.485805 
L 140.800278 295.485781 
L 140.972875 295.485757 
L 141.145472 295.485733 
L 141.318069 295.485708 
L 141.490665 295.485684 
L 141.663262 295.48566 
L 141.835859 295.485636 
L 142.008456 295.485612 
L 142.181053 295.485587 
" style="fill:none;stroke:#0000ff;stroke-linecap:square;stroke-width:1.5;"/>
   </g>
   <g id="line2d_21">
    <path clip-path="url(#p1e7409b4e2)" d="M 142.181053 295.486785 
L 142.353649 295.484229 
L 142.526246 295.481673 
L 142.698843 295.479117 
L 142.87144 295.47656 
L 143.044037 295.474004 
L 143.216633 295.471448 
L 143.38923 295.468892 
L 143.561827 295.466336 
L 143.734424 295.46378 
L 143.90702 295.461223 
L 144.079617 295.458667 
L 144.252214 295.456111 
L 144.424811 295.453555 
L 144.597408 295.450999 
L 144.770004 295.448443 
L 144.942601 295.445886 
L 145.115198 295.44333 
L 145.287795 295.440774 
L 145.460391 295.438218 
L 145.632988 295.435662 
L 145.805585 295.433105 
L 145.978182 295.430549 
L 146.150779 295.427993 
L 146.323375 295.425437 
L 146.495972 295.422881 
L 146.668569 295.420325 
L 146.841166 295.417768 
L 147.013763 295.415212 
L 147.186359 295.412656 
L 147.358956 295.4101 
L 147.531553 295.407544 
L 147.70415 295.404988 
L 147.876746 295.402431 
L 148.049343 295.399875 
L 148.22194 295.397319 
L 148.394537 295.394763 
L 148.567134 295.392207 
L 148.73973 295.38965 
L 148.912327 295.387094 
L 149.084924 295.384538 
L 149.257521 295.381982 
L 149.430117 295.379426 
L 149.602714 295.37687 
L 149.775311 295.374313 
L 149.947908 295.371757 
L 150.120505 295.369201 
L 150.293101 295.366645 
L 150.465698 295.364089 
L 150.638295 295.361533 
L 150.810892 295.358976 
L 150.983488 295.35642 
L 151.156085 295.353864 
L 151.328682 295.351308 
L 151.501279 295.348752 
L 151.673876 295.346196 
L 151.846472 295.343639 
L 152.019069 295.341083 
L 152.191666 295.338527 
L 152.364263 295.335971 
L 152.53686 295.333415 
L 152.709456 295.330858 
L 152.882053 295.328302 
L 153.05465 295.325746 
L 153.227247 295.32319 
L 153.399843 295.320634 
L 153.57244 295.318078 
L 153.745037 295.315521 
L 153.917634 295.312965 
L 154.090231 295.310409 
L 154.262827 295.307853 
L 154.435424 295.305297 
L 154.608021 295.302741 
L 154.780618 295.300184 
L 154.953214 295.297628 
L 155.125811 295.295072 
L 155.298408 295.292516 
L 155.471005 295.28996 
L 155.643602 295.287404 
L 155.816198 295.284847 
L 155.988795 295.282291 
L 156.161392 295.279735 
L 156.333989 295.277179 
L 156.506585 295.274623 
L 156.679182 295.272066 
L 156.851779 295.26951 
L 157.024376 295.266954 
L 157.196973 295.264398 
L 157.369569 295.261842 
L 157.542166 295.259286 
L 157.714763 295.256729 
L 157.88736 295.254173 
L 158.059956 295.251617 
L 158.232553 295.249061 
L 158.40515 295.246505 
L 158.577747 295.243949 
L 158.750344 295.241392 
L 158.92294 295.238836 
L 159.095537 295.23628 
L 159.268134 295.233724 
" style="fill:none;stroke:#0000ff;stroke-linecap:square;stroke-width:1.5;"/>
   </g>
   <g id="line2d_22">
    <path clip-path="url(#p1e7409b4e2)" d="M 159.268134 295.360254 
L 159.440731 295.337316 
L 159.613328 295.314378 
L 159.785924 295.291439 
L 159.958521 295.268501 
L 160.131118 295.245562 
L 160.303715 295.222624 
L 160.476311 295.199685 
L 160.648908 295.176747 
L 160.821505 295.153809 
L 160.994102 295.13087 
L 161.166699 295.107932 
L 161.339295 295.084993 
L 161.511892 295.062055 
L 161.684489 295.039116 
L 161.857086 295.016178 
L 162.029682 294.99324 
L 162.202279 294.970301 
L 162.374876 294.947363 
L 162.547473 294.924424 
L 162.72007 294.901486 
L 162.892666 294.878547 
L 163.065263 294.855609 
L 163.23786 294.83267 
L 163.410457 294.809732 
L 163.583054 294.786794 
L 163.75565 294.763855 
L 163.928247 294.740917 
L 164.100844 294.717978 
L 164.273441 294.69504 
L 164.446037 294.672101 
L 164.618634 294.649163 
L 164.791231 294.626225 
L 164.963828 294.603286 
L 165.136425 294.580348 
L 165.309021 294.557409 
L 165.481618 294.534471 
L 165.654215 294.511532 
L 165.826812 294.488594 
L 165.999408 294.465656 
L 166.172005 294.442717 
L 166.344602 294.419779 
L 166.517199 294.39684 
L 166.689796 294.373902 
L 166.862392 294.350963 
L 167.034989 294.328025 
L 167.207586 294.305086 
L 167.380183 294.282148 
L 167.552779 294.25921 
L 167.725376 294.236271 
L 167.897973 294.213333 
L 168.07057 294.190394 
L 168.243167 294.167456 
L 168.415763 294.144517 
L 168.58836 294.121579 
L 168.760957 294.098641 
L 168.933554 294.075702 
L 169.10615 294.052764 
L 169.278747 294.029825 
L 169.451344 294.006887 
L 169.623941 293.983948 
L 169.796538 293.96101 
L 169.969134 293.938071 
L 170.141731 293.915133 
L 170.314328 293.892195 
L 170.486925 293.869256 
L 170.659522 293.846318 
L 170.832118 293.823379 
L 171.004715 293.800441 
L 171.177312 293.777502 
L 171.349909 293.754564 
L 171.522505 293.731626 
L 171.695102 293.708687 
L 171.867699 293.685749 
L 172.040296 293.66281 
L 172.212893 293.639872 
L 172.385489 293.616933 
L 172.558086 293.593995 
L 172.730683 293.571057 
L 172.90328 293.548118 
L 173.075876 293.52518 
L 173.248473 293.502241 
L 173.42107 293.479303 
L 173.593667 293.456364 
L 173.766264 293.433426 
L 173.93886 293.410487 
L 174.111457 293.387549 
L 174.284054 293.364611 
L 174.456651 293.341672 
L 174.629247 293.318734 
L 174.801844 293.295795 
L 174.974441 293.272857 
L 175.147038 293.249918 
L 175.319635 293.22698 
L 175.492231 293.204042 
L 175.664828 293.181103 
L 175.837425 293.158165 
L 176.010022 293.135226 
L 176.182619 293.112288 
L 176.355215 293.089349 
" style="fill:none;stroke:#0000ff;stroke-linecap:square;stroke-width:1.5;"/>
   </g>
   <g id="line2d_23">
    <path clip-path="url(#p1e7409b4e2)" d="M 176.355215 294.224802 
L 176.527812 294.105407 
L 176.700409 293.986011 
L 176.873006 293.866616 
L 177.045602 293.747221 
L 177.218199 293.627825 
L 177.390796 293.50843 
L 177.563393 293.389035 
L 177.73599 293.269639 
L 177.908586 293.150244 
L 178.081183 293.030849 
L 178.25378 292.911453 
L 178.426377 292.792058 
L 178.598973 292.672663 
L 178.77157 292.553267 
L 178.944167 292.433872 
L 179.116764 292.314477 
L 179.289361 292.195081 
L 179.461957 292.075686 
L 179.634554 291.956291 
L 179.807151 291.836895 
L 179.979748 291.7175 
L 180.152345 291.598105 
L 180.324941 291.478709 
L 180.497538 291.359314 
L 180.670135 291.239919 
L 180.842732 291.120523 
L 181.015328 291.001128 
L 181.187925 290.881733 
L 181.360522 290.762337 
L 181.533119 290.642942 
L 181.705716 290.523547 
L 181.878312 290.404151 
L 182.050909 290.284756 
L 182.223506 290.165361 
L 182.396103 290.045965 
L 182.568699 289.92657 
L 182.741296 289.807175 
L 182.913893 289.687779 
L 183.08649 289.568384 
L 183.259087 289.448989 
L 183.431683 289.329593 
L 183.60428 289.210198 
L 183.776877 289.090802 
L 183.949474 288.971407 
L 184.12207 288.852012 
L 184.294667 288.732616 
L 184.467264 288.613221 
L 184.639861 288.493826 
L 184.812458 288.37443 
L 184.985054 288.255035 
L 185.157651 288.13564 
L 185.330248 288.016244 
L 185.502845 287.896849 
L 185.675441 287.777454 
L 185.848038 287.658058 
L 186.020635 287.538663 
L 186.193232 287.419268 
L 186.365829 287.299872 
L 186.538425 287.180477 
L 186.711022 287.061082 
L 186.883619 286.941686 
L 187.056216 286.822291 
L 187.228813 286.702896 
L 187.401409 286.5835 
L 187.574006 286.464105 
L 187.746603 286.34471 
L 187.9192 286.225314 
L 188.091796 286.105919 
L 188.264393 285.986524 
L 188.43699 285.867128 
L 188.609587 285.747733 
L 188.782184 285.628338 
L 188.95478 285.508942 
L 189.127377 285.389547 
L 189.299974 285.270152 
L 189.472571 285.150756 
L 189.645167 285.031361 
L 189.817764 284.911966 
L 189.990361 284.79257 
L 190.162958 284.673175 
L 190.335555 284.55378 
L 190.508151 284.434384 
L 190.680748 284.314989 
L 190.853345 284.195594 
L 191.025942 284.076198 
L 191.198538 283.956803 
L 191.371135 283.837408 
L 191.543732 283.718012 
L 191.716329 283.598617 
L 191.888926 283.479222 
L 192.061522 283.359826 
L 192.234119 283.240431 
L 192.406716 283.121036 
L 192.579313 283.00164 
L 192.75191 282.882245 
L 192.924506 282.76285 
L 193.097103 282.643454 
L 193.2697 282.524059 
L 193.442297 282.404664 
" style="fill:none;stroke:#0000ff;stroke-linecap:square;stroke-width:1.5;"/>
   </g>
   <g id="line2d_24">
    <path clip-path="url(#p1e7409b4e2)" d="M 193.442297 282.128475 
L 193.614893 281.813524 
L 193.78749 281.498573 
L 193.960087 281.183623 
L 194.132684 280.868672 
L 194.305281 280.553722 
L 194.477877 280.238771 
L 194.650474 279.923821 
L 194.823071 279.60887 
L 194.995668 279.29392 
L 195.168264 278.978969 
L 195.340861 278.664019 
L 195.513458 278.349068 
L 195.686055 278.034118 
L 195.858652 277.719167 
L 196.031248 277.404217 
L 196.203845 277.089266 
L 196.376442 276.774316 
L 196.549039 276.459365 
L 196.721636 276.144415 
L 196.894232 275.829464 
L 197.066829 275.514513 
L 197.239426 275.199563 
L 197.412023 274.884612 
L 197.584619 274.569662 
L 197.757216 274.254711 
L 197.929813 273.939761 
L 198.10241 273.62481 
L 198.275007 273.30986 
L 198.447603 272.994909 
L 198.6202 272.679959 
L 198.792797 272.365008 
L 198.965394 272.050058 
L 199.13799 271.735107 
L 199.310587 271.420157 
L 199.483184 271.105206 
L 199.655781 270.790256 
L 199.828378 270.475305 
L 200.000974 270.160355 
L 200.173571 269.845404 
L 200.346168 269.530453 
L 200.518765 269.215503 
L 200.691361 268.900552 
L 200.863958 268.585602 
L 201.036555 268.270651 
L 201.209152 267.955701 
L 201.381749 267.64075 
L 201.554345 267.3258 
L 201.726942 267.010849 
L 201.899539 266.695899 
L 202.072136 266.380948 
L 202.244732 266.065998 
L 202.417329 265.751047 
L 202.589926 265.436097 
L 202.762523 265.121146 
L 202.93512 264.806196 
L 203.107716 264.491245 
L 203.280313 264.176294 
L 203.45291 263.861344 
L 203.625507 263.546393 
L 203.798104 263.231443 
L 203.9707 262.916492 
L 204.143297 262.601542 
L 204.315894 262.286591 
L 204.488491 261.971641 
L 204.661087 261.65669 
L 204.833684 261.34174 
L 205.006281 261.026789 
L 205.178878 260.711839 
L 205.351475 260.396888 
L 205.524071 260.081938 
L 205.696668 259.766987 
L 205.869265 259.452037 
L 206.041862 259.137086 
L 206.214458 258.822136 
L 206.387055 258.507185 
L 206.559652 258.192234 
L 206.732249 257.877284 
L 206.904846 257.562333 
L 207.077442 257.247383 
L 207.250039 256.932432 
L 207.422636 256.617482 
L 207.595233 256.302531 
L 207.767829 255.987581 
L 207.940426 255.67263 
L 208.113023 255.35768 
L 208.28562 255.042729 
L 208.458217 254.727779 
L 208.630813 254.412828 
L 208.80341 254.097878 
L 208.976007 253.782927 
L 209.148604 253.467977 
L 209.321201 253.153026 
L 209.493797 252.838076 
L 209.666394 252.523125 
L 209.838991 252.208174 
L 210.011588 251.893224 
L 210.184184 251.578273 
L 210.356781 251.263323 
L 210.529378 250.948372 
" style="fill:none;stroke:#0000ff;stroke-linecap:square;stroke-width:1.5;"/>
   </g>
   <g id="line2d_25">
    <path clip-path="url(#p1e7409b4e2)" d="M 210.529378 248.892055 
L 210.701975 248.42867 
L 210.874572 247.965286 
L 211.047168 247.501901 
L 211.219765 247.038517 
L 211.392362 246.575133 
L 211.564959 246.111748 
L 211.737555 245.648364 
L 211.910152 245.18498 
L 212.082749 244.721595 
L 212.255346 244.258211 
L 212.427943 243.794827 
L 212.600539 243.331442 
L 212.773136 242.868058 
L 212.945733 242.404673 
L 213.11833 241.941289 
L 213.290927 241.477905 
L 213.463523 241.01452 
L 213.63612 240.551136 
L 213.808717 240.087752 
L 213.981314 239.624367 
L 214.15391 239.160983 
L 214.326507 238.697599 
L 214.499104 238.234214 
L 214.671701 237.77083 
L 214.844298 237.307445 
L 215.016894 236.844061 
L 215.189491 236.380677 
L 215.362088 235.917292 
L 215.534685 235.453908 
L 215.707281 234.990524 
L 215.879878 234.527139 
L 216.052475 234.063755 
L 216.225072 233.60037 
L 216.397669 233.136986 
L 216.570265 232.673602 
L 216.742862 232.210217 
L 216.915459 231.746833 
L 217.088056 231.283449 
L 217.260652 230.820064 
L 217.433249 230.35668 
L 217.605846 229.893296 
L 217.778443 229.429911 
L 217.95104 228.966527 
L 218.123636 228.503142 
L 218.296233 228.039758 
L 218.46883 227.576374 
L 218.641427 227.112989 
L 218.814023 226.649605 
L 218.98662 226.186221 
L 219.159217 225.722836 
L 219.331814 225.259452 
L 219.504411 224.796067 
L 219.677007 224.332683 
L 219.849604 223.869299 
L 220.022201 223.405914 
L 220.194798 222.94253 
L 220.367395 222.479146 
L 220.539991 222.015761 
L 220.712588 221.552377 
L 220.885185 221.088993 
L 221.057782 220.625608 
L 221.230378 220.162224 
L 221.402975 219.698839 
L 221.575572 219.235455 
L 221.748169 218.772071 
L 221.920766 218.308686 
L 222.093362 217.845302 
L 222.265959 217.381918 
L 222.438556 216.918533 
L 222.611153 216.455149 
L 222.783749 215.991765 
L 222.956346 215.52838 
L 223.128943 215.064996 
L 223.30154 214.601611 
L 223.474137 214.138227 
L 223.646733 213.674843 
L 223.81933 213.211458 
L 223.991927 212.748074 
L 224.164524 212.28469 
L 224.33712 211.821305 
L 224.509717 211.357921 
L 224.682314 210.894536 
L 224.854911 210.431152 
L 225.027508 209.967768 
L 225.200104 209.504383 
L 225.372701 209.040999 
L 225.545298 208.577615 
L 225.717895 208.11423 
L 225.890492 207.650846 
L 226.063088 207.187462 
L 226.235685 206.724077 
L 226.408282 206.260693 
L 226.580879 205.797308 
L 226.753475 205.333924 
L 226.926072 204.87054 
L 227.098669 204.407155 
L 227.271266 203.943771 
L 227.443863 203.480387 
L 227.616459 203.017002 
" style="fill:none;stroke:#0000ff;stroke-linecap:square;stroke-width:1.5;"/>
   </g>
   <g id="line2d_26">
    <path clip-path="url(#p1e7409b4e2)" d="M 227.616459 200.168253 
L 227.789056 199.655527 
L 227.961653 199.142801 
L 228.13425 198.630075 
L 228.306846 198.117349 
L 228.479443 197.604623 
L 228.65204 197.091897 
L 228.824637 196.579171 
L 228.997234 196.066445 
L 229.16983 195.553719 
L 229.342427 195.040993 
L 229.515024 194.528267 
L 229.687621 194.015541 
L 229.860217 193.502815 
L 230.032814 192.990089 
L 230.205411 192.477364 
L 230.378008 191.964638 
L 230.550605 191.451912 
L 230.723201 190.939186 
L 230.895798 190.42646 
L 231.068395 189.913734 
L 231.240992 189.401008 
L 231.413589 188.888282 
L 231.586185 188.375556 
L 231.758782 187.86283 
L 231.931379 187.350104 
L 232.103976 186.837378 
L 232.276572 186.324652 
L 232.449169 185.811926 
L 232.621766 185.2992 
L 232.794363 184.786474 
L 232.96696 184.273749 
L 233.139556 183.761023 
L 233.312153 183.248297 
L 233.48475 182.735571 
L 233.657347 182.222845 
L 233.829943 181.710119 
L 234.00254 181.197393 
L 234.175137 180.684667 
L 234.347734 180.171941 
L 234.520331 179.659215 
L 234.692927 179.146489 
L 234.865524 178.633763 
L 235.038121 178.121037 
L 235.210718 177.608311 
L 235.383314 177.095585 
L 235.555911 176.582859 
L 235.728508 176.070133 
L 235.901105 175.557408 
L 236.073702 175.044682 
L 236.246298 174.531956 
L 236.418895 174.01923 
L 236.591492 173.506504 
L 236.764089 172.993778 
L 236.936686 172.481052 
L 237.109282 171.968326 
L 237.281879 171.4556 
L 237.454476 170.942874 
L 237.627073 170.430148 
L 237.799669 169.917422 
L 237.972266 169.404696 
L 238.144863 168.89197 
L 238.31746 168.379244 
L 238.490057 167.866518 
L 238.662653 167.353793 
L 238.83525 166.841067 
L 239.007847 166.328341 
L 239.180444 165.815615 
L 239.35304 165.302889 
L 239.525637 164.790163 
L 239.698234 164.277437 
L 239.870831 163.764711 
L 240.043428 163.251985 
L 240.216024 162.739259 
L 240.388621 162.226533 
L 240.561218 161.713807 
L 240.733815 161.201081 
L 240.906411 160.688355 
L 241.079008 160.175629 
L 241.251605 159.662903 
L 241.424202 159.150177 
L 241.596799 158.637452 
L 241.769395 158.124726 
L 241.941992 157.612 
L 242.114589 157.099274 
L 242.287186 156.586548 
L 242.459783 156.073822 
L 242.632379 155.561096 
L 242.804976 155.04837 
L 242.977573 154.535644 
L 243.15017 154.022918 
L 243.322766 153.510192 
L 243.495363 152.997466 
L 243.66796 152.48474 
L 243.840557 151.972014 
L 244.013154 151.459288 
L 244.18575 150.946562 
L 244.358347 150.433837 
L 244.530944 149.921111 
L 244.703541 149.408385 
" style="fill:none;stroke:#0000ff;stroke-linecap:square;stroke-width:1.5;"/>
   </g>
   <g id="line2d_27">
    <path clip-path="url(#p1e7409b4e2)" d="M 244.703541 147.190423 
L 244.876137 146.730713 
L 245.048734 146.271004 
L 245.221331 145.811294 
L 245.393928 145.351584 
L 245.566525 144.891874 
L 245.739121 144.432165 
L 245.911718 143.972455 
L 246.084315 143.512745 
L 246.256912 143.053036 
L 246.429508 142.593326 
L 246.602105 142.133616 
L 246.774702 141.673906 
L 246.947299 141.214197 
L 247.119896 140.754487 
L 247.292492 140.294777 
L 247.465089 139.835068 
L 247.637686 139.375358 
L 247.810283 138.915648 
L 247.98288 138.455938 
L 248.155476 137.996229 
L 248.328073 137.536519 
L 248.50067 137.076809 
L 248.673267 136.6171 
L 248.845863 136.15739 
L 249.01846 135.69768 
L 249.191057 135.23797 
L 249.363654 134.778261 
L 249.536251 134.318551 
L 249.708847 133.858841 
L 249.881444 133.399132 
L 250.054041 132.939422 
L 250.226638 132.479712 
L 250.399234 132.020002 
L 250.571831 131.560293 
L 250.744428 131.100583 
L 250.917025 130.640873 
L 251.089622 130.181164 
L 251.262218 129.721454 
L 251.434815 129.261744 
L 251.607412 128.802034 
L 251.780009 128.342325 
L 251.952605 127.882615 
L 252.125202 127.422905 
L 252.297799 126.963196 
L 252.470396 126.503486 
L 252.642993 126.043776 
L 252.815589 125.584066 
L 252.988186 125.124357 
L 253.160783 124.664647 
L 253.33338 124.204937 
L 253.505977 123.745228 
L 253.678573 123.285518 
L 253.85117 122.825808 
L 254.023767 122.366099 
L 254.196364 121.906389 
L 254.36896 121.446679 
L 254.541557 120.986969 
L 254.714154 120.52726 
L 254.886751 120.06755 
L 255.059348 119.60784 
L 255.231944 119.148131 
L 255.404541 118.688421 
L 255.577138 118.228711 
L 255.749735 117.769001 
L 255.922331 117.309292 
L 256.094928 116.849582 
L 256.267525 116.389872 
L 256.440122 115.930163 
L 256.612719 115.470453 
L 256.785315 115.010743 
L 256.957912 114.551033 
L 257.130509 114.091324 
L 257.303106 113.631614 
L 257.475702 113.171904 
L 257.648299 112.712195 
L 257.820896 112.252485 
L 257.993493 111.792775 
L 258.16609 111.333065 
L 258.338686 110.873356 
L 258.511283 110.413646 
L 258.68388 109.953936 
L 258.856477 109.494227 
L 259.029073 109.034517 
L 259.20167 108.574807 
L 259.374267 108.115097 
L 259.546864 107.655388 
L 259.719461 107.195678 
L 259.892057 106.735968 
L 260.064654 106.276259 
L 260.237251 105.816549 
L 260.409848 105.356839 
L 260.582445 104.897129 
L 260.755041 104.43742 
L 260.927638 103.97771 
L 261.100235 103.518 
L 261.272832 103.058291 
L 261.445428 102.598581 
L 261.618025 102.138871 
L 261.790622 101.679161 
" style="fill:none;stroke:#0000ff;stroke-linecap:square;stroke-width:1.5;"/>
   </g>
   <g id="line2d_28">
    <path clip-path="url(#p1e7409b4e2)" d="M 261.790622 100.135791 
L 261.963219 99.805084 
L 262.135816 99.474377 
L 262.308412 99.14367 
L 262.481009 98.812963 
L 262.653606 98.482256 
L 262.826203 98.151549 
L 262.998799 97.820842 
L 263.171396 97.490135 
L 263.343993 97.159428 
L 263.51659 96.828721 
L 263.689187 96.498014 
L 263.861783 96.167307 
L 264.03438 95.8366 
L 264.206977 95.505893 
L 264.379574 95.175186 
L 264.552171 94.844479 
L 264.724767 94.513772 
L 264.897364 94.183065 
L 265.069961 93.852358 
L 265.242558 93.521651 
L 265.415154 93.190944 
L 265.587751 92.860237 
L 265.760348 92.52953 
L 265.932945 92.198824 
L 266.105542 91.868117 
L 266.278138 91.53741 
L 266.450735 91.206703 
L 266.623332 90.875996 
L 266.795929 90.545289 
L 266.968525 90.214582 
L 267.141122 89.883875 
L 267.313719 89.553168 
L 267.486316 89.222461 
L 267.658913 88.891754 
L 267.831509 88.561047 
L 268.004106 88.23034 
L 268.176703 87.899633 
L 268.3493 87.568926 
L 268.521896 87.238219 
L 268.694493 86.907512 
L 268.86709 86.576805 
L 269.039687 86.246098 
L 269.212284 85.915391 
L 269.38488 85.584684 
L 269.557477 85.253977 
L 269.730074 84.92327 
L 269.902671 84.592563 
L 270.075268 84.261856 
L 270.247864 83.931149 
L 270.420461 83.600442 
L 270.593058 83.269735 
L 270.765655 82.939028 
L 270.938251 82.608321 
L 271.110848 82.277614 
L 271.283445 81.946907 
L 271.456042 81.6162 
L 271.628639 81.285493 
L 271.801235 80.954786 
L 271.973832 80.624079 
L 272.146429 80.293372 
L 272.319026 79.962665 
L 272.491622 79.631958 
L 272.664219 79.301251 
L 272.836816 78.970544 
L 273.009413 78.639837 
L 273.18201 78.30913 
L 273.354606 77.978423 
L 273.527203 77.647716 
L 273.6998 77.317009 
L 273.872397 76.986302 
L 274.044993 76.655595 
L 274.21759 76.324888 
L 274.390187 75.994181 
L 274.562784 75.663474 
L 274.735381 75.332767 
L 274.907977 75.00206 
L 275.080574 74.671353 
L 275.253171 74.340646 
L 275.425768 74.009939 
L 275.598364 73.679232 
L 275.770961 73.348525 
L 275.943558 73.017818 
L 276.116155 72.687111 
L 276.288752 72.356404 
L 276.461348 72.025697 
L 276.633945 71.694991 
L 276.806542 71.364284 
L 276.979139 71.033577 
L 277.151736 70.70287 
L 277.324332 70.372163 
L 277.496929 70.041456 
L 277.669526 69.710749 
L 277.842123 69.380042 
L 278.014719 69.049335 
L 278.187316 68.718628 
L 278.359913 68.387921 
L 278.53251 68.057214 
L 278.705107 67.726507 
L 278.877703 67.3958 
" style="fill:none;stroke:#0000ff;stroke-linecap:square;stroke-width:1.5;"/>
   </g>
   <g id="line2d_29">
    <path clip-path="url(#p1e7409b4e2)" d="M 278.877703 64.032682 
L 279.0503 63.930099 
L 279.222897 63.827516 
L 279.395494 63.724932 
L 279.56809 63.622349 
L 279.740687 63.519766 
L 279.913284 63.417182 
L 280.085881 63.314599 
L 280.258478 63.212016 
L 280.431074 63.109433 
L 280.603671 63.006849 
L 280.776268 62.904266 
L 280.948865 62.801683 
L 281.121462 62.699099 
L 281.294058 62.596516 
L 281.466655 62.493933 
L 281.639252 62.391349 
L 281.811849 62.288766 
L 281.984445 62.186183 
L 282.157042 62.0836 
L 282.329639 61.981016 
L 282.502236 61.878433 
L 282.674833 61.77585 
L 282.847429 61.673266 
L 283.020026 61.570683 
L 283.192623 61.4681 
L 283.36522 61.365517 
L 283.537816 61.262933 
L 283.710413 61.16035 
L 283.88301 61.057767 
L 284.055607 60.955183 
L 284.228204 60.8526 
L 284.4008 60.750017 
L 284.573397 60.647434 
L 284.745994 60.54485 
L 284.918591 60.442267 
L 285.091187 60.339684 
L 285.263784 60.2371 
L 285.436381 60.134517 
L 285.608978 60.031934 
L 285.781575 59.929351 
L 285.954171 59.826767 
L 286.126768 59.724184 
L 286.299365 59.621601 
L 286.471962 59.519017 
L 286.644559 59.416434 
L 286.817155 59.313851 
L 286.989752 59.211268 
L 287.162349 59.108684 
L 287.334946 59.006101 
L 287.507542 58.903518 
L 287.680139 58.800934 
L 287.852736 58.698351 
L 288.025333 58.595768 
L 288.19793 58.493185 
L 288.370526 58.390601 
L 288.543123 58.288018 
L 288.71572 58.185435 
L 288.888317 58.082851 
L 289.060913 57.980268 
L 289.23351 57.877685 
L 289.406107 57.775101 
L 289.578704 57.672518 
L 289.751301 57.569935 
L 289.923897 57.467352 
L 290.096494 57.364768 
L 290.269091 57.262185 
L 290.441688 57.159602 
L 290.614284 57.057018 
L 290.786881 56.954435 
L 290.959478 56.851852 
L 291.132075 56.749269 
L 291.304672 56.646685 
L 291.477268 56.544102 
L 291.649865 56.441519 
L 291.822462 56.338935 
L 291.995059 56.236352 
L 292.167655 56.133769 
L 292.340252 56.031186 
L 292.512849 55.928602 
L 292.685446 55.826019 
L 292.858043 55.723436 
L 293.030639 55.620852 
L 293.203236 55.518269 
L 293.375833 55.415686 
L 293.54843 55.313103 
L 293.721027 55.210519 
L 293.893623 55.107936 
L 294.06622 55.005353 
L 294.238817 54.902769 
L 294.411414 54.800186 
L 294.58401 54.697603 
L 294.756607 54.59502 
L 294.929204 54.492436 
L 295.101801 54.389853 
L 295.274398 54.28727 
L 295.446994 54.184686 
L 295.619591 54.082103 
L 295.792188 53.97952 
L 295.964785 53.876936 
" style="fill:none;stroke:#0000ff;stroke-linecap:square;stroke-width:1.5;"/>
   </g>
   <g id="line2d_30">
    <path clip-path="url(#p1e7409b4e2)" d="M 295.964785 54.16031 
L 296.137381 54.154585 
L 296.309978 54.14886 
L 296.482575 54.143135 
L 296.655172 54.137411 
L 296.827769 54.131686 
L 297.000365 54.125961 
L 297.172962 54.120237 
L 297.345559 54.114512 
L 297.518156 54.108787 
L 297.690753 54.103063 
L 297.863349 54.097338 
L 298.035946 54.091613 
L 298.208543 54.085888 
L 298.38114 54.080164 
L 298.553736 54.074439 
L 298.726333 54.068714 
L 298.89893 54.06299 
L 299.071527 54.057265 
L 299.244124 54.05154 
L 299.41672 54.045815 
L 299.589317 54.040091 
L 299.761914 54.034366 
L 299.934511 54.028641 
L 300.107107 54.022917 
L 300.279704 54.017192 
L 300.452301 54.011467 
L 300.624898 54.005742 
L 300.797495 54.000018 
L 300.970091 53.994293 
L 301.142688 53.988568 
L 301.315285 53.982844 
L 301.487882 53.977119 
L 301.660478 53.971394 
L 301.833075 53.965669 
L 302.005672 53.959945 
L 302.178269 53.95422 
L 302.350866 53.948495 
L 302.523462 53.942771 
L 302.696059 53.937046 
L 302.868656 53.931321 
L 303.041253 53.925597 
L 303.21385 53.919872 
L 303.386446 53.914147 
L 303.559043 53.908422 
L 303.73164 53.902698 
L 303.904237 53.896973 
L 304.076833 53.891248 
L 304.24943 53.885524 
L 304.422027 53.879799 
L 304.594624 53.874074 
L 304.767221 53.868349 
L 304.939817 53.862625 
L 305.112414 53.8569 
L 305.285011 53.851175 
L 305.457608 53.845451 
L 305.630204 53.839726 
L 305.802801 53.834001 
L 305.975398 53.828276 
L 306.147995 53.822552 
L 306.320592 53.816827 
L 306.493188 53.811102 
L 306.665785 53.805378 
L 306.838382 53.799653 
L 307.010979 53.793928 
L 307.183575 53.788203 
L 307.356172 53.782479 
L 307.528769 53.776754 
L 307.701366 53.771029 
L 307.873963 53.765305 
L 308.046559 53.75958 
L 308.219156 53.753855 
L 308.391753 53.74813 
L 308.56435 53.742406 
L 308.736946 53.736681 
L 308.909543 53.730956 
L 309.08214 53.725232 
L 309.254737 53.719507 
L 309.427334 53.713782 
L 309.59993 53.708058 
L 309.772527 53.702333 
L 309.945124 53.696608 
L 310.117721 53.690883 
L 310.290318 53.685159 
L 310.462914 53.679434 
L 310.635511 53.673709 
L 310.808108 53.667985 
L 310.980705 53.66226 
L 311.153301 53.656535 
L 311.325898 53.65081 
L 311.498495 53.645086 
L 311.671092 53.639361 
L 311.843689 53.633636 
L 312.016285 53.627912 
L 312.188882 53.622187 
L 312.361479 53.616462 
L 312.534076 53.610737 
L 312.706672 53.605013 
L 312.879269 53.599288 
L 313.051866 53.593563 
" style="fill:none;stroke:#0000ff;stroke-linecap:square;stroke-width:1.5;"/>
   </g>
   <g id="line2d_31">
    <path clip-path="url(#p1e7409b4e2)" d="M 313.051866 53.61698 
L 313.224463 53.616507 
L 313.39706 53.616034 
L 313.569656 53.615561 
L 313.742253 53.615087 
L 313.91485 53.614614 
L 314.087447 53.614141 
L 314.260044 53.613668 
L 314.43264 53.613195 
L 314.605237 53.612722 
L 314.777834 53.612249 
L 314.950431 53.611776 
L 315.123027 53.611303 
L 315.295624 53.61083 
L 315.468221 53.610357 
L 315.640818 53.609884 
L 315.813415 53.609411 
L 315.986011 53.608938 
L 316.158608 53.608465 
L 316.331205 53.607992 
L 316.503802 53.607519 
L 316.676398 53.607045 
L 316.848995 53.606572 
L 317.021592 53.606099 
L 317.194189 53.605626 
L 317.366786 53.605153 
L 317.539382 53.60468 
L 317.711979 53.604207 
L 317.884576 53.603734 
L 318.057173 53.603261 
L 318.229769 53.602788 
L 318.402366 53.602315 
L 318.574963 53.601842 
L 318.74756 53.601369 
L 318.920157 53.600896 
L 319.092753 53.600423 
L 319.26535 53.59995 
L 319.437947 53.599477 
L 319.610544 53.599004 
L 319.78314 53.59853 
L 319.955737 53.598057 
L 320.128334 53.597584 
L 320.300931 53.597111 
L 320.473528 53.596638 
L 320.646124 53.596165 
L 320.818721 53.595692 
L 320.991318 53.595219 
L 321.163915 53.594746 
L 321.336512 53.594273 
L 321.509108 53.5938 
L 321.681705 53.593327 
L 321.854302 53.592854 
L 322.026899 53.592381 
L 322.199495 53.591908 
L 322.372092 53.591435 
L 322.544689 53.590962 
L 322.717286 53.590488 
L 322.889883 53.590015 
L 323.062479 53.589542 
L 323.235076 53.589069 
L 323.407673 53.588596 
L 323.58027 53.588123 
L 323.752866 53.58765 
L 323.925463 53.587177 
L 324.09806 53.586704 
L 324.270657 53.586231 
L 324.443254 53.585758 
L 324.61585 53.585285 
L 324.788447 53.584812 
L 324.961044 53.584339 
L 325.133641 53.583866 
L 325.306237 53.583393 
L 325.478834 53.58292 
L 325.651431 53.582446 
L 325.824028 53.581973 
L 325.996625 53.5815 
L 326.169221 53.581027 
L 326.341818 53.580554 
L 326.514415 53.580081 
L 326.687012 53.579608 
L 326.859609 53.579135 
L 327.032205 53.578662 
L 327.204802 53.578189 
L 327.377399 53.577716 
L 327.549996 53.577243 
L 327.722592 53.57677 
L 327.895189 53.576297 
L 328.067786 53.575824 
L 328.240383 53.575351 
L 328.41298 53.574878 
L 328.585576 53.574404 
L 328.758173 53.573931 
L 328.93077 53.573458 
L 329.103367 53.572985 
L 329.275963 53.572512 
L 329.44856 53.572039 
L 329.621157 53.571566 
L 329.793754 53.571093 
L 329.966351 53.57062 
L 330.138947 53.570147 
" style="fill:none;stroke:#0000ff;stroke-linecap:square;stroke-width:1.5;"/>
   </g>
   <g id="line2d_32">
    <path clip-path="url(#p1e7409b4e2)" d="M 330.138947 53.572169 
L 330.311544 53.572128 
L 330.484141 53.572087 
L 330.656738 53.572046 
L 330.829335 53.572005 
L 331.001931 53.571965 
L 331.174528 53.571924 
L 331.347125 53.571883 
L 331.519722 53.571842 
L 331.692318 53.571801 
L 331.864915 53.57176 
L 332.037512 53.57172 
L 332.210109 53.571679 
L 332.382706 53.571638 
L 332.555302 53.571597 
L 332.727899 53.571556 
L 332.900496 53.571515 
L 333.073093 53.571474 
L 333.245689 53.571434 
L 333.418286 53.571393 
L 333.590883 53.571352 
L 333.76348 53.571311 
L 333.936077 53.57127 
L 334.108673 53.571229 
L 334.28127 53.571189 
L 334.453867 53.571148 
L 334.626464 53.571107 
L 334.79906 53.571066 
L 334.971657 53.571025 
L 335.144254 53.570984 
L 335.316851 53.570943 
L 335.489448 53.570903 
L 335.662044 53.570862 
L 335.834641 53.570821 
L 336.007238 53.57078 
L 336.179835 53.570739 
L 336.352431 53.570698 
L 336.525028 53.570658 
L 336.697625 53.570617 
L 336.870222 53.570576 
L 337.042819 53.570535 
L 337.215415 53.570494 
L 337.388012 53.570453 
L 337.560609 53.570412 
L 337.733206 53.570372 
L 337.905803 53.570331 
L 338.078399 53.57029 
L 338.250996 53.570249 
L 338.423593 53.570208 
L 338.59619 53.570167 
L 338.768786 53.570127 
L 338.941383 53.570086 
L 339.11398 53.570045 
L 339.286577 53.570004 
L 339.459174 53.569963 
L 339.63177 53.569922 
L 339.804367 53.569881 
L 339.976964 53.569841 
L 340.149561 53.5698 
L 340.322157 53.569759 
L 340.494754 53.569718 
L 340.667351 53.569677 
L 340.839948 53.569636 
L 341.012545 53.569596 
L 341.185141 53.569555 
L 341.357738 53.569514 
L 341.530335 53.569473 
L 341.702932 53.569432 
L 341.875528 53.569391 
L 342.048125 53.56935 
L 342.220722 53.56931 
L 342.393319 53.569269 
L 342.565916 53.569228 
L 342.738512 53.569187 
L 342.911109 53.569146 
L 343.083706 53.569105 
L 343.256303 53.569065 
L 343.4289 53.569024 
L 343.601496 53.568983 
L 343.774093 53.568942 
L 343.94669 53.568901 
L 344.119287 53.56886 
L 344.291883 53.568819 
L 344.46448 53.568779 
L 344.637077 53.568738 
L 344.809674 53.568697 
L 344.982271 53.568656 
L 345.154867 53.568615 
L 345.327464 53.568574 
L 345.500061 53.568534 
L 345.672658 53.568493 
L 345.845254 53.568452 
L 346.017851 53.568411 
L 346.190448 53.56837 
L 346.363045 53.568329 
L 346.535642 53.568288 
L 346.708238 53.568248 
L 346.880835 53.568207 
L 347.053432 53.568166 
L 347.226029 53.568125 
" style="fill:none;stroke:#0000ff;stroke-linecap:square;stroke-width:1.5;"/>
   </g>
   <g id="line2d_33">
    <path clip-path="url(#p1e7409b4e2)" d="M 347.226029 53.568246 
L 347.398626 53.568244 
L 347.571222 53.568241 
L 347.743819 53.568239 
L 347.916416 53.568236 
L 348.089013 53.568234 
L 348.261609 53.568232 
L 348.434206 53.568229 
L 348.606803 53.568227 
L 348.7794 53.568224 
L 348.951997 53.568222 
L 349.124593 53.568219 
L 349.29719 53.568217 
L 349.469787 53.568214 
L 349.642384 53.568212 
L 349.81498 53.56821 
L 349.987577 53.568207 
L 350.160174 53.568205 
L 350.332771 53.568202 
L 350.505368 53.5682 
L 350.677964 53.568197 
L 350.850561 53.568195 
L 351.023158 53.568192 
L 351.195755 53.56819 
L 351.368351 53.568188 
L 351.540948 53.568185 
L 351.713545 53.568183 
L 351.886142 53.56818 
L 352.058739 53.568178 
L 352.231335 53.568175 
L 352.403932 53.568173 
L 352.576529 53.56817 
L 352.749126 53.568168 
L 352.921722 53.568165 
L 353.094319 53.568163 
L 353.266916 53.568161 
L 353.439513 53.568158 
L 353.61211 53.568156 
L 353.784706 53.568153 
L 353.957303 53.568151 
L 354.1299 53.568148 
L 354.302497 53.568146 
L 354.475094 53.568143 
L 354.64769 53.568141 
L 354.820287 53.568139 
L 354.992884 53.568136 
L 355.165481 53.568134 
L 355.338077 53.568131 
L 355.510674 53.568129 
L 355.683271 53.568126 
L 355.855868 53.568124 
L 356.028465 53.568121 
L 356.201061 53.568119 
L 356.373658 53.568116 
L 356.546255 53.568114 
L 356.718852 53.568112 
L 356.891448 53.568109 
L 357.064045 53.568107 
L 357.236642 53.568104 
L 357.409239 53.568102 
L 357.581836 53.568099 
L 357.754432 53.568097 
L 357.927029 53.568094 
L 358.099626 53.568092 
L 358.272223 53.56809 
L 358.444819 53.568087 
L 358.617416 53.568085 
L 358.790013 53.568082 
L 358.96261 53.56808 
L 359.135207 53.568077 
L 359.307803 53.568075 
L 359.4804 53.568072 
L 359.652997 53.56807 
L 359.825594 53.568067 
L 359.998191 53.568065 
L 360.170787 53.568063 
L 360.343384 53.56806 
L 360.515981 53.568058 
L 360.688578 53.568055 
L 360.861174 53.568053 
L 361.033771 53.56805 
L 361.206368 53.568048 
L 361.378965 53.568045 
L 361.551562 53.568043 
L 361.724158 53.568041 
L 361.896755 53.568038 
L 362.069352 53.568036 
L 362.241949 53.568033 
L 362.414545 53.568031 
L 362.587142 53.568028 
L 362.759739 53.568026 
L 362.932336 53.568023 
L 363.104933 53.568021 
L 363.277529 53.568019 
L 363.450126 53.568016 
L 363.622723 53.568014 
L 363.79532 53.568011 
L 363.967916 53.568009 
L 364.140513 53.568006 
L 364.31311 53.568004 
" style="fill:none;stroke:#0000ff;stroke-linecap:square;stroke-width:1.5;"/>
   </g>
   <g id="line2d_34">
    <path clip-path="url(#p1e7409b4e2)" d="M 364.31311 53.568008 
L 364.485707 53.568008 
L 364.658304 53.568007 
L 364.8309 53.568007 
L 365.003497 53.568007 
L 365.176094 53.568007 
L 365.348691 53.568007 
L 365.521288 53.568007 
L 365.693884 53.568007 
L 365.866481 53.568007 
L 366.039078 53.568007 
L 366.211675 53.568007 
L 366.384271 53.568007 
L 366.556868 53.568007 
L 366.729465 53.568007 
L 366.902062 53.568006 
L 367.074659 53.568006 
L 367.247255 53.568006 
L 367.419852 53.568006 
L 367.592449 53.568006 
L 367.765046 53.568006 
L 367.937642 53.568006 
L 368.110239 53.568006 
L 368.282836 53.568006 
L 368.455433 53.568006 
L 368.62803 53.568006 
L 368.800626 53.568006 
L 368.973223 53.568006 
L 369.14582 53.568005 
L 369.318417 53.568005 
L 369.491013 53.568005 
L 369.66361 53.568005 
L 369.836207 53.568005 
L 370.008804 53.568005 
L 370.181401 53.568005 
L 370.353997 53.568005 
L 370.526594 53.568005 
L 370.699191 53.568005 
L 370.871788 53.568005 
L 371.044385 53.568005 
L 371.216981 53.568005 
L 371.389578 53.568004 
L 371.562175 53.568004 
L 371.734772 53.568004 
L 371.907368 53.568004 
L 372.079965 53.568004 
L 372.252562 53.568004 
L 372.425159 53.568004 
L 372.597756 53.568004 
L 372.770352 53.568004 
L 372.942949 53.568004 
L 373.115546 53.568004 
L 373.288143 53.568004 
L 373.460739 53.568004 
L 373.633336 53.568003 
L 373.805933 53.568003 
L 373.97853 53.568003 
L 374.151127 53.568003 
L 374.323723 53.568003 
L 374.49632 53.568003 
L 374.668917 53.568003 
L 374.841514 53.568003 
L 375.01411 53.568003 
L 375.186707 53.568003 
L 375.359304 53.568003 
L 375.531901 53.568003 
L 375.704498 53.568003 
L 375.877094 53.568002 
L 376.049691 53.568002 
L 376.222288 53.568002 
L 376.394885 53.568002 
L 376.567482 53.568002 
L 376.740078 53.568002 
L 376.912675 53.568002 
L 377.085272 53.568002 
L 377.257869 53.568002 
L 377.430465 53.568002 
L 377.603062 53.568002 
L 377.775659 53.568002 
L 377.948256 53.568002 
L 378.120853 53.568001 
L 378.293449 53.568001 
L 378.466046 53.568001 
L 378.638643 53.568001 
L 378.81124 53.568001 
L 378.983836 53.568001 
L 379.156433 53.568001 
L 379.32903 53.568001 
L 379.501627 53.568001 
L 379.674224 53.568001 
L 379.84682 53.568001 
L 380.019417 53.568001 
L 380.192014 53.568001 
L 380.364611 53.568 
L 380.537207 53.568 
L 380.709804 53.568 
L 380.882401 53.568 
L 381.054998 53.568 
L 381.227595 53.568 
L 381.400191 53.568 
" style="fill:none;stroke:#0000ff;stroke-linecap:square;stroke-width:1.5;"/>
   </g>
   <g id="line2d_35">
    <path clip-path="url(#p1e7409b4e2)" d="M 381.400191 53.568 
L 381.572788 53.568 
L 381.745385 53.568 
L 381.917982 53.568 
L 382.090579 53.568 
L 382.263175 53.568 
L 382.435772 53.568 
L 382.608369 53.568 
L 382.780966 53.568 
L 382.953562 53.568 
L 383.126159 53.568 
L 383.298756 53.568 
L 383.471353 53.568 
L 383.64395 53.568 
L 383.816546 53.568 
L 383.989143 53.568 
L 384.16174 53.568 
L 384.334337 53.568 
L 384.506933 53.568 
L 384.67953 53.568 
L 384.852127 53.568 
L 385.024724 53.568 
L 385.197321 53.568 
L 385.369917 53.568 
L 385.542514 53.568 
L 385.715111 53.568 
L 385.887708 53.568 
L 386.060304 53.568 
L 386.232901 53.568 
L 386.405498 53.568 
L 386.578095 53.568 
L 386.750692 53.568 
L 386.923288 53.568 
L 387.095885 53.568 
L 387.268482 53.568 
L 387.441079 53.568 
L 387.613676 53.568 
L 387.786272 53.568 
L 387.958869 53.568 
L 388.131466 53.568 
L 388.304063 53.568 
L 388.476659 53.568 
L 388.649256 53.568 
L 388.821853 53.568 
L 388.99445 53.568 
L 389.167047 53.568 
L 389.339643 53.568 
L 389.51224 53.568 
L 389.684837 53.568 
L 389.857434 53.568 
L 390.03003 53.568 
L 390.202627 53.568 
L 390.375224 53.568 
L 390.547821 53.568 
L 390.720418 53.568 
L 390.893014 53.568 
L 391.065611 53.568 
L 391.238208 53.568 
L 391.410805 53.568 
L 391.583401 53.568 
L 391.755998 53.568 
L 391.928595 53.568 
L 392.101192 53.568 
L 392.273789 53.568 
L 392.446385 53.568 
L 392.618982 53.568 
L 392.791579 53.568 
L 392.964176 53.568 
L 393.136773 53.568 
L 393.309369 53.568 
L 393.481966 53.568 
L 393.654563 53.568 
L 393.82716 53.568 
L 393.999756 53.568 
L 394.172353 53.568 
L 394.34495 53.568 
L 394.517547 53.568 
L 394.690144 53.568 
L 394.86274 53.568 
L 395.035337 53.568 
L 395.207934 53.568 
L 395.380531 53.568 
L 395.553127 53.568 
L 395.725724 53.568 
L 395.898321 53.568 
L 396.070918 53.568 
L 396.243515 53.568 
L 396.416111 53.568 
L 396.588708 53.568 
L 396.761305 53.568 
L 396.933902 53.568 
L 397.106498 53.568 
L 397.279095 53.568 
L 397.451692 53.568 
L 397.624289 53.568 
L 397.796886 53.568 
L 397.969482 53.568 
L 398.142079 53.568 
L 398.314676 53.568 
L 398.487273 53.568 
" style="fill:none;stroke:#0000ff;stroke-linecap:square;stroke-width:1.5;"/>
   </g>
   <g id="patch_3">
    <path d="M 57.6 307.584 
L 57.6 41.472 
" style="fill:none;stroke:#000000;stroke-linecap:square;stroke-linejoin:miter;stroke-width:0.8;"/>
   </g>
   <g id="patch_4">
    <path d="M 414.72 307.584 
L 414.72 41.472 
" style="fill:none;stroke:#000000;stroke-linecap:square;stroke-linejoin:miter;stroke-width:0.8;"/>
   </g>
   <g id="patch_5">
    <path d="M 57.6 307.584 
L 414.72 307.584 
" style="fill:none;stroke:#000000;stroke-linecap:square;stroke-linejoin:miter;stroke-width:0.8;"/>
   </g>
   <g id="patch_6">
    <path d="M 57.6 41.472 
L 414.72 41.472 
" style="fill:none;stroke:#000000;stroke-linecap:square;stroke-linejoin:miter;stroke-width:0.8;"/>
   </g>
  </g>
 </g>
 <defs>
  <clipPath id="p1e7409b4e2">
   <rect height="266.112" width="357.12" x="57.6" y="41.472"/>
  </clipPath>
 </defs>
</svg>
