<?xml version="1.0" encoding="utf-8" standalone="no"?>
<!DOCTYPE svg PUBLIC "-//W3C//DTD SVG 1.1//EN"
  "http://www.w3.org/Graphics/SVG/1.1/DTD/svg11.dtd">
<!-- Created with matplotlib (https://matplotlib.org/) -->
<svg height="345.6pt" version="1.1" viewBox="0 0 460.8 345.6" width="460.8pt" xmlns="http://www.w3.org/2000/svg" xmlns:xlink="http://www.w3.org/1999/xlink">
 <metadata>
  <rdf:RDF xmlns:cc="http://creativecommons.org/ns#" xmlns:dc="http://purl.org/dc/elements/1.1/" xmlns:rdf="http://www.w3.org/1999/02/22-rdf-syntax-ns#">
   <cc:Work>
    <dc:type rdf:resource="http://purl.org/dc/dcmitype/StillImage"/>
    <dc:date>2022-06-28T10:27:33.052288</dc:date>
    <dc:format>image/svg+xml</dc:format>
    <dc:creator>
     <cc:Agent>
      <dc:title>Matplotlib v3.3.2, https://matplotlib.org/</dc:title>
     </cc:Agent>
    </dc:creator>
   </cc:Work>
  </rdf:RDF>
 </metadata>
 <defs>
  <style type="text/css">*{stroke-linecap:butt;stroke-linejoin:round;}</style>
 </defs>
 <g id="figure_1">
  <g id="patch_1">
   <path d="M 0 345.6 
L 460.8 345.6 
L 460.8 0 
L 0 0 
z
" style="fill:#ffffff;"/>
  </g>
  <g id="axes_1">
   <g id="patch_2">
    <path d="M 57.6 307.584 
L 414.72 307.584 
L 414.72 41.472 
L 57.6 41.472 
z
" style="fill:#ffffff;"/>
   </g>
   <g id="PathCollection_1">
    <defs>
     <path d="M 0 3 
C 0.795609 3 1.55874 2.683901 2.12132 2.12132 
C 2.683901 1.55874 3 0.795609 3 0 
C 3 -0.795609 2.683901 -1.55874 2.12132 -2.12132 
C 1.55874 -2.683901 0.795609 -3 0 -3 
C -0.795609 -3 -1.55874 -2.683901 -2.12132 -2.12132 
C -2.683901 -1.55874 -3 -0.795609 -3 0 
C -3 0.795609 -2.683901 1.55874 -2.12132 2.12132 
C -1.55874 2.683901 -0.795609 3 0 3 
z
" id="ma084aa5ede" style="stroke:#0000ff;"/>
    </defs>
    <g clip-path="url(#pd111714b7e)">
     <use style="fill:#0000ff;stroke:#0000ff;" x="82.376268" xlink:href="#ma084aa5ede" y="285.209653"/>
    </g>
   </g>
   <g id="PathCollection_2">
    <g clip-path="url(#pd111714b7e)">
     <use style="fill:#0000ff;stroke:#0000ff;" x="99.463349" xlink:href="#ma084aa5ede" y="284.684314"/>
    </g>
   </g>
   <g id="PathCollection_3">
    <g clip-path="url(#pd111714b7e)">
     <use style="fill:#0000ff;stroke:#0000ff;" x="116.550431" xlink:href="#ma084aa5ede" y="285.082179"/>
    </g>
   </g>
   <g id="PathCollection_4">
    <g clip-path="url(#pd111714b7e)">
     <use style="fill:#0000ff;stroke:#0000ff;" x="133.637512" xlink:href="#ma084aa5ede" y="288.066483"/>
    </g>
   </g>
   <g id="PathCollection_5">
    <g clip-path="url(#pd111714b7e)">
     <use style="fill:#0000ff;stroke:#0000ff;" x="150.724593" xlink:href="#ma084aa5ede" y="292.801296"/>
    </g>
   </g>
   <g id="PathCollection_6">
    <g clip-path="url(#pd111714b7e)">
     <use style="fill:#0000ff;stroke:#0000ff;" x="167.811675" xlink:href="#ma084aa5ede" y="294.567055"/>
    </g>
   </g>
   <g id="PathCollection_7">
    <g clip-path="url(#pd111714b7e)">
     <use style="fill:#0000ff;stroke:#0000ff;" x="184.898756" xlink:href="#ma084aa5ede" y="286.456702"/>
    </g>
   </g>
   <g id="PathCollection_8">
    <g clip-path="url(#pd111714b7e)">
     <use style="fill:#0000ff;stroke:#0000ff;" x="201.985837" xlink:href="#ma084aa5ede" y="263.202108"/>
    </g>
   </g>
   <g id="PathCollection_9">
    <g clip-path="url(#pd111714b7e)">
     <use style="fill:#0000ff;stroke:#0000ff;" x="219.072919" xlink:href="#ma084aa5ede" y="224.611237"/>
    </g>
   </g>
   <g id="PathCollection_10">
    <g clip-path="url(#pd111714b7e)">
     <use style="fill:#0000ff;stroke:#0000ff;" x="236.16" xlink:href="#ma084aa5ede" y="176.435986"/>
    </g>
   </g>
   <g id="PathCollection_11">
    <g clip-path="url(#pd111714b7e)">
     <use style="fill:#0000ff;stroke:#0000ff;" x="253.247081" xlink:href="#ma084aa5ede" y="128.178735"/>
    </g>
   </g>
   <g id="PathCollection_12">
    <g clip-path="url(#pd111714b7e)">
     <use style="fill:#0000ff;stroke:#0000ff;" x="270.334163" xlink:href="#ma084aa5ede" y="89.124039"/>
    </g>
   </g>
   <g id="PathCollection_13">
    <g clip-path="url(#pd111714b7e)">
     <use style="fill:#0000ff;stroke:#0000ff;" x="287.421244" xlink:href="#ma084aa5ede" y="64.716943"/>
    </g>
   </g>
   <g id="PathCollection_14">
    <g clip-path="url(#pd111714b7e)">
     <use style="fill:#0000ff;stroke:#0000ff;" x="304.508325" xlink:href="#ma084aa5ede" y="55.002621"/>
    </g>
   </g>
   <g id="PathCollection_15">
    <g clip-path="url(#pd111714b7e)">
     <use style="fill:#0000ff;stroke:#0000ff;" x="321.595407" xlink:href="#ma084aa5ede" y="55.609373"/>
    </g>
   </g>
   <g id="PathCollection_16">
    <g clip-path="url(#pd111714b7e)">
     <use style="fill:#0000ff;stroke:#0000ff;" x="338.682488" xlink:href="#ma084aa5ede" y="60.455705"/>
    </g>
   </g>
   <g id="PathCollection_17">
    <g clip-path="url(#pd111714b7e)">
     <use style="fill:#0000ff;stroke:#0000ff;" x="355.769569" xlink:href="#ma084aa5ede" y="64.6476"/>
    </g>
   </g>
   <g id="PathCollection_18">
    <g clip-path="url(#pd111714b7e)">
     <use style="fill:#0000ff;stroke:#0000ff;" x="372.856651" xlink:href="#ma084aa5ede" y="66.166629"/>
    </g>
   </g>
   <g id="PathCollection_19">
    <g clip-path="url(#pd111714b7e)">
     <use style="fill:#0000ff;stroke:#0000ff;" x="389.943732" xlink:href="#ma084aa5ede" y="65.743753"/>
    </g>
   </g>
   <g id="PathCollection_20">
    <g clip-path="url(#pd111714b7e)">
     <use style="fill:#0000ff;stroke:#0000ff;" x="82.376268" xlink:href="#ma084aa5ede" y="285.209653"/>
    </g>
   </g>
   <g id="PathCollection_21">
    <g clip-path="url(#pd111714b7e)">
     <use style="fill:#0000ff;stroke:#0000ff;" x="99.463349" xlink:href="#ma084aa5ede" y="284.684314"/>
    </g>
   </g>
   <g id="PathCollection_22">
    <g clip-path="url(#pd111714b7e)">
     <use style="fill:#0000ff;stroke:#0000ff;" x="116.550431" xlink:href="#ma084aa5ede" y="285.082179"/>
    </g>
   </g>
   <g id="PathCollection_23">
    <g clip-path="url(#pd111714b7e)">
     <use style="fill:#0000ff;stroke:#0000ff;" x="133.637512" xlink:href="#ma084aa5ede" y="288.066483"/>
    </g>
   </g>
   <g id="PathCollection_24">
    <g clip-path="url(#pd111714b7e)">
     <use style="fill:#0000ff;stroke:#0000ff;" x="150.724593" xlink:href="#ma084aa5ede" y="292.801296"/>
    </g>
   </g>
   <g id="PathCollection_25">
    <g clip-path="url(#pd111714b7e)">
     <use style="fill:#0000ff;stroke:#0000ff;" x="167.811675" xlink:href="#ma084aa5ede" y="294.567055"/>
    </g>
   </g>
   <g id="PathCollection_26">
    <g clip-path="url(#pd111714b7e)">
     <use style="fill:#0000ff;stroke:#0000ff;" x="184.898756" xlink:href="#ma084aa5ede" y="286.456702"/>
    </g>
   </g>
   <g id="PathCollection_27">
    <g clip-path="url(#pd111714b7e)">
     <use style="fill:#0000ff;stroke:#0000ff;" x="201.985837" xlink:href="#ma084aa5ede" y="263.202108"/>
    </g>
   </g>
   <g id="PathCollection_28">
    <g clip-path="url(#pd111714b7e)">
     <use style="fill:#0000ff;stroke:#0000ff;" x="219.072919" xlink:href="#ma084aa5ede" y="224.611237"/>
    </g>
   </g>
   <g id="PathCollection_29">
    <g clip-path="url(#pd111714b7e)">
     <use style="fill:#0000ff;stroke:#0000ff;" x="236.16" xlink:href="#ma084aa5ede" y="176.435986"/>
    </g>
   </g>
   <g id="PathCollection_30">
    <g clip-path="url(#pd111714b7e)">
     <use style="fill:#0000ff;stroke:#0000ff;" x="253.247081" xlink:href="#ma084aa5ede" y="128.178735"/>
    </g>
   </g>
   <g id="PathCollection_31">
    <g clip-path="url(#pd111714b7e)">
     <use style="fill:#0000ff;stroke:#0000ff;" x="270.334163" xlink:href="#ma084aa5ede" y="89.124039"/>
    </g>
   </g>
   <g id="PathCollection_32">
    <g clip-path="url(#pd111714b7e)">
     <use style="fill:#0000ff;stroke:#0000ff;" x="287.421244" xlink:href="#ma084aa5ede" y="64.716943"/>
    </g>
   </g>
   <g id="PathCollection_33">
    <g clip-path="url(#pd111714b7e)">
     <use style="fill:#0000ff;stroke:#0000ff;" x="304.508325" xlink:href="#ma084aa5ede" y="55.002621"/>
    </g>
   </g>
   <g id="PathCollection_34">
    <g clip-path="url(#pd111714b7e)">
     <use style="fill:#0000ff;stroke:#0000ff;" x="321.595407" xlink:href="#ma084aa5ede" y="55.609373"/>
    </g>
   </g>
   <g id="PathCollection_35">
    <g clip-path="url(#pd111714b7e)">
     <use style="fill:#0000ff;stroke:#0000ff;" x="338.682488" xlink:href="#ma084aa5ede" y="60.455705"/>
    </g>
   </g>
   <g id="PathCollection_36">
    <g clip-path="url(#pd111714b7e)">
     <use style="fill:#0000ff;stroke:#0000ff;" x="355.769569" xlink:href="#ma084aa5ede" y="64.6476"/>
    </g>
   </g>
   <g id="PathCollection_37">
    <g clip-path="url(#pd111714b7e)">
     <use style="fill:#0000ff;stroke:#0000ff;" x="372.856651" xlink:href="#ma084aa5ede" y="66.166629"/>
    </g>
   </g>
   <g id="PathCollection_38">
    <g clip-path="url(#pd111714b7e)">
     <use style="fill:#0000ff;stroke:#0000ff;" x="389.943732" xlink:href="#ma084aa5ede" y="65.743753"/>
    </g>
   </g>
   <g id="matplotlib.axis_1">
    <g id="xtick_1">
     <g id="line2d_1">
      <defs>
       <path d="M 0 0 
L 0 3.5 
" id="m0ebd9f9aa2" style="stroke:#000000;stroke-width:0.8;"/>
      </defs>
      <g>
       <use style="stroke:#000000;stroke-width:0.8;" x="73.832727" xlink:href="#m0ebd9f9aa2" y="307.584"/>
      </g>
     </g>
     <g id="text_1">
      <!-- −1.00 -->
      <g transform="translate(58.510071 322.182437)scale(0.1 -0.1)">
       <defs>
        <path d="M 10.59375 35.5 
L 73.1875 35.5 
L 73.1875 27.203125 
L 10.59375 27.203125 
z
" id="DejaVuSans-8722"/>
        <path d="M 12.40625 8.296875 
L 28.515625 8.296875 
L 28.515625 63.921875 
L 10.984375 60.40625 
L 10.984375 69.390625 
L 28.421875 72.90625 
L 38.28125 72.90625 
L 38.28125 8.296875 
L 54.390625 8.296875 
L 54.390625 0 
L 12.40625 0 
z
" id="DejaVuSans-49"/>
        <path d="M 10.6875 12.40625 
L 21 12.40625 
L 21 0 
L 10.6875 0 
z
" id="DejaVuSans-46"/>
        <path d="M 31.78125 66.40625 
Q 24.171875 66.40625 20.328125 58.90625 
Q 16.5 51.421875 16.5 36.375 
Q 16.5 21.390625 20.328125 13.890625 
Q 24.171875 6.390625 31.78125 6.390625 
Q 39.453125 6.390625 43.28125 13.890625 
Q 47.125 21.390625 47.125 36.375 
Q 47.125 51.421875 43.28125 58.90625 
Q 39.453125 66.40625 31.78125 66.40625 
z
M 31.78125 74.21875 
Q 44.046875 74.21875 50.515625 64.515625 
Q 56.984375 54.828125 56.984375 36.375 
Q 56.984375 17.96875 50.515625 8.265625 
Q 44.046875 -1.421875 31.78125 -1.421875 
Q 19.53125 -1.421875 13.0625 8.265625 
Q 6.59375 17.96875 6.59375 36.375 
Q 6.59375 54.828125 13.0625 64.515625 
Q 19.53125 74.21875 31.78125 74.21875 
z
" id="DejaVuSans-48"/>
       </defs>
       <use xlink:href="#DejaVuSans-8722"/>
       <use x="83.789062" xlink:href="#DejaVuSans-49"/>
       <use x="147.412109" xlink:href="#DejaVuSans-46"/>
       <use x="179.199219" xlink:href="#DejaVuSans-48"/>
       <use x="242.822266" xlink:href="#DejaVuSans-48"/>
      </g>
     </g>
    </g>
    <g id="xtick_2">
     <g id="line2d_2">
      <g>
       <use style="stroke:#000000;stroke-width:0.8;" x="114.414545" xlink:href="#m0ebd9f9aa2" y="307.584"/>
      </g>
     </g>
     <g id="text_2">
      <!-- −0.75 -->
      <g transform="translate(99.091889 322.182437)scale(0.1 -0.1)">
       <defs>
        <path d="M 8.203125 72.90625 
L 55.078125 72.90625 
L 55.078125 68.703125 
L 28.609375 0 
L 18.3125 0 
L 43.21875 64.59375 
L 8.203125 64.59375 
z
" id="DejaVuSans-55"/>
        <path d="M 10.796875 72.90625 
L 49.515625 72.90625 
L 49.515625 64.59375 
L 19.828125 64.59375 
L 19.828125 46.734375 
Q 21.96875 47.46875 24.109375 47.828125 
Q 26.265625 48.1875 28.421875 48.1875 
Q 40.625 48.1875 47.75 41.5 
Q 54.890625 34.8125 54.890625 23.390625 
Q 54.890625 11.625 47.5625 5.09375 
Q 40.234375 -1.421875 26.90625 -1.421875 
Q 22.3125 -1.421875 17.546875 -0.640625 
Q 12.796875 0.140625 7.71875 1.703125 
L 7.71875 11.625 
Q 12.109375 9.234375 16.796875 8.0625 
Q 21.484375 6.890625 26.703125 6.890625 
Q 35.15625 6.890625 40.078125 11.328125 
Q 45.015625 15.765625 45.015625 23.390625 
Q 45.015625 31 40.078125 35.4375 
Q 35.15625 39.890625 26.703125 39.890625 
Q 22.75 39.890625 18.8125 39.015625 
Q 14.890625 38.140625 10.796875 36.28125 
z
" id="DejaVuSans-53"/>
       </defs>
       <use xlink:href="#DejaVuSans-8722"/>
       <use x="83.789062" xlink:href="#DejaVuSans-48"/>
       <use x="147.412109" xlink:href="#DejaVuSans-46"/>
       <use x="179.199219" xlink:href="#DejaVuSans-55"/>
       <use x="242.822266" xlink:href="#DejaVuSans-53"/>
      </g>
     </g>
    </g>
    <g id="xtick_3">
     <g id="line2d_3">
      <g>
       <use style="stroke:#000000;stroke-width:0.8;" x="154.996364" xlink:href="#m0ebd9f9aa2" y="307.584"/>
      </g>
     </g>
     <g id="text_3">
      <!-- −0.50 -->
      <g transform="translate(139.673707 322.182437)scale(0.1 -0.1)">
       <use xlink:href="#DejaVuSans-8722"/>
       <use x="83.789062" xlink:href="#DejaVuSans-48"/>
       <use x="147.412109" xlink:href="#DejaVuSans-46"/>
       <use x="179.199219" xlink:href="#DejaVuSans-53"/>
       <use x="242.822266" xlink:href="#DejaVuSans-48"/>
      </g>
     </g>
    </g>
    <g id="xtick_4">
     <g id="line2d_4">
      <g>
       <use style="stroke:#000000;stroke-width:0.8;" x="195.578182" xlink:href="#m0ebd9f9aa2" y="307.584"/>
      </g>
     </g>
     <g id="text_4">
      <!-- −0.25 -->
      <g transform="translate(180.255526 322.182437)scale(0.1 -0.1)">
       <defs>
        <path d="M 19.1875 8.296875 
L 53.609375 8.296875 
L 53.609375 0 
L 7.328125 0 
L 7.328125 8.296875 
Q 12.9375 14.109375 22.625 23.890625 
Q 32.328125 33.6875 34.8125 36.53125 
Q 39.546875 41.84375 41.421875 45.53125 
Q 43.3125 49.21875 43.3125 52.78125 
Q 43.3125 58.59375 39.234375 62.25 
Q 35.15625 65.921875 28.609375 65.921875 
Q 23.96875 65.921875 18.8125 64.3125 
Q 13.671875 62.703125 7.8125 59.421875 
L 7.8125 69.390625 
Q 13.765625 71.78125 18.9375 73 
Q 24.125 74.21875 28.421875 74.21875 
Q 39.75 74.21875 46.484375 68.546875 
Q 53.21875 62.890625 53.21875 53.421875 
Q 53.21875 48.921875 51.53125 44.890625 
Q 49.859375 40.875 45.40625 35.40625 
Q 44.1875 33.984375 37.640625 27.21875 
Q 31.109375 20.453125 19.1875 8.296875 
z
" id="DejaVuSans-50"/>
       </defs>
       <use xlink:href="#DejaVuSans-8722"/>
       <use x="83.789062" xlink:href="#DejaVuSans-48"/>
       <use x="147.412109" xlink:href="#DejaVuSans-46"/>
       <use x="179.199219" xlink:href="#DejaVuSans-50"/>
       <use x="242.822266" xlink:href="#DejaVuSans-53"/>
      </g>
     </g>
    </g>
    <g id="xtick_5">
     <g id="line2d_5">
      <g>
       <use style="stroke:#000000;stroke-width:0.8;" x="236.16" xlink:href="#m0ebd9f9aa2" y="307.584"/>
      </g>
     </g>
     <g id="text_5">
      <!-- 0.00 -->
      <g transform="translate(225.027187 322.182437)scale(0.1 -0.1)">
       <use xlink:href="#DejaVuSans-48"/>
       <use x="63.623047" xlink:href="#DejaVuSans-46"/>
       <use x="95.410156" xlink:href="#DejaVuSans-48"/>
       <use x="159.033203" xlink:href="#DejaVuSans-48"/>
      </g>
     </g>
    </g>
    <g id="xtick_6">
     <g id="line2d_6">
      <g>
       <use style="stroke:#000000;stroke-width:0.8;" x="276.741818" xlink:href="#m0ebd9f9aa2" y="307.584"/>
      </g>
     </g>
     <g id="text_6">
      <!-- 0.25 -->
      <g transform="translate(265.609006 322.182437)scale(0.1 -0.1)">
       <use xlink:href="#DejaVuSans-48"/>
       <use x="63.623047" xlink:href="#DejaVuSans-46"/>
       <use x="95.410156" xlink:href="#DejaVuSans-50"/>
       <use x="159.033203" xlink:href="#DejaVuSans-53"/>
      </g>
     </g>
    </g>
    <g id="xtick_7">
     <g id="line2d_7">
      <g>
       <use style="stroke:#000000;stroke-width:0.8;" x="317.323636" xlink:href="#m0ebd9f9aa2" y="307.584"/>
      </g>
     </g>
     <g id="text_7">
      <!-- 0.50 -->
      <g transform="translate(306.190824 322.182437)scale(0.1 -0.1)">
       <use xlink:href="#DejaVuSans-48"/>
       <use x="63.623047" xlink:href="#DejaVuSans-46"/>
       <use x="95.410156" xlink:href="#DejaVuSans-53"/>
       <use x="159.033203" xlink:href="#DejaVuSans-48"/>
      </g>
     </g>
    </g>
    <g id="xtick_8">
     <g id="line2d_8">
      <g>
       <use style="stroke:#000000;stroke-width:0.8;" x="357.905455" xlink:href="#m0ebd9f9aa2" y="307.584"/>
      </g>
     </g>
     <g id="text_8">
      <!-- 0.75 -->
      <g transform="translate(346.772642 322.182437)scale(0.1 -0.1)">
       <use xlink:href="#DejaVuSans-48"/>
       <use x="63.623047" xlink:href="#DejaVuSans-46"/>
       <use x="95.410156" xlink:href="#DejaVuSans-55"/>
       <use x="159.033203" xlink:href="#DejaVuSans-53"/>
      </g>
     </g>
    </g>
    <g id="xtick_9">
     <g id="line2d_9">
      <g>
       <use style="stroke:#000000;stroke-width:0.8;" x="398.487273" xlink:href="#m0ebd9f9aa2" y="307.584"/>
      </g>
     </g>
     <g id="text_9">
      <!-- 1.00 -->
      <g transform="translate(387.35446 322.182437)scale(0.1 -0.1)">
       <use xlink:href="#DejaVuSans-49"/>
       <use x="63.623047" xlink:href="#DejaVuSans-46"/>
       <use x="95.410156" xlink:href="#DejaVuSans-48"/>
       <use x="159.033203" xlink:href="#DejaVuSans-48"/>
      </g>
     </g>
    </g>
   </g>
   <g id="matplotlib.axis_2">
    <g id="ytick_1">
     <g id="line2d_10">
      <defs>
       <path d="M 0 0 
L -3.5 0 
" id="m397e80e63b" style="stroke:#000000;stroke-width:0.8;"/>
      </defs>
      <g>
       <use style="stroke:#000000;stroke-width:0.8;" x="57.6" xlink:href="#m397e80e63b" y="285.286864"/>
      </g>
     </g>
     <g id="text_10">
      <!-- 1.0 -->
      <g transform="translate(34.696875 289.086082)scale(0.1 -0.1)">
       <use xlink:href="#DejaVuSans-49"/>
       <use x="63.623047" xlink:href="#DejaVuSans-46"/>
       <use x="95.410156" xlink:href="#DejaVuSans-48"/>
      </g>
     </g>
    </g>
    <g id="ytick_2">
     <g id="line2d_11">
      <g>
       <use style="stroke:#000000;stroke-width:0.8;" x="57.6" xlink:href="#m397e80e63b" y="241.293432"/>
      </g>
     </g>
     <g id="text_11">
      <!-- 1.2 -->
      <g transform="translate(34.696875 245.092651)scale(0.1 -0.1)">
       <use xlink:href="#DejaVuSans-49"/>
       <use x="63.623047" xlink:href="#DejaVuSans-46"/>
       <use x="95.410156" xlink:href="#DejaVuSans-50"/>
      </g>
     </g>
    </g>
    <g id="ytick_3">
     <g id="line2d_12">
      <g>
       <use style="stroke:#000000;stroke-width:0.8;" x="57.6" xlink:href="#m397e80e63b" y="197.3"/>
      </g>
     </g>
     <g id="text_12">
      <!-- 1.4 -->
      <g transform="translate(34.696875 201.099219)scale(0.1 -0.1)">
       <defs>
        <path d="M 37.796875 64.3125 
L 12.890625 25.390625 
L 37.796875 25.390625 
z
M 35.203125 72.90625 
L 47.609375 72.90625 
L 47.609375 25.390625 
L 58.015625 25.390625 
L 58.015625 17.1875 
L 47.609375 17.1875 
L 47.609375 0 
L 37.796875 0 
L 37.796875 17.1875 
L 4.890625 17.1875 
L 4.890625 26.703125 
z
" id="DejaVuSans-52"/>
       </defs>
       <use xlink:href="#DejaVuSans-49"/>
       <use x="63.623047" xlink:href="#DejaVuSans-46"/>
       <use x="95.410156" xlink:href="#DejaVuSans-52"/>
      </g>
     </g>
    </g>
    <g id="ytick_4">
     <g id="line2d_13">
      <g>
       <use style="stroke:#000000;stroke-width:0.8;" x="57.6" xlink:href="#m397e80e63b" y="153.306569"/>
      </g>
     </g>
     <g id="text_13">
      <!-- 1.6 -->
      <g transform="translate(34.696875 157.105788)scale(0.1 -0.1)">
       <defs>
        <path d="M 33.015625 40.375 
Q 26.375 40.375 22.484375 35.828125 
Q 18.609375 31.296875 18.609375 23.390625 
Q 18.609375 15.53125 22.484375 10.953125 
Q 26.375 6.390625 33.015625 6.390625 
Q 39.65625 6.390625 43.53125 10.953125 
Q 47.40625 15.53125 47.40625 23.390625 
Q 47.40625 31.296875 43.53125 35.828125 
Q 39.65625 40.375 33.015625 40.375 
z
M 52.59375 71.296875 
L 52.59375 62.3125 
Q 48.875 64.0625 45.09375 64.984375 
Q 41.3125 65.921875 37.59375 65.921875 
Q 27.828125 65.921875 22.671875 59.328125 
Q 17.53125 52.734375 16.796875 39.40625 
Q 19.671875 43.65625 24.015625 45.921875 
Q 28.375 48.1875 33.59375 48.1875 
Q 44.578125 48.1875 50.953125 41.515625 
Q 57.328125 34.859375 57.328125 23.390625 
Q 57.328125 12.15625 50.6875 5.359375 
Q 44.046875 -1.421875 33.015625 -1.421875 
Q 20.359375 -1.421875 13.671875 8.265625 
Q 6.984375 17.96875 6.984375 36.375 
Q 6.984375 53.65625 15.1875 63.9375 
Q 23.390625 74.21875 37.203125 74.21875 
Q 40.921875 74.21875 44.703125 73.484375 
Q 48.484375 72.75 52.59375 71.296875 
z
" id="DejaVuSans-54"/>
       </defs>
       <use xlink:href="#DejaVuSans-49"/>
       <use x="63.623047" xlink:href="#DejaVuSans-46"/>
       <use x="95.410156" xlink:href="#DejaVuSans-54"/>
      </g>
     </g>
    </g>
    <g id="ytick_5">
     <g id="line2d_14">
      <g>
       <use style="stroke:#000000;stroke-width:0.8;" x="57.6" xlink:href="#m397e80e63b" y="109.313137"/>
      </g>
     </g>
     <g id="text_14">
      <!-- 1.8 -->
      <g transform="translate(34.696875 113.112356)scale(0.1 -0.1)">
       <defs>
        <path d="M 31.78125 34.625 
Q 24.75 34.625 20.71875 30.859375 
Q 16.703125 27.09375 16.703125 20.515625 
Q 16.703125 13.921875 20.71875 10.15625 
Q 24.75 6.390625 31.78125 6.390625 
Q 38.8125 6.390625 42.859375 10.171875 
Q 46.921875 13.96875 46.921875 20.515625 
Q 46.921875 27.09375 42.890625 30.859375 
Q 38.875 34.625 31.78125 34.625 
z
M 21.921875 38.8125 
Q 15.578125 40.375 12.03125 44.71875 
Q 8.5 49.078125 8.5 55.328125 
Q 8.5 64.0625 14.71875 69.140625 
Q 20.953125 74.21875 31.78125 74.21875 
Q 42.671875 74.21875 48.875 69.140625 
Q 55.078125 64.0625 55.078125 55.328125 
Q 55.078125 49.078125 51.53125 44.71875 
Q 48 40.375 41.703125 38.8125 
Q 48.828125 37.15625 52.796875 32.3125 
Q 56.78125 27.484375 56.78125 20.515625 
Q 56.78125 9.90625 50.3125 4.234375 
Q 43.84375 -1.421875 31.78125 -1.421875 
Q 19.734375 -1.421875 13.25 4.234375 
Q 6.78125 9.90625 6.78125 20.515625 
Q 6.78125 27.484375 10.78125 32.3125 
Q 14.796875 37.15625 21.921875 38.8125 
z
M 18.3125 54.390625 
Q 18.3125 48.734375 21.84375 45.5625 
Q 25.390625 42.390625 31.78125 42.390625 
Q 38.140625 42.390625 41.71875 45.5625 
Q 45.3125 48.734375 45.3125 54.390625 
Q 45.3125 60.0625 41.71875 63.234375 
Q 38.140625 66.40625 31.78125 66.40625 
Q 25.390625 66.40625 21.84375 63.234375 
Q 18.3125 60.0625 18.3125 54.390625 
z
" id="DejaVuSans-56"/>
       </defs>
       <use xlink:href="#DejaVuSans-49"/>
       <use x="63.623047" xlink:href="#DejaVuSans-46"/>
       <use x="95.410156" xlink:href="#DejaVuSans-56"/>
      </g>
     </g>
    </g>
    <g id="ytick_6">
     <g id="line2d_15">
      <g>
       <use style="stroke:#000000;stroke-width:0.8;" x="57.6" xlink:href="#m397e80e63b" y="65.319706"/>
      </g>
     </g>
     <g id="text_15">
      <!-- 2.0 -->
      <g transform="translate(34.696875 69.118925)scale(0.1 -0.1)">
       <use xlink:href="#DejaVuSans-50"/>
       <use x="63.623047" xlink:href="#DejaVuSans-46"/>
       <use x="95.410156" xlink:href="#DejaVuSans-48"/>
      </g>
     </g>
    </g>
   </g>
   <g id="line2d_16">
    <path clip-path="url(#pd111714b7e)" d="M 73.832727 285.286864 
L 236.078796 285.286864 
L 236.241204 65.319706 
L 398.487273 65.319706 
L 398.487273 65.319706 
" style="fill:none;stroke:#ff00ff;stroke-linecap:square;stroke-width:1.5;"/>
   </g>
   <g id="line2d_17">
    <path clip-path="url(#pd111714b7e)" d="M 73.832727 285.351274 
L 74.005324 285.349617 
L 74.177921 285.347923 
L 74.350518 285.346192 
L 74.523114 285.344424 
L 74.695711 285.342619 
L 74.868308 285.340777 
L 75.040905 285.338898 
L 75.213502 285.336982 
L 75.386098 285.335028 
L 75.558695 285.333038 
L 75.731292 285.331011 
L 75.903889 285.328946 
L 76.076485 285.326845 
L 76.249082 285.324706 
L 76.421679 285.322531 
L 76.594276 285.320318 
L 76.766873 285.318069 
L 76.939469 285.315782 
L 77.112066 285.313458 
L 77.284663 285.311097 
L 77.45726 285.308699 
L 77.629856 285.306264 
L 77.802453 285.303792 
L 77.97505 285.301283 
L 78.147647 285.298737 
L 78.320244 285.296154 
L 78.49284 285.293534 
L 78.665437 285.290877 
L 78.838034 285.288183 
L 79.010631 285.285451 
L 79.183227 285.282683 
L 79.355824 285.279877 
L 79.528421 285.277035 
L 79.701018 285.274155 
L 79.873615 285.271239 
L 80.046211 285.268285 
L 80.218808 285.265294 
L 80.391405 285.262267 
L 80.564002 285.259202 
L 80.736599 285.2561 
L 80.909195 285.252961 
L 81.081792 285.249785 
L 81.254389 285.246572 
L 81.426986 285.243322 
L 81.599582 285.240035 
L 81.772179 285.236711 
L 81.944776 285.233349 
L 82.117373 285.229951 
L 82.28997 285.226516 
L 82.462566 285.223043 
L 82.635163 285.219534 
L 82.80776 285.215987 
L 82.980357 285.212404 
L 83.152953 285.208783 
L 83.32555 285.205126 
L 83.498147 285.201431 
L 83.670744 285.197699 
L 83.843341 285.19393 
L 84.015937 285.190125 
L 84.188534 285.186282 
L 84.361131 285.182402 
L 84.533728 285.178485 
L 84.706324 285.174531 
L 84.878921 285.17054 
L 85.051518 285.166511 
L 85.224115 285.162446 
L 85.396712 285.158344 
L 85.569308 285.154205 
L 85.741905 285.150028 
L 85.914502 285.145815 
L 86.087099 285.141564 
L 86.259696 285.137277 
L 86.432292 285.132952 
L 86.604889 285.128591 
L 86.777486 285.124192 
L 86.950083 285.119756 
L 87.122679 285.115283 
L 87.295276 285.110774 
L 87.467873 285.106227 
L 87.64047 285.101643 
L 87.813067 285.097022 
L 87.985663 285.092364 
L 88.15826 285.087669 
L 88.330857 285.082936 
L 88.503454 285.078167 
L 88.67605 285.073361 
L 88.848647 285.068518 
L 89.021244 285.063637 
L 89.193841 285.05872 
L 89.366438 285.053765 
L 89.539034 285.048774 
L 89.711631 285.043745 
L 89.884228 285.03868 
L 90.056825 285.033577 
L 90.229421 285.028437 
L 90.402018 285.023261 
L 90.574615 285.018047 
L 90.747212 285.012796 
L 90.919809 285.007508 
" style="fill:none;stroke:#0000ff;stroke-linecap:square;stroke-width:1.5;"/>
   </g>
   <g id="line2d_18">
    <path clip-path="url(#pd111714b7e)" d="M 90.919809 284.793116 
L 91.092405 284.787857 
L 91.265002 284.782692 
L 91.437599 284.777621 
L 91.610196 284.772644 
L 91.782793 284.767761 
L 91.955389 284.762973 
L 92.127986 284.758279 
L 92.300583 284.753679 
L 92.47318 284.749173 
L 92.645776 284.744761 
L 92.818373 284.740444 
L 92.99097 284.736221 
L 93.163567 284.732092 
L 93.336164 284.728057 
L 93.50876 284.724116 
L 93.681357 284.72027 
L 93.853954 284.716518 
L 94.026551 284.71286 
L 94.199147 284.709296 
L 94.371744 284.705826 
L 94.544341 284.702451 
L 94.716938 284.699169 
L 94.889535 284.695982 
L 95.062131 284.692889 
L 95.234728 284.689891 
L 95.407325 284.686986 
L 95.579922 284.684176 
L 95.752518 284.68146 
L 95.925115 284.678838 
L 96.097712 284.67631 
L 96.270309 284.673877 
L 96.442906 284.671537 
L 96.615502 284.669292 
L 96.788099 284.667141 
L 96.960696 284.665085 
L 97.133293 284.663122 
L 97.30589 284.661254 
L 97.478486 284.65948 
L 97.651083 284.6578 
L 97.82368 284.656214 
L 97.996277 284.654722 
L 98.168873 284.653325 
L 98.34147 284.652022 
L 98.514067 284.650813 
L 98.686664 284.649698 
L 98.859261 284.648677 
L 99.031857 284.647751 
L 99.204454 284.646919 
L 99.377051 284.646181 
L 99.549648 284.645537 
L 99.722244 284.644987 
L 99.894841 284.644532 
L 100.067438 284.644171 
L 100.240035 284.643904 
L 100.412632 284.643731 
L 100.585228 284.643652 
L 100.757825 284.643668 
L 100.930422 284.643778 
L 101.103019 284.643981 
L 101.275615 284.64428 
L 101.448212 284.644672 
L 101.620809 284.645158 
L 101.793406 284.645739 
L 101.966003 284.646414 
L 102.138599 284.647183 
L 102.311196 284.648047 
L 102.483793 284.649004 
L 102.65639 284.650056 
L 102.828987 284.651202 
L 103.001583 284.652442 
L 103.17418 284.653776 
L 103.346777 284.655204 
L 103.519374 284.656727 
L 103.69197 284.658344 
L 103.864567 284.660055 
L 104.037164 284.66186 
L 104.209761 284.66376 
L 104.382358 284.665753 
L 104.554954 284.667841 
L 104.727551 284.670023 
L 104.900148 284.6723 
L 105.072745 284.67467 
L 105.245341 284.677135 
L 105.417938 284.679693 
L 105.590535 284.682346 
L 105.763132 284.685094 
L 105.935729 284.687935 
L 106.108325 284.690871 
L 106.280922 284.6939 
L 106.453519 284.697024 
L 106.626116 284.700243 
L 106.798712 284.703555 
L 106.971309 284.706962 
L 107.143906 284.710462 
L 107.316503 284.714057 
L 107.4891 284.717746 
L 107.661696 284.72153 
L 107.834293 284.725407 
L 108.00689 284.729379 
" style="fill:none;stroke:#0000ff;stroke-linecap:square;stroke-width:1.5;"/>
   </g>
   <g id="line2d_19">
    <path clip-path="url(#pd111714b7e)" d="M 108.00689 284.452173 
L 108.179487 284.456324 
L 108.352084 284.460739 
L 108.52468 284.465417 
L 108.697277 284.47036 
L 108.869874 284.475566 
L 109.042471 284.481037 
L 109.215067 284.486771 
L 109.387664 284.492769 
L 109.560261 284.499031 
L 109.732858 284.505557 
L 109.905455 284.512346 
L 110.078051 284.5194 
L 110.250648 284.526717 
L 110.423245 284.534299 
L 110.595842 284.542144 
L 110.768438 284.550253 
L 110.941035 284.558626 
L 111.113632 284.567264 
L 111.286229 284.576164 
L 111.458826 284.585329 
L 111.631422 284.594758 
L 111.804019 284.60445 
L 111.976616 284.614407 
L 112.149213 284.624627 
L 112.321809 284.635112 
L 112.494406 284.64586 
L 112.667003 284.656872 
L 112.8396 284.668148 
L 113.012197 284.679688 
L 113.184793 284.691491 
L 113.35739 284.703559 
L 113.529987 284.715891 
L 113.702584 284.728486 
L 113.875181 284.741345 
L 114.047777 284.754469 
L 114.220374 284.767856 
L 114.392971 284.781507 
L 114.565568 284.795422 
L 114.738164 284.809601 
L 114.910761 284.824043 
L 115.083358 284.83875 
L 115.255955 284.85372 
L 115.428552 284.868955 
L 115.601148 284.884453 
L 115.773745 284.900215 
L 115.946342 284.916241 
L 116.118939 284.932531 
L 116.291535 284.949085 
L 116.464132 284.965903 
L 116.636729 284.982985 
L 116.809326 285.00033 
L 116.981923 285.01794 
L 117.154519 285.035813 
L 117.327116 285.05395 
L 117.499713 285.072351 
L 117.67231 285.091016 
L 117.844906 285.109945 
L 118.017503 285.129138 
L 118.1901 285.148595 
L 118.362697 285.168315 
L 118.535294 285.1883 
L 118.70789 285.208548 
L 118.880487 285.229061 
L 119.053084 285.249837 
L 119.225681 285.270877 
L 119.398278 285.292181 
L 119.570874 285.313749 
L 119.743471 285.335581 
L 119.916068 285.357676 
L 120.088665 285.380036 
L 120.261261 285.402659 
L 120.433858 285.425547 
L 120.606455 285.448698 
L 120.779052 285.472113 
L 120.951649 285.495792 
L 121.124245 285.519735 
L 121.296842 285.543942 
L 121.469439 285.568413 
L 121.642036 285.593147 
L 121.814632 285.618146 
L 121.987229 285.643408 
L 122.159826 285.668934 
L 122.332423 285.694725 
L 122.50502 285.720779 
L 122.677616 285.747097 
L 122.850213 285.773679 
L 123.02281 285.800524 
L 123.195407 285.827634 
L 123.368003 285.855008 
L 123.5406 285.882645 
L 123.713197 285.910547 
L 123.885794 285.938712 
L 124.058391 285.967141 
L 124.230987 285.995834 
L 124.403584 286.024791 
L 124.576181 286.054012 
L 124.748778 286.083497 
L 124.921374 286.113245 
L 125.093971 286.143258 
" style="fill:none;stroke:#0000ff;stroke-linecap:square;stroke-width:1.5;"/>
   </g>
   <g id="line2d_20">
    <path clip-path="url(#pd111714b7e)" d="M 125.093971 286.282579 
L 125.266568 286.312813 
L 125.439165 286.343225 
L 125.611762 286.373816 
L 125.784358 286.404586 
L 125.956955 286.435534 
L 126.129552 286.466661 
L 126.302149 286.497966 
L 126.474746 286.52945 
L 126.647342 286.561113 
L 126.819939 286.592954 
L 126.992536 286.624974 
L 127.165133 286.657173 
L 127.337729 286.68955 
L 127.510326 286.722105 
L 127.682923 286.75484 
L 127.85552 286.787752 
L 128.028117 286.820844 
L 128.200713 286.854114 
L 128.37331 286.887563 
L 128.545907 286.92119 
L 128.718504 286.954996 
L 128.8911 286.98898 
L 129.063697 287.023143 
L 129.236294 287.057485 
L 129.408891 287.092005 
L 129.581488 287.126704 
L 129.754084 287.161582 
L 129.926681 287.196638 
L 130.099278 287.231873 
L 130.271875 287.267286 
L 130.444472 287.302878 
L 130.617068 287.338649 
L 130.789665 287.374598 
L 130.962262 287.410725 
L 131.134859 287.447032 
L 131.307455 287.483517 
L 131.480052 287.52018 
L 131.652649 287.557023 
L 131.825246 287.594043 
L 131.997843 287.631243 
L 132.170439 287.668621 
L 132.343036 287.706177 
L 132.515633 287.743912 
L 132.68823 287.781826 
L 132.860826 287.819919 
L 133.033423 287.85819 
L 133.20602 287.896639 
L 133.378617 287.935268 
L 133.551214 287.974074 
L 133.72381 288.01306 
L 133.896407 288.052224 
L 134.069004 288.091567 
L 134.241601 288.131088 
L 134.414197 288.170788 
L 134.586794 288.210666 
L 134.759391 288.250723 
L 134.931988 288.290959 
L 135.104585 288.331373 
L 135.277181 288.371966 
L 135.449778 288.412738 
L 135.622375 288.453688 
L 135.794972 288.494816 
L 135.967569 288.536124 
L 136.140165 288.57761 
L 136.312762 288.619274 
L 136.485359 288.661117 
L 136.657956 288.703139 
L 136.830552 288.745339 
L 137.003149 288.787718 
L 137.175746 288.830276 
L 137.348343 288.873012 
L 137.52094 288.915927 
L 137.693536 288.95902 
L 137.866133 289.002292 
L 138.03873 289.045742 
L 138.211327 289.089372 
L 138.383923 289.133179 
L 138.55652 289.177166 
L 138.729117 289.221331 
L 138.901714 289.265674 
L 139.074311 289.310197 
L 139.246907 289.354897 
L 139.419504 289.399777 
L 139.592101 289.444835 
L 139.764698 289.490071 
L 139.937294 289.535487 
L 140.109891 289.581081 
L 140.282488 289.626853 
L 140.455085 289.672804 
L 140.627682 289.718934 
L 140.800278 289.765242 
L 140.972875 289.811729 
L 141.145472 289.858394 
L 141.318069 289.905238 
L 141.490665 289.952261 
L 141.663262 289.999462 
L 141.835859 290.046842 
L 142.008456 290.094401 
L 142.181053 290.142138 
" style="fill:none;stroke:#0000ff;stroke-linecap:square;stroke-width:1.5;"/>
   </g>
   <g id="line2d_21">
    <path clip-path="url(#pd111714b7e)" d="M 142.181053 290.928732 
L 142.353649 290.976406 
L 142.526246 291.023778 
L 142.698843 291.070848 
L 142.87144 291.117614 
L 143.044037 291.164077 
L 143.216633 291.210237 
L 143.38923 291.256094 
L 143.561827 291.301649 
L 143.734424 291.3469 
L 143.90702 291.391849 
L 144.079617 291.436494 
L 144.252214 291.480837 
L 144.424811 291.524877 
L 144.597408 291.568614 
L 144.770004 291.612047 
L 144.942601 291.655178 
L 145.115198 291.698006 
L 145.287795 291.740531 
L 145.460391 291.782753 
L 145.632988 291.824673 
L 145.805585 291.866289 
L 145.978182 291.907602 
L 146.150779 291.948613 
L 146.323375 291.98932 
L 146.495972 292.029725 
L 146.668569 292.069826 
L 146.841166 292.109625 
L 147.013763 292.149121 
L 147.186359 292.188313 
L 147.358956 292.227203 
L 147.531553 292.26579 
L 147.70415 292.304074 
L 147.876746 292.342055 
L 148.049343 292.379733 
L 148.22194 292.417108 
L 148.394537 292.454181 
L 148.567134 292.49095 
L 148.73973 292.527416 
L 148.912327 292.56358 
L 149.084924 292.59944 
L 149.257521 292.634998 
L 149.430117 292.670253 
L 149.602714 292.705204 
L 149.775311 292.739853 
L 149.947908 292.774199 
L 150.120505 292.808242 
L 150.293101 292.841982 
L 150.465698 292.875419 
L 150.638295 292.908553 
L 150.810892 292.941384 
L 150.983488 292.973912 
L 151.156085 293.006138 
L 151.328682 293.03806 
L 151.501279 293.069679 
L 151.673876 293.100996 
L 151.846472 293.13201 
L 152.019069 293.16272 
L 152.191666 293.193128 
L 152.364263 293.223233 
L 152.53686 293.253034 
L 152.709456 293.282533 
L 152.882053 293.311729 
L 153.05465 293.340622 
L 153.227247 293.369213 
L 153.399843 293.3975 
L 153.57244 293.425484 
L 153.745037 293.453165 
L 153.917634 293.480544 
L 154.090231 293.507619 
L 154.262827 293.534392 
L 154.435424 293.560861 
L 154.608021 293.587028 
L 154.780618 293.612891 
L 154.953214 293.638452 
L 155.125811 293.66371 
L 155.298408 293.688665 
L 155.471005 293.713317 
L 155.643602 293.737666 
L 155.816198 293.761712 
L 155.988795 293.785455 
L 156.161392 293.808895 
L 156.333989 293.832033 
L 156.506585 293.854867 
L 156.679182 293.877398 
L 156.851779 293.899627 
L 157.024376 293.921553 
L 157.196973 293.943175 
L 157.369569 293.964495 
L 157.542166 293.985512 
L 157.714763 294.006225 
L 157.88736 294.026636 
L 158.059956 294.046744 
L 158.232553 294.066549 
L 158.40515 294.086051 
L 158.577747 294.105251 
L 158.750344 294.124147 
L 158.92294 294.14274 
L 159.095537 294.16103 
L 159.268134 294.179018 
" style="fill:none;stroke:#0000ff;stroke-linecap:square;stroke-width:1.5;"/>
   </g>
   <g id="line2d_22">
    <path clip-path="url(#pd111714b7e)" d="M 159.268134 295.330194 
L 159.440731 295.347526 
L 159.613328 295.363851 
L 159.785924 295.379168 
L 159.958521 295.393477 
L 160.131118 295.406778 
L 160.303715 295.419072 
L 160.476311 295.430358 
L 160.648908 295.440637 
L 160.821505 295.449908 
L 160.994102 295.458171 
L 161.166699 295.465426 
L 161.339295 295.471674 
L 161.511892 295.476914 
L 161.684489 295.481147 
L 161.857086 295.484371 
L 162.029682 295.486589 
L 162.202279 295.487798 
L 162.374876 295.488 
L 162.547473 295.487194 
L 162.72007 295.485381 
L 162.892666 295.48256 
L 163.065263 295.478731 
L 163.23786 295.473894 
L 163.410457 295.46805 
L 163.583054 295.461198 
L 163.75565 295.453339 
L 163.928247 295.444472 
L 164.100844 295.434597 
L 164.273441 295.423714 
L 164.446037 295.411824 
L 164.618634 295.398927 
L 164.791231 295.385021 
L 164.963828 295.370108 
L 165.136425 295.354187 
L 165.309021 295.337259 
L 165.481618 295.319323 
L 165.654215 295.300379 
L 165.826812 295.280427 
L 165.999408 295.259468 
L 166.172005 295.237502 
L 166.344602 295.214527 
L 166.517199 295.190545 
L 166.689796 295.165555 
L 166.862392 295.139558 
L 167.034989 295.112553 
L 167.207586 295.08454 
L 167.380183 295.05552 
L 167.552779 295.025492 
L 167.725376 294.994456 
L 167.897973 294.962412 
L 168.07057 294.929361 
L 168.243167 294.895303 
L 168.415763 294.860236 
L 168.58836 294.824162 
L 168.760957 294.78708 
L 168.933554 294.748991 
L 169.10615 294.709894 
L 169.278747 294.669789 
L 169.451344 294.628677 
L 169.623941 294.586557 
L 169.796538 294.543429 
L 169.969134 294.499294 
L 170.141731 294.454151 
L 170.314328 294.408 
L 170.486925 294.360842 
L 170.659522 294.312676 
L 170.832118 294.263502 
L 171.004715 294.213321 
L 171.177312 294.162132 
L 171.349909 294.109935 
L 171.522505 294.056731 
L 171.695102 294.002519 
L 171.867699 293.947299 
L 172.040296 293.891072 
L 172.212893 293.833837 
L 172.385489 293.775594 
L 172.558086 293.716344 
L 172.730683 293.656086 
L 172.90328 293.59482 
L 173.075876 293.532547 
L 173.248473 293.469266 
L 173.42107 293.404977 
L 173.593667 293.339681 
L 173.766264 293.273377 
L 173.93886 293.206065 
L 174.111457 293.137746 
L 174.284054 293.068419 
L 174.456651 292.998084 
L 174.629247 292.926742 
L 174.801844 292.854392 
L 174.974441 292.781034 
L 175.147038 292.706669 
L 175.319635 292.631296 
L 175.492231 292.554916 
L 175.664828 292.477527 
L 175.837425 292.399131 
L 176.010022 292.319728 
L 176.182619 292.239317 
L 176.355215 292.157898 
" style="fill:none;stroke:#0000ff;stroke-linecap:square;stroke-width:1.5;"/>
   </g>
   <g id="line2d_23">
    <path clip-path="url(#pd111714b7e)" d="M 176.355215 293.035919 
L 176.527812 292.953224 
L 176.700409 292.868983 
L 176.873006 292.783198 
L 177.045602 292.695867 
L 177.218199 292.606991 
L 177.390796 292.516569 
L 177.563393 292.424603 
L 177.73599 292.331091 
L 177.908586 292.236035 
L 178.081183 292.139433 
L 178.25378 292.041286 
L 178.426377 291.941594 
L 178.598973 291.840356 
L 178.77157 291.737574 
L 178.944167 291.633246 
L 179.116764 291.527373 
L 179.289361 291.419955 
L 179.461957 291.310991 
L 179.634554 291.200483 
L 179.807151 291.088429 
L 179.979748 290.974831 
L 180.152345 290.859687 
L 180.324941 290.742997 
L 180.497538 290.624763 
L 180.670135 290.504984 
L 180.842732 290.383659 
L 181.015328 290.260789 
L 181.187925 290.136374 
L 181.360522 290.010414 
L 181.533119 289.882908 
L 181.705716 289.753858 
L 181.878312 289.623262 
L 182.050909 289.491121 
L 182.223506 289.357435 
L 182.396103 289.222204 
L 182.568699 289.085428 
L 182.741296 288.947106 
L 182.913893 288.807239 
L 183.08649 288.665827 
L 183.259087 288.52287 
L 183.431683 288.378368 
L 183.60428 288.232321 
L 183.776877 288.084728 
L 183.949474 287.93559 
L 184.12207 287.784907 
L 184.294667 287.632679 
L 184.467264 287.478906 
L 184.639861 287.323587 
L 184.812458 287.166724 
L 184.985054 287.008315 
L 185.157651 286.848361 
L 185.330248 286.686862 
L 185.502845 286.523817 
L 185.675441 286.359228 
L 185.848038 286.193093 
L 186.020635 286.025413 
L 186.193232 285.856188 
L 186.365829 285.685418 
L 186.538425 285.513103 
L 186.711022 285.339242 
L 186.883619 285.163836 
L 187.056216 284.986885 
L 187.228813 284.808389 
L 187.401409 284.628348 
L 187.574006 284.446762 
L 187.746603 284.26363 
L 187.9192 284.078953 
L 188.091796 283.892731 
L 188.264393 283.704964 
L 188.43699 283.515652 
L 188.609587 283.324795 
L 188.782184 283.132392 
L 188.95478 282.938444 
L 189.127377 282.742951 
L 189.299974 282.545913 
L 189.472571 282.34733 
L 189.645167 282.147201 
L 189.817764 281.945527 
L 189.990361 281.742309 
L 190.162958 281.537545 
L 190.335555 281.331235 
L 190.508151 281.123381 
L 190.680748 280.913982 
L 190.853345 280.703037 
L 191.025942 280.490547 
L 191.198538 280.276512 
L 191.371135 280.060932 
L 191.543732 279.843806 
L 191.716329 279.625136 
L 191.888926 279.40492 
L 192.061522 279.183159 
L 192.234119 278.959853 
L 192.406716 278.735002 
L 192.579313 278.508605 
L 192.75191 278.280664 
L 192.924506 278.051177 
L 193.097103 277.820145 
L 193.2697 277.587568 
L 193.442297 277.353445 
" style="fill:none;stroke:#0000ff;stroke-linecap:square;stroke-width:1.5;"/>
   </g>
   <g id="line2d_24">
    <path clip-path="url(#pd111714b7e)" d="M 193.442297 277.385451 
L 193.614893 277.149774 
L 193.78749 276.912532 
L 193.960087 276.673725 
L 194.132684 276.433354 
L 194.305281 276.191417 
L 194.477877 275.947916 
L 194.650474 275.70285 
L 194.823071 275.45622 
L 194.995668 275.208024 
L 195.168264 274.958264 
L 195.340861 274.706939 
L 195.513458 274.454049 
L 195.686055 274.199595 
L 195.858652 273.943576 
L 196.031248 273.685992 
L 196.203845 273.426843 
L 196.376442 273.166129 
L 196.549039 272.903851 
L 196.721636 272.640008 
L 196.894232 272.3746 
L 197.066829 272.107627 
L 197.239426 271.83909 
L 197.412023 271.568988 
L 197.584619 271.297321 
L 197.757216 271.024089 
L 197.929813 270.749293 
L 198.10241 270.472932 
L 198.275007 270.195006 
L 198.447603 269.915515 
L 198.6202 269.63446 
L 198.792797 269.351839 
L 198.965394 269.067654 
L 199.13799 268.781904 
L 199.310587 268.49459 
L 199.483184 268.20571 
L 199.655781 267.915266 
L 199.828378 267.623258 
L 200.000974 267.329684 
L 200.173571 267.034545 
L 200.346168 266.737842 
L 200.518765 266.439574 
L 200.691361 266.139742 
L 200.863958 265.838344 
L 201.036555 265.535382 
L 201.209152 265.230855 
L 201.381749 264.924763 
L 201.554345 264.617107 
L 201.726942 264.307885 
L 201.899539 263.997099 
L 202.072136 263.684748 
L 202.244732 263.370833 
L 202.417329 263.055352 
L 202.589926 262.738307 
L 202.762523 262.419697 
L 202.93512 262.099523 
L 203.107716 261.777783 
L 203.280313 261.454479 
L 203.45291 261.12961 
L 203.625507 260.803176 
L 203.798104 260.475178 
L 203.9707 260.145615 
L 204.143297 259.814487 
L 204.315894 259.481794 
L 204.488491 259.147536 
L 204.661087 258.811714 
L 204.833684 258.474327 
L 205.006281 258.135375 
L 205.178878 257.794858 
L 205.351475 257.452777 
L 205.524071 257.109131 
L 205.696668 256.76392 
L 205.869265 256.417144 
L 206.041862 256.068804 
L 206.214458 255.718898 
L 206.387055 255.367428 
L 206.559652 255.014394 
L 206.732249 254.659794 
L 206.904846 254.30363 
L 207.077442 253.945901 
L 207.250039 253.586607 
L 207.422636 253.225748 
L 207.595233 252.863325 
L 207.767829 252.499337 
L 207.940426 252.133784 
L 208.113023 251.766666 
L 208.28562 251.397984 
L 208.458217 251.027737 
L 208.630813 250.655925 
L 208.80341 250.282548 
L 208.976007 249.907606 
L 209.148604 249.5311 
L 209.321201 249.153029 
L 209.493797 248.773393 
L 209.666394 248.392193 
L 209.838991 248.009427 
L 210.011588 247.625097 
L 210.184184 247.239203 
L 210.356781 246.851743 
L 210.529378 246.462718 
" style="fill:none;stroke:#0000ff;stroke-linecap:square;stroke-width:1.5;"/>
   </g>
   <g id="line2d_25">
    <path clip-path="url(#pd111714b7e)" d="M 210.529378 245.504069 
L 210.701975 245.113773 
L 210.874572 244.7225 
L 211.047168 244.330248 
L 211.219765 243.937019 
L 211.392362 243.542811 
L 211.564959 243.147626 
L 211.737555 242.751463 
L 211.910152 242.354322 
L 212.082749 241.956203 
L 212.255346 241.557106 
L 212.427943 241.157032 
L 212.600539 240.755979 
L 212.773136 240.353948 
L 212.945733 239.95094 
L 213.11833 239.546954 
L 213.290927 239.141989 
L 213.463523 238.736047 
L 213.63612 238.329127 
L 213.808717 237.92123 
L 213.981314 237.512354 
L 214.15391 237.1025 
L 214.326507 236.691668 
L 214.499104 236.279859 
L 214.671701 235.867072 
L 214.844298 235.453306 
L 215.016894 235.038563 
L 215.189491 234.622842 
L 215.362088 234.206143 
L 215.534685 233.788466 
L 215.707281 233.369811 
L 215.879878 232.950179 
L 216.052475 232.529568 
L 216.225072 232.10798 
L 216.397669 231.685413 
L 216.570265 231.261869 
L 216.742862 230.837347 
L 216.915459 230.411847 
L 217.088056 229.985369 
L 217.260652 229.557913 
L 217.433249 229.129479 
L 217.605846 228.700068 
L 217.778443 228.269678 
L 217.95104 227.838311 
L 218.123636 227.405965 
L 218.296233 226.972642 
L 218.46883 226.538341 
L 218.641427 226.103062 
L 218.814023 225.666805 
L 218.98662 225.22957 
L 219.159217 224.791357 
L 219.331814 224.352167 
L 219.504411 223.911998 
L 219.677007 223.470852 
L 219.849604 223.028727 
L 220.022201 222.585625 
L 220.194798 222.141545 
L 220.367395 221.696487 
L 220.539991 221.250451 
L 220.712588 220.803437 
L 220.885185 220.355446 
L 221.057782 219.906476 
L 221.230378 219.456528 
L 221.402975 219.005603 
L 221.575572 218.5537 
L 221.748169 218.100819 
L 221.920766 217.646959 
L 222.093362 217.192122 
L 222.265959 216.736307 
L 222.438556 216.279515 
L 222.611153 215.821744 
L 222.783749 215.362995 
L 222.956346 214.903269 
L 223.128943 214.442565 
L 223.30154 213.980882 
L 223.474137 213.518222 
L 223.646733 213.054584 
L 223.81933 212.589968 
L 223.991927 212.124374 
L 224.164524 211.657802 
L 224.33712 211.190253 
L 224.509717 210.721725 
L 224.682314 210.25222 
L 224.854911 209.781736 
L 225.027508 209.310275 
L 225.200104 208.837836 
L 225.372701 208.364419 
L 225.545298 207.890024 
L 225.717895 207.414651 
L 225.890492 206.9383 
L 226.063088 206.460971 
L 226.235685 205.982665 
L 226.408282 205.50338 
L 226.580879 205.023118 
L 226.753475 204.541878 
L 226.926072 204.05966 
L 227.098669 203.576464 
L 227.271266 203.09229 
L 227.443863 202.607138 
L 227.616459 202.121008 
" style="fill:none;stroke:#0000ff;stroke-linecap:square;stroke-width:1.5;"/>
   </g>
   <g id="line2d_26">
    <path clip-path="url(#pd111714b7e)" d="M 227.616459 200.537278 
L 227.789056 200.050655 
L 227.961653 199.564024 
L 228.13425 199.077384 
L 228.306846 198.590736 
L 228.479443 198.10408 
L 228.65204 197.617415 
L 228.824637 197.130742 
L 228.997234 196.644061 
L 229.16983 196.157371 
L 229.342427 195.670673 
L 229.515024 195.183966 
L 229.687621 194.697251 
L 229.860217 194.210528 
L 230.032814 193.723796 
L 230.205411 193.237056 
L 230.378008 192.750308 
L 230.550605 192.263551 
L 230.723201 191.776786 
L 230.895798 191.290013 
L 231.068395 190.803231 
L 231.240992 190.316441 
L 231.413589 189.829642 
L 231.586185 189.342835 
L 231.758782 188.85602 
L 231.931379 188.369196 
L 232.103976 187.882364 
L 232.276572 187.395524 
L 232.449169 186.908675 
L 232.621766 186.421818 
L 232.794363 185.934952 
L 232.96696 185.448078 
L 233.139556 184.961196 
L 233.312153 184.474306 
L 233.48475 183.987407 
L 233.657347 183.500499 
L 233.829943 183.013584 
L 234.00254 182.52666 
L 234.175137 182.039727 
L 234.347734 181.552786 
L 234.520331 181.065837 
L 234.692927 180.57888 
L 234.865524 180.091914 
L 235.038121 179.604939 
L 235.210718 179.117957 
L 235.383314 178.630966 
L 235.555911 178.143966 
L 235.728508 177.656959 
L 235.901105 177.169943 
L 236.073702 176.682918 
L 236.246298 176.195885 
L 236.418895 175.708844 
L 236.591492 175.221794 
L 236.764089 174.734737 
L 236.936686 174.24767 
L 237.109282 173.760596 
L 237.281879 173.273512 
L 237.454476 172.786421 
L 237.627073 172.299321 
L 237.799669 171.812213 
L 237.972266 171.325097 
L 238.144863 170.837972 
L 238.31746 170.350839 
L 238.490057 169.863697 
L 238.662653 169.376547 
L 238.83525 168.889389 
L 239.007847 168.402222 
L 239.180444 167.915047 
L 239.35304 167.427863 
L 239.525637 166.940672 
L 239.698234 166.453471 
L 239.870831 165.966263 
L 240.043428 165.479046 
L 240.216024 164.991821 
L 240.388621 164.504587 
L 240.561218 164.017345 
L 240.733815 163.530095 
L 240.906411 163.042836 
L 241.079008 162.555569 
L 241.251605 162.068293 
L 241.424202 161.58101 
L 241.596799 161.093717 
L 241.769395 160.606417 
L 241.941992 160.119108 
L 242.114589 159.631791 
L 242.287186 159.144465 
L 242.459783 158.657131 
L 242.632379 158.169789 
L 242.804976 157.682438 
L 242.977573 157.195079 
L 243.15017 156.707711 
L 243.322766 156.220335 
L 243.495363 155.732951 
L 243.66796 155.245558 
L 243.840557 154.758158 
L 244.013154 154.270748 
L 244.18575 153.78333 
L 244.358347 153.295904 
L 244.530944 152.80847 
L 244.703541 152.321027 
" style="fill:none;stroke:#0000ff;stroke-linecap:square;stroke-width:1.5;"/>
   </g>
   <g id="line2d_27">
    <path clip-path="url(#pd111714b7e)" d="M 244.703541 150.773601 
L 244.876137 150.286624 
L 245.048734 149.800585 
L 245.221331 149.315485 
L 245.393928 148.831325 
L 245.566525 148.348103 
L 245.739121 147.86582 
L 245.911718 147.384476 
L 246.084315 146.904071 
L 246.256912 146.424605 
L 246.429508 145.946078 
L 246.602105 145.46849 
L 246.774702 144.991841 
L 246.947299 144.516131 
L 247.119896 144.04136 
L 247.292492 143.567527 
L 247.465089 143.094634 
L 247.637686 142.622679 
L 247.810283 142.151664 
L 247.98288 141.681587 
L 248.155476 141.21245 
L 248.328073 140.744251 
L 248.50067 140.276991 
L 248.673267 139.81067 
L 248.845863 139.345288 
L 249.01846 138.880845 
L 249.191057 138.417341 
L 249.363654 137.954776 
L 249.536251 137.49315 
L 249.708847 137.032463 
L 249.881444 136.572715 
L 250.054041 136.113906 
L 250.226638 135.656035 
L 250.399234 135.199104 
L 250.571831 134.743111 
L 250.744428 134.288058 
L 250.917025 133.833943 
L 251.089622 133.380768 
L 251.262218 132.928531 
L 251.434815 132.477233 
L 251.607412 132.026874 
L 251.780009 131.577454 
L 251.952605 131.128973 
L 252.125202 130.681431 
L 252.297799 130.234828 
L 252.470396 129.789164 
L 252.642993 129.344439 
L 252.815589 128.900653 
L 252.988186 128.457805 
L 253.160783 128.015897 
L 253.33338 127.574928 
L 253.505977 127.134897 
L 253.678573 126.695806 
L 253.85117 126.257653 
L 254.023767 125.820439 
L 254.196364 125.384165 
L 254.36896 124.948829 
L 254.541557 124.514432 
L 254.714154 124.080974 
L 254.886751 123.648455 
L 255.059348 123.216875 
L 255.231944 122.786234 
L 255.404541 122.356532 
L 255.577138 121.927769 
L 255.749735 121.499944 
L 255.922331 121.073059 
L 256.094928 120.647113 
L 256.267525 120.222105 
L 256.440122 119.798037 
L 256.612719 119.374907 
L 256.785315 118.952717 
L 256.957912 118.531465 
L 257.130509 118.111152 
L 257.303106 117.691778 
L 257.475702 117.273344 
L 257.648299 116.855848 
L 257.820896 116.439291 
L 257.993493 116.023673 
L 258.16609 115.608994 
L 258.338686 115.195253 
L 258.511283 114.782452 
L 258.68388 114.37059 
L 258.856477 113.959667 
L 259.029073 113.549682 
L 259.20167 113.140637 
L 259.374267 112.73253 
L 259.546864 112.325363 
L 259.719461 111.919134 
L 259.892057 111.513844 
L 260.064654 111.109494 
L 260.237251 110.706082 
L 260.409848 110.303609 
L 260.582445 109.902075 
L 260.755041 109.50148 
L 260.927638 109.101824 
L 261.100235 108.703107 
L 261.272832 108.305329 
L 261.445428 107.908489 
L 261.618025 107.512589 
L 261.790622 107.117628 
" style="fill:none;stroke:#0000ff;stroke-linecap:square;stroke-width:1.5;"/>
   </g>
   <g id="line2d_28">
    <path clip-path="url(#pd111714b7e)" d="M 261.790622 106.210121 
L 261.963219 105.816376 
L 262.135816 105.424126 
L 262.308412 105.03337 
L 262.481009 104.644109 
L 262.653606 104.256342 
L 262.826203 103.87007 
L 262.998799 103.485293 
L 263.171396 103.10201 
L 263.343993 102.720221 
L 263.51659 102.339927 
L 263.689187 101.961127 
L 263.861783 101.583822 
L 264.03438 101.208011 
L 264.206977 100.833695 
L 264.379574 100.460874 
L 264.552171 100.089547 
L 264.724767 99.719714 
L 264.897364 99.351376 
L 265.069961 98.984532 
L 265.242558 98.619183 
L 265.415154 98.255329 
L 265.587751 97.892968 
L 265.760348 97.532103 
L 265.932945 97.172732 
L 266.105542 96.814855 
L 266.278138 96.458473 
L 266.450735 96.103585 
L 266.623332 95.750192 
L 266.795929 95.398294 
L 266.968525 95.04789 
L 267.141122 94.69898 
L 267.313719 94.351565 
L 267.486316 94.005644 
L 267.658913 93.661218 
L 267.831509 93.318287 
L 268.004106 92.976849 
L 268.176703 92.636907 
L 268.3493 92.298459 
L 268.521896 91.961505 
L 268.694493 91.626046 
L 268.86709 91.292081 
L 269.039687 90.959611 
L 269.212284 90.628636 
L 269.38488 90.299155 
L 269.557477 89.971168 
L 269.730074 89.644676 
L 269.902671 89.319678 
L 270.075268 88.996175 
L 270.247864 88.674167 
L 270.420461 88.353652 
L 270.593058 88.034633 
L 270.765655 87.717108 
L 270.938251 87.401077 
L 271.110848 87.086541 
L 271.283445 86.773499 
L 271.456042 86.461952 
L 271.628639 86.1519 
L 271.801235 85.843342 
L 271.973832 85.536278 
L 272.146429 85.230709 
L 272.319026 84.926634 
L 272.491622 84.624054 
L 272.664219 84.322969 
L 272.836816 84.023378 
L 273.009413 83.725281 
L 273.18201 83.428679 
L 273.354606 83.133571 
L 273.527203 82.839958 
L 273.6998 82.54784 
L 273.872397 82.257216 
L 274.044993 81.968086 
L 274.21759 81.680451 
L 274.390187 81.39431 
L 274.562784 81.109664 
L 274.735381 80.826513 
L 274.907977 80.544856 
L 275.080574 80.264693 
L 275.253171 79.986025 
L 275.425768 79.708851 
L 275.598364 79.433172 
L 275.770961 79.158988 
L 275.943558 78.886298 
L 276.116155 78.615102 
L 276.288752 78.345401 
L 276.461348 78.077194 
L 276.633945 77.810482 
L 276.806542 77.545265 
L 276.979139 77.281542 
L 277.151736 77.019313 
L 277.324332 76.758579 
L 277.496929 76.499339 
L 277.669526 76.241594 
L 277.842123 75.985344 
L 278.014719 75.730588 
L 278.187316 75.477326 
L 278.359913 75.225559 
L 278.53251 74.975286 
L 278.705107 74.726508 
L 278.877703 74.479225 
" style="fill:none;stroke:#0000ff;stroke-linecap:square;stroke-width:1.5;"/>
   </g>
   <g id="line2d_29">
    <path clip-path="url(#pd111714b7e)" d="M 278.877703 74.471696 
L 279.0503 74.225909 
L 279.222897 73.981621 
L 279.395494 73.738833 
L 279.56809 73.497543 
L 279.740687 73.257753 
L 279.913284 73.019462 
L 280.085881 72.782669 
L 280.258478 72.547376 
L 280.431074 72.313583 
L 280.603671 72.081288 
L 280.776268 71.850492 
L 280.948865 71.621196 
L 281.121462 71.393398 
L 281.294058 71.1671 
L 281.466655 70.942301 
L 281.639252 70.719 
L 281.811849 70.497199 
L 281.984445 70.276897 
L 282.157042 70.058095 
L 282.329639 69.840791 
L 282.502236 69.624986 
L 282.674833 69.410681 
L 282.847429 69.197875 
L 283.020026 68.986567 
L 283.192623 68.776759 
L 283.36522 68.56845 
L 283.537816 68.36164 
L 283.710413 68.156329 
L 283.88301 67.952518 
L 284.055607 67.750205 
L 284.228204 67.549392 
L 284.4008 67.350077 
L 284.573397 67.152262 
L 284.745994 66.955946 
L 284.918591 66.761129 
L 285.091187 66.567811 
L 285.263784 66.375992 
L 285.436381 66.185672 
L 285.608978 65.996852 
L 285.781575 65.80953 
L 285.954171 65.623708 
L 286.126768 65.439385 
L 286.299365 65.25656 
L 286.471962 65.075235 
L 286.644559 64.895409 
L 286.817155 64.717083 
L 286.989752 64.540255 
L 287.162349 64.364926 
L 287.334946 64.191097 
L 287.507542 64.018766 
L 287.680139 63.847935 
L 287.852736 63.678603 
L 288.025333 63.51077 
L 288.19793 63.344436 
L 288.370526 63.179601 
L 288.543123 63.016265 
L 288.71572 62.854429 
L 288.888317 62.694091 
L 289.060913 62.535253 
L 289.23351 62.377913 
L 289.406107 62.222073 
L 289.578704 62.067732 
L 289.751301 61.91489 
L 289.923897 61.763547 
L 290.096494 61.613704 
L 290.269091 61.465359 
L 290.441688 61.318513 
L 290.614284 61.173167 
L 290.786881 61.02932 
L 290.959478 60.886972 
L 291.132075 60.746122 
L 291.304672 60.606772 
L 291.477268 60.468922 
L 291.649865 60.33257 
L 291.822462 60.197717 
L 291.995059 60.064364 
L 292.167655 59.932509 
L 292.340252 59.802154 
L 292.512849 59.673298 
L 292.685446 59.545941 
L 292.858043 59.420083 
L 293.030639 59.295724 
L 293.203236 59.172864 
L 293.375833 59.051503 
L 293.54843 58.931642 
L 293.721027 58.813279 
L 293.893623 58.696416 
L 294.06622 58.581052 
L 294.238817 58.467186 
L 294.411414 58.35482 
L 294.58401 58.243954 
L 294.756607 58.134586 
L 294.929204 58.026717 
L 295.101801 57.920348 
L 295.274398 57.815477 
L 295.446994 57.712106 
L 295.619591 57.610233 
L 295.792188 57.50986 
L 295.964785 57.410986 
" style="fill:none;stroke:#0000ff;stroke-linecap:square;stroke-width:1.5;"/>
   </g>
   <g id="line2d_30">
    <path clip-path="url(#pd111714b7e)" d="M 295.964785 58.139603 
L 296.137381 58.042005 
L 296.309978 57.94546 
L 296.482575 57.849968 
L 296.655172 57.75553 
L 296.827769 57.662144 
L 297.000365 57.569811 
L 297.172962 57.478532 
L 297.345559 57.388305 
L 297.518156 57.299132 
L 297.690753 57.211011 
L 297.863349 57.123944 
L 298.035946 57.03793 
L 298.208543 56.952969 
L 298.38114 56.869061 
L 298.553736 56.786206 
L 298.726333 56.704404 
L 298.89893 56.623655 
L 299.071527 56.543959 
L 299.244124 56.465316 
L 299.41672 56.387726 
L 299.589317 56.31119 
L 299.761914 56.235706 
L 299.934511 56.161275 
L 300.107107 56.087898 
L 300.279704 56.015574 
L 300.452301 55.944302 
L 300.624898 55.874084 
L 300.797495 55.804919 
L 300.970091 55.736807 
L 301.142688 55.669747 
L 301.315285 55.603741 
L 301.487882 55.538788 
L 301.660478 55.474889 
L 301.833075 55.412042 
L 302.005672 55.350248 
L 302.178269 55.289507 
L 302.350866 55.22982 
L 302.523462 55.171185 
L 302.696059 55.113603 
L 302.868656 55.057075 
L 303.041253 55.0016 
L 303.21385 54.947177 
L 303.386446 54.893808 
L 303.559043 54.841492 
L 303.73164 54.790229 
L 303.904237 54.740018 
L 304.076833 54.690861 
L 304.24943 54.642757 
L 304.422027 54.595707 
L 304.594624 54.549709 
L 304.767221 54.504764 
L 304.939817 54.460872 
L 305.112414 54.418034 
L 305.285011 54.376248 
L 305.457608 54.335516 
L 305.630204 54.295836 
L 305.802801 54.25721 
L 305.975398 54.219636 
L 306.147995 54.183116 
L 306.320592 54.147649 
L 306.493188 54.113235 
L 306.665785 54.079874 
L 306.838382 54.047566 
L 307.010979 54.016311 
L 307.183575 53.986109 
L 307.356172 53.95696 
L 307.528769 53.928864 
L 307.701366 53.901822 
L 307.873963 53.875832 
L 308.046559 53.850895 
L 308.219156 53.827012 
L 308.391753 53.804182 
L 308.56435 53.782404 
L 308.736946 53.76168 
L 308.909543 53.742009 
L 309.08214 53.72339 
L 309.254737 53.705825 
L 309.427334 53.689313 
L 309.59993 53.673854 
L 309.772527 53.659448 
L 309.945124 53.646095 
L 310.117721 53.633796 
L 310.290318 53.622549 
L 310.462914 53.612355 
L 310.635511 53.603215 
L 310.808108 53.595127 
L 310.980705 53.588093 
L 311.153301 53.582111 
L 311.325898 53.577183 
L 311.498495 53.573308 
L 311.671092 53.570485 
L 311.843689 53.568716 
L 312.016285 53.568 
L 312.188882 53.568337 
L 312.361479 53.569727 
L 312.534076 53.57217 
L 312.706672 53.575666 
L 312.879269 53.580215 
L 313.051866 53.585818 
" style="fill:none;stroke:#0000ff;stroke-linecap:square;stroke-width:1.5;"/>
   </g>
   <g id="line2d_31">
    <path clip-path="url(#pd111714b7e)" d="M 313.051866 54.5994 
L 313.224463 54.605745 
L 313.39706 54.612523 
L 313.569656 54.619733 
L 313.742253 54.627376 
L 313.91485 54.635451 
L 314.087447 54.643959 
L 314.260044 54.6529 
L 314.43264 54.662273 
L 314.605237 54.672078 
L 314.777834 54.682316 
L 314.950431 54.692987 
L 315.123027 54.70409 
L 315.295624 54.715626 
L 315.468221 54.727595 
L 315.640818 54.739996 
L 315.813415 54.752829 
L 315.986011 54.766096 
L 316.158608 54.779794 
L 316.331205 54.793926 
L 316.503802 54.808489 
L 316.676398 54.823486 
L 316.848995 54.838915 
L 317.021592 54.854776 
L 317.194189 54.87107 
L 317.366786 54.887797 
L 317.539382 54.904956 
L 317.711979 54.922548 
L 317.884576 54.940573 
L 318.057173 54.959029 
L 318.229769 54.977919 
L 318.402366 54.997241 
L 318.574963 55.016996 
L 318.74756 55.037183 
L 318.920157 55.057803 
L 319.092753 55.078855 
L 319.26535 55.10034 
L 319.437947 55.122257 
L 319.610544 55.144607 
L 319.78314 55.16739 
L 319.955737 55.190605 
L 320.128334 55.214253 
L 320.300931 55.238333 
L 320.473528 55.262846 
L 320.646124 55.287791 
L 320.818721 55.313169 
L 320.991318 55.33898 
L 321.163915 55.365223 
L 321.336512 55.391899 
L 321.509108 55.419007 
L 321.681705 55.446548 
L 321.854302 55.474521 
L 322.026899 55.502927 
L 322.199495 55.531766 
L 322.372092 55.561037 
L 322.544689 55.590741 
L 322.717286 55.620877 
L 322.889883 55.651446 
L 323.062479 55.682447 
L 323.235076 55.713881 
L 323.407673 55.745747 
L 323.58027 55.778046 
L 323.752866 55.810778 
L 323.925463 55.843942 
L 324.09806 55.877539 
L 324.270657 55.911568 
L 324.443254 55.94603 
L 324.61585 55.980925 
L 324.788447 56.016252 
L 324.961044 56.052011 
L 325.133641 56.088203 
L 325.306237 56.124828 
L 325.478834 56.161885 
L 325.651431 56.199375 
L 325.824028 56.237298 
L 325.996625 56.275653 
L 326.169221 56.31444 
L 326.341818 56.35366 
L 326.514415 56.393313 
L 326.687012 56.433398 
L 326.859609 56.473916 
L 327.032205 56.514866 
L 327.204802 56.556249 
L 327.377399 56.598065 
L 327.549996 56.640313 
L 327.722592 56.682994 
L 327.895189 56.726107 
L 328.067786 56.769653 
L 328.240383 56.813631 
L 328.41298 56.858042 
L 328.585576 56.902885 
L 328.758173 56.948161 
L 328.93077 56.99387 
L 329.103367 57.040011 
L 329.275963 57.086585 
L 329.44856 57.133591 
L 329.621157 57.18103 
L 329.793754 57.228901 
L 329.966351 57.277205 
L 330.138947 57.325942 
" style="fill:none;stroke:#0000ff;stroke-linecap:square;stroke-width:1.5;"/>
   </g>
   <g id="line2d_32">
    <path clip-path="url(#pd111714b7e)" d="M 330.138947 58.141611 
L 330.311544 58.190531 
L 330.484141 58.239384 
L 330.656738 58.288169 
L 330.829335 58.336889 
L 331.001931 58.385541 
L 331.174528 58.434127 
L 331.347125 58.482645 
L 331.519722 58.531097 
L 331.692318 58.579483 
L 331.864915 58.627801 
L 332.037512 58.676053 
L 332.210109 58.724238 
L 332.382706 58.772356 
L 332.555302 58.820408 
L 332.727899 58.868392 
L 332.900496 58.91631 
L 333.073093 58.964161 
L 333.245689 59.011945 
L 333.418286 59.059663 
L 333.590883 59.107314 
L 333.76348 59.154898 
L 333.936077 59.202415 
L 334.108673 59.249866 
L 334.28127 59.297249 
L 334.453867 59.344566 
L 334.626464 59.391816 
L 334.79906 59.439 
L 334.971657 59.486116 
L 335.144254 59.533166 
L 335.316851 59.580149 
L 335.489448 59.627065 
L 335.662044 59.673915 
L 335.834641 59.720698 
L 336.007238 59.767414 
L 336.179835 59.814063 
L 336.352431 59.860645 
L 336.525028 59.907161 
L 336.697625 59.95361 
L 336.870222 59.999992 
L 337.042819 60.046307 
L 337.215415 60.092556 
L 337.388012 60.138738 
L 337.560609 60.184853 
L 337.733206 60.230901 
L 337.905803 60.276882 
L 338.078399 60.322797 
L 338.250996 60.368645 
L 338.423593 60.414426 
L 338.59619 60.460141 
L 338.768786 60.505788 
L 338.941383 60.551369 
L 339.11398 60.596883 
L 339.286577 60.64233 
L 339.459174 60.687711 
L 339.63177 60.733025 
L 339.804367 60.778272 
L 339.976964 60.823452 
L 340.149561 60.868565 
L 340.322157 60.913612 
L 340.494754 60.958592 
L 340.667351 61.003505 
L 340.839948 61.048351 
L 341.012545 61.093131 
L 341.185141 61.137844 
L 341.357738 61.18249 
L 341.530335 61.227069 
L 341.702932 61.271581 
L 341.875528 61.316027 
L 342.048125 61.360406 
L 342.220722 61.404718 
L 342.393319 61.448964 
L 342.565916 61.493142 
L 342.738512 61.537254 
L 342.911109 61.581299 
L 343.083706 61.625277 
L 343.256303 61.669189 
L 343.4289 61.713034 
L 343.601496 61.756812 
L 343.774093 61.800523 
L 343.94669 61.844167 
L 344.119287 61.887745 
L 344.291883 61.931256 
L 344.46448 61.9747 
L 344.637077 62.018077 
L 344.809674 62.061388 
L 344.982271 62.104632 
L 345.154867 62.147809 
L 345.327464 62.190919 
L 345.500061 62.233963 
L 345.672658 62.276939 
L 345.845254 62.319849 
L 346.017851 62.362692 
L 346.190448 62.405469 
L 346.363045 62.448178 
L 346.535642 62.490821 
L 346.708238 62.533397 
L 346.880835 62.575907 
L 347.053432 62.618349 
L 347.226029 62.660725 
" style="fill:none;stroke:#0000ff;stroke-linecap:square;stroke-width:1.5;"/>
   </g>
   <g id="line2d_33">
    <path clip-path="url(#pd111714b7e)" d="M 347.226029 62.99713 
L 347.398626 63.039336 
L 347.571222 63.081269 
L 347.743819 63.12293 
L 347.916416 63.164318 
L 348.089013 63.205433 
L 348.261609 63.246275 
L 348.434206 63.286845 
L 348.606803 63.327142 
L 348.7794 63.367166 
L 348.951997 63.406918 
L 349.124593 63.446397 
L 349.29719 63.485603 
L 349.469787 63.524537 
L 349.642384 63.563197 
L 349.81498 63.601585 
L 349.987577 63.639701 
L 350.160174 63.677543 
L 350.332771 63.715113 
L 350.505368 63.75241 
L 350.677964 63.789435 
L 350.850561 63.826187 
L 351.023158 63.862666 
L 351.195755 63.898872 
L 351.368351 63.934806 
L 351.540948 63.970466 
L 351.713545 64.005855 
L 351.886142 64.04097 
L 352.058739 64.075813 
L 352.231335 64.110383 
L 352.403932 64.14468 
L 352.576529 64.178705 
L 352.749126 64.212457 
L 352.921722 64.245936 
L 353.094319 64.279142 
L 353.266916 64.312076 
L 353.439513 64.344737 
L 353.61211 64.377125 
L 353.784706 64.409241 
L 353.957303 64.441084 
L 354.1299 64.472654 
L 354.302497 64.503952 
L 354.475094 64.534976 
L 354.64769 64.565728 
L 354.820287 64.596208 
L 354.992884 64.626414 
L 355.165481 64.656348 
L 355.338077 64.686009 
L 355.510674 64.715398 
L 355.683271 64.744514 
L 355.855868 64.773357 
L 356.028465 64.801927 
L 356.201061 64.830225 
L 356.373658 64.85825 
L 356.546255 64.886002 
L 356.718852 64.913481 
L 356.891448 64.940688 
L 357.064045 64.967622 
L 357.236642 64.994284 
L 357.409239 65.020672 
L 357.581836 65.046788 
L 357.754432 65.072631 
L 357.927029 65.098202 
L 358.099626 65.1235 
L 358.272223 65.148525 
L 358.444819 65.173277 
L 358.617416 65.197757 
L 358.790013 65.221963 
L 358.96261 65.245898 
L 359.135207 65.269559 
L 359.307803 65.292948 
L 359.4804 65.316064 
L 359.652997 65.338907 
L 359.825594 65.361478 
L 359.998191 65.383776 
L 360.170787 65.405801 
L 360.343384 65.427554 
L 360.515981 65.449033 
L 360.688578 65.47024 
L 360.861174 65.491175 
L 361.033771 65.511836 
L 361.206368 65.532225 
L 361.378965 65.552342 
L 361.551562 65.572185 
L 361.724158 65.591756 
L 361.896755 65.611054 
L 362.069352 65.630079 
L 362.241949 65.648832 
L 362.414545 65.667312 
L 362.587142 65.685519 
L 362.759739 65.703454 
L 362.932336 65.721115 
L 363.104933 65.738505 
L 363.277529 65.755621 
L 363.450126 65.772465 
L 363.622723 65.789035 
L 363.79532 65.805334 
L 363.967916 65.821359 
L 364.140513 65.837112 
L 364.31311 65.852592 
" style="fill:none;stroke:#0000ff;stroke-linecap:square;stroke-width:1.5;"/>
   </g>
   <g id="line2d_34">
    <path clip-path="url(#pd111714b7e)" d="M 364.31311 65.730765 
L 364.485707 65.74601 
L 364.658304 65.761056 
L 364.8309 65.775905 
L 365.003497 65.790555 
L 365.176094 65.805007 
L 365.348691 65.819261 
L 365.521288 65.833317 
L 365.693884 65.847175 
L 365.866481 65.860834 
L 366.039078 65.874296 
L 366.211675 65.887559 
L 366.384271 65.900624 
L 366.556868 65.913491 
L 366.729465 65.92616 
L 366.902062 65.938631 
L 367.074659 65.950904 
L 367.247255 65.962978 
L 367.419852 65.974855 
L 367.592449 65.986533 
L 367.765046 65.998013 
L 367.937642 66.009295 
L 368.110239 66.020379 
L 368.282836 66.031265 
L 368.455433 66.041952 
L 368.62803 66.052442 
L 368.800626 66.062733 
L 368.973223 66.072826 
L 369.14582 66.082721 
L 369.318417 66.092418 
L 369.491013 66.101917 
L 369.66361 66.111218 
L 369.836207 66.12032 
L 370.008804 66.129224 
L 370.181401 66.137931 
L 370.353997 66.146439 
L 370.526594 66.154749 
L 370.699191 66.162861 
L 370.871788 66.170774 
L 371.044385 66.17849 
L 371.216981 66.186007 
L 371.389578 66.193327 
L 371.562175 66.200448 
L 371.734772 66.207371 
L 371.907368 66.214096 
L 372.079965 66.220623 
L 372.252562 66.226951 
L 372.425159 66.233082 
L 372.597756 66.239014 
L 372.770352 66.244749 
L 372.942949 66.250285 
L 373.115546 66.255623 
L 373.288143 66.260763 
L 373.460739 66.265704 
L 373.633336 66.270448 
L 373.805933 66.274993 
L 373.97853 66.279341 
L 374.151127 66.28349 
L 374.323723 66.287441 
L 374.49632 66.291194 
L 374.668917 66.294749 
L 374.841514 66.298105 
L 375.01411 66.301264 
L 375.186707 66.304224 
L 375.359304 66.306986 
L 375.531901 66.309551 
L 375.704498 66.311917 
L 375.877094 66.314084 
L 376.049691 66.316054 
L 376.222288 66.317826 
L 376.394885 66.319399 
L 376.567482 66.320775 
L 376.740078 66.321952 
L 376.912675 66.322931 
L 377.085272 66.323712 
L 377.257869 66.324294 
L 377.430465 66.324679 
L 377.603062 66.324866 
L 377.775659 66.324854 
L 377.948256 66.324644 
L 378.120853 66.324236 
L 378.293449 66.32363 
L 378.466046 66.322826 
L 378.638643 66.321824 
L 378.81124 66.320624 
L 378.983836 66.319225 
L 379.156433 66.317628 
L 379.32903 66.315834 
L 379.501627 66.313841 
L 379.674224 66.31165 
L 379.84682 66.30926 
L 380.019417 66.306673 
L 380.192014 66.303888 
L 380.364611 66.300904 
L 380.537207 66.297722 
L 380.709804 66.294342 
L 380.882401 66.290764 
L 381.054998 66.286988 
L 381.227595 66.283014 
L 381.400191 66.278841 
" style="fill:none;stroke:#0000ff;stroke-linecap:square;stroke-width:1.5;"/>
   </g>
   <g id="line2d_35">
    <path clip-path="url(#pd111714b7e)" d="M 381.400191 65.938469 
L 381.572788 65.934203 
L 381.745385 65.929946 
L 381.917982 65.9257 
L 382.090579 65.921465 
L 382.263175 65.917239 
L 382.435772 65.913024 
L 382.608369 65.908819 
L 382.780966 65.904625 
L 382.953562 65.90044 
L 383.126159 65.896266 
L 383.298756 65.892102 
L 383.471353 65.887948 
L 383.64395 65.883805 
L 383.816546 65.879671 
L 383.989143 65.875548 
L 384.16174 65.871436 
L 384.334337 65.867333 
L 384.506933 65.863241 
L 384.67953 65.859159 
L 384.852127 65.855087 
L 385.024724 65.851025 
L 385.197321 65.846974 
L 385.369917 65.842933 
L 385.542514 65.838902 
L 385.715111 65.834881 
L 385.887708 65.830871 
L 386.060304 65.82687 
L 386.232901 65.82288 
L 386.405498 65.818901 
L 386.578095 65.814931 
L 386.750692 65.810972 
L 386.923288 65.807023 
L 387.095885 65.803084 
L 387.268482 65.799156 
L 387.441079 65.795237 
L 387.613676 65.791329 
L 387.786272 65.787431 
L 387.958869 65.783544 
L 388.131466 65.779666 
L 388.304063 65.775799 
L 388.476659 65.771942 
L 388.649256 65.768096 
L 388.821853 65.764259 
L 388.99445 65.760433 
L 389.167047 65.756617 
L 389.339643 65.752812 
L 389.51224 65.749016 
L 389.684837 65.745231 
L 389.857434 65.741456 
L 390.03003 65.737691 
L 390.202627 65.733937 
L 390.375224 65.730192 
L 390.547821 65.726458 
L 390.720418 65.722734 
L 390.893014 65.719021 
L 391.065611 65.715318 
L 391.238208 65.711624 
L 391.410805 65.707942 
L 391.583401 65.704269 
L 391.755998 65.700607 
L 391.928595 65.696954 
L 392.101192 65.693312 
L 392.273789 65.689681 
L 392.446385 65.686059 
L 392.618982 65.682448 
L 392.791579 65.678847 
L 392.964176 65.675256 
L 393.136773 65.671676 
L 393.309369 65.668106 
L 393.481966 65.664546 
L 393.654563 65.660996 
L 393.82716 65.657456 
L 393.999756 65.653927 
L 394.172353 65.650408 
L 394.34495 65.646899 
L 394.517547 65.643401 
L 394.690144 65.639912 
L 394.86274 65.636434 
L 395.035337 65.632966 
L 395.207934 65.629509 
L 395.380531 65.626061 
L 395.553127 65.622624 
L 395.725724 65.619197 
L 395.898321 65.61578 
L 396.070918 65.612374 
L 396.243515 65.608978 
L 396.416111 65.605592 
L 396.588708 65.602216 
L 396.761305 65.59885 
L 396.933902 65.595495 
L 397.106498 65.59215 
L 397.279095 65.588815 
L 397.451692 65.585491 
L 397.624289 65.582176 
L 397.796886 65.578872 
L 397.969482 65.575578 
L 398.142079 65.572295 
L 398.314676 65.569021 
L 398.487273 65.565758 
" style="fill:none;stroke:#0000ff;stroke-linecap:square;stroke-width:1.5;"/>
   </g>
   <g id="patch_3">
    <path d="M 57.6 307.584 
L 57.6 41.472 
" style="fill:none;stroke:#000000;stroke-linecap:square;stroke-linejoin:miter;stroke-width:0.8;"/>
   </g>
   <g id="patch_4">
    <path d="M 414.72 307.584 
L 414.72 41.472 
" style="fill:none;stroke:#000000;stroke-linecap:square;stroke-linejoin:miter;stroke-width:0.8;"/>
   </g>
   <g id="patch_5">
    <path d="M 57.6 307.584 
L 414.72 307.584 
" style="fill:none;stroke:#000000;stroke-linecap:square;stroke-linejoin:miter;stroke-width:0.8;"/>
   </g>
   <g id="patch_6">
    <path d="M 57.6 41.472 
L 414.72 41.472 
" style="fill:none;stroke:#000000;stroke-linecap:square;stroke-linejoin:miter;stroke-width:0.8;"/>
   </g>
  </g>
 </g>
 <defs>
  <clipPath id="pd111714b7e">
   <rect height="266.112" width="357.12" x="57.6" y="41.472"/>
  </clipPath>
 </defs>
</svg>
