<?xml version="1.0" encoding="utf-8" standalone="no"?>
<!DOCTYPE svg PUBLIC "-//W3C//DTD SVG 1.1//EN"
  "http://www.w3.org/Graphics/SVG/1.1/DTD/svg11.dtd">
<!-- Created with matplotlib (https://matplotlib.org/) -->
<svg height="345.6pt" version="1.1" viewBox="0 0 460.8 345.6" width="460.8pt" xmlns="http://www.w3.org/2000/svg" xmlns:xlink="http://www.w3.org/1999/xlink">
 <metadata>
  <rdf:RDF xmlns:cc="http://creativecommons.org/ns#" xmlns:dc="http://purl.org/dc/elements/1.1/" xmlns:rdf="http://www.w3.org/1999/02/22-rdf-syntax-ns#">
   <cc:Work>
    <dc:type rdf:resource="http://purl.org/dc/dcmitype/StillImage"/>
    <dc:date>2022-06-28T10:27:29.926586</dc:date>
    <dc:format>image/svg+xml</dc:format>
    <dc:creator>
     <cc:Agent>
      <dc:title>Matplotlib v3.3.2, https://matplotlib.org/</dc:title>
     </cc:Agent>
    </dc:creator>
   </cc:Work>
  </rdf:RDF>
 </metadata>
 <defs>
  <style type="text/css">*{stroke-linecap:butt;stroke-linejoin:round;}</style>
 </defs>
 <g id="figure_1">
  <g id="patch_1">
   <path d="M 0 345.6 
L 460.8 345.6 
L 460.8 0 
L 0 0 
z
" style="fill:#ffffff;"/>
  </g>
  <g id="axes_1">
   <g id="patch_2">
    <path d="M 57.6 307.584 
L 414.72 307.584 
L 414.72 41.472 
L 57.6 41.472 
z
" style="fill:#ffffff;"/>
   </g>
   <g id="PathCollection_1">
    <defs>
     <path d="M 0 3 
C 0.795609 3 1.55874 2.683901 2.12132 2.12132 
C 2.683901 1.55874 3 0.795609 3 0 
C 3 -0.795609 2.683901 -1.55874 2.12132 -2.12132 
C 1.55874 -2.683901 0.795609 -3 0 -3 
C -0.795609 -3 -1.55874 -2.683901 -2.12132 -2.12132 
C -2.683901 -1.55874 -3 -0.795609 -3 0 
C -3 0.795609 -2.683901 1.55874 -2.12132 2.12132 
C -1.55874 2.683901 -0.795609 3 0 3 
z
" id="m1d278d7fb3" style="stroke:#0000ff;"/>
    </defs>
    <g clip-path="url(#p4a0f3d96fe)">
     <use style="fill:#0000ff;stroke:#0000ff;" x="82.376268" xlink:href="#m1d278d7fb3" y="283.629887"/>
    </g>
   </g>
   <g id="PathCollection_2">
    <g clip-path="url(#p4a0f3d96fe)">
     <use style="fill:#0000ff;stroke:#0000ff;" x="99.463349" xlink:href="#m1d278d7fb3" y="283.29193"/>
    </g>
   </g>
   <g id="PathCollection_3">
    <g clip-path="url(#p4a0f3d96fe)">
     <use style="fill:#0000ff;stroke:#0000ff;" x="116.550431" xlink:href="#m1d278d7fb3" y="284.850412"/>
    </g>
   </g>
   <g id="PathCollection_4">
    <g clip-path="url(#p4a0f3d96fe)">
     <use style="fill:#0000ff;stroke:#0000ff;" x="133.637512" xlink:href="#m1d278d7fb3" y="288.931252"/>
    </g>
   </g>
   <g id="PathCollection_5">
    <g clip-path="url(#p4a0f3d96fe)">
     <use style="fill:#0000ff;stroke:#0000ff;" x="150.724593" xlink:href="#m1d278d7fb3" y="293.18798"/>
    </g>
   </g>
   <g id="PathCollection_6">
    <g clip-path="url(#p4a0f3d96fe)">
     <use style="fill:#0000ff;stroke:#0000ff;" x="167.811675" xlink:href="#m1d278d7fb3" y="292.619312"/>
    </g>
   </g>
   <g id="PathCollection_7">
    <g clip-path="url(#p4a0f3d96fe)">
     <use style="fill:#0000ff;stroke:#0000ff;" x="184.898756" xlink:href="#m1d278d7fb3" y="281.713228"/>
    </g>
   </g>
   <g id="PathCollection_8">
    <g clip-path="url(#p4a0f3d96fe)">
     <use style="fill:#0000ff;stroke:#0000ff;" x="201.985837" xlink:href="#m1d278d7fb3" y="257.228745"/>
    </g>
   </g>
   <g id="PathCollection_9">
    <g clip-path="url(#p4a0f3d96fe)">
     <use style="fill:#0000ff;stroke:#0000ff;" x="219.072919" xlink:href="#m1d278d7fb3" y="220.096415"/>
    </g>
   </g>
   <g id="PathCollection_10">
    <g clip-path="url(#p4a0f3d96fe)">
     <use style="fill:#0000ff;stroke:#0000ff;" x="236.16" xlink:href="#m1d278d7fb3" y="175.472741"/>
    </g>
   </g>
   <g id="PathCollection_11">
    <g clip-path="url(#p4a0f3d96fe)">
     <use style="fill:#0000ff;stroke:#0000ff;" x="253.247081" xlink:href="#m1d278d7fb3" y="130.970224"/>
    </g>
   </g>
   <g id="PathCollection_12">
    <g clip-path="url(#p4a0f3d96fe)">
     <use style="fill:#0000ff;stroke:#0000ff;" x="270.334163" xlink:href="#m1d278d7fb3" y="93.942164"/>
    </g>
   </g>
   <g id="PathCollection_13">
    <g clip-path="url(#p4a0f3d96fe)">
     <use style="fill:#0000ff;stroke:#0000ff;" x="287.421244" xlink:href="#m1d278d7fb3" y="69.042988"/>
    </g>
   </g>
   <g id="PathCollection_14">
    <g clip-path="url(#p4a0f3d96fe)">
     <use style="fill:#0000ff;stroke:#0000ff;" x="304.508325" xlink:href="#m1d278d7fb3" y="57.035123"/>
    </g>
   </g>
   <g id="PathCollection_15">
    <g clip-path="url(#p4a0f3d96fe)">
     <use style="fill:#0000ff;stroke:#0000ff;" x="321.595407" xlink:href="#m1d278d7fb3" y="55.174494"/>
    </g>
   </g>
   <g id="PathCollection_16">
    <g clip-path="url(#p4a0f3d96fe)">
     <use style="fill:#0000ff;stroke:#0000ff;" x="338.682488" xlink:href="#m1d278d7fb3" y="58.814524"/>
    </g>
   </g>
   <g id="PathCollection_17">
    <g clip-path="url(#p4a0f3d96fe)">
     <use style="fill:#0000ff;stroke:#0000ff;" x="355.769569" xlink:href="#m1d278d7fb3" y="63.424644"/>
    </g>
   </g>
   <g id="PathCollection_18">
    <g clip-path="url(#p4a0f3d96fe)">
     <use style="fill:#0000ff;stroke:#0000ff;" x="372.856651" xlink:href="#m1d278d7fb3" y="66.172908"/>
    </g>
   </g>
   <g id="PathCollection_19">
    <g clip-path="url(#p4a0f3d96fe)">
     <use style="fill:#0000ff;stroke:#0000ff;" x="389.943732" xlink:href="#m1d278d7fb3" y="66.554268"/>
    </g>
   </g>
   <g id="PathCollection_20">
    <g clip-path="url(#p4a0f3d96fe)">
     <use style="fill:#0000ff;stroke:#0000ff;" x="82.376268" xlink:href="#m1d278d7fb3" y="283.629887"/>
    </g>
   </g>
   <g id="PathCollection_21">
    <g clip-path="url(#p4a0f3d96fe)">
     <use style="fill:#0000ff;stroke:#0000ff;" x="99.463349" xlink:href="#m1d278d7fb3" y="283.29193"/>
    </g>
   </g>
   <g id="PathCollection_22">
    <g clip-path="url(#p4a0f3d96fe)">
     <use style="fill:#0000ff;stroke:#0000ff;" x="116.550431" xlink:href="#m1d278d7fb3" y="284.850412"/>
    </g>
   </g>
   <g id="PathCollection_23">
    <g clip-path="url(#p4a0f3d96fe)">
     <use style="fill:#0000ff;stroke:#0000ff;" x="133.637512" xlink:href="#m1d278d7fb3" y="288.931252"/>
    </g>
   </g>
   <g id="PathCollection_24">
    <g clip-path="url(#p4a0f3d96fe)">
     <use style="fill:#0000ff;stroke:#0000ff;" x="150.724593" xlink:href="#m1d278d7fb3" y="293.18798"/>
    </g>
   </g>
   <g id="PathCollection_25">
    <g clip-path="url(#p4a0f3d96fe)">
     <use style="fill:#0000ff;stroke:#0000ff;" x="167.811675" xlink:href="#m1d278d7fb3" y="292.619312"/>
    </g>
   </g>
   <g id="PathCollection_26">
    <g clip-path="url(#p4a0f3d96fe)">
     <use style="fill:#0000ff;stroke:#0000ff;" x="184.898756" xlink:href="#m1d278d7fb3" y="281.713228"/>
    </g>
   </g>
   <g id="PathCollection_27">
    <g clip-path="url(#p4a0f3d96fe)">
     <use style="fill:#0000ff;stroke:#0000ff;" x="201.985837" xlink:href="#m1d278d7fb3" y="257.228745"/>
    </g>
   </g>
   <g id="PathCollection_28">
    <g clip-path="url(#p4a0f3d96fe)">
     <use style="fill:#0000ff;stroke:#0000ff;" x="219.072919" xlink:href="#m1d278d7fb3" y="220.096415"/>
    </g>
   </g>
   <g id="PathCollection_29">
    <g clip-path="url(#p4a0f3d96fe)">
     <use style="fill:#0000ff;stroke:#0000ff;" x="236.16" xlink:href="#m1d278d7fb3" y="175.472741"/>
    </g>
   </g>
   <g id="PathCollection_30">
    <g clip-path="url(#p4a0f3d96fe)">
     <use style="fill:#0000ff;stroke:#0000ff;" x="253.247081" xlink:href="#m1d278d7fb3" y="130.970224"/>
    </g>
   </g>
   <g id="PathCollection_31">
    <g clip-path="url(#p4a0f3d96fe)">
     <use style="fill:#0000ff;stroke:#0000ff;" x="270.334163" xlink:href="#m1d278d7fb3" y="93.942164"/>
    </g>
   </g>
   <g id="PathCollection_32">
    <g clip-path="url(#p4a0f3d96fe)">
     <use style="fill:#0000ff;stroke:#0000ff;" x="287.421244" xlink:href="#m1d278d7fb3" y="69.042988"/>
    </g>
   </g>
   <g id="PathCollection_33">
    <g clip-path="url(#p4a0f3d96fe)">
     <use style="fill:#0000ff;stroke:#0000ff;" x="304.508325" xlink:href="#m1d278d7fb3" y="57.035123"/>
    </g>
   </g>
   <g id="PathCollection_34">
    <g clip-path="url(#p4a0f3d96fe)">
     <use style="fill:#0000ff;stroke:#0000ff;" x="321.595407" xlink:href="#m1d278d7fb3" y="55.174494"/>
    </g>
   </g>
   <g id="PathCollection_35">
    <g clip-path="url(#p4a0f3d96fe)">
     <use style="fill:#0000ff;stroke:#0000ff;" x="338.682488" xlink:href="#m1d278d7fb3" y="58.814524"/>
    </g>
   </g>
   <g id="PathCollection_36">
    <g clip-path="url(#p4a0f3d96fe)">
     <use style="fill:#0000ff;stroke:#0000ff;" x="355.769569" xlink:href="#m1d278d7fb3" y="63.424644"/>
    </g>
   </g>
   <g id="PathCollection_37">
    <g clip-path="url(#p4a0f3d96fe)">
     <use style="fill:#0000ff;stroke:#0000ff;" x="372.856651" xlink:href="#m1d278d7fb3" y="66.172908"/>
    </g>
   </g>
   <g id="PathCollection_38">
    <g clip-path="url(#p4a0f3d96fe)">
     <use style="fill:#0000ff;stroke:#0000ff;" x="389.943732" xlink:href="#m1d278d7fb3" y="66.554268"/>
    </g>
   </g>
   <g id="matplotlib.axis_1">
    <g id="xtick_1">
     <g id="line2d_1">
      <defs>
       <path d="M 0 0 
L 0 3.5 
" id="mb78fb1670f" style="stroke:#000000;stroke-width:0.8;"/>
      </defs>
      <g>
       <use style="stroke:#000000;stroke-width:0.8;" x="73.832727" xlink:href="#mb78fb1670f" y="307.584"/>
      </g>
     </g>
     <g id="text_1">
      <!-- −1.00 -->
      <g transform="translate(58.510071 322.182437)scale(0.1 -0.1)">
       <defs>
        <path d="M 10.59375 35.5 
L 73.1875 35.5 
L 73.1875 27.203125 
L 10.59375 27.203125 
z
" id="DejaVuSans-8722"/>
        <path d="M 12.40625 8.296875 
L 28.515625 8.296875 
L 28.515625 63.921875 
L 10.984375 60.40625 
L 10.984375 69.390625 
L 28.421875 72.90625 
L 38.28125 72.90625 
L 38.28125 8.296875 
L 54.390625 8.296875 
L 54.390625 0 
L 12.40625 0 
z
" id="DejaVuSans-49"/>
        <path d="M 10.6875 12.40625 
L 21 12.40625 
L 21 0 
L 10.6875 0 
z
" id="DejaVuSans-46"/>
        <path d="M 31.78125 66.40625 
Q 24.171875 66.40625 20.328125 58.90625 
Q 16.5 51.421875 16.5 36.375 
Q 16.5 21.390625 20.328125 13.890625 
Q 24.171875 6.390625 31.78125 6.390625 
Q 39.453125 6.390625 43.28125 13.890625 
Q 47.125 21.390625 47.125 36.375 
Q 47.125 51.421875 43.28125 58.90625 
Q 39.453125 66.40625 31.78125 66.40625 
z
M 31.78125 74.21875 
Q 44.046875 74.21875 50.515625 64.515625 
Q 56.984375 54.828125 56.984375 36.375 
Q 56.984375 17.96875 50.515625 8.265625 
Q 44.046875 -1.421875 31.78125 -1.421875 
Q 19.53125 -1.421875 13.0625 8.265625 
Q 6.59375 17.96875 6.59375 36.375 
Q 6.59375 54.828125 13.0625 64.515625 
Q 19.53125 74.21875 31.78125 74.21875 
z
" id="DejaVuSans-48"/>
       </defs>
       <use xlink:href="#DejaVuSans-8722"/>
       <use x="83.789062" xlink:href="#DejaVuSans-49"/>
       <use x="147.412109" xlink:href="#DejaVuSans-46"/>
       <use x="179.199219" xlink:href="#DejaVuSans-48"/>
       <use x="242.822266" xlink:href="#DejaVuSans-48"/>
      </g>
     </g>
    </g>
    <g id="xtick_2">
     <g id="line2d_2">
      <g>
       <use style="stroke:#000000;stroke-width:0.8;" x="114.414545" xlink:href="#mb78fb1670f" y="307.584"/>
      </g>
     </g>
     <g id="text_2">
      <!-- −0.75 -->
      <g transform="translate(99.091889 322.182437)scale(0.1 -0.1)">
       <defs>
        <path d="M 8.203125 72.90625 
L 55.078125 72.90625 
L 55.078125 68.703125 
L 28.609375 0 
L 18.3125 0 
L 43.21875 64.59375 
L 8.203125 64.59375 
z
" id="DejaVuSans-55"/>
        <path d="M 10.796875 72.90625 
L 49.515625 72.90625 
L 49.515625 64.59375 
L 19.828125 64.59375 
L 19.828125 46.734375 
Q 21.96875 47.46875 24.109375 47.828125 
Q 26.265625 48.1875 28.421875 48.1875 
Q 40.625 48.1875 47.75 41.5 
Q 54.890625 34.8125 54.890625 23.390625 
Q 54.890625 11.625 47.5625 5.09375 
Q 40.234375 -1.421875 26.90625 -1.421875 
Q 22.3125 -1.421875 17.546875 -0.640625 
Q 12.796875 0.140625 7.71875 1.703125 
L 7.71875 11.625 
Q 12.109375 9.234375 16.796875 8.0625 
Q 21.484375 6.890625 26.703125 6.890625 
Q 35.15625 6.890625 40.078125 11.328125 
Q 45.015625 15.765625 45.015625 23.390625 
Q 45.015625 31 40.078125 35.4375 
Q 35.15625 39.890625 26.703125 39.890625 
Q 22.75 39.890625 18.8125 39.015625 
Q 14.890625 38.140625 10.796875 36.28125 
z
" id="DejaVuSans-53"/>
       </defs>
       <use xlink:href="#DejaVuSans-8722"/>
       <use x="83.789062" xlink:href="#DejaVuSans-48"/>
       <use x="147.412109" xlink:href="#DejaVuSans-46"/>
       <use x="179.199219" xlink:href="#DejaVuSans-55"/>
       <use x="242.822266" xlink:href="#DejaVuSans-53"/>
      </g>
     </g>
    </g>
    <g id="xtick_3">
     <g id="line2d_3">
      <g>
       <use style="stroke:#000000;stroke-width:0.8;" x="154.996364" xlink:href="#mb78fb1670f" y="307.584"/>
      </g>
     </g>
     <g id="text_3">
      <!-- −0.50 -->
      <g transform="translate(139.673707 322.182437)scale(0.1 -0.1)">
       <use xlink:href="#DejaVuSans-8722"/>
       <use x="83.789062" xlink:href="#DejaVuSans-48"/>
       <use x="147.412109" xlink:href="#DejaVuSans-46"/>
       <use x="179.199219" xlink:href="#DejaVuSans-53"/>
       <use x="242.822266" xlink:href="#DejaVuSans-48"/>
      </g>
     </g>
    </g>
    <g id="xtick_4">
     <g id="line2d_4">
      <g>
       <use style="stroke:#000000;stroke-width:0.8;" x="195.578182" xlink:href="#mb78fb1670f" y="307.584"/>
      </g>
     </g>
     <g id="text_4">
      <!-- −0.25 -->
      <g transform="translate(180.255526 322.182437)scale(0.1 -0.1)">
       <defs>
        <path d="M 19.1875 8.296875 
L 53.609375 8.296875 
L 53.609375 0 
L 7.328125 0 
L 7.328125 8.296875 
Q 12.9375 14.109375 22.625 23.890625 
Q 32.328125 33.6875 34.8125 36.53125 
Q 39.546875 41.84375 41.421875 45.53125 
Q 43.3125 49.21875 43.3125 52.78125 
Q 43.3125 58.59375 39.234375 62.25 
Q 35.15625 65.921875 28.609375 65.921875 
Q 23.96875 65.921875 18.8125 64.3125 
Q 13.671875 62.703125 7.8125 59.421875 
L 7.8125 69.390625 
Q 13.765625 71.78125 18.9375 73 
Q 24.125 74.21875 28.421875 74.21875 
Q 39.75 74.21875 46.484375 68.546875 
Q 53.21875 62.890625 53.21875 53.421875 
Q 53.21875 48.921875 51.53125 44.890625 
Q 49.859375 40.875 45.40625 35.40625 
Q 44.1875 33.984375 37.640625 27.21875 
Q 31.109375 20.453125 19.1875 8.296875 
z
" id="DejaVuSans-50"/>
       </defs>
       <use xlink:href="#DejaVuSans-8722"/>
       <use x="83.789062" xlink:href="#DejaVuSans-48"/>
       <use x="147.412109" xlink:href="#DejaVuSans-46"/>
       <use x="179.199219" xlink:href="#DejaVuSans-50"/>
       <use x="242.822266" xlink:href="#DejaVuSans-53"/>
      </g>
     </g>
    </g>
    <g id="xtick_5">
     <g id="line2d_5">
      <g>
       <use style="stroke:#000000;stroke-width:0.8;" x="236.16" xlink:href="#mb78fb1670f" y="307.584"/>
      </g>
     </g>
     <g id="text_5">
      <!-- 0.00 -->
      <g transform="translate(225.027187 322.182437)scale(0.1 -0.1)">
       <use xlink:href="#DejaVuSans-48"/>
       <use x="63.623047" xlink:href="#DejaVuSans-46"/>
       <use x="95.410156" xlink:href="#DejaVuSans-48"/>
       <use x="159.033203" xlink:href="#DejaVuSans-48"/>
      </g>
     </g>
    </g>
    <g id="xtick_6">
     <g id="line2d_6">
      <g>
       <use style="stroke:#000000;stroke-width:0.8;" x="276.741818" xlink:href="#mb78fb1670f" y="307.584"/>
      </g>
     </g>
     <g id="text_6">
      <!-- 0.25 -->
      <g transform="translate(265.609006 322.182437)scale(0.1 -0.1)">
       <use xlink:href="#DejaVuSans-48"/>
       <use x="63.623047" xlink:href="#DejaVuSans-46"/>
       <use x="95.410156" xlink:href="#DejaVuSans-50"/>
       <use x="159.033203" xlink:href="#DejaVuSans-53"/>
      </g>
     </g>
    </g>
    <g id="xtick_7">
     <g id="line2d_7">
      <g>
       <use style="stroke:#000000;stroke-width:0.8;" x="317.323636" xlink:href="#mb78fb1670f" y="307.584"/>
      </g>
     </g>
     <g id="text_7">
      <!-- 0.50 -->
      <g transform="translate(306.190824 322.182437)scale(0.1 -0.1)">
       <use xlink:href="#DejaVuSans-48"/>
       <use x="63.623047" xlink:href="#DejaVuSans-46"/>
       <use x="95.410156" xlink:href="#DejaVuSans-53"/>
       <use x="159.033203" xlink:href="#DejaVuSans-48"/>
      </g>
     </g>
    </g>
    <g id="xtick_8">
     <g id="line2d_8">
      <g>
       <use style="stroke:#000000;stroke-width:0.8;" x="357.905455" xlink:href="#mb78fb1670f" y="307.584"/>
      </g>
     </g>
     <g id="text_8">
      <!-- 0.75 -->
      <g transform="translate(346.772642 322.182437)scale(0.1 -0.1)">
       <use xlink:href="#DejaVuSans-48"/>
       <use x="63.623047" xlink:href="#DejaVuSans-46"/>
       <use x="95.410156" xlink:href="#DejaVuSans-55"/>
       <use x="159.033203" xlink:href="#DejaVuSans-53"/>
      </g>
     </g>
    </g>
    <g id="xtick_9">
     <g id="line2d_9">
      <g>
       <use style="stroke:#000000;stroke-width:0.8;" x="398.487273" xlink:href="#mb78fb1670f" y="307.584"/>
      </g>
     </g>
     <g id="text_9">
      <!-- 1.00 -->
      <g transform="translate(387.35446 322.182437)scale(0.1 -0.1)">
       <use xlink:href="#DejaVuSans-49"/>
       <use x="63.623047" xlink:href="#DejaVuSans-46"/>
       <use x="95.410156" xlink:href="#DejaVuSans-48"/>
       <use x="159.033203" xlink:href="#DejaVuSans-48"/>
      </g>
     </g>
    </g>
   </g>
   <g id="matplotlib.axis_2">
    <g id="ytick_1">
     <g id="line2d_10">
      <defs>
       <path d="M 0 0 
L -3.5 0 
" id="m5a09112f7c" style="stroke:#000000;stroke-width:0.8;"/>
      </defs>
      <g>
       <use style="stroke:#000000;stroke-width:0.8;" x="57.6" xlink:href="#m5a09112f7c" y="284.012978"/>
      </g>
     </g>
     <g id="text_10">
      <!-- 1.0 -->
      <g transform="translate(34.696875 287.812196)scale(0.1 -0.1)">
       <use xlink:href="#DejaVuSans-49"/>
       <use x="63.623047" xlink:href="#DejaVuSans-46"/>
       <use x="95.410156" xlink:href="#DejaVuSans-48"/>
      </g>
     </g>
    </g>
    <g id="ytick_2">
     <g id="line2d_11">
      <g>
       <use style="stroke:#000000;stroke-width:0.8;" x="57.6" xlink:href="#m5a09112f7c" y="240.347855"/>
      </g>
     </g>
     <g id="text_11">
      <!-- 1.2 -->
      <g transform="translate(34.696875 244.147074)scale(0.1 -0.1)">
       <use xlink:href="#DejaVuSans-49"/>
       <use x="63.623047" xlink:href="#DejaVuSans-46"/>
       <use x="95.410156" xlink:href="#DejaVuSans-50"/>
      </g>
     </g>
    </g>
    <g id="ytick_3">
     <g id="line2d_12">
      <g>
       <use style="stroke:#000000;stroke-width:0.8;" x="57.6" xlink:href="#m5a09112f7c" y="196.682732"/>
      </g>
     </g>
     <g id="text_12">
      <!-- 1.4 -->
      <g transform="translate(34.696875 200.481951)scale(0.1 -0.1)">
       <defs>
        <path d="M 37.796875 64.3125 
L 12.890625 25.390625 
L 37.796875 25.390625 
z
M 35.203125 72.90625 
L 47.609375 72.90625 
L 47.609375 25.390625 
L 58.015625 25.390625 
L 58.015625 17.1875 
L 47.609375 17.1875 
L 47.609375 0 
L 37.796875 0 
L 37.796875 17.1875 
L 4.890625 17.1875 
L 4.890625 26.703125 
z
" id="DejaVuSans-52"/>
       </defs>
       <use xlink:href="#DejaVuSans-49"/>
       <use x="63.623047" xlink:href="#DejaVuSans-46"/>
       <use x="95.410156" xlink:href="#DejaVuSans-52"/>
      </g>
     </g>
    </g>
    <g id="ytick_4">
     <g id="line2d_13">
      <g>
       <use style="stroke:#000000;stroke-width:0.8;" x="57.6" xlink:href="#m5a09112f7c" y="153.017609"/>
      </g>
     </g>
     <g id="text_13">
      <!-- 1.6 -->
      <g transform="translate(34.696875 156.816828)scale(0.1 -0.1)">
       <defs>
        <path d="M 33.015625 40.375 
Q 26.375 40.375 22.484375 35.828125 
Q 18.609375 31.296875 18.609375 23.390625 
Q 18.609375 15.53125 22.484375 10.953125 
Q 26.375 6.390625 33.015625 6.390625 
Q 39.65625 6.390625 43.53125 10.953125 
Q 47.40625 15.53125 47.40625 23.390625 
Q 47.40625 31.296875 43.53125 35.828125 
Q 39.65625 40.375 33.015625 40.375 
z
M 52.59375 71.296875 
L 52.59375 62.3125 
Q 48.875 64.0625 45.09375 64.984375 
Q 41.3125 65.921875 37.59375 65.921875 
Q 27.828125 65.921875 22.671875 59.328125 
Q 17.53125 52.734375 16.796875 39.40625 
Q 19.671875 43.65625 24.015625 45.921875 
Q 28.375 48.1875 33.59375 48.1875 
Q 44.578125 48.1875 50.953125 41.515625 
Q 57.328125 34.859375 57.328125 23.390625 
Q 57.328125 12.15625 50.6875 5.359375 
Q 44.046875 -1.421875 33.015625 -1.421875 
Q 20.359375 -1.421875 13.671875 8.265625 
Q 6.984375 17.96875 6.984375 36.375 
Q 6.984375 53.65625 15.1875 63.9375 
Q 23.390625 74.21875 37.203125 74.21875 
Q 40.921875 74.21875 44.703125 73.484375 
Q 48.484375 72.75 52.59375 71.296875 
z
" id="DejaVuSans-54"/>
       </defs>
       <use xlink:href="#DejaVuSans-49"/>
       <use x="63.623047" xlink:href="#DejaVuSans-46"/>
       <use x="95.410156" xlink:href="#DejaVuSans-54"/>
      </g>
     </g>
    </g>
    <g id="ytick_5">
     <g id="line2d_14">
      <g>
       <use style="stroke:#000000;stroke-width:0.8;" x="57.6" xlink:href="#m5a09112f7c" y="109.352486"/>
      </g>
     </g>
     <g id="text_14">
      <!-- 1.8 -->
      <g transform="translate(34.696875 113.151705)scale(0.1 -0.1)">
       <defs>
        <path d="M 31.78125 34.625 
Q 24.75 34.625 20.71875 30.859375 
Q 16.703125 27.09375 16.703125 20.515625 
Q 16.703125 13.921875 20.71875 10.15625 
Q 24.75 6.390625 31.78125 6.390625 
Q 38.8125 6.390625 42.859375 10.171875 
Q 46.921875 13.96875 46.921875 20.515625 
Q 46.921875 27.09375 42.890625 30.859375 
Q 38.875 34.625 31.78125 34.625 
z
M 21.921875 38.8125 
Q 15.578125 40.375 12.03125 44.71875 
Q 8.5 49.078125 8.5 55.328125 
Q 8.5 64.0625 14.71875 69.140625 
Q 20.953125 74.21875 31.78125 74.21875 
Q 42.671875 74.21875 48.875 69.140625 
Q 55.078125 64.0625 55.078125 55.328125 
Q 55.078125 49.078125 51.53125 44.71875 
Q 48 40.375 41.703125 38.8125 
Q 48.828125 37.15625 52.796875 32.3125 
Q 56.78125 27.484375 56.78125 20.515625 
Q 56.78125 9.90625 50.3125 4.234375 
Q 43.84375 -1.421875 31.78125 -1.421875 
Q 19.734375 -1.421875 13.25 4.234375 
Q 6.78125 9.90625 6.78125 20.515625 
Q 6.78125 27.484375 10.78125 32.3125 
Q 14.796875 37.15625 21.921875 38.8125 
z
M 18.3125 54.390625 
Q 18.3125 48.734375 21.84375 45.5625 
Q 25.390625 42.390625 31.78125 42.390625 
Q 38.140625 42.390625 41.71875 45.5625 
Q 45.3125 48.734375 45.3125 54.390625 
Q 45.3125 60.0625 41.71875 63.234375 
Q 38.140625 66.40625 31.78125 66.40625 
Q 25.390625 66.40625 21.84375 63.234375 
Q 18.3125 60.0625 18.3125 54.390625 
z
" id="DejaVuSans-56"/>
       </defs>
       <use xlink:href="#DejaVuSans-49"/>
       <use x="63.623047" xlink:href="#DejaVuSans-46"/>
       <use x="95.410156" xlink:href="#DejaVuSans-56"/>
      </g>
     </g>
    </g>
    <g id="ytick_6">
     <g id="line2d_15">
      <g>
       <use style="stroke:#000000;stroke-width:0.8;" x="57.6" xlink:href="#m5a09112f7c" y="65.687363"/>
      </g>
     </g>
     <g id="text_15">
      <!-- 2.0 -->
      <g transform="translate(34.696875 69.486582)scale(0.1 -0.1)">
       <use xlink:href="#DejaVuSans-50"/>
       <use x="63.623047" xlink:href="#DejaVuSans-46"/>
       <use x="95.410156" xlink:href="#DejaVuSans-48"/>
      </g>
     </g>
    </g>
   </g>
   <g id="line2d_16">
    <path clip-path="url(#p4a0f3d96fe)" d="M 73.832727 284.012978 
L 236.078796 284.012978 
L 236.241204 65.687363 
L 398.487273 65.687363 
L 398.487273 65.687363 
" style="fill:none;stroke:#ff00ff;stroke-linecap:square;stroke-width:1.5;"/>
   </g>
   <g id="line2d_17">
    <path clip-path="url(#p4a0f3d96fe)" d="M 73.832727 283.735923 
L 74.005324 283.733781 
L 74.177921 283.731639 
L 74.350518 283.729497 
L 74.523114 283.727355 
L 74.695711 283.725212 
L 74.868308 283.72307 
L 75.040905 283.720928 
L 75.213502 283.718786 
L 75.386098 283.716644 
L 75.558695 283.714502 
L 75.731292 283.712359 
L 75.903889 283.710217 
L 76.076485 283.708075 
L 76.249082 283.705933 
L 76.421679 283.703791 
L 76.594276 283.701649 
L 76.766873 283.699507 
L 76.939469 283.697364 
L 77.112066 283.695222 
L 77.284663 283.69308 
L 77.45726 283.690938 
L 77.629856 283.688796 
L 77.802453 283.686654 
L 77.97505 283.684512 
L 78.147647 283.682369 
L 78.320244 283.680227 
L 78.49284 283.678085 
L 78.665437 283.675943 
L 78.838034 283.673801 
L 79.010631 283.671659 
L 79.183227 283.669516 
L 79.355824 283.667374 
L 79.528421 283.665232 
L 79.701018 283.66309 
L 79.873615 283.660948 
L 80.046211 283.658806 
L 80.218808 283.656664 
L 80.391405 283.654521 
L 80.564002 283.652379 
L 80.736599 283.650237 
L 80.909195 283.648095 
L 81.081792 283.645953 
L 81.254389 283.643811 
L 81.426986 283.641669 
L 81.599582 283.639526 
L 81.772179 283.637384 
L 81.944776 283.635242 
L 82.117373 283.6331 
L 82.28997 283.630958 
L 82.462566 283.628816 
L 82.635163 283.626673 
L 82.80776 283.624531 
L 82.980357 283.622389 
L 83.152953 283.620247 
L 83.32555 283.618105 
L 83.498147 283.615963 
L 83.670744 283.613821 
L 83.843341 283.611678 
L 84.015937 283.609536 
L 84.188534 283.607394 
L 84.361131 283.605252 
L 84.533728 283.60311 
L 84.706324 283.600968 
L 84.878921 283.598825 
L 85.051518 283.596683 
L 85.224115 283.594541 
L 85.396712 283.592399 
L 85.569308 283.590257 
L 85.741905 283.588115 
L 85.914502 283.585973 
L 86.087099 283.58383 
L 86.259696 283.581688 
L 86.432292 283.579546 
L 86.604889 283.577404 
L 86.777486 283.575262 
L 86.950083 283.57312 
L 87.122679 283.570978 
L 87.295276 283.568835 
L 87.467873 283.566693 
L 87.64047 283.564551 
L 87.813067 283.562409 
L 87.985663 283.560267 
L 88.15826 283.558125 
L 88.330857 283.555982 
L 88.503454 283.55384 
L 88.67605 283.551698 
L 88.848647 283.549556 
L 89.021244 283.547414 
L 89.193841 283.545272 
L 89.366438 283.54313 
L 89.539034 283.540987 
L 89.711631 283.538845 
L 89.884228 283.536703 
L 90.056825 283.534561 
L 90.229421 283.532419 
L 90.402018 283.530277 
L 90.574615 283.528135 
L 90.747212 283.525992 
L 90.919809 283.52385 
" style="fill:none;stroke:#0000ff;stroke-linecap:square;stroke-width:1.5;"/>
   </g>
   <g id="line2d_18">
    <path clip-path="url(#p4a0f3d96fe)" d="M 90.919809 282.986798 
L 91.092405 282.992963 
L 91.265002 282.999127 
L 91.437599 283.005291 
L 91.610196 283.011455 
L 91.782793 283.01762 
L 91.955389 283.023784 
L 92.127986 283.029948 
L 92.300583 283.036112 
L 92.47318 283.042277 
L 92.645776 283.048441 
L 92.818373 283.054605 
L 92.99097 283.06077 
L 93.163567 283.066934 
L 93.336164 283.073098 
L 93.50876 283.079262 
L 93.681357 283.085427 
L 93.853954 283.091591 
L 94.026551 283.097755 
L 94.199147 283.103919 
L 94.371744 283.110084 
L 94.544341 283.116248 
L 94.716938 283.122412 
L 94.889535 283.128577 
L 95.062131 283.134741 
L 95.234728 283.140905 
L 95.407325 283.147069 
L 95.579922 283.153234 
L 95.752518 283.159398 
L 95.925115 283.165562 
L 96.097712 283.171726 
L 96.270309 283.177891 
L 96.442906 283.184055 
L 96.615502 283.190219 
L 96.788099 283.196383 
L 96.960696 283.202548 
L 97.133293 283.208712 
L 97.30589 283.214876 
L 97.478486 283.221041 
L 97.651083 283.227205 
L 97.82368 283.233369 
L 97.996277 283.239533 
L 98.168873 283.245698 
L 98.34147 283.251862 
L 98.514067 283.258026 
L 98.686664 283.26419 
L 98.859261 283.270355 
L 99.031857 283.276519 
L 99.204454 283.282683 
L 99.377051 283.288848 
L 99.549648 283.295012 
L 99.722244 283.301176 
L 99.894841 283.30734 
L 100.067438 283.313505 
L 100.240035 283.319669 
L 100.412632 283.325833 
L 100.585228 283.331997 
L 100.757825 283.338162 
L 100.930422 283.344326 
L 101.103019 283.35049 
L 101.275615 283.356655 
L 101.448212 283.362819 
L 101.620809 283.368983 
L 101.793406 283.375147 
L 101.966003 283.381312 
L 102.138599 283.387476 
L 102.311196 283.39364 
L 102.483793 283.399804 
L 102.65639 283.405969 
L 102.828987 283.412133 
L 103.001583 283.418297 
L 103.17418 283.424461 
L 103.346777 283.430626 
L 103.519374 283.43679 
L 103.69197 283.442954 
L 103.864567 283.449119 
L 104.037164 283.455283 
L 104.209761 283.461447 
L 104.382358 283.467611 
L 104.554954 283.473776 
L 104.727551 283.47994 
L 104.900148 283.486104 
L 105.072745 283.492268 
L 105.245341 283.498433 
L 105.417938 283.504597 
L 105.590535 283.510761 
L 105.763132 283.516926 
L 105.935729 283.52309 
L 106.108325 283.529254 
L 106.280922 283.535418 
L 106.453519 283.541583 
L 106.626116 283.547747 
L 106.798712 283.553911 
L 106.971309 283.560075 
L 107.143906 283.56624 
L 107.316503 283.572404 
L 107.4891 283.578568 
L 107.661696 283.584732 
L 107.834293 283.590897 
L 108.00689 283.597061 
" style="fill:none;stroke:#0000ff;stroke-linecap:square;stroke-width:1.5;"/>
   </g>
   <g id="line2d_19">
    <path clip-path="url(#p4a0f3d96fe)" d="M 108.00689 283.440582 
L 108.179487 283.469063 
L 108.352084 283.497544 
L 108.52468 283.526026 
L 108.697277 283.554507 
L 108.869874 283.582989 
L 109.042471 283.61147 
L 109.215067 283.639952 
L 109.387664 283.668433 
L 109.560261 283.696914 
L 109.732858 283.725396 
L 109.905455 283.753877 
L 110.078051 283.782359 
L 110.250648 283.81084 
L 110.423245 283.839322 
L 110.595842 283.867803 
L 110.768438 283.896284 
L 110.941035 283.924766 
L 111.113632 283.953247 
L 111.286229 283.981729 
L 111.458826 284.01021 
L 111.631422 284.038691 
L 111.804019 284.067173 
L 111.976616 284.095654 
L 112.149213 284.124136 
L 112.321809 284.152617 
L 112.494406 284.181099 
L 112.667003 284.20958 
L 112.8396 284.238061 
L 113.012197 284.266543 
L 113.184793 284.295024 
L 113.35739 284.323506 
L 113.529987 284.351987 
L 113.702584 284.380469 
L 113.875181 284.40895 
L 114.047777 284.437431 
L 114.220374 284.465913 
L 114.392971 284.494394 
L 114.565568 284.522876 
L 114.738164 284.551357 
L 114.910761 284.579839 
L 115.083358 284.60832 
L 115.255955 284.636801 
L 115.428552 284.665283 
L 115.601148 284.693764 
L 115.773745 284.722246 
L 115.946342 284.750727 
L 116.118939 284.779209 
L 116.291535 284.80769 
L 116.464132 284.836171 
L 116.636729 284.864653 
L 116.809326 284.893134 
L 116.981923 284.921616 
L 117.154519 284.950097 
L 117.327116 284.978579 
L 117.499713 285.00706 
L 117.67231 285.035541 
L 117.844906 285.064023 
L 118.017503 285.092504 
L 118.1901 285.120986 
L 118.362697 285.149467 
L 118.535294 285.177949 
L 118.70789 285.20643 
L 118.880487 285.234911 
L 119.053084 285.263393 
L 119.225681 285.291874 
L 119.398278 285.320356 
L 119.570874 285.348837 
L 119.743471 285.377319 
L 119.916068 285.4058 
L 120.088665 285.434281 
L 120.261261 285.462763 
L 120.433858 285.491244 
L 120.606455 285.519726 
L 120.779052 285.548207 
L 120.951649 285.576689 
L 121.124245 285.60517 
L 121.296842 285.633651 
L 121.469439 285.662133 
L 121.642036 285.690614 
L 121.814632 285.719096 
L 121.987229 285.747577 
L 122.159826 285.776059 
L 122.332423 285.80454 
L 122.50502 285.833021 
L 122.677616 285.861503 
L 122.850213 285.889984 
L 123.02281 285.918466 
L 123.195407 285.946947 
L 123.368003 285.975428 
L 123.5406 286.00391 
L 123.713197 286.032391 
L 123.885794 286.060873 
L 124.058391 286.089354 
L 124.230987 286.117836 
L 124.403584 286.146317 
L 124.576181 286.174798 
L 124.748778 286.20328 
L 124.921374 286.231761 
L 125.093971 286.260243 
" style="fill:none;stroke:#0000ff;stroke-linecap:square;stroke-width:1.5;"/>
   </g>
   <g id="line2d_20">
    <path clip-path="url(#p4a0f3d96fe)" d="M 125.093971 286.84686 
L 125.266568 286.888969 
L 125.439165 286.931078 
L 125.611762 286.973187 
L 125.784358 287.015296 
L 125.956955 287.057405 
L 126.129552 287.099514 
L 126.302149 287.141623 
L 126.474746 287.183732 
L 126.647342 287.225841 
L 126.819939 287.26795 
L 126.992536 287.310058 
L 127.165133 287.352167 
L 127.337729 287.394276 
L 127.510326 287.436385 
L 127.682923 287.478494 
L 127.85552 287.520603 
L 128.028117 287.562712 
L 128.200713 287.604821 
L 128.37331 287.64693 
L 128.545907 287.689039 
L 128.718504 287.731148 
L 128.8911 287.773257 
L 129.063697 287.815366 
L 129.236294 287.857475 
L 129.408891 287.899583 
L 129.581488 287.941692 
L 129.754084 287.983801 
L 129.926681 288.02591 
L 130.099278 288.068019 
L 130.271875 288.110128 
L 130.444472 288.152237 
L 130.617068 288.194346 
L 130.789665 288.236455 
L 130.962262 288.278564 
L 131.134859 288.320673 
L 131.307455 288.362782 
L 131.480052 288.404891 
L 131.652649 288.446999 
L 131.825246 288.489108 
L 131.997843 288.531217 
L 132.170439 288.573326 
L 132.343036 288.615435 
L 132.515633 288.657544 
L 132.68823 288.699653 
L 132.860826 288.741762 
L 133.033423 288.783871 
L 133.20602 288.82598 
L 133.378617 288.868089 
L 133.551214 288.910198 
L 133.72381 288.952307 
L 133.896407 288.994416 
L 134.069004 289.036524 
L 134.241601 289.078633 
L 134.414197 289.120742 
L 134.586794 289.162851 
L 134.759391 289.20496 
L 134.931988 289.247069 
L 135.104585 289.289178 
L 135.277181 289.331287 
L 135.449778 289.373396 
L 135.622375 289.415505 
L 135.794972 289.457614 
L 135.967569 289.499723 
L 136.140165 289.541832 
L 136.312762 289.583941 
L 136.485359 289.626049 
L 136.657956 289.668158 
L 136.830552 289.710267 
L 137.003149 289.752376 
L 137.175746 289.794485 
L 137.348343 289.836594 
L 137.52094 289.878703 
L 137.693536 289.920812 
L 137.866133 289.962921 
L 138.03873 290.00503 
L 138.211327 290.047139 
L 138.383923 290.089248 
L 138.55652 290.131357 
L 138.729117 290.173466 
L 138.901714 290.215574 
L 139.074311 290.257683 
L 139.246907 290.299792 
L 139.419504 290.341901 
L 139.592101 290.38401 
L 139.764698 290.426119 
L 139.937294 290.468228 
L 140.109891 290.510337 
L 140.282488 290.552446 
L 140.455085 290.594555 
L 140.627682 290.636664 
L 140.800278 290.678773 
L 140.972875 290.720882 
L 141.145472 290.76299 
L 141.318069 290.805099 
L 141.490665 290.847208 
L 141.663262 290.889317 
L 141.835859 290.931426 
L 142.008456 290.973535 
L 142.181053 291.015644 
" style="fill:none;stroke:#0000ff;stroke-linecap:square;stroke-width:1.5;"/>
   </g>
   <g id="line2d_21">
    <path clip-path="url(#p4a0f3d96fe)" d="M 142.181053 292.265965 
L 142.353649 292.284591 
L 142.526246 292.303218 
L 142.698843 292.321844 
L 142.87144 292.340471 
L 143.044037 292.359098 
L 143.216633 292.377724 
L 143.38923 292.396351 
L 143.561827 292.414977 
L 143.734424 292.433604 
L 143.90702 292.45223 
L 144.079617 292.470857 
L 144.252214 292.489484 
L 144.424811 292.50811 
L 144.597408 292.526737 
L 144.770004 292.545363 
L 144.942601 292.56399 
L 145.115198 292.582616 
L 145.287795 292.601243 
L 145.460391 292.619869 
L 145.632988 292.638496 
L 145.805585 292.657123 
L 145.978182 292.675749 
L 146.150779 292.694376 
L 146.323375 292.713002 
L 146.495972 292.731629 
L 146.668569 292.750255 
L 146.841166 292.768882 
L 147.013763 292.787509 
L 147.186359 292.806135 
L 147.358956 292.824762 
L 147.531553 292.843388 
L 147.70415 292.862015 
L 147.876746 292.880641 
L 148.049343 292.899268 
L 148.22194 292.917895 
L 148.394537 292.936521 
L 148.567134 292.955148 
L 148.73973 292.973774 
L 148.912327 292.992401 
L 149.084924 293.011027 
L 149.257521 293.029654 
L 149.430117 293.04828 
L 149.602714 293.066907 
L 149.775311 293.085534 
L 149.947908 293.10416 
L 150.120505 293.122787 
L 150.293101 293.141413 
L 150.465698 293.16004 
L 150.638295 293.178666 
L 150.810892 293.197293 
L 150.983488 293.21592 
L 151.156085 293.234546 
L 151.328682 293.253173 
L 151.501279 293.271799 
L 151.673876 293.290426 
L 151.846472 293.309052 
L 152.019069 293.327679 
L 152.191666 293.346306 
L 152.364263 293.364932 
L 152.53686 293.383559 
L 152.709456 293.402185 
L 152.882053 293.420812 
L 153.05465 293.439438 
L 153.227247 293.458065 
L 153.399843 293.476691 
L 153.57244 293.495318 
L 153.745037 293.513945 
L 153.917634 293.532571 
L 154.090231 293.551198 
L 154.262827 293.569824 
L 154.435424 293.588451 
L 154.608021 293.607077 
L 154.780618 293.625704 
L 154.953214 293.644331 
L 155.125811 293.662957 
L 155.298408 293.681584 
L 155.471005 293.70021 
L 155.643602 293.718837 
L 155.816198 293.737463 
L 155.988795 293.75609 
L 156.161392 293.774717 
L 156.333989 293.793343 
L 156.506585 293.81197 
L 156.679182 293.830596 
L 156.851779 293.849223 
L 157.024376 293.867849 
L 157.196973 293.886476 
L 157.369569 293.905102 
L 157.542166 293.923729 
L 157.714763 293.942356 
L 157.88736 293.960982 
L 158.059956 293.979609 
L 158.232553 293.998235 
L 158.40515 294.016862 
L 158.577747 294.035488 
L 158.750344 294.054115 
L 158.92294 294.072742 
L 159.095537 294.091368 
L 159.268134 294.109995 
" style="fill:none;stroke:#0000ff;stroke-linecap:square;stroke-width:1.5;"/>
   </g>
   <g id="line2d_22">
    <path clip-path="url(#p4a0f3d96fe)" d="M 159.268134 295.488 
L 159.440731 295.430047 
L 159.613328 295.372093 
L 159.785924 295.31414 
L 159.958521 295.256187 
L 160.131118 295.198234 
L 160.303715 295.14028 
L 160.476311 295.082327 
L 160.648908 295.024374 
L 160.821505 294.96642 
L 160.994102 294.908467 
L 161.166699 294.850514 
L 161.339295 294.792561 
L 161.511892 294.734607 
L 161.684489 294.676654 
L 161.857086 294.618701 
L 162.029682 294.560747 
L 162.202279 294.502794 
L 162.374876 294.444841 
L 162.547473 294.386887 
L 162.72007 294.328934 
L 162.892666 294.270981 
L 163.065263 294.213028 
L 163.23786 294.155074 
L 163.410457 294.097121 
L 163.583054 294.039168 
L 163.75565 293.981214 
L 163.928247 293.923261 
L 164.100844 293.865308 
L 164.273441 293.807355 
L 164.446037 293.749401 
L 164.618634 293.691448 
L 164.791231 293.633495 
L 164.963828 293.575541 
L 165.136425 293.517588 
L 165.309021 293.459635 
L 165.481618 293.401682 
L 165.654215 293.343728 
L 165.826812 293.285775 
L 165.999408 293.227822 
L 166.172005 293.169868 
L 166.344602 293.111915 
L 166.517199 293.053962 
L 166.689796 292.996008 
L 166.862392 292.938055 
L 167.034989 292.880102 
L 167.207586 292.822149 
L 167.380183 292.764195 
L 167.552779 292.706242 
L 167.725376 292.648289 
L 167.897973 292.590335 
L 168.07057 292.532382 
L 168.243167 292.474429 
L 168.415763 292.416476 
L 168.58836 292.358522 
L 168.760957 292.300569 
L 168.933554 292.242616 
L 169.10615 292.184662 
L 169.278747 292.126709 
L 169.451344 292.068756 
L 169.623941 292.010803 
L 169.796538 291.952849 
L 169.969134 291.894896 
L 170.141731 291.836943 
L 170.314328 291.778989 
L 170.486925 291.721036 
L 170.659522 291.663083 
L 170.832118 291.605129 
L 171.004715 291.547176 
L 171.177312 291.489223 
L 171.349909 291.43127 
L 171.522505 291.373316 
L 171.695102 291.315363 
L 171.867699 291.25741 
L 172.040296 291.199456 
L 172.212893 291.141503 
L 172.385489 291.08355 
L 172.558086 291.025597 
L 172.730683 290.967643 
L 172.90328 290.90969 
L 173.075876 290.851737 
L 173.248473 290.793783 
L 173.42107 290.73583 
L 173.593667 290.677877 
L 173.766264 290.619924 
L 173.93886 290.56197 
L 174.111457 290.504017 
L 174.284054 290.446064 
L 174.456651 290.38811 
L 174.629247 290.330157 
L 174.801844 290.272204 
L 174.974441 290.214251 
L 175.147038 290.156297 
L 175.319635 290.098344 
L 175.492231 290.040391 
L 175.664828 289.982437 
L 175.837425 289.924484 
L 176.010022 289.866531 
L 176.182619 289.808577 
L 176.355215 289.750624 
" style="fill:none;stroke:#0000ff;stroke-linecap:square;stroke-width:1.5;"/>
   </g>
   <g id="line2d_23">
    <path clip-path="url(#p4a0f3d96fe)" d="M 176.355215 290.56087 
L 176.527812 290.38213 
L 176.700409 290.203389 
L 176.873006 290.024649 
L 177.045602 289.845909 
L 177.218199 289.667169 
L 177.390796 289.488428 
L 177.563393 289.309688 
L 177.73599 289.130948 
L 177.908586 288.952208 
L 178.081183 288.773468 
L 178.25378 288.594727 
L 178.426377 288.415987 
L 178.598973 288.237247 
L 178.77157 288.058507 
L 178.944167 287.879766 
L 179.116764 287.701026 
L 179.289361 287.522286 
L 179.461957 287.343546 
L 179.634554 287.164805 
L 179.807151 286.986065 
L 179.979748 286.807325 
L 180.152345 286.628585 
L 180.324941 286.449844 
L 180.497538 286.271104 
L 180.670135 286.092364 
L 180.842732 285.913624 
L 181.015328 285.734883 
L 181.187925 285.556143 
L 181.360522 285.377403 
L 181.533119 285.198663 
L 181.705716 285.019922 
L 181.878312 284.841182 
L 182.050909 284.662442 
L 182.223506 284.483702 
L 182.396103 284.304962 
L 182.568699 284.126221 
L 182.741296 283.947481 
L 182.913893 283.768741 
L 183.08649 283.590001 
L 183.259087 283.41126 
L 183.431683 283.23252 
L 183.60428 283.05378 
L 183.776877 282.87504 
L 183.949474 282.696299 
L 184.12207 282.517559 
L 184.294667 282.338819 
L 184.467264 282.160079 
L 184.639861 281.981338 
L 184.812458 281.802598 
L 184.985054 281.623858 
L 185.157651 281.445118 
L 185.330248 281.266377 
L 185.502845 281.087637 
L 185.675441 280.908897 
L 185.848038 280.730157 
L 186.020635 280.551417 
L 186.193232 280.372676 
L 186.365829 280.193936 
L 186.538425 280.015196 
L 186.711022 279.836456 
L 186.883619 279.657715 
L 187.056216 279.478975 
L 187.228813 279.300235 
L 187.401409 279.121495 
L 187.574006 278.942754 
L 187.746603 278.764014 
L 187.9192 278.585274 
L 188.091796 278.406534 
L 188.264393 278.227793 
L 188.43699 278.049053 
L 188.609587 277.870313 
L 188.782184 277.691573 
L 188.95478 277.512832 
L 189.127377 277.334092 
L 189.299974 277.155352 
L 189.472571 276.976612 
L 189.645167 276.797871 
L 189.817764 276.619131 
L 189.990361 276.440391 
L 190.162958 276.261651 
L 190.335555 276.082911 
L 190.508151 275.90417 
L 190.680748 275.72543 
L 190.853345 275.54669 
L 191.025942 275.36795 
L 191.198538 275.189209 
L 191.371135 275.010469 
L 191.543732 274.831729 
L 191.716329 274.652989 
L 191.888926 274.474248 
L 192.061522 274.295508 
L 192.234119 274.116768 
L 192.406716 273.938028 
L 192.579313 273.759287 
L 192.75191 273.580547 
L 192.924506 273.401807 
L 193.097103 273.223067 
L 193.2697 273.044326 
L 193.442297 272.865586 
" style="fill:none;stroke:#0000ff;stroke-linecap:square;stroke-width:1.5;"/>
   </g>
   <g id="line2d_24">
    <path clip-path="url(#p4a0f3d96fe)" d="M 193.442297 272.632948 
L 193.614893 272.321752 
L 193.78749 272.010556 
L 193.960087 271.69936 
L 194.132684 271.388164 
L 194.305281 271.076968 
L 194.477877 270.765772 
L 194.650474 270.454576 
L 194.823071 270.14338 
L 194.995668 269.832184 
L 195.168264 269.520988 
L 195.340861 269.209792 
L 195.513458 268.898596 
L 195.686055 268.5874 
L 195.858652 268.276204 
L 196.031248 267.965008 
L 196.203845 267.653811 
L 196.376442 267.342615 
L 196.549039 267.031419 
L 196.721636 266.720223 
L 196.894232 266.409027 
L 197.066829 266.097831 
L 197.239426 265.786635 
L 197.412023 265.475439 
L 197.584619 265.164243 
L 197.757216 264.853047 
L 197.929813 264.541851 
L 198.10241 264.230655 
L 198.275007 263.919459 
L 198.447603 263.608263 
L 198.6202 263.297067 
L 198.792797 262.985871 
L 198.965394 262.674675 
L 199.13799 262.363479 
L 199.310587 262.052283 
L 199.483184 261.741087 
L 199.655781 261.429891 
L 199.828378 261.118695 
L 200.000974 260.807499 
L 200.173571 260.496303 
L 200.346168 260.185107 
L 200.518765 259.873911 
L 200.691361 259.562715 
L 200.863958 259.251519 
L 201.036555 258.940323 
L 201.209152 258.629127 
L 201.381749 258.317931 
L 201.554345 258.006735 
L 201.726942 257.695539 
L 201.899539 257.384343 
L 202.072136 257.073147 
L 202.244732 256.761951 
L 202.417329 256.450755 
L 202.589926 256.139559 
L 202.762523 255.828363 
L 202.93512 255.517167 
L 203.107716 255.20597 
L 203.280313 254.894774 
L 203.45291 254.583578 
L 203.625507 254.272382 
L 203.798104 253.961186 
L 203.9707 253.64999 
L 204.143297 253.338794 
L 204.315894 253.027598 
L 204.488491 252.716402 
L 204.661087 252.405206 
L 204.833684 252.09401 
L 205.006281 251.782814 
L 205.178878 251.471618 
L 205.351475 251.160422 
L 205.524071 250.849226 
L 205.696668 250.53803 
L 205.869265 250.226834 
L 206.041862 249.915638 
L 206.214458 249.604442 
L 206.387055 249.293246 
L 206.559652 248.98205 
L 206.732249 248.670854 
L 206.904846 248.359658 
L 207.077442 248.048462 
L 207.250039 247.737266 
L 207.422636 247.42607 
L 207.595233 247.114874 
L 207.767829 246.803678 
L 207.940426 246.492482 
L 208.113023 246.181286 
L 208.28562 245.87009 
L 208.458217 245.558894 
L 208.630813 245.247698 
L 208.80341 244.936502 
L 208.976007 244.625306 
L 209.148604 244.31411 
L 209.321201 244.002914 
L 209.493797 243.691718 
L 209.666394 243.380522 
L 209.838991 243.069326 
L 210.011588 242.75813 
L 210.184184 242.446933 
L 210.356781 242.135737 
L 210.529378 241.824541 
" style="fill:none;stroke:#0000ff;stroke-linecap:square;stroke-width:1.5;"/>
   </g>
   <g id="line2d_25">
    <path clip-path="url(#p4a0f3d96fe)" d="M 210.529378 240.535416 
L 210.701975 240.122507 
L 210.874572 239.709598 
L 211.047168 239.296689 
L 211.219765 238.883779 
L 211.392362 238.47087 
L 211.564959 238.057961 
L 211.737555 237.645052 
L 211.910152 237.232143 
L 212.082749 236.819234 
L 212.255346 236.406325 
L 212.427943 235.993416 
L 212.600539 235.580507 
L 212.773136 235.167598 
L 212.945733 234.754688 
L 213.11833 234.341779 
L 213.290927 233.92887 
L 213.463523 233.515961 
L 213.63612 233.103052 
L 213.808717 232.690143 
L 213.981314 232.277234 
L 214.15391 231.864325 
L 214.326507 231.451416 
L 214.499104 231.038506 
L 214.671701 230.625597 
L 214.844298 230.212688 
L 215.016894 229.799779 
L 215.189491 229.38687 
L 215.362088 228.973961 
L 215.534685 228.561052 
L 215.707281 228.148143 
L 215.879878 227.735234 
L 216.052475 227.322324 
L 216.225072 226.909415 
L 216.397669 226.496506 
L 216.570265 226.083597 
L 216.742862 225.670688 
L 216.915459 225.257779 
L 217.088056 224.84487 
L 217.260652 224.431961 
L 217.433249 224.019052 
L 217.605846 223.606142 
L 217.778443 223.193233 
L 217.95104 222.780324 
L 218.123636 222.367415 
L 218.296233 221.954506 
L 218.46883 221.541597 
L 218.641427 221.128688 
L 218.814023 220.715779 
L 218.98662 220.30287 
L 219.159217 219.88996 
L 219.331814 219.477051 
L 219.504411 219.064142 
L 219.677007 218.651233 
L 219.849604 218.238324 
L 220.022201 217.825415 
L 220.194798 217.412506 
L 220.367395 216.999597 
L 220.539991 216.586688 
L 220.712588 216.173778 
L 220.885185 215.760869 
L 221.057782 215.34796 
L 221.230378 214.935051 
L 221.402975 214.522142 
L 221.575572 214.109233 
L 221.748169 213.696324 
L 221.920766 213.283415 
L 222.093362 212.870506 
L 222.265959 212.457596 
L 222.438556 212.044687 
L 222.611153 211.631778 
L 222.783749 211.218869 
L 222.956346 210.80596 
L 223.128943 210.393051 
L 223.30154 209.980142 
L 223.474137 209.567233 
L 223.646733 209.154324 
L 223.81933 208.741414 
L 223.991927 208.328505 
L 224.164524 207.915596 
L 224.33712 207.502687 
L 224.509717 207.089778 
L 224.682314 206.676869 
L 224.854911 206.26396 
L 225.027508 205.851051 
L 225.200104 205.438142 
L 225.372701 205.025232 
L 225.545298 204.612323 
L 225.717895 204.199414 
L 225.890492 203.786505 
L 226.063088 203.373596 
L 226.235685 202.960687 
L 226.408282 202.547778 
L 226.580879 202.134869 
L 226.753475 201.72196 
L 226.926072 201.309051 
L 227.098669 200.896141 
L 227.271266 200.483232 
L 227.443863 200.070323 
L 227.616459 199.657414 
" style="fill:none;stroke:#0000ff;stroke-linecap:square;stroke-width:1.5;"/>
   </g>
   <g id="line2d_26">
    <path clip-path="url(#p4a0f3d96fe)" d="M 227.616459 197.754288 
L 227.789056 197.304156 
L 227.961653 196.854024 
L 228.13425 196.403892 
L 228.306846 195.953759 
L 228.479443 195.503627 
L 228.65204 195.053495 
L 228.824637 194.603363 
L 228.997234 194.15323 
L 229.16983 193.703098 
L 229.342427 193.252966 
L 229.515024 192.802833 
L 229.687621 192.352701 
L 229.860217 191.902569 
L 230.032814 191.452437 
L 230.205411 191.002304 
L 230.378008 190.552172 
L 230.550605 190.10204 
L 230.723201 189.651907 
L 230.895798 189.201775 
L 231.068395 188.751643 
L 231.240992 188.301511 
L 231.413589 187.851378 
L 231.586185 187.401246 
L 231.758782 186.951114 
L 231.931379 186.500982 
L 232.103976 186.050849 
L 232.276572 185.600717 
L 232.449169 185.150585 
L 232.621766 184.700452 
L 232.794363 184.25032 
L 232.96696 183.800188 
L 233.139556 183.350056 
L 233.312153 182.899923 
L 233.48475 182.449791 
L 233.657347 181.999659 
L 233.829943 181.549527 
L 234.00254 181.099394 
L 234.175137 180.649262 
L 234.347734 180.19913 
L 234.520331 179.748997 
L 234.692927 179.298865 
L 234.865524 178.848733 
L 235.038121 178.398601 
L 235.210718 177.948468 
L 235.383314 177.498336 
L 235.555911 177.048204 
L 235.728508 176.598071 
L 235.901105 176.147939 
L 236.073702 175.697807 
L 236.246298 175.247675 
L 236.418895 174.797542 
L 236.591492 174.34741 
L 236.764089 173.897278 
L 236.936686 173.447146 
L 237.109282 172.997013 
L 237.281879 172.546881 
L 237.454476 172.096749 
L 237.627073 171.646616 
L 237.799669 171.196484 
L 237.972266 170.746352 
L 238.144863 170.29622 
L 238.31746 169.846087 
L 238.490057 169.395955 
L 238.662653 168.945823 
L 238.83525 168.49569 
L 239.007847 168.045558 
L 239.180444 167.595426 
L 239.35304 167.145294 
L 239.525637 166.695161 
L 239.698234 166.245029 
L 239.870831 165.794897 
L 240.043428 165.344765 
L 240.216024 164.894632 
L 240.388621 164.4445 
L 240.561218 163.994368 
L 240.733815 163.544235 
L 240.906411 163.094103 
L 241.079008 162.643971 
L 241.251605 162.193839 
L 241.424202 161.743706 
L 241.596799 161.293574 
L 241.769395 160.843442 
L 241.941992 160.393309 
L 242.114589 159.943177 
L 242.287186 159.493045 
L 242.459783 159.042913 
L 242.632379 158.59278 
L 242.804976 158.142648 
L 242.977573 157.692516 
L 243.15017 157.242384 
L 243.322766 156.792251 
L 243.495363 156.342119 
L 243.66796 155.891987 
L 243.840557 155.441854 
L 244.013154 154.991722 
L 244.18575 154.54159 
L 244.358347 154.091458 
L 244.530944 153.641325 
L 244.703541 153.191193 
" style="fill:none;stroke:#0000ff;stroke-linecap:square;stroke-width:1.5;"/>
   </g>
   <g id="line2d_27">
    <path clip-path="url(#p4a0f3d96fe)" d="M 244.703541 151.352868 
L 244.876137 150.941097 
L 245.048734 150.529327 
L 245.221331 150.117556 
L 245.393928 149.705786 
L 245.566525 149.294015 
L 245.739121 148.882244 
L 245.911718 148.470474 
L 246.084315 148.058703 
L 246.256912 147.646933 
L 246.429508 147.235162 
L 246.602105 146.823392 
L 246.774702 146.411621 
L 246.947299 145.99985 
L 247.119896 145.58808 
L 247.292492 145.176309 
L 247.465089 144.764539 
L 247.637686 144.352768 
L 247.810283 143.940997 
L 247.98288 143.529227 
L 248.155476 143.117456 
L 248.328073 142.705686 
L 248.50067 142.293915 
L 248.673267 141.882144 
L 248.845863 141.470374 
L 249.01846 141.058603 
L 249.191057 140.646833 
L 249.363654 140.235062 
L 249.536251 139.823292 
L 249.708847 139.411521 
L 249.881444 138.99975 
L 250.054041 138.58798 
L 250.226638 138.176209 
L 250.399234 137.764439 
L 250.571831 137.352668 
L 250.744428 136.940897 
L 250.917025 136.529127 
L 251.089622 136.117356 
L 251.262218 135.705586 
L 251.434815 135.293815 
L 251.607412 134.882044 
L 251.780009 134.470274 
L 251.952605 134.058503 
L 252.125202 133.646733 
L 252.297799 133.234962 
L 252.470396 132.823192 
L 252.642993 132.411421 
L 252.815589 131.99965 
L 252.988186 131.58788 
L 253.160783 131.176109 
L 253.33338 130.764339 
L 253.505977 130.352568 
L 253.678573 129.940797 
L 253.85117 129.529027 
L 254.023767 129.117256 
L 254.196364 128.705486 
L 254.36896 128.293715 
L 254.541557 127.881944 
L 254.714154 127.470174 
L 254.886751 127.058403 
L 255.059348 126.646633 
L 255.231944 126.234862 
L 255.404541 125.823092 
L 255.577138 125.411321 
L 255.749735 124.99955 
L 255.922331 124.58778 
L 256.094928 124.176009 
L 256.267525 123.764239 
L 256.440122 123.352468 
L 256.612719 122.940697 
L 256.785315 122.528927 
L 256.957912 122.117156 
L 257.130509 121.705386 
L 257.303106 121.293615 
L 257.475702 120.881844 
L 257.648299 120.470074 
L 257.820896 120.058303 
L 257.993493 119.646533 
L 258.16609 119.234762 
L 258.338686 118.822992 
L 258.511283 118.411221 
L 258.68388 117.99945 
L 258.856477 117.58768 
L 259.029073 117.175909 
L 259.20167 116.764139 
L 259.374267 116.352368 
L 259.546864 115.940597 
L 259.719461 115.528827 
L 259.892057 115.117056 
L 260.064654 114.705286 
L 260.237251 114.293515 
L 260.409848 113.881745 
L 260.582445 113.469974 
L 260.755041 113.058203 
L 260.927638 112.646433 
L 261.100235 112.234662 
L 261.272832 111.822892 
L 261.445428 111.411121 
L 261.618025 110.99935 
L 261.790622 110.58758 
" style="fill:none;stroke:#0000ff;stroke-linecap:square;stroke-width:1.5;"/>
   </g>
   <g id="line2d_28">
    <path clip-path="url(#p4a0f3d96fe)" d="M 261.790622 109.423973 
L 261.963219 109.111209 
L 262.135816 108.798446 
L 262.308412 108.485682 
L 262.481009 108.172918 
L 262.653606 107.860154 
L 262.826203 107.54739 
L 262.998799 107.234626 
L 263.171396 106.921863 
L 263.343993 106.609099 
L 263.51659 106.296335 
L 263.689187 105.983571 
L 263.861783 105.670807 
L 264.03438 105.358044 
L 264.206977 105.04528 
L 264.379574 104.732516 
L 264.552171 104.419752 
L 264.724767 104.106988 
L 264.897364 103.794224 
L 265.069961 103.481461 
L 265.242558 103.168697 
L 265.415154 102.855933 
L 265.587751 102.543169 
L 265.760348 102.230405 
L 265.932945 101.917642 
L 266.105542 101.604878 
L 266.278138 101.292114 
L 266.450735 100.97935 
L 266.623332 100.666586 
L 266.795929 100.353822 
L 266.968525 100.041059 
L 267.141122 99.728295 
L 267.313719 99.415531 
L 267.486316 99.102767 
L 267.658913 98.790003 
L 267.831509 98.47724 
L 268.004106 98.164476 
L 268.176703 97.851712 
L 268.3493 97.538948 
L 268.521896 97.226184 
L 268.694493 96.91342 
L 268.86709 96.600657 
L 269.039687 96.287893 
L 269.212284 95.975129 
L 269.38488 95.662365 
L 269.557477 95.349601 
L 269.730074 95.036838 
L 269.902671 94.724074 
L 270.075268 94.41131 
L 270.247864 94.098546 
L 270.420461 93.785782 
L 270.593058 93.473018 
L 270.765655 93.160255 
L 270.938251 92.847491 
L 271.110848 92.534727 
L 271.283445 92.221963 
L 271.456042 91.909199 
L 271.628639 91.596436 
L 271.801235 91.283672 
L 271.973832 90.970908 
L 272.146429 90.658144 
L 272.319026 90.34538 
L 272.491622 90.032616 
L 272.664219 89.719853 
L 272.836816 89.407089 
L 273.009413 89.094325 
L 273.18201 88.781561 
L 273.354606 88.468797 
L 273.527203 88.156034 
L 273.6998 87.84327 
L 273.872397 87.530506 
L 274.044993 87.217742 
L 274.21759 86.904978 
L 274.390187 86.592214 
L 274.562784 86.279451 
L 274.735381 85.966687 
L 274.907977 85.653923 
L 275.080574 85.341159 
L 275.253171 85.028395 
L 275.425768 84.715632 
L 275.598364 84.402868 
L 275.770961 84.090104 
L 275.943558 83.77734 
L 276.116155 83.464576 
L 276.288752 83.151812 
L 276.461348 82.839049 
L 276.633945 82.526285 
L 276.806542 82.213521 
L 276.979139 81.900757 
L 277.151736 81.587993 
L 277.324332 81.27523 
L 277.496929 80.962466 
L 277.669526 80.649702 
L 277.842123 80.336938 
L 278.014719 80.024174 
L 278.187316 79.71141 
L 278.359913 79.398647 
L 278.53251 79.085883 
L 278.705107 78.773119 
L 278.877703 78.460355 
" style="fill:none;stroke:#0000ff;stroke-linecap:square;stroke-width:1.5;"/>
   </g>
   <g id="line2d_29">
    <path clip-path="url(#p4a0f3d96fe)" d="M 278.877703 78.269748 
L 279.0503 78.083349 
L 279.222897 77.896949 
L 279.395494 77.71055 
L 279.56809 77.524151 
L 279.740687 77.337752 
L 279.913284 77.151353 
L 280.085881 76.964954 
L 280.258478 76.778554 
L 280.431074 76.592155 
L 280.603671 76.405756 
L 280.776268 76.219357 
L 280.948865 76.032958 
L 281.121462 75.846558 
L 281.294058 75.660159 
L 281.466655 75.47376 
L 281.639252 75.287361 
L 281.811849 75.100962 
L 281.984445 74.914562 
L 282.157042 74.728163 
L 282.329639 74.541764 
L 282.502236 74.355365 
L 282.674833 74.168966 
L 282.847429 73.982566 
L 283.020026 73.796167 
L 283.192623 73.609768 
L 283.36522 73.423369 
L 283.537816 73.23697 
L 283.710413 73.05057 
L 283.88301 72.864171 
L 284.055607 72.677772 
L 284.228204 72.491373 
L 284.4008 72.304974 
L 284.573397 72.118574 
L 284.745994 71.932175 
L 284.918591 71.745776 
L 285.091187 71.559377 
L 285.263784 71.372978 
L 285.436381 71.186578 
L 285.608978 71.000179 
L 285.781575 70.81378 
L 285.954171 70.627381 
L 286.126768 70.440982 
L 286.299365 70.254582 
L 286.471962 70.068183 
L 286.644559 69.881784 
L 286.817155 69.695385 
L 286.989752 69.508986 
L 287.162349 69.322587 
L 287.334946 69.136187 
L 287.507542 68.949788 
L 287.680139 68.763389 
L 287.852736 68.57699 
L 288.025333 68.390591 
L 288.19793 68.204191 
L 288.370526 68.017792 
L 288.543123 67.831393 
L 288.71572 67.644994 
L 288.888317 67.458595 
L 289.060913 67.272195 
L 289.23351 67.085796 
L 289.406107 66.899397 
L 289.578704 66.712998 
L 289.751301 66.526599 
L 289.923897 66.340199 
L 290.096494 66.1538 
L 290.269091 65.967401 
L 290.441688 65.781002 
L 290.614284 65.594603 
L 290.786881 65.408203 
L 290.959478 65.221804 
L 291.132075 65.035405 
L 291.304672 64.849006 
L 291.477268 64.662607 
L 291.649865 64.476207 
L 291.822462 64.289808 
L 291.995059 64.103409 
L 292.167655 63.91701 
L 292.340252 63.730611 
L 292.512849 63.544211 
L 292.685446 63.357812 
L 292.858043 63.171413 
L 293.030639 62.985014 
L 293.203236 62.798615 
L 293.375833 62.612215 
L 293.54843 62.425816 
L 293.721027 62.239417 
L 293.893623 62.053018 
L 294.06622 61.866619 
L 294.238817 61.680219 
L 294.411414 61.49382 
L 294.58401 61.307421 
L 294.756607 61.121022 
L 294.929204 60.934623 
L 295.101801 60.748224 
L 295.274398 60.561824 
L 295.446994 60.375425 
L 295.619591 60.189026 
L 295.792188 60.002627 
L 295.964785 59.816228 
" style="fill:none;stroke:#0000ff;stroke-linecap:square;stroke-width:1.5;"/>
   </g>
   <g id="line2d_30">
    <path clip-path="url(#p4a0f3d96fe)" d="M 295.964785 60.502247 
L 296.137381 60.432204 
L 296.309978 60.362161 
L 296.482575 60.292118 
L 296.655172 60.222075 
L 296.827769 60.152032 
L 297.000365 60.081989 
L 297.172962 60.011947 
L 297.345559 59.941904 
L 297.518156 59.871861 
L 297.690753 59.801818 
L 297.863349 59.731775 
L 298.035946 59.661732 
L 298.208543 59.591689 
L 298.38114 59.521646 
L 298.553736 59.451603 
L 298.726333 59.38156 
L 298.89893 59.311518 
L 299.071527 59.241475 
L 299.244124 59.171432 
L 299.41672 59.101389 
L 299.589317 59.031346 
L 299.761914 58.961303 
L 299.934511 58.89126 
L 300.107107 58.821217 
L 300.279704 58.751174 
L 300.452301 58.681131 
L 300.624898 58.611089 
L 300.797495 58.541046 
L 300.970091 58.471003 
L 301.142688 58.40096 
L 301.315285 58.330917 
L 301.487882 58.260874 
L 301.660478 58.190831 
L 301.833075 58.120788 
L 302.005672 58.050745 
L 302.178269 57.980703 
L 302.350866 57.91066 
L 302.523462 57.840617 
L 302.696059 57.770574 
L 302.868656 57.700531 
L 303.041253 57.630488 
L 303.21385 57.560445 
L 303.386446 57.490402 
L 303.559043 57.420359 
L 303.73164 57.350316 
L 303.904237 57.280274 
L 304.076833 57.210231 
L 304.24943 57.140188 
L 304.422027 57.070145 
L 304.594624 57.000102 
L 304.767221 56.930059 
L 304.939817 56.860016 
L 305.112414 56.789973 
L 305.285011 56.71993 
L 305.457608 56.649887 
L 305.630204 56.579845 
L 305.802801 56.509802 
L 305.975398 56.439759 
L 306.147995 56.369716 
L 306.320592 56.299673 
L 306.493188 56.22963 
L 306.665785 56.159587 
L 306.838382 56.089544 
L 307.010979 56.019501 
L 307.183575 55.949459 
L 307.356172 55.879416 
L 307.528769 55.809373 
L 307.701366 55.73933 
L 307.873963 55.669287 
L 308.046559 55.599244 
L 308.219156 55.529201 
L 308.391753 55.459158 
L 308.56435 55.389115 
L 308.736946 55.319072 
L 308.909543 55.24903 
L 309.08214 55.178987 
L 309.254737 55.108944 
L 309.427334 55.038901 
L 309.59993 54.968858 
L 309.772527 54.898815 
L 309.945124 54.828772 
L 310.117721 54.758729 
L 310.290318 54.688686 
L 310.462914 54.618643 
L 310.635511 54.548601 
L 310.808108 54.478558 
L 310.980705 54.408515 
L 311.153301 54.338472 
L 311.325898 54.268429 
L 311.498495 54.198386 
L 311.671092 54.128343 
L 311.843689 54.0583 
L 312.016285 53.988257 
L 312.188882 53.918214 
L 312.361479 53.848172 
L 312.534076 53.778129 
L 312.706672 53.708086 
L 312.879269 53.638043 
L 313.051866 53.568 
" style="fill:none;stroke:#0000ff;stroke-linecap:square;stroke-width:1.5;"/>
   </g>
   <g id="line2d_31">
    <path clip-path="url(#p4a0f3d96fe)" d="M 313.051866 54.729644 
L 313.224463 54.738631 
L 313.39706 54.747618 
L 313.569656 54.756604 
L 313.742253 54.765591 
L 313.91485 54.774578 
L 314.087447 54.783565 
L 314.260044 54.792552 
L 314.43264 54.801539 
L 314.605237 54.810526 
L 314.777834 54.819513 
L 314.950431 54.828499 
L 315.123027 54.837486 
L 315.295624 54.846473 
L 315.468221 54.85546 
L 315.640818 54.864447 
L 315.813415 54.873434 
L 315.986011 54.882421 
L 316.158608 54.891408 
L 316.331205 54.900394 
L 316.503802 54.909381 
L 316.676398 54.918368 
L 316.848995 54.927355 
L 317.021592 54.936342 
L 317.194189 54.945329 
L 317.366786 54.954316 
L 317.539382 54.963303 
L 317.711979 54.972289 
L 317.884576 54.981276 
L 318.057173 54.990263 
L 318.229769 54.99925 
L 318.402366 55.008237 
L 318.574963 55.017224 
L 318.74756 55.026211 
L 318.920157 55.035198 
L 319.092753 55.044184 
L 319.26535 55.053171 
L 319.437947 55.062158 
L 319.610544 55.071145 
L 319.78314 55.080132 
L 319.955737 55.089119 
L 320.128334 55.098106 
L 320.300931 55.107093 
L 320.473528 55.116079 
L 320.646124 55.125066 
L 320.818721 55.134053 
L 320.991318 55.14304 
L 321.163915 55.152027 
L 321.336512 55.161014 
L 321.509108 55.170001 
L 321.681705 55.178987 
L 321.854302 55.187974 
L 322.026899 55.196961 
L 322.199495 55.205948 
L 322.372092 55.214935 
L 322.544689 55.223922 
L 322.717286 55.232909 
L 322.889883 55.241896 
L 323.062479 55.250882 
L 323.235076 55.259869 
L 323.407673 55.268856 
L 323.58027 55.277843 
L 323.752866 55.28683 
L 323.925463 55.295817 
L 324.09806 55.304804 
L 324.270657 55.313791 
L 324.443254 55.322777 
L 324.61585 55.331764 
L 324.788447 55.340751 
L 324.961044 55.349738 
L 325.133641 55.358725 
L 325.306237 55.367712 
L 325.478834 55.376699 
L 325.651431 55.385686 
L 325.824028 55.394672 
L 325.996625 55.403659 
L 326.169221 55.412646 
L 326.341818 55.421633 
L 326.514415 55.43062 
L 326.687012 55.439607 
L 326.859609 55.448594 
L 327.032205 55.457581 
L 327.204802 55.466567 
L 327.377399 55.475554 
L 327.549996 55.484541 
L 327.722592 55.493528 
L 327.895189 55.502515 
L 328.067786 55.511502 
L 328.240383 55.520489 
L 328.41298 55.529476 
L 328.585576 55.538462 
L 328.758173 55.547449 
L 328.93077 55.556436 
L 329.103367 55.565423 
L 329.275963 55.57441 
L 329.44856 55.583397 
L 329.621157 55.592384 
L 329.793754 55.601371 
L 329.966351 55.610357 
L 330.138947 55.619344 
" style="fill:none;stroke:#0000ff;stroke-linecap:square;stroke-width:1.5;"/>
   </g>
   <g id="line2d_32">
    <path clip-path="url(#p4a0f3d96fe)" d="M 330.138947 56.751987 
L 330.311544 56.793654 
L 330.484141 56.835321 
L 330.656738 56.876989 
L 330.829335 56.918656 
L 331.001931 56.960324 
L 331.174528 57.001991 
L 331.347125 57.043659 
L 331.519722 57.085326 
L 331.692318 57.126993 
L 331.864915 57.168661 
L 332.037512 57.210328 
L 332.210109 57.251996 
L 332.382706 57.293663 
L 332.555302 57.335331 
L 332.727899 57.376998 
L 332.900496 57.418665 
L 333.073093 57.460333 
L 333.245689 57.502 
L 333.418286 57.543668 
L 333.590883 57.585335 
L 333.76348 57.627003 
L 333.936077 57.66867 
L 334.108673 57.710337 
L 334.28127 57.752005 
L 334.453867 57.793672 
L 334.626464 57.83534 
L 334.79906 57.877007 
L 334.971657 57.918675 
L 335.144254 57.960342 
L 335.316851 58.002009 
L 335.489448 58.043677 
L 335.662044 58.085344 
L 335.834641 58.127012 
L 336.007238 58.168679 
L 336.179835 58.210347 
L 336.352431 58.252014 
L 336.525028 58.293681 
L 336.697625 58.335349 
L 336.870222 58.377016 
L 337.042819 58.418684 
L 337.215415 58.460351 
L 337.388012 58.502018 
L 337.560609 58.543686 
L 337.733206 58.585353 
L 337.905803 58.627021 
L 338.078399 58.668688 
L 338.250996 58.710356 
L 338.423593 58.752023 
L 338.59619 58.79369 
L 338.768786 58.835358 
L 338.941383 58.877025 
L 339.11398 58.918693 
L 339.286577 58.96036 
L 339.459174 59.002028 
L 339.63177 59.043695 
L 339.804367 59.085362 
L 339.976964 59.12703 
L 340.149561 59.168697 
L 340.322157 59.210365 
L 340.494754 59.252032 
L 340.667351 59.2937 
L 340.839948 59.335367 
L 341.012545 59.377034 
L 341.185141 59.418702 
L 341.357738 59.460369 
L 341.530335 59.502037 
L 341.702932 59.543704 
L 341.875528 59.585372 
L 342.048125 59.627039 
L 342.220722 59.668706 
L 342.393319 59.710374 
L 342.565916 59.752041 
L 342.738512 59.793709 
L 342.911109 59.835376 
L 343.083706 59.877043 
L 343.256303 59.918711 
L 343.4289 59.960378 
L 343.601496 60.002046 
L 343.774093 60.043713 
L 343.94669 60.085381 
L 344.119287 60.127048 
L 344.291883 60.168715 
L 344.46448 60.210383 
L 344.637077 60.25205 
L 344.809674 60.293718 
L 344.982271 60.335385 
L 345.154867 60.377053 
L 345.327464 60.41872 
L 345.500061 60.460387 
L 345.672658 60.502055 
L 345.845254 60.543722 
L 346.017851 60.58539 
L 346.190448 60.627057 
L 346.363045 60.668725 
L 346.535642 60.710392 
L 346.708238 60.752059 
L 346.880835 60.793727 
L 347.053432 60.835394 
L 347.226029 60.877062 
" style="fill:none;stroke:#0000ff;stroke-linecap:square;stroke-width:1.5;"/>
   </g>
   <g id="line2d_33">
    <path clip-path="url(#p4a0f3d96fe)" d="M 347.226029 61.585048 
L 347.398626 61.622212 
L 347.571222 61.659375 
L 347.743819 61.696539 
L 347.916416 61.733702 
L 348.089013 61.770866 
L 348.261609 61.80803 
L 348.434206 61.845193 
L 348.606803 61.882357 
L 348.7794 61.91952 
L 348.951997 61.956684 
L 349.124593 61.993847 
L 349.29719 62.031011 
L 349.469787 62.068174 
L 349.642384 62.105338 
L 349.81498 62.142502 
L 349.987577 62.179665 
L 350.160174 62.216829 
L 350.332771 62.253992 
L 350.505368 62.291156 
L 350.677964 62.328319 
L 350.850561 62.365483 
L 351.023158 62.402646 
L 351.195755 62.43981 
L 351.368351 62.476974 
L 351.540948 62.514137 
L 351.713545 62.551301 
L 351.886142 62.588464 
L 352.058739 62.625628 
L 352.231335 62.662791 
L 352.403932 62.699955 
L 352.576529 62.737118 
L 352.749126 62.774282 
L 352.921722 62.811446 
L 353.094319 62.848609 
L 353.266916 62.885773 
L 353.439513 62.922936 
L 353.61211 62.9601 
L 353.784706 62.997263 
L 353.957303 63.034427 
L 354.1299 63.07159 
L 354.302497 63.108754 
L 354.475094 63.145918 
L 354.64769 63.183081 
L 354.820287 63.220245 
L 354.992884 63.257408 
L 355.165481 63.294572 
L 355.338077 63.331735 
L 355.510674 63.368899 
L 355.683271 63.406062 
L 355.855868 63.443226 
L 356.028465 63.480389 
L 356.201061 63.517553 
L 356.373658 63.554717 
L 356.546255 63.59188 
L 356.718852 63.629044 
L 356.891448 63.666207 
L 357.064045 63.703371 
L 357.236642 63.740534 
L 357.409239 63.777698 
L 357.581836 63.814861 
L 357.754432 63.852025 
L 357.927029 63.889189 
L 358.099626 63.926352 
L 358.272223 63.963516 
L 358.444819 64.000679 
L 358.617416 64.037843 
L 358.790013 64.075006 
L 358.96261 64.11217 
L 359.135207 64.149333 
L 359.307803 64.186497 
L 359.4804 64.223661 
L 359.652997 64.260824 
L 359.825594 64.297988 
L 359.998191 64.335151 
L 360.170787 64.372315 
L 360.343384 64.409478 
L 360.515981 64.446642 
L 360.688578 64.483805 
L 360.861174 64.520969 
L 361.033771 64.558133 
L 361.206368 64.595296 
L 361.378965 64.63246 
L 361.551562 64.669623 
L 361.724158 64.706787 
L 361.896755 64.74395 
L 362.069352 64.781114 
L 362.241949 64.818277 
L 362.414545 64.855441 
L 362.587142 64.892605 
L 362.759739 64.929768 
L 362.932336 64.966932 
L 363.104933 65.004095 
L 363.277529 65.041259 
L 363.450126 65.078422 
L 363.622723 65.115586 
L 363.79532 65.152749 
L 363.967916 65.189913 
L 364.140513 65.227077 
L 364.31311 65.26424 
" style="fill:none;stroke:#0000ff;stroke-linecap:square;stroke-width:1.5;"/>
   </g>
   <g id="line2d_34">
    <path clip-path="url(#p4a0f3d96fe)" d="M 364.31311 65.390502 
L 364.485707 65.406308 
L 364.658304 65.422114 
L 364.8309 65.43792 
L 365.003497 65.453727 
L 365.176094 65.469533 
L 365.348691 65.485339 
L 365.521288 65.501145 
L 365.693884 65.516951 
L 365.866481 65.532758 
L 366.039078 65.548564 
L 366.211675 65.56437 
L 366.384271 65.580176 
L 366.556868 65.595982 
L 366.729465 65.611788 
L 366.902062 65.627595 
L 367.074659 65.643401 
L 367.247255 65.659207 
L 367.419852 65.675013 
L 367.592449 65.690819 
L 367.765046 65.706625 
L 367.937642 65.722432 
L 368.110239 65.738238 
L 368.282836 65.754044 
L 368.455433 65.76985 
L 368.62803 65.785656 
L 368.800626 65.801463 
L 368.973223 65.817269 
L 369.14582 65.833075 
L 369.318417 65.848881 
L 369.491013 65.864687 
L 369.66361 65.880493 
L 369.836207 65.8963 
L 370.008804 65.912106 
L 370.181401 65.927912 
L 370.353997 65.943718 
L 370.526594 65.959524 
L 370.699191 65.975331 
L 370.871788 65.991137 
L 371.044385 66.006943 
L 371.216981 66.022749 
L 371.389578 66.038555 
L 371.562175 66.054361 
L 371.734772 66.070168 
L 371.907368 66.085974 
L 372.079965 66.10178 
L 372.252562 66.117586 
L 372.425159 66.133392 
L 372.597756 66.149199 
L 372.770352 66.165005 
L 372.942949 66.180811 
L 373.115546 66.196617 
L 373.288143 66.212423 
L 373.460739 66.228229 
L 373.633336 66.244036 
L 373.805933 66.259842 
L 373.97853 66.275648 
L 374.151127 66.291454 
L 374.323723 66.30726 
L 374.49632 66.323066 
L 374.668917 66.338873 
L 374.841514 66.354679 
L 375.01411 66.370485 
L 375.186707 66.386291 
L 375.359304 66.402097 
L 375.531901 66.417904 
L 375.704498 66.43371 
L 375.877094 66.449516 
L 376.049691 66.465322 
L 376.222288 66.481128 
L 376.394885 66.496934 
L 376.567482 66.512741 
L 376.740078 66.528547 
L 376.912675 66.544353 
L 377.085272 66.560159 
L 377.257869 66.575965 
L 377.430465 66.591772 
L 377.603062 66.607578 
L 377.775659 66.623384 
L 377.948256 66.63919 
L 378.120853 66.654996 
L 378.293449 66.670802 
L 378.466046 66.686609 
L 378.638643 66.702415 
L 378.81124 66.718221 
L 378.983836 66.734027 
L 379.156433 66.749833 
L 379.32903 66.765639 
L 379.501627 66.781446 
L 379.674224 66.797252 
L 379.84682 66.813058 
L 380.019417 66.828864 
L 380.192014 66.84467 
L 380.364611 66.860477 
L 380.537207 66.876283 
L 380.709804 66.892089 
L 380.882401 66.907895 
L 381.054998 66.923701 
L 381.227595 66.939507 
L 381.400191 66.955314 
" style="fill:none;stroke:#0000ff;stroke-linecap:square;stroke-width:1.5;"/>
   </g>
   <g id="line2d_35">
    <path clip-path="url(#p4a0f3d96fe)" d="M 381.400191 66.625671 
L 381.572788 66.624229 
L 381.745385 66.622786 
L 381.917982 66.621344 
L 382.090579 66.619901 
L 382.263175 66.618459 
L 382.435772 66.617016 
L 382.608369 66.615574 
L 382.780966 66.614131 
L 382.953562 66.612689 
L 383.126159 66.611246 
L 383.298756 66.609804 
L 383.471353 66.608361 
L 383.64395 66.606919 
L 383.816546 66.605476 
L 383.989143 66.604034 
L 384.16174 66.602591 
L 384.334337 66.601149 
L 384.506933 66.599706 
L 384.67953 66.598264 
L 384.852127 66.596821 
L 385.024724 66.595379 
L 385.197321 66.593936 
L 385.369917 66.592494 
L 385.542514 66.591051 
L 385.715111 66.589609 
L 385.887708 66.588166 
L 386.060304 66.586724 
L 386.232901 66.585281 
L 386.405498 66.583839 
L 386.578095 66.582396 
L 386.750692 66.580954 
L 386.923288 66.579511 
L 387.095885 66.578069 
L 387.268482 66.576626 
L 387.441079 66.575184 
L 387.613676 66.573741 
L 387.786272 66.572299 
L 387.958869 66.570856 
L 388.131466 66.569414 
L 388.304063 66.567971 
L 388.476659 66.566529 
L 388.649256 66.565086 
L 388.821853 66.563644 
L 388.99445 66.562201 
L 389.167047 66.560759 
L 389.339643 66.559316 
L 389.51224 66.557874 
L 389.684837 66.556431 
L 389.857434 66.554989 
L 390.03003 66.553546 
L 390.202627 66.552104 
L 390.375224 66.550661 
L 390.547821 66.549219 
L 390.720418 66.547776 
L 390.893014 66.546334 
L 391.065611 66.544891 
L 391.238208 66.543449 
L 391.410805 66.542006 
L 391.583401 66.540564 
L 391.755998 66.539121 
L 391.928595 66.537679 
L 392.101192 66.536236 
L 392.273789 66.534794 
L 392.446385 66.533351 
L 392.618982 66.531909 
L 392.791579 66.530466 
L 392.964176 66.529024 
L 393.136773 66.527581 
L 393.309369 66.526139 
L 393.481966 66.524696 
L 393.654563 66.523254 
L 393.82716 66.521811 
L 393.999756 66.520369 
L 394.172353 66.518926 
L 394.34495 66.517484 
L 394.517547 66.516041 
L 394.690144 66.514599 
L 394.86274 66.513156 
L 395.035337 66.511714 
L 395.207934 66.510272 
L 395.380531 66.508829 
L 395.553127 66.507387 
L 395.725724 66.505944 
L 395.898321 66.504502 
L 396.070918 66.503059 
L 396.243515 66.501617 
L 396.416111 66.500174 
L 396.588708 66.498732 
L 396.761305 66.497289 
L 396.933902 66.495847 
L 397.106498 66.494404 
L 397.279095 66.492962 
L 397.451692 66.491519 
L 397.624289 66.490077 
L 397.796886 66.488634 
L 397.969482 66.487192 
L 398.142079 66.485749 
L 398.314676 66.484307 
L 398.487273 66.482864 
" style="fill:none;stroke:#0000ff;stroke-linecap:square;stroke-width:1.5;"/>
   </g>
   <g id="patch_3">
    <path d="M 57.6 307.584 
L 57.6 41.472 
" style="fill:none;stroke:#000000;stroke-linecap:square;stroke-linejoin:miter;stroke-width:0.8;"/>
   </g>
   <g id="patch_4">
    <path d="M 414.72 307.584 
L 414.72 41.472 
" style="fill:none;stroke:#000000;stroke-linecap:square;stroke-linejoin:miter;stroke-width:0.8;"/>
   </g>
   <g id="patch_5">
    <path d="M 57.6 307.584 
L 414.72 307.584 
" style="fill:none;stroke:#000000;stroke-linecap:square;stroke-linejoin:miter;stroke-width:0.8;"/>
   </g>
   <g id="patch_6">
    <path d="M 57.6 41.472 
L 414.72 41.472 
" style="fill:none;stroke:#000000;stroke-linecap:square;stroke-linejoin:miter;stroke-width:0.8;"/>
   </g>
  </g>
 </g>
 <defs>
  <clipPath id="p4a0f3d96fe">
   <rect height="266.112" width="357.12" x="57.6" y="41.472"/>
  </clipPath>
 </defs>
</svg>
