<?xml version="1.0" encoding="utf-8" standalone="no"?>
<!DOCTYPE svg PUBLIC "-//W3C//DTD SVG 1.1//EN"
  "http://www.w3.org/Graphics/SVG/1.1/DTD/svg11.dtd">
<!-- Created with matplotlib (https://matplotlib.org/) -->
<svg height="345.6pt" version="1.1" viewBox="0 0 460.8 345.6" width="460.8pt" xmlns="http://www.w3.org/2000/svg" xmlns:xlink="http://www.w3.org/1999/xlink">
 <metadata>
  <rdf:RDF xmlns:cc="http://creativecommons.org/ns#" xmlns:dc="http://purl.org/dc/elements/1.1/" xmlns:rdf="http://www.w3.org/1999/02/22-rdf-syntax-ns#">
   <cc:Work>
    <dc:type rdf:resource="http://purl.org/dc/dcmitype/StillImage"/>
    <dc:date>2022-06-28T10:27:41.285137</dc:date>
    <dc:format>image/svg+xml</dc:format>
    <dc:creator>
     <cc:Agent>
      <dc:title>Matplotlib v3.3.2, https://matplotlib.org/</dc:title>
     </cc:Agent>
    </dc:creator>
   </cc:Work>
  </rdf:RDF>
 </metadata>
 <defs>
  <style type="text/css">*{stroke-linecap:butt;stroke-linejoin:round;}</style>
 </defs>
 <g id="figure_1">
  <g id="patch_1">
   <path d="M 0 345.6 
L 460.8 345.6 
L 460.8 0 
L 0 0 
z
" style="fill:#ffffff;"/>
  </g>
  <g id="axes_1">
   <g id="patch_2">
    <path d="M 57.6 307.584 
L 414.72 307.584 
L 414.72 41.472 
L 57.6 41.472 
z
" style="fill:#ffffff;"/>
   </g>
   <g id="PathCollection_1">
    <defs>
     <path d="M 0 3 
C 0.795609 3 1.55874 2.683901 2.12132 2.12132 
C 2.683901 1.55874 3 0.795609 3 0 
C 3 -0.795609 2.683901 -1.55874 2.12132 -2.12132 
C 1.55874 -2.683901 0.795609 -3 0 -3 
C -0.795609 -3 -1.55874 -2.683901 -2.12132 -2.12132 
C -2.683901 -1.55874 -3 -0.795609 -3 0 
C -3 0.795609 -2.683901 1.55874 -2.12132 2.12132 
C -1.55874 2.683901 -0.795609 3 0 3 
z
" id="me39e7ba6b9" style="stroke:#ffa500;"/>
    </defs>
    <g clip-path="url(#p51dd952931)">
     <use style="fill:#ffa500;stroke:#ffa500;" x="82.376268" xlink:href="#me39e7ba6b9" y="292.399284"/>
    </g>
   </g>
   <g id="PathCollection_2">
    <g clip-path="url(#p51dd952931)">
     <use style="fill:#ffa500;stroke:#ffa500;" x="99.463349" xlink:href="#me39e7ba6b9" y="292.294152"/>
    </g>
   </g>
   <g id="PathCollection_3">
    <g clip-path="url(#p51dd952931)">
     <use style="fill:#ffa500;stroke:#ffa500;" x="116.550431" xlink:href="#me39e7ba6b9" y="292.267004"/>
    </g>
   </g>
   <g id="PathCollection_4">
    <g clip-path="url(#p51dd952931)">
     <use style="fill:#ffa500;stroke:#ffa500;" x="133.637512" xlink:href="#me39e7ba6b9" y="292.607992"/>
    </g>
   </g>
   <g id="PathCollection_5">
    <g clip-path="url(#p51dd952931)">
     <use style="fill:#ffa500;stroke:#ffa500;" x="150.724593" xlink:href="#me39e7ba6b9" y="293.341236"/>
    </g>
   </g>
   <g id="PathCollection_6">
    <g clip-path="url(#p51dd952931)">
     <use style="fill:#ffa500;stroke:#ffa500;" x="167.811675" xlink:href="#me39e7ba6b9" y="294.51792"/>
    </g>
   </g>
   <g id="PathCollection_7">
    <g clip-path="url(#p51dd952931)">
     <use style="fill:#ffa500;stroke:#ffa500;" x="184.898756" xlink:href="#me39e7ba6b9" y="295.433534"/>
    </g>
   </g>
   <g id="PathCollection_8">
    <g clip-path="url(#p51dd952931)">
     <use style="fill:#ffa500;stroke:#ffa500;" x="201.985837" xlink:href="#me39e7ba6b9" y="294.735992"/>
    </g>
   </g>
   <g id="PathCollection_9">
    <g clip-path="url(#p51dd952931)">
     <use style="fill:#ffa500;stroke:#ffa500;" x="219.072919" xlink:href="#me39e7ba6b9" y="292.475044"/>
    </g>
   </g>
   <g id="PathCollection_10">
    <g clip-path="url(#p51dd952931)">
     <use style="fill:#ffa500;stroke:#ffa500;" x="236.16" xlink:href="#me39e7ba6b9" y="244.36479"/>
    </g>
   </g>
   <g id="PathCollection_11">
    <g clip-path="url(#p51dd952931)">
     <use style="fill:#ffa500;stroke:#ffa500;" x="253.247081" xlink:href="#me39e7ba6b9" y="110.215003"/>
    </g>
   </g>
   <g id="PathCollection_12">
    <g clip-path="url(#p51dd952931)">
     <use style="fill:#ffa500;stroke:#ffa500;" x="270.334163" xlink:href="#me39e7ba6b9" y="66.144037"/>
    </g>
   </g>
   <g id="PathCollection_13">
    <g clip-path="url(#p51dd952931)">
     <use style="fill:#ffa500;stroke:#ffa500;" x="287.421244" xlink:href="#me39e7ba6b9" y="59.863019"/>
    </g>
   </g>
   <g id="PathCollection_14">
    <g clip-path="url(#p51dd952931)">
     <use style="fill:#ffa500;stroke:#ffa500;" x="304.508325" xlink:href="#me39e7ba6b9" y="65.683447"/>
    </g>
   </g>
   <g id="PathCollection_15">
    <g clip-path="url(#p51dd952931)">
     <use style="fill:#ffa500;stroke:#ffa500;" x="321.595407" xlink:href="#me39e7ba6b9" y="72.254089"/>
    </g>
   </g>
   <g id="PathCollection_16">
    <g clip-path="url(#p51dd952931)">
     <use style="fill:#ffa500;stroke:#ffa500;" x="338.682488" xlink:href="#me39e7ba6b9" y="76.581543"/>
    </g>
   </g>
   <g id="PathCollection_17">
    <g clip-path="url(#p51dd952931)">
     <use style="fill:#ffa500;stroke:#ffa500;" x="355.769569" xlink:href="#me39e7ba6b9" y="78.041977"/>
    </g>
   </g>
   <g id="PathCollection_18">
    <g clip-path="url(#p51dd952931)">
     <use style="fill:#ffa500;stroke:#ffa500;" x="372.856651" xlink:href="#me39e7ba6b9" y="77.911886"/>
    </g>
   </g>
   <g id="PathCollection_19">
    <g clip-path="url(#p51dd952931)">
     <use style="fill:#ffa500;stroke:#ffa500;" x="389.943732" xlink:href="#me39e7ba6b9" y="77.519989"/>
    </g>
   </g>
   <g id="matplotlib.axis_1">
    <g id="xtick_1">
     <g id="line2d_1">
      <defs>
       <path d="M 0 0 
L 0 3.5 
" id="m081abfdf7e" style="stroke:#000000;stroke-width:0.8;"/>
      </defs>
      <g>
       <use style="stroke:#000000;stroke-width:0.8;" x="73.832727" xlink:href="#m081abfdf7e" y="307.584"/>
      </g>
     </g>
     <g id="text_1">
      <!-- −1.00 -->
      <g transform="translate(58.510071 322.182437)scale(0.1 -0.1)">
       <defs>
        <path d="M 10.59375 35.5 
L 73.1875 35.5 
L 73.1875 27.203125 
L 10.59375 27.203125 
z
" id="DejaVuSans-8722"/>
        <path d="M 12.40625 8.296875 
L 28.515625 8.296875 
L 28.515625 63.921875 
L 10.984375 60.40625 
L 10.984375 69.390625 
L 28.421875 72.90625 
L 38.28125 72.90625 
L 38.28125 8.296875 
L 54.390625 8.296875 
L 54.390625 0 
L 12.40625 0 
z
" id="DejaVuSans-49"/>
        <path d="M 10.6875 12.40625 
L 21 12.40625 
L 21 0 
L 10.6875 0 
z
" id="DejaVuSans-46"/>
        <path d="M 31.78125 66.40625 
Q 24.171875 66.40625 20.328125 58.90625 
Q 16.5 51.421875 16.5 36.375 
Q 16.5 21.390625 20.328125 13.890625 
Q 24.171875 6.390625 31.78125 6.390625 
Q 39.453125 6.390625 43.28125 13.890625 
Q 47.125 21.390625 47.125 36.375 
Q 47.125 51.421875 43.28125 58.90625 
Q 39.453125 66.40625 31.78125 66.40625 
z
M 31.78125 74.21875 
Q 44.046875 74.21875 50.515625 64.515625 
Q 56.984375 54.828125 56.984375 36.375 
Q 56.984375 17.96875 50.515625 8.265625 
Q 44.046875 -1.421875 31.78125 -1.421875 
Q 19.53125 -1.421875 13.0625 8.265625 
Q 6.59375 17.96875 6.59375 36.375 
Q 6.59375 54.828125 13.0625 64.515625 
Q 19.53125 74.21875 31.78125 74.21875 
z
" id="DejaVuSans-48"/>
       </defs>
       <use xlink:href="#DejaVuSans-8722"/>
       <use x="83.789062" xlink:href="#DejaVuSans-49"/>
       <use x="147.412109" xlink:href="#DejaVuSans-46"/>
       <use x="179.199219" xlink:href="#DejaVuSans-48"/>
       <use x="242.822266" xlink:href="#DejaVuSans-48"/>
      </g>
     </g>
    </g>
    <g id="xtick_2">
     <g id="line2d_2">
      <g>
       <use style="stroke:#000000;stroke-width:0.8;" x="114.414545" xlink:href="#m081abfdf7e" y="307.584"/>
      </g>
     </g>
     <g id="text_2">
      <!-- −0.75 -->
      <g transform="translate(99.091889 322.182437)scale(0.1 -0.1)">
       <defs>
        <path d="M 8.203125 72.90625 
L 55.078125 72.90625 
L 55.078125 68.703125 
L 28.609375 0 
L 18.3125 0 
L 43.21875 64.59375 
L 8.203125 64.59375 
z
" id="DejaVuSans-55"/>
        <path d="M 10.796875 72.90625 
L 49.515625 72.90625 
L 49.515625 64.59375 
L 19.828125 64.59375 
L 19.828125 46.734375 
Q 21.96875 47.46875 24.109375 47.828125 
Q 26.265625 48.1875 28.421875 48.1875 
Q 40.625 48.1875 47.75 41.5 
Q 54.890625 34.8125 54.890625 23.390625 
Q 54.890625 11.625 47.5625 5.09375 
Q 40.234375 -1.421875 26.90625 -1.421875 
Q 22.3125 -1.421875 17.546875 -0.640625 
Q 12.796875 0.140625 7.71875 1.703125 
L 7.71875 11.625 
Q 12.109375 9.234375 16.796875 8.0625 
Q 21.484375 6.890625 26.703125 6.890625 
Q 35.15625 6.890625 40.078125 11.328125 
Q 45.015625 15.765625 45.015625 23.390625 
Q 45.015625 31 40.078125 35.4375 
Q 35.15625 39.890625 26.703125 39.890625 
Q 22.75 39.890625 18.8125 39.015625 
Q 14.890625 38.140625 10.796875 36.28125 
z
" id="DejaVuSans-53"/>
       </defs>
       <use xlink:href="#DejaVuSans-8722"/>
       <use x="83.789062" xlink:href="#DejaVuSans-48"/>
       <use x="147.412109" xlink:href="#DejaVuSans-46"/>
       <use x="179.199219" xlink:href="#DejaVuSans-55"/>
       <use x="242.822266" xlink:href="#DejaVuSans-53"/>
      </g>
     </g>
    </g>
    <g id="xtick_3">
     <g id="line2d_3">
      <g>
       <use style="stroke:#000000;stroke-width:0.8;" x="154.996364" xlink:href="#m081abfdf7e" y="307.584"/>
      </g>
     </g>
     <g id="text_3">
      <!-- −0.50 -->
      <g transform="translate(139.673707 322.182437)scale(0.1 -0.1)">
       <use xlink:href="#DejaVuSans-8722"/>
       <use x="83.789062" xlink:href="#DejaVuSans-48"/>
       <use x="147.412109" xlink:href="#DejaVuSans-46"/>
       <use x="179.199219" xlink:href="#DejaVuSans-53"/>
       <use x="242.822266" xlink:href="#DejaVuSans-48"/>
      </g>
     </g>
    </g>
    <g id="xtick_4">
     <g id="line2d_4">
      <g>
       <use style="stroke:#000000;stroke-width:0.8;" x="195.578182" xlink:href="#m081abfdf7e" y="307.584"/>
      </g>
     </g>
     <g id="text_4">
      <!-- −0.25 -->
      <g transform="translate(180.255526 322.182437)scale(0.1 -0.1)">
       <defs>
        <path d="M 19.1875 8.296875 
L 53.609375 8.296875 
L 53.609375 0 
L 7.328125 0 
L 7.328125 8.296875 
Q 12.9375 14.109375 22.625 23.890625 
Q 32.328125 33.6875 34.8125 36.53125 
Q 39.546875 41.84375 41.421875 45.53125 
Q 43.3125 49.21875 43.3125 52.78125 
Q 43.3125 58.59375 39.234375 62.25 
Q 35.15625 65.921875 28.609375 65.921875 
Q 23.96875 65.921875 18.8125 64.3125 
Q 13.671875 62.703125 7.8125 59.421875 
L 7.8125 69.390625 
Q 13.765625 71.78125 18.9375 73 
Q 24.125 74.21875 28.421875 74.21875 
Q 39.75 74.21875 46.484375 68.546875 
Q 53.21875 62.890625 53.21875 53.421875 
Q 53.21875 48.921875 51.53125 44.890625 
Q 49.859375 40.875 45.40625 35.40625 
Q 44.1875 33.984375 37.640625 27.21875 
Q 31.109375 20.453125 19.1875 8.296875 
z
" id="DejaVuSans-50"/>
       </defs>
       <use xlink:href="#DejaVuSans-8722"/>
       <use x="83.789062" xlink:href="#DejaVuSans-48"/>
       <use x="147.412109" xlink:href="#DejaVuSans-46"/>
       <use x="179.199219" xlink:href="#DejaVuSans-50"/>
       <use x="242.822266" xlink:href="#DejaVuSans-53"/>
      </g>
     </g>
    </g>
    <g id="xtick_5">
     <g id="line2d_5">
      <g>
       <use style="stroke:#000000;stroke-width:0.8;" x="236.16" xlink:href="#m081abfdf7e" y="307.584"/>
      </g>
     </g>
     <g id="text_5">
      <!-- 0.00 -->
      <g transform="translate(225.027187 322.182437)scale(0.1 -0.1)">
       <use xlink:href="#DejaVuSans-48"/>
       <use x="63.623047" xlink:href="#DejaVuSans-46"/>
       <use x="95.410156" xlink:href="#DejaVuSans-48"/>
       <use x="159.033203" xlink:href="#DejaVuSans-48"/>
      </g>
     </g>
    </g>
    <g id="xtick_6">
     <g id="line2d_6">
      <g>
       <use style="stroke:#000000;stroke-width:0.8;" x="276.741818" xlink:href="#m081abfdf7e" y="307.584"/>
      </g>
     </g>
     <g id="text_6">
      <!-- 0.25 -->
      <g transform="translate(265.609006 322.182437)scale(0.1 -0.1)">
       <use xlink:href="#DejaVuSans-48"/>
       <use x="63.623047" xlink:href="#DejaVuSans-46"/>
       <use x="95.410156" xlink:href="#DejaVuSans-50"/>
       <use x="159.033203" xlink:href="#DejaVuSans-53"/>
      </g>
     </g>
    </g>
    <g id="xtick_7">
     <g id="line2d_7">
      <g>
       <use style="stroke:#000000;stroke-width:0.8;" x="317.323636" xlink:href="#m081abfdf7e" y="307.584"/>
      </g>
     </g>
     <g id="text_7">
      <!-- 0.50 -->
      <g transform="translate(306.190824 322.182437)scale(0.1 -0.1)">
       <use xlink:href="#DejaVuSans-48"/>
       <use x="63.623047" xlink:href="#DejaVuSans-46"/>
       <use x="95.410156" xlink:href="#DejaVuSans-53"/>
       <use x="159.033203" xlink:href="#DejaVuSans-48"/>
      </g>
     </g>
    </g>
    <g id="xtick_8">
     <g id="line2d_8">
      <g>
       <use style="stroke:#000000;stroke-width:0.8;" x="357.905455" xlink:href="#m081abfdf7e" y="307.584"/>
      </g>
     </g>
     <g id="text_8">
      <!-- 0.75 -->
      <g transform="translate(346.772642 322.182437)scale(0.1 -0.1)">
       <use xlink:href="#DejaVuSans-48"/>
       <use x="63.623047" xlink:href="#DejaVuSans-46"/>
       <use x="95.410156" xlink:href="#DejaVuSans-55"/>
       <use x="159.033203" xlink:href="#DejaVuSans-53"/>
      </g>
     </g>
    </g>
    <g id="xtick_9">
     <g id="line2d_9">
      <g>
       <use style="stroke:#000000;stroke-width:0.8;" x="398.487273" xlink:href="#m081abfdf7e" y="307.584"/>
      </g>
     </g>
     <g id="text_9">
      <!-- 1.00 -->
      <g transform="translate(387.35446 322.182437)scale(0.1 -0.1)">
       <use xlink:href="#DejaVuSans-49"/>
       <use x="63.623047" xlink:href="#DejaVuSans-46"/>
       <use x="95.410156" xlink:href="#DejaVuSans-48"/>
       <use x="159.033203" xlink:href="#DejaVuSans-48"/>
      </g>
     </g>
    </g>
   </g>
   <g id="matplotlib.axis_2">
    <g id="ytick_1">
     <g id="line2d_10">
      <defs>
       <path d="M 0 0 
L -3.5 0 
" id="mfc3e59b5c6" style="stroke:#000000;stroke-width:0.8;"/>
      </defs>
      <g>
       <use style="stroke:#000000;stroke-width:0.8;" x="57.6" xlink:href="#mfc3e59b5c6" y="292.420025"/>
      </g>
     </g>
     <g id="text_10">
      <!-- 1.0 -->
      <g transform="translate(34.696875 296.219244)scale(0.1 -0.1)">
       <use xlink:href="#DejaVuSans-49"/>
       <use x="63.623047" xlink:href="#DejaVuSans-46"/>
       <use x="95.410156" xlink:href="#DejaVuSans-48"/>
      </g>
     </g>
    </g>
    <g id="ytick_2">
     <g id="line2d_11">
      <g>
       <use style="stroke:#000000;stroke-width:0.8;" x="57.6" xlink:href="#mfc3e59b5c6" y="249.412668"/>
      </g>
     </g>
     <g id="text_11">
      <!-- 1.2 -->
      <g transform="translate(34.696875 253.211886)scale(0.1 -0.1)">
       <use xlink:href="#DejaVuSans-49"/>
       <use x="63.623047" xlink:href="#DejaVuSans-46"/>
       <use x="95.410156" xlink:href="#DejaVuSans-50"/>
      </g>
     </g>
    </g>
    <g id="ytick_3">
     <g id="line2d_12">
      <g>
       <use style="stroke:#000000;stroke-width:0.8;" x="57.6" xlink:href="#mfc3e59b5c6" y="206.40531"/>
      </g>
     </g>
     <g id="text_12">
      <!-- 1.4 -->
      <g transform="translate(34.696875 210.204529)scale(0.1 -0.1)">
       <defs>
        <path d="M 37.796875 64.3125 
L 12.890625 25.390625 
L 37.796875 25.390625 
z
M 35.203125 72.90625 
L 47.609375 72.90625 
L 47.609375 25.390625 
L 58.015625 25.390625 
L 58.015625 17.1875 
L 47.609375 17.1875 
L 47.609375 0 
L 37.796875 0 
L 37.796875 17.1875 
L 4.890625 17.1875 
L 4.890625 26.703125 
z
" id="DejaVuSans-52"/>
       </defs>
       <use xlink:href="#DejaVuSans-49"/>
       <use x="63.623047" xlink:href="#DejaVuSans-46"/>
       <use x="95.410156" xlink:href="#DejaVuSans-52"/>
      </g>
     </g>
    </g>
    <g id="ytick_4">
     <g id="line2d_13">
      <g>
       <use style="stroke:#000000;stroke-width:0.8;" x="57.6" xlink:href="#mfc3e59b5c6" y="163.397952"/>
      </g>
     </g>
     <g id="text_13">
      <!-- 1.6 -->
      <g transform="translate(34.696875 167.197171)scale(0.1 -0.1)">
       <defs>
        <path d="M 33.015625 40.375 
Q 26.375 40.375 22.484375 35.828125 
Q 18.609375 31.296875 18.609375 23.390625 
Q 18.609375 15.53125 22.484375 10.953125 
Q 26.375 6.390625 33.015625 6.390625 
Q 39.65625 6.390625 43.53125 10.953125 
Q 47.40625 15.53125 47.40625 23.390625 
Q 47.40625 31.296875 43.53125 35.828125 
Q 39.65625 40.375 33.015625 40.375 
z
M 52.59375 71.296875 
L 52.59375 62.3125 
Q 48.875 64.0625 45.09375 64.984375 
Q 41.3125 65.921875 37.59375 65.921875 
Q 27.828125 65.921875 22.671875 59.328125 
Q 17.53125 52.734375 16.796875 39.40625 
Q 19.671875 43.65625 24.015625 45.921875 
Q 28.375 48.1875 33.59375 48.1875 
Q 44.578125 48.1875 50.953125 41.515625 
Q 57.328125 34.859375 57.328125 23.390625 
Q 57.328125 12.15625 50.6875 5.359375 
Q 44.046875 -1.421875 33.015625 -1.421875 
Q 20.359375 -1.421875 13.671875 8.265625 
Q 6.984375 17.96875 6.984375 36.375 
Q 6.984375 53.65625 15.1875 63.9375 
Q 23.390625 74.21875 37.203125 74.21875 
Q 40.921875 74.21875 44.703125 73.484375 
Q 48.484375 72.75 52.59375 71.296875 
z
" id="DejaVuSans-54"/>
       </defs>
       <use xlink:href="#DejaVuSans-49"/>
       <use x="63.623047" xlink:href="#DejaVuSans-46"/>
       <use x="95.410156" xlink:href="#DejaVuSans-54"/>
      </g>
     </g>
    </g>
    <g id="ytick_5">
     <g id="line2d_14">
      <g>
       <use style="stroke:#000000;stroke-width:0.8;" x="57.6" xlink:href="#mfc3e59b5c6" y="120.390594"/>
      </g>
     </g>
     <g id="text_14">
      <!-- 1.8 -->
      <g transform="translate(34.696875 124.189813)scale(0.1 -0.1)">
       <defs>
        <path d="M 31.78125 34.625 
Q 24.75 34.625 20.71875 30.859375 
Q 16.703125 27.09375 16.703125 20.515625 
Q 16.703125 13.921875 20.71875 10.15625 
Q 24.75 6.390625 31.78125 6.390625 
Q 38.8125 6.390625 42.859375 10.171875 
Q 46.921875 13.96875 46.921875 20.515625 
Q 46.921875 27.09375 42.890625 30.859375 
Q 38.875 34.625 31.78125 34.625 
z
M 21.921875 38.8125 
Q 15.578125 40.375 12.03125 44.71875 
Q 8.5 49.078125 8.5 55.328125 
Q 8.5 64.0625 14.71875 69.140625 
Q 20.953125 74.21875 31.78125 74.21875 
Q 42.671875 74.21875 48.875 69.140625 
Q 55.078125 64.0625 55.078125 55.328125 
Q 55.078125 49.078125 51.53125 44.71875 
Q 48 40.375 41.703125 38.8125 
Q 48.828125 37.15625 52.796875 32.3125 
Q 56.78125 27.484375 56.78125 20.515625 
Q 56.78125 9.90625 50.3125 4.234375 
Q 43.84375 -1.421875 31.78125 -1.421875 
Q 19.734375 -1.421875 13.25 4.234375 
Q 6.78125 9.90625 6.78125 20.515625 
Q 6.78125 27.484375 10.78125 32.3125 
Q 14.796875 37.15625 21.921875 38.8125 
z
M 18.3125 54.390625 
Q 18.3125 48.734375 21.84375 45.5625 
Q 25.390625 42.390625 31.78125 42.390625 
Q 38.140625 42.390625 41.71875 45.5625 
Q 45.3125 48.734375 45.3125 54.390625 
Q 45.3125 60.0625 41.71875 63.234375 
Q 38.140625 66.40625 31.78125 66.40625 
Q 25.390625 66.40625 21.84375 63.234375 
Q 18.3125 60.0625 18.3125 54.390625 
z
" id="DejaVuSans-56"/>
       </defs>
       <use xlink:href="#DejaVuSans-49"/>
       <use x="63.623047" xlink:href="#DejaVuSans-46"/>
       <use x="95.410156" xlink:href="#DejaVuSans-56"/>
      </g>
     </g>
    </g>
    <g id="ytick_6">
     <g id="line2d_15">
      <g>
       <use style="stroke:#000000;stroke-width:0.8;" x="57.6" xlink:href="#mfc3e59b5c6" y="77.383237"/>
      </g>
     </g>
     <g id="text_15">
      <!-- 2.0 -->
      <g transform="translate(34.696875 81.182455)scale(0.1 -0.1)">
       <use xlink:href="#DejaVuSans-50"/>
       <use x="63.623047" xlink:href="#DejaVuSans-46"/>
       <use x="95.410156" xlink:href="#DejaVuSans-48"/>
      </g>
     </g>
    </g>
   </g>
   <g id="line2d_16">
    <path clip-path="url(#p51dd952931)" d="M 73.832727 292.420025 
L 235.99751 292.420025 
L 236.32249 77.383237 
L 398.487273 77.383237 
L 398.487273 77.383237 
" style="fill:none;stroke:#ff00ff;stroke-linecap:square;stroke-width:1.5;"/>
   </g>
   <g id="line2d_17">
    <path clip-path="url(#p51dd952931)" d="M 73.840844 292.417777 
L 74.189228 292.417022 
L 74.537613 292.416267 
L 74.885998 292.415512 
L 75.234382 292.414757 
L 75.582767 292.414003 
L 75.931152 292.413248 
L 76.279536 292.412493 
L 76.627921 292.411738 
L 76.976306 292.410983 
L 77.32469 292.410228 
L 77.673075 292.409474 
L 78.02146 292.408719 
L 78.369844 292.407964 
L 78.718229 292.407209 
L 79.066614 292.406454 
L 79.414998 292.4057 
L 79.763383 292.404945 
L 80.111768 292.40419 
L 80.460152 292.403435 
L 80.808537 292.40268 
L 81.156922 292.401925 
L 81.505306 292.401171 
L 81.853691 292.400416 
L 82.202076 292.399661 
L 82.55046 292.398906 
L 82.898845 292.398151 
L 83.24723 292.397396 
L 83.595614 292.396642 
L 83.943999 292.395887 
L 84.292384 292.395132 
L 84.640768 292.394377 
L 84.989153 292.393622 
L 85.337538 292.392868 
L 85.685922 292.392113 
L 86.034307 292.391358 
L 86.382692 292.390603 
L 86.731076 292.389848 
L 87.079461 292.389093 
L 87.427846 292.388339 
L 87.77623 292.387584 
L 88.124615 292.386829 
L 88.473 292.386074 
L 88.821384 292.385319 
L 89.169769 292.384564 
L 89.518154 292.38381 
L 89.866538 292.383055 
L 90.214923 292.3823 
L 90.563308 292.381545 
L 90.911692 292.38079 
" style="fill:none;stroke:#ffa500;stroke-linecap:square;stroke-width:1.5;"/>
   </g>
   <g id="line2d_18">
    <path clip-path="url(#p51dd952931)" d="M 90.927925 292.32719 
L 91.27631 292.325842 
L 91.624694 292.324493 
L 91.973079 292.323145 
L 92.321464 292.321796 
L 92.669848 292.320448 
L 93.018233 292.319099 
L 93.366618 292.317751 
L 93.715002 292.316402 
L 94.063387 292.315054 
L 94.411772 292.313705 
L 94.760156 292.312357 
L 95.108541 292.311008 
L 95.456926 292.30966 
L 95.80531 292.308311 
L 96.153695 292.306963 
L 96.50208 292.305614 
L 96.850464 292.304266 
L 97.198849 292.302917 
L 97.547234 292.301569 
L 97.895618 292.30022 
L 98.244003 292.298872 
L 98.592388 292.297523 
L 98.940772 292.296174 
L 99.289157 292.294826 
L 99.637542 292.293477 
L 99.985926 292.292129 
L 100.334311 292.29078 
L 100.682696 292.289432 
L 101.03108 292.288083 
L 101.379465 292.286735 
L 101.72785 292.285386 
L 102.076234 292.284038 
L 102.424619 292.282689 
L 102.773004 292.281341 
L 103.121388 292.279992 
L 103.469773 292.278644 
L 103.818158 292.277295 
L 104.166542 292.275947 
L 104.514927 292.274598 
L 104.863312 292.27325 
L 105.211696 292.271901 
L 105.560081 292.270553 
L 105.908466 292.269204 
L 106.25685 292.267856 
L 106.605235 292.266507 
L 106.95362 292.265159 
L 107.302004 292.26381 
L 107.650389 292.262462 
L 107.998774 292.261113 
" style="fill:none;stroke:#ffa500;stroke-linecap:square;stroke-width:1.5;"/>
   </g>
   <g id="line2d_19">
    <path clip-path="url(#p51dd952931)" d="M 108.015006 292.188619 
L 108.363391 292.191818 
L 108.711776 292.195018 
L 109.06016 292.198217 
L 109.408545 292.201417 
L 109.75693 292.204616 
L 110.105314 292.207815 
L 110.453699 292.211015 
L 110.802084 292.214214 
L 111.150468 292.217414 
L 111.498853 292.220613 
L 111.847238 292.223812 
L 112.195622 292.227012 
L 112.544007 292.230211 
L 112.892392 292.233411 
L 113.240776 292.23661 
L 113.589161 292.239809 
L 113.937546 292.243009 
L 114.28593 292.246208 
L 114.634315 292.249408 
L 114.9827 292.252607 
L 115.331084 292.255806 
L 115.679469 292.259006 
L 116.027854 292.262205 
L 116.376238 292.265405 
L 116.724623 292.268604 
L 117.073008 292.271803 
L 117.421392 292.275003 
L 117.769777 292.278202 
L 118.118162 292.281402 
L 118.466546 292.284601 
L 118.814931 292.2878 
L 119.163316 292.291 
L 119.5117 292.294199 
L 119.860085 292.297399 
L 120.20847 292.300598 
L 120.556854 292.303797 
L 120.905239 292.306997 
L 121.253624 292.310196 
L 121.602008 292.313396 
L 121.950393 292.316595 
L 122.298778 292.319795 
L 122.647162 292.322994 
L 122.995547 292.326193 
L 123.343932 292.329393 
L 123.692316 292.332592 
L 124.040701 292.335792 
L 124.389086 292.338991 
L 124.73747 292.34219 
L 125.085855 292.34539 
" style="fill:none;stroke:#ffa500;stroke-linecap:square;stroke-width:1.5;"/>
   </g>
   <g id="line2d_20">
    <path clip-path="url(#p51dd952931)" d="M 125.102088 292.339689 
L 125.450472 292.35064 
L 125.798857 292.361591 
L 126.147242 292.372542 
L 126.495626 292.383493 
L 126.844011 292.394444 
L 127.192396 292.405396 
L 127.54078 292.416347 
L 127.889165 292.427298 
L 128.23755 292.438249 
L 128.585934 292.4492 
L 128.934319 292.460151 
L 129.282704 292.471102 
L 129.631088 292.482053 
L 129.979473 292.493005 
L 130.327858 292.503956 
L 130.676242 292.514907 
L 131.024627 292.525858 
L 131.373012 292.536809 
L 131.721396 292.54776 
L 132.069781 292.558711 
L 132.418166 292.569663 
L 132.76655 292.580614 
L 133.114935 292.591565 
L 133.46332 292.602516 
L 133.811704 292.613467 
L 134.160089 292.624418 
L 134.508474 292.635369 
L 134.856858 292.64632 
L 135.205243 292.657272 
L 135.553628 292.668223 
L 135.902012 292.679174 
L 136.250397 292.690125 
L 136.598782 292.701076 
L 136.947166 292.712027 
L 137.295551 292.722978 
L 137.643936 292.73393 
L 137.99232 292.744881 
L 138.340705 292.755832 
L 138.68909 292.766783 
L 139.037474 292.777734 
L 139.385859 292.788685 
L 139.734244 292.799636 
L 140.082628 292.810587 
L 140.431013 292.821539 
L 140.779398 292.83249 
L 141.127782 292.843441 
L 141.476167 292.854392 
L 141.824552 292.865343 
L 142.172936 292.876294 
" style="fill:none;stroke:#ffa500;stroke-linecap:square;stroke-width:1.5;"/>
   </g>
   <g id="line2d_21">
    <path clip-path="url(#p51dd952931)" d="M 142.189169 292.864207 
L 142.537554 292.883678 
L 142.885938 292.903148 
L 143.234323 292.922619 
L 143.582708 292.94209 
L 143.931092 292.96156 
L 144.279477 292.981031 
L 144.627862 293.000501 
L 144.976246 293.019972 
L 145.324631 293.039442 
L 145.673016 293.058913 
L 146.0214 293.078383 
L 146.369785 293.097854 
L 146.71817 293.117325 
L 147.066554 293.136795 
L 147.414939 293.156266 
L 147.763324 293.175736 
L 148.111708 293.195207 
L 148.460093 293.214677 
L 148.808478 293.234148 
L 149.156862 293.253618 
L 149.505247 293.273089 
L 149.853632 293.292559 
L 150.202016 293.31203 
L 150.550401 293.331501 
L 150.898786 293.350971 
L 151.24717 293.370442 
L 151.595555 293.389912 
L 151.94394 293.409383 
L 152.292324 293.428853 
L 152.640709 293.448324 
L 152.989094 293.467794 
L 153.337478 293.487265 
L 153.685863 293.506736 
L 154.034248 293.526206 
L 154.382632 293.545677 
L 154.731017 293.565147 
L 155.079402 293.584618 
L 155.427786 293.604088 
L 155.776171 293.623559 
L 156.124556 293.643029 
L 156.47294 293.6625 
L 156.821325 293.681971 
L 157.16971 293.701441 
L 157.518094 293.720912 
L 157.866479 293.740382 
L 158.214864 293.759853 
L 158.563248 293.779323 
L 158.911633 293.798794 
L 159.260018 293.818264 
" style="fill:none;stroke:#ffa500;stroke-linecap:square;stroke-width:1.5;"/>
   </g>
   <g id="line2d_22">
    <path clip-path="url(#p51dd952931)" d="M 159.27625 293.995342 
L 159.624635 294.016672 
L 159.97302 294.038002 
L 160.321404 294.059332 
L 160.669789 294.080661 
L 161.018174 294.101991 
L 161.366558 294.123321 
L 161.714943 294.14465 
L 162.063328 294.16598 
L 162.411712 294.18731 
L 162.760097 294.208639 
L 163.108482 294.229969 
L 163.456866 294.251299 
L 163.805251 294.272628 
L 164.153636 294.293958 
L 164.50202 294.315288 
L 164.850405 294.336618 
L 165.19879 294.357947 
L 165.547174 294.379277 
L 165.895559 294.400607 
L 166.243944 294.421936 
L 166.592328 294.443266 
L 166.940713 294.464596 
L 167.289098 294.485925 
L 167.637482 294.507255 
L 167.985867 294.528585 
L 168.334252 294.549915 
L 168.682636 294.571244 
L 169.031021 294.592574 
L 169.379406 294.613904 
L 169.72779 294.635233 
L 170.076175 294.656563 
L 170.42456 294.677893 
L 170.772944 294.699222 
L 171.121329 294.720552 
L 171.469714 294.741882 
L 171.818098 294.763212 
L 172.166483 294.784541 
L 172.514868 294.805871 
L 172.863252 294.827201 
L 173.211637 294.84853 
L 173.560022 294.86986 
L 173.908406 294.89119 
L 174.256791 294.912519 
L 174.605176 294.933849 
L 174.95356 294.955179 
L 175.301945 294.976508 
L 175.65033 294.997838 
L 175.998714 295.019168 
L 176.347099 295.040498 
" style="fill:none;stroke:#ffa500;stroke-linecap:square;stroke-width:1.5;"/>
   </g>
   <g id="line2d_23">
    <path clip-path="url(#p51dd952931)" d="M 176.363332 295.379068 
L 176.711716 295.381291 
L 177.060101 295.383514 
L 177.408486 295.385737 
L 177.75687 295.38796 
L 178.105255 295.390183 
L 178.45364 295.392406 
L 178.802024 295.394629 
L 179.150409 295.396852 
L 179.498794 295.399076 
L 179.847178 295.401299 
L 180.195563 295.403522 
L 180.543948 295.405745 
L 180.892332 295.407968 
L 181.240717 295.410191 
L 181.589102 295.412414 
L 181.937486 295.414637 
L 182.285871 295.41686 
L 182.634256 295.419084 
L 182.98264 295.421307 
L 183.331025 295.42353 
L 183.67941 295.425753 
L 184.027794 295.427976 
L 184.376179 295.430199 
L 184.724564 295.432422 
L 185.072948 295.434645 
L 185.421333 295.436868 
L 185.769718 295.439092 
L 186.118102 295.441315 
L 186.466487 295.443538 
L 186.814872 295.445761 
L 187.163256 295.447984 
L 187.511641 295.450207 
L 187.860026 295.45243 
L 188.20841 295.454653 
L 188.556795 295.456876 
L 188.90518 295.4591 
L 189.253564 295.461323 
L 189.601949 295.463546 
L 189.950334 295.465769 
L 190.298718 295.467992 
L 190.647103 295.470215 
L 190.995488 295.472438 
L 191.343872 295.474661 
L 191.692257 295.476884 
L 192.040642 295.479108 
L 192.389026 295.481331 
L 192.737411 295.483554 
L 193.085796 295.485777 
L 193.43418 295.488 
" style="fill:none;stroke:#ffa500;stroke-linecap:square;stroke-width:1.5;"/>
   </g>
   <g id="line2d_24">
    <path clip-path="url(#p51dd952931)" d="M 193.450413 295.474912 
L 193.798798 295.444752 
L 194.147182 295.414592 
L 194.495567 295.384432 
L 194.843952 295.354272 
L 195.192336 295.324112 
L 195.540721 295.293952 
L 195.889106 295.263792 
L 196.23749 295.233632 
L 196.585875 295.203472 
L 196.93426 295.173312 
L 197.282644 295.143152 
L 197.631029 295.112992 
L 197.979414 295.082832 
L 198.327798 295.052672 
L 198.676183 295.022512 
L 199.024568 294.992352 
L 199.372952 294.962192 
L 199.721337 294.932032 
L 200.069722 294.901872 
L 200.418106 294.871712 
L 200.766491 294.841552 
L 201.114876 294.811392 
L 201.46326 294.781232 
L 201.811645 294.751072 
L 202.16003 294.720912 
L 202.508414 294.690752 
L 202.856799 294.660592 
L 203.205184 294.630432 
L 203.553568 294.600272 
L 203.901953 294.570112 
L 204.250338 294.539952 
L 204.598722 294.509792 
L 204.947107 294.479632 
L 205.295492 294.449472 
L 205.643876 294.419312 
L 205.992261 294.389152 
L 206.340646 294.358992 
L 206.68903 294.328832 
L 207.037415 294.298672 
L 207.3858 294.268512 
L 207.734184 294.238352 
L 208.082569 294.208192 
L 208.430954 294.178032 
L 208.779338 294.147872 
L 209.127723 294.117712 
L 209.476108 294.087552 
L 209.824492 294.057392 
L 210.172877 294.027232 
L 210.521262 293.997072 
" style="fill:none;stroke:#ffa500;stroke-linecap:square;stroke-width:1.5;"/>
   </g>
   <g id="line2d_25">
    <path clip-path="url(#p51dd952931)" d="M 210.537494 294.733844 
L 210.885879 294.641648 
L 211.234264 294.549452 
L 211.582648 294.457256 
L 211.931033 294.36506 
L 212.279418 294.272865 
L 212.627802 294.180669 
L 212.976187 294.088473 
L 213.324572 293.996277 
L 213.672956 293.904081 
L 214.021341 293.811885 
L 214.369726 293.719689 
L 214.71811 293.627493 
L 215.066495 293.535297 
L 215.41488 293.443101 
L 215.763264 293.350905 
L 216.111649 293.25871 
L 216.460034 293.166514 
L 216.808418 293.074318 
L 217.156803 292.982122 
L 217.505188 292.889926 
L 217.853572 292.79773 
L 218.201957 292.705534 
L 218.550342 292.613338 
L 218.898726 292.521142 
L 219.247111 292.428946 
L 219.595496 292.33675 
L 219.94388 292.244555 
L 220.292265 292.152359 
L 220.64065 292.060163 
L 220.989034 291.967967 
L 221.337419 291.875771 
L 221.685804 291.783575 
L 222.034188 291.691379 
L 222.382573 291.599183 
L 222.730958 291.506987 
L 223.079342 291.414791 
L 223.427727 291.322595 
L 223.776112 291.2304 
L 224.124496 291.138204 
L 224.472881 291.046008 
L 224.821266 290.953812 
L 225.16965 290.861616 
L 225.518035 290.76942 
L 225.86642 290.677224 
L 226.214804 290.585028 
L 226.563189 290.492832 
L 226.911574 290.400636 
L 227.259958 290.30844 
L 227.608343 290.216245 
" style="fill:none;stroke:#ffa500;stroke-linecap:square;stroke-width:1.5;"/>
   </g>
   <g id="line2d_26">
    <path clip-path="url(#p51dd952931)" d="M 227.624576 290.039668 
L 229.24793 289.763969 
L 230.341558 289.362938 
L 231.195954 288.816416 
L 231.930736 288.077261 
L 232.597165 287.081461 
L 233.229419 285.72511 
L 233.861673 283.809816 
L 234.493926 281.133788 
L 235.12618 277.449776 
L 235.792609 272.16936 
L 236.493215 264.737599 
L 237.27926 253.838793 
L 238.236184 237.184601 
L 241.08987 185.189758 
L 241.927179 175.046446 
L 242.696136 168.298709 
L 243.413829 163.830251 
L 244.114434 160.773118 
L 244.695424 158.967653 
L 244.695424 158.967653 
" style="fill:none;stroke:#ffa500;stroke-linecap:square;stroke-width:1.5;"/>
   </g>
   <g id="line2d_27">
    <path clip-path="url(#p51dd952931)" d="M 244.711657 154.244101 
L 245.060042 152.446995 
L 245.408426 150.649889 
L 245.756811 148.852783 
L 246.105196 147.055677 
L 246.45358 145.258571 
L 246.801965 143.461465 
L 247.15035 141.664359 
L 247.498734 139.867253 
L 247.847119 138.070147 
L 248.195504 136.273041 
L 248.543888 134.475935 
L 248.892273 132.678829 
L 249.240658 130.881722 
L 249.589042 129.084616 
L 249.937427 127.28751 
L 250.285812 125.490404 
L 250.634196 123.693298 
L 250.982581 121.896192 
L 251.330966 120.099086 
L 251.67935 118.30198 
L 252.027735 116.504874 
L 252.37612 114.707768 
L 252.724504 112.910662 
L 253.072889 111.113556 
L 253.421274 109.31645 
L 253.769658 107.519344 
L 254.118043 105.722238 
L 254.466428 103.925132 
L 254.814812 102.128026 
L 255.163197 100.33092 
L 255.511582 98.533814 
L 255.859966 96.736708 
L 256.208351 94.939601 
L 256.556736 93.142495 
L 256.90512 91.345389 
L 257.253505 89.548283 
L 257.60189 87.751177 
L 257.950274 85.954071 
L 258.298659 84.156965 
L 258.647044 82.359859 
L 258.995428 80.562753 
L 259.343813 78.765647 
L 259.692198 76.968541 
L 260.040582 75.171435 
L 260.388967 73.374329 
L 260.737352 71.577223 
L 261.085736 69.780117 
L 261.434121 67.983011 
L 261.782506 66.185905 
" style="fill:none;stroke:#ffa500;stroke-linecap:square;stroke-width:1.5;"/>
   </g>
   <g id="line2d_28">
    <path clip-path="url(#p51dd952931)" d="M 261.798738 78.720075 
L 262.147123 78.206767 
L 262.495508 77.693459 
L 262.843892 77.180152 
L 263.192277 76.666844 
L 263.540662 76.153536 
L 263.889046 75.640229 
L 264.237431 75.126921 
L 264.585816 74.613613 
L 264.9342 74.100306 
L 265.282585 73.586998 
L 265.63097 73.07369 
L 265.979354 72.560383 
L 266.327739 72.047075 
L 266.676124 71.533768 
L 267.024508 71.02046 
L 267.372893 70.507152 
L 267.721278 69.993845 
L 268.069662 69.480537 
L 268.418047 68.967229 
L 268.766432 68.453922 
L 269.114816 67.940614 
L 269.463201 67.427306 
L 269.811586 66.913999 
L 270.15997 66.400691 
L 270.508355 65.887383 
L 270.85674 65.374076 
L 271.205124 64.860768 
L 271.553509 64.347461 
L 271.901894 63.834153 
L 272.250278 63.320845 
L 272.598663 62.807538 
L 272.947048 62.29423 
L 273.295432 61.780922 
L 273.643817 61.267615 
L 273.992202 60.754307 
L 274.340586 60.240999 
L 274.688971 59.727692 
L 275.037356 59.214384 
L 275.38574 58.701076 
L 275.734125 58.187769 
L 276.08251 57.674461 
L 276.430894 57.161154 
L 276.779279 56.647846 
L 277.127664 56.134538 
L 277.476048 55.621231 
L 277.824433 55.107923 
L 278.172818 54.594615 
L 278.521202 54.081308 
L 278.869587 53.568 
" style="fill:none;stroke:#ffa500;stroke-linecap:square;stroke-width:1.5;"/>
   </g>
   <g id="line2d_29">
    <path clip-path="url(#p51dd952931)" d="M 278.88582 59.978058 
L 279.234204 59.973362 
L 279.582589 59.968667 
L 279.930974 59.963971 
L 280.279358 59.959276 
L 280.627743 59.95458 
L 280.976128 59.949885 
L 281.324512 59.945189 
L 281.672897 59.940494 
L 282.021282 59.935799 
L 282.369666 59.931103 
L 282.718051 59.926408 
L 283.066436 59.921712 
L 283.41482 59.917017 
L 283.763205 59.912321 
L 284.11159 59.907626 
L 284.459974 59.902931 
L 284.808359 59.898235 
L 285.156744 59.89354 
L 285.505128 59.888844 
L 285.853513 59.884149 
L 286.201898 59.879453 
L 286.550282 59.874758 
L 286.898667 59.870063 
L 287.247052 59.865367 
L 287.595436 59.860672 
L 287.943821 59.855976 
L 288.292206 59.851281 
L 288.64059 59.846585 
L 288.988975 59.84189 
L 289.33736 59.837195 
L 289.685744 59.832499 
L 290.034129 59.827804 
L 290.382514 59.823108 
L 290.730898 59.818413 
L 291.079283 59.813717 
L 291.427668 59.809022 
L 291.776052 59.804326 
L 292.124437 59.799631 
L 292.472822 59.794936 
L 292.821206 59.79024 
L 293.169591 59.785545 
L 293.517976 59.780849 
L 293.86636 59.776154 
L 294.214745 59.771458 
L 294.56313 59.766763 
L 294.911514 59.762068 
L 295.259899 59.757372 
L 295.608284 59.752677 
L 295.956668 59.747981 
" style="fill:none;stroke:#ffa500;stroke-linecap:square;stroke-width:1.5;"/>
   </g>
   <g id="line2d_30">
    <path clip-path="url(#p51dd952931)" d="M 295.972901 62.588623 
L 296.321286 62.714942 
L 296.66967 62.841261 
L 297.018055 62.967581 
L 297.36644 63.0939 
L 297.714824 63.22022 
L 298.063209 63.346539 
L 298.411594 63.472858 
L 298.759978 63.599178 
L 299.108363 63.725497 
L 299.456748 63.851816 
L 299.805132 63.978136 
L 300.153517 64.104455 
L 300.501902 64.230774 
L 300.850286 64.357094 
L 301.198671 64.483413 
L 301.547056 64.609733 
L 301.89544 64.736052 
L 302.243825 64.862371 
L 302.59221 64.988691 
L 302.940594 65.11501 
L 303.288979 65.241329 
L 303.637364 65.367649 
L 303.985748 65.493968 
L 304.334133 65.620288 
L 304.682518 65.746607 
L 305.030902 65.872926 
L 305.379287 65.999246 
L 305.727672 66.125565 
L 306.076056 66.251884 
L 306.424441 66.378204 
L 306.772826 66.504523 
L 307.12121 66.630842 
L 307.469595 66.757162 
L 307.81798 66.883481 
L 308.166364 67.009801 
L 308.514749 67.13612 
L 308.863134 67.262439 
L 309.211518 67.388759 
L 309.559903 67.515078 
L 309.908288 67.641397 
L 310.256672 67.767717 
L 310.605057 67.894036 
L 310.953442 68.020356 
L 311.301826 68.146675 
L 311.650211 68.272994 
L 311.998596 68.399314 
L 312.34698 68.525633 
L 312.695365 68.651952 
L 313.04375 68.778272 
" style="fill:none;stroke:#ffa500;stroke-linecap:square;stroke-width:1.5;"/>
   </g>
   <g id="line2d_31">
    <path clip-path="url(#p51dd952931)" d="M 313.059982 69.532153 
L 313.408367 69.643253 
L 313.756752 69.754352 
L 314.105136 69.865452 
L 314.453521 69.976551 
L 314.801906 70.08765 
L 315.15029 70.19875 
L 315.498675 70.309849 
L 315.84706 70.420949 
L 316.195444 70.532048 
L 316.543829 70.643147 
L 316.892214 70.754247 
L 317.240598 70.865346 
L 317.588983 70.976446 
L 317.937368 71.087545 
L 318.285752 71.198645 
L 318.634137 71.309744 
L 318.982522 71.420843 
L 319.330906 71.531943 
L 319.679291 71.643042 
L 320.027676 71.754142 
L 320.37606 71.865241 
L 320.724445 71.97634 
L 321.07283 72.08744 
L 321.421214 72.198539 
L 321.769599 72.309639 
L 322.117984 72.420738 
L 322.466368 72.531838 
L 322.814753 72.642937 
L 323.163138 72.754036 
L 323.511522 72.865136 
L 323.859907 72.976235 
L 324.208292 73.087335 
L 324.556676 73.198434 
L 324.905061 73.309533 
L 325.253446 73.420633 
L 325.60183 73.531732 
L 325.950215 73.642832 
L 326.2986 73.753931 
L 326.646984 73.865031 
L 326.995369 73.97613 
L 327.343754 74.087229 
L 327.692138 74.198329 
L 328.040523 74.309428 
L 328.388908 74.420528 
L 328.737292 74.531627 
L 329.085677 74.642727 
L 329.434062 74.753826 
L 329.782446 74.864925 
L 330.130831 74.976025 
" style="fill:none;stroke:#ffa500;stroke-linecap:square;stroke-width:1.5;"/>
   </g>
   <g id="line2d_32">
    <path clip-path="url(#p51dd952931)" d="M 330.147064 75.135946 
L 330.495448 75.19495 
L 330.843833 75.253954 
L 331.192218 75.312958 
L 331.540602 75.371962 
L 331.888987 75.430966 
L 332.237372 75.48997 
L 332.585756 75.548974 
L 332.934141 75.607978 
L 333.282526 75.666982 
L 333.63091 75.725986 
L 333.979295 75.78499 
L 334.32768 75.843994 
L 334.676064 75.902998 
L 335.024449 75.962002 
L 335.372834 76.021006 
L 335.721218 76.08001 
L 336.069603 76.139014 
L 336.417988 76.198018 
L 336.766372 76.257022 
L 337.114757 76.316026 
L 337.463142 76.375029 
L 337.811526 76.434033 
L 338.159911 76.493037 
L 338.508296 76.552041 
L 338.85668 76.611045 
L 339.205065 76.670049 
L 339.55345 76.729053 
L 339.901834 76.788057 
L 340.250219 76.847061 
L 340.598604 76.906065 
L 340.946988 76.965069 
L 341.295373 77.024073 
L 341.643758 77.083077 
L 341.992142 77.142081 
L 342.340527 77.201085 
L 342.688912 77.260089 
L 343.037296 77.319093 
L 343.385681 77.378097 
L 343.734066 77.437101 
L 344.08245 77.496105 
L 344.430835 77.555109 
L 344.77922 77.614113 
L 345.127604 77.673117 
L 345.475989 77.732121 
L 345.824374 77.791125 
L 346.172758 77.850129 
L 346.521143 77.909133 
L 346.869528 77.968137 
L 347.217912 78.027141 
" style="fill:none;stroke:#ffa500;stroke-linecap:square;stroke-width:1.5;"/>
   </g>
   <g id="line2d_33">
    <path clip-path="url(#p51dd952931)" d="M 347.234145 77.709708 
L 347.58253 77.72327 
L 347.930914 77.736832 
L 348.279299 77.750394 
L 348.627684 77.763956 
L 348.976068 77.777518 
L 349.324453 77.79108 
L 349.672838 77.804642 
L 350.021222 77.818204 
L 350.369607 77.831766 
L 350.717992 77.845328 
L 351.066376 77.85889 
L 351.414761 77.872452 
L 351.763146 77.886014 
L 352.11153 77.899576 
L 352.459915 77.913138 
L 352.8083 77.9267 
L 353.156684 77.940262 
L 353.505069 77.953824 
L 353.853454 77.967386 
L 354.201838 77.980948 
L 354.550223 77.99451 
L 354.898608 78.008072 
L 355.246992 78.021634 
L 355.595377 78.035196 
L 355.943762 78.048758 
L 356.292146 78.06232 
L 356.640531 78.075882 
L 356.988916 78.089444 
L 357.3373 78.103006 
L 357.685685 78.116569 
L 358.03407 78.130131 
L 358.382454 78.143693 
L 358.730839 78.157255 
L 359.079224 78.170817 
L 359.427608 78.184379 
L 359.775993 78.197941 
L 360.124378 78.211503 
L 360.472762 78.225065 
L 360.821147 78.238627 
L 361.169532 78.252189 
L 361.517916 78.265751 
L 361.866301 78.279313 
L 362.214686 78.292875 
L 362.56307 78.306437 
L 362.911455 78.319999 
L 363.25984 78.333561 
L 363.608224 78.347123 
L 363.956609 78.360685 
L 364.304994 78.374247 
" style="fill:none;stroke:#ffa500;stroke-linecap:square;stroke-width:1.5;"/>
   </g>
   <g id="line2d_34">
    <path clip-path="url(#p51dd952931)" d="M 364.321226 78.042259 
L 364.669611 78.036938 
L 365.017996 78.031617 
L 365.36638 78.026295 
L 365.714765 78.020974 
L 366.06315 78.015653 
L 366.411534 78.010331 
L 366.759919 78.00501 
L 367.108304 77.999689 
L 367.456688 77.994367 
L 367.805073 77.989046 
L 368.153458 77.983724 
L 368.501842 77.978403 
L 368.850227 77.973082 
L 369.198612 77.96776 
L 369.546996 77.962439 
L 369.895381 77.957118 
L 370.243766 77.951796 
L 370.59215 77.946475 
L 370.940535 77.941154 
L 371.28892 77.935832 
L 371.637304 77.930511 
L 371.985689 77.92519 
L 372.334074 77.919868 
L 372.682458 77.914547 
L 373.030843 77.909226 
L 373.379228 77.903904 
L 373.727612 77.898583 
L 374.075997 77.893261 
L 374.424382 77.88794 
L 374.772766 77.882619 
L 375.121151 77.877297 
L 375.469536 77.871976 
L 375.81792 77.866655 
L 376.166305 77.861333 
L 376.51469 77.856012 
L 376.863074 77.850691 
L 377.211459 77.845369 
L 377.559844 77.840048 
L 377.908228 77.834727 
L 378.256613 77.829405 
L 378.604998 77.824084 
L 378.953382 77.818763 
L 379.301767 77.813441 
L 379.650152 77.80812 
L 379.998536 77.802799 
L 380.346921 77.797477 
L 380.695306 77.792156 
L 381.04369 77.786834 
L 381.392075 77.781513 
" style="fill:none;stroke:#ffa500;stroke-linecap:square;stroke-width:1.5;"/>
   </g>
   <g id="line2d_35">
    <path clip-path="url(#p51dd952931)" d="M 381.408308 77.597658 
L 381.756692 77.594488 
L 382.105077 77.591318 
L 382.453462 77.588147 
L 382.801846 77.584977 
L 383.150231 77.581807 
L 383.498616 77.578637 
L 383.847 77.575467 
L 384.195385 77.572297 
L 384.54377 77.569126 
L 384.892154 77.565956 
L 385.240539 77.562786 
L 385.588924 77.559616 
L 385.937308 77.556446 
L 386.285693 77.553276 
L 386.634078 77.550106 
L 386.982462 77.546935 
L 387.330847 77.543765 
L 387.679232 77.540595 
L 388.027616 77.537425 
L 388.376001 77.534255 
L 388.724386 77.531085 
L 389.07277 77.527914 
L 389.421155 77.524744 
L 389.76954 77.521574 
L 390.117924 77.518404 
L 390.466309 77.515234 
L 390.814694 77.512064 
L 391.163078 77.508894 
L 391.511463 77.505723 
L 391.859848 77.502553 
L 392.208232 77.499383 
L 392.556617 77.496213 
L 392.905002 77.493043 
L 393.253386 77.489873 
L 393.601771 77.486703 
L 393.950156 77.483532 
L 394.29854 77.480362 
L 394.646925 77.477192 
L 394.99531 77.474022 
L 395.343694 77.470852 
L 395.692079 77.467682 
L 396.040464 77.464511 
L 396.388848 77.461341 
L 396.737233 77.458171 
L 397.085618 77.455001 
L 397.434002 77.451831 
L 397.782387 77.448661 
L 398.130772 77.445491 
L 398.479156 77.44232 
" style="fill:none;stroke:#ffa500;stroke-linecap:square;stroke-width:1.5;"/>
   </g>
   <g id="patch_3">
    <path d="M 57.6 307.584 
L 57.6 41.472 
" style="fill:none;stroke:#000000;stroke-linecap:square;stroke-linejoin:miter;stroke-width:0.8;"/>
   </g>
   <g id="patch_4">
    <path d="M 414.72 307.584 
L 414.72 41.472 
" style="fill:none;stroke:#000000;stroke-linecap:square;stroke-linejoin:miter;stroke-width:0.8;"/>
   </g>
   <g id="patch_5">
    <path d="M 57.6 307.584 
L 414.72 307.584 
" style="fill:none;stroke:#000000;stroke-linecap:square;stroke-linejoin:miter;stroke-width:0.8;"/>
   </g>
   <g id="patch_6">
    <path d="M 57.6 41.472 
L 414.72 41.472 
" style="fill:none;stroke:#000000;stroke-linecap:square;stroke-linejoin:miter;stroke-width:0.8;"/>
   </g>
  </g>
 </g>
 <defs>
  <clipPath id="p51dd952931">
   <rect height="266.112" width="357.12" x="57.6" y="41.472"/>
  </clipPath>
 </defs>
</svg>
