<?xml version="1.0" encoding="utf-8" standalone="no"?>
<!DOCTYPE svg PUBLIC "-//W3C//DTD SVG 1.1//EN"
  "http://www.w3.org/Graphics/SVG/1.1/DTD/svg11.dtd">
<svg xmlns:xlink="http://www.w3.org/1999/xlink" width="460.8pt" height="345.6pt" viewBox="0 0 460.8 345.6" xmlns="http://www.w3.org/2000/svg" version="1.1">
 <metadata>
  <rdf:RDF xmlns:dc="http://purl.org/dc/elements/1.1/" xmlns:cc="http://creativecommons.org/ns#" xmlns:rdf="http://www.w3.org/1999/02/22-rdf-syntax-ns#">
   <cc:Work>
    <dc:type rdf:resource="http://purl.org/dc/dcmitype/StillImage"/>
    <dc:date>2023-08-02T05:11:48.354867</dc:date>
    <dc:format>image/svg+xml</dc:format>
    <dc:creator>
     <cc:Agent>
      <dc:title>Matplotlib v3.5.3, https://matplotlib.org/</dc:title>
     </cc:Agent>
    </dc:creator>
   </cc:Work>
  </rdf:RDF>
 </metadata>
 <defs>
  <style type="text/css">*{stroke-linejoin: round; stroke-linecap: butt}</style>
 </defs>
 <g id="figure_1">
  <g id="patch_1">
   <path d="M 0 345.6 
L 460.8 345.6 
L 460.8 0 
L 0 0 
z
" style="fill: #ffffff"/>
  </g>
  <g id="axes_1">
   <g id="patch_2">
    <path d="M 33.64 157.6 
L 217.08 157.6 
L 217.08 38.52 
L 33.64 38.52 
z
" style="fill: #ffffff"/>
   </g>
   <g id="matplotlib.axis_1">
    <g id="xtick_1">
     <g id="line2d_1">
      <defs>
       <path id="mf7fbd28dbe" d="M 0 0 
L 0 3.5 
" style="stroke: #000000; stroke-width: 0.8"/>
      </defs>
      <g>
       <use xlink:href="#mf7fbd28dbe" x="40.276512" y="157.6" style="stroke: #000000; stroke-width: 0.8"/>
      </g>
     </g>
     <g id="text_1">
      <!-- −1.0 -->
      <g transform="translate(28.135106 172.198437)scale(0.1 -0.1)">
       <defs>
        <path id="DejaVuSans-2212" d="M 678 2272 
L 4684 2272 
L 4684 1741 
L 678 1741 
L 678 2272 
z
" transform="scale(0.015625)"/>
        <path id="DejaVuSans-31" d="M 794 531 
L 1825 531 
L 1825 4091 
L 703 3866 
L 703 4441 
L 1819 4666 
L 2450 4666 
L 2450 531 
L 3481 531 
L 3481 0 
L 794 0 
L 794 531 
z
" transform="scale(0.015625)"/>
        <path id="DejaVuSans-2e" d="M 684 794 
L 1344 794 
L 1344 0 
L 684 0 
L 684 794 
z
" transform="scale(0.015625)"/>
        <path id="DejaVuSans-30" d="M 2034 4250 
Q 1547 4250 1301 3770 
Q 1056 3291 1056 2328 
Q 1056 1369 1301 889 
Q 1547 409 2034 409 
Q 2525 409 2770 889 
Q 3016 1369 3016 2328 
Q 3016 3291 2770 3770 
Q 2525 4250 2034 4250 
z
M 2034 4750 
Q 2819 4750 3233 4129 
Q 3647 3509 3647 2328 
Q 3647 1150 3233 529 
Q 2819 -91 2034 -91 
Q 1250 -91 836 529 
Q 422 1150 422 2328 
Q 422 3509 836 4129 
Q 1250 4750 2034 4750 
z
" transform="scale(0.015625)"/>
       </defs>
       <use xlink:href="#DejaVuSans-2212"/>
       <use xlink:href="#DejaVuSans-31" x="83.789062"/>
       <use xlink:href="#DejaVuSans-2e" x="147.412109"/>
       <use xlink:href="#DejaVuSans-30" x="179.199219"/>
      </g>
     </g>
    </g>
    <g id="xtick_2">
     <g id="line2d_2">
      <g>
       <use xlink:href="#mf7fbd28dbe" x="82.818256" y="157.6" style="stroke: #000000; stroke-width: 0.8"/>
      </g>
     </g>
     <g id="text_2">
      <!-- −0.5 -->
      <g transform="translate(70.67685 172.198437)scale(0.1 -0.1)">
       <defs>
        <path id="DejaVuSans-35" d="M 691 4666 
L 3169 4666 
L 3169 4134 
L 1269 4134 
L 1269 2991 
Q 1406 3038 1543 3061 
Q 1681 3084 1819 3084 
Q 2600 3084 3056 2656 
Q 3513 2228 3513 1497 
Q 3513 744 3044 326 
Q 2575 -91 1722 -91 
Q 1428 -91 1123 -41 
Q 819 9 494 109 
L 494 744 
Q 775 591 1075 516 
Q 1375 441 1709 441 
Q 2250 441 2565 725 
Q 2881 1009 2881 1497 
Q 2881 1984 2565 2268 
Q 2250 2553 1709 2553 
Q 1456 2553 1204 2497 
Q 953 2441 691 2322 
L 691 4666 
z
" transform="scale(0.015625)"/>
       </defs>
       <use xlink:href="#DejaVuSans-2212"/>
       <use xlink:href="#DejaVuSans-30" x="83.789062"/>
       <use xlink:href="#DejaVuSans-2e" x="147.412109"/>
       <use xlink:href="#DejaVuSans-35" x="179.199219"/>
      </g>
     </g>
    </g>
    <g id="xtick_3">
     <g id="line2d_3">
      <g>
       <use xlink:href="#mf7fbd28dbe" x="125.36" y="157.6" style="stroke: #000000; stroke-width: 0.8"/>
      </g>
     </g>
     <g id="text_3">
      <!-- 0.0 -->
      <g transform="translate(117.408437 172.198437)scale(0.1 -0.1)">
       <use xlink:href="#DejaVuSans-30"/>
       <use xlink:href="#DejaVuSans-2e" x="63.623047"/>
       <use xlink:href="#DejaVuSans-30" x="95.410156"/>
      </g>
     </g>
    </g>
    <g id="xtick_4">
     <g id="line2d_4">
      <g>
       <use xlink:href="#mf7fbd28dbe" x="167.901744" y="157.6" style="stroke: #000000; stroke-width: 0.8"/>
      </g>
     </g>
     <g id="text_4">
      <!-- 0.5 -->
      <g transform="translate(159.950181 172.198437)scale(0.1 -0.1)">
       <use xlink:href="#DejaVuSans-30"/>
       <use xlink:href="#DejaVuSans-2e" x="63.623047"/>
       <use xlink:href="#DejaVuSans-35" x="95.410156"/>
      </g>
     </g>
    </g>
    <g id="xtick_5">
     <g id="line2d_5">
      <g>
       <use xlink:href="#mf7fbd28dbe" x="210.443488" y="157.6" style="stroke: #000000; stroke-width: 0.8"/>
      </g>
     </g>
     <g id="text_5">
      <!-- 1.0 -->
      <g transform="translate(202.491925 172.198437)scale(0.1 -0.1)">
       <use xlink:href="#DejaVuSans-31"/>
       <use xlink:href="#DejaVuSans-2e" x="63.623047"/>
       <use xlink:href="#DejaVuSans-30" x="95.410156"/>
      </g>
     </g>
    </g>
   </g>
   <g id="matplotlib.axis_2">
    <g id="ytick_1">
     <g id="line2d_6">
      <defs>
       <path id="m5ec0bb0a01" d="M 0 0 
L -3.5 0 
" style="stroke: #000000; stroke-width: 0.8"/>
      </defs>
      <g>
       <use xlink:href="#m5ec0bb0a01" x="33.64" y="153.700022" style="stroke: #000000; stroke-width: 0.8"/>
      </g>
     </g>
     <g id="text_6">
      <!-- 0 -->
      <g transform="translate(20.2775 157.49924)scale(0.1 -0.1)">
       <use xlink:href="#DejaVuSans-30"/>
      </g>
     </g>
    </g>
    <g id="ytick_2">
     <g id="line2d_7">
      <g>
       <use xlink:href="#m5ec0bb0a01" x="33.64" y="114.427633" style="stroke: #000000; stroke-width: 0.8"/>
      </g>
     </g>
     <g id="text_7">
      <!-- 2 -->
      <g transform="translate(20.2775 118.226852)scale(0.1 -0.1)">
       <defs>
        <path id="DejaVuSans-32" d="M 1228 531 
L 3431 531 
L 3431 0 
L 469 0 
L 469 531 
Q 828 903 1448 1529 
Q 2069 2156 2228 2338 
Q 2531 2678 2651 2914 
Q 2772 3150 2772 3378 
Q 2772 3750 2511 3984 
Q 2250 4219 1831 4219 
Q 1534 4219 1204 4116 
Q 875 4013 500 3803 
L 500 4441 
Q 881 4594 1212 4672 
Q 1544 4750 1819 4750 
Q 2544 4750 2975 4387 
Q 3406 4025 3406 3419 
Q 3406 3131 3298 2873 
Q 3191 2616 2906 2266 
Q 2828 2175 2409 1742 
Q 1991 1309 1228 531 
z
" transform="scale(0.015625)"/>
       </defs>
       <use xlink:href="#DejaVuSans-32"/>
      </g>
     </g>
    </g>
    <g id="ytick_3">
     <g id="line2d_8">
      <g>
       <use xlink:href="#m5ec0bb0a01" x="33.64" y="75.155245" style="stroke: #000000; stroke-width: 0.8"/>
      </g>
     </g>
     <g id="text_8">
      <!-- 4 -->
      <g transform="translate(20.2775 78.954464)scale(0.1 -0.1)">
       <defs>
        <path id="DejaVuSans-34" d="M 2419 4116 
L 825 1625 
L 2419 1625 
L 2419 4116 
z
M 2253 4666 
L 3047 4666 
L 3047 1625 
L 3713 1625 
L 3713 1100 
L 3047 1100 
L 3047 0 
L 2419 0 
L 2419 1100 
L 313 1100 
L 313 1709 
L 2253 4666 
z
" transform="scale(0.015625)"/>
       </defs>
       <use xlink:href="#DejaVuSans-34"/>
      </g>
     </g>
    </g>
   </g>
   <g id="line2d_9">
    <path d="M 41.978182 134.063828 
L 45.381521 134.063828 
L 48.784861 134.063828 
L 52.17913 133.958606 
L 55.004798 124.20989 
L 56.444807 44.837684 
L 57.056158 43.932727 
L 57.691752 52.806373 
L 58.36971 57.342473 
L 59.083213 62.58554 
L 59.845099 69.14024 
L 60.664376 74.915151 
L 61.542493 80.099552 
L 62.486199 85.467266 
L 63.506728 90.751296 
L 64.614682 95.803202 
L 65.823102 100.769299 
L 67.149615 105.637753 
L 68.616026 110.371244 
L 70.249778 114.961991 
L 72.087932 119.449405 
L 74.187814 123.979888 
L 76.573119 127.201868 
L 79.122269 127.760153 
L 82.498402 137.696902 
L 106.674865 152.187273 
L 150.851814 152.187273 
L 175.028277 137.696902 
L 178.40441 127.760153 
L 180.95356 127.201868 
L 183.338865 123.979888 
L 185.438747 119.449405 
L 187.276901 114.961991 
L 188.910653 110.371244 
L 190.377064 105.637753 
L 191.703577 100.769299 
L 192.911997 95.803202 
L 194.019951 90.751296 
L 195.04048 85.467266 
L 195.984186 80.099552 
L 196.862303 74.915151 
L 197.68158 69.14024 
L 198.443466 62.58554 
L 199.156969 57.342473 
L 199.834927 52.806373 
L 200.470521 43.932727 
L 201.081872 44.837684 
L 202.521881 124.20989 
L 205.347549 133.958606 
L 208.741818 134.063828 
" clip-path="url(#pcf771c4972)" style="fill: none; stroke: #000000; stroke-width: 1.5; stroke-linecap: square"/>
   </g>
   <g id="line2d_10">
    <path d="M 84.58639 157.6 
L 84.58639 38.52 
" clip-path="url(#pcf771c4972)" style="fill: none; stroke: #1f77b4; stroke-width: 1.5; stroke-linecap: square"/>
   </g>
   <g id="line2d_11">
    <path d="M 172.940289 157.6 
L 172.940289 38.52 
" clip-path="url(#pcf771c4972)" style="fill: none; stroke: #1f77b4; stroke-width: 1.5; stroke-linecap: square"/>
   </g>
   <g id="LineCollection_1">
    <path d="M 40.276512 134.063828 
L 43.679852 134.063828 
" clip-path="url(#pcf771c4972)" style="fill: none; stroke: #0000ff; stroke-width: 2"/>
    <path d="M 43.679852 134.063828 
L 47.083191 134.063828 
" clip-path="url(#pcf771c4972)" style="fill: none; stroke: #0000ff; stroke-width: 2"/>
    <path d="M 47.083191 134.063828 
L 50.486531 134.063828 
" clip-path="url(#pcf771c4972)" style="fill: none; stroke: #0000ff; stroke-width: 2"/>
    <path d="M 50.486531 134.063828 
L 53.87173 134.063828 
" clip-path="url(#pcf771c4972)" style="fill: none; stroke: #0000ff; stroke-width: 2"/>
    <path d="M 53.87173 134.063828 
L 56.137866 134.063828 
" clip-path="url(#pcf771c4972)" style="fill: none; stroke: #0000ff; stroke-width: 2"/>
    <path d="M 56.137866 134.063828 
L 56.751748 134.063828 
" clip-path="url(#pcf771c4972)" style="fill: none; stroke: #0000ff; stroke-width: 2"/>
    <path d="M 56.751748 134.063828 
L 57.360569 134.063828 
" clip-path="url(#pcf771c4972)" style="fill: none; stroke: #0000ff; stroke-width: 2"/>
    <path d="M 57.360569 134.063828 
L 58.022936 134.063828 
" clip-path="url(#pcf771c4972)" style="fill: none; stroke: #0000ff; stroke-width: 2"/>
    <path d="M 58.022936 134.063828 
L 58.716485 134.063828 
" clip-path="url(#pcf771c4972)" style="fill: none; stroke: #0000ff; stroke-width: 2"/>
    <path d="M 58.716485 134.063828 
L 59.449942 134.063828 
" clip-path="url(#pcf771c4972)" style="fill: none; stroke: #0000ff; stroke-width: 2"/>
    <path d="M 59.449942 134.063828 
L 60.240255 134.063828 
" clip-path="url(#pcf771c4972)" style="fill: none; stroke: #0000ff; stroke-width: 2"/>
    <path d="M 60.240255 134.063828 
L 61.088497 134.063828 
" clip-path="url(#pcf771c4972)" style="fill: none; stroke: #0000ff; stroke-width: 2"/>
    <path d="M 61.088497 134.063828 
L 61.996489 134.063828 
" clip-path="url(#pcf771c4972)" style="fill: none; stroke: #0000ff; stroke-width: 2"/>
    <path d="M 61.996489 134.063828 
L 62.97591 134.063828 
" clip-path="url(#pcf771c4972)" style="fill: none; stroke: #0000ff; stroke-width: 2"/>
    <path d="M 62.97591 134.063828 
L 64.037546 134.063828 
" clip-path="url(#pcf771c4972)" style="fill: none; stroke: #0000ff; stroke-width: 2"/>
    <path d="M 64.037546 134.063828 
L 65.191818 134.063828 
" clip-path="url(#pcf771c4972)" style="fill: none; stroke: #0000ff; stroke-width: 2"/>
    <path d="M 65.191818 134.063828 
L 66.454386 134.063828 
" clip-path="url(#pcf771c4972)" style="fill: none; stroke: #0000ff; stroke-width: 2"/>
    <path d="M 66.454386 134.063828 
L 67.844845 134.063828 
" clip-path="url(#pcf771c4972)" style="fill: none; stroke: #0000ff; stroke-width: 2"/>
    <path d="M 67.844845 134.063828 
L 69.387206 134.063828 
" clip-path="url(#pcf771c4972)" style="fill: none; stroke: #0000ff; stroke-width: 2"/>
    <path d="M 69.387206 134.063828 
L 71.112349 134.063828 
" clip-path="url(#pcf771c4972)" style="fill: none; stroke: #0000ff; stroke-width: 2"/>
    <path d="M 71.112349 134.063828 
L 73.063515 134.063828 
" clip-path="url(#pcf771c4972)" style="fill: none; stroke: #0000ff; stroke-width: 2"/>
    <path d="M 73.063515 134.063828 
L 75.312113 134.063828 
" clip-path="url(#pcf771c4972)" style="fill: none; stroke: #0000ff; stroke-width: 2"/>
    <path d="M 75.312113 134.063828 
L 77.834124 134.063828 
" clip-path="url(#pcf771c4972)" style="fill: none; stroke: #00ff00; stroke-width: 2"/>
    <path d="M 77.834124 134.063828 
L 80.410415 134.063828 
" clip-path="url(#pcf771c4972)" style="fill: none; stroke: #00ff00; stroke-width: 2"/>
    <path d="M 80.410415 134.063828 
L 84.58639 134.063828 
" clip-path="url(#pcf771c4972)" style="fill: none; stroke: #00ff00; stroke-width: 2"/>
    <path d="M 84.58639 134.063828 
L 128.76334 134.063828 
" clip-path="url(#pcf771c4972)" style="fill: none; stroke: #00ff00; stroke-width: 2"/>
    <path d="M 128.76334 134.063828 
L 172.940289 134.063828 
" clip-path="url(#pcf771c4972)" style="fill: none; stroke: #ff8080; stroke-width: 2"/>
    <path d="M 172.940289 134.063828 
L 177.116264 134.063828 
" clip-path="url(#pcf771c4972)" style="fill: none; stroke: #00ff00; stroke-width: 2"/>
    <path d="M 177.116264 134.063828 
L 179.692555 134.063828 
" clip-path="url(#pcf771c4972)" style="fill: none; stroke: #00ff00; stroke-width: 2"/>
    <path d="M 179.692555 134.063828 
L 182.214566 134.063828 
" clip-path="url(#pcf771c4972)" style="fill: none; stroke: #0000ff; stroke-width: 2"/>
    <path d="M 182.214566 134.063828 
L 184.463164 134.063828 
" clip-path="url(#pcf771c4972)" style="fill: none; stroke: #0000ff; stroke-width: 2"/>
    <path d="M 184.463164 134.063828 
L 186.41433 134.063828 
" clip-path="url(#pcf771c4972)" style="fill: none; stroke: #0000ff; stroke-width: 2"/>
    <path d="M 186.41433 134.063828 
L 188.139473 134.063828 
" clip-path="url(#pcf771c4972)" style="fill: none; stroke: #0000ff; stroke-width: 2"/>
    <path d="M 188.139473 134.063828 
L 189.681834 134.063828 
" clip-path="url(#pcf771c4972)" style="fill: none; stroke: #0000ff; stroke-width: 2"/>
    <path d="M 189.681834 134.063828 
L 191.072293 134.063828 
" clip-path="url(#pcf771c4972)" style="fill: none; stroke: #0000ff; stroke-width: 2"/>
    <path d="M 191.072293 134.063828 
L 192.334861 134.063828 
" clip-path="url(#pcf771c4972)" style="fill: none; stroke: #0000ff; stroke-width: 2"/>
    <path d="M 192.334861 134.063828 
L 193.489133 134.063828 
" clip-path="url(#pcf771c4972)" style="fill: none; stroke: #0000ff; stroke-width: 2"/>
    <path d="M 193.489133 134.063828 
L 194.550769 134.063828 
" clip-path="url(#pcf771c4972)" style="fill: none; stroke: #0000ff; stroke-width: 2"/>
    <path d="M 194.550769 134.063828 
L 195.53019 134.063828 
" clip-path="url(#pcf771c4972)" style="fill: none; stroke: #0000ff; stroke-width: 2"/>
    <path d="M 195.53019 134.063828 
L 196.438182 134.063828 
" clip-path="url(#pcf771c4972)" style="fill: none; stroke: #0000ff; stroke-width: 2"/>
    <path d="M 196.438182 134.063828 
L 197.286424 134.063828 
" clip-path="url(#pcf771c4972)" style="fill: none; stroke: #0000ff; stroke-width: 2"/>
    <path d="M 197.286424 134.063828 
L 198.076737 134.063828 
" clip-path="url(#pcf771c4972)" style="fill: none; stroke: #0000ff; stroke-width: 2"/>
    <path d="M 198.076737 134.063828 
L 198.810194 134.063828 
" clip-path="url(#pcf771c4972)" style="fill: none; stroke: #0000ff; stroke-width: 2"/>
    <path d="M 198.810194 134.063828 
L 199.503743 134.063828 
" clip-path="url(#pcf771c4972)" style="fill: none; stroke: #0000ff; stroke-width: 2"/>
    <path d="M 199.503743 134.063828 
L 200.16611 134.063828 
" clip-path="url(#pcf771c4972)" style="fill: none; stroke: #0000ff; stroke-width: 2"/>
    <path d="M 200.16611 134.063828 
L 200.774931 134.063828 
" clip-path="url(#pcf771c4972)" style="fill: none; stroke: #0000ff; stroke-width: 2"/>
    <path d="M 200.774931 134.063828 
L 201.388813 134.063828 
" clip-path="url(#pcf771c4972)" style="fill: none; stroke: #0000ff; stroke-width: 2"/>
    <path d="M 201.388813 134.063828 
L 203.654949 134.063828 
" clip-path="url(#pcf771c4972)" style="fill: none; stroke: #0000ff; stroke-width: 2"/>
    <path d="M 203.654949 134.063828 
L 207.040148 134.063828 
" clip-path="url(#pcf771c4972)" style="fill: none; stroke: #0000ff; stroke-width: 2"/>
    <path d="M 207.040148 134.063828 
L 210.443488 134.063828 
" clip-path="url(#pcf771c4972)" style="fill: none; stroke: #0000ff; stroke-width: 2"/>
   </g>
   <g id="patch_3">
    <path d="M 33.64 157.6 
L 33.64 38.52 
" style="fill: none; stroke: #000000; stroke-width: 0.8; stroke-linejoin: miter; stroke-linecap: square"/>
   </g>
   <g id="patch_4">
    <path d="M 217.08 157.6 
L 217.08 38.52 
" style="fill: none; stroke: #000000; stroke-width: 0.8; stroke-linejoin: miter; stroke-linecap: square"/>
   </g>
   <g id="patch_5">
    <path d="M 33.64 157.6 
L 217.08 157.6 
" style="fill: none; stroke: #000000; stroke-width: 0.8; stroke-linejoin: miter; stroke-linecap: square"/>
   </g>
   <g id="patch_6">
    <path d="M 33.64 38.52 
L 217.08 38.52 
" style="fill: none; stroke: #000000; stroke-width: 0.8; stroke-linejoin: miter; stroke-linecap: square"/>
   </g>
   <g id="text_9">
    <!-- Density -->
    <g transform="translate(102.549688 32.52)scale(0.12 -0.12)">
     <defs>
      <path id="DejaVuSans-44" d="M 1259 4147 
L 1259 519 
L 2022 519 
Q 2988 519 3436 956 
Q 3884 1394 3884 2338 
Q 3884 3275 3436 3711 
Q 2988 4147 2022 4147 
L 1259 4147 
z
M 628 4666 
L 1925 4666 
Q 3281 4666 3915 4102 
Q 4550 3538 4550 2338 
Q 4550 1131 3912 565 
Q 3275 0 1925 0 
L 628 0 
L 628 4666 
z
" transform="scale(0.015625)"/>
      <path id="DejaVuSans-65" d="M 3597 1894 
L 3597 1613 
L 953 1613 
Q 991 1019 1311 708 
Q 1631 397 2203 397 
Q 2534 397 2845 478 
Q 3156 559 3463 722 
L 3463 178 
Q 3153 47 2828 -22 
Q 2503 -91 2169 -91 
Q 1331 -91 842 396 
Q 353 884 353 1716 
Q 353 2575 817 3079 
Q 1281 3584 2069 3584 
Q 2775 3584 3186 3129 
Q 3597 2675 3597 1894 
z
M 3022 2063 
Q 3016 2534 2758 2815 
Q 2500 3097 2075 3097 
Q 1594 3097 1305 2825 
Q 1016 2553 972 2059 
L 3022 2063 
z
" transform="scale(0.015625)"/>
      <path id="DejaVuSans-6e" d="M 3513 2113 
L 3513 0 
L 2938 0 
L 2938 2094 
Q 2938 2591 2744 2837 
Q 2550 3084 2163 3084 
Q 1697 3084 1428 2787 
Q 1159 2491 1159 1978 
L 1159 0 
L 581 0 
L 581 3500 
L 1159 3500 
L 1159 2956 
Q 1366 3272 1645 3428 
Q 1925 3584 2291 3584 
Q 2894 3584 3203 3211 
Q 3513 2838 3513 2113 
z
" transform="scale(0.015625)"/>
      <path id="DejaVuSans-73" d="M 2834 3397 
L 2834 2853 
Q 2591 2978 2328 3040 
Q 2066 3103 1784 3103 
Q 1356 3103 1142 2972 
Q 928 2841 928 2578 
Q 928 2378 1081 2264 
Q 1234 2150 1697 2047 
L 1894 2003 
Q 2506 1872 2764 1633 
Q 3022 1394 3022 966 
Q 3022 478 2636 193 
Q 2250 -91 1575 -91 
Q 1294 -91 989 -36 
Q 684 19 347 128 
L 347 722 
Q 666 556 975 473 
Q 1284 391 1588 391 
Q 1994 391 2212 530 
Q 2431 669 2431 922 
Q 2431 1156 2273 1281 
Q 2116 1406 1581 1522 
L 1381 1569 
Q 847 1681 609 1914 
Q 372 2147 372 2553 
Q 372 3047 722 3315 
Q 1072 3584 1716 3584 
Q 2034 3584 2315 3537 
Q 2597 3491 2834 3397 
z
" transform="scale(0.015625)"/>
      <path id="DejaVuSans-69" d="M 603 3500 
L 1178 3500 
L 1178 0 
L 603 0 
L 603 3500 
z
M 603 4863 
L 1178 4863 
L 1178 4134 
L 603 4134 
L 603 4863 
z
" transform="scale(0.015625)"/>
      <path id="DejaVuSans-74" d="M 1172 4494 
L 1172 3500 
L 2356 3500 
L 2356 3053 
L 1172 3053 
L 1172 1153 
Q 1172 725 1289 603 
Q 1406 481 1766 481 
L 2356 481 
L 2356 0 
L 1766 0 
Q 1100 0 847 248 
Q 594 497 594 1153 
L 594 3053 
L 172 3053 
L 172 3500 
L 594 3500 
L 594 4494 
L 1172 4494 
z
" transform="scale(0.015625)"/>
      <path id="DejaVuSans-79" d="M 2059 -325 
Q 1816 -950 1584 -1140 
Q 1353 -1331 966 -1331 
L 506 -1331 
L 506 -850 
L 844 -850 
Q 1081 -850 1212 -737 
Q 1344 -625 1503 -206 
L 1606 56 
L 191 3500 
L 800 3500 
L 1894 763 
L 2988 3500 
L 3597 3500 
L 2059 -325 
z
" transform="scale(0.015625)"/>
     </defs>
     <use xlink:href="#DejaVuSans-44"/>
     <use xlink:href="#DejaVuSans-65" x="77.001953"/>
     <use xlink:href="#DejaVuSans-6e" x="138.525391"/>
     <use xlink:href="#DejaVuSans-73" x="201.904297"/>
     <use xlink:href="#DejaVuSans-69" x="254.003906"/>
     <use xlink:href="#DejaVuSans-74" x="281.787109"/>
     <use xlink:href="#DejaVuSans-79" x="320.996094"/>
    </g>
   </g>
  </g>
  <g id="axes_2">
   <g id="patch_7">
    <path d="M 258.64 157.6 
L 442.08 157.6 
L 442.08 38.52 
L 258.64 38.52 
z
" style="fill: #ffffff"/>
   </g>
   <g id="matplotlib.axis_3">
    <g id="xtick_6">
     <g id="line2d_12">
      <g>
       <use xlink:href="#mf7fbd28dbe" x="265.276512" y="157.6" style="stroke: #000000; stroke-width: 0.8"/>
      </g>
     </g>
     <g id="text_10">
      <!-- −1.0 -->
      <g transform="translate(253.135106 172.198437)scale(0.1 -0.1)">
       <use xlink:href="#DejaVuSans-2212"/>
       <use xlink:href="#DejaVuSans-31" x="83.789062"/>
       <use xlink:href="#DejaVuSans-2e" x="147.412109"/>
       <use xlink:href="#DejaVuSans-30" x="179.199219"/>
      </g>
     </g>
    </g>
    <g id="xtick_7">
     <g id="line2d_13">
      <g>
       <use xlink:href="#mf7fbd28dbe" x="307.818256" y="157.6" style="stroke: #000000; stroke-width: 0.8"/>
      </g>
     </g>
     <g id="text_11">
      <!-- −0.5 -->
      <g transform="translate(295.67685 172.198437)scale(0.1 -0.1)">
       <use xlink:href="#DejaVuSans-2212"/>
       <use xlink:href="#DejaVuSans-30" x="83.789062"/>
       <use xlink:href="#DejaVuSans-2e" x="147.412109"/>
       <use xlink:href="#DejaVuSans-35" x="179.199219"/>
      </g>
     </g>
    </g>
    <g id="xtick_8">
     <g id="line2d_14">
      <g>
       <use xlink:href="#mf7fbd28dbe" x="350.36" y="157.6" style="stroke: #000000; stroke-width: 0.8"/>
      </g>
     </g>
     <g id="text_12">
      <!-- 0.0 -->
      <g transform="translate(342.408437 172.198437)scale(0.1 -0.1)">
       <use xlink:href="#DejaVuSans-30"/>
       <use xlink:href="#DejaVuSans-2e" x="63.623047"/>
       <use xlink:href="#DejaVuSans-30" x="95.410156"/>
      </g>
     </g>
    </g>
    <g id="xtick_9">
     <g id="line2d_15">
      <g>
       <use xlink:href="#mf7fbd28dbe" x="392.901744" y="157.6" style="stroke: #000000; stroke-width: 0.8"/>
      </g>
     </g>
     <g id="text_13">
      <!-- 0.5 -->
      <g transform="translate(384.950181 172.198437)scale(0.1 -0.1)">
       <use xlink:href="#DejaVuSans-30"/>
       <use xlink:href="#DejaVuSans-2e" x="63.623047"/>
       <use xlink:href="#DejaVuSans-35" x="95.410156"/>
      </g>
     </g>
    </g>
    <g id="xtick_10">
     <g id="line2d_16">
      <g>
       <use xlink:href="#mf7fbd28dbe" x="435.443488" y="157.6" style="stroke: #000000; stroke-width: 0.8"/>
      </g>
     </g>
     <g id="text_14">
      <!-- 1.0 -->
      <g transform="translate(427.491925 172.198437)scale(0.1 -0.1)">
       <use xlink:href="#DejaVuSans-31"/>
       <use xlink:href="#DejaVuSans-2e" x="63.623047"/>
       <use xlink:href="#DejaVuSans-30" x="95.410156"/>
      </g>
     </g>
    </g>
   </g>
   <g id="matplotlib.axis_4">
    <g id="ytick_4">
     <g id="line2d_17">
      <g>
       <use xlink:href="#m5ec0bb0a01" x="258.64" y="152.187473" style="stroke: #000000; stroke-width: 0.8"/>
      </g>
     </g>
     <g id="text_15">
      <!-- 0.0 -->
      <g transform="translate(235.736875 155.986692)scale(0.1 -0.1)">
       <use xlink:href="#DejaVuSans-30"/>
       <use xlink:href="#DejaVuSans-2e" x="63.623047"/>
       <use xlink:href="#DejaVuSans-30" x="95.410156"/>
      </g>
     </g>
    </g>
    <g id="ytick_5">
     <g id="line2d_18">
      <g>
       <use xlink:href="#m5ec0bb0a01" x="258.64" y="112.092475" style="stroke: #000000; stroke-width: 0.8"/>
      </g>
     </g>
     <g id="text_16">
      <!-- 0.5 -->
      <g transform="translate(235.736875 115.891694)scale(0.1 -0.1)">
       <use xlink:href="#DejaVuSans-30"/>
       <use xlink:href="#DejaVuSans-2e" x="63.623047"/>
       <use xlink:href="#DejaVuSans-35" x="95.410156"/>
      </g>
     </g>
    </g>
    <g id="ytick_6">
     <g id="line2d_19">
      <g>
       <use xlink:href="#m5ec0bb0a01" x="258.64" y="71.997477" style="stroke: #000000; stroke-width: 0.8"/>
      </g>
     </g>
     <g id="text_17">
      <!-- 1.0 -->
      <g transform="translate(235.736875 75.796695)scale(0.1 -0.1)">
       <use xlink:href="#DejaVuSans-31"/>
       <use xlink:href="#DejaVuSans-2e" x="63.623047"/>
       <use xlink:href="#DejaVuSans-30" x="95.410156"/>
      </g>
     </g>
    </g>
   </g>
   <g id="line2d_20">
    <path d="M 266.978182 152.187273 
L 270.381521 152.187273 
L 273.784861 152.187273 
L 277.17913 152.187227 
L 280.004798 151.454929 
L 281.444807 149.195989 
L 282.056158 149.027212 
L 282.691752 148.981652 
L 283.36971 148.878806 
L 284.083213 148.778086 
L 284.845099 148.690903 
L 285.664376 148.585267 
L 286.542493 148.460451 
L 287.486199 148.328279 
L 288.506728 148.180694 
L 289.614682 148.009081 
L 290.823102 147.810091 
L 292.149615 147.577721 
L 293.616026 147.301029 
L 295.249778 146.96863 
L 297.087932 146.555409 
L 299.187814 145.995848 
L 301.573119 145.561999 
L 304.122269 145.70619 
L 307.498402 142.139659 
L 331.674865 43.932727 
L 375.851814 43.932727 
L 400.028277 142.139659 
L 403.40441 145.70619 
L 405.95356 145.561999 
L 408.338865 145.995848 
L 410.438747 146.555409 
L 412.276901 146.96863 
L 413.910653 147.301029 
L 415.377064 147.577721 
L 416.703577 147.810091 
L 417.911997 148.009081 
L 419.019951 148.180694 
L 420.04048 148.328279 
L 420.984186 148.460451 
L 421.862303 148.585267 
L 422.68158 148.690903 
L 423.443466 148.778086 
L 424.156969 148.878806 
L 424.834927 148.981652 
L 425.470521 149.027212 
L 426.081872 149.195989 
L 427.521881 151.454929 
L 430.347549 152.187227 
L 433.741818 152.187273 
" clip-path="url(#pcb8b25f63e)" style="fill: none; stroke: #ff0000; stroke-width: 1.5; stroke-linecap: square"/>
   </g>
   <g id="line2d_21">
    <path d="M 309.58639 157.6 
L 309.58639 38.52 
" clip-path="url(#pcb8b25f63e)" style="fill: none; stroke: #1f77b4; stroke-width: 1.5; stroke-linecap: square"/>
   </g>
   <g id="line2d_22">
    <path d="M 397.940289 157.6 
L 397.940289 38.52 
" clip-path="url(#pcb8b25f63e)" style="fill: none; stroke: #1f77b4; stroke-width: 1.5; stroke-linecap: square"/>
   </g>
   <g id="LineCollection_2">
    <path d="M 265.276512 152.187273 
L 268.679852 152.187273 
" clip-path="url(#pcb8b25f63e)" style="fill: none; stroke: #0000ff; stroke-width: 2"/>
    <path d="M 268.679852 152.187273 
L 272.083191 152.187273 
" clip-path="url(#pcb8b25f63e)" style="fill: none; stroke: #0000ff; stroke-width: 2"/>
    <path d="M 272.083191 152.187273 
L 275.486531 152.187273 
" clip-path="url(#pcb8b25f63e)" style="fill: none; stroke: #0000ff; stroke-width: 2"/>
    <path d="M 275.486531 152.187273 
L 278.87173 152.187273 
" clip-path="url(#pcb8b25f63e)" style="fill: none; stroke: #0000ff; stroke-width: 2"/>
    <path d="M 278.87173 152.187273 
L 281.137866 152.187273 
" clip-path="url(#pcb8b25f63e)" style="fill: none; stroke: #0000ff; stroke-width: 2"/>
    <path d="M 281.137866 152.187273 
L 281.751748 152.187273 
" clip-path="url(#pcb8b25f63e)" style="fill: none; stroke: #0000ff; stroke-width: 2"/>
    <path d="M 281.751748 152.187273 
L 282.360569 152.187273 
" clip-path="url(#pcb8b25f63e)" style="fill: none; stroke: #0000ff; stroke-width: 2"/>
    <path d="M 282.360569 152.187273 
L 283.022936 152.187273 
" clip-path="url(#pcb8b25f63e)" style="fill: none; stroke: #0000ff; stroke-width: 2"/>
    <path d="M 283.022936 152.187273 
L 283.716485 152.187273 
" clip-path="url(#pcb8b25f63e)" style="fill: none; stroke: #0000ff; stroke-width: 2"/>
    <path d="M 283.716485 152.187273 
L 284.449942 152.187273 
" clip-path="url(#pcb8b25f63e)" style="fill: none; stroke: #0000ff; stroke-width: 2"/>
    <path d="M 284.449942 152.187273 
L 285.240255 152.187273 
" clip-path="url(#pcb8b25f63e)" style="fill: none; stroke: #0000ff; stroke-width: 2"/>
    <path d="M 285.240255 152.187273 
L 286.088497 152.187273 
" clip-path="url(#pcb8b25f63e)" style="fill: none; stroke: #0000ff; stroke-width: 2"/>
    <path d="M 286.088497 152.187273 
L 286.996489 152.187273 
" clip-path="url(#pcb8b25f63e)" style="fill: none; stroke: #0000ff; stroke-width: 2"/>
    <path d="M 286.996489 152.187273 
L 287.97591 152.187273 
" clip-path="url(#pcb8b25f63e)" style="fill: none; stroke: #0000ff; stroke-width: 2"/>
    <path d="M 287.97591 152.187273 
L 289.037546 152.187273 
" clip-path="url(#pcb8b25f63e)" style="fill: none; stroke: #0000ff; stroke-width: 2"/>
    <path d="M 289.037546 152.187273 
L 290.191818 152.187273 
" clip-path="url(#pcb8b25f63e)" style="fill: none; stroke: #0000ff; stroke-width: 2"/>
    <path d="M 290.191818 152.187273 
L 291.454386 152.187273 
" clip-path="url(#pcb8b25f63e)" style="fill: none; stroke: #0000ff; stroke-width: 2"/>
    <path d="M 291.454386 152.187273 
L 292.844845 152.187273 
" clip-path="url(#pcb8b25f63e)" style="fill: none; stroke: #0000ff; stroke-width: 2"/>
    <path d="M 292.844845 152.187273 
L 294.387206 152.187273 
" clip-path="url(#pcb8b25f63e)" style="fill: none; stroke: #0000ff; stroke-width: 2"/>
    <path d="M 294.387206 152.187273 
L 296.112349 152.187273 
" clip-path="url(#pcb8b25f63e)" style="fill: none; stroke: #0000ff; stroke-width: 2"/>
    <path d="M 296.112349 152.187273 
L 298.063515 152.187273 
" clip-path="url(#pcb8b25f63e)" style="fill: none; stroke: #0000ff; stroke-width: 2"/>
    <path d="M 298.063515 152.187273 
L 300.312113 152.187273 
" clip-path="url(#pcb8b25f63e)" style="fill: none; stroke: #0000ff; stroke-width: 2"/>
    <path d="M 300.312113 152.187273 
L 302.834124 152.187273 
" clip-path="url(#pcb8b25f63e)" style="fill: none; stroke: #00ff00; stroke-width: 2"/>
    <path d="M 302.834124 152.187273 
L 305.410415 152.187273 
" clip-path="url(#pcb8b25f63e)" style="fill: none; stroke: #00ff00; stroke-width: 2"/>
    <path d="M 305.410415 152.187273 
L 309.58639 152.187273 
" clip-path="url(#pcb8b25f63e)" style="fill: none; stroke: #00ff00; stroke-width: 2"/>
    <path d="M 309.58639 152.187273 
L 353.76334 152.187273 
" clip-path="url(#pcb8b25f63e)" style="fill: none; stroke: #00ff00; stroke-width: 2"/>
    <path d="M 353.76334 152.187273 
L 397.940289 152.187273 
" clip-path="url(#pcb8b25f63e)" style="fill: none; stroke: #ff8080; stroke-width: 2"/>
    <path d="M 397.940289 152.187273 
L 402.116264 152.187273 
" clip-path="url(#pcb8b25f63e)" style="fill: none; stroke: #00ff00; stroke-width: 2"/>
    <path d="M 402.116264 152.187273 
L 404.692555 152.187273 
" clip-path="url(#pcb8b25f63e)" style="fill: none; stroke: #00ff00; stroke-width: 2"/>
    <path d="M 404.692555 152.187273 
L 407.214566 152.187273 
" clip-path="url(#pcb8b25f63e)" style="fill: none; stroke: #0000ff; stroke-width: 2"/>
    <path d="M 407.214566 152.187273 
L 409.463164 152.187273 
" clip-path="url(#pcb8b25f63e)" style="fill: none; stroke: #0000ff; stroke-width: 2"/>
    <path d="M 409.463164 152.187273 
L 411.41433 152.187273 
" clip-path="url(#pcb8b25f63e)" style="fill: none; stroke: #0000ff; stroke-width: 2"/>
    <path d="M 411.41433 152.187273 
L 413.139473 152.187273 
" clip-path="url(#pcb8b25f63e)" style="fill: none; stroke: #0000ff; stroke-width: 2"/>
    <path d="M 413.139473 152.187273 
L 414.681834 152.187273 
" clip-path="url(#pcb8b25f63e)" style="fill: none; stroke: #0000ff; stroke-width: 2"/>
    <path d="M 414.681834 152.187273 
L 416.072293 152.187273 
" clip-path="url(#pcb8b25f63e)" style="fill: none; stroke: #0000ff; stroke-width: 2"/>
    <path d="M 416.072293 152.187273 
L 417.334861 152.187273 
" clip-path="url(#pcb8b25f63e)" style="fill: none; stroke: #0000ff; stroke-width: 2"/>
    <path d="M 417.334861 152.187273 
L 418.489133 152.187273 
" clip-path="url(#pcb8b25f63e)" style="fill: none; stroke: #0000ff; stroke-width: 2"/>
    <path d="M 418.489133 152.187273 
L 419.550769 152.187273 
" clip-path="url(#pcb8b25f63e)" style="fill: none; stroke: #0000ff; stroke-width: 2"/>
    <path d="M 419.550769 152.187273 
L 420.53019 152.187273 
" clip-path="url(#pcb8b25f63e)" style="fill: none; stroke: #0000ff; stroke-width: 2"/>
    <path d="M 420.53019 152.187273 
L 421.438182 152.187273 
" clip-path="url(#pcb8b25f63e)" style="fill: none; stroke: #0000ff; stroke-width: 2"/>
    <path d="M 421.438182 152.187273 
L 422.286424 152.187273 
" clip-path="url(#pcb8b25f63e)" style="fill: none; stroke: #0000ff; stroke-width: 2"/>
    <path d="M 422.286424 152.187273 
L 423.076737 152.187273 
" clip-path="url(#pcb8b25f63e)" style="fill: none; stroke: #0000ff; stroke-width: 2"/>
    <path d="M 423.076737 152.187273 
L 423.810194 152.187273 
" clip-path="url(#pcb8b25f63e)" style="fill: none; stroke: #0000ff; stroke-width: 2"/>
    <path d="M 423.810194 152.187273 
L 424.503743 152.187273 
" clip-path="url(#pcb8b25f63e)" style="fill: none; stroke: #0000ff; stroke-width: 2"/>
    <path d="M 424.503743 152.187273 
L 425.16611 152.187273 
" clip-path="url(#pcb8b25f63e)" style="fill: none; stroke: #0000ff; stroke-width: 2"/>
    <path d="M 425.16611 152.187273 
L 425.774931 152.187273 
" clip-path="url(#pcb8b25f63e)" style="fill: none; stroke: #0000ff; stroke-width: 2"/>
    <path d="M 425.774931 152.187273 
L 426.388813 152.187273 
" clip-path="url(#pcb8b25f63e)" style="fill: none; stroke: #0000ff; stroke-width: 2"/>
    <path d="M 426.388813 152.187273 
L 428.654949 152.187273 
" clip-path="url(#pcb8b25f63e)" style="fill: none; stroke: #0000ff; stroke-width: 2"/>
    <path d="M 428.654949 152.187273 
L 432.040148 152.187273 
" clip-path="url(#pcb8b25f63e)" style="fill: none; stroke: #0000ff; stroke-width: 2"/>
    <path d="M 432.040148 152.187273 
L 435.443488 152.187273 
" clip-path="url(#pcb8b25f63e)" style="fill: none; stroke: #0000ff; stroke-width: 2"/>
   </g>
   <g id="patch_8">
    <path d="M 258.64 157.6 
L 258.64 38.52 
" style="fill: none; stroke: #000000; stroke-width: 0.8; stroke-linejoin: miter; stroke-linecap: square"/>
   </g>
   <g id="patch_9">
    <path d="M 442.08 157.6 
L 442.08 38.52 
" style="fill: none; stroke: #000000; stroke-width: 0.8; stroke-linejoin: miter; stroke-linecap: square"/>
   </g>
   <g id="patch_10">
    <path d="M 258.64 157.6 
L 442.08 157.6 
" style="fill: none; stroke: #000000; stroke-width: 0.8; stroke-linejoin: miter; stroke-linecap: square"/>
   </g>
   <g id="patch_11">
    <path d="M 258.64 38.52 
L 442.08 38.52 
" style="fill: none; stroke: #000000; stroke-width: 0.8; stroke-linejoin: miter; stroke-linecap: square"/>
   </g>
   <g id="text_18">
    <!-- Internal energy -->
    <g transform="translate(304.420625 32.52)scale(0.12 -0.12)">
     <defs>
      <path id="DejaVuSans-49" d="M 628 4666 
L 1259 4666 
L 1259 0 
L 628 0 
L 628 4666 
z
" transform="scale(0.015625)"/>
      <path id="DejaVuSans-72" d="M 2631 2963 
Q 2534 3019 2420 3045 
Q 2306 3072 2169 3072 
Q 1681 3072 1420 2755 
Q 1159 2438 1159 1844 
L 1159 0 
L 581 0 
L 581 3500 
L 1159 3500 
L 1159 2956 
Q 1341 3275 1631 3429 
Q 1922 3584 2338 3584 
Q 2397 3584 2469 3576 
Q 2541 3569 2628 3553 
L 2631 2963 
z
" transform="scale(0.015625)"/>
      <path id="DejaVuSans-61" d="M 2194 1759 
Q 1497 1759 1228 1600 
Q 959 1441 959 1056 
Q 959 750 1161 570 
Q 1363 391 1709 391 
Q 2188 391 2477 730 
Q 2766 1069 2766 1631 
L 2766 1759 
L 2194 1759 
z
M 3341 1997 
L 3341 0 
L 2766 0 
L 2766 531 
Q 2569 213 2275 61 
Q 1981 -91 1556 -91 
Q 1019 -91 701 211 
Q 384 513 384 1019 
Q 384 1609 779 1909 
Q 1175 2209 1959 2209 
L 2766 2209 
L 2766 2266 
Q 2766 2663 2505 2880 
Q 2244 3097 1772 3097 
Q 1472 3097 1187 3025 
Q 903 2953 641 2809 
L 641 3341 
Q 956 3463 1253 3523 
Q 1550 3584 1831 3584 
Q 2591 3584 2966 3190 
Q 3341 2797 3341 1997 
z
" transform="scale(0.015625)"/>
      <path id="DejaVuSans-6c" d="M 603 4863 
L 1178 4863 
L 1178 0 
L 603 0 
L 603 4863 
z
" transform="scale(0.015625)"/>
      <path id="DejaVuSans-20" transform="scale(0.015625)"/>
      <path id="DejaVuSans-67" d="M 2906 1791 
Q 2906 2416 2648 2759 
Q 2391 3103 1925 3103 
Q 1463 3103 1205 2759 
Q 947 2416 947 1791 
Q 947 1169 1205 825 
Q 1463 481 1925 481 
Q 2391 481 2648 825 
Q 2906 1169 2906 1791 
z
M 3481 434 
Q 3481 -459 3084 -895 
Q 2688 -1331 1869 -1331 
Q 1566 -1331 1297 -1286 
Q 1028 -1241 775 -1147 
L 775 -588 
Q 1028 -725 1275 -790 
Q 1522 -856 1778 -856 
Q 2344 -856 2625 -561 
Q 2906 -266 2906 331 
L 2906 616 
Q 2728 306 2450 153 
Q 2172 0 1784 0 
Q 1141 0 747 490 
Q 353 981 353 1791 
Q 353 2603 747 3093 
Q 1141 3584 1784 3584 
Q 2172 3584 2450 3431 
Q 2728 3278 2906 2969 
L 2906 3500 
L 3481 3500 
L 3481 434 
z
" transform="scale(0.015625)"/>
     </defs>
     <use xlink:href="#DejaVuSans-49"/>
     <use xlink:href="#DejaVuSans-6e" x="29.492188"/>
     <use xlink:href="#DejaVuSans-74" x="92.871094"/>
     <use xlink:href="#DejaVuSans-65" x="132.080078"/>
     <use xlink:href="#DejaVuSans-72" x="193.603516"/>
     <use xlink:href="#DejaVuSans-6e" x="232.966797"/>
     <use xlink:href="#DejaVuSans-61" x="296.345703"/>
     <use xlink:href="#DejaVuSans-6c" x="357.625"/>
     <use xlink:href="#DejaVuSans-20" x="385.408203"/>
     <use xlink:href="#DejaVuSans-65" x="417.195312"/>
     <use xlink:href="#DejaVuSans-6e" x="478.71875"/>
     <use xlink:href="#DejaVuSans-65" x="542.097656"/>
     <use xlink:href="#DejaVuSans-72" x="603.621094"/>
     <use xlink:href="#DejaVuSans-67" x="642.984375"/>
     <use xlink:href="#DejaVuSans-79" x="706.460938"/>
    </g>
   </g>
  </g>
  <g id="axes_3">
   <g id="patch_12">
    <path d="M 33.64 317.72 
L 217.08 317.72 
L 217.08 198.64 
L 33.64 198.64 
z
" style="fill: #ffffff"/>
   </g>
   <g id="matplotlib.axis_5">
    <g id="xtick_11">
     <g id="line2d_23">
      <g>
       <use xlink:href="#mf7fbd28dbe" x="40.276512" y="317.72" style="stroke: #000000; stroke-width: 0.8"/>
      </g>
     </g>
     <g id="text_19">
      <!-- −1.0 -->
      <g transform="translate(28.135106 332.318437)scale(0.1 -0.1)">
       <use xlink:href="#DejaVuSans-2212"/>
       <use xlink:href="#DejaVuSans-31" x="83.789062"/>
       <use xlink:href="#DejaVuSans-2e" x="147.412109"/>
       <use xlink:href="#DejaVuSans-30" x="179.199219"/>
      </g>
     </g>
    </g>
    <g id="xtick_12">
     <g id="line2d_24">
      <g>
       <use xlink:href="#mf7fbd28dbe" x="82.818256" y="317.72" style="stroke: #000000; stroke-width: 0.8"/>
      </g>
     </g>
     <g id="text_20">
      <!-- −0.5 -->
      <g transform="translate(70.67685 332.318437)scale(0.1 -0.1)">
       <use xlink:href="#DejaVuSans-2212"/>
       <use xlink:href="#DejaVuSans-30" x="83.789062"/>
       <use xlink:href="#DejaVuSans-2e" x="147.412109"/>
       <use xlink:href="#DejaVuSans-35" x="179.199219"/>
      </g>
     </g>
    </g>
    <g id="xtick_13">
     <g id="line2d_25">
      <g>
       <use xlink:href="#mf7fbd28dbe" x="125.36" y="317.72" style="stroke: #000000; stroke-width: 0.8"/>
      </g>
     </g>
     <g id="text_21">
      <!-- 0.0 -->
      <g transform="translate(117.408437 332.318437)scale(0.1 -0.1)">
       <use xlink:href="#DejaVuSans-30"/>
       <use xlink:href="#DejaVuSans-2e" x="63.623047"/>
       <use xlink:href="#DejaVuSans-30" x="95.410156"/>
      </g>
     </g>
    </g>
    <g id="xtick_14">
     <g id="line2d_26">
      <g>
       <use xlink:href="#mf7fbd28dbe" x="167.901744" y="317.72" style="stroke: #000000; stroke-width: 0.8"/>
      </g>
     </g>
     <g id="text_22">
      <!-- 0.5 -->
      <g transform="translate(159.950181 332.318437)scale(0.1 -0.1)">
       <use xlink:href="#DejaVuSans-30"/>
       <use xlink:href="#DejaVuSans-2e" x="63.623047"/>
       <use xlink:href="#DejaVuSans-35" x="95.410156"/>
      </g>
     </g>
    </g>
    <g id="xtick_15">
     <g id="line2d_27">
      <g>
       <use xlink:href="#mf7fbd28dbe" x="210.443488" y="317.72" style="stroke: #000000; stroke-width: 0.8"/>
      </g>
     </g>
     <g id="text_23">
      <!-- 1.0 -->
      <g transform="translate(202.491925 332.318437)scale(0.1 -0.1)">
       <use xlink:href="#DejaVuSans-31"/>
       <use xlink:href="#DejaVuSans-2e" x="63.623047"/>
       <use xlink:href="#DejaVuSans-30" x="95.410156"/>
      </g>
     </g>
    </g>
   </g>
   <g id="matplotlib.axis_6">
    <g id="ytick_7">
     <g id="line2d_28">
      <g>
       <use xlink:href="#m5ec0bb0a01" x="33.64" y="312.308501" style="stroke: #000000; stroke-width: 0.8"/>
      </g>
     </g>
     <g id="text_24">
      <!-- 0.00 -->
      <g transform="translate(4.374375 316.10772)scale(0.1 -0.1)">
       <use xlink:href="#DejaVuSans-30"/>
       <use xlink:href="#DejaVuSans-2e" x="63.623047"/>
       <use xlink:href="#DejaVuSans-30" x="95.410156"/>
       <use xlink:href="#DejaVuSans-30" x="159.033203"/>
      </g>
     </g>
    </g>
    <g id="ytick_8">
     <g id="line2d_29">
      <g>
       <use xlink:href="#m5ec0bb0a01" x="33.64" y="287.73864" style="stroke: #000000; stroke-width: 0.8"/>
      </g>
     </g>
     <g id="text_25">
      <!-- 0.02 -->
      <g transform="translate(4.374375 291.537858)scale(0.1 -0.1)">
       <use xlink:href="#DejaVuSans-30"/>
       <use xlink:href="#DejaVuSans-2e" x="63.623047"/>
       <use xlink:href="#DejaVuSans-30" x="95.410156"/>
       <use xlink:href="#DejaVuSans-32" x="159.033203"/>
      </g>
     </g>
    </g>
    <g id="ytick_9">
     <g id="line2d_30">
      <g>
       <use xlink:href="#m5ec0bb0a01" x="33.64" y="263.168778" style="stroke: #000000; stroke-width: 0.8"/>
      </g>
     </g>
     <g id="text_26">
      <!-- 0.04 -->
      <g transform="translate(4.374375 266.967997)scale(0.1 -0.1)">
       <use xlink:href="#DejaVuSans-30"/>
       <use xlink:href="#DejaVuSans-2e" x="63.623047"/>
       <use xlink:href="#DejaVuSans-30" x="95.410156"/>
       <use xlink:href="#DejaVuSans-34" x="159.033203"/>
      </g>
     </g>
    </g>
    <g id="ytick_10">
     <g id="line2d_31">
      <g>
       <use xlink:href="#m5ec0bb0a01" x="33.64" y="238.598917" style="stroke: #000000; stroke-width: 0.8"/>
      </g>
     </g>
     <g id="text_27">
      <!-- 0.06 -->
      <g transform="translate(4.374375 242.398135)scale(0.1 -0.1)">
       <defs>
        <path id="DejaVuSans-36" d="M 2113 2584 
Q 1688 2584 1439 2293 
Q 1191 2003 1191 1497 
Q 1191 994 1439 701 
Q 1688 409 2113 409 
Q 2538 409 2786 701 
Q 3034 994 3034 1497 
Q 3034 2003 2786 2293 
Q 2538 2584 2113 2584 
z
M 3366 4563 
L 3366 3988 
Q 3128 4100 2886 4159 
Q 2644 4219 2406 4219 
Q 1781 4219 1451 3797 
Q 1122 3375 1075 2522 
Q 1259 2794 1537 2939 
Q 1816 3084 2150 3084 
Q 2853 3084 3261 2657 
Q 3669 2231 3669 1497 
Q 3669 778 3244 343 
Q 2819 -91 2113 -91 
Q 1303 -91 875 529 
Q 447 1150 447 2328 
Q 447 3434 972 4092 
Q 1497 4750 2381 4750 
Q 2619 4750 2861 4703 
Q 3103 4656 3366 4563 
z
" transform="scale(0.015625)"/>
       </defs>
       <use xlink:href="#DejaVuSans-30"/>
       <use xlink:href="#DejaVuSans-2e" x="63.623047"/>
       <use xlink:href="#DejaVuSans-30" x="95.410156"/>
       <use xlink:href="#DejaVuSans-36" x="159.033203"/>
      </g>
     </g>
    </g>
    <g id="ytick_11">
     <g id="line2d_32">
      <g>
       <use xlink:href="#m5ec0bb0a01" x="33.64" y="214.029055" style="stroke: #000000; stroke-width: 0.8"/>
      </g>
     </g>
     <g id="text_28">
      <!-- 0.08 -->
      <g transform="translate(4.374375 217.828274)scale(0.1 -0.1)">
       <defs>
        <path id="DejaVuSans-38" d="M 2034 2216 
Q 1584 2216 1326 1975 
Q 1069 1734 1069 1313 
Q 1069 891 1326 650 
Q 1584 409 2034 409 
Q 2484 409 2743 651 
Q 3003 894 3003 1313 
Q 3003 1734 2745 1975 
Q 2488 2216 2034 2216 
z
M 1403 2484 
Q 997 2584 770 2862 
Q 544 3141 544 3541 
Q 544 4100 942 4425 
Q 1341 4750 2034 4750 
Q 2731 4750 3128 4425 
Q 3525 4100 3525 3541 
Q 3525 3141 3298 2862 
Q 3072 2584 2669 2484 
Q 3125 2378 3379 2068 
Q 3634 1759 3634 1313 
Q 3634 634 3220 271 
Q 2806 -91 2034 -91 
Q 1263 -91 848 271 
Q 434 634 434 1313 
Q 434 1759 690 2068 
Q 947 2378 1403 2484 
z
M 1172 3481 
Q 1172 3119 1398 2916 
Q 1625 2713 2034 2713 
Q 2441 2713 2670 2916 
Q 2900 3119 2900 3481 
Q 2900 3844 2670 4047 
Q 2441 4250 2034 4250 
Q 1625 4250 1398 4047 
Q 1172 3844 1172 3481 
z
" transform="scale(0.015625)"/>
       </defs>
       <use xlink:href="#DejaVuSans-30"/>
       <use xlink:href="#DejaVuSans-2e" x="63.623047"/>
       <use xlink:href="#DejaVuSans-30" x="95.410156"/>
       <use xlink:href="#DejaVuSans-38" x="159.033203"/>
      </g>
     </g>
    </g>
   </g>
   <g id="line2d_33">
    <path d="M 41.978182 312.307273 
L 45.381521 312.307273 
L 48.784861 312.307273 
L 52.17913 312.306983 
L 55.004798 305.566854 
L 56.444807 210.679048 
L 57.056158 204.052727 
L 57.691752 211.369659 
L 58.36971 212.81515 
L 59.083213 215.364957 
L 59.845099 220.038341 
L 60.664376 223.742594 
L 61.542493 226.703775 
L 62.486199 230.132545 
L 63.506728 233.597108 
L 64.614682 236.813345 
L 65.823102 240.001973 
L 67.149615 243.167279 
L 68.616026 246.235412 
L 70.249778 249.217561 
L 72.087932 252.109234 
L 74.187814 254.882233 
L 76.573119 257.52021 
L 79.122269 259.841773 
L 82.498402 262.128409 
L 106.674865 261.20284 
L 150.851814 261.20284 
L 175.028277 262.128409 
L 178.40441 259.841773 
L 180.95356 257.52021 
L 183.338865 254.882233 
L 185.438747 252.109234 
L 187.276901 249.217561 
L 188.910653 246.235412 
L 190.377064 243.167279 
L 191.703577 240.001973 
L 192.911997 236.813345 
L 194.019951 233.597108 
L 195.04048 230.132545 
L 195.984186 226.703775 
L 196.862303 223.742594 
L 197.68158 220.038341 
L 198.443466 215.364957 
L 199.156969 212.81515 
L 199.834927 211.369659 
L 200.470521 204.052727 
L 201.081872 210.679048 
L 202.521881 305.566854 
L 205.347549 312.306983 
L 208.741818 312.307273 
" clip-path="url(#p452fe19bd7)" style="fill: none; stroke: #0000ff; stroke-width: 1.5; stroke-linecap: square"/>
   </g>
   <g id="line2d_34">
    <path d="M 84.58639 317.72 
L 84.58639 198.64 
" clip-path="url(#p452fe19bd7)" style="fill: none; stroke: #1f77b4; stroke-width: 1.5; stroke-linecap: square"/>
   </g>
   <g id="line2d_35">
    <path d="M 172.940289 317.72 
L 172.940289 198.64 
" clip-path="url(#p452fe19bd7)" style="fill: none; stroke: #1f77b4; stroke-width: 1.5; stroke-linecap: square"/>
   </g>
   <g id="LineCollection_3">
    <path d="M 40.276512 312.307273 
L 43.679852 312.307273 
" clip-path="url(#p452fe19bd7)" style="fill: none; stroke: #0000ff; stroke-width: 2"/>
    <path d="M 43.679852 312.307273 
L 47.083191 312.307273 
" clip-path="url(#p452fe19bd7)" style="fill: none; stroke: #0000ff; stroke-width: 2"/>
    <path d="M 47.083191 312.307273 
L 50.486531 312.307273 
" clip-path="url(#p452fe19bd7)" style="fill: none; stroke: #0000ff; stroke-width: 2"/>
    <path d="M 50.486531 312.307273 
L 53.87173 312.307273 
" clip-path="url(#p452fe19bd7)" style="fill: none; stroke: #0000ff; stroke-width: 2"/>
    <path d="M 53.87173 312.307273 
L 56.137866 312.307273 
" clip-path="url(#p452fe19bd7)" style="fill: none; stroke: #0000ff; stroke-width: 2"/>
    <path d="M 56.137866 312.307273 
L 56.751748 312.307273 
" clip-path="url(#p452fe19bd7)" style="fill: none; stroke: #0000ff; stroke-width: 2"/>
    <path d="M 56.751748 312.307273 
L 57.360569 312.307273 
" clip-path="url(#p452fe19bd7)" style="fill: none; stroke: #0000ff; stroke-width: 2"/>
    <path d="M 57.360569 312.307273 
L 58.022936 312.307273 
" clip-path="url(#p452fe19bd7)" style="fill: none; stroke: #0000ff; stroke-width: 2"/>
    <path d="M 58.022936 312.307273 
L 58.716485 312.307273 
" clip-path="url(#p452fe19bd7)" style="fill: none; stroke: #0000ff; stroke-width: 2"/>
    <path d="M 58.716485 312.307273 
L 59.449942 312.307273 
" clip-path="url(#p452fe19bd7)" style="fill: none; stroke: #0000ff; stroke-width: 2"/>
    <path d="M 59.449942 312.307273 
L 60.240255 312.307273 
" clip-path="url(#p452fe19bd7)" style="fill: none; stroke: #0000ff; stroke-width: 2"/>
    <path d="M 60.240255 312.307273 
L 61.088497 312.307273 
" clip-path="url(#p452fe19bd7)" style="fill: none; stroke: #0000ff; stroke-width: 2"/>
    <path d="M 61.088497 312.307273 
L 61.996489 312.307273 
" clip-path="url(#p452fe19bd7)" style="fill: none; stroke: #0000ff; stroke-width: 2"/>
    <path d="M 61.996489 312.307273 
L 62.97591 312.307273 
" clip-path="url(#p452fe19bd7)" style="fill: none; stroke: #0000ff; stroke-width: 2"/>
    <path d="M 62.97591 312.307273 
L 64.037546 312.307273 
" clip-path="url(#p452fe19bd7)" style="fill: none; stroke: #0000ff; stroke-width: 2"/>
    <path d="M 64.037546 312.307273 
L 65.191818 312.307273 
" clip-path="url(#p452fe19bd7)" style="fill: none; stroke: #0000ff; stroke-width: 2"/>
    <path d="M 65.191818 312.307273 
L 66.454386 312.307273 
" clip-path="url(#p452fe19bd7)" style="fill: none; stroke: #0000ff; stroke-width: 2"/>
    <path d="M 66.454386 312.307273 
L 67.844845 312.307273 
" clip-path="url(#p452fe19bd7)" style="fill: none; stroke: #0000ff; stroke-width: 2"/>
    <path d="M 67.844845 312.307273 
L 69.387206 312.307273 
" clip-path="url(#p452fe19bd7)" style="fill: none; stroke: #0000ff; stroke-width: 2"/>
    <path d="M 69.387206 312.307273 
L 71.112349 312.307273 
" clip-path="url(#p452fe19bd7)" style="fill: none; stroke: #0000ff; stroke-width: 2"/>
    <path d="M 71.112349 312.307273 
L 73.063515 312.307273 
" clip-path="url(#p452fe19bd7)" style="fill: none; stroke: #0000ff; stroke-width: 2"/>
    <path d="M 73.063515 312.307273 
L 75.312113 312.307273 
" clip-path="url(#p452fe19bd7)" style="fill: none; stroke: #0000ff; stroke-width: 2"/>
    <path d="M 75.312113 312.307273 
L 77.834124 312.307273 
" clip-path="url(#p452fe19bd7)" style="fill: none; stroke: #00ff00; stroke-width: 2"/>
    <path d="M 77.834124 312.307273 
L 80.410415 312.307273 
" clip-path="url(#p452fe19bd7)" style="fill: none; stroke: #00ff00; stroke-width: 2"/>
    <path d="M 80.410415 312.307273 
L 84.58639 312.307273 
" clip-path="url(#p452fe19bd7)" style="fill: none; stroke: #00ff00; stroke-width: 2"/>
    <path d="M 84.58639 312.307273 
L 128.76334 312.307273 
" clip-path="url(#p452fe19bd7)" style="fill: none; stroke: #00ff00; stroke-width: 2"/>
    <path d="M 128.76334 312.307273 
L 172.940289 312.307273 
" clip-path="url(#p452fe19bd7)" style="fill: none; stroke: #ff8080; stroke-width: 2"/>
    <path d="M 172.940289 312.307273 
L 177.116264 312.307273 
" clip-path="url(#p452fe19bd7)" style="fill: none; stroke: #00ff00; stroke-width: 2"/>
    <path d="M 177.116264 312.307273 
L 179.692555 312.307273 
" clip-path="url(#p452fe19bd7)" style="fill: none; stroke: #00ff00; stroke-width: 2"/>
    <path d="M 179.692555 312.307273 
L 182.214566 312.307273 
" clip-path="url(#p452fe19bd7)" style="fill: none; stroke: #0000ff; stroke-width: 2"/>
    <path d="M 182.214566 312.307273 
L 184.463164 312.307273 
" clip-path="url(#p452fe19bd7)" style="fill: none; stroke: #0000ff; stroke-width: 2"/>
    <path d="M 184.463164 312.307273 
L 186.41433 312.307273 
" clip-path="url(#p452fe19bd7)" style="fill: none; stroke: #0000ff; stroke-width: 2"/>
    <path d="M 186.41433 312.307273 
L 188.139473 312.307273 
" clip-path="url(#p452fe19bd7)" style="fill: none; stroke: #0000ff; stroke-width: 2"/>
    <path d="M 188.139473 312.307273 
L 189.681834 312.307273 
" clip-path="url(#p452fe19bd7)" style="fill: none; stroke: #0000ff; stroke-width: 2"/>
    <path d="M 189.681834 312.307273 
L 191.072293 312.307273 
" clip-path="url(#p452fe19bd7)" style="fill: none; stroke: #0000ff; stroke-width: 2"/>
    <path d="M 191.072293 312.307273 
L 192.334861 312.307273 
" clip-path="url(#p452fe19bd7)" style="fill: none; stroke: #0000ff; stroke-width: 2"/>
    <path d="M 192.334861 312.307273 
L 193.489133 312.307273 
" clip-path="url(#p452fe19bd7)" style="fill: none; stroke: #0000ff; stroke-width: 2"/>
    <path d="M 193.489133 312.307273 
L 194.550769 312.307273 
" clip-path="url(#p452fe19bd7)" style="fill: none; stroke: #0000ff; stroke-width: 2"/>
    <path d="M 194.550769 312.307273 
L 195.53019 312.307273 
" clip-path="url(#p452fe19bd7)" style="fill: none; stroke: #0000ff; stroke-width: 2"/>
    <path d="M 195.53019 312.307273 
L 196.438182 312.307273 
" clip-path="url(#p452fe19bd7)" style="fill: none; stroke: #0000ff; stroke-width: 2"/>
    <path d="M 196.438182 312.307273 
L 197.286424 312.307273 
" clip-path="url(#p452fe19bd7)" style="fill: none; stroke: #0000ff; stroke-width: 2"/>
    <path d="M 197.286424 312.307273 
L 198.076737 312.307273 
" clip-path="url(#p452fe19bd7)" style="fill: none; stroke: #0000ff; stroke-width: 2"/>
    <path d="M 198.076737 312.307273 
L 198.810194 312.307273 
" clip-path="url(#p452fe19bd7)" style="fill: none; stroke: #0000ff; stroke-width: 2"/>
    <path d="M 198.810194 312.307273 
L 199.503743 312.307273 
" clip-path="url(#p452fe19bd7)" style="fill: none; stroke: #0000ff; stroke-width: 2"/>
    <path d="M 199.503743 312.307273 
L 200.16611 312.307273 
" clip-path="url(#p452fe19bd7)" style="fill: none; stroke: #0000ff; stroke-width: 2"/>
    <path d="M 200.16611 312.307273 
L 200.774931 312.307273 
" clip-path="url(#p452fe19bd7)" style="fill: none; stroke: #0000ff; stroke-width: 2"/>
    <path d="M 200.774931 312.307273 
L 201.388813 312.307273 
" clip-path="url(#p452fe19bd7)" style="fill: none; stroke: #0000ff; stroke-width: 2"/>
    <path d="M 201.388813 312.307273 
L 203.654949 312.307273 
" clip-path="url(#p452fe19bd7)" style="fill: none; stroke: #0000ff; stroke-width: 2"/>
    <path d="M 203.654949 312.307273 
L 207.040148 312.307273 
" clip-path="url(#p452fe19bd7)" style="fill: none; stroke: #0000ff; stroke-width: 2"/>
    <path d="M 207.040148 312.307273 
L 210.443488 312.307273 
" clip-path="url(#p452fe19bd7)" style="fill: none; stroke: #0000ff; stroke-width: 2"/>
   </g>
   <g id="patch_13">
    <path d="M 33.64 317.72 
L 33.64 198.64 
" style="fill: none; stroke: #000000; stroke-width: 0.8; stroke-linejoin: miter; stroke-linecap: square"/>
   </g>
   <g id="patch_14">
    <path d="M 217.08 317.72 
L 217.08 198.64 
" style="fill: none; stroke: #000000; stroke-width: 0.8; stroke-linejoin: miter; stroke-linecap: square"/>
   </g>
   <g id="patch_15">
    <path d="M 33.64 317.72 
L 217.08 317.72 
" style="fill: none; stroke: #000000; stroke-width: 0.8; stroke-linejoin: miter; stroke-linecap: square"/>
   </g>
   <g id="patch_16">
    <path d="M 33.64 198.64 
L 217.08 198.64 
" style="fill: none; stroke: #000000; stroke-width: 0.8; stroke-linejoin: miter; stroke-linecap: square"/>
   </g>
   <g id="text_29">
    <!-- Pressure -->
    <g transform="translate(99.746562 192.64)scale(0.12 -0.12)">
     <defs>
      <path id="DejaVuSans-50" d="M 1259 4147 
L 1259 2394 
L 2053 2394 
Q 2494 2394 2734 2622 
Q 2975 2850 2975 3272 
Q 2975 3691 2734 3919 
Q 2494 4147 2053 4147 
L 1259 4147 
z
M 628 4666 
L 2053 4666 
Q 2838 4666 3239 4311 
Q 3641 3956 3641 3272 
Q 3641 2581 3239 2228 
Q 2838 1875 2053 1875 
L 1259 1875 
L 1259 0 
L 628 0 
L 628 4666 
z
" transform="scale(0.015625)"/>
      <path id="DejaVuSans-75" d="M 544 1381 
L 544 3500 
L 1119 3500 
L 1119 1403 
Q 1119 906 1312 657 
Q 1506 409 1894 409 
Q 2359 409 2629 706 
Q 2900 1003 2900 1516 
L 2900 3500 
L 3475 3500 
L 3475 0 
L 2900 0 
L 2900 538 
Q 2691 219 2414 64 
Q 2138 -91 1772 -91 
Q 1169 -91 856 284 
Q 544 659 544 1381 
z
M 1991 3584 
L 1991 3584 
z
" transform="scale(0.015625)"/>
     </defs>
     <use xlink:href="#DejaVuSans-50"/>
     <use xlink:href="#DejaVuSans-72" x="58.552734"/>
     <use xlink:href="#DejaVuSans-65" x="97.416016"/>
     <use xlink:href="#DejaVuSans-73" x="158.939453"/>
     <use xlink:href="#DejaVuSans-73" x="211.039062"/>
     <use xlink:href="#DejaVuSans-75" x="263.138672"/>
     <use xlink:href="#DejaVuSans-72" x="326.517578"/>
     <use xlink:href="#DejaVuSans-65" x="365.380859"/>
    </g>
   </g>
  </g>
  <g id="axes_4">
   <g id="patch_17">
    <path d="M 258.64 317.72 
L 442.08 317.72 
L 442.08 198.64 
L 258.64 198.64 
z
" style="fill: #ffffff"/>
   </g>
   <g id="matplotlib.axis_7">
    <g id="xtick_16">
     <g id="line2d_36">
      <g>
       <use xlink:href="#mf7fbd28dbe" x="265.276512" y="317.72" style="stroke: #000000; stroke-width: 0.8"/>
      </g>
     </g>
     <g id="text_30">
      <!-- −1.0 -->
      <g transform="translate(253.135106 332.318437)scale(0.1 -0.1)">
       <use xlink:href="#DejaVuSans-2212"/>
       <use xlink:href="#DejaVuSans-31" x="83.789062"/>
       <use xlink:href="#DejaVuSans-2e" x="147.412109"/>
       <use xlink:href="#DejaVuSans-30" x="179.199219"/>
      </g>
     </g>
    </g>
    <g id="xtick_17">
     <g id="line2d_37">
      <g>
       <use xlink:href="#mf7fbd28dbe" x="307.818256" y="317.72" style="stroke: #000000; stroke-width: 0.8"/>
      </g>
     </g>
     <g id="text_31">
      <!-- −0.5 -->
      <g transform="translate(295.67685 332.318437)scale(0.1 -0.1)">
       <use xlink:href="#DejaVuSans-2212"/>
       <use xlink:href="#DejaVuSans-30" x="83.789062"/>
       <use xlink:href="#DejaVuSans-2e" x="147.412109"/>
       <use xlink:href="#DejaVuSans-35" x="179.199219"/>
      </g>
     </g>
    </g>
    <g id="xtick_18">
     <g id="line2d_38">
      <g>
       <use xlink:href="#mf7fbd28dbe" x="350.36" y="317.72" style="stroke: #000000; stroke-width: 0.8"/>
      </g>
     </g>
     <g id="text_32">
      <!-- 0.0 -->
      <g transform="translate(342.408437 332.318437)scale(0.1 -0.1)">
       <use xlink:href="#DejaVuSans-30"/>
       <use xlink:href="#DejaVuSans-2e" x="63.623047"/>
       <use xlink:href="#DejaVuSans-30" x="95.410156"/>
      </g>
     </g>
    </g>
    <g id="xtick_19">
     <g id="line2d_39">
      <g>
       <use xlink:href="#mf7fbd28dbe" x="392.901744" y="317.72" style="stroke: #000000; stroke-width: 0.8"/>
      </g>
     </g>
     <g id="text_33">
      <!-- 0.5 -->
      <g transform="translate(384.950181 332.318437)scale(0.1 -0.1)">
       <use xlink:href="#DejaVuSans-30"/>
       <use xlink:href="#DejaVuSans-2e" x="63.623047"/>
       <use xlink:href="#DejaVuSans-35" x="95.410156"/>
      </g>
     </g>
    </g>
    <g id="xtick_20">
     <g id="line2d_40">
      <g>
       <use xlink:href="#mf7fbd28dbe" x="435.443488" y="317.72" style="stroke: #000000; stroke-width: 0.8"/>
      </g>
     </g>
     <g id="text_34">
      <!-- 1.0 -->
      <g transform="translate(427.491925 332.318437)scale(0.1 -0.1)">
       <use xlink:href="#DejaVuSans-31"/>
       <use xlink:href="#DejaVuSans-2e" x="63.623047"/>
       <use xlink:href="#DejaVuSans-30" x="95.410156"/>
      </g>
     </g>
    </g>
   </g>
   <g id="matplotlib.axis_8">
    <g id="ytick_12">
     <g id="line2d_41">
      <g>
       <use xlink:href="#m5ec0bb0a01" x="258.64" y="297.853342" style="stroke: #000000; stroke-width: 0.8"/>
      </g>
     </g>
     <g id="text_35">
      <!-- −0.2 -->
      <g transform="translate(227.357187 301.65256)scale(0.1 -0.1)">
       <use xlink:href="#DejaVuSans-2212"/>
       <use xlink:href="#DejaVuSans-30" x="83.789062"/>
       <use xlink:href="#DejaVuSans-2e" x="147.412109"/>
       <use xlink:href="#DejaVuSans-32" x="179.199219"/>
      </g>
     </g>
    </g>
    <g id="ytick_13">
     <g id="line2d_42">
      <g>
       <use xlink:href="#m5ec0bb0a01" x="258.64" y="258.18" style="stroke: #000000; stroke-width: 0.8"/>
      </g>
     </g>
     <g id="text_36">
      <!-- 0.0 -->
      <g transform="translate(235.736875 261.979219)scale(0.1 -0.1)">
       <use xlink:href="#DejaVuSans-30"/>
       <use xlink:href="#DejaVuSans-2e" x="63.623047"/>
       <use xlink:href="#DejaVuSans-30" x="95.410156"/>
      </g>
     </g>
    </g>
    <g id="ytick_14">
     <g id="line2d_43">
      <g>
       <use xlink:href="#m5ec0bb0a01" x="258.64" y="218.506658" style="stroke: #000000; stroke-width: 0.8"/>
      </g>
     </g>
     <g id="text_37">
      <!-- 0.2 -->
      <g transform="translate(235.736875 222.305877)scale(0.1 -0.1)">
       <use xlink:href="#DejaVuSans-30"/>
       <use xlink:href="#DejaVuSans-2e" x="63.623047"/>
       <use xlink:href="#DejaVuSans-32" x="95.410156"/>
      </g>
     </g>
    </g>
   </g>
   <g id="line2d_44">
    <path d="M 266.978182 258.18 
L 270.381521 258.18 
L 273.784861 258.18 
L 277.17913 258.191991 
L 280.004798 271.14028 
L 281.444807 306.298816 
L 282.056158 312.307273 
L 282.691752 311.922716 
L 283.36971 310.732276 
L 284.083213 309.738981 
L 284.845099 309.23598 
L 285.664376 308.464056 
L 286.542493 307.494311 
L 287.486199 306.60401 
L 288.506728 305.682531 
L 289.614682 304.64139 
L 290.823102 303.540183 
L 292.149615 302.370469 
L 293.616026 301.098897 
L 295.249778 299.719257 
L 297.087932 298.215202 
L 299.187814 296.544856 
L 301.573119 294.737958 
L 304.122269 292.924206 
L 307.498402 291.231902 
L 331.674865 274.101272 
L 375.851814 242.258728 
L 400.028277 225.128098 
L 403.40441 223.435794 
L 405.95356 221.622042 
L 408.338865 219.815144 
L 410.438747 218.144798 
L 412.276901 216.640743 
L 413.910653 215.261103 
L 415.377064 213.989531 
L 416.703577 212.819817 
L 417.911997 211.71861 
L 419.019951 210.677469 
L 420.04048 209.75599 
L 420.984186 208.865689 
L 421.862303 207.895944 
L 422.68158 207.12402 
L 423.443466 206.621019 
L 424.156969 205.627724 
L 424.834927 204.437284 
L 425.470521 204.052727 
L 426.081872 210.061184 
L 427.521881 245.21972 
L 430.347549 258.168009 
L 433.741818 258.18 
" clip-path="url(#pdc2084b383)" style="fill: none; stroke: #008000; stroke-width: 1.5; stroke-linecap: square"/>
   </g>
   <g id="line2d_45">
    <path d="M 309.58639 317.72 
L 309.58639 198.64 
" clip-path="url(#pdc2084b383)" style="fill: none; stroke: #1f77b4; stroke-width: 1.5; stroke-linecap: square"/>
   </g>
   <g id="line2d_46">
    <path d="M 397.940289 317.72 
L 397.940289 198.64 
" clip-path="url(#pdc2084b383)" style="fill: none; stroke: #1f77b4; stroke-width: 1.5; stroke-linecap: square"/>
   </g>
   <g id="LineCollection_4">
    <path d="M 265.276512 258.18 
L 268.679852 258.18 
" clip-path="url(#pdc2084b383)" style="fill: none; stroke: #0000ff; stroke-width: 2"/>
    <path d="M 268.679852 258.18 
L 272.083191 258.18 
" clip-path="url(#pdc2084b383)" style="fill: none; stroke: #0000ff; stroke-width: 2"/>
    <path d="M 272.083191 258.18 
L 275.486531 258.18 
" clip-path="url(#pdc2084b383)" style="fill: none; stroke: #0000ff; stroke-width: 2"/>
    <path d="M 275.486531 258.18 
L 278.87173 258.18 
" clip-path="url(#pdc2084b383)" style="fill: none; stroke: #0000ff; stroke-width: 2"/>
    <path d="M 278.87173 258.18 
L 281.137866 258.18 
" clip-path="url(#pdc2084b383)" style="fill: none; stroke: #0000ff; stroke-width: 2"/>
    <path d="M 281.137866 258.18 
L 281.751748 258.18 
" clip-path="url(#pdc2084b383)" style="fill: none; stroke: #0000ff; stroke-width: 2"/>
    <path d="M 281.751748 258.18 
L 282.360569 258.18 
" clip-path="url(#pdc2084b383)" style="fill: none; stroke: #0000ff; stroke-width: 2"/>
    <path d="M 282.360569 258.18 
L 283.022936 258.18 
" clip-path="url(#pdc2084b383)" style="fill: none; stroke: #0000ff; stroke-width: 2"/>
    <path d="M 283.022936 258.18 
L 283.716485 258.18 
" clip-path="url(#pdc2084b383)" style="fill: none; stroke: #0000ff; stroke-width: 2"/>
    <path d="M 283.716485 258.18 
L 284.449942 258.18 
" clip-path="url(#pdc2084b383)" style="fill: none; stroke: #0000ff; stroke-width: 2"/>
    <path d="M 284.449942 258.18 
L 285.240255 258.18 
" clip-path="url(#pdc2084b383)" style="fill: none; stroke: #0000ff; stroke-width: 2"/>
    <path d="M 285.240255 258.18 
L 286.088497 258.18 
" clip-path="url(#pdc2084b383)" style="fill: none; stroke: #0000ff; stroke-width: 2"/>
    <path d="M 286.088497 258.18 
L 286.996489 258.18 
" clip-path="url(#pdc2084b383)" style="fill: none; stroke: #0000ff; stroke-width: 2"/>
    <path d="M 286.996489 258.18 
L 287.97591 258.18 
" clip-path="url(#pdc2084b383)" style="fill: none; stroke: #0000ff; stroke-width: 2"/>
    <path d="M 287.97591 258.18 
L 289.037546 258.18 
" clip-path="url(#pdc2084b383)" style="fill: none; stroke: #0000ff; stroke-width: 2"/>
    <path d="M 289.037546 258.18 
L 290.191818 258.18 
" clip-path="url(#pdc2084b383)" style="fill: none; stroke: #0000ff; stroke-width: 2"/>
    <path d="M 290.191818 258.18 
L 291.454386 258.18 
" clip-path="url(#pdc2084b383)" style="fill: none; stroke: #0000ff; stroke-width: 2"/>
    <path d="M 291.454386 258.18 
L 292.844845 258.18 
" clip-path="url(#pdc2084b383)" style="fill: none; stroke: #0000ff; stroke-width: 2"/>
    <path d="M 292.844845 258.18 
L 294.387206 258.18 
" clip-path="url(#pdc2084b383)" style="fill: none; stroke: #0000ff; stroke-width: 2"/>
    <path d="M 294.387206 258.18 
L 296.112349 258.18 
" clip-path="url(#pdc2084b383)" style="fill: none; stroke: #0000ff; stroke-width: 2"/>
    <path d="M 296.112349 258.18 
L 298.063515 258.18 
" clip-path="url(#pdc2084b383)" style="fill: none; stroke: #0000ff; stroke-width: 2"/>
    <path d="M 298.063515 258.18 
L 300.312113 258.18 
" clip-path="url(#pdc2084b383)" style="fill: none; stroke: #0000ff; stroke-width: 2"/>
    <path d="M 300.312113 258.18 
L 302.834124 258.18 
" clip-path="url(#pdc2084b383)" style="fill: none; stroke: #00ff00; stroke-width: 2"/>
    <path d="M 302.834124 258.18 
L 305.410415 258.18 
" clip-path="url(#pdc2084b383)" style="fill: none; stroke: #00ff00; stroke-width: 2"/>
    <path d="M 305.410415 258.18 
L 309.58639 258.18 
" clip-path="url(#pdc2084b383)" style="fill: none; stroke: #00ff00; stroke-width: 2"/>
    <path d="M 309.58639 258.18 
L 353.76334 258.18 
" clip-path="url(#pdc2084b383)" style="fill: none; stroke: #00ff00; stroke-width: 2"/>
    <path d="M 353.76334 258.18 
L 397.940289 258.18 
" clip-path="url(#pdc2084b383)" style="fill: none; stroke: #ff8080; stroke-width: 2"/>
    <path d="M 397.940289 258.18 
L 402.116264 258.18 
" clip-path="url(#pdc2084b383)" style="fill: none; stroke: #00ff00; stroke-width: 2"/>
    <path d="M 402.116264 258.18 
L 404.692555 258.18 
" clip-path="url(#pdc2084b383)" style="fill: none; stroke: #00ff00; stroke-width: 2"/>
    <path d="M 404.692555 258.18 
L 407.214566 258.18 
" clip-path="url(#pdc2084b383)" style="fill: none; stroke: #0000ff; stroke-width: 2"/>
    <path d="M 407.214566 258.18 
L 409.463164 258.18 
" clip-path="url(#pdc2084b383)" style="fill: none; stroke: #0000ff; stroke-width: 2"/>
    <path d="M 409.463164 258.18 
L 411.41433 258.18 
" clip-path="url(#pdc2084b383)" style="fill: none; stroke: #0000ff; stroke-width: 2"/>
    <path d="M 411.41433 258.18 
L 413.139473 258.18 
" clip-path="url(#pdc2084b383)" style="fill: none; stroke: #0000ff; stroke-width: 2"/>
    <path d="M 413.139473 258.18 
L 414.681834 258.18 
" clip-path="url(#pdc2084b383)" style="fill: none; stroke: #0000ff; stroke-width: 2"/>
    <path d="M 414.681834 258.18 
L 416.072293 258.18 
" clip-path="url(#pdc2084b383)" style="fill: none; stroke: #0000ff; stroke-width: 2"/>
    <path d="M 416.072293 258.18 
L 417.334861 258.18 
" clip-path="url(#pdc2084b383)" style="fill: none; stroke: #0000ff; stroke-width: 2"/>
    <path d="M 417.334861 258.18 
L 418.489133 258.18 
" clip-path="url(#pdc2084b383)" style="fill: none; stroke: #0000ff; stroke-width: 2"/>
    <path d="M 418.489133 258.18 
L 419.550769 258.18 
" clip-path="url(#pdc2084b383)" style="fill: none; stroke: #0000ff; stroke-width: 2"/>
    <path d="M 419.550769 258.18 
L 420.53019 258.18 
" clip-path="url(#pdc2084b383)" style="fill: none; stroke: #0000ff; stroke-width: 2"/>
    <path d="M 420.53019 258.18 
L 421.438182 258.18 
" clip-path="url(#pdc2084b383)" style="fill: none; stroke: #0000ff; stroke-width: 2"/>
    <path d="M 421.438182 258.18 
L 422.286424 258.18 
" clip-path="url(#pdc2084b383)" style="fill: none; stroke: #0000ff; stroke-width: 2"/>
    <path d="M 422.286424 258.18 
L 423.076737 258.18 
" clip-path="url(#pdc2084b383)" style="fill: none; stroke: #0000ff; stroke-width: 2"/>
    <path d="M 423.076737 258.18 
L 423.810194 258.18 
" clip-path="url(#pdc2084b383)" style="fill: none; stroke: #0000ff; stroke-width: 2"/>
    <path d="M 423.810194 258.18 
L 424.503743 258.18 
" clip-path="url(#pdc2084b383)" style="fill: none; stroke: #0000ff; stroke-width: 2"/>
    <path d="M 424.503743 258.18 
L 425.16611 258.18 
" clip-path="url(#pdc2084b383)" style="fill: none; stroke: #0000ff; stroke-width: 2"/>
    <path d="M 425.16611 258.18 
L 425.774931 258.18 
" clip-path="url(#pdc2084b383)" style="fill: none; stroke: #0000ff; stroke-width: 2"/>
    <path d="M 425.774931 258.18 
L 426.388813 258.18 
" clip-path="url(#pdc2084b383)" style="fill: none; stroke: #0000ff; stroke-width: 2"/>
    <path d="M 426.388813 258.18 
L 428.654949 258.18 
" clip-path="url(#pdc2084b383)" style="fill: none; stroke: #0000ff; stroke-width: 2"/>
    <path d="M 428.654949 258.18 
L 432.040148 258.18 
" clip-path="url(#pdc2084b383)" style="fill: none; stroke: #0000ff; stroke-width: 2"/>
    <path d="M 432.040148 258.18 
L 435.443488 258.18 
" clip-path="url(#pdc2084b383)" style="fill: none; stroke: #0000ff; stroke-width: 2"/>
   </g>
   <g id="patch_18">
    <path d="M 258.64 317.72 
L 258.64 198.64 
" style="fill: none; stroke: #000000; stroke-width: 0.8; stroke-linejoin: miter; stroke-linecap: square"/>
   </g>
   <g id="patch_19">
    <path d="M 442.08 317.72 
L 442.08 198.64 
" style="fill: none; stroke: #000000; stroke-width: 0.8; stroke-linejoin: miter; stroke-linecap: square"/>
   </g>
   <g id="patch_20">
    <path d="M 258.64 317.72 
L 442.08 317.72 
" style="fill: none; stroke: #000000; stroke-width: 0.8; stroke-linejoin: miter; stroke-linecap: square"/>
   </g>
   <g id="patch_21">
    <path d="M 258.64 198.64 
L 442.08 198.64 
" style="fill: none; stroke: #000000; stroke-width: 0.8; stroke-linejoin: miter; stroke-linecap: square"/>
   </g>
   <g id="text_38">
    <!-- Velocity -->
    <g transform="translate(326.82125 192.64)scale(0.12 -0.12)">
     <defs>
      <path id="DejaVuSans-56" d="M 1831 0 
L 50 4666 
L 709 4666 
L 2188 738 
L 3669 4666 
L 4325 4666 
L 2547 0 
L 1831 0 
z
" transform="scale(0.015625)"/>
      <path id="DejaVuSans-6f" d="M 1959 3097 
Q 1497 3097 1228 2736 
Q 959 2375 959 1747 
Q 959 1119 1226 758 
Q 1494 397 1959 397 
Q 2419 397 2687 759 
Q 2956 1122 2956 1747 
Q 2956 2369 2687 2733 
Q 2419 3097 1959 3097 
z
M 1959 3584 
Q 2709 3584 3137 3096 
Q 3566 2609 3566 1747 
Q 3566 888 3137 398 
Q 2709 -91 1959 -91 
Q 1206 -91 779 398 
Q 353 888 353 1747 
Q 353 2609 779 3096 
Q 1206 3584 1959 3584 
z
" transform="scale(0.015625)"/>
      <path id="DejaVuSans-63" d="M 3122 3366 
L 3122 2828 
Q 2878 2963 2633 3030 
Q 2388 3097 2138 3097 
Q 1578 3097 1268 2742 
Q 959 2388 959 1747 
Q 959 1106 1268 751 
Q 1578 397 2138 397 
Q 2388 397 2633 464 
Q 2878 531 3122 666 
L 3122 134 
Q 2881 22 2623 -34 
Q 2366 -91 2075 -91 
Q 1284 -91 818 406 
Q 353 903 353 1747 
Q 353 2603 823 3093 
Q 1294 3584 2113 3584 
Q 2378 3584 2631 3529 
Q 2884 3475 3122 3366 
z
" transform="scale(0.015625)"/>
     </defs>
     <use xlink:href="#DejaVuSans-56"/>
     <use xlink:href="#DejaVuSans-65" x="60.658203"/>
     <use xlink:href="#DejaVuSans-6c" x="122.181641"/>
     <use xlink:href="#DejaVuSans-6f" x="149.964844"/>
     <use xlink:href="#DejaVuSans-63" x="211.146484"/>
     <use xlink:href="#DejaVuSans-69" x="266.126953"/>
     <use xlink:href="#DejaVuSans-74" x="293.910156"/>
     <use xlink:href="#DejaVuSans-79" x="333.119141"/>
    </g>
   </g>
  </g>
  <g id="text_39">
   <!-- Elapsed time = 1.8 -->
   <g transform="translate(172.98375 16.030125)scale(0.12 -0.12)">
    <defs>
     <path id="DejaVuSans-45" d="M 628 4666 
L 3578 4666 
L 3578 4134 
L 1259 4134 
L 1259 2753 
L 3481 2753 
L 3481 2222 
L 1259 2222 
L 1259 531 
L 3634 531 
L 3634 0 
L 628 0 
L 628 4666 
z
" transform="scale(0.015625)"/>
     <path id="DejaVuSans-70" d="M 1159 525 
L 1159 -1331 
L 581 -1331 
L 581 3500 
L 1159 3500 
L 1159 2969 
Q 1341 3281 1617 3432 
Q 1894 3584 2278 3584 
Q 2916 3584 3314 3078 
Q 3713 2572 3713 1747 
Q 3713 922 3314 415 
Q 2916 -91 2278 -91 
Q 1894 -91 1617 61 
Q 1341 213 1159 525 
z
M 3116 1747 
Q 3116 2381 2855 2742 
Q 2594 3103 2138 3103 
Q 1681 3103 1420 2742 
Q 1159 2381 1159 1747 
Q 1159 1113 1420 752 
Q 1681 391 2138 391 
Q 2594 391 2855 752 
Q 3116 1113 3116 1747 
z
" transform="scale(0.015625)"/>
     <path id="DejaVuSans-64" d="M 2906 2969 
L 2906 4863 
L 3481 4863 
L 3481 0 
L 2906 0 
L 2906 525 
Q 2725 213 2448 61 
Q 2172 -91 1784 -91 
Q 1150 -91 751 415 
Q 353 922 353 1747 
Q 353 2572 751 3078 
Q 1150 3584 1784 3584 
Q 2172 3584 2448 3432 
Q 2725 3281 2906 2969 
z
M 947 1747 
Q 947 1113 1208 752 
Q 1469 391 1925 391 
Q 2381 391 2643 752 
Q 2906 1113 2906 1747 
Q 2906 2381 2643 2742 
Q 2381 3103 1925 3103 
Q 1469 3103 1208 2742 
Q 947 2381 947 1747 
z
" transform="scale(0.015625)"/>
     <path id="DejaVuSans-6d" d="M 3328 2828 
Q 3544 3216 3844 3400 
Q 4144 3584 4550 3584 
Q 5097 3584 5394 3201 
Q 5691 2819 5691 2113 
L 5691 0 
L 5113 0 
L 5113 2094 
Q 5113 2597 4934 2840 
Q 4756 3084 4391 3084 
Q 3944 3084 3684 2787 
Q 3425 2491 3425 1978 
L 3425 0 
L 2847 0 
L 2847 2094 
Q 2847 2600 2669 2842 
Q 2491 3084 2119 3084 
Q 1678 3084 1418 2786 
Q 1159 2488 1159 1978 
L 1159 0 
L 581 0 
L 581 3500 
L 1159 3500 
L 1159 2956 
Q 1356 3278 1631 3431 
Q 1906 3584 2284 3584 
Q 2666 3584 2933 3390 
Q 3200 3197 3328 2828 
z
" transform="scale(0.015625)"/>
     <path id="DejaVuSans-3d" d="M 678 2906 
L 4684 2906 
L 4684 2381 
L 678 2381 
L 678 2906 
z
M 678 1631 
L 4684 1631 
L 4684 1100 
L 678 1100 
L 678 1631 
z
" transform="scale(0.015625)"/>
    </defs>
    <use xlink:href="#DejaVuSans-45"/>
    <use xlink:href="#DejaVuSans-6c" x="63.183594"/>
    <use xlink:href="#DejaVuSans-61" x="90.966797"/>
    <use xlink:href="#DejaVuSans-70" x="152.246094"/>
    <use xlink:href="#DejaVuSans-73" x="215.722656"/>
    <use xlink:href="#DejaVuSans-65" x="267.822266"/>
    <use xlink:href="#DejaVuSans-64" x="329.345703"/>
    <use xlink:href="#DejaVuSans-20" x="392.822266"/>
    <use xlink:href="#DejaVuSans-74" x="424.609375"/>
    <use xlink:href="#DejaVuSans-69" x="463.818359"/>
    <use xlink:href="#DejaVuSans-6d" x="491.601562"/>
    <use xlink:href="#DejaVuSans-65" x="589.013672"/>
    <use xlink:href="#DejaVuSans-20" x="650.537109"/>
    <use xlink:href="#DejaVuSans-3d" x="682.324219"/>
    <use xlink:href="#DejaVuSans-20" x="766.113281"/>
    <use xlink:href="#DejaVuSans-31" x="797.900391"/>
    <use xlink:href="#DejaVuSans-2e" x="861.523438"/>
    <use xlink:href="#DejaVuSans-38" x="893.310547"/>
   </g>
  </g>
 </g>
 <defs>
  <clipPath id="pcf771c4972">
   <rect x="33.64" y="38.52" width="183.44" height="119.08"/>
  </clipPath>
  <clipPath id="pcb8b25f63e">
   <rect x="258.64" y="38.52" width="183.44" height="119.08"/>
  </clipPath>
  <clipPath id="p452fe19bd7">
   <rect x="33.64" y="198.64" width="183.44" height="119.08"/>
  </clipPath>
  <clipPath id="pdc2084b383">
   <rect x="258.64" y="198.64" width="183.44" height="119.08"/>
  </clipPath>
 </defs>
</svg>
