<?xml version="1.0" encoding="utf-8" standalone="no"?>
<!DOCTYPE svg PUBLIC "-//W3C//DTD SVG 1.1//EN"
  "http://www.w3.org/Graphics/SVG/1.1/DTD/svg11.dtd">
<svg xmlns:xlink="http://www.w3.org/1999/xlink" width="460.8pt" height="345.6pt" viewBox="0 0 460.8 345.6" xmlns="http://www.w3.org/2000/svg" version="1.1">
 <metadata>
  <rdf:RDF xmlns:dc="http://purl.org/dc/elements/1.1/" xmlns:cc="http://creativecommons.org/ns#" xmlns:rdf="http://www.w3.org/1999/02/22-rdf-syntax-ns#">
   <cc:Work>
    <dc:type rdf:resource="http://purl.org/dc/dcmitype/StillImage"/>
    <dc:date>2023-08-02T12:46:21.253558</dc:date>
    <dc:format>image/svg+xml</dc:format>
    <dc:creator>
     <cc:Agent>
      <dc:title>Matplotlib v3.5.1, https://matplotlib.org/</dc:title>
     </cc:Agent>
    </dc:creator>
   </cc:Work>
  </rdf:RDF>
 </metadata>
 <defs>
  <style type="text/css">*{stroke-linejoin: round; stroke-linecap: butt}</style>
 </defs>
 <g id="figure_1">
  <g id="patch_1">
   <path d="M 0 345.6 
L 460.8 345.6 
L 460.8 0 
L 0 0 
z
" style="fill: #ffffff"/>
  </g>
  <g id="axes_1">
   <g id="patch_2">
    <path d="M 33.64 157.6 
L 217.08 157.6 
L 217.08 38.52 
L 33.64 38.52 
z
" style="fill: #ffffff"/>
   </g>
   <g id="matplotlib.axis_1">
    <g id="xtick_1">
     <g id="line2d_1">
      <defs>
       <path id="mb320080fed" d="M 0 0 
L 0 3.5 
" style="stroke: #000000; stroke-width: 0.8"/>
      </defs>
      <g>
       <use xlink:href="#mb320080fed" x="40.922716" y="157.6" style="stroke: #000000; stroke-width: 0.8"/>
      </g>
     </g>
     <g id="text_1">
      <!-- 0.0 -->
      <g transform="translate(32.971153 172.198437)scale(0.1 -0.1)">
       <defs>
        <path id="DejaVuSans-30" d="M 2034 4250 
Q 1547 4250 1301 3770 
Q 1056 3291 1056 2328 
Q 1056 1369 1301 889 
Q 1547 409 2034 409 
Q 2525 409 2770 889 
Q 3016 1369 3016 2328 
Q 3016 3291 2770 3770 
Q 2525 4250 2034 4250 
z
M 2034 4750 
Q 2819 4750 3233 4129 
Q 3647 3509 3647 2328 
Q 3647 1150 3233 529 
Q 2819 -91 2034 -91 
Q 1250 -91 836 529 
Q 422 1150 422 2328 
Q 422 3509 836 4129 
Q 1250 4750 2034 4750 
z
" transform="scale(0.015625)"/>
        <path id="DejaVuSans-2e" d="M 684 794 
L 1344 794 
L 1344 0 
L 684 0 
L 684 794 
z
" transform="scale(0.015625)"/>
       </defs>
       <use xlink:href="#DejaVuSans-30"/>
       <use xlink:href="#DejaVuSans-2e" x="63.623047"/>
       <use xlink:href="#DejaVuSans-30" x="95.410156"/>
      </g>
     </g>
    </g>
    <g id="xtick_2">
     <g id="line2d_2">
      <g>
       <use xlink:href="#mb320080fed" x="74.697629" y="157.6" style="stroke: #000000; stroke-width: 0.8"/>
      </g>
     </g>
     <g id="text_2">
      <!-- 0.2 -->
      <g transform="translate(66.746067 172.198437)scale(0.1 -0.1)">
       <defs>
        <path id="DejaVuSans-32" d="M 1228 531 
L 3431 531 
L 3431 0 
L 469 0 
L 469 531 
Q 828 903 1448 1529 
Q 2069 2156 2228 2338 
Q 2531 2678 2651 2914 
Q 2772 3150 2772 3378 
Q 2772 3750 2511 3984 
Q 2250 4219 1831 4219 
Q 1534 4219 1204 4116 
Q 875 4013 500 3803 
L 500 4441 
Q 881 4594 1212 4672 
Q 1544 4750 1819 4750 
Q 2544 4750 2975 4387 
Q 3406 4025 3406 3419 
Q 3406 3131 3298 2873 
Q 3191 2616 2906 2266 
Q 2828 2175 2409 1742 
Q 1991 1309 1228 531 
z
" transform="scale(0.015625)"/>
       </defs>
       <use xlink:href="#DejaVuSans-30"/>
       <use xlink:href="#DejaVuSans-2e" x="63.623047"/>
       <use xlink:href="#DejaVuSans-32" x="95.410156"/>
      </g>
     </g>
    </g>
    <g id="xtick_3">
     <g id="line2d_3">
      <g>
       <use xlink:href="#mb320080fed" x="108.472543" y="157.6" style="stroke: #000000; stroke-width: 0.8"/>
      </g>
     </g>
     <g id="text_3">
      <!-- 0.4 -->
      <g transform="translate(100.520981 172.198437)scale(0.1 -0.1)">
       <defs>
        <path id="DejaVuSans-34" d="M 2419 4116 
L 825 1625 
L 2419 1625 
L 2419 4116 
z
M 2253 4666 
L 3047 4666 
L 3047 1625 
L 3713 1625 
L 3713 1100 
L 3047 1100 
L 3047 0 
L 2419 0 
L 2419 1100 
L 313 1100 
L 313 1709 
L 2253 4666 
z
" transform="scale(0.015625)"/>
       </defs>
       <use xlink:href="#DejaVuSans-30"/>
       <use xlink:href="#DejaVuSans-2e" x="63.623047"/>
       <use xlink:href="#DejaVuSans-34" x="95.410156"/>
      </g>
     </g>
    </g>
    <g id="xtick_4">
     <g id="line2d_4">
      <g>
       <use xlink:href="#mb320080fed" x="142.247457" y="157.6" style="stroke: #000000; stroke-width: 0.8"/>
      </g>
     </g>
     <g id="text_4">
      <!-- 0.6 -->
      <g transform="translate(134.295894 172.198437)scale(0.1 -0.1)">
       <defs>
        <path id="DejaVuSans-36" d="M 2113 2584 
Q 1688 2584 1439 2293 
Q 1191 2003 1191 1497 
Q 1191 994 1439 701 
Q 1688 409 2113 409 
Q 2538 409 2786 701 
Q 3034 994 3034 1497 
Q 3034 2003 2786 2293 
Q 2538 2584 2113 2584 
z
M 3366 4563 
L 3366 3988 
Q 3128 4100 2886 4159 
Q 2644 4219 2406 4219 
Q 1781 4219 1451 3797 
Q 1122 3375 1075 2522 
Q 1259 2794 1537 2939 
Q 1816 3084 2150 3084 
Q 2853 3084 3261 2657 
Q 3669 2231 3669 1497 
Q 3669 778 3244 343 
Q 2819 -91 2113 -91 
Q 1303 -91 875 529 
Q 447 1150 447 2328 
Q 447 3434 972 4092 
Q 1497 4750 2381 4750 
Q 2619 4750 2861 4703 
Q 3103 4656 3366 4563 
z
" transform="scale(0.015625)"/>
       </defs>
       <use xlink:href="#DejaVuSans-30"/>
       <use xlink:href="#DejaVuSans-2e" x="63.623047"/>
       <use xlink:href="#DejaVuSans-36" x="95.410156"/>
      </g>
     </g>
    </g>
    <g id="xtick_5">
     <g id="line2d_5">
      <g>
       <use xlink:href="#mb320080fed" x="176.022371" y="157.6" style="stroke: #000000; stroke-width: 0.8"/>
      </g>
     </g>
     <g id="text_5">
      <!-- 0.8 -->
      <g transform="translate(168.070808 172.198437)scale(0.1 -0.1)">
       <defs>
        <path id="DejaVuSans-38" d="M 2034 2216 
Q 1584 2216 1326 1975 
Q 1069 1734 1069 1313 
Q 1069 891 1326 650 
Q 1584 409 2034 409 
Q 2484 409 2743 651 
Q 3003 894 3003 1313 
Q 3003 1734 2745 1975 
Q 2488 2216 2034 2216 
z
M 1403 2484 
Q 997 2584 770 2862 
Q 544 3141 544 3541 
Q 544 4100 942 4425 
Q 1341 4750 2034 4750 
Q 2731 4750 3128 4425 
Q 3525 4100 3525 3541 
Q 3525 3141 3298 2862 
Q 3072 2584 2669 2484 
Q 3125 2378 3379 2068 
Q 3634 1759 3634 1313 
Q 3634 634 3220 271 
Q 2806 -91 2034 -91 
Q 1263 -91 848 271 
Q 434 634 434 1313 
Q 434 1759 690 2068 
Q 947 2378 1403 2484 
z
M 1172 3481 
Q 1172 3119 1398 2916 
Q 1625 2713 2034 2713 
Q 2441 2713 2670 2916 
Q 2900 3119 2900 3481 
Q 2900 3844 2670 4047 
Q 2441 4250 2034 4250 
Q 1625 4250 1398 4047 
Q 1172 3844 1172 3481 
z
" transform="scale(0.015625)"/>
       </defs>
       <use xlink:href="#DejaVuSans-30"/>
       <use xlink:href="#DejaVuSans-2e" x="63.623047"/>
       <use xlink:href="#DejaVuSans-38" x="95.410156"/>
      </g>
     </g>
    </g>
    <g id="xtick_6">
     <g id="line2d_6">
      <g>
       <use xlink:href="#mb320080fed" x="209.797284" y="157.6" style="stroke: #000000; stroke-width: 0.8"/>
      </g>
     </g>
     <g id="text_6">
      <!-- 1.0 -->
      <g transform="translate(201.845722 172.198437)scale(0.1 -0.1)">
       <defs>
        <path id="DejaVuSans-31" d="M 794 531 
L 1825 531 
L 1825 4091 
L 703 3866 
L 703 4441 
L 1819 4666 
L 2450 4666 
L 2450 531 
L 3481 531 
L 3481 0 
L 794 0 
L 794 531 
z
" transform="scale(0.015625)"/>
       </defs>
       <use xlink:href="#DejaVuSans-31"/>
       <use xlink:href="#DejaVuSans-2e" x="63.623047"/>
       <use xlink:href="#DejaVuSans-30" x="95.410156"/>
      </g>
     </g>
    </g>
   </g>
   <g id="matplotlib.axis_2">
    <g id="ytick_1">
     <g id="line2d_7">
      <defs>
       <path id="m16322d18f1" d="M 0 0 
L -3.5 0 
" style="stroke: #000000; stroke-width: 0.8"/>
      </defs>
      <g>
       <use xlink:href="#m16322d18f1" x="33.64" y="142.908312" style="stroke: #000000; stroke-width: 0.8"/>
      </g>
     </g>
     <g id="text_7">
      <!-- 0.2 -->
      <g transform="translate(10.736875 146.70753)scale(0.1 -0.1)">
       <use xlink:href="#DejaVuSans-30"/>
       <use xlink:href="#DejaVuSans-2e" x="63.623047"/>
       <use xlink:href="#DejaVuSans-32" x="95.410156"/>
      </g>
     </g>
    </g>
    <g id="ytick_2">
     <g id="line2d_8">
      <g>
       <use xlink:href="#m16322d18f1" x="33.64" y="118.164416" style="stroke: #000000; stroke-width: 0.8"/>
      </g>
     </g>
     <g id="text_8">
      <!-- 0.4 -->
      <g transform="translate(10.736875 121.963634)scale(0.1 -0.1)">
       <use xlink:href="#DejaVuSans-30"/>
       <use xlink:href="#DejaVuSans-2e" x="63.623047"/>
       <use xlink:href="#DejaVuSans-34" x="95.410156"/>
      </g>
     </g>
    </g>
    <g id="ytick_3">
     <g id="line2d_9">
      <g>
       <use xlink:href="#m16322d18f1" x="33.64" y="93.420519" style="stroke: #000000; stroke-width: 0.8"/>
      </g>
     </g>
     <g id="text_9">
      <!-- 0.6 -->
      <g transform="translate(10.736875 97.219738)scale(0.1 -0.1)">
       <use xlink:href="#DejaVuSans-30"/>
       <use xlink:href="#DejaVuSans-2e" x="63.623047"/>
       <use xlink:href="#DejaVuSans-36" x="95.410156"/>
      </g>
     </g>
    </g>
    <g id="ytick_4">
     <g id="line2d_10">
      <g>
       <use xlink:href="#m16322d18f1" x="33.64" y="68.676623" style="stroke: #000000; stroke-width: 0.8"/>
      </g>
     </g>
     <g id="text_10">
      <!-- 0.8 -->
      <g transform="translate(10.736875 72.475842)scale(0.1 -0.1)">
       <use xlink:href="#DejaVuSans-30"/>
       <use xlink:href="#DejaVuSans-2e" x="63.623047"/>
       <use xlink:href="#DejaVuSans-38" x="95.410156"/>
      </g>
     </g>
    </g>
    <g id="ytick_5">
     <g id="line2d_11">
      <g>
       <use xlink:href="#m16322d18f1" x="33.64" y="43.932727" style="stroke: #000000; stroke-width: 0.8"/>
      </g>
     </g>
     <g id="text_11">
      <!-- 1.0 -->
      <g transform="translate(10.736875 47.731946)scale(0.1 -0.1)">
       <use xlink:href="#DejaVuSans-31"/>
       <use xlink:href="#DejaVuSans-2e" x="63.623047"/>
       <use xlink:href="#DejaVuSans-30" x="95.410156"/>
      </g>
     </g>
    </g>
   </g>
   <g id="line2d_12">
    <path d="M 41.978182 43.932727 
L 44.089114 43.932727 
L 46.200046 43.932727 
L 48.310978 43.932727 
L 50.42191 43.932727 
L 52.532842 43.932727 
L 54.643774 43.932727 
L 56.754707 43.932727 
L 58.865639 43.932727 
L 60.976571 43.932727 
L 63.087503 43.932727 
L 65.198435 43.932727 
L 67.309367 43.932727 
L 69.420299 43.932727 
L 71.531231 43.93273 
L 73.642164 43.932807 
L 75.753118 43.93521 
L 77.864484 43.980237 
L 79.979224 44.315179 
L 82.107379 45.439099 
L 84.267621 47.699887 
L 86.482581 51.053153 
L 88.773788 55.217828 
L 91.160424 59.903967 
L 93.66027 64.912937 
L 96.29135 70.131755 
L 99.073448 75.495419 
L 102.029233 80.960071 
L 105.185373 86.493005 
L 108.573408 92.052073 
L 112.228846 97.548625 
L 116.184704 102.78379 
L 120.456933 107.440723 
L 125.02272 111.139016 
L 129.802427 113.561867 
L 134.671073 114.731882 
L 139.487667 115.095883 
L 144.100267 115.318494 
L 148.32397 115.604176 
L 151.95782 116.325896 
L 154.869382 118.531571 
L 157.067362 133.127255 
L 158.697011 134.287235 
L 159.965609 134.261497 
L 161.053596 134.50966 
L 162.071277 134.738812 
L 163.068804 134.849941 
L 164.063083 134.790445 
L 165.057632 134.907241 
L 166.052837 134.941936 
L 167.049527 134.868715 
L 168.048575 135.045994 
L 169.049566 135.153214 
L 170.0527 135.062142 
L 171.057731 135.123005 
L 172.060005 135.125464 
L 173.05887 134.972552 
L 174.061132 135.019547 
L 175.063887 135.106352 
L 176.060693 135.055235 
L 177.064568 135.08467 
L 178.076283 135.086437 
L 179.067526 134.941856 
L 180.052559 134.774658 
L 181.069837 134.658468 
L 182.056147 134.503543 
L 183.004652 135.088926 
L 184.117524 141.960408 
L 185.672295 149.964376 
L 187.641592 152.055465 
L 189.743517 152.186008 
L 191.854362 152.187262 
L 193.965293 152.187273 
L 196.076226 152.187273 
L 198.187158 152.187273 
L 200.29809 152.187273 
L 202.409022 152.187273 
L 204.519954 152.187273 
L 206.630886 152.187273 
L 208.741818 152.187273 
" clip-path="url(#p190dff066e)" style="fill: none; stroke: #000000; stroke-width: 1.5; stroke-linecap: square"/>
   </g>
   <g id="line2d_13">
    <path d="M 156.431968 157.6 
L 156.431968 38.52 
" clip-path="url(#p190dff066e)" style="fill: none; stroke: #1f77b4; stroke-width: 1.5; stroke-linecap: square"/>
   </g>
   <g id="LineCollection_1">
    <path d="M 40.922716 153.269818 
L 43.033648 153.269818 
" clip-path="url(#p190dff066e)" style="fill: none; stroke: #0000ff; stroke-width: 2"/>
    <path d="M 43.033648 153.269818 
L 45.14458 153.269818 
" clip-path="url(#p190dff066e)" style="fill: none; stroke: #0000ff; stroke-width: 2"/>
    <path d="M 45.14458 153.269818 
L 47.255512 153.269818 
" clip-path="url(#p190dff066e)" style="fill: none; stroke: #0000ff; stroke-width: 2"/>
    <path d="M 47.255512 153.269818 
L 49.366444 153.269818 
" clip-path="url(#p190dff066e)" style="fill: none; stroke: #0000ff; stroke-width: 2"/>
    <path d="M 49.366444 153.269818 
L 51.477376 153.269818 
" clip-path="url(#p190dff066e)" style="fill: none; stroke: #0000ff; stroke-width: 2"/>
    <path d="M 51.477376 153.269818 
L 53.588308 153.269818 
" clip-path="url(#p190dff066e)" style="fill: none; stroke: #0000ff; stroke-width: 2"/>
    <path d="M 53.588308 153.269818 
L 55.699241 153.269818 
" clip-path="url(#p190dff066e)" style="fill: none; stroke: #0000ff; stroke-width: 2"/>
    <path d="M 55.699241 153.269818 
L 57.810173 153.269818 
" clip-path="url(#p190dff066e)" style="fill: none; stroke: #0000ff; stroke-width: 2"/>
    <path d="M 57.810173 153.269818 
L 59.921105 153.269818 
" clip-path="url(#p190dff066e)" style="fill: none; stroke: #0000ff; stroke-width: 2"/>
    <path d="M 59.921105 153.269818 
L 62.032037 153.269818 
" clip-path="url(#p190dff066e)" style="fill: none; stroke: #0000ff; stroke-width: 2"/>
    <path d="M 62.032037 153.269818 
L 64.142969 153.269818 
" clip-path="url(#p190dff066e)" style="fill: none; stroke: #0000ff; stroke-width: 2"/>
    <path d="M 64.142969 153.269818 
L 66.253901 153.269818 
" clip-path="url(#p190dff066e)" style="fill: none; stroke: #0000ff; stroke-width: 2"/>
    <path d="M 66.253901 153.269818 
L 68.364833 153.269818 
" clip-path="url(#p190dff066e)" style="fill: none; stroke: #0000ff; stroke-width: 2"/>
    <path d="M 68.364833 153.269818 
L 70.475765 153.269818 
" clip-path="url(#p190dff066e)" style="fill: none; stroke: #0000ff; stroke-width: 2"/>
    <path d="M 70.475765 153.269818 
L 72.586697 153.269818 
" clip-path="url(#p190dff066e)" style="fill: none; stroke: #0000ff; stroke-width: 2"/>
    <path d="M 72.586697 153.269818 
L 74.697631 153.269818 
" clip-path="url(#p190dff066e)" style="fill: none; stroke: #0000ff; stroke-width: 2"/>
    <path d="M 74.697631 153.269818 
L 76.808606 153.269818 
" clip-path="url(#p190dff066e)" style="fill: none; stroke: #0000ff; stroke-width: 2"/>
    <path d="M 76.808606 153.269818 
L 78.920363 153.269818 
" clip-path="url(#p190dff066e)" style="fill: none; stroke: #0000ff; stroke-width: 2"/>
    <path d="M 78.920363 153.269818 
L 81.038086 153.269818 
" clip-path="url(#p190dff066e)" style="fill: none; stroke: #0000ff; stroke-width: 2"/>
    <path d="M 81.038086 153.269818 
L 83.176671 153.269818 
" clip-path="url(#p190dff066e)" style="fill: none; stroke: #0000ff; stroke-width: 2"/>
    <path d="M 83.176671 153.269818 
L 85.35857 153.269818 
" clip-path="url(#p190dff066e)" style="fill: none; stroke: #0000ff; stroke-width: 2"/>
    <path d="M 85.35857 153.269818 
L 87.606591 153.269818 
" clip-path="url(#p190dff066e)" style="fill: none; stroke: #0000ff; stroke-width: 2"/>
    <path d="M 87.606591 153.269818 
L 89.940985 153.269818 
" clip-path="url(#p190dff066e)" style="fill: none; stroke: #0000ff; stroke-width: 2"/>
    <path d="M 89.940985 153.269818 
L 92.379863 153.269818 
" clip-path="url(#p190dff066e)" style="fill: none; stroke: #0000ff; stroke-width: 2"/>
    <path d="M 92.379863 153.269818 
L 94.940678 153.269818 
" clip-path="url(#p190dff066e)" style="fill: none; stroke: #0000ff; stroke-width: 2"/>
    <path d="M 94.940678 153.269818 
L 97.642022 153.269818 
" clip-path="url(#p190dff066e)" style="fill: none; stroke: #0000ff; stroke-width: 2"/>
    <path d="M 97.642022 153.269818 
L 100.504875 153.269818 
" clip-path="url(#p190dff066e)" style="fill: none; stroke: #0000ff; stroke-width: 2"/>
    <path d="M 100.504875 153.269818 
L 103.553592 153.269818 
" clip-path="url(#p190dff066e)" style="fill: none; stroke: #0000ff; stroke-width: 2"/>
    <path d="M 103.553592 153.269818 
L 106.817153 153.269818 
" clip-path="url(#p190dff066e)" style="fill: none; stroke: #0000ff; stroke-width: 2"/>
    <path d="M 106.817153 153.269818 
L 110.329664 153.269818 
" clip-path="url(#p190dff066e)" style="fill: none; stroke: #0000ff; stroke-width: 2"/>
    <path d="M 110.329664 153.269818 
L 114.128028 153.269818 
" clip-path="url(#p190dff066e)" style="fill: none; stroke: #0000ff; stroke-width: 2"/>
    <path d="M 114.128028 153.269818 
L 118.241381 153.269818 
" clip-path="url(#p190dff066e)" style="fill: none; stroke: #0000ff; stroke-width: 2"/>
    <path d="M 118.241381 153.269818 
L 122.672485 153.269818 
" clip-path="url(#p190dff066e)" style="fill: none; stroke: #0000ff; stroke-width: 2"/>
    <path d="M 122.672485 153.269818 
L 127.372954 153.269818 
" clip-path="url(#p190dff066e)" style="fill: none; stroke: #0000ff; stroke-width: 2"/>
    <path d="M 127.372954 153.269818 
L 132.231899 153.269818 
" clip-path="url(#p190dff066e)" style="fill: none; stroke: #0000ff; stroke-width: 2"/>
    <path d="M 132.231899 153.269818 
L 137.110246 153.269818 
" clip-path="url(#p190dff066e)" style="fill: none; stroke: #0000ff; stroke-width: 2"/>
    <path d="M 137.110246 153.269818 
L 141.865088 153.269818 
" clip-path="url(#p190dff066e)" style="fill: none; stroke: #0000ff; stroke-width: 2"/>
    <path d="M 141.865088 153.269818 
L 146.335447 153.269818 
" clip-path="url(#p190dff066e)" style="fill: none; stroke: #0000ff; stroke-width: 2"/>
    <path d="M 146.335447 153.269818 
L 150.312492 153.269818 
" clip-path="url(#p190dff066e)" style="fill: none; stroke: #0000ff; stroke-width: 2"/>
    <path d="M 150.312492 153.269818 
L 153.603147 153.269818 
" clip-path="url(#p190dff066e)" style="fill: none; stroke: #00ff00; stroke-width: 2"/>
    <path d="M 153.603147 153.269818 
L 156.135616 153.269818 
" clip-path="url(#p190dff066e)" style="fill: none; stroke: #00ff00; stroke-width: 2"/>
    <path d="M 156.135616 153.269818 
L 157.999109 153.269818 
" clip-path="url(#p190dff066e)" style="fill: none; stroke: #ff8080; stroke-width: 2"/>
    <path d="M 157.999109 153.269818 
L 159.394914 153.269818 
" clip-path="url(#p190dff066e)" style="fill: none; stroke: #00ff00; stroke-width: 2"/>
    <path d="M 159.394914 153.269818 
L 160.536305 153.269818 
" clip-path="url(#p190dff066e)" style="fill: none; stroke: #00ff00; stroke-width: 2"/>
    <path d="M 160.536305 153.269818 
L 161.570887 153.269818 
" clip-path="url(#p190dff066e)" style="fill: none; stroke: #0000ff; stroke-width: 2"/>
    <path d="M 161.570887 153.269818 
L 162.571666 153.269818 
" clip-path="url(#p190dff066e)" style="fill: none; stroke: #0000ff; stroke-width: 2"/>
    <path d="M 162.571666 153.269818 
L 163.565942 153.269818 
" clip-path="url(#p190dff066e)" style="fill: none; stroke: #0000ff; stroke-width: 2"/>
    <path d="M 163.565942 153.269818 
L 164.560225 153.269818 
" clip-path="url(#p190dff066e)" style="fill: none; stroke: #0000ff; stroke-width: 2"/>
    <path d="M 164.560225 153.269818 
L 165.555039 153.269818 
" clip-path="url(#p190dff066e)" style="fill: none; stroke: #0000ff; stroke-width: 2"/>
    <path d="M 165.555039 153.269818 
L 166.550635 153.269818 
" clip-path="url(#p190dff066e)" style="fill: none; stroke: #0000ff; stroke-width: 2"/>
    <path d="M 166.550635 153.269818 
L 167.54842 153.269818 
" clip-path="url(#p190dff066e)" style="fill: none; stroke: #0000ff; stroke-width: 2"/>
    <path d="M 167.54842 153.269818 
L 168.54873 153.269818 
" clip-path="url(#p190dff066e)" style="fill: none; stroke: #0000ff; stroke-width: 2"/>
    <path d="M 168.54873 153.269818 
L 169.550401 153.269818 
" clip-path="url(#p190dff066e)" style="fill: none; stroke: #0000ff; stroke-width: 2"/>
    <path d="M 169.550401 153.269818 
L 170.555 153.269818 
" clip-path="url(#p190dff066e)" style="fill: none; stroke: #0000ff; stroke-width: 2"/>
    <path d="M 170.555 153.269818 
L 171.560463 153.269818 
" clip-path="url(#p190dff066e)" style="fill: none; stroke: #0000ff; stroke-width: 2"/>
    <path d="M 171.560463 153.269818 
L 172.559548 153.269818 
" clip-path="url(#p190dff066e)" style="fill: none; stroke: #0000ff; stroke-width: 2"/>
    <path d="M 172.559548 153.269818 
L 173.558192 153.269818 
" clip-path="url(#p190dff066e)" style="fill: none; stroke: #0000ff; stroke-width: 2"/>
    <path d="M 173.558192 153.269818 
L 174.564071 153.269818 
" clip-path="url(#p190dff066e)" style="fill: none; stroke: #0000ff; stroke-width: 2"/>
    <path d="M 174.564071 153.269818 
L 175.563702 153.269818 
" clip-path="url(#p190dff066e)" style="fill: none; stroke: #0000ff; stroke-width: 2"/>
    <path d="M 175.563702 153.269818 
L 176.557684 153.269818 
" clip-path="url(#p190dff066e)" style="fill: none; stroke: #0000ff; stroke-width: 2"/>
    <path d="M 176.557684 153.269818 
L 177.571451 153.269818 
" clip-path="url(#p190dff066e)" style="fill: none; stroke: #0000ff; stroke-width: 2"/>
    <path d="M 177.571451 153.269818 
L 178.581115 153.269818 
" clip-path="url(#p190dff066e)" style="fill: none; stroke: #0000ff; stroke-width: 2"/>
    <path d="M 178.581115 153.269818 
L 179.553938 153.269818 
" clip-path="url(#p190dff066e)" style="fill: none; stroke: #0000ff; stroke-width: 2"/>
    <path d="M 179.553938 153.269818 
L 180.55118 153.269818 
" clip-path="url(#p190dff066e)" style="fill: none; stroke: #0000ff; stroke-width: 2"/>
    <path d="M 180.55118 153.269818 
L 181.588493 153.269818 
" clip-path="url(#p190dff066e)" style="fill: none; stroke: #0000ff; stroke-width: 2"/>
    <path d="M 181.588493 153.269818 
L 182.523801 153.269818 
" clip-path="url(#p190dff066e)" style="fill: none; stroke: #0000ff; stroke-width: 2"/>
    <path d="M 182.523801 153.269818 
L 183.485503 153.269818 
" clip-path="url(#p190dff066e)" style="fill: none; stroke: #0000ff; stroke-width: 2"/>
    <path d="M 183.485503 153.269818 
L 184.749545 153.269818 
" clip-path="url(#p190dff066e)" style="fill: none; stroke: #0000ff; stroke-width: 2"/>
    <path d="M 184.749545 153.269818 
L 186.595046 153.269818 
" clip-path="url(#p190dff066e)" style="fill: none; stroke: #0000ff; stroke-width: 2"/>
    <path d="M 186.595046 153.269818 
L 188.688137 153.269818 
" clip-path="url(#p190dff066e)" style="fill: none; stroke: #0000ff; stroke-width: 2"/>
    <path d="M 188.688137 153.269818 
L 190.798897 153.269818 
" clip-path="url(#p190dff066e)" style="fill: none; stroke: #0000ff; stroke-width: 2"/>
    <path d="M 190.798897 153.269818 
L 192.909827 153.269818 
" clip-path="url(#p190dff066e)" style="fill: none; stroke: #0000ff; stroke-width: 2"/>
    <path d="M 192.909827 153.269818 
L 195.020759 153.269818 
" clip-path="url(#p190dff066e)" style="fill: none; stroke: #0000ff; stroke-width: 2"/>
    <path d="M 195.020759 153.269818 
L 197.131692 153.269818 
" clip-path="url(#p190dff066e)" style="fill: none; stroke: #0000ff; stroke-width: 2"/>
    <path d="M 197.131692 153.269818 
L 199.242624 153.269818 
" clip-path="url(#p190dff066e)" style="fill: none; stroke: #0000ff; stroke-width: 2"/>
    <path d="M 199.242624 153.269818 
L 201.353556 153.269818 
" clip-path="url(#p190dff066e)" style="fill: none; stroke: #0000ff; stroke-width: 2"/>
    <path d="M 201.353556 153.269818 
L 203.464488 153.269818 
" clip-path="url(#p190dff066e)" style="fill: none; stroke: #0000ff; stroke-width: 2"/>
    <path d="M 203.464488 153.269818 
L 205.57542 153.269818 
" clip-path="url(#p190dff066e)" style="fill: none; stroke: #0000ff; stroke-width: 2"/>
    <path d="M 205.57542 153.269818 
L 207.686352 153.269818 
" clip-path="url(#p190dff066e)" style="fill: none; stroke: #0000ff; stroke-width: 2"/>
    <path d="M 207.686352 153.269818 
L 209.797284 153.269818 
" clip-path="url(#p190dff066e)" style="fill: none; stroke: #0000ff; stroke-width: 2"/>
   </g>
   <g id="patch_3">
    <path d="M 33.64 157.6 
L 33.64 38.52 
" style="fill: none; stroke: #000000; stroke-width: 0.8; stroke-linejoin: miter; stroke-linecap: square"/>
   </g>
   <g id="patch_4">
    <path d="M 217.08 157.6 
L 217.08 38.52 
" style="fill: none; stroke: #000000; stroke-width: 0.8; stroke-linejoin: miter; stroke-linecap: square"/>
   </g>
   <g id="patch_5">
    <path d="M 33.64 157.6 
L 217.08 157.6 
" style="fill: none; stroke: #000000; stroke-width: 0.8; stroke-linejoin: miter; stroke-linecap: square"/>
   </g>
   <g id="patch_6">
    <path d="M 33.64 38.52 
L 217.08 38.52 
" style="fill: none; stroke: #000000; stroke-width: 0.8; stroke-linejoin: miter; stroke-linecap: square"/>
   </g>
   <g id="text_12">
    <!-- Density -->
    <g transform="translate(102.549688 32.52)scale(0.12 -0.12)">
     <defs>
      <path id="DejaVuSans-44" d="M 1259 4147 
L 1259 519 
L 2022 519 
Q 2988 519 3436 956 
Q 3884 1394 3884 2338 
Q 3884 3275 3436 3711 
Q 2988 4147 2022 4147 
L 1259 4147 
z
M 628 4666 
L 1925 4666 
Q 3281 4666 3915 4102 
Q 4550 3538 4550 2338 
Q 4550 1131 3912 565 
Q 3275 0 1925 0 
L 628 0 
L 628 4666 
z
" transform="scale(0.015625)"/>
      <path id="DejaVuSans-65" d="M 3597 1894 
L 3597 1613 
L 953 1613 
Q 991 1019 1311 708 
Q 1631 397 2203 397 
Q 2534 397 2845 478 
Q 3156 559 3463 722 
L 3463 178 
Q 3153 47 2828 -22 
Q 2503 -91 2169 -91 
Q 1331 -91 842 396 
Q 353 884 353 1716 
Q 353 2575 817 3079 
Q 1281 3584 2069 3584 
Q 2775 3584 3186 3129 
Q 3597 2675 3597 1894 
z
M 3022 2063 
Q 3016 2534 2758 2815 
Q 2500 3097 2075 3097 
Q 1594 3097 1305 2825 
Q 1016 2553 972 2059 
L 3022 2063 
z
" transform="scale(0.015625)"/>
      <path id="DejaVuSans-6e" d="M 3513 2113 
L 3513 0 
L 2938 0 
L 2938 2094 
Q 2938 2591 2744 2837 
Q 2550 3084 2163 3084 
Q 1697 3084 1428 2787 
Q 1159 2491 1159 1978 
L 1159 0 
L 581 0 
L 581 3500 
L 1159 3500 
L 1159 2956 
Q 1366 3272 1645 3428 
Q 1925 3584 2291 3584 
Q 2894 3584 3203 3211 
Q 3513 2838 3513 2113 
z
" transform="scale(0.015625)"/>
      <path id="DejaVuSans-73" d="M 2834 3397 
L 2834 2853 
Q 2591 2978 2328 3040 
Q 2066 3103 1784 3103 
Q 1356 3103 1142 2972 
Q 928 2841 928 2578 
Q 928 2378 1081 2264 
Q 1234 2150 1697 2047 
L 1894 2003 
Q 2506 1872 2764 1633 
Q 3022 1394 3022 966 
Q 3022 478 2636 193 
Q 2250 -91 1575 -91 
Q 1294 -91 989 -36 
Q 684 19 347 128 
L 347 722 
Q 666 556 975 473 
Q 1284 391 1588 391 
Q 1994 391 2212 530 
Q 2431 669 2431 922 
Q 2431 1156 2273 1281 
Q 2116 1406 1581 1522 
L 1381 1569 
Q 847 1681 609 1914 
Q 372 2147 372 2553 
Q 372 3047 722 3315 
Q 1072 3584 1716 3584 
Q 2034 3584 2315 3537 
Q 2597 3491 2834 3397 
z
" transform="scale(0.015625)"/>
      <path id="DejaVuSans-69" d="M 603 3500 
L 1178 3500 
L 1178 0 
L 603 0 
L 603 3500 
z
M 603 4863 
L 1178 4863 
L 1178 4134 
L 603 4134 
L 603 4863 
z
" transform="scale(0.015625)"/>
      <path id="DejaVuSans-74" d="M 1172 4494 
L 1172 3500 
L 2356 3500 
L 2356 3053 
L 1172 3053 
L 1172 1153 
Q 1172 725 1289 603 
Q 1406 481 1766 481 
L 2356 481 
L 2356 0 
L 1766 0 
Q 1100 0 847 248 
Q 594 497 594 1153 
L 594 3053 
L 172 3053 
L 172 3500 
L 594 3500 
L 594 4494 
L 1172 4494 
z
" transform="scale(0.015625)"/>
      <path id="DejaVuSans-79" d="M 2059 -325 
Q 1816 -950 1584 -1140 
Q 1353 -1331 966 -1331 
L 506 -1331 
L 506 -850 
L 844 -850 
Q 1081 -850 1212 -737 
Q 1344 -625 1503 -206 
L 1606 56 
L 191 3500 
L 800 3500 
L 1894 763 
L 2988 3500 
L 3597 3500 
L 2059 -325 
z
" transform="scale(0.015625)"/>
     </defs>
     <use xlink:href="#DejaVuSans-44"/>
     <use xlink:href="#DejaVuSans-65" x="77.001953"/>
     <use xlink:href="#DejaVuSans-6e" x="138.525391"/>
     <use xlink:href="#DejaVuSans-73" x="201.904297"/>
     <use xlink:href="#DejaVuSans-69" x="254.003906"/>
     <use xlink:href="#DejaVuSans-74" x="281.787109"/>
     <use xlink:href="#DejaVuSans-79" x="320.996094"/>
    </g>
   </g>
  </g>
  <g id="axes_2">
   <g id="patch_7">
    <path d="M 258.64 157.6 
L 442.08 157.6 
L 442.08 38.52 
L 258.64 38.52 
z
" style="fill: #ffffff"/>
   </g>
   <g id="matplotlib.axis_3">
    <g id="xtick_7">
     <g id="line2d_14">
      <g>
       <use xlink:href="#mb320080fed" x="265.922716" y="157.6" style="stroke: #000000; stroke-width: 0.8"/>
      </g>
     </g>
     <g id="text_13">
      <!-- 0.0 -->
      <g transform="translate(257.971153 172.198437)scale(0.1 -0.1)">
       <use xlink:href="#DejaVuSans-30"/>
       <use xlink:href="#DejaVuSans-2e" x="63.623047"/>
       <use xlink:href="#DejaVuSans-30" x="95.410156"/>
      </g>
     </g>
    </g>
    <g id="xtick_8">
     <g id="line2d_15">
      <g>
       <use xlink:href="#mb320080fed" x="299.697629" y="157.6" style="stroke: #000000; stroke-width: 0.8"/>
      </g>
     </g>
     <g id="text_14">
      <!-- 0.2 -->
      <g transform="translate(291.746067 172.198437)scale(0.1 -0.1)">
       <use xlink:href="#DejaVuSans-30"/>
       <use xlink:href="#DejaVuSans-2e" x="63.623047"/>
       <use xlink:href="#DejaVuSans-32" x="95.410156"/>
      </g>
     </g>
    </g>
    <g id="xtick_9">
     <g id="line2d_16">
      <g>
       <use xlink:href="#mb320080fed" x="333.472543" y="157.6" style="stroke: #000000; stroke-width: 0.8"/>
      </g>
     </g>
     <g id="text_15">
      <!-- 0.4 -->
      <g transform="translate(325.520981 172.198437)scale(0.1 -0.1)">
       <use xlink:href="#DejaVuSans-30"/>
       <use xlink:href="#DejaVuSans-2e" x="63.623047"/>
       <use xlink:href="#DejaVuSans-34" x="95.410156"/>
      </g>
     </g>
    </g>
    <g id="xtick_10">
     <g id="line2d_17">
      <g>
       <use xlink:href="#mb320080fed" x="367.247457" y="157.6" style="stroke: #000000; stroke-width: 0.8"/>
      </g>
     </g>
     <g id="text_16">
      <!-- 0.6 -->
      <g transform="translate(359.295894 172.198437)scale(0.1 -0.1)">
       <use xlink:href="#DejaVuSans-30"/>
       <use xlink:href="#DejaVuSans-2e" x="63.623047"/>
       <use xlink:href="#DejaVuSans-36" x="95.410156"/>
      </g>
     </g>
    </g>
    <g id="xtick_11">
     <g id="line2d_18">
      <g>
       <use xlink:href="#mb320080fed" x="401.022371" y="157.6" style="stroke: #000000; stroke-width: 0.8"/>
      </g>
     </g>
     <g id="text_17">
      <!-- 0.8 -->
      <g transform="translate(393.070808 172.198437)scale(0.1 -0.1)">
       <use xlink:href="#DejaVuSans-30"/>
       <use xlink:href="#DejaVuSans-2e" x="63.623047"/>
       <use xlink:href="#DejaVuSans-38" x="95.410156"/>
      </g>
     </g>
    </g>
    <g id="xtick_12">
     <g id="line2d_19">
      <g>
       <use xlink:href="#mb320080fed" x="434.797284" y="157.6" style="stroke: #000000; stroke-width: 0.8"/>
      </g>
     </g>
     <g id="text_18">
      <!-- 1.0 -->
      <g transform="translate(426.845722 172.198437)scale(0.1 -0.1)">
       <use xlink:href="#DejaVuSans-31"/>
       <use xlink:href="#DejaVuSans-2e" x="63.623047"/>
       <use xlink:href="#DejaVuSans-30" x="95.410156"/>
      </g>
     </g>
    </g>
   </g>
   <g id="matplotlib.axis_4">
    <g id="ytick_6">
     <g id="line2d_20">
      <g>
       <use xlink:href="#m16322d18f1" x="258.64" y="155.881357" style="stroke: #000000; stroke-width: 0.8"/>
      </g>
     </g>
     <g id="text_19">
      <!-- 1.75 -->
      <g transform="translate(229.374375 159.680576)scale(0.1 -0.1)">
       <defs>
        <path id="DejaVuSans-37" d="M 525 4666 
L 3525 4666 
L 3525 4397 
L 1831 0 
L 1172 0 
L 2766 4134 
L 525 4134 
L 525 4666 
z
" transform="scale(0.015625)"/>
        <path id="DejaVuSans-35" d="M 691 4666 
L 3169 4666 
L 3169 4134 
L 1269 4134 
L 1269 2991 
Q 1406 3038 1543 3061 
Q 1681 3084 1819 3084 
Q 2600 3084 3056 2656 
Q 3513 2228 3513 1497 
Q 3513 744 3044 326 
Q 2575 -91 1722 -91 
Q 1428 -91 1123 -41 
Q 819 9 494 109 
L 494 744 
Q 775 591 1075 516 
Q 1375 441 1709 441 
Q 2250 441 2565 725 
Q 2881 1009 2881 1497 
Q 2881 1984 2565 2268 
Q 2250 2553 1709 2553 
Q 1456 2553 1204 2497 
Q 953 2441 691 2322 
L 691 4666 
z
" transform="scale(0.015625)"/>
       </defs>
       <use xlink:href="#DejaVuSans-31"/>
       <use xlink:href="#DejaVuSans-2e" x="63.623047"/>
       <use xlink:href="#DejaVuSans-37" x="95.410156"/>
       <use xlink:href="#DejaVuSans-35" x="159.033203"/>
      </g>
     </g>
    </g>
    <g id="ytick_7">
     <g id="line2d_21">
      <g>
       <use xlink:href="#m16322d18f1" x="258.64" y="130.986188" style="stroke: #000000; stroke-width: 0.8"/>
      </g>
     </g>
     <g id="text_20">
      <!-- 2.00 -->
      <g transform="translate(229.374375 134.785407)scale(0.1 -0.1)">
       <use xlink:href="#DejaVuSans-32"/>
       <use xlink:href="#DejaVuSans-2e" x="63.623047"/>
       <use xlink:href="#DejaVuSans-30" x="95.410156"/>
       <use xlink:href="#DejaVuSans-30" x="159.033203"/>
      </g>
     </g>
    </g>
    <g id="ytick_8">
     <g id="line2d_22">
      <g>
       <use xlink:href="#m16322d18f1" x="258.64" y="106.09102" style="stroke: #000000; stroke-width: 0.8"/>
      </g>
     </g>
     <g id="text_21">
      <!-- 2.25 -->
      <g transform="translate(229.374375 109.890238)scale(0.1 -0.1)">
       <use xlink:href="#DejaVuSans-32"/>
       <use xlink:href="#DejaVuSans-2e" x="63.623047"/>
       <use xlink:href="#DejaVuSans-32" x="95.410156"/>
       <use xlink:href="#DejaVuSans-35" x="159.033203"/>
      </g>
     </g>
    </g>
    <g id="ytick_9">
     <g id="line2d_23">
      <g>
       <use xlink:href="#m16322d18f1" x="258.64" y="81.195851" style="stroke: #000000; stroke-width: 0.8"/>
      </g>
     </g>
     <g id="text_22">
      <!-- 2.50 -->
      <g transform="translate(229.374375 84.99507)scale(0.1 -0.1)">
       <use xlink:href="#DejaVuSans-32"/>
       <use xlink:href="#DejaVuSans-2e" x="63.623047"/>
       <use xlink:href="#DejaVuSans-35" x="95.410156"/>
       <use xlink:href="#DejaVuSans-30" x="159.033203"/>
      </g>
     </g>
    </g>
    <g id="ytick_10">
     <g id="line2d_24">
      <g>
       <use xlink:href="#m16322d18f1" x="258.64" y="56.300682" style="stroke: #000000; stroke-width: 0.8"/>
      </g>
     </g>
     <g id="text_23">
      <!-- 2.75 -->
      <g transform="translate(229.374375 60.099901)scale(0.1 -0.1)">
       <use xlink:href="#DejaVuSans-32"/>
       <use xlink:href="#DejaVuSans-2e" x="63.623047"/>
       <use xlink:href="#DejaVuSans-37" x="95.410156"/>
       <use xlink:href="#DejaVuSans-35" x="159.033203"/>
      </g>
     </g>
    </g>
   </g>
   <g id="line2d_25">
    <path d="M 266.978182 81.195851 
L 269.089114 81.195851 
L 271.200046 81.195851 
L 273.310978 81.195851 
L 275.42191 81.195851 
L 277.532842 81.195851 
L 279.643774 81.195851 
L 281.754707 81.195851 
L 283.865639 81.195851 
L 285.976571 81.195851 
L 288.087503 81.195851 
L 290.198435 81.195851 
L 292.309367 81.195851 
L 294.420299 81.195851 
L 296.531231 81.195853 
L 298.642164 81.195915 
L 300.753118 81.197849 
L 302.864484 81.234085 
L 304.979224 81.503614 
L 307.107379 82.410181 
L 309.267621 84.24796 
L 311.482581 87.013057 
L 313.773788 90.516495 
L 316.160424 94.555011 
L 318.66027 98.99115 
L 321.29135 103.753559 
L 324.073448 108.809559 
L 327.029233 114.144023 
L 330.185373 119.751541 
L 333.573408 125.615519 
L 337.228846 131.662634 
L 341.184704 137.673653 
L 345.456933 143.23852 
L 350.02272 147.798235 
L 354.802427 150.802402 
L 359.671073 152.106744 
L 364.487667 152.187273 
L 369.100267 152.055773 
L 373.32397 151.040808 
L 376.95782 148.376645 
L 379.869382 140.038365 
L 382.067362 59.175055 
L 383.697011 49.36941 
L 384.965609 49.990279 
L 386.053596 48.47556 
L 387.071277 46.659959 
L 388.068804 45.567576 
L 389.063083 45.587357 
L 390.057632 44.181543 
L 391.052837 43.932727 
L 392.049527 45.036226 
L 393.048575 44.44368 
L 394.049566 44.295427 
L 395.0527 45.485587 
L 396.057731 44.682289 
L 397.060005 44.045613 
L 398.05887 45.062732 
L 399.061132 44.697863 
L 400.063887 44.291133 
L 401.060693 45.273688 
L 402.064568 45.369025 
L 403.076283 44.872762 
L 404.067526 45.017937 
L 405.052559 44.845738 
L 406.069837 43.996486 
L 407.056147 44.315314 
L 408.004652 45.795073 
L 409.117524 72.625491 
L 410.672295 116.935462 
L 412.641592 130.283862 
L 414.743517 130.979671 
L 416.854362 130.986135 
L 418.965293 130.986188 
L 421.076226 130.986188 
L 423.187158 130.986188 
L 425.29809 130.986188 
L 427.409022 130.986188 
L 429.519954 130.986188 
L 431.630886 130.986188 
L 433.741818 130.986188 
" clip-path="url(#p5080e13c9e)" style="fill: none; stroke: #ff0000; stroke-width: 1.5; stroke-linecap: square"/>
   </g>
   <g id="line2d_26">
    <path d="M 381.431968 157.6 
L 381.431968 38.52 
" clip-path="url(#p5080e13c9e)" style="fill: none; stroke: #1f77b4; stroke-width: 1.5; stroke-linecap: square"/>
   </g>
   <g id="LineCollection_2">
    <path d="M 265.922716 131.484092 
L 268.033648 131.484092 
" clip-path="url(#p5080e13c9e)" style="fill: none; stroke: #0000ff; stroke-width: 2"/>
    <path d="M 268.033648 131.484092 
L 270.14458 131.484092 
" clip-path="url(#p5080e13c9e)" style="fill: none; stroke: #0000ff; stroke-width: 2"/>
    <path d="M 270.14458 131.484092 
L 272.255512 131.484092 
" clip-path="url(#p5080e13c9e)" style="fill: none; stroke: #0000ff; stroke-width: 2"/>
    <path d="M 272.255512 131.484092 
L 274.366444 131.484092 
" clip-path="url(#p5080e13c9e)" style="fill: none; stroke: #0000ff; stroke-width: 2"/>
    <path d="M 274.366444 131.484092 
L 276.477376 131.484092 
" clip-path="url(#p5080e13c9e)" style="fill: none; stroke: #0000ff; stroke-width: 2"/>
    <path d="M 276.477376 131.484092 
L 278.588308 131.484092 
" clip-path="url(#p5080e13c9e)" style="fill: none; stroke: #0000ff; stroke-width: 2"/>
    <path d="M 278.588308 131.484092 
L 280.699241 131.484092 
" clip-path="url(#p5080e13c9e)" style="fill: none; stroke: #0000ff; stroke-width: 2"/>
    <path d="M 280.699241 131.484092 
L 282.810173 131.484092 
" clip-path="url(#p5080e13c9e)" style="fill: none; stroke: #0000ff; stroke-width: 2"/>
    <path d="M 282.810173 131.484092 
L 284.921105 131.484092 
" clip-path="url(#p5080e13c9e)" style="fill: none; stroke: #0000ff; stroke-width: 2"/>
    <path d="M 284.921105 131.484092 
L 287.032037 131.484092 
" clip-path="url(#p5080e13c9e)" style="fill: none; stroke: #0000ff; stroke-width: 2"/>
    <path d="M 287.032037 131.484092 
L 289.142969 131.484092 
" clip-path="url(#p5080e13c9e)" style="fill: none; stroke: #0000ff; stroke-width: 2"/>
    <path d="M 289.142969 131.484092 
L 291.253901 131.484092 
" clip-path="url(#p5080e13c9e)" style="fill: none; stroke: #0000ff; stroke-width: 2"/>
    <path d="M 291.253901 131.484092 
L 293.364833 131.484092 
" clip-path="url(#p5080e13c9e)" style="fill: none; stroke: #0000ff; stroke-width: 2"/>
    <path d="M 293.364833 131.484092 
L 295.475765 131.484092 
" clip-path="url(#p5080e13c9e)" style="fill: none; stroke: #0000ff; stroke-width: 2"/>
    <path d="M 295.475765 131.484092 
L 297.586697 131.484092 
" clip-path="url(#p5080e13c9e)" style="fill: none; stroke: #0000ff; stroke-width: 2"/>
    <path d="M 297.586697 131.484092 
L 299.697631 131.484092 
" clip-path="url(#p5080e13c9e)" style="fill: none; stroke: #0000ff; stroke-width: 2"/>
    <path d="M 299.697631 131.484092 
L 301.808606 131.484092 
" clip-path="url(#p5080e13c9e)" style="fill: none; stroke: #0000ff; stroke-width: 2"/>
    <path d="M 301.808606 131.484092 
L 303.920363 131.484092 
" clip-path="url(#p5080e13c9e)" style="fill: none; stroke: #0000ff; stroke-width: 2"/>
    <path d="M 303.920363 131.484092 
L 306.038086 131.484092 
" clip-path="url(#p5080e13c9e)" style="fill: none; stroke: #0000ff; stroke-width: 2"/>
    <path d="M 306.038086 131.484092 
L 308.176671 131.484092 
" clip-path="url(#p5080e13c9e)" style="fill: none; stroke: #0000ff; stroke-width: 2"/>
    <path d="M 308.176671 131.484092 
L 310.35857 131.484092 
" clip-path="url(#p5080e13c9e)" style="fill: none; stroke: #0000ff; stroke-width: 2"/>
    <path d="M 310.35857 131.484092 
L 312.606591 131.484092 
" clip-path="url(#p5080e13c9e)" style="fill: none; stroke: #0000ff; stroke-width: 2"/>
    <path d="M 312.606591 131.484092 
L 314.940985 131.484092 
" clip-path="url(#p5080e13c9e)" style="fill: none; stroke: #0000ff; stroke-width: 2"/>
    <path d="M 314.940985 131.484092 
L 317.379863 131.484092 
" clip-path="url(#p5080e13c9e)" style="fill: none; stroke: #0000ff; stroke-width: 2"/>
    <path d="M 317.379863 131.484092 
L 319.940678 131.484092 
" clip-path="url(#p5080e13c9e)" style="fill: none; stroke: #0000ff; stroke-width: 2"/>
    <path d="M 319.940678 131.484092 
L 322.642022 131.484092 
" clip-path="url(#p5080e13c9e)" style="fill: none; stroke: #0000ff; stroke-width: 2"/>
    <path d="M 322.642022 131.484092 
L 325.504875 131.484092 
" clip-path="url(#p5080e13c9e)" style="fill: none; stroke: #0000ff; stroke-width: 2"/>
    <path d="M 325.504875 131.484092 
L 328.553592 131.484092 
" clip-path="url(#p5080e13c9e)" style="fill: none; stroke: #0000ff; stroke-width: 2"/>
    <path d="M 328.553592 131.484092 
L 331.817153 131.484092 
" clip-path="url(#p5080e13c9e)" style="fill: none; stroke: #0000ff; stroke-width: 2"/>
    <path d="M 331.817153 131.484092 
L 335.329664 131.484092 
" clip-path="url(#p5080e13c9e)" style="fill: none; stroke: #0000ff; stroke-width: 2"/>
    <path d="M 335.329664 131.484092 
L 339.128028 131.484092 
" clip-path="url(#p5080e13c9e)" style="fill: none; stroke: #0000ff; stroke-width: 2"/>
    <path d="M 339.128028 131.484092 
L 343.241381 131.484092 
" clip-path="url(#p5080e13c9e)" style="fill: none; stroke: #0000ff; stroke-width: 2"/>
    <path d="M 343.241381 131.484092 
L 347.672485 131.484092 
" clip-path="url(#p5080e13c9e)" style="fill: none; stroke: #0000ff; stroke-width: 2"/>
    <path d="M 347.672485 131.484092 
L 352.372954 131.484092 
" clip-path="url(#p5080e13c9e)" style="fill: none; stroke: #0000ff; stroke-width: 2"/>
    <path d="M 352.372954 131.484092 
L 357.231899 131.484092 
" clip-path="url(#p5080e13c9e)" style="fill: none; stroke: #0000ff; stroke-width: 2"/>
    <path d="M 357.231899 131.484092 
L 362.110246 131.484092 
" clip-path="url(#p5080e13c9e)" style="fill: none; stroke: #0000ff; stroke-width: 2"/>
    <path d="M 362.110246 131.484092 
L 366.865088 131.484092 
" clip-path="url(#p5080e13c9e)" style="fill: none; stroke: #0000ff; stroke-width: 2"/>
    <path d="M 366.865088 131.484092 
L 371.335447 131.484092 
" clip-path="url(#p5080e13c9e)" style="fill: none; stroke: #0000ff; stroke-width: 2"/>
    <path d="M 371.335447 131.484092 
L 375.312492 131.484092 
" clip-path="url(#p5080e13c9e)" style="fill: none; stroke: #0000ff; stroke-width: 2"/>
    <path d="M 375.312492 131.484092 
L 378.603147 131.484092 
" clip-path="url(#p5080e13c9e)" style="fill: none; stroke: #00ff00; stroke-width: 2"/>
    <path d="M 378.603147 131.484092 
L 381.135616 131.484092 
" clip-path="url(#p5080e13c9e)" style="fill: none; stroke: #00ff00; stroke-width: 2"/>
    <path d="M 381.135616 131.484092 
L 382.999109 131.484092 
" clip-path="url(#p5080e13c9e)" style="fill: none; stroke: #ff8080; stroke-width: 2"/>
    <path d="M 382.999109 131.484092 
L 384.394914 131.484092 
" clip-path="url(#p5080e13c9e)" style="fill: none; stroke: #00ff00; stroke-width: 2"/>
    <path d="M 384.394914 131.484092 
L 385.536305 131.484092 
" clip-path="url(#p5080e13c9e)" style="fill: none; stroke: #00ff00; stroke-width: 2"/>
    <path d="M 385.536305 131.484092 
L 386.570887 131.484092 
" clip-path="url(#p5080e13c9e)" style="fill: none; stroke: #0000ff; stroke-width: 2"/>
    <path d="M 386.570887 131.484092 
L 387.571666 131.484092 
" clip-path="url(#p5080e13c9e)" style="fill: none; stroke: #0000ff; stroke-width: 2"/>
    <path d="M 387.571666 131.484092 
L 388.565942 131.484092 
" clip-path="url(#p5080e13c9e)" style="fill: none; stroke: #0000ff; stroke-width: 2"/>
    <path d="M 388.565942 131.484092 
L 389.560225 131.484092 
" clip-path="url(#p5080e13c9e)" style="fill: none; stroke: #0000ff; stroke-width: 2"/>
    <path d="M 389.560225 131.484092 
L 390.555039 131.484092 
" clip-path="url(#p5080e13c9e)" style="fill: none; stroke: #0000ff; stroke-width: 2"/>
    <path d="M 390.555039 131.484092 
L 391.550635 131.484092 
" clip-path="url(#p5080e13c9e)" style="fill: none; stroke: #0000ff; stroke-width: 2"/>
    <path d="M 391.550635 131.484092 
L 392.54842 131.484092 
" clip-path="url(#p5080e13c9e)" style="fill: none; stroke: #0000ff; stroke-width: 2"/>
    <path d="M 392.54842 131.484092 
L 393.54873 131.484092 
" clip-path="url(#p5080e13c9e)" style="fill: none; stroke: #0000ff; stroke-width: 2"/>
    <path d="M 393.54873 131.484092 
L 394.550401 131.484092 
" clip-path="url(#p5080e13c9e)" style="fill: none; stroke: #0000ff; stroke-width: 2"/>
    <path d="M 394.550401 131.484092 
L 395.555 131.484092 
" clip-path="url(#p5080e13c9e)" style="fill: none; stroke: #0000ff; stroke-width: 2"/>
    <path d="M 395.555 131.484092 
L 396.560463 131.484092 
" clip-path="url(#p5080e13c9e)" style="fill: none; stroke: #0000ff; stroke-width: 2"/>
    <path d="M 396.560463 131.484092 
L 397.559548 131.484092 
" clip-path="url(#p5080e13c9e)" style="fill: none; stroke: #0000ff; stroke-width: 2"/>
    <path d="M 397.559548 131.484092 
L 398.558192 131.484092 
" clip-path="url(#p5080e13c9e)" style="fill: none; stroke: #0000ff; stroke-width: 2"/>
    <path d="M 398.558192 131.484092 
L 399.564071 131.484092 
" clip-path="url(#p5080e13c9e)" style="fill: none; stroke: #0000ff; stroke-width: 2"/>
    <path d="M 399.564071 131.484092 
L 400.563702 131.484092 
" clip-path="url(#p5080e13c9e)" style="fill: none; stroke: #0000ff; stroke-width: 2"/>
    <path d="M 400.563702 131.484092 
L 401.557684 131.484092 
" clip-path="url(#p5080e13c9e)" style="fill: none; stroke: #0000ff; stroke-width: 2"/>
    <path d="M 401.557684 131.484092 
L 402.571451 131.484092 
" clip-path="url(#p5080e13c9e)" style="fill: none; stroke: #0000ff; stroke-width: 2"/>
    <path d="M 402.571451 131.484092 
L 403.581115 131.484092 
" clip-path="url(#p5080e13c9e)" style="fill: none; stroke: #0000ff; stroke-width: 2"/>
    <path d="M 403.581115 131.484092 
L 404.553938 131.484092 
" clip-path="url(#p5080e13c9e)" style="fill: none; stroke: #0000ff; stroke-width: 2"/>
    <path d="M 404.553938 131.484092 
L 405.55118 131.484092 
" clip-path="url(#p5080e13c9e)" style="fill: none; stroke: #0000ff; stroke-width: 2"/>
    <path d="M 405.55118 131.484092 
L 406.588493 131.484092 
" clip-path="url(#p5080e13c9e)" style="fill: none; stroke: #0000ff; stroke-width: 2"/>
    <path d="M 406.588493 131.484092 
L 407.523801 131.484092 
" clip-path="url(#p5080e13c9e)" style="fill: none; stroke: #0000ff; stroke-width: 2"/>
    <path d="M 407.523801 131.484092 
L 408.485503 131.484092 
" clip-path="url(#p5080e13c9e)" style="fill: none; stroke: #0000ff; stroke-width: 2"/>
    <path d="M 408.485503 131.484092 
L 409.749545 131.484092 
" clip-path="url(#p5080e13c9e)" style="fill: none; stroke: #0000ff; stroke-width: 2"/>
    <path d="M 409.749545 131.484092 
L 411.595046 131.484092 
" clip-path="url(#p5080e13c9e)" style="fill: none; stroke: #0000ff; stroke-width: 2"/>
    <path d="M 411.595046 131.484092 
L 413.688137 131.484092 
" clip-path="url(#p5080e13c9e)" style="fill: none; stroke: #0000ff; stroke-width: 2"/>
    <path d="M 413.688137 131.484092 
L 415.798897 131.484092 
" clip-path="url(#p5080e13c9e)" style="fill: none; stroke: #0000ff; stroke-width: 2"/>
    <path d="M 415.798897 131.484092 
L 417.909827 131.484092 
" clip-path="url(#p5080e13c9e)" style="fill: none; stroke: #0000ff; stroke-width: 2"/>
    <path d="M 417.909827 131.484092 
L 420.020759 131.484092 
" clip-path="url(#p5080e13c9e)" style="fill: none; stroke: #0000ff; stroke-width: 2"/>
    <path d="M 420.020759 131.484092 
L 422.131692 131.484092 
" clip-path="url(#p5080e13c9e)" style="fill: none; stroke: #0000ff; stroke-width: 2"/>
    <path d="M 422.131692 131.484092 
L 424.242624 131.484092 
" clip-path="url(#p5080e13c9e)" style="fill: none; stroke: #0000ff; stroke-width: 2"/>
    <path d="M 424.242624 131.484092 
L 426.353556 131.484092 
" clip-path="url(#p5080e13c9e)" style="fill: none; stroke: #0000ff; stroke-width: 2"/>
    <path d="M 426.353556 131.484092 
L 428.464488 131.484092 
" clip-path="url(#p5080e13c9e)" style="fill: none; stroke: #0000ff; stroke-width: 2"/>
    <path d="M 428.464488 131.484092 
L 430.57542 131.484092 
" clip-path="url(#p5080e13c9e)" style="fill: none; stroke: #0000ff; stroke-width: 2"/>
    <path d="M 430.57542 131.484092 
L 432.686352 131.484092 
" clip-path="url(#p5080e13c9e)" style="fill: none; stroke: #0000ff; stroke-width: 2"/>
    <path d="M 432.686352 131.484092 
L 434.797284 131.484092 
" clip-path="url(#p5080e13c9e)" style="fill: none; stroke: #0000ff; stroke-width: 2"/>
   </g>
   <g id="patch_8">
    <path d="M 258.64 157.6 
L 258.64 38.52 
" style="fill: none; stroke: #000000; stroke-width: 0.8; stroke-linejoin: miter; stroke-linecap: square"/>
   </g>
   <g id="patch_9">
    <path d="M 442.08 157.6 
L 442.08 38.52 
" style="fill: none; stroke: #000000; stroke-width: 0.8; stroke-linejoin: miter; stroke-linecap: square"/>
   </g>
   <g id="patch_10">
    <path d="M 258.64 157.6 
L 442.08 157.6 
" style="fill: none; stroke: #000000; stroke-width: 0.8; stroke-linejoin: miter; stroke-linecap: square"/>
   </g>
   <g id="patch_11">
    <path d="M 258.64 38.52 
L 442.08 38.52 
" style="fill: none; stroke: #000000; stroke-width: 0.8; stroke-linejoin: miter; stroke-linecap: square"/>
   </g>
   <g id="text_24">
    <!-- Internal energy -->
    <g transform="translate(304.420625 32.52)scale(0.12 -0.12)">
     <defs>
      <path id="DejaVuSans-49" d="M 628 4666 
L 1259 4666 
L 1259 0 
L 628 0 
L 628 4666 
z
" transform="scale(0.015625)"/>
      <path id="DejaVuSans-72" d="M 2631 2963 
Q 2534 3019 2420 3045 
Q 2306 3072 2169 3072 
Q 1681 3072 1420 2755 
Q 1159 2438 1159 1844 
L 1159 0 
L 581 0 
L 581 3500 
L 1159 3500 
L 1159 2956 
Q 1341 3275 1631 3429 
Q 1922 3584 2338 3584 
Q 2397 3584 2469 3576 
Q 2541 3569 2628 3553 
L 2631 2963 
z
" transform="scale(0.015625)"/>
      <path id="DejaVuSans-61" d="M 2194 1759 
Q 1497 1759 1228 1600 
Q 959 1441 959 1056 
Q 959 750 1161 570 
Q 1363 391 1709 391 
Q 2188 391 2477 730 
Q 2766 1069 2766 1631 
L 2766 1759 
L 2194 1759 
z
M 3341 1997 
L 3341 0 
L 2766 0 
L 2766 531 
Q 2569 213 2275 61 
Q 1981 -91 1556 -91 
Q 1019 -91 701 211 
Q 384 513 384 1019 
Q 384 1609 779 1909 
Q 1175 2209 1959 2209 
L 2766 2209 
L 2766 2266 
Q 2766 2663 2505 2880 
Q 2244 3097 1772 3097 
Q 1472 3097 1187 3025 
Q 903 2953 641 2809 
L 641 3341 
Q 956 3463 1253 3523 
Q 1550 3584 1831 3584 
Q 2591 3584 2966 3190 
Q 3341 2797 3341 1997 
z
" transform="scale(0.015625)"/>
      <path id="DejaVuSans-6c" d="M 603 4863 
L 1178 4863 
L 1178 0 
L 603 0 
L 603 4863 
z
" transform="scale(0.015625)"/>
      <path id="DejaVuSans-20" transform="scale(0.015625)"/>
      <path id="DejaVuSans-67" d="M 2906 1791 
Q 2906 2416 2648 2759 
Q 2391 3103 1925 3103 
Q 1463 3103 1205 2759 
Q 947 2416 947 1791 
Q 947 1169 1205 825 
Q 1463 481 1925 481 
Q 2391 481 2648 825 
Q 2906 1169 2906 1791 
z
M 3481 434 
Q 3481 -459 3084 -895 
Q 2688 -1331 1869 -1331 
Q 1566 -1331 1297 -1286 
Q 1028 -1241 775 -1147 
L 775 -588 
Q 1028 -725 1275 -790 
Q 1522 -856 1778 -856 
Q 2344 -856 2625 -561 
Q 2906 -266 2906 331 
L 2906 616 
Q 2728 306 2450 153 
Q 2172 0 1784 0 
Q 1141 0 747 490 
Q 353 981 353 1791 
Q 353 2603 747 3093 
Q 1141 3584 1784 3584 
Q 2172 3584 2450 3431 
Q 2728 3278 2906 2969 
L 2906 3500 
L 3481 3500 
L 3481 434 
z
" transform="scale(0.015625)"/>
     </defs>
     <use xlink:href="#DejaVuSans-49"/>
     <use xlink:href="#DejaVuSans-6e" x="29.492188"/>
     <use xlink:href="#DejaVuSans-74" x="92.871094"/>
     <use xlink:href="#DejaVuSans-65" x="132.080078"/>
     <use xlink:href="#DejaVuSans-72" x="193.603516"/>
     <use xlink:href="#DejaVuSans-6e" x="232.966797"/>
     <use xlink:href="#DejaVuSans-61" x="296.345703"/>
     <use xlink:href="#DejaVuSans-6c" x="357.625"/>
     <use xlink:href="#DejaVuSans-20" x="385.408203"/>
     <use xlink:href="#DejaVuSans-65" x="417.195312"/>
     <use xlink:href="#DejaVuSans-6e" x="478.71875"/>
     <use xlink:href="#DejaVuSans-65" x="542.097656"/>
     <use xlink:href="#DejaVuSans-72" x="603.621094"/>
     <use xlink:href="#DejaVuSans-67" x="642.984375"/>
     <use xlink:href="#DejaVuSans-79" x="706.460938"/>
    </g>
   </g>
  </g>
  <g id="axes_3">
   <g id="patch_12">
    <path d="M 33.64 317.72 
L 217.08 317.72 
L 217.08 198.64 
L 33.64 198.64 
z
" style="fill: #ffffff"/>
   </g>
   <g id="matplotlib.axis_5">
    <g id="xtick_13">
     <g id="line2d_27">
      <g>
       <use xlink:href="#mb320080fed" x="40.922716" y="317.72" style="stroke: #000000; stroke-width: 0.8"/>
      </g>
     </g>
     <g id="text_25">
      <!-- 0.0 -->
      <g transform="translate(32.971153 332.318437)scale(0.1 -0.1)">
       <use xlink:href="#DejaVuSans-30"/>
       <use xlink:href="#DejaVuSans-2e" x="63.623047"/>
       <use xlink:href="#DejaVuSans-30" x="95.410156"/>
      </g>
     </g>
    </g>
    <g id="xtick_14">
     <g id="line2d_28">
      <g>
       <use xlink:href="#mb320080fed" x="74.697629" y="317.72" style="stroke: #000000; stroke-width: 0.8"/>
      </g>
     </g>
     <g id="text_26">
      <!-- 0.2 -->
      <g transform="translate(66.746067 332.318437)scale(0.1 -0.1)">
       <use xlink:href="#DejaVuSans-30"/>
       <use xlink:href="#DejaVuSans-2e" x="63.623047"/>
       <use xlink:href="#DejaVuSans-32" x="95.410156"/>
      </g>
     </g>
    </g>
    <g id="xtick_15">
     <g id="line2d_29">
      <g>
       <use xlink:href="#mb320080fed" x="108.472543" y="317.72" style="stroke: #000000; stroke-width: 0.8"/>
      </g>
     </g>
     <g id="text_27">
      <!-- 0.4 -->
      <g transform="translate(100.520981 332.318437)scale(0.1 -0.1)">
       <use xlink:href="#DejaVuSans-30"/>
       <use xlink:href="#DejaVuSans-2e" x="63.623047"/>
       <use xlink:href="#DejaVuSans-34" x="95.410156"/>
      </g>
     </g>
    </g>
    <g id="xtick_16">
     <g id="line2d_30">
      <g>
       <use xlink:href="#mb320080fed" x="142.247457" y="317.72" style="stroke: #000000; stroke-width: 0.8"/>
      </g>
     </g>
     <g id="text_28">
      <!-- 0.6 -->
      <g transform="translate(134.295894 332.318437)scale(0.1 -0.1)">
       <use xlink:href="#DejaVuSans-30"/>
       <use xlink:href="#DejaVuSans-2e" x="63.623047"/>
       <use xlink:href="#DejaVuSans-36" x="95.410156"/>
      </g>
     </g>
    </g>
    <g id="xtick_17">
     <g id="line2d_31">
      <g>
       <use xlink:href="#mb320080fed" x="176.022371" y="317.72" style="stroke: #000000; stroke-width: 0.8"/>
      </g>
     </g>
     <g id="text_29">
      <!-- 0.8 -->
      <g transform="translate(168.070808 332.318437)scale(0.1 -0.1)">
       <use xlink:href="#DejaVuSans-30"/>
       <use xlink:href="#DejaVuSans-2e" x="63.623047"/>
       <use xlink:href="#DejaVuSans-38" x="95.410156"/>
      </g>
     </g>
    </g>
    <g id="xtick_18">
     <g id="line2d_32">
      <g>
       <use xlink:href="#mb320080fed" x="209.797284" y="317.72" style="stroke: #000000; stroke-width: 0.8"/>
      </g>
     </g>
     <g id="text_30">
      <!-- 1.0 -->
      <g transform="translate(201.845722 332.318437)scale(0.1 -0.1)">
       <use xlink:href="#DejaVuSans-31"/>
       <use xlink:href="#DejaVuSans-2e" x="63.623047"/>
       <use xlink:href="#DejaVuSans-30" x="95.410156"/>
      </g>
     </g>
    </g>
   </g>
   <g id="matplotlib.axis_6">
    <g id="ytick_11">
     <g id="line2d_33">
      <g>
       <use xlink:href="#m16322d18f1" x="33.64" y="300.27899" style="stroke: #000000; stroke-width: 0.8"/>
      </g>
     </g>
     <g id="text_31">
      <!-- 0.2 -->
      <g transform="translate(10.736875 304.078209)scale(0.1 -0.1)">
       <use xlink:href="#DejaVuSans-30"/>
       <use xlink:href="#DejaVuSans-2e" x="63.623047"/>
       <use xlink:href="#DejaVuSans-32" x="95.410156"/>
      </g>
     </g>
    </g>
    <g id="ytick_12">
     <g id="line2d_34">
      <g>
       <use xlink:href="#m16322d18f1" x="33.64" y="276.222424" style="stroke: #000000; stroke-width: 0.8"/>
      </g>
     </g>
     <g id="text_32">
      <!-- 0.4 -->
      <g transform="translate(10.736875 280.021643)scale(0.1 -0.1)">
       <use xlink:href="#DejaVuSans-30"/>
       <use xlink:href="#DejaVuSans-2e" x="63.623047"/>
       <use xlink:href="#DejaVuSans-34" x="95.410156"/>
      </g>
     </g>
    </g>
    <g id="ytick_13">
     <g id="line2d_35">
      <g>
       <use xlink:href="#m16322d18f1" x="33.64" y="252.165859" style="stroke: #000000; stroke-width: 0.8"/>
      </g>
     </g>
     <g id="text_33">
      <!-- 0.6 -->
      <g transform="translate(10.736875 255.965077)scale(0.1 -0.1)">
       <use xlink:href="#DejaVuSans-30"/>
       <use xlink:href="#DejaVuSans-2e" x="63.623047"/>
       <use xlink:href="#DejaVuSans-36" x="95.410156"/>
      </g>
     </g>
    </g>
    <g id="ytick_14">
     <g id="line2d_36">
      <g>
       <use xlink:href="#m16322d18f1" x="33.64" y="228.109293" style="stroke: #000000; stroke-width: 0.8"/>
      </g>
     </g>
     <g id="text_34">
      <!-- 0.8 -->
      <g transform="translate(10.736875 231.908512)scale(0.1 -0.1)">
       <use xlink:href="#DejaVuSans-30"/>
       <use xlink:href="#DejaVuSans-2e" x="63.623047"/>
       <use xlink:href="#DejaVuSans-38" x="95.410156"/>
      </g>
     </g>
    </g>
    <g id="ytick_15">
     <g id="line2d_37">
      <g>
       <use xlink:href="#m16322d18f1" x="33.64" y="204.052727" style="stroke: #000000; stroke-width: 0.8"/>
      </g>
     </g>
     <g id="text_35">
      <!-- 1.0 -->
      <g transform="translate(10.736875 207.851946)scale(0.1 -0.1)">
       <use xlink:href="#DejaVuSans-31"/>
       <use xlink:href="#DejaVuSans-2e" x="63.623047"/>
       <use xlink:href="#DejaVuSans-30" x="95.410156"/>
      </g>
     </g>
    </g>
   </g>
   <g id="line2d_38">
    <path d="M 41.978182 204.052727 
L 44.089114 204.052727 
L 46.200046 204.052727 
L 48.310978 204.052727 
L 50.42191 204.052727 
L 52.532842 204.052727 
L 54.643774 204.052727 
L 56.754707 204.052727 
L 58.865639 204.052727 
L 60.976571 204.052727 
L 63.087503 204.052727 
L 65.198435 204.052727 
L 67.309367 204.052727 
L 69.420299 204.052727 
L 71.531231 204.05273 
L 73.642164 204.052836 
L 75.753118 204.056106 
L 77.864484 204.117384 
L 79.979224 204.572794 
L 82.107379 206.096825 
L 84.267621 209.144991 
L 86.482581 213.624229 
L 88.773788 219.116918 
L 91.160424 225.201661 
L 93.66027 231.590055 
L 96.29135 238.114953 
L 99.073448 244.676758 
L 102.029233 251.206326 
L 105.185373 257.65093 
L 108.573408 263.949823 
L 112.228846 269.995739 
L 116.184704 275.576466 
L 120.456933 280.385436 
L 125.02272 284.091252 
L 129.802427 286.45121 
L 134.671073 287.540243 
L 139.487667 287.809859 
L 144.100267 287.937694 
L 148.32397 287.930082 
L 151.95782 287.900883 
L 154.869382 287.867086 
L 157.067362 287.800586 
L 158.697011 287.750433 
L 159.965609 287.803172 
L 161.053596 287.878634 
L 162.071277 287.897332 
L 163.068804 287.880426 
L 164.063083 287.816843 
L 165.057632 287.766865 
L 166.052837 287.773827 
L 167.049527 287.833263 
L 168.048575 287.9552 
L 169.049566 288.056014 
L 170.0527 288.105823 
L 171.057731 288.071436 
L 172.060005 287.993303 
L 173.05887 287.952262 
L 174.061132 287.958084 
L 175.063887 288.003154 
L 176.060693 288.07117 
L 177.064568 288.116042 
L 178.076283 288.054893 
L 179.067526 287.912365 
L 180.052559 287.704079 
L 181.069837 287.465197 
L 182.056147 287.333343 
L 183.004652 288.174955 
L 184.117524 298.497525 
L 185.672295 309.60779 
L 187.641592 312.161977 
L 189.743517 312.305895 
L 191.854362 312.307261 
L 193.965293 312.307273 
L 196.076226 312.307273 
L 198.187158 312.307273 
L 200.29809 312.307273 
L 202.409022 312.307273 
L 204.519954 312.307273 
L 206.630886 312.307273 
L 208.741818 312.307273 
" clip-path="url(#p712023ac5b)" style="fill: none; stroke: #0000ff; stroke-width: 1.5; stroke-linecap: square"/>
   </g>
   <g id="line2d_39">
    <path d="M 156.431968 317.72 
L 156.431968 198.64 
" clip-path="url(#p712023ac5b)" style="fill: none; stroke: #1f77b4; stroke-width: 1.5; stroke-linecap: square"/>
   </g>
   <g id="LineCollection_3">
    <path d="M 40.922716 313.389818 
L 43.033648 313.389818 
" clip-path="url(#p712023ac5b)" style="fill: none; stroke: #0000ff; stroke-width: 2"/>
    <path d="M 43.033648 313.389818 
L 45.14458 313.389818 
" clip-path="url(#p712023ac5b)" style="fill: none; stroke: #0000ff; stroke-width: 2"/>
    <path d="M 45.14458 313.389818 
L 47.255512 313.389818 
" clip-path="url(#p712023ac5b)" style="fill: none; stroke: #0000ff; stroke-width: 2"/>
    <path d="M 47.255512 313.389818 
L 49.366444 313.389818 
" clip-path="url(#p712023ac5b)" style="fill: none; stroke: #0000ff; stroke-width: 2"/>
    <path d="M 49.366444 313.389818 
L 51.477376 313.389818 
" clip-path="url(#p712023ac5b)" style="fill: none; stroke: #0000ff; stroke-width: 2"/>
    <path d="M 51.477376 313.389818 
L 53.588308 313.389818 
" clip-path="url(#p712023ac5b)" style="fill: none; stroke: #0000ff; stroke-width: 2"/>
    <path d="M 53.588308 313.389818 
L 55.699241 313.389818 
" clip-path="url(#p712023ac5b)" style="fill: none; stroke: #0000ff; stroke-width: 2"/>
    <path d="M 55.699241 313.389818 
L 57.810173 313.389818 
" clip-path="url(#p712023ac5b)" style="fill: none; stroke: #0000ff; stroke-width: 2"/>
    <path d="M 57.810173 313.389818 
L 59.921105 313.389818 
" clip-path="url(#p712023ac5b)" style="fill: none; stroke: #0000ff; stroke-width: 2"/>
    <path d="M 59.921105 313.389818 
L 62.032037 313.389818 
" clip-path="url(#p712023ac5b)" style="fill: none; stroke: #0000ff; stroke-width: 2"/>
    <path d="M 62.032037 313.389818 
L 64.142969 313.389818 
" clip-path="url(#p712023ac5b)" style="fill: none; stroke: #0000ff; stroke-width: 2"/>
    <path d="M 64.142969 313.389818 
L 66.253901 313.389818 
" clip-path="url(#p712023ac5b)" style="fill: none; stroke: #0000ff; stroke-width: 2"/>
    <path d="M 66.253901 313.389818 
L 68.364833 313.389818 
" clip-path="url(#p712023ac5b)" style="fill: none; stroke: #0000ff; stroke-width: 2"/>
    <path d="M 68.364833 313.389818 
L 70.475765 313.389818 
" clip-path="url(#p712023ac5b)" style="fill: none; stroke: #0000ff; stroke-width: 2"/>
    <path d="M 70.475765 313.389818 
L 72.586697 313.389818 
" clip-path="url(#p712023ac5b)" style="fill: none; stroke: #0000ff; stroke-width: 2"/>
    <path d="M 72.586697 313.389818 
L 74.697631 313.389818 
" clip-path="url(#p712023ac5b)" style="fill: none; stroke: #0000ff; stroke-width: 2"/>
    <path d="M 74.697631 313.389818 
L 76.808606 313.389818 
" clip-path="url(#p712023ac5b)" style="fill: none; stroke: #0000ff; stroke-width: 2"/>
    <path d="M 76.808606 313.389818 
L 78.920363 313.389818 
" clip-path="url(#p712023ac5b)" style="fill: none; stroke: #0000ff; stroke-width: 2"/>
    <path d="M 78.920363 313.389818 
L 81.038086 313.389818 
" clip-path="url(#p712023ac5b)" style="fill: none; stroke: #0000ff; stroke-width: 2"/>
    <path d="M 81.038086 313.389818 
L 83.176671 313.389818 
" clip-path="url(#p712023ac5b)" style="fill: none; stroke: #0000ff; stroke-width: 2"/>
    <path d="M 83.176671 313.389818 
L 85.35857 313.389818 
" clip-path="url(#p712023ac5b)" style="fill: none; stroke: #0000ff; stroke-width: 2"/>
    <path d="M 85.35857 313.389818 
L 87.606591 313.389818 
" clip-path="url(#p712023ac5b)" style="fill: none; stroke: #0000ff; stroke-width: 2"/>
    <path d="M 87.606591 313.389818 
L 89.940985 313.389818 
" clip-path="url(#p712023ac5b)" style="fill: none; stroke: #0000ff; stroke-width: 2"/>
    <path d="M 89.940985 313.389818 
L 92.379863 313.389818 
" clip-path="url(#p712023ac5b)" style="fill: none; stroke: #0000ff; stroke-width: 2"/>
    <path d="M 92.379863 313.389818 
L 94.940678 313.389818 
" clip-path="url(#p712023ac5b)" style="fill: none; stroke: #0000ff; stroke-width: 2"/>
    <path d="M 94.940678 313.389818 
L 97.642022 313.389818 
" clip-path="url(#p712023ac5b)" style="fill: none; stroke: #0000ff; stroke-width: 2"/>
    <path d="M 97.642022 313.389818 
L 100.504875 313.389818 
" clip-path="url(#p712023ac5b)" style="fill: none; stroke: #0000ff; stroke-width: 2"/>
    <path d="M 100.504875 313.389818 
L 103.553592 313.389818 
" clip-path="url(#p712023ac5b)" style="fill: none; stroke: #0000ff; stroke-width: 2"/>
    <path d="M 103.553592 313.389818 
L 106.817153 313.389818 
" clip-path="url(#p712023ac5b)" style="fill: none; stroke: #0000ff; stroke-width: 2"/>
    <path d="M 106.817153 313.389818 
L 110.329664 313.389818 
" clip-path="url(#p712023ac5b)" style="fill: none; stroke: #0000ff; stroke-width: 2"/>
    <path d="M 110.329664 313.389818 
L 114.128028 313.389818 
" clip-path="url(#p712023ac5b)" style="fill: none; stroke: #0000ff; stroke-width: 2"/>
    <path d="M 114.128028 313.389818 
L 118.241381 313.389818 
" clip-path="url(#p712023ac5b)" style="fill: none; stroke: #0000ff; stroke-width: 2"/>
    <path d="M 118.241381 313.389818 
L 122.672485 313.389818 
" clip-path="url(#p712023ac5b)" style="fill: none; stroke: #0000ff; stroke-width: 2"/>
    <path d="M 122.672485 313.389818 
L 127.372954 313.389818 
" clip-path="url(#p712023ac5b)" style="fill: none; stroke: #0000ff; stroke-width: 2"/>
    <path d="M 127.372954 313.389818 
L 132.231899 313.389818 
" clip-path="url(#p712023ac5b)" style="fill: none; stroke: #0000ff; stroke-width: 2"/>
    <path d="M 132.231899 313.389818 
L 137.110246 313.389818 
" clip-path="url(#p712023ac5b)" style="fill: none; stroke: #0000ff; stroke-width: 2"/>
    <path d="M 137.110246 313.389818 
L 141.865088 313.389818 
" clip-path="url(#p712023ac5b)" style="fill: none; stroke: #0000ff; stroke-width: 2"/>
    <path d="M 141.865088 313.389818 
L 146.335447 313.389818 
" clip-path="url(#p712023ac5b)" style="fill: none; stroke: #0000ff; stroke-width: 2"/>
    <path d="M 146.335447 313.389818 
L 150.312492 313.389818 
" clip-path="url(#p712023ac5b)" style="fill: none; stroke: #0000ff; stroke-width: 2"/>
    <path d="M 150.312492 313.389818 
L 153.603147 313.389818 
" clip-path="url(#p712023ac5b)" style="fill: none; stroke: #00ff00; stroke-width: 2"/>
    <path d="M 153.603147 313.389818 
L 156.135616 313.389818 
" clip-path="url(#p712023ac5b)" style="fill: none; stroke: #00ff00; stroke-width: 2"/>
    <path d="M 156.135616 313.389818 
L 157.999109 313.389818 
" clip-path="url(#p712023ac5b)" style="fill: none; stroke: #ff8080; stroke-width: 2"/>
    <path d="M 157.999109 313.389818 
L 159.394914 313.389818 
" clip-path="url(#p712023ac5b)" style="fill: none; stroke: #00ff00; stroke-width: 2"/>
    <path d="M 159.394914 313.389818 
L 160.536305 313.389818 
" clip-path="url(#p712023ac5b)" style="fill: none; stroke: #00ff00; stroke-width: 2"/>
    <path d="M 160.536305 313.389818 
L 161.570887 313.389818 
" clip-path="url(#p712023ac5b)" style="fill: none; stroke: #0000ff; stroke-width: 2"/>
    <path d="M 161.570887 313.389818 
L 162.571666 313.389818 
" clip-path="url(#p712023ac5b)" style="fill: none; stroke: #0000ff; stroke-width: 2"/>
    <path d="M 162.571666 313.389818 
L 163.565942 313.389818 
" clip-path="url(#p712023ac5b)" style="fill: none; stroke: #0000ff; stroke-width: 2"/>
    <path d="M 163.565942 313.389818 
L 164.560225 313.389818 
" clip-path="url(#p712023ac5b)" style="fill: none; stroke: #0000ff; stroke-width: 2"/>
    <path d="M 164.560225 313.389818 
L 165.555039 313.389818 
" clip-path="url(#p712023ac5b)" style="fill: none; stroke: #0000ff; stroke-width: 2"/>
    <path d="M 165.555039 313.389818 
L 166.550635 313.389818 
" clip-path="url(#p712023ac5b)" style="fill: none; stroke: #0000ff; stroke-width: 2"/>
    <path d="M 166.550635 313.389818 
L 167.54842 313.389818 
" clip-path="url(#p712023ac5b)" style="fill: none; stroke: #0000ff; stroke-width: 2"/>
    <path d="M 167.54842 313.389818 
L 168.54873 313.389818 
" clip-path="url(#p712023ac5b)" style="fill: none; stroke: #0000ff; stroke-width: 2"/>
    <path d="M 168.54873 313.389818 
L 169.550401 313.389818 
" clip-path="url(#p712023ac5b)" style="fill: none; stroke: #0000ff; stroke-width: 2"/>
    <path d="M 169.550401 313.389818 
L 170.555 313.389818 
" clip-path="url(#p712023ac5b)" style="fill: none; stroke: #0000ff; stroke-width: 2"/>
    <path d="M 170.555 313.389818 
L 171.560463 313.389818 
" clip-path="url(#p712023ac5b)" style="fill: none; stroke: #0000ff; stroke-width: 2"/>
    <path d="M 171.560463 313.389818 
L 172.559548 313.389818 
" clip-path="url(#p712023ac5b)" style="fill: none; stroke: #0000ff; stroke-width: 2"/>
    <path d="M 172.559548 313.389818 
L 173.558192 313.389818 
" clip-path="url(#p712023ac5b)" style="fill: none; stroke: #0000ff; stroke-width: 2"/>
    <path d="M 173.558192 313.389818 
L 174.564071 313.389818 
" clip-path="url(#p712023ac5b)" style="fill: none; stroke: #0000ff; stroke-width: 2"/>
    <path d="M 174.564071 313.389818 
L 175.563702 313.389818 
" clip-path="url(#p712023ac5b)" style="fill: none; stroke: #0000ff; stroke-width: 2"/>
    <path d="M 175.563702 313.389818 
L 176.557684 313.389818 
" clip-path="url(#p712023ac5b)" style="fill: none; stroke: #0000ff; stroke-width: 2"/>
    <path d="M 176.557684 313.389818 
L 177.571451 313.389818 
" clip-path="url(#p712023ac5b)" style="fill: none; stroke: #0000ff; stroke-width: 2"/>
    <path d="M 177.571451 313.389818 
L 178.581115 313.389818 
" clip-path="url(#p712023ac5b)" style="fill: none; stroke: #0000ff; stroke-width: 2"/>
    <path d="M 178.581115 313.389818 
L 179.553938 313.389818 
" clip-path="url(#p712023ac5b)" style="fill: none; stroke: #0000ff; stroke-width: 2"/>
    <path d="M 179.553938 313.389818 
L 180.55118 313.389818 
" clip-path="url(#p712023ac5b)" style="fill: none; stroke: #0000ff; stroke-width: 2"/>
    <path d="M 180.55118 313.389818 
L 181.588493 313.389818 
" clip-path="url(#p712023ac5b)" style="fill: none; stroke: #0000ff; stroke-width: 2"/>
    <path d="M 181.588493 313.389818 
L 182.523801 313.389818 
" clip-path="url(#p712023ac5b)" style="fill: none; stroke: #0000ff; stroke-width: 2"/>
    <path d="M 182.523801 313.389818 
L 183.485503 313.389818 
" clip-path="url(#p712023ac5b)" style="fill: none; stroke: #0000ff; stroke-width: 2"/>
    <path d="M 183.485503 313.389818 
L 184.749545 313.389818 
" clip-path="url(#p712023ac5b)" style="fill: none; stroke: #0000ff; stroke-width: 2"/>
    <path d="M 184.749545 313.389818 
L 186.595046 313.389818 
" clip-path="url(#p712023ac5b)" style="fill: none; stroke: #0000ff; stroke-width: 2"/>
    <path d="M 186.595046 313.389818 
L 188.688137 313.389818 
" clip-path="url(#p712023ac5b)" style="fill: none; stroke: #0000ff; stroke-width: 2"/>
    <path d="M 188.688137 313.389818 
L 190.798897 313.389818 
" clip-path="url(#p712023ac5b)" style="fill: none; stroke: #0000ff; stroke-width: 2"/>
    <path d="M 190.798897 313.389818 
L 192.909827 313.389818 
" clip-path="url(#p712023ac5b)" style="fill: none; stroke: #0000ff; stroke-width: 2"/>
    <path d="M 192.909827 313.389818 
L 195.020759 313.389818 
" clip-path="url(#p712023ac5b)" style="fill: none; stroke: #0000ff; stroke-width: 2"/>
    <path d="M 195.020759 313.389818 
L 197.131692 313.389818 
" clip-path="url(#p712023ac5b)" style="fill: none; stroke: #0000ff; stroke-width: 2"/>
    <path d="M 197.131692 313.389818 
L 199.242624 313.389818 
" clip-path="url(#p712023ac5b)" style="fill: none; stroke: #0000ff; stroke-width: 2"/>
    <path d="M 199.242624 313.389818 
L 201.353556 313.389818 
" clip-path="url(#p712023ac5b)" style="fill: none; stroke: #0000ff; stroke-width: 2"/>
    <path d="M 201.353556 313.389818 
L 203.464488 313.389818 
" clip-path="url(#p712023ac5b)" style="fill: none; stroke: #0000ff; stroke-width: 2"/>
    <path d="M 203.464488 313.389818 
L 205.57542 313.389818 
" clip-path="url(#p712023ac5b)" style="fill: none; stroke: #0000ff; stroke-width: 2"/>
    <path d="M 205.57542 313.389818 
L 207.686352 313.389818 
" clip-path="url(#p712023ac5b)" style="fill: none; stroke: #0000ff; stroke-width: 2"/>
    <path d="M 207.686352 313.389818 
L 209.797284 313.389818 
" clip-path="url(#p712023ac5b)" style="fill: none; stroke: #0000ff; stroke-width: 2"/>
   </g>
   <g id="patch_13">
    <path d="M 33.64 317.72 
L 33.64 198.64 
" style="fill: none; stroke: #000000; stroke-width: 0.8; stroke-linejoin: miter; stroke-linecap: square"/>
   </g>
   <g id="patch_14">
    <path d="M 217.08 317.72 
L 217.08 198.64 
" style="fill: none; stroke: #000000; stroke-width: 0.8; stroke-linejoin: miter; stroke-linecap: square"/>
   </g>
   <g id="patch_15">
    <path d="M 33.64 317.72 
L 217.08 317.72 
" style="fill: none; stroke: #000000; stroke-width: 0.8; stroke-linejoin: miter; stroke-linecap: square"/>
   </g>
   <g id="patch_16">
    <path d="M 33.64 198.64 
L 217.08 198.64 
" style="fill: none; stroke: #000000; stroke-width: 0.8; stroke-linejoin: miter; stroke-linecap: square"/>
   </g>
   <g id="text_36">
    <!-- Pressure -->
    <g transform="translate(99.746562 192.64)scale(0.12 -0.12)">
     <defs>
      <path id="DejaVuSans-50" d="M 1259 4147 
L 1259 2394 
L 2053 2394 
Q 2494 2394 2734 2622 
Q 2975 2850 2975 3272 
Q 2975 3691 2734 3919 
Q 2494 4147 2053 4147 
L 1259 4147 
z
M 628 4666 
L 2053 4666 
Q 2838 4666 3239 4311 
Q 3641 3956 3641 3272 
Q 3641 2581 3239 2228 
Q 2838 1875 2053 1875 
L 1259 1875 
L 1259 0 
L 628 0 
L 628 4666 
z
" transform="scale(0.015625)"/>
      <path id="DejaVuSans-75" d="M 544 1381 
L 544 3500 
L 1119 3500 
L 1119 1403 
Q 1119 906 1312 657 
Q 1506 409 1894 409 
Q 2359 409 2629 706 
Q 2900 1003 2900 1516 
L 2900 3500 
L 3475 3500 
L 3475 0 
L 2900 0 
L 2900 538 
Q 2691 219 2414 64 
Q 2138 -91 1772 -91 
Q 1169 -91 856 284 
Q 544 659 544 1381 
z
M 1991 3584 
L 1991 3584 
z
" transform="scale(0.015625)"/>
     </defs>
     <use xlink:href="#DejaVuSans-50"/>
     <use xlink:href="#DejaVuSans-72" x="58.552734"/>
     <use xlink:href="#DejaVuSans-65" x="97.416016"/>
     <use xlink:href="#DejaVuSans-73" x="158.939453"/>
     <use xlink:href="#DejaVuSans-73" x="211.039062"/>
     <use xlink:href="#DejaVuSans-75" x="263.138672"/>
     <use xlink:href="#DejaVuSans-72" x="326.517578"/>
     <use xlink:href="#DejaVuSans-65" x="365.380859"/>
    </g>
   </g>
  </g>
  <g id="axes_4">
   <g id="patch_17">
    <path d="M 258.64 317.72 
L 442.08 317.72 
L 442.08 198.64 
L 258.64 198.64 
z
" style="fill: #ffffff"/>
   </g>
   <g id="matplotlib.axis_7">
    <g id="xtick_19">
     <g id="line2d_40">
      <g>
       <use xlink:href="#mb320080fed" x="265.922716" y="317.72" style="stroke: #000000; stroke-width: 0.8"/>
      </g>
     </g>
     <g id="text_37">
      <!-- 0.0 -->
      <g transform="translate(257.971153 332.318437)scale(0.1 -0.1)">
       <use xlink:href="#DejaVuSans-30"/>
       <use xlink:href="#DejaVuSans-2e" x="63.623047"/>
       <use xlink:href="#DejaVuSans-30" x="95.410156"/>
      </g>
     </g>
    </g>
    <g id="xtick_20">
     <g id="line2d_41">
      <g>
       <use xlink:href="#mb320080fed" x="299.697629" y="317.72" style="stroke: #000000; stroke-width: 0.8"/>
      </g>
     </g>
     <g id="text_38">
      <!-- 0.2 -->
      <g transform="translate(291.746067 332.318437)scale(0.1 -0.1)">
       <use xlink:href="#DejaVuSans-30"/>
       <use xlink:href="#DejaVuSans-2e" x="63.623047"/>
       <use xlink:href="#DejaVuSans-32" x="95.410156"/>
      </g>
     </g>
    </g>
    <g id="xtick_21">
     <g id="line2d_42">
      <g>
       <use xlink:href="#mb320080fed" x="333.472543" y="317.72" style="stroke: #000000; stroke-width: 0.8"/>
      </g>
     </g>
     <g id="text_39">
      <!-- 0.4 -->
      <g transform="translate(325.520981 332.318437)scale(0.1 -0.1)">
       <use xlink:href="#DejaVuSans-30"/>
       <use xlink:href="#DejaVuSans-2e" x="63.623047"/>
       <use xlink:href="#DejaVuSans-34" x="95.410156"/>
      </g>
     </g>
    </g>
    <g id="xtick_22">
     <g id="line2d_43">
      <g>
       <use xlink:href="#mb320080fed" x="367.247457" y="317.72" style="stroke: #000000; stroke-width: 0.8"/>
      </g>
     </g>
     <g id="text_40">
      <!-- 0.6 -->
      <g transform="translate(359.295894 332.318437)scale(0.1 -0.1)">
       <use xlink:href="#DejaVuSans-30"/>
       <use xlink:href="#DejaVuSans-2e" x="63.623047"/>
       <use xlink:href="#DejaVuSans-36" x="95.410156"/>
      </g>
     </g>
    </g>
    <g id="xtick_23">
     <g id="line2d_44">
      <g>
       <use xlink:href="#mb320080fed" x="401.022371" y="317.72" style="stroke: #000000; stroke-width: 0.8"/>
      </g>
     </g>
     <g id="text_41">
      <!-- 0.8 -->
      <g transform="translate(393.070808 332.318437)scale(0.1 -0.1)">
       <use xlink:href="#DejaVuSans-30"/>
       <use xlink:href="#DejaVuSans-2e" x="63.623047"/>
       <use xlink:href="#DejaVuSans-38" x="95.410156"/>
      </g>
     </g>
    </g>
    <g id="xtick_24">
     <g id="line2d_45">
      <g>
       <use xlink:href="#mb320080fed" x="434.797284" y="317.72" style="stroke: #000000; stroke-width: 0.8"/>
      </g>
     </g>
     <g id="text_42">
      <!-- 1.0 -->
      <g transform="translate(426.845722 332.318437)scale(0.1 -0.1)">
       <use xlink:href="#DejaVuSans-31"/>
       <use xlink:href="#DejaVuSans-2e" x="63.623047"/>
       <use xlink:href="#DejaVuSans-30" x="95.410156"/>
      </g>
     </g>
    </g>
   </g>
   <g id="matplotlib.axis_8">
    <g id="ytick_16">
     <g id="line2d_46">
      <g>
       <use xlink:href="#m16322d18f1" x="258.64" y="312.307273" style="stroke: #000000; stroke-width: 0.8"/>
      </g>
     </g>
     <g id="text_43">
      <!-- 0.00 -->
      <g transform="translate(229.374375 316.106491)scale(0.1 -0.1)">
       <use xlink:href="#DejaVuSans-30"/>
       <use xlink:href="#DejaVuSans-2e" x="63.623047"/>
       <use xlink:href="#DejaVuSans-30" x="95.410156"/>
       <use xlink:href="#DejaVuSans-30" x="159.033203"/>
      </g>
     </g>
    </g>
    <g id="ytick_17">
     <g id="line2d_47">
      <g>
       <use xlink:href="#m16322d18f1" x="258.64" y="283.340785" style="stroke: #000000; stroke-width: 0.8"/>
      </g>
     </g>
     <g id="text_44">
      <!-- 0.25 -->
      <g transform="translate(229.374375 287.140004)scale(0.1 -0.1)">
       <use xlink:href="#DejaVuSans-30"/>
       <use xlink:href="#DejaVuSans-2e" x="63.623047"/>
       <use xlink:href="#DejaVuSans-32" x="95.410156"/>
       <use xlink:href="#DejaVuSans-35" x="159.033203"/>
      </g>
     </g>
    </g>
    <g id="ytick_18">
     <g id="line2d_48">
      <g>
       <use xlink:href="#m16322d18f1" x="258.64" y="254.374298" style="stroke: #000000; stroke-width: 0.8"/>
      </g>
     </g>
     <g id="text_45">
      <!-- 0.50 -->
      <g transform="translate(229.374375 258.173516)scale(0.1 -0.1)">
       <use xlink:href="#DejaVuSans-30"/>
       <use xlink:href="#DejaVuSans-2e" x="63.623047"/>
       <use xlink:href="#DejaVuSans-35" x="95.410156"/>
       <use xlink:href="#DejaVuSans-30" x="159.033203"/>
      </g>
     </g>
    </g>
    <g id="ytick_19">
     <g id="line2d_49">
      <g>
       <use xlink:href="#m16322d18f1" x="258.64" y="225.40781" style="stroke: #000000; stroke-width: 0.8"/>
      </g>
     </g>
     <g id="text_46">
      <!-- 0.75 -->
      <g transform="translate(229.374375 229.207029)scale(0.1 -0.1)">
       <use xlink:href="#DejaVuSans-30"/>
       <use xlink:href="#DejaVuSans-2e" x="63.623047"/>
       <use xlink:href="#DejaVuSans-37" x="95.410156"/>
       <use xlink:href="#DejaVuSans-35" x="159.033203"/>
      </g>
     </g>
    </g>
   </g>
   <g id="line2d_50">
    <path d="M 266.978182 312.307273 
L 269.089114 312.307273 
L 271.200046 312.307273 
L 273.310978 312.307273 
L 275.42191 312.307273 
L 277.532842 312.307273 
L 279.643774 312.307273 
L 281.754707 312.307273 
L 283.865639 312.307273 
L 285.976571 312.307273 
L 288.087503 312.307273 
L 290.198435 312.307273 
L 292.309367 312.307273 
L 294.420299 312.307273 
L 296.531231 312.30727 
L 298.642164 312.307184 
L 300.753118 312.304522 
L 302.864484 312.254609 
L 304.979224 311.882684 
L 307.107379 310.628067 
L 309.267621 308.075367 
L 311.482581 304.217223 
L 313.773788 299.300851 
L 316.160424 293.592828 
L 318.66027 287.268559 
L 321.29135 280.41165 
L 324.073448 273.051981 
L 327.029233 265.195674 
L 330.185373 256.827011 
L 333.573408 247.949752 
L 337.228846 238.655129 
L 341.184704 229.254492 
L 345.456933 220.367397 
L 350.02272 212.937106 
L 354.802427 207.93833 
L 359.671073 205.530678 
L 364.487667 204.719525 
L 369.100267 204.771944 
L 373.32397 204.749077 
L 376.95782 204.606591 
L 379.869382 204.452794 
L 382.067362 204.523839 
L 383.697011 204.560473 
L 384.965609 204.400996 
L 386.053596 204.195005 
L 387.071277 204.153675 
L 388.068804 204.241536 
L 389.063083 204.500031 
L 390.057632 204.736061 
L 391.052837 204.883361 
L 392.049527 204.855987 
L 393.048575 204.680012 
L 394.049566 204.543648 
L 395.0527 204.60903 
L 396.057731 204.833912 
L 397.060005 205.237826 
L 398.05887 205.465324 
L 399.061132 205.510832 
L 400.063887 205.343795 
L 401.060693 205.004891 
L 402.064568 204.679148 
L 403.076283 204.464666 
L 404.067526 204.533615 
L 405.052559 204.500164 
L 406.069837 204.102647 
L 407.056147 204.052727 
L 408.004652 206.055891 
L 409.117524 230.19603 
L 410.672295 285.31077 
L 412.641592 311.084442 
L 414.743517 312.297225 
L 416.854362 312.30719 
L 418.965293 312.307272 
L 421.076226 312.307273 
L 423.187158 312.307273 
L 425.29809 312.307273 
L 427.409022 312.307273 
L 429.519954 312.307273 
L 431.630886 312.307273 
L 433.741818 312.307273 
" clip-path="url(#p14b70557b7)" style="fill: none; stroke: #008000; stroke-width: 1.5; stroke-linecap: square"/>
   </g>
   <g id="line2d_51">
    <path d="M 381.431968 317.72 
L 381.431968 198.64 
" clip-path="url(#p14b70557b7)" style="fill: none; stroke: #1f77b4; stroke-width: 1.5; stroke-linecap: square"/>
   </g>
   <g id="LineCollection_4">
    <path d="M 265.922716 312.307273 
L 268.033648 312.307273 
" clip-path="url(#p14b70557b7)" style="fill: none; stroke: #0000ff; stroke-width: 2"/>
    <path d="M 268.033648 312.307273 
L 270.14458 312.307273 
" clip-path="url(#p14b70557b7)" style="fill: none; stroke: #0000ff; stroke-width: 2"/>
    <path d="M 270.14458 312.307273 
L 272.255512 312.307273 
" clip-path="url(#p14b70557b7)" style="fill: none; stroke: #0000ff; stroke-width: 2"/>
    <path d="M 272.255512 312.307273 
L 274.366444 312.307273 
" clip-path="url(#p14b70557b7)" style="fill: none; stroke: #0000ff; stroke-width: 2"/>
    <path d="M 274.366444 312.307273 
L 276.477376 312.307273 
" clip-path="url(#p14b70557b7)" style="fill: none; stroke: #0000ff; stroke-width: 2"/>
    <path d="M 276.477376 312.307273 
L 278.588308 312.307273 
" clip-path="url(#p14b70557b7)" style="fill: none; stroke: #0000ff; stroke-width: 2"/>
    <path d="M 278.588308 312.307273 
L 280.699241 312.307273 
" clip-path="url(#p14b70557b7)" style="fill: none; stroke: #0000ff; stroke-width: 2"/>
    <path d="M 280.699241 312.307273 
L 282.810173 312.307273 
" clip-path="url(#p14b70557b7)" style="fill: none; stroke: #0000ff; stroke-width: 2"/>
    <path d="M 282.810173 312.307273 
L 284.921105 312.307273 
" clip-path="url(#p14b70557b7)" style="fill: none; stroke: #0000ff; stroke-width: 2"/>
    <path d="M 284.921105 312.307273 
L 287.032037 312.307273 
" clip-path="url(#p14b70557b7)" style="fill: none; stroke: #0000ff; stroke-width: 2"/>
    <path d="M 287.032037 312.307273 
L 289.142969 312.307273 
" clip-path="url(#p14b70557b7)" style="fill: none; stroke: #0000ff; stroke-width: 2"/>
    <path d="M 289.142969 312.307273 
L 291.253901 312.307273 
" clip-path="url(#p14b70557b7)" style="fill: none; stroke: #0000ff; stroke-width: 2"/>
    <path d="M 291.253901 312.307273 
L 293.364833 312.307273 
" clip-path="url(#p14b70557b7)" style="fill: none; stroke: #0000ff; stroke-width: 2"/>
    <path d="M 293.364833 312.307273 
L 295.475765 312.307273 
" clip-path="url(#p14b70557b7)" style="fill: none; stroke: #0000ff; stroke-width: 2"/>
    <path d="M 295.475765 312.307273 
L 297.586697 312.307273 
" clip-path="url(#p14b70557b7)" style="fill: none; stroke: #0000ff; stroke-width: 2"/>
    <path d="M 297.586697 312.307273 
L 299.697631 312.307273 
" clip-path="url(#p14b70557b7)" style="fill: none; stroke: #0000ff; stroke-width: 2"/>
    <path d="M 299.697631 312.307273 
L 301.808606 312.307273 
" clip-path="url(#p14b70557b7)" style="fill: none; stroke: #0000ff; stroke-width: 2"/>
    <path d="M 301.808606 312.307273 
L 303.920363 312.307273 
" clip-path="url(#p14b70557b7)" style="fill: none; stroke: #0000ff; stroke-width: 2"/>
    <path d="M 303.920363 312.307273 
L 306.038086 312.307273 
" clip-path="url(#p14b70557b7)" style="fill: none; stroke: #0000ff; stroke-width: 2"/>
    <path d="M 306.038086 312.307273 
L 308.176671 312.307273 
" clip-path="url(#p14b70557b7)" style="fill: none; stroke: #0000ff; stroke-width: 2"/>
    <path d="M 308.176671 312.307273 
L 310.35857 312.307273 
" clip-path="url(#p14b70557b7)" style="fill: none; stroke: #0000ff; stroke-width: 2"/>
    <path d="M 310.35857 312.307273 
L 312.606591 312.307273 
" clip-path="url(#p14b70557b7)" style="fill: none; stroke: #0000ff; stroke-width: 2"/>
    <path d="M 312.606591 312.307273 
L 314.940985 312.307273 
" clip-path="url(#p14b70557b7)" style="fill: none; stroke: #0000ff; stroke-width: 2"/>
    <path d="M 314.940985 312.307273 
L 317.379863 312.307273 
" clip-path="url(#p14b70557b7)" style="fill: none; stroke: #0000ff; stroke-width: 2"/>
    <path d="M 317.379863 312.307273 
L 319.940678 312.307273 
" clip-path="url(#p14b70557b7)" style="fill: none; stroke: #0000ff; stroke-width: 2"/>
    <path d="M 319.940678 312.307273 
L 322.642022 312.307273 
" clip-path="url(#p14b70557b7)" style="fill: none; stroke: #0000ff; stroke-width: 2"/>
    <path d="M 322.642022 312.307273 
L 325.504875 312.307273 
" clip-path="url(#p14b70557b7)" style="fill: none; stroke: #0000ff; stroke-width: 2"/>
    <path d="M 325.504875 312.307273 
L 328.553592 312.307273 
" clip-path="url(#p14b70557b7)" style="fill: none; stroke: #0000ff; stroke-width: 2"/>
    <path d="M 328.553592 312.307273 
L 331.817153 312.307273 
" clip-path="url(#p14b70557b7)" style="fill: none; stroke: #0000ff; stroke-width: 2"/>
    <path d="M 331.817153 312.307273 
L 335.329664 312.307273 
" clip-path="url(#p14b70557b7)" style="fill: none; stroke: #0000ff; stroke-width: 2"/>
    <path d="M 335.329664 312.307273 
L 339.128028 312.307273 
" clip-path="url(#p14b70557b7)" style="fill: none; stroke: #0000ff; stroke-width: 2"/>
    <path d="M 339.128028 312.307273 
L 343.241381 312.307273 
" clip-path="url(#p14b70557b7)" style="fill: none; stroke: #0000ff; stroke-width: 2"/>
    <path d="M 343.241381 312.307273 
L 347.672485 312.307273 
" clip-path="url(#p14b70557b7)" style="fill: none; stroke: #0000ff; stroke-width: 2"/>
    <path d="M 347.672485 312.307273 
L 352.372954 312.307273 
" clip-path="url(#p14b70557b7)" style="fill: none; stroke: #0000ff; stroke-width: 2"/>
    <path d="M 352.372954 312.307273 
L 357.231899 312.307273 
" clip-path="url(#p14b70557b7)" style="fill: none; stroke: #0000ff; stroke-width: 2"/>
    <path d="M 357.231899 312.307273 
L 362.110246 312.307273 
" clip-path="url(#p14b70557b7)" style="fill: none; stroke: #0000ff; stroke-width: 2"/>
    <path d="M 362.110246 312.307273 
L 366.865088 312.307273 
" clip-path="url(#p14b70557b7)" style="fill: none; stroke: #0000ff; stroke-width: 2"/>
    <path d="M 366.865088 312.307273 
L 371.335447 312.307273 
" clip-path="url(#p14b70557b7)" style="fill: none; stroke: #0000ff; stroke-width: 2"/>
    <path d="M 371.335447 312.307273 
L 375.312492 312.307273 
" clip-path="url(#p14b70557b7)" style="fill: none; stroke: #0000ff; stroke-width: 2"/>
    <path d="M 375.312492 312.307273 
L 378.603147 312.307273 
" clip-path="url(#p14b70557b7)" style="fill: none; stroke: #00ff00; stroke-width: 2"/>
    <path d="M 378.603147 312.307273 
L 381.135616 312.307273 
" clip-path="url(#p14b70557b7)" style="fill: none; stroke: #00ff00; stroke-width: 2"/>
    <path d="M 381.135616 312.307273 
L 382.999109 312.307273 
" clip-path="url(#p14b70557b7)" style="fill: none; stroke: #ff8080; stroke-width: 2"/>
    <path d="M 382.999109 312.307273 
L 384.394914 312.307273 
" clip-path="url(#p14b70557b7)" style="fill: none; stroke: #00ff00; stroke-width: 2"/>
    <path d="M 384.394914 312.307273 
L 385.536305 312.307273 
" clip-path="url(#p14b70557b7)" style="fill: none; stroke: #00ff00; stroke-width: 2"/>
    <path d="M 385.536305 312.307273 
L 386.570887 312.307273 
" clip-path="url(#p14b70557b7)" style="fill: none; stroke: #0000ff; stroke-width: 2"/>
    <path d="M 386.570887 312.307273 
L 387.571666 312.307273 
" clip-path="url(#p14b70557b7)" style="fill: none; stroke: #0000ff; stroke-width: 2"/>
    <path d="M 387.571666 312.307273 
L 388.565942 312.307273 
" clip-path="url(#p14b70557b7)" style="fill: none; stroke: #0000ff; stroke-width: 2"/>
    <path d="M 388.565942 312.307273 
L 389.560225 312.307273 
" clip-path="url(#p14b70557b7)" style="fill: none; stroke: #0000ff; stroke-width: 2"/>
    <path d="M 389.560225 312.307273 
L 390.555039 312.307273 
" clip-path="url(#p14b70557b7)" style="fill: none; stroke: #0000ff; stroke-width: 2"/>
    <path d="M 390.555039 312.307273 
L 391.550635 312.307273 
" clip-path="url(#p14b70557b7)" style="fill: none; stroke: #0000ff; stroke-width: 2"/>
    <path d="M 391.550635 312.307273 
L 392.54842 312.307273 
" clip-path="url(#p14b70557b7)" style="fill: none; stroke: #0000ff; stroke-width: 2"/>
    <path d="M 392.54842 312.307273 
L 393.54873 312.307273 
" clip-path="url(#p14b70557b7)" style="fill: none; stroke: #0000ff; stroke-width: 2"/>
    <path d="M 393.54873 312.307273 
L 394.550401 312.307273 
" clip-path="url(#p14b70557b7)" style="fill: none; stroke: #0000ff; stroke-width: 2"/>
    <path d="M 394.550401 312.307273 
L 395.555 312.307273 
" clip-path="url(#p14b70557b7)" style="fill: none; stroke: #0000ff; stroke-width: 2"/>
    <path d="M 395.555 312.307273 
L 396.560463 312.307273 
" clip-path="url(#p14b70557b7)" style="fill: none; stroke: #0000ff; stroke-width: 2"/>
    <path d="M 396.560463 312.307273 
L 397.559548 312.307273 
" clip-path="url(#p14b70557b7)" style="fill: none; stroke: #0000ff; stroke-width: 2"/>
    <path d="M 397.559548 312.307273 
L 398.558192 312.307273 
" clip-path="url(#p14b70557b7)" style="fill: none; stroke: #0000ff; stroke-width: 2"/>
    <path d="M 398.558192 312.307273 
L 399.564071 312.307273 
" clip-path="url(#p14b70557b7)" style="fill: none; stroke: #0000ff; stroke-width: 2"/>
    <path d="M 399.564071 312.307273 
L 400.563702 312.307273 
" clip-path="url(#p14b70557b7)" style="fill: none; stroke: #0000ff; stroke-width: 2"/>
    <path d="M 400.563702 312.307273 
L 401.557684 312.307273 
" clip-path="url(#p14b70557b7)" style="fill: none; stroke: #0000ff; stroke-width: 2"/>
    <path d="M 401.557684 312.307273 
L 402.571451 312.307273 
" clip-path="url(#p14b70557b7)" style="fill: none; stroke: #0000ff; stroke-width: 2"/>
    <path d="M 402.571451 312.307273 
L 403.581115 312.307273 
" clip-path="url(#p14b70557b7)" style="fill: none; stroke: #0000ff; stroke-width: 2"/>
    <path d="M 403.581115 312.307273 
L 404.553938 312.307273 
" clip-path="url(#p14b70557b7)" style="fill: none; stroke: #0000ff; stroke-width: 2"/>
    <path d="M 404.553938 312.307273 
L 405.55118 312.307273 
" clip-path="url(#p14b70557b7)" style="fill: none; stroke: #0000ff; stroke-width: 2"/>
    <path d="M 405.55118 312.307273 
L 406.588493 312.307273 
" clip-path="url(#p14b70557b7)" style="fill: none; stroke: #0000ff; stroke-width: 2"/>
    <path d="M 406.588493 312.307273 
L 407.523801 312.307273 
" clip-path="url(#p14b70557b7)" style="fill: none; stroke: #0000ff; stroke-width: 2"/>
    <path d="M 407.523801 312.307273 
L 408.485503 312.307273 
" clip-path="url(#p14b70557b7)" style="fill: none; stroke: #0000ff; stroke-width: 2"/>
    <path d="M 408.485503 312.307273 
L 409.749545 312.307273 
" clip-path="url(#p14b70557b7)" style="fill: none; stroke: #0000ff; stroke-width: 2"/>
    <path d="M 409.749545 312.307273 
L 411.595046 312.307273 
" clip-path="url(#p14b70557b7)" style="fill: none; stroke: #0000ff; stroke-width: 2"/>
    <path d="M 411.595046 312.307273 
L 413.688137 312.307273 
" clip-path="url(#p14b70557b7)" style="fill: none; stroke: #0000ff; stroke-width: 2"/>
    <path d="M 413.688137 312.307273 
L 415.798897 312.307273 
" clip-path="url(#p14b70557b7)" style="fill: none; stroke: #0000ff; stroke-width: 2"/>
    <path d="M 415.798897 312.307273 
L 417.909827 312.307273 
" clip-path="url(#p14b70557b7)" style="fill: none; stroke: #0000ff; stroke-width: 2"/>
    <path d="M 417.909827 312.307273 
L 420.020759 312.307273 
" clip-path="url(#p14b70557b7)" style="fill: none; stroke: #0000ff; stroke-width: 2"/>
    <path d="M 420.020759 312.307273 
L 422.131692 312.307273 
" clip-path="url(#p14b70557b7)" style="fill: none; stroke: #0000ff; stroke-width: 2"/>
    <path d="M 422.131692 312.307273 
L 424.242624 312.307273 
" clip-path="url(#p14b70557b7)" style="fill: none; stroke: #0000ff; stroke-width: 2"/>
    <path d="M 424.242624 312.307273 
L 426.353556 312.307273 
" clip-path="url(#p14b70557b7)" style="fill: none; stroke: #0000ff; stroke-width: 2"/>
    <path d="M 426.353556 312.307273 
L 428.464488 312.307273 
" clip-path="url(#p14b70557b7)" style="fill: none; stroke: #0000ff; stroke-width: 2"/>
    <path d="M 428.464488 312.307273 
L 430.57542 312.307273 
" clip-path="url(#p14b70557b7)" style="fill: none; stroke: #0000ff; stroke-width: 2"/>
    <path d="M 430.57542 312.307273 
L 432.686352 312.307273 
" clip-path="url(#p14b70557b7)" style="fill: none; stroke: #0000ff; stroke-width: 2"/>
    <path d="M 432.686352 312.307273 
L 434.797284 312.307273 
" clip-path="url(#p14b70557b7)" style="fill: none; stroke: #0000ff; stroke-width: 2"/>
   </g>
   <g id="patch_18">
    <path d="M 258.64 317.72 
L 258.64 198.64 
" style="fill: none; stroke: #000000; stroke-width: 0.8; stroke-linejoin: miter; stroke-linecap: square"/>
   </g>
   <g id="patch_19">
    <path d="M 442.08 317.72 
L 442.08 198.64 
" style="fill: none; stroke: #000000; stroke-width: 0.8; stroke-linejoin: miter; stroke-linecap: square"/>
   </g>
   <g id="patch_20">
    <path d="M 258.64 317.72 
L 442.08 317.72 
" style="fill: none; stroke: #000000; stroke-width: 0.8; stroke-linejoin: miter; stroke-linecap: square"/>
   </g>
   <g id="patch_21">
    <path d="M 258.64 198.64 
L 442.08 198.64 
" style="fill: none; stroke: #000000; stroke-width: 0.8; stroke-linejoin: miter; stroke-linecap: square"/>
   </g>
   <g id="text_47">
    <!-- Velocity -->
    <g transform="translate(326.82125 192.64)scale(0.12 -0.12)">
     <defs>
      <path id="DejaVuSans-56" d="M 1831 0 
L 50 4666 
L 709 4666 
L 2188 738 
L 3669 4666 
L 4325 4666 
L 2547 0 
L 1831 0 
z
" transform="scale(0.015625)"/>
      <path id="DejaVuSans-6f" d="M 1959 3097 
Q 1497 3097 1228 2736 
Q 959 2375 959 1747 
Q 959 1119 1226 758 
Q 1494 397 1959 397 
Q 2419 397 2687 759 
Q 2956 1122 2956 1747 
Q 2956 2369 2687 2733 
Q 2419 3097 1959 3097 
z
M 1959 3584 
Q 2709 3584 3137 3096 
Q 3566 2609 3566 1747 
Q 3566 888 3137 398 
Q 2709 -91 1959 -91 
Q 1206 -91 779 398 
Q 353 888 353 1747 
Q 353 2609 779 3096 
Q 1206 3584 1959 3584 
z
" transform="scale(0.015625)"/>
      <path id="DejaVuSans-63" d="M 3122 3366 
L 3122 2828 
Q 2878 2963 2633 3030 
Q 2388 3097 2138 3097 
Q 1578 3097 1268 2742 
Q 959 2388 959 1747 
Q 959 1106 1268 751 
Q 1578 397 2138 397 
Q 2388 397 2633 464 
Q 2878 531 3122 666 
L 3122 134 
Q 2881 22 2623 -34 
Q 2366 -91 2075 -91 
Q 1284 -91 818 406 
Q 353 903 353 1747 
Q 353 2603 823 3093 
Q 1294 3584 2113 3584 
Q 2378 3584 2631 3529 
Q 2884 3475 3122 3366 
z
" transform="scale(0.015625)"/>
     </defs>
     <use xlink:href="#DejaVuSans-56"/>
     <use xlink:href="#DejaVuSans-65" x="60.658203"/>
     <use xlink:href="#DejaVuSans-6c" x="122.181641"/>
     <use xlink:href="#DejaVuSans-6f" x="149.964844"/>
     <use xlink:href="#DejaVuSans-63" x="211.146484"/>
     <use xlink:href="#DejaVuSans-69" x="266.126953"/>
     <use xlink:href="#DejaVuSans-74" x="293.910156"/>
     <use xlink:href="#DejaVuSans-79" x="333.119141"/>
    </g>
   </g>
  </g>
  <g id="text_48">
   <!-- Elapsed time = 0.2 -->
   <g transform="translate(172.98375 16.030125)scale(0.12 -0.12)">
    <defs>
     <path id="DejaVuSans-45" d="M 628 4666 
L 3578 4666 
L 3578 4134 
L 1259 4134 
L 1259 2753 
L 3481 2753 
L 3481 2222 
L 1259 2222 
L 1259 531 
L 3634 531 
L 3634 0 
L 628 0 
L 628 4666 
z
" transform="scale(0.015625)"/>
     <path id="DejaVuSans-70" d="M 1159 525 
L 1159 -1331 
L 581 -1331 
L 581 3500 
L 1159 3500 
L 1159 2969 
Q 1341 3281 1617 3432 
Q 1894 3584 2278 3584 
Q 2916 3584 3314 3078 
Q 3713 2572 3713 1747 
Q 3713 922 3314 415 
Q 2916 -91 2278 -91 
Q 1894 -91 1617 61 
Q 1341 213 1159 525 
z
M 3116 1747 
Q 3116 2381 2855 2742 
Q 2594 3103 2138 3103 
Q 1681 3103 1420 2742 
Q 1159 2381 1159 1747 
Q 1159 1113 1420 752 
Q 1681 391 2138 391 
Q 2594 391 2855 752 
Q 3116 1113 3116 1747 
z
" transform="scale(0.015625)"/>
     <path id="DejaVuSans-64" d="M 2906 2969 
L 2906 4863 
L 3481 4863 
L 3481 0 
L 2906 0 
L 2906 525 
Q 2725 213 2448 61 
Q 2172 -91 1784 -91 
Q 1150 -91 751 415 
Q 353 922 353 1747 
Q 353 2572 751 3078 
Q 1150 3584 1784 3584 
Q 2172 3584 2448 3432 
Q 2725 3281 2906 2969 
z
M 947 1747 
Q 947 1113 1208 752 
Q 1469 391 1925 391 
Q 2381 391 2643 752 
Q 2906 1113 2906 1747 
Q 2906 2381 2643 2742 
Q 2381 3103 1925 3103 
Q 1469 3103 1208 2742 
Q 947 2381 947 1747 
z
" transform="scale(0.015625)"/>
     <path id="DejaVuSans-6d" d="M 3328 2828 
Q 3544 3216 3844 3400 
Q 4144 3584 4550 3584 
Q 5097 3584 5394 3201 
Q 5691 2819 5691 2113 
L 5691 0 
L 5113 0 
L 5113 2094 
Q 5113 2597 4934 2840 
Q 4756 3084 4391 3084 
Q 3944 3084 3684 2787 
Q 3425 2491 3425 1978 
L 3425 0 
L 2847 0 
L 2847 2094 
Q 2847 2600 2669 2842 
Q 2491 3084 2119 3084 
Q 1678 3084 1418 2786 
Q 1159 2488 1159 1978 
L 1159 0 
L 581 0 
L 581 3500 
L 1159 3500 
L 1159 2956 
Q 1356 3278 1631 3431 
Q 1906 3584 2284 3584 
Q 2666 3584 2933 3390 
Q 3200 3197 3328 2828 
z
" transform="scale(0.015625)"/>
     <path id="DejaVuSans-3d" d="M 678 2906 
L 4684 2906 
L 4684 2381 
L 678 2381 
L 678 2906 
z
M 678 1631 
L 4684 1631 
L 4684 1100 
L 678 1100 
L 678 1631 
z
" transform="scale(0.015625)"/>
    </defs>
    <use xlink:href="#DejaVuSans-45"/>
    <use xlink:href="#DejaVuSans-6c" x="63.183594"/>
    <use xlink:href="#DejaVuSans-61" x="90.966797"/>
    <use xlink:href="#DejaVuSans-70" x="152.246094"/>
    <use xlink:href="#DejaVuSans-73" x="215.722656"/>
    <use xlink:href="#DejaVuSans-65" x="267.822266"/>
    <use xlink:href="#DejaVuSans-64" x="329.345703"/>
    <use xlink:href="#DejaVuSans-20" x="392.822266"/>
    <use xlink:href="#DejaVuSans-74" x="424.609375"/>
    <use xlink:href="#DejaVuSans-69" x="463.818359"/>
    <use xlink:href="#DejaVuSans-6d" x="491.601562"/>
    <use xlink:href="#DejaVuSans-65" x="589.013672"/>
    <use xlink:href="#DejaVuSans-20" x="650.537109"/>
    <use xlink:href="#DejaVuSans-3d" x="682.324219"/>
    <use xlink:href="#DejaVuSans-20" x="766.113281"/>
    <use xlink:href="#DejaVuSans-30" x="797.900391"/>
    <use xlink:href="#DejaVuSans-2e" x="861.523438"/>
    <use xlink:href="#DejaVuSans-32" x="893.310547"/>
   </g>
  </g>
 </g>
 <defs>
  <clipPath id="p190dff066e">
   <rect x="33.64" y="38.52" width="183.44" height="119.08"/>
  </clipPath>
  <clipPath id="p5080e13c9e">
   <rect x="258.64" y="38.52" width="183.44" height="119.08"/>
  </clipPath>
  <clipPath id="p712023ac5b">
   <rect x="33.64" y="198.64" width="183.44" height="119.08"/>
  </clipPath>
  <clipPath id="p14b70557b7">
   <rect x="258.64" y="198.64" width="183.44" height="119.08"/>
  </clipPath>
 </defs>
</svg>
