<?xml version="1.0" encoding="utf-8" standalone="no"?>
<!DOCTYPE svg PUBLIC "-//W3C//DTD SVG 1.1//EN"
  "http://www.w3.org/Graphics/SVG/1.1/DTD/svg11.dtd">
<svg xmlns:xlink="http://www.w3.org/1999/xlink" width="460.8pt" height="345.6pt" viewBox="0 0 460.8 345.6" xmlns="http://www.w3.org/2000/svg" version="1.1">
 <metadata>
  <rdf:RDF xmlns:dc="http://purl.org/dc/elements/1.1/" xmlns:cc="http://creativecommons.org/ns#" xmlns:rdf="http://www.w3.org/1999/02/22-rdf-syntax-ns#">
   <cc:Work>
    <dc:type rdf:resource="http://purl.org/dc/dcmitype/StillImage"/>
    <dc:date>2023-08-02T12:45:19.688919</dc:date>
    <dc:format>image/svg+xml</dc:format>
    <dc:creator>
     <cc:Agent>
      <dc:title>Matplotlib v3.5.1, https://matplotlib.org/</dc:title>
     </cc:Agent>
    </dc:creator>
   </cc:Work>
  </rdf:RDF>
 </metadata>
 <defs>
  <style type="text/css">*{stroke-linejoin: round; stroke-linecap: butt}</style>
 </defs>
 <g id="figure_1">
  <g id="patch_1">
   <path d="M 0 345.6 
L 460.8 345.6 
L 460.8 0 
L 0 0 
z
" style="fill: #ffffff"/>
  </g>
  <g id="axes_1">
   <g id="patch_2">
    <path d="M 33.64 157.6 
L 217.08 157.6 
L 217.08 38.52 
L 33.64 38.52 
z
" style="fill: #ffffff"/>
   </g>
   <g id="matplotlib.axis_1">
    <g id="xtick_1">
     <g id="line2d_1">
      <defs>
       <path id="mfad4e4ab84" d="M 0 0 
L 0 3.5 
" style="stroke: #000000; stroke-width: 0.8"/>
      </defs>
      <g>
       <use xlink:href="#mfad4e4ab84" x="37.589664" y="157.6" style="stroke: #000000; stroke-width: 0.8"/>
      </g>
     </g>
     <g id="text_1">
      <!-- 0.0 -->
      <g transform="translate(29.638102 172.198437)scale(0.1 -0.1)">
       <defs>
        <path id="DejaVuSans-30" d="M 2034 4250 
Q 1547 4250 1301 3770 
Q 1056 3291 1056 2328 
Q 1056 1369 1301 889 
Q 1547 409 2034 409 
Q 2525 409 2770 889 
Q 3016 1369 3016 2328 
Q 3016 3291 2770 3770 
Q 2525 4250 2034 4250 
z
M 2034 4750 
Q 2819 4750 3233 4129 
Q 3647 3509 3647 2328 
Q 3647 1150 3233 529 
Q 2819 -91 2034 -91 
Q 1250 -91 836 529 
Q 422 1150 422 2328 
Q 422 3509 836 4129 
Q 1250 4750 2034 4750 
z
" transform="scale(0.015625)"/>
        <path id="DejaVuSans-2e" d="M 684 794 
L 1344 794 
L 1344 0 
L 684 0 
L 684 794 
z
" transform="scale(0.015625)"/>
       </defs>
       <use xlink:href="#DejaVuSans-30"/>
       <use xlink:href="#DejaVuSans-2e" x="63.623047"/>
       <use xlink:href="#DejaVuSans-30" x="95.410156"/>
      </g>
     </g>
    </g>
    <g id="xtick_2">
     <g id="line2d_2">
      <g>
       <use xlink:href="#mfad4e4ab84" x="72.697783" y="157.6" style="stroke: #000000; stroke-width: 0.8"/>
      </g>
     </g>
     <g id="text_2">
      <!-- 0.2 -->
      <g transform="translate(64.74622 172.198437)scale(0.1 -0.1)">
       <defs>
        <path id="DejaVuSans-32" d="M 1228 531 
L 3431 531 
L 3431 0 
L 469 0 
L 469 531 
Q 828 903 1448 1529 
Q 2069 2156 2228 2338 
Q 2531 2678 2651 2914 
Q 2772 3150 2772 3378 
Q 2772 3750 2511 3984 
Q 2250 4219 1831 4219 
Q 1534 4219 1204 4116 
Q 875 4013 500 3803 
L 500 4441 
Q 881 4594 1212 4672 
Q 1544 4750 1819 4750 
Q 2544 4750 2975 4387 
Q 3406 4025 3406 3419 
Q 3406 3131 3298 2873 
Q 3191 2616 2906 2266 
Q 2828 2175 2409 1742 
Q 1991 1309 1228 531 
z
" transform="scale(0.015625)"/>
       </defs>
       <use xlink:href="#DejaVuSans-30"/>
       <use xlink:href="#DejaVuSans-2e" x="63.623047"/>
       <use xlink:href="#DejaVuSans-32" x="95.410156"/>
      </g>
     </g>
    </g>
    <g id="xtick_3">
     <g id="line2d_3">
      <g>
       <use xlink:href="#mfad4e4ab84" x="107.805901" y="157.6" style="stroke: #000000; stroke-width: 0.8"/>
      </g>
     </g>
     <g id="text_3">
      <!-- 0.4 -->
      <g transform="translate(99.854338 172.198437)scale(0.1 -0.1)">
       <defs>
        <path id="DejaVuSans-34" d="M 2419 4116 
L 825 1625 
L 2419 1625 
L 2419 4116 
z
M 2253 4666 
L 3047 4666 
L 3047 1625 
L 3713 1625 
L 3713 1100 
L 3047 1100 
L 3047 0 
L 2419 0 
L 2419 1100 
L 313 1100 
L 313 1709 
L 2253 4666 
z
" transform="scale(0.015625)"/>
       </defs>
       <use xlink:href="#DejaVuSans-30"/>
       <use xlink:href="#DejaVuSans-2e" x="63.623047"/>
       <use xlink:href="#DejaVuSans-34" x="95.410156"/>
      </g>
     </g>
    </g>
    <g id="xtick_4">
     <g id="line2d_4">
      <g>
       <use xlink:href="#mfad4e4ab84" x="142.914019" y="157.6" style="stroke: #000000; stroke-width: 0.8"/>
      </g>
     </g>
     <g id="text_4">
      <!-- 0.6 -->
      <g transform="translate(134.962457 172.198437)scale(0.1 -0.1)">
       <defs>
        <path id="DejaVuSans-36" d="M 2113 2584 
Q 1688 2584 1439 2293 
Q 1191 2003 1191 1497 
Q 1191 994 1439 701 
Q 1688 409 2113 409 
Q 2538 409 2786 701 
Q 3034 994 3034 1497 
Q 3034 2003 2786 2293 
Q 2538 2584 2113 2584 
z
M 3366 4563 
L 3366 3988 
Q 3128 4100 2886 4159 
Q 2644 4219 2406 4219 
Q 1781 4219 1451 3797 
Q 1122 3375 1075 2522 
Q 1259 2794 1537 2939 
Q 1816 3084 2150 3084 
Q 2853 3084 3261 2657 
Q 3669 2231 3669 1497 
Q 3669 778 3244 343 
Q 2819 -91 2113 -91 
Q 1303 -91 875 529 
Q 447 1150 447 2328 
Q 447 3434 972 4092 
Q 1497 4750 2381 4750 
Q 2619 4750 2861 4703 
Q 3103 4656 3366 4563 
z
" transform="scale(0.015625)"/>
       </defs>
       <use xlink:href="#DejaVuSans-30"/>
       <use xlink:href="#DejaVuSans-2e" x="63.623047"/>
       <use xlink:href="#DejaVuSans-36" x="95.410156"/>
      </g>
     </g>
    </g>
    <g id="xtick_5">
     <g id="line2d_5">
      <g>
       <use xlink:href="#mfad4e4ab84" x="178.022137" y="157.6" style="stroke: #000000; stroke-width: 0.8"/>
      </g>
     </g>
     <g id="text_5">
      <!-- 0.8 -->
      <g transform="translate(170.070575 172.198437)scale(0.1 -0.1)">
       <defs>
        <path id="DejaVuSans-38" d="M 2034 2216 
Q 1584 2216 1326 1975 
Q 1069 1734 1069 1313 
Q 1069 891 1326 650 
Q 1584 409 2034 409 
Q 2484 409 2743 651 
Q 3003 894 3003 1313 
Q 3003 1734 2745 1975 
Q 2488 2216 2034 2216 
z
M 1403 2484 
Q 997 2584 770 2862 
Q 544 3141 544 3541 
Q 544 4100 942 4425 
Q 1341 4750 2034 4750 
Q 2731 4750 3128 4425 
Q 3525 4100 3525 3541 
Q 3525 3141 3298 2862 
Q 3072 2584 2669 2484 
Q 3125 2378 3379 2068 
Q 3634 1759 3634 1313 
Q 3634 634 3220 271 
Q 2806 -91 2034 -91 
Q 1263 -91 848 271 
Q 434 634 434 1313 
Q 434 1759 690 2068 
Q 947 2378 1403 2484 
z
M 1172 3481 
Q 1172 3119 1398 2916 
Q 1625 2713 2034 2713 
Q 2441 2713 2670 2916 
Q 2900 3119 2900 3481 
Q 2900 3844 2670 4047 
Q 2441 4250 2034 4250 
Q 1625 4250 1398 4047 
Q 1172 3844 1172 3481 
z
" transform="scale(0.015625)"/>
       </defs>
       <use xlink:href="#DejaVuSans-30"/>
       <use xlink:href="#DejaVuSans-2e" x="63.623047"/>
       <use xlink:href="#DejaVuSans-38" x="95.410156"/>
      </g>
     </g>
    </g>
    <g id="xtick_6">
     <g id="line2d_6">
      <g>
       <use xlink:href="#mfad4e4ab84" x="213.130256" y="157.6" style="stroke: #000000; stroke-width: 0.8"/>
      </g>
     </g>
     <g id="text_6">
      <!-- 1.0 -->
      <g transform="translate(205.178693 172.198437)scale(0.1 -0.1)">
       <defs>
        <path id="DejaVuSans-31" d="M 794 531 
L 1825 531 
L 1825 4091 
L 703 3866 
L 703 4441 
L 1819 4666 
L 2450 4666 
L 2450 531 
L 3481 531 
L 3481 0 
L 794 0 
L 794 531 
z
" transform="scale(0.015625)"/>
       </defs>
       <use xlink:href="#DejaVuSans-31"/>
       <use xlink:href="#DejaVuSans-2e" x="63.623047"/>
       <use xlink:href="#DejaVuSans-30" x="95.410156"/>
      </g>
     </g>
    </g>
   </g>
   <g id="matplotlib.axis_2">
    <g id="ytick_1">
     <g id="line2d_7">
      <defs>
       <path id="m7e21d0dde1" d="M 0 0 
L -3.5 0 
" style="stroke: #000000; stroke-width: 0.8"/>
      </defs>
      <g>
       <use xlink:href="#m7e21d0dde1" x="33.64" y="142.908477" style="stroke: #000000; stroke-width: 0.8"/>
      </g>
     </g>
     <g id="text_7">
      <!-- 0.2 -->
      <g transform="translate(10.736875 146.707696)scale(0.1 -0.1)">
       <use xlink:href="#DejaVuSans-30"/>
       <use xlink:href="#DejaVuSans-2e" x="63.623047"/>
       <use xlink:href="#DejaVuSans-32" x="95.410156"/>
      </g>
     </g>
    </g>
    <g id="ytick_2">
     <g id="line2d_8">
      <g>
       <use xlink:href="#m7e21d0dde1" x="33.64" y="118.164531" style="stroke: #000000; stroke-width: 0.8"/>
      </g>
     </g>
     <g id="text_8">
      <!-- 0.4 -->
      <g transform="translate(10.736875 121.963749)scale(0.1 -0.1)">
       <use xlink:href="#DejaVuSans-30"/>
       <use xlink:href="#DejaVuSans-2e" x="63.623047"/>
       <use xlink:href="#DejaVuSans-34" x="95.410156"/>
      </g>
     </g>
    </g>
    <g id="ytick_3">
     <g id="line2d_9">
      <g>
       <use xlink:href="#m7e21d0dde1" x="33.64" y="93.420584" style="stroke: #000000; stroke-width: 0.8"/>
      </g>
     </g>
     <g id="text_9">
      <!-- 0.6 -->
      <g transform="translate(10.736875 97.219803)scale(0.1 -0.1)">
       <use xlink:href="#DejaVuSans-30"/>
       <use xlink:href="#DejaVuSans-2e" x="63.623047"/>
       <use xlink:href="#DejaVuSans-36" x="95.410156"/>
      </g>
     </g>
    </g>
    <g id="ytick_4">
     <g id="line2d_10">
      <g>
       <use xlink:href="#m7e21d0dde1" x="33.64" y="68.676638" style="stroke: #000000; stroke-width: 0.8"/>
      </g>
     </g>
     <g id="text_10">
      <!-- 0.8 -->
      <g transform="translate(10.736875 72.475857)scale(0.1 -0.1)">
       <use xlink:href="#DejaVuSans-30"/>
       <use xlink:href="#DejaVuSans-2e" x="63.623047"/>
       <use xlink:href="#DejaVuSans-38" x="95.410156"/>
      </g>
     </g>
    </g>
    <g id="ytick_5">
     <g id="line2d_11">
      <g>
       <use xlink:href="#m7e21d0dde1" x="33.64" y="43.932692" style="stroke: #000000; stroke-width: 0.8"/>
      </g>
     </g>
     <g id="text_11">
      <!-- 1.0 -->
      <g transform="translate(10.736875 47.73191)scale(0.1 -0.1)">
       <use xlink:href="#DejaVuSans-31"/>
       <use xlink:href="#DejaVuSans-2e" x="63.623047"/>
       <use xlink:href="#DejaVuSans-30" x="95.410156"/>
      </g>
     </g>
    </g>
   </g>
   <g id="line2d_12">
    <path d="M 41.978182 43.932727 
L 50.755307 43.934434 
L 59.53555 43.992208 
L 68.361787 44.871034 
L 77.436863 49.367325 
L 87.218143 59.878217 
L 98.447699 75.455599 
L 112.138035 92.884371 
L 128.387151 107.89663 
L 144.378771 114.930695 
L 155.93719 125.92675 
L 162.525175 132.92268 
L 166.842136 132.915066 
L 170.760206 133.356616 
L 174.882285 134.393889 
L 179.168053 136.947105 
L 184.327383 146.276291 
L 191.469715 151.367509 
L 199.972271 152.166038 
L 208.741818 152.187273 
" clip-path="url(#pa999941ea7)" style="fill: none; stroke: #000000; stroke-width: 1.5; stroke-linecap: square"/>
   </g>
   <g id="line2d_13">
    <path d="M 156.092954 157.6 
L 156.092954 38.52 
" clip-path="url(#pa999941ea7)" style="fill: none; stroke: #1f77b4; stroke-width: 1.5; stroke-linecap: square"/>
   </g>
   <g id="LineCollection_1">
    <path d="M 37.589665 153.269818 
L 46.366699 153.269818 
" clip-path="url(#pa999941ea7)" style="fill: none; stroke: #0000ff; stroke-width: 2"/>
    <path d="M 46.366699 153.269818 
L 55.143916 153.269818 
" clip-path="url(#pa999941ea7)" style="fill: none; stroke: #0000ff; stroke-width: 2"/>
    <path d="M 55.143916 153.269818 
L 63.927185 153.269818 
" clip-path="url(#pa999941ea7)" style="fill: none; stroke: #0000ff; stroke-width: 2"/>
    <path d="M 63.927185 153.269818 
L 72.796389 153.269818 
" clip-path="url(#pa999941ea7)" style="fill: none; stroke: #0000ff; stroke-width: 2"/>
    <path d="M 72.796389 153.269818 
L 82.077336 153.269818 
" clip-path="url(#pa999941ea7)" style="fill: none; stroke: #0000ff; stroke-width: 2"/>
    <path d="M 82.077336 153.269818 
L 92.358949 153.269818 
" clip-path="url(#pa999941ea7)" style="fill: none; stroke: #0000ff; stroke-width: 2"/>
    <path d="M 92.358949 153.269818 
L 104.536448 153.269818 
" clip-path="url(#pa999941ea7)" style="fill: none; stroke: #0000ff; stroke-width: 2"/>
    <path d="M 104.536448 153.269818 
L 119.739622 153.269818 
" clip-path="url(#pa999941ea7)" style="fill: none; stroke: #0000ff; stroke-width: 2"/>
    <path d="M 119.739622 153.269818 
L 137.03468 153.269818 
" clip-path="url(#pa999941ea7)" style="fill: none; stroke: #00ff00; stroke-width: 2"/>
    <path d="M 137.03468 153.269818 
L 151.722863 153.269818 
" clip-path="url(#pa999941ea7)" style="fill: none; stroke: #00ff00; stroke-width: 2"/>
    <path d="M 151.722863 153.269818 
L 160.151517 153.269818 
" clip-path="url(#pa999941ea7)" style="fill: none; stroke: #ff8080; stroke-width: 2"/>
    <path d="M 160.151517 153.269818 
L 164.898833 153.269818 
" clip-path="url(#pa999941ea7)" style="fill: none; stroke: #00ff00; stroke-width: 2"/>
    <path d="M 164.898833 153.269818 
L 168.785439 153.269818 
" clip-path="url(#pa999941ea7)" style="fill: none; stroke: #00ff00; stroke-width: 2"/>
    <path d="M 168.785439 153.269818 
L 172.734973 153.269818 
" clip-path="url(#pa999941ea7)" style="fill: none; stroke: #0000ff; stroke-width: 2"/>
    <path d="M 172.734973 153.269818 
L 177.029596 153.269818 
" clip-path="url(#pa999941ea7)" style="fill: none; stroke: #0000ff; stroke-width: 2"/>
    <path d="M 177.029596 153.269818 
L 181.306509 153.269818 
" clip-path="url(#pa999941ea7)" style="fill: none; stroke: #0000ff; stroke-width: 2"/>
    <path d="M 181.306509 153.269818 
L 187.348257 153.269818 
" clip-path="url(#pa999941ea7)" style="fill: none; stroke: #0000ff; stroke-width: 2"/>
    <path d="M 187.348257 153.269818 
L 195.591173 153.269818 
" clip-path="url(#pa999941ea7)" style="fill: none; stroke: #0000ff; stroke-width: 2"/>
    <path d="M 195.591173 153.269818 
L 204.35337 153.269818 
" clip-path="url(#pa999941ea7)" style="fill: none; stroke: #0000ff; stroke-width: 2"/>
    <path d="M 204.35337 153.269818 
L 213.130267 153.269818 
" clip-path="url(#pa999941ea7)" style="fill: none; stroke: #0000ff; stroke-width: 2"/>
   </g>
   <g id="patch_3">
    <path d="M 33.64 157.6 
L 33.64 38.52 
" style="fill: none; stroke: #000000; stroke-width: 0.8; stroke-linejoin: miter; stroke-linecap: square"/>
   </g>
   <g id="patch_4">
    <path d="M 217.08 157.6 
L 217.08 38.52 
" style="fill: none; stroke: #000000; stroke-width: 0.8; stroke-linejoin: miter; stroke-linecap: square"/>
   </g>
   <g id="patch_5">
    <path d="M 33.64 157.6 
L 217.08 157.6 
" style="fill: none; stroke: #000000; stroke-width: 0.8; stroke-linejoin: miter; stroke-linecap: square"/>
   </g>
   <g id="patch_6">
    <path d="M 33.64 38.52 
L 217.08 38.52 
" style="fill: none; stroke: #000000; stroke-width: 0.8; stroke-linejoin: miter; stroke-linecap: square"/>
   </g>
   <g id="text_12">
    <!-- Density -->
    <g transform="translate(102.549688 32.52)scale(0.12 -0.12)">
     <defs>
      <path id="DejaVuSans-44" d="M 1259 4147 
L 1259 519 
L 2022 519 
Q 2988 519 3436 956 
Q 3884 1394 3884 2338 
Q 3884 3275 3436 3711 
Q 2988 4147 2022 4147 
L 1259 4147 
z
M 628 4666 
L 1925 4666 
Q 3281 4666 3915 4102 
Q 4550 3538 4550 2338 
Q 4550 1131 3912 565 
Q 3275 0 1925 0 
L 628 0 
L 628 4666 
z
" transform="scale(0.015625)"/>
      <path id="DejaVuSans-65" d="M 3597 1894 
L 3597 1613 
L 953 1613 
Q 991 1019 1311 708 
Q 1631 397 2203 397 
Q 2534 397 2845 478 
Q 3156 559 3463 722 
L 3463 178 
Q 3153 47 2828 -22 
Q 2503 -91 2169 -91 
Q 1331 -91 842 396 
Q 353 884 353 1716 
Q 353 2575 817 3079 
Q 1281 3584 2069 3584 
Q 2775 3584 3186 3129 
Q 3597 2675 3597 1894 
z
M 3022 2063 
Q 3016 2534 2758 2815 
Q 2500 3097 2075 3097 
Q 1594 3097 1305 2825 
Q 1016 2553 972 2059 
L 3022 2063 
z
" transform="scale(0.015625)"/>
      <path id="DejaVuSans-6e" d="M 3513 2113 
L 3513 0 
L 2938 0 
L 2938 2094 
Q 2938 2591 2744 2837 
Q 2550 3084 2163 3084 
Q 1697 3084 1428 2787 
Q 1159 2491 1159 1978 
L 1159 0 
L 581 0 
L 581 3500 
L 1159 3500 
L 1159 2956 
Q 1366 3272 1645 3428 
Q 1925 3584 2291 3584 
Q 2894 3584 3203 3211 
Q 3513 2838 3513 2113 
z
" transform="scale(0.015625)"/>
      <path id="DejaVuSans-73" d="M 2834 3397 
L 2834 2853 
Q 2591 2978 2328 3040 
Q 2066 3103 1784 3103 
Q 1356 3103 1142 2972 
Q 928 2841 928 2578 
Q 928 2378 1081 2264 
Q 1234 2150 1697 2047 
L 1894 2003 
Q 2506 1872 2764 1633 
Q 3022 1394 3022 966 
Q 3022 478 2636 193 
Q 2250 -91 1575 -91 
Q 1294 -91 989 -36 
Q 684 19 347 128 
L 347 722 
Q 666 556 975 473 
Q 1284 391 1588 391 
Q 1994 391 2212 530 
Q 2431 669 2431 922 
Q 2431 1156 2273 1281 
Q 2116 1406 1581 1522 
L 1381 1569 
Q 847 1681 609 1914 
Q 372 2147 372 2553 
Q 372 3047 722 3315 
Q 1072 3584 1716 3584 
Q 2034 3584 2315 3537 
Q 2597 3491 2834 3397 
z
" transform="scale(0.015625)"/>
      <path id="DejaVuSans-69" d="M 603 3500 
L 1178 3500 
L 1178 0 
L 603 0 
L 603 3500 
z
M 603 4863 
L 1178 4863 
L 1178 4134 
L 603 4134 
L 603 4863 
z
" transform="scale(0.015625)"/>
      <path id="DejaVuSans-74" d="M 1172 4494 
L 1172 3500 
L 2356 3500 
L 2356 3053 
L 1172 3053 
L 1172 1153 
Q 1172 725 1289 603 
Q 1406 481 1766 481 
L 2356 481 
L 2356 0 
L 1766 0 
Q 1100 0 847 248 
Q 594 497 594 1153 
L 594 3053 
L 172 3053 
L 172 3500 
L 594 3500 
L 594 4494 
L 1172 4494 
z
" transform="scale(0.015625)"/>
      <path id="DejaVuSans-79" d="M 2059 -325 
Q 1816 -950 1584 -1140 
Q 1353 -1331 966 -1331 
L 506 -1331 
L 506 -850 
L 844 -850 
Q 1081 -850 1212 -737 
Q 1344 -625 1503 -206 
L 1606 56 
L 191 3500 
L 800 3500 
L 1894 763 
L 2988 3500 
L 3597 3500 
L 2059 -325 
z
" transform="scale(0.015625)"/>
     </defs>
     <use xlink:href="#DejaVuSans-44"/>
     <use xlink:href="#DejaVuSans-65" x="77.001953"/>
     <use xlink:href="#DejaVuSans-6e" x="138.525391"/>
     <use xlink:href="#DejaVuSans-73" x="201.904297"/>
     <use xlink:href="#DejaVuSans-69" x="254.003906"/>
     <use xlink:href="#DejaVuSans-74" x="281.787109"/>
     <use xlink:href="#DejaVuSans-79" x="320.996094"/>
    </g>
   </g>
  </g>
  <g id="axes_2">
   <g id="patch_7">
    <path d="M 258.64 157.6 
L 442.08 157.6 
L 442.08 38.52 
L 258.64 38.52 
z
" style="fill: #ffffff"/>
   </g>
   <g id="matplotlib.axis_3">
    <g id="xtick_7">
     <g id="line2d_14">
      <g>
       <use xlink:href="#mfad4e4ab84" x="262.589664" y="157.6" style="stroke: #000000; stroke-width: 0.8"/>
      </g>
     </g>
     <g id="text_13">
      <!-- 0.0 -->
      <g transform="translate(254.638102 172.198437)scale(0.1 -0.1)">
       <use xlink:href="#DejaVuSans-30"/>
       <use xlink:href="#DejaVuSans-2e" x="63.623047"/>
       <use xlink:href="#DejaVuSans-30" x="95.410156"/>
      </g>
     </g>
    </g>
    <g id="xtick_8">
     <g id="line2d_15">
      <g>
       <use xlink:href="#mfad4e4ab84" x="297.697783" y="157.6" style="stroke: #000000; stroke-width: 0.8"/>
      </g>
     </g>
     <g id="text_14">
      <!-- 0.2 -->
      <g transform="translate(289.74622 172.198437)scale(0.1 -0.1)">
       <use xlink:href="#DejaVuSans-30"/>
       <use xlink:href="#DejaVuSans-2e" x="63.623047"/>
       <use xlink:href="#DejaVuSans-32" x="95.410156"/>
      </g>
     </g>
    </g>
    <g id="xtick_9">
     <g id="line2d_16">
      <g>
       <use xlink:href="#mfad4e4ab84" x="332.805901" y="157.6" style="stroke: #000000; stroke-width: 0.8"/>
      </g>
     </g>
     <g id="text_15">
      <!-- 0.4 -->
      <g transform="translate(324.854338 172.198437)scale(0.1 -0.1)">
       <use xlink:href="#DejaVuSans-30"/>
       <use xlink:href="#DejaVuSans-2e" x="63.623047"/>
       <use xlink:href="#DejaVuSans-34" x="95.410156"/>
      </g>
     </g>
    </g>
    <g id="xtick_10">
     <g id="line2d_17">
      <g>
       <use xlink:href="#mfad4e4ab84" x="367.914019" y="157.6" style="stroke: #000000; stroke-width: 0.8"/>
      </g>
     </g>
     <g id="text_16">
      <!-- 0.6 -->
      <g transform="translate(359.962457 172.198437)scale(0.1 -0.1)">
       <use xlink:href="#DejaVuSans-30"/>
       <use xlink:href="#DejaVuSans-2e" x="63.623047"/>
       <use xlink:href="#DejaVuSans-36" x="95.410156"/>
      </g>
     </g>
    </g>
    <g id="xtick_11">
     <g id="line2d_18">
      <g>
       <use xlink:href="#mfad4e4ab84" x="403.022137" y="157.6" style="stroke: #000000; stroke-width: 0.8"/>
      </g>
     </g>
     <g id="text_17">
      <!-- 0.8 -->
      <g transform="translate(395.070575 172.198437)scale(0.1 -0.1)">
       <use xlink:href="#DejaVuSans-30"/>
       <use xlink:href="#DejaVuSans-2e" x="63.623047"/>
       <use xlink:href="#DejaVuSans-38" x="95.410156"/>
      </g>
     </g>
    </g>
    <g id="xtick_12">
     <g id="line2d_19">
      <g>
       <use xlink:href="#mfad4e4ab84" x="438.130256" y="157.6" style="stroke: #000000; stroke-width: 0.8"/>
      </g>
     </g>
     <g id="text_18">
      <!-- 1.0 -->
      <g transform="translate(430.178693 172.198437)scale(0.1 -0.1)">
       <use xlink:href="#DejaVuSans-31"/>
       <use xlink:href="#DejaVuSans-2e" x="63.623047"/>
       <use xlink:href="#DejaVuSans-30" x="95.410156"/>
      </g>
     </g>
    </g>
   </g>
   <g id="matplotlib.axis_4">
    <g id="ytick_6">
     <g id="line2d_20">
      <g>
       <use xlink:href="#m7e21d0dde1" x="258.64" y="140.806331" style="stroke: #000000; stroke-width: 0.8"/>
      </g>
     </g>
     <g id="text_19">
      <!-- 2.00 -->
      <g transform="translate(229.374375 144.60555)scale(0.1 -0.1)">
       <use xlink:href="#DejaVuSans-32"/>
       <use xlink:href="#DejaVuSans-2e" x="63.623047"/>
       <use xlink:href="#DejaVuSans-30" x="95.410156"/>
       <use xlink:href="#DejaVuSans-30" x="159.033203"/>
      </g>
     </g>
    </g>
    <g id="ytick_7">
     <g id="line2d_21">
      <g>
       <use xlink:href="#m7e21d0dde1" x="258.64" y="112.943339" style="stroke: #000000; stroke-width: 0.8"/>
      </g>
     </g>
     <g id="text_20">
      <!-- 2.25 -->
      <g transform="translate(229.374375 116.742557)scale(0.1 -0.1)">
       <defs>
        <path id="DejaVuSans-35" d="M 691 4666 
L 3169 4666 
L 3169 4134 
L 1269 4134 
L 1269 2991 
Q 1406 3038 1543 3061 
Q 1681 3084 1819 3084 
Q 2600 3084 3056 2656 
Q 3513 2228 3513 1497 
Q 3513 744 3044 326 
Q 2575 -91 1722 -91 
Q 1428 -91 1123 -41 
Q 819 9 494 109 
L 494 744 
Q 775 591 1075 516 
Q 1375 441 1709 441 
Q 2250 441 2565 725 
Q 2881 1009 2881 1497 
Q 2881 1984 2565 2268 
Q 2250 2553 1709 2553 
Q 1456 2553 1204 2497 
Q 953 2441 691 2322 
L 691 4666 
z
" transform="scale(0.015625)"/>
       </defs>
       <use xlink:href="#DejaVuSans-32"/>
       <use xlink:href="#DejaVuSans-2e" x="63.623047"/>
       <use xlink:href="#DejaVuSans-32" x="95.410156"/>
       <use xlink:href="#DejaVuSans-35" x="159.033203"/>
      </g>
     </g>
    </g>
    <g id="ytick_8">
     <g id="line2d_22">
      <g>
       <use xlink:href="#m7e21d0dde1" x="258.64" y="85.080346" style="stroke: #000000; stroke-width: 0.8"/>
      </g>
     </g>
     <g id="text_21">
      <!-- 2.50 -->
      <g transform="translate(229.374375 88.879565)scale(0.1 -0.1)">
       <use xlink:href="#DejaVuSans-32"/>
       <use xlink:href="#DejaVuSans-2e" x="63.623047"/>
       <use xlink:href="#DejaVuSans-35" x="95.410156"/>
       <use xlink:href="#DejaVuSans-30" x="159.033203"/>
      </g>
     </g>
    </g>
    <g id="ytick_9">
     <g id="line2d_23">
      <g>
       <use xlink:href="#m7e21d0dde1" x="258.64" y="57.217354" style="stroke: #000000; stroke-width: 0.8"/>
      </g>
     </g>
     <g id="text_22">
      <!-- 2.75 -->
      <g transform="translate(229.374375 61.016572)scale(0.1 -0.1)">
       <defs>
        <path id="DejaVuSans-37" d="M 525 4666 
L 3525 4666 
L 3525 4397 
L 1831 0 
L 1172 0 
L 2766 4134 
L 525 4134 
L 525 4666 
z
" transform="scale(0.015625)"/>
       </defs>
       <use xlink:href="#DejaVuSans-32"/>
       <use xlink:href="#DejaVuSans-2e" x="63.623047"/>
       <use xlink:href="#DejaVuSans-37" x="95.410156"/>
       <use xlink:href="#DejaVuSans-35" x="159.033203"/>
      </g>
     </g>
    </g>
   </g>
   <g id="line2d_24">
    <path d="M 266.978182 85.080378 
L 275.755307 85.081916 
L 284.53555 85.133931 
L 293.361787 85.922985 
L 302.436863 89.975161 
L 312.218143 99.738279 
L 323.447699 115.158726 
L 337.138035 134.309303 
L 353.387151 150.988815 
L 369.378771 152.187273 
L 380.93719 101.340821 
L 387.525175 43.932727 
L 391.842136 45.321218 
L 395.760206 45.17204 
L 399.882285 45.421473 
L 404.168053 54.447814 
L 409.327383 101.310343 
L 416.469715 135.431895 
L 424.972271 140.682233 
L 433.741818 140.805271 
" clip-path="url(#pbd1f37dd0b)" style="fill: none; stroke: #ff0000; stroke-width: 1.5; stroke-linecap: square"/>
   </g>
   <g id="line2d_25">
    <path d="M 381.092954 157.6 
L 381.092954 38.52 
" clip-path="url(#pbd1f37dd0b)" style="fill: none; stroke: #1f77b4; stroke-width: 1.5; stroke-linecap: square"/>
   </g>
   <g id="LineCollection_2">
    <path d="M 262.589665 141.36252 
L 271.366699 141.36252 
" clip-path="url(#pbd1f37dd0b)" style="fill: none; stroke: #0000ff; stroke-width: 2"/>
    <path d="M 271.366699 141.36252 
L 280.143916 141.36252 
" clip-path="url(#pbd1f37dd0b)" style="fill: none; stroke: #0000ff; stroke-width: 2"/>
    <path d="M 280.143916 141.36252 
L 288.927185 141.36252 
" clip-path="url(#pbd1f37dd0b)" style="fill: none; stroke: #0000ff; stroke-width: 2"/>
    <path d="M 288.927185 141.36252 
L 297.796389 141.36252 
" clip-path="url(#pbd1f37dd0b)" style="fill: none; stroke: #0000ff; stroke-width: 2"/>
    <path d="M 297.796389 141.36252 
L 307.077336 141.36252 
" clip-path="url(#pbd1f37dd0b)" style="fill: none; stroke: #0000ff; stroke-width: 2"/>
    <path d="M 307.077336 141.36252 
L 317.358949 141.36252 
" clip-path="url(#pbd1f37dd0b)" style="fill: none; stroke: #0000ff; stroke-width: 2"/>
    <path d="M 317.358949 141.36252 
L 329.536448 141.36252 
" clip-path="url(#pbd1f37dd0b)" style="fill: none; stroke: #0000ff; stroke-width: 2"/>
    <path d="M 329.536448 141.36252 
L 344.739622 141.36252 
" clip-path="url(#pbd1f37dd0b)" style="fill: none; stroke: #0000ff; stroke-width: 2"/>
    <path d="M 344.739622 141.36252 
L 362.03468 141.36252 
" clip-path="url(#pbd1f37dd0b)" style="fill: none; stroke: #00ff00; stroke-width: 2"/>
    <path d="M 362.03468 141.36252 
L 376.722863 141.36252 
" clip-path="url(#pbd1f37dd0b)" style="fill: none; stroke: #00ff00; stroke-width: 2"/>
    <path d="M 376.722863 141.36252 
L 385.151517 141.36252 
" clip-path="url(#pbd1f37dd0b)" style="fill: none; stroke: #ff8080; stroke-width: 2"/>
    <path d="M 385.151517 141.36252 
L 389.898833 141.36252 
" clip-path="url(#pbd1f37dd0b)" style="fill: none; stroke: #00ff00; stroke-width: 2"/>
    <path d="M 389.898833 141.36252 
L 393.785439 141.36252 
" clip-path="url(#pbd1f37dd0b)" style="fill: none; stroke: #00ff00; stroke-width: 2"/>
    <path d="M 393.785439 141.36252 
L 397.734973 141.36252 
" clip-path="url(#pbd1f37dd0b)" style="fill: none; stroke: #0000ff; stroke-width: 2"/>
    <path d="M 397.734973 141.36252 
L 402.029596 141.36252 
" clip-path="url(#pbd1f37dd0b)" style="fill: none; stroke: #0000ff; stroke-width: 2"/>
    <path d="M 402.029596 141.36252 
L 406.306509 141.36252 
" clip-path="url(#pbd1f37dd0b)" style="fill: none; stroke: #0000ff; stroke-width: 2"/>
    <path d="M 406.306509 141.36252 
L 412.348257 141.36252 
" clip-path="url(#pbd1f37dd0b)" style="fill: none; stroke: #0000ff; stroke-width: 2"/>
    <path d="M 412.348257 141.36252 
L 420.591173 141.36252 
" clip-path="url(#pbd1f37dd0b)" style="fill: none; stroke: #0000ff; stroke-width: 2"/>
    <path d="M 420.591173 141.36252 
L 429.35337 141.36252 
" clip-path="url(#pbd1f37dd0b)" style="fill: none; stroke: #0000ff; stroke-width: 2"/>
    <path d="M 429.35337 141.36252 
L 438.130267 141.36252 
" clip-path="url(#pbd1f37dd0b)" style="fill: none; stroke: #0000ff; stroke-width: 2"/>
   </g>
   <g id="patch_8">
    <path d="M 258.64 157.6 
L 258.64 38.52 
" style="fill: none; stroke: #000000; stroke-width: 0.8; stroke-linejoin: miter; stroke-linecap: square"/>
   </g>
   <g id="patch_9">
    <path d="M 442.08 157.6 
L 442.08 38.52 
" style="fill: none; stroke: #000000; stroke-width: 0.8; stroke-linejoin: miter; stroke-linecap: square"/>
   </g>
   <g id="patch_10">
    <path d="M 258.64 157.6 
L 442.08 157.6 
" style="fill: none; stroke: #000000; stroke-width: 0.8; stroke-linejoin: miter; stroke-linecap: square"/>
   </g>
   <g id="patch_11">
    <path d="M 258.64 38.52 
L 442.08 38.52 
" style="fill: none; stroke: #000000; stroke-width: 0.8; stroke-linejoin: miter; stroke-linecap: square"/>
   </g>
   <g id="text_23">
    <!-- Internal energy -->
    <g transform="translate(304.420625 32.52)scale(0.12 -0.12)">
     <defs>
      <path id="DejaVuSans-49" d="M 628 4666 
L 1259 4666 
L 1259 0 
L 628 0 
L 628 4666 
z
" transform="scale(0.015625)"/>
      <path id="DejaVuSans-72" d="M 2631 2963 
Q 2534 3019 2420 3045 
Q 2306 3072 2169 3072 
Q 1681 3072 1420 2755 
Q 1159 2438 1159 1844 
L 1159 0 
L 581 0 
L 581 3500 
L 1159 3500 
L 1159 2956 
Q 1341 3275 1631 3429 
Q 1922 3584 2338 3584 
Q 2397 3584 2469 3576 
Q 2541 3569 2628 3553 
L 2631 2963 
z
" transform="scale(0.015625)"/>
      <path id="DejaVuSans-61" d="M 2194 1759 
Q 1497 1759 1228 1600 
Q 959 1441 959 1056 
Q 959 750 1161 570 
Q 1363 391 1709 391 
Q 2188 391 2477 730 
Q 2766 1069 2766 1631 
L 2766 1759 
L 2194 1759 
z
M 3341 1997 
L 3341 0 
L 2766 0 
L 2766 531 
Q 2569 213 2275 61 
Q 1981 -91 1556 -91 
Q 1019 -91 701 211 
Q 384 513 384 1019 
Q 384 1609 779 1909 
Q 1175 2209 1959 2209 
L 2766 2209 
L 2766 2266 
Q 2766 2663 2505 2880 
Q 2244 3097 1772 3097 
Q 1472 3097 1187 3025 
Q 903 2953 641 2809 
L 641 3341 
Q 956 3463 1253 3523 
Q 1550 3584 1831 3584 
Q 2591 3584 2966 3190 
Q 3341 2797 3341 1997 
z
" transform="scale(0.015625)"/>
      <path id="DejaVuSans-6c" d="M 603 4863 
L 1178 4863 
L 1178 0 
L 603 0 
L 603 4863 
z
" transform="scale(0.015625)"/>
      <path id="DejaVuSans-20" transform="scale(0.015625)"/>
      <path id="DejaVuSans-67" d="M 2906 1791 
Q 2906 2416 2648 2759 
Q 2391 3103 1925 3103 
Q 1463 3103 1205 2759 
Q 947 2416 947 1791 
Q 947 1169 1205 825 
Q 1463 481 1925 481 
Q 2391 481 2648 825 
Q 2906 1169 2906 1791 
z
M 3481 434 
Q 3481 -459 3084 -895 
Q 2688 -1331 1869 -1331 
Q 1566 -1331 1297 -1286 
Q 1028 -1241 775 -1147 
L 775 -588 
Q 1028 -725 1275 -790 
Q 1522 -856 1778 -856 
Q 2344 -856 2625 -561 
Q 2906 -266 2906 331 
L 2906 616 
Q 2728 306 2450 153 
Q 2172 0 1784 0 
Q 1141 0 747 490 
Q 353 981 353 1791 
Q 353 2603 747 3093 
Q 1141 3584 1784 3584 
Q 2172 3584 2450 3431 
Q 2728 3278 2906 2969 
L 2906 3500 
L 3481 3500 
L 3481 434 
z
" transform="scale(0.015625)"/>
     </defs>
     <use xlink:href="#DejaVuSans-49"/>
     <use xlink:href="#DejaVuSans-6e" x="29.492188"/>
     <use xlink:href="#DejaVuSans-74" x="92.871094"/>
     <use xlink:href="#DejaVuSans-65" x="132.080078"/>
     <use xlink:href="#DejaVuSans-72" x="193.603516"/>
     <use xlink:href="#DejaVuSans-6e" x="232.966797"/>
     <use xlink:href="#DejaVuSans-61" x="296.345703"/>
     <use xlink:href="#DejaVuSans-6c" x="357.625"/>
     <use xlink:href="#DejaVuSans-20" x="385.408203"/>
     <use xlink:href="#DejaVuSans-65" x="417.195312"/>
     <use xlink:href="#DejaVuSans-6e" x="478.71875"/>
     <use xlink:href="#DejaVuSans-65" x="542.097656"/>
     <use xlink:href="#DejaVuSans-72" x="603.621094"/>
     <use xlink:href="#DejaVuSans-67" x="642.984375"/>
     <use xlink:href="#DejaVuSans-79" x="706.460938"/>
    </g>
   </g>
  </g>
  <g id="axes_3">
   <g id="patch_12">
    <path d="M 33.64 317.72 
L 217.08 317.72 
L 217.08 198.64 
L 33.64 198.64 
z
" style="fill: #ffffff"/>
   </g>
   <g id="matplotlib.axis_5">
    <g id="xtick_13">
     <g id="line2d_26">
      <g>
       <use xlink:href="#mfad4e4ab84" x="37.589664" y="317.72" style="stroke: #000000; stroke-width: 0.8"/>
      </g>
     </g>
     <g id="text_24">
      <!-- 0.0 -->
      <g transform="translate(29.638102 332.318437)scale(0.1 -0.1)">
       <use xlink:href="#DejaVuSans-30"/>
       <use xlink:href="#DejaVuSans-2e" x="63.623047"/>
       <use xlink:href="#DejaVuSans-30" x="95.410156"/>
      </g>
     </g>
    </g>
    <g id="xtick_14">
     <g id="line2d_27">
      <g>
       <use xlink:href="#mfad4e4ab84" x="72.697783" y="317.72" style="stroke: #000000; stroke-width: 0.8"/>
      </g>
     </g>
     <g id="text_25">
      <!-- 0.2 -->
      <g transform="translate(64.74622 332.318437)scale(0.1 -0.1)">
       <use xlink:href="#DejaVuSans-30"/>
       <use xlink:href="#DejaVuSans-2e" x="63.623047"/>
       <use xlink:href="#DejaVuSans-32" x="95.410156"/>
      </g>
     </g>
    </g>
    <g id="xtick_15">
     <g id="line2d_28">
      <g>
       <use xlink:href="#mfad4e4ab84" x="107.805901" y="317.72" style="stroke: #000000; stroke-width: 0.8"/>
      </g>
     </g>
     <g id="text_26">
      <!-- 0.4 -->
      <g transform="translate(99.854338 332.318437)scale(0.1 -0.1)">
       <use xlink:href="#DejaVuSans-30"/>
       <use xlink:href="#DejaVuSans-2e" x="63.623047"/>
       <use xlink:href="#DejaVuSans-34" x="95.410156"/>
      </g>
     </g>
    </g>
    <g id="xtick_16">
     <g id="line2d_29">
      <g>
       <use xlink:href="#mfad4e4ab84" x="142.914019" y="317.72" style="stroke: #000000; stroke-width: 0.8"/>
      </g>
     </g>
     <g id="text_27">
      <!-- 0.6 -->
      <g transform="translate(134.962457 332.318437)scale(0.1 -0.1)">
       <use xlink:href="#DejaVuSans-30"/>
       <use xlink:href="#DejaVuSans-2e" x="63.623047"/>
       <use xlink:href="#DejaVuSans-36" x="95.410156"/>
      </g>
     </g>
    </g>
    <g id="xtick_17">
     <g id="line2d_30">
      <g>
       <use xlink:href="#mfad4e4ab84" x="178.022137" y="317.72" style="stroke: #000000; stroke-width: 0.8"/>
      </g>
     </g>
     <g id="text_28">
      <!-- 0.8 -->
      <g transform="translate(170.070575 332.318437)scale(0.1 -0.1)">
       <use xlink:href="#DejaVuSans-30"/>
       <use xlink:href="#DejaVuSans-2e" x="63.623047"/>
       <use xlink:href="#DejaVuSans-38" x="95.410156"/>
      </g>
     </g>
    </g>
    <g id="xtick_18">
     <g id="line2d_31">
      <g>
       <use xlink:href="#mfad4e4ab84" x="213.130256" y="317.72" style="stroke: #000000; stroke-width: 0.8"/>
      </g>
     </g>
     <g id="text_29">
      <!-- 1.0 -->
      <g transform="translate(205.178693 332.318437)scale(0.1 -0.1)">
       <use xlink:href="#DejaVuSans-31"/>
       <use xlink:href="#DejaVuSans-2e" x="63.623047"/>
       <use xlink:href="#DejaVuSans-30" x="95.410156"/>
      </g>
     </g>
    </g>
   </g>
   <g id="matplotlib.axis_6">
    <g id="ytick_10">
     <g id="line2d_32">
      <g>
       <use xlink:href="#m7e21d0dde1" x="33.64" y="300.279163" style="stroke: #000000; stroke-width: 0.8"/>
      </g>
     </g>
     <g id="text_30">
      <!-- 0.2 -->
      <g transform="translate(10.736875 304.078381)scale(0.1 -0.1)">
       <use xlink:href="#DejaVuSans-30"/>
       <use xlink:href="#DejaVuSans-2e" x="63.623047"/>
       <use xlink:href="#DejaVuSans-32" x="95.410156"/>
      </g>
     </g>
    </g>
    <g id="ytick_11">
     <g id="line2d_33">
      <g>
       <use xlink:href="#m7e21d0dde1" x="33.64" y="276.222542" style="stroke: #000000; stroke-width: 0.8"/>
      </g>
     </g>
     <g id="text_31">
      <!-- 0.4 -->
      <g transform="translate(10.736875 280.02176)scale(0.1 -0.1)">
       <use xlink:href="#DejaVuSans-30"/>
       <use xlink:href="#DejaVuSans-2e" x="63.623047"/>
       <use xlink:href="#DejaVuSans-34" x="95.410156"/>
      </g>
     </g>
    </g>
    <g id="ytick_12">
     <g id="line2d_34">
      <g>
       <use xlink:href="#m7e21d0dde1" x="33.64" y="252.165921" style="stroke: #000000; stroke-width: 0.8"/>
      </g>
     </g>
     <g id="text_32">
      <!-- 0.6 -->
      <g transform="translate(10.736875 255.965139)scale(0.1 -0.1)">
       <use xlink:href="#DejaVuSans-30"/>
       <use xlink:href="#DejaVuSans-2e" x="63.623047"/>
       <use xlink:href="#DejaVuSans-36" x="95.410156"/>
      </g>
     </g>
    </g>
    <g id="ytick_13">
     <g id="line2d_35">
      <g>
       <use xlink:href="#m7e21d0dde1" x="33.64" y="228.1093" style="stroke: #000000; stroke-width: 0.8"/>
      </g>
     </g>
     <g id="text_33">
      <!-- 0.8 -->
      <g transform="translate(10.736875 231.908518)scale(0.1 -0.1)">
       <use xlink:href="#DejaVuSans-30"/>
       <use xlink:href="#DejaVuSans-2e" x="63.623047"/>
       <use xlink:href="#DejaVuSans-38" x="95.410156"/>
      </g>
     </g>
    </g>
    <g id="ytick_14">
     <g id="line2d_36">
      <g>
       <use xlink:href="#m7e21d0dde1" x="33.64" y="204.052679" style="stroke: #000000; stroke-width: 0.8"/>
      </g>
     </g>
     <g id="text_34">
      <!-- 1.0 -->
      <g transform="translate(10.736875 207.851898)scale(0.1 -0.1)">
       <use xlink:href="#DejaVuSans-31"/>
       <use xlink:href="#DejaVuSans-2e" x="63.623047"/>
       <use xlink:href="#DejaVuSans-30" x="95.410156"/>
      </g>
     </g>
    </g>
   </g>
   <g id="line2d_37">
    <path d="M 41.978182 204.052727 
L 50.755307 204.055051 
L 59.53555 204.133663 
L 68.361787 205.32596 
L 77.436863 211.356598 
L 87.218143 225.067483 
L 98.447699 244.376235 
L 112.138035 264.487842 
L 128.387151 279.982149 
L 144.378771 285.423642 
L 155.93719 286.136561 
L 162.525175 285.58438 
L 166.842136 285.744182 
L 170.760206 286.216872 
L 174.882285 287.398721 
L 179.168053 291.201415 
L 184.327383 304.763984 
L 191.469715 311.364345 
L 199.972271 312.284108 
L 208.741818 312.307273 
" clip-path="url(#p9eb4e898be)" style="fill: none; stroke: #0000ff; stroke-width: 1.5; stroke-linecap: square"/>
   </g>
   <g id="line2d_38">
    <path d="M 156.092954 317.72 
L 156.092954 198.64 
" clip-path="url(#p9eb4e898be)" style="fill: none; stroke: #1f77b4; stroke-width: 1.5; stroke-linecap: square"/>
   </g>
   <g id="LineCollection_3">
    <path d="M 37.589665 313.389818 
L 46.366699 313.389818 
" clip-path="url(#p9eb4e898be)" style="fill: none; stroke: #0000ff; stroke-width: 2"/>
    <path d="M 46.366699 313.389818 
L 55.143916 313.389818 
" clip-path="url(#p9eb4e898be)" style="fill: none; stroke: #0000ff; stroke-width: 2"/>
    <path d="M 55.143916 313.389818 
L 63.927185 313.389818 
" clip-path="url(#p9eb4e898be)" style="fill: none; stroke: #0000ff; stroke-width: 2"/>
    <path d="M 63.927185 313.389818 
L 72.796389 313.389818 
" clip-path="url(#p9eb4e898be)" style="fill: none; stroke: #0000ff; stroke-width: 2"/>
    <path d="M 72.796389 313.389818 
L 82.077336 313.389818 
" clip-path="url(#p9eb4e898be)" style="fill: none; stroke: #0000ff; stroke-width: 2"/>
    <path d="M 82.077336 313.389818 
L 92.358949 313.389818 
" clip-path="url(#p9eb4e898be)" style="fill: none; stroke: #0000ff; stroke-width: 2"/>
    <path d="M 92.358949 313.389818 
L 104.536448 313.389818 
" clip-path="url(#p9eb4e898be)" style="fill: none; stroke: #0000ff; stroke-width: 2"/>
    <path d="M 104.536448 313.389818 
L 119.739622 313.389818 
" clip-path="url(#p9eb4e898be)" style="fill: none; stroke: #0000ff; stroke-width: 2"/>
    <path d="M 119.739622 313.389818 
L 137.03468 313.389818 
" clip-path="url(#p9eb4e898be)" style="fill: none; stroke: #00ff00; stroke-width: 2"/>
    <path d="M 137.03468 313.389818 
L 151.722863 313.389818 
" clip-path="url(#p9eb4e898be)" style="fill: none; stroke: #00ff00; stroke-width: 2"/>
    <path d="M 151.722863 313.389818 
L 160.151517 313.389818 
" clip-path="url(#p9eb4e898be)" style="fill: none; stroke: #ff8080; stroke-width: 2"/>
    <path d="M 160.151517 313.389818 
L 164.898833 313.389818 
" clip-path="url(#p9eb4e898be)" style="fill: none; stroke: #00ff00; stroke-width: 2"/>
    <path d="M 164.898833 313.389818 
L 168.785439 313.389818 
" clip-path="url(#p9eb4e898be)" style="fill: none; stroke: #00ff00; stroke-width: 2"/>
    <path d="M 168.785439 313.389818 
L 172.734973 313.389818 
" clip-path="url(#p9eb4e898be)" style="fill: none; stroke: #0000ff; stroke-width: 2"/>
    <path d="M 172.734973 313.389818 
L 177.029596 313.389818 
" clip-path="url(#p9eb4e898be)" style="fill: none; stroke: #0000ff; stroke-width: 2"/>
    <path d="M 177.029596 313.389818 
L 181.306509 313.389818 
" clip-path="url(#p9eb4e898be)" style="fill: none; stroke: #0000ff; stroke-width: 2"/>
    <path d="M 181.306509 313.389818 
L 187.348257 313.389818 
" clip-path="url(#p9eb4e898be)" style="fill: none; stroke: #0000ff; stroke-width: 2"/>
    <path d="M 187.348257 313.389818 
L 195.591173 313.389818 
" clip-path="url(#p9eb4e898be)" style="fill: none; stroke: #0000ff; stroke-width: 2"/>
    <path d="M 195.591173 313.389818 
L 204.35337 313.389818 
" clip-path="url(#p9eb4e898be)" style="fill: none; stroke: #0000ff; stroke-width: 2"/>
    <path d="M 204.35337 313.389818 
L 213.130267 313.389818 
" clip-path="url(#p9eb4e898be)" style="fill: none; stroke: #0000ff; stroke-width: 2"/>
   </g>
   <g id="patch_13">
    <path d="M 33.64 317.72 
L 33.64 198.64 
" style="fill: none; stroke: #000000; stroke-width: 0.8; stroke-linejoin: miter; stroke-linecap: square"/>
   </g>
   <g id="patch_14">
    <path d="M 217.08 317.72 
L 217.08 198.64 
" style="fill: none; stroke: #000000; stroke-width: 0.8; stroke-linejoin: miter; stroke-linecap: square"/>
   </g>
   <g id="patch_15">
    <path d="M 33.64 317.72 
L 217.08 317.72 
" style="fill: none; stroke: #000000; stroke-width: 0.8; stroke-linejoin: miter; stroke-linecap: square"/>
   </g>
   <g id="patch_16">
    <path d="M 33.64 198.64 
L 217.08 198.64 
" style="fill: none; stroke: #000000; stroke-width: 0.8; stroke-linejoin: miter; stroke-linecap: square"/>
   </g>
   <g id="text_35">
    <!-- Pressure -->
    <g transform="translate(99.746562 192.64)scale(0.12 -0.12)">
     <defs>
      <path id="DejaVuSans-50" d="M 1259 4147 
L 1259 2394 
L 2053 2394 
Q 2494 2394 2734 2622 
Q 2975 2850 2975 3272 
Q 2975 3691 2734 3919 
Q 2494 4147 2053 4147 
L 1259 4147 
z
M 628 4666 
L 2053 4666 
Q 2838 4666 3239 4311 
Q 3641 3956 3641 3272 
Q 3641 2581 3239 2228 
Q 2838 1875 2053 1875 
L 1259 1875 
L 1259 0 
L 628 0 
L 628 4666 
z
" transform="scale(0.015625)"/>
      <path id="DejaVuSans-75" d="M 544 1381 
L 544 3500 
L 1119 3500 
L 1119 1403 
Q 1119 906 1312 657 
Q 1506 409 1894 409 
Q 2359 409 2629 706 
Q 2900 1003 2900 1516 
L 2900 3500 
L 3475 3500 
L 3475 0 
L 2900 0 
L 2900 538 
Q 2691 219 2414 64 
Q 2138 -91 1772 -91 
Q 1169 -91 856 284 
Q 544 659 544 1381 
z
M 1991 3584 
L 1991 3584 
z
" transform="scale(0.015625)"/>
     </defs>
     <use xlink:href="#DejaVuSans-50"/>
     <use xlink:href="#DejaVuSans-72" x="58.552734"/>
     <use xlink:href="#DejaVuSans-65" x="97.416016"/>
     <use xlink:href="#DejaVuSans-73" x="158.939453"/>
     <use xlink:href="#DejaVuSans-73" x="211.039062"/>
     <use xlink:href="#DejaVuSans-75" x="263.138672"/>
     <use xlink:href="#DejaVuSans-72" x="326.517578"/>
     <use xlink:href="#DejaVuSans-65" x="365.380859"/>
    </g>
   </g>
  </g>
  <g id="axes_4">
   <g id="patch_17">
    <path d="M 258.64 317.72 
L 442.08 317.72 
L 442.08 198.64 
L 258.64 198.64 
z
" style="fill: #ffffff"/>
   </g>
   <g id="matplotlib.axis_7">
    <g id="xtick_19">
     <g id="line2d_39">
      <g>
       <use xlink:href="#mfad4e4ab84" x="262.589664" y="317.72" style="stroke: #000000; stroke-width: 0.8"/>
      </g>
     </g>
     <g id="text_36">
      <!-- 0.0 -->
      <g transform="translate(254.638102 332.318437)scale(0.1 -0.1)">
       <use xlink:href="#DejaVuSans-30"/>
       <use xlink:href="#DejaVuSans-2e" x="63.623047"/>
       <use xlink:href="#DejaVuSans-30" x="95.410156"/>
      </g>
     </g>
    </g>
    <g id="xtick_20">
     <g id="line2d_40">
      <g>
       <use xlink:href="#mfad4e4ab84" x="297.697783" y="317.72" style="stroke: #000000; stroke-width: 0.8"/>
      </g>
     </g>
     <g id="text_37">
      <!-- 0.2 -->
      <g transform="translate(289.74622 332.318437)scale(0.1 -0.1)">
       <use xlink:href="#DejaVuSans-30"/>
       <use xlink:href="#DejaVuSans-2e" x="63.623047"/>
       <use xlink:href="#DejaVuSans-32" x="95.410156"/>
      </g>
     </g>
    </g>
    <g id="xtick_21">
     <g id="line2d_41">
      <g>
       <use xlink:href="#mfad4e4ab84" x="332.805901" y="317.72" style="stroke: #000000; stroke-width: 0.8"/>
      </g>
     </g>
     <g id="text_38">
      <!-- 0.4 -->
      <g transform="translate(324.854338 332.318437)scale(0.1 -0.1)">
       <use xlink:href="#DejaVuSans-30"/>
       <use xlink:href="#DejaVuSans-2e" x="63.623047"/>
       <use xlink:href="#DejaVuSans-34" x="95.410156"/>
      </g>
     </g>
    </g>
    <g id="xtick_22">
     <g id="line2d_42">
      <g>
       <use xlink:href="#mfad4e4ab84" x="367.914019" y="317.72" style="stroke: #000000; stroke-width: 0.8"/>
      </g>
     </g>
     <g id="text_39">
      <!-- 0.6 -->
      <g transform="translate(359.962457 332.318437)scale(0.1 -0.1)">
       <use xlink:href="#DejaVuSans-30"/>
       <use xlink:href="#DejaVuSans-2e" x="63.623047"/>
       <use xlink:href="#DejaVuSans-36" x="95.410156"/>
      </g>
     </g>
    </g>
    <g id="xtick_23">
     <g id="line2d_43">
      <g>
       <use xlink:href="#mfad4e4ab84" x="403.022137" y="317.72" style="stroke: #000000; stroke-width: 0.8"/>
      </g>
     </g>
     <g id="text_40">
      <!-- 0.8 -->
      <g transform="translate(395.070575 332.318437)scale(0.1 -0.1)">
       <use xlink:href="#DejaVuSans-30"/>
       <use xlink:href="#DejaVuSans-2e" x="63.623047"/>
       <use xlink:href="#DejaVuSans-38" x="95.410156"/>
      </g>
     </g>
    </g>
    <g id="xtick_24">
     <g id="line2d_44">
      <g>
       <use xlink:href="#mfad4e4ab84" x="438.130256" y="317.72" style="stroke: #000000; stroke-width: 0.8"/>
      </g>
     </g>
     <g id="text_41">
      <!-- 1.0 -->
      <g transform="translate(430.178693 332.318437)scale(0.1 -0.1)">
       <use xlink:href="#DejaVuSans-31"/>
       <use xlink:href="#DejaVuSans-2e" x="63.623047"/>
       <use xlink:href="#DejaVuSans-30" x="95.410156"/>
      </g>
     </g>
    </g>
   </g>
   <g id="matplotlib.axis_8">
    <g id="ytick_15">
     <g id="line2d_45">
      <g>
       <use xlink:href="#m7e21d0dde1" x="258.64" y="312.30731" style="stroke: #000000; stroke-width: 0.8"/>
      </g>
     </g>
     <g id="text_42">
      <!-- 0.00 -->
      <g transform="translate(229.374375 316.106529)scale(0.1 -0.1)">
       <use xlink:href="#DejaVuSans-30"/>
       <use xlink:href="#DejaVuSans-2e" x="63.623047"/>
       <use xlink:href="#DejaVuSans-30" x="95.410156"/>
       <use xlink:href="#DejaVuSans-30" x="159.033203"/>
      </g>
     </g>
    </g>
    <g id="ytick_16">
     <g id="line2d_46">
      <g>
       <use xlink:href="#m7e21d0dde1" x="258.64" y="284.795922" style="stroke: #000000; stroke-width: 0.8"/>
      </g>
     </g>
     <g id="text_43">
      <!-- 0.25 -->
      <g transform="translate(229.374375 288.595141)scale(0.1 -0.1)">
       <use xlink:href="#DejaVuSans-30"/>
       <use xlink:href="#DejaVuSans-2e" x="63.623047"/>
       <use xlink:href="#DejaVuSans-32" x="95.410156"/>
       <use xlink:href="#DejaVuSans-35" x="159.033203"/>
      </g>
     </g>
    </g>
    <g id="ytick_17">
     <g id="line2d_47">
      <g>
       <use xlink:href="#m7e21d0dde1" x="258.64" y="257.284534" style="stroke: #000000; stroke-width: 0.8"/>
      </g>
     </g>
     <g id="text_44">
      <!-- 0.50 -->
      <g transform="translate(229.374375 261.083753)scale(0.1 -0.1)">
       <use xlink:href="#DejaVuSans-30"/>
       <use xlink:href="#DejaVuSans-2e" x="63.623047"/>
       <use xlink:href="#DejaVuSans-35" x="95.410156"/>
       <use xlink:href="#DejaVuSans-30" x="159.033203"/>
      </g>
     </g>
    </g>
    <g id="ytick_18">
     <g id="line2d_48">
      <g>
       <use xlink:href="#m7e21d0dde1" x="258.64" y="229.773146" style="stroke: #000000; stroke-width: 0.8"/>
      </g>
     </g>
     <g id="text_45">
      <!-- 0.75 -->
      <g transform="translate(229.374375 233.572364)scale(0.1 -0.1)">
       <use xlink:href="#DejaVuSans-30"/>
       <use xlink:href="#DejaVuSans-2e" x="63.623047"/>
       <use xlink:href="#DejaVuSans-37" x="95.410156"/>
       <use xlink:href="#DejaVuSans-35" x="159.033203"/>
      </g>
     </g>
    </g>
    <g id="ytick_19">
     <g id="line2d_49">
      <g>
       <use xlink:href="#m7e21d0dde1" x="258.64" y="202.261758" style="stroke: #000000; stroke-width: 0.8"/>
      </g>
     </g>
     <g id="text_46">
      <!-- 1.00 -->
      <g transform="translate(229.374375 206.060976)scale(0.1 -0.1)">
       <use xlink:href="#DejaVuSans-31"/>
       <use xlink:href="#DejaVuSans-2e" x="63.623047"/>
       <use xlink:href="#DejaVuSans-30" x="95.410156"/>
       <use xlink:href="#DejaVuSans-30" x="159.033203"/>
      </g>
     </g>
    </g>
   </g>
   <g id="line2d_50">
    <path d="M 266.978182 312.307273 
L 275.755307 312.305476 
L 284.53555 312.244635 
L 293.361787 311.31355 
L 302.436863 306.445395 
L 312.218143 294.448748 
L 323.447699 274.783016 
L 337.138035 249.482747 
L 353.387151 225.95981 
L 369.378771 208.851122 
L 380.93719 204.052727 
L 387.525175 205.409933 
L 391.842136 206.418922 
L 395.760206 207.042533 
L 399.882285 206.867228 
L 404.168053 217.979552 
L 409.327383 258.167142 
L 416.469715 303.334118 
L 424.972271 312.141 
L 433.741818 312.305924 
" clip-path="url(#p872721c751)" style="fill: none; stroke: #008000; stroke-width: 1.5; stroke-linecap: square"/>
   </g>
   <g id="line2d_51">
    <path d="M 381.092954 317.72 
L 381.092954 198.64 
" clip-path="url(#p872721c751)" style="fill: none; stroke: #1f77b4; stroke-width: 1.5; stroke-linecap: square"/>
   </g>
   <g id="LineCollection_4">
    <path d="M 262.589665 312.307286 
L 271.366699 312.307286 
" clip-path="url(#p872721c751)" style="fill: none; stroke: #0000ff; stroke-width: 2"/>
    <path d="M 271.366699 312.307286 
L 280.143916 312.307286 
" clip-path="url(#p872721c751)" style="fill: none; stroke: #0000ff; stroke-width: 2"/>
    <path d="M 280.143916 312.307286 
L 288.927185 312.307286 
" clip-path="url(#p872721c751)" style="fill: none; stroke: #0000ff; stroke-width: 2"/>
    <path d="M 288.927185 312.307286 
L 297.796389 312.307286 
" clip-path="url(#p872721c751)" style="fill: none; stroke: #0000ff; stroke-width: 2"/>
    <path d="M 297.796389 312.307286 
L 307.077336 312.307286 
" clip-path="url(#p872721c751)" style="fill: none; stroke: #0000ff; stroke-width: 2"/>
    <path d="M 307.077336 312.307286 
L 317.358949 312.307286 
" clip-path="url(#p872721c751)" style="fill: none; stroke: #0000ff; stroke-width: 2"/>
    <path d="M 317.358949 312.307286 
L 329.536448 312.307286 
" clip-path="url(#p872721c751)" style="fill: none; stroke: #0000ff; stroke-width: 2"/>
    <path d="M 329.536448 312.307286 
L 344.739622 312.307286 
" clip-path="url(#p872721c751)" style="fill: none; stroke: #0000ff; stroke-width: 2"/>
    <path d="M 344.739622 312.307286 
L 362.03468 312.307286 
" clip-path="url(#p872721c751)" style="fill: none; stroke: #00ff00; stroke-width: 2"/>
    <path d="M 362.03468 312.307286 
L 376.722863 312.307286 
" clip-path="url(#p872721c751)" style="fill: none; stroke: #00ff00; stroke-width: 2"/>
    <path d="M 376.722863 312.307286 
L 385.151517 312.307286 
" clip-path="url(#p872721c751)" style="fill: none; stroke: #ff8080; stroke-width: 2"/>
    <path d="M 385.151517 312.307286 
L 389.898833 312.307286 
" clip-path="url(#p872721c751)" style="fill: none; stroke: #00ff00; stroke-width: 2"/>
    <path d="M 389.898833 312.307286 
L 393.785439 312.307286 
" clip-path="url(#p872721c751)" style="fill: none; stroke: #00ff00; stroke-width: 2"/>
    <path d="M 393.785439 312.307286 
L 397.734973 312.307286 
" clip-path="url(#p872721c751)" style="fill: none; stroke: #0000ff; stroke-width: 2"/>
    <path d="M 397.734973 312.307286 
L 402.029596 312.307286 
" clip-path="url(#p872721c751)" style="fill: none; stroke: #0000ff; stroke-width: 2"/>
    <path d="M 402.029596 312.307286 
L 406.306509 312.307286 
" clip-path="url(#p872721c751)" style="fill: none; stroke: #0000ff; stroke-width: 2"/>
    <path d="M 406.306509 312.307286 
L 412.348257 312.307286 
" clip-path="url(#p872721c751)" style="fill: none; stroke: #0000ff; stroke-width: 2"/>
    <path d="M 412.348257 312.307286 
L 420.591173 312.307286 
" clip-path="url(#p872721c751)" style="fill: none; stroke: #0000ff; stroke-width: 2"/>
    <path d="M 420.591173 312.307286 
L 429.35337 312.307286 
" clip-path="url(#p872721c751)" style="fill: none; stroke: #0000ff; stroke-width: 2"/>
    <path d="M 429.35337 312.307286 
L 438.130267 312.307286 
" clip-path="url(#p872721c751)" style="fill: none; stroke: #0000ff; stroke-width: 2"/>
   </g>
   <g id="patch_18">
    <path d="M 258.64 317.72 
L 258.64 198.64 
" style="fill: none; stroke: #000000; stroke-width: 0.8; stroke-linejoin: miter; stroke-linecap: square"/>
   </g>
   <g id="patch_19">
    <path d="M 442.08 317.72 
L 442.08 198.64 
" style="fill: none; stroke: #000000; stroke-width: 0.8; stroke-linejoin: miter; stroke-linecap: square"/>
   </g>
   <g id="patch_20">
    <path d="M 258.64 317.72 
L 442.08 317.72 
" style="fill: none; stroke: #000000; stroke-width: 0.8; stroke-linejoin: miter; stroke-linecap: square"/>
   </g>
   <g id="patch_21">
    <path d="M 258.64 198.64 
L 442.08 198.64 
" style="fill: none; stroke: #000000; stroke-width: 0.8; stroke-linejoin: miter; stroke-linecap: square"/>
   </g>
   <g id="text_47">
    <!-- Velocity -->
    <g transform="translate(326.82125 192.64)scale(0.12 -0.12)">
     <defs>
      <path id="DejaVuSans-56" d="M 1831 0 
L 50 4666 
L 709 4666 
L 2188 738 
L 3669 4666 
L 4325 4666 
L 2547 0 
L 1831 0 
z
" transform="scale(0.015625)"/>
      <path id="DejaVuSans-6f" d="M 1959 3097 
Q 1497 3097 1228 2736 
Q 959 2375 959 1747 
Q 959 1119 1226 758 
Q 1494 397 1959 397 
Q 2419 397 2687 759 
Q 2956 1122 2956 1747 
Q 2956 2369 2687 2733 
Q 2419 3097 1959 3097 
z
M 1959 3584 
Q 2709 3584 3137 3096 
Q 3566 2609 3566 1747 
Q 3566 888 3137 398 
Q 2709 -91 1959 -91 
Q 1206 -91 779 398 
Q 353 888 353 1747 
Q 353 2609 779 3096 
Q 1206 3584 1959 3584 
z
" transform="scale(0.015625)"/>
      <path id="DejaVuSans-63" d="M 3122 3366 
L 3122 2828 
Q 2878 2963 2633 3030 
Q 2388 3097 2138 3097 
Q 1578 3097 1268 2742 
Q 959 2388 959 1747 
Q 959 1106 1268 751 
Q 1578 397 2138 397 
Q 2388 397 2633 464 
Q 2878 531 3122 666 
L 3122 134 
Q 2881 22 2623 -34 
Q 2366 -91 2075 -91 
Q 1284 -91 818 406 
Q 353 903 353 1747 
Q 353 2603 823 3093 
Q 1294 3584 2113 3584 
Q 2378 3584 2631 3529 
Q 2884 3475 3122 3366 
z
" transform="scale(0.015625)"/>
     </defs>
     <use xlink:href="#DejaVuSans-56"/>
     <use xlink:href="#DejaVuSans-65" x="60.658203"/>
     <use xlink:href="#DejaVuSans-6c" x="122.181641"/>
     <use xlink:href="#DejaVuSans-6f" x="149.964844"/>
     <use xlink:href="#DejaVuSans-63" x="211.146484"/>
     <use xlink:href="#DejaVuSans-69" x="266.126953"/>
     <use xlink:href="#DejaVuSans-74" x="293.910156"/>
     <use xlink:href="#DejaVuSans-79" x="333.119141"/>
    </g>
   </g>
  </g>
  <g id="text_48">
   <!-- Elapsed time = 0.2 -->
   <g transform="translate(172.98375 16.030125)scale(0.12 -0.12)">
    <defs>
     <path id="DejaVuSans-45" d="M 628 4666 
L 3578 4666 
L 3578 4134 
L 1259 4134 
L 1259 2753 
L 3481 2753 
L 3481 2222 
L 1259 2222 
L 1259 531 
L 3634 531 
L 3634 0 
L 628 0 
L 628 4666 
z
" transform="scale(0.015625)"/>
     <path id="DejaVuSans-70" d="M 1159 525 
L 1159 -1331 
L 581 -1331 
L 581 3500 
L 1159 3500 
L 1159 2969 
Q 1341 3281 1617 3432 
Q 1894 3584 2278 3584 
Q 2916 3584 3314 3078 
Q 3713 2572 3713 1747 
Q 3713 922 3314 415 
Q 2916 -91 2278 -91 
Q 1894 -91 1617 61 
Q 1341 213 1159 525 
z
M 3116 1747 
Q 3116 2381 2855 2742 
Q 2594 3103 2138 3103 
Q 1681 3103 1420 2742 
Q 1159 2381 1159 1747 
Q 1159 1113 1420 752 
Q 1681 391 2138 391 
Q 2594 391 2855 752 
Q 3116 1113 3116 1747 
z
" transform="scale(0.015625)"/>
     <path id="DejaVuSans-64" d="M 2906 2969 
L 2906 4863 
L 3481 4863 
L 3481 0 
L 2906 0 
L 2906 525 
Q 2725 213 2448 61 
Q 2172 -91 1784 -91 
Q 1150 -91 751 415 
Q 353 922 353 1747 
Q 353 2572 751 3078 
Q 1150 3584 1784 3584 
Q 2172 3584 2448 3432 
Q 2725 3281 2906 2969 
z
M 947 1747 
Q 947 1113 1208 752 
Q 1469 391 1925 391 
Q 2381 391 2643 752 
Q 2906 1113 2906 1747 
Q 2906 2381 2643 2742 
Q 2381 3103 1925 3103 
Q 1469 3103 1208 2742 
Q 947 2381 947 1747 
z
" transform="scale(0.015625)"/>
     <path id="DejaVuSans-6d" d="M 3328 2828 
Q 3544 3216 3844 3400 
Q 4144 3584 4550 3584 
Q 5097 3584 5394 3201 
Q 5691 2819 5691 2113 
L 5691 0 
L 5113 0 
L 5113 2094 
Q 5113 2597 4934 2840 
Q 4756 3084 4391 3084 
Q 3944 3084 3684 2787 
Q 3425 2491 3425 1978 
L 3425 0 
L 2847 0 
L 2847 2094 
Q 2847 2600 2669 2842 
Q 2491 3084 2119 3084 
Q 1678 3084 1418 2786 
Q 1159 2488 1159 1978 
L 1159 0 
L 581 0 
L 581 3500 
L 1159 3500 
L 1159 2956 
Q 1356 3278 1631 3431 
Q 1906 3584 2284 3584 
Q 2666 3584 2933 3390 
Q 3200 3197 3328 2828 
z
" transform="scale(0.015625)"/>
     <path id="DejaVuSans-3d" d="M 678 2906 
L 4684 2906 
L 4684 2381 
L 678 2381 
L 678 2906 
z
M 678 1631 
L 4684 1631 
L 4684 1100 
L 678 1100 
L 678 1631 
z
" transform="scale(0.015625)"/>
    </defs>
    <use xlink:href="#DejaVuSans-45"/>
    <use xlink:href="#DejaVuSans-6c" x="63.183594"/>
    <use xlink:href="#DejaVuSans-61" x="90.966797"/>
    <use xlink:href="#DejaVuSans-70" x="152.246094"/>
    <use xlink:href="#DejaVuSans-73" x="215.722656"/>
    <use xlink:href="#DejaVuSans-65" x="267.822266"/>
    <use xlink:href="#DejaVuSans-64" x="329.345703"/>
    <use xlink:href="#DejaVuSans-20" x="392.822266"/>
    <use xlink:href="#DejaVuSans-74" x="424.609375"/>
    <use xlink:href="#DejaVuSans-69" x="463.818359"/>
    <use xlink:href="#DejaVuSans-6d" x="491.601562"/>
    <use xlink:href="#DejaVuSans-65" x="589.013672"/>
    <use xlink:href="#DejaVuSans-20" x="650.537109"/>
    <use xlink:href="#DejaVuSans-3d" x="682.324219"/>
    <use xlink:href="#DejaVuSans-20" x="766.113281"/>
    <use xlink:href="#DejaVuSans-30" x="797.900391"/>
    <use xlink:href="#DejaVuSans-2e" x="861.523438"/>
    <use xlink:href="#DejaVuSans-32" x="893.310547"/>
   </g>
  </g>
 </g>
 <defs>
  <clipPath id="pa999941ea7">
   <rect x="33.64" y="38.52" width="183.44" height="119.08"/>
  </clipPath>
  <clipPath id="pbd1f37dd0b">
   <rect x="258.64" y="38.52" width="183.44" height="119.08"/>
  </clipPath>
  <clipPath id="p9eb4e898be">
   <rect x="33.64" y="198.64" width="183.44" height="119.08"/>
  </clipPath>
  <clipPath id="p872721c751">
   <rect x="258.64" y="198.64" width="183.44" height="119.08"/>
  </clipPath>
 </defs>
</svg>
