<?xml version="1.0" encoding="utf-8" standalone="no"?>
<!DOCTYPE svg PUBLIC "-//W3C//DTD SVG 1.1//EN"
  "http://www.w3.org/Graphics/SVG/1.1/DTD/svg11.dtd">
<svg xmlns:xlink="http://www.w3.org/1999/xlink" width="460.8pt" height="345.6pt" viewBox="0 0 460.8 345.6" xmlns="http://www.w3.org/2000/svg" version="1.1">
 <metadata>
  <rdf:RDF xmlns:dc="http://purl.org/dc/elements/1.1/" xmlns:cc="http://creativecommons.org/ns#" xmlns:rdf="http://www.w3.org/1999/02/22-rdf-syntax-ns#">
   <cc:Work>
    <dc:type rdf:resource="http://purl.org/dc/dcmitype/StillImage"/>
    <dc:date>2023-08-02T07:42:44.368416</dc:date>
    <dc:format>image/svg+xml</dc:format>
    <dc:creator>
     <cc:Agent>
      <dc:title>Matplotlib v3.5.2, https://matplotlib.org/</dc:title>
     </cc:Agent>
    </dc:creator>
   </cc:Work>
  </rdf:RDF>
 </metadata>
 <defs>
  <style type="text/css">*{stroke-linejoin: round; stroke-linecap: butt}</style>
 </defs>
 <g id="figure_1">
  <g id="patch_1">
   <path d="M 0 345.6 
L 460.8 345.6 
L 460.8 0 
L 0 0 
z
" style="fill: #ffffff"/>
  </g>
  <g id="axes_1">
   <g id="patch_2">
    <path d="M 57.6 307.584 
L 414.72 307.584 
L 414.72 41.472 
L 57.6 41.472 
z
" style="fill: #ffffff"/>
   </g>
   <g id="PathCollection_1">
    <defs>
     <path id="m8e96b4a5a1" d="M 0 3 
C 0.795609 3 1.55874 2.683901 2.12132 2.12132 
C 2.683901 1.55874 3 0.795609 3 0 
C 3 -0.795609 2.683901 -1.55874 2.12132 -2.12132 
C 1.55874 -2.683901 0.795609 -3 0 -3 
C -0.795609 -3 -1.55874 -2.683901 -2.12132 -2.12132 
C -2.683901 -1.55874 -3 -0.795609 -3 0 
C -3 0.795609 -2.683901 1.55874 -2.12132 2.12132 
C -1.55874 2.683901 -0.795609 3 0 3 
z
" style="stroke: #228b22"/>
    </defs>
    <g clip-path="url(#pf8cbbea6a4)">
     <use xlink:href="#m8e96b4a5a1" x="74.853654" y="92.882139" style="fill: #228b22; stroke: #228b22"/>
     <use xlink:href="#m8e96b4a5a1" x="76.895506" y="90.904495" style="fill: #228b22; stroke: #228b22"/>
     <use xlink:href="#m8e96b4a5a1" x="78.937358" y="88.977887" style="fill: #228b22; stroke: #228b22"/>
     <use xlink:href="#m8e96b4a5a1" x="80.979211" y="87.102315" style="fill: #228b22; stroke: #228b22"/>
     <use xlink:href="#m8e96b4a5a1" x="83.021063" y="85.277779" style="fill: #228b22; stroke: #228b22"/>
     <use xlink:href="#m8e96b4a5a1" x="85.062916" y="83.504279" style="fill: #228b22; stroke: #228b22"/>
     <use xlink:href="#m8e96b4a5a1" x="87.104768" y="81.781815" style="fill: #228b22; stroke: #228b22"/>
     <use xlink:href="#m8e96b4a5a1" x="89.146621" y="80.110387" style="fill: #228b22; stroke: #228b22"/>
     <use xlink:href="#m8e96b4a5a1" x="91.188473" y="78.489995" style="fill: #228b22; stroke: #228b22"/>
     <use xlink:href="#m8e96b4a5a1" x="93.230326" y="76.920639" style="fill: #228b22; stroke: #228b22"/>
     <use xlink:href="#m8e96b4a5a1" x="95.272178" y="75.402318" style="fill: #228b22; stroke: #228b22"/>
     <use xlink:href="#m8e96b4a5a1" x="97.314031" y="73.935034" style="fill: #228b22; stroke: #228b22"/>
     <use xlink:href="#m8e96b4a5a1" x="99.355883" y="72.518786" style="fill: #228b22; stroke: #228b22"/>
     <use xlink:href="#m8e96b4a5a1" x="101.397736" y="71.153574" style="fill: #228b22; stroke: #228b22"/>
     <use xlink:href="#m8e96b4a5a1" x="103.439588" y="69.839397" style="fill: #228b22; stroke: #228b22"/>
     <use xlink:href="#m8e96b4a5a1" x="105.481441" y="68.576257" style="fill: #228b22; stroke: #228b22"/>
     <use xlink:href="#m8e96b4a5a1" x="107.523293" y="67.364153" style="fill: #228b22; stroke: #228b22"/>
     <use xlink:href="#m8e96b4a5a1" x="109.565146" y="66.203084" style="fill: #228b22; stroke: #228b22"/>
     <use xlink:href="#m8e96b4a5a1" x="111.606998" y="65.093052" style="fill: #228b22; stroke: #228b22"/>
     <use xlink:href="#m8e96b4a5a1" x="113.648851" y="64.034055" style="fill: #228b22; stroke: #228b22"/>
     <use xlink:href="#m8e96b4a5a1" x="115.690703" y="63.026095" style="fill: #228b22; stroke: #228b22"/>
     <use xlink:href="#m8e96b4a5a1" x="117.732556" y="62.06917" style="fill: #228b22; stroke: #228b22"/>
     <use xlink:href="#m8e96b4a5a1" x="119.774408" y="61.163282" style="fill: #228b22; stroke: #228b22"/>
     <use xlink:href="#m8e96b4a5a1" x="121.816261" y="60.308429" style="fill: #228b22; stroke: #228b22"/>
     <use xlink:href="#m8e96b4a5a1" x="123.858113" y="59.504613" style="fill: #228b22; stroke: #228b22"/>
     <use xlink:href="#m8e96b4a5a1" x="125.899966" y="58.751832" style="fill: #228b22; stroke: #228b22"/>
     <use xlink:href="#m8e96b4a5a1" x="127.941818" y="58.050088" style="fill: #228b22; stroke: #228b22"/>
     <use xlink:href="#m8e96b4a5a1" x="129.983671" y="57.399379" style="fill: #228b22; stroke: #228b22"/>
     <use xlink:href="#m8e96b4a5a1" x="132.025523" y="56.799706" style="fill: #228b22; stroke: #228b22"/>
     <use xlink:href="#m8e96b4a5a1" x="134.067376" y="56.25107" style="fill: #228b22; stroke: #228b22"/>
     <use xlink:href="#m8e96b4a5a1" x="136.109228" y="55.753469" style="fill: #228b22; stroke: #228b22"/>
     <use xlink:href="#m8e96b4a5a1" x="138.151081" y="55.306904" style="fill: #228b22; stroke: #228b22"/>
     <use xlink:href="#m8e96b4a5a1" x="140.192933" y="54.911375" style="fill: #228b22; stroke: #228b22"/>
     <use xlink:href="#m8e96b4a5a1" x="142.234786" y="54.566882" style="fill: #228b22; stroke: #228b22"/>
     <use xlink:href="#m8e96b4a5a1" x="144.276638" y="54.273426" style="fill: #228b22; stroke: #228b22"/>
     <use xlink:href="#m8e96b4a5a1" x="146.318491" y="54.031005" style="fill: #228b22; stroke: #228b22"/>
     <use xlink:href="#m8e96b4a5a1" x="148.360343" y="53.83962" style="fill: #228b22; stroke: #228b22"/>
     <use xlink:href="#m8e96b4a5a1" x="150.402196" y="53.699271" style="fill: #228b22; stroke: #228b22"/>
     <use xlink:href="#m8e96b4a5a1" x="152.444048" y="53.609958" style="fill: #228b22; stroke: #228b22"/>
     <use xlink:href="#m8e96b4a5a1" x="154.485901" y="53.571681" style="fill: #228b22; stroke: #228b22"/>
     <use xlink:href="#m8e96b4a5a1" x="156.527753" y="53.58444" style="fill: #228b22; stroke: #228b22"/>
     <use xlink:href="#m8e96b4a5a1" x="158.569605" y="53.648235" style="fill: #228b22; stroke: #228b22"/>
     <use xlink:href="#m8e96b4a5a1" x="160.611458" y="53.763066" style="fill: #228b22; stroke: #228b22"/>
     <use xlink:href="#m8e96b4a5a1" x="162.65331" y="53.928933" style="fill: #228b22; stroke: #228b22"/>
     <use xlink:href="#m8e96b4a5a1" x="164.695163" y="54.145836" style="fill: #228b22; stroke: #228b22"/>
     <use xlink:href="#m8e96b4a5a1" x="166.737015" y="54.413775" style="fill: #228b22; stroke: #228b22"/>
     <use xlink:href="#m8e96b4a5a1" x="168.778868" y="54.732749" style="fill: #228b22; stroke: #228b22"/>
     <use xlink:href="#m8e96b4a5a1" x="170.82072" y="55.10276" style="fill: #228b22; stroke: #228b22"/>
     <use xlink:href="#m8e96b4a5a1" x="172.862573" y="55.523807" style="fill: #228b22; stroke: #228b22"/>
     <use xlink:href="#m8e96b4a5a1" x="174.904425" y="55.99589" style="fill: #228b22; stroke: #228b22"/>
     <use xlink:href="#m8e96b4a5a1" x="176.946278" y="56.519008" style="fill: #228b22; stroke: #228b22"/>
     <use xlink:href="#m8e96b4a5a1" x="178.98813" y="57.093163" style="fill: #228b22; stroke: #228b22"/>
     <use xlink:href="#m8e96b4a5a1" x="181.029983" y="57.718354" style="fill: #228b22; stroke: #228b22"/>
     <use xlink:href="#m8e96b4a5a1" x="183.071835" y="58.39458" style="fill: #228b22; stroke: #228b22"/>
     <use xlink:href="#m8e96b4a5a1" x="185.113688" y="59.121843" style="fill: #228b22; stroke: #228b22"/>
     <use xlink:href="#m8e96b4a5a1" x="187.15554" y="59.900142" style="fill: #228b22; stroke: #228b22"/>
     <use xlink:href="#m8e96b4a5a1" x="189.197393" y="60.729476" style="fill: #228b22; stroke: #228b22"/>
     <use xlink:href="#m8e96b4a5a1" x="191.239245" y="61.609847" style="fill: #228b22; stroke: #228b22"/>
     <use xlink:href="#m8e96b4a5a1" x="193.281098" y="62.541253" style="fill: #228b22; stroke: #228b22"/>
     <use xlink:href="#m8e96b4a5a1" x="195.32295" y="63.523696" style="fill: #228b22; stroke: #228b22"/>
     <use xlink:href="#m8e96b4a5a1" x="197.364803" y="64.557174" style="fill: #228b22; stroke: #228b22"/>
     <use xlink:href="#m8e96b4a5a1" x="199.406655" y="65.641689" style="fill: #228b22; stroke: #228b22"/>
     <use xlink:href="#m8e96b4a5a1" x="201.448508" y="66.777239" style="fill: #228b22; stroke: #228b22"/>
     <use xlink:href="#m8e96b4a5a1" x="203.49036" y="67.963825" style="fill: #228b22; stroke: #228b22"/>
     <use xlink:href="#m8e96b4a5a1" x="205.532213" y="69.201448" style="fill: #228b22; stroke: #228b22"/>
     <use xlink:href="#m8e96b4a5a1" x="207.574065" y="70.490106" style="fill: #228b22; stroke: #228b22"/>
     <use xlink:href="#m8e96b4a5a1" x="209.615918" y="71.8298" style="fill: #228b22; stroke: #228b22"/>
     <use xlink:href="#m8e96b4a5a1" x="211.65777" y="73.220531" style="fill: #228b22; stroke: #228b22"/>
     <use xlink:href="#m8e96b4a5a1" x="213.699623" y="74.662297" style="fill: #228b22; stroke: #228b22"/>
     <use xlink:href="#m8e96b4a5a1" x="215.741475" y="76.155099" style="fill: #228b22; stroke: #228b22"/>
     <use xlink:href="#m8e96b4a5a1" x="217.783328" y="77.698937" style="fill: #228b22; stroke: #228b22"/>
     <use xlink:href="#m8e96b4a5a1" x="219.82518" y="79.293811" style="fill: #228b22; stroke: #228b22"/>
     <use xlink:href="#m8e96b4a5a1" x="221.867033" y="80.939721" style="fill: #228b22; stroke: #228b22"/>
     <use xlink:href="#m8e96b4a5a1" x="223.908885" y="82.636668" style="fill: #228b22; stroke: #228b22"/>
     <use xlink:href="#m8e96b4a5a1" x="225.950738" y="84.38465" style="fill: #228b22; stroke: #228b22"/>
     <use xlink:href="#m8e96b4a5a1" x="227.99259" y="86.183668" style="fill: #228b22; stroke: #228b22"/>
     <use xlink:href="#m8e96b4a5a1" x="230.034443" y="88.033722" style="fill: #228b22; stroke: #228b22"/>
     <use xlink:href="#m8e96b4a5a1" x="232.076295" y="89.934812" style="fill: #228b22; stroke: #228b22"/>
     <use xlink:href="#m8e96b4a5a1" x="234.118148" y="91.886938" style="fill: #228b22; stroke: #228b22"/>
     <use xlink:href="#m8e96b4a5a1" x="236.16" y="174.528" style="fill: #228b22; stroke: #228b22"/>
     <use xlink:href="#m8e96b4a5a1" x="238.201852" y="257.169062" style="fill: #228b22; stroke: #228b22"/>
     <use xlink:href="#m8e96b4a5a1" x="240.243705" y="259.121188" style="fill: #228b22; stroke: #228b22"/>
     <use xlink:href="#m8e96b4a5a1" x="242.285557" y="261.022278" style="fill: #228b22; stroke: #228b22"/>
     <use xlink:href="#m8e96b4a5a1" x="244.32741" y="262.872332" style="fill: #228b22; stroke: #228b22"/>
     <use xlink:href="#m8e96b4a5a1" x="246.369262" y="264.67135" style="fill: #228b22; stroke: #228b22"/>
     <use xlink:href="#m8e96b4a5a1" x="248.411115" y="266.419332" style="fill: #228b22; stroke: #228b22"/>
     <use xlink:href="#m8e96b4a5a1" x="250.452967" y="268.116279" style="fill: #228b22; stroke: #228b22"/>
     <use xlink:href="#m8e96b4a5a1" x="252.49482" y="269.762189" style="fill: #228b22; stroke: #228b22"/>
     <use xlink:href="#m8e96b4a5a1" x="254.536672" y="271.357063" style="fill: #228b22; stroke: #228b22"/>
     <use xlink:href="#m8e96b4a5a1" x="256.578525" y="272.900901" style="fill: #228b22; stroke: #228b22"/>
     <use xlink:href="#m8e96b4a5a1" x="258.620377" y="274.393703" style="fill: #228b22; stroke: #228b22"/>
     <use xlink:href="#m8e96b4a5a1" x="260.66223" y="275.835469" style="fill: #228b22; stroke: #228b22"/>
     <use xlink:href="#m8e96b4a5a1" x="262.704082" y="277.2262" style="fill: #228b22; stroke: #228b22"/>
     <use xlink:href="#m8e96b4a5a1" x="264.745935" y="278.565894" style="fill: #228b22; stroke: #228b22"/>
     <use xlink:href="#m8e96b4a5a1" x="266.787787" y="279.854552" style="fill: #228b22; stroke: #228b22"/>
     <use xlink:href="#m8e96b4a5a1" x="268.82964" y="281.092175" style="fill: #228b22; stroke: #228b22"/>
     <use xlink:href="#m8e96b4a5a1" x="270.871492" y="282.278761" style="fill: #228b22; stroke: #228b22"/>
     <use xlink:href="#m8e96b4a5a1" x="272.913345" y="283.414311" style="fill: #228b22; stroke: #228b22"/>
     <use xlink:href="#m8e96b4a5a1" x="274.955197" y="284.498826" style="fill: #228b22; stroke: #228b22"/>
     <use xlink:href="#m8e96b4a5a1" x="276.99705" y="285.532304" style="fill: #228b22; stroke: #228b22"/>
     <use xlink:href="#m8e96b4a5a1" x="279.038902" y="286.514747" style="fill: #228b22; stroke: #228b22"/>
     <use xlink:href="#m8e96b4a5a1" x="281.080755" y="287.446153" style="fill: #228b22; stroke: #228b22"/>
     <use xlink:href="#m8e96b4a5a1" x="283.122607" y="288.326524" style="fill: #228b22; stroke: #228b22"/>
     <use xlink:href="#m8e96b4a5a1" x="285.16446" y="289.155858" style="fill: #228b22; stroke: #228b22"/>
     <use xlink:href="#m8e96b4a5a1" x="287.206312" y="289.934157" style="fill: #228b22; stroke: #228b22"/>
     <use xlink:href="#m8e96b4a5a1" x="289.248165" y="290.66142" style="fill: #228b22; stroke: #228b22"/>
     <use xlink:href="#m8e96b4a5a1" x="291.290017" y="291.337646" style="fill: #228b22; stroke: #228b22"/>
     <use xlink:href="#m8e96b4a5a1" x="293.33187" y="291.962837" style="fill: #228b22; stroke: #228b22"/>
     <use xlink:href="#m8e96b4a5a1" x="295.373722" y="292.536992" style="fill: #228b22; stroke: #228b22"/>
     <use xlink:href="#m8e96b4a5a1" x="297.415575" y="293.06011" style="fill: #228b22; stroke: #228b22"/>
     <use xlink:href="#m8e96b4a5a1" x="299.457427" y="293.532193" style="fill: #228b22; stroke: #228b22"/>
     <use xlink:href="#m8e96b4a5a1" x="301.49928" y="293.95324" style="fill: #228b22; stroke: #228b22"/>
     <use xlink:href="#m8e96b4a5a1" x="303.541132" y="294.323251" style="fill: #228b22; stroke: #228b22"/>
     <use xlink:href="#m8e96b4a5a1" x="305.582985" y="294.642225" style="fill: #228b22; stroke: #228b22"/>
     <use xlink:href="#m8e96b4a5a1" x="307.624837" y="294.910164" style="fill: #228b22; stroke: #228b22"/>
     <use xlink:href="#m8e96b4a5a1" x="309.66669" y="295.127067" style="fill: #228b22; stroke: #228b22"/>
     <use xlink:href="#m8e96b4a5a1" x="311.708542" y="295.292934" style="fill: #228b22; stroke: #228b22"/>
     <use xlink:href="#m8e96b4a5a1" x="313.750395" y="295.407765" style="fill: #228b22; stroke: #228b22"/>
     <use xlink:href="#m8e96b4a5a1" x="315.792247" y="295.47156" style="fill: #228b22; stroke: #228b22"/>
     <use xlink:href="#m8e96b4a5a1" x="317.834099" y="295.484319" style="fill: #228b22; stroke: #228b22"/>
     <use xlink:href="#m8e96b4a5a1" x="319.875952" y="295.446042" style="fill: #228b22; stroke: #228b22"/>
     <use xlink:href="#m8e96b4a5a1" x="321.917804" y="295.356729" style="fill: #228b22; stroke: #228b22"/>
     <use xlink:href="#m8e96b4a5a1" x="323.959657" y="295.21638" style="fill: #228b22; stroke: #228b22"/>
     <use xlink:href="#m8e96b4a5a1" x="326.001509" y="295.024995" style="fill: #228b22; stroke: #228b22"/>
     <use xlink:href="#m8e96b4a5a1" x="328.043362" y="294.782574" style="fill: #228b22; stroke: #228b22"/>
     <use xlink:href="#m8e96b4a5a1" x="330.085214" y="294.489118" style="fill: #228b22; stroke: #228b22"/>
     <use xlink:href="#m8e96b4a5a1" x="332.127067" y="294.144625" style="fill: #228b22; stroke: #228b22"/>
     <use xlink:href="#m8e96b4a5a1" x="334.168919" y="293.749096" style="fill: #228b22; stroke: #228b22"/>
     <use xlink:href="#m8e96b4a5a1" x="336.210772" y="293.302531" style="fill: #228b22; stroke: #228b22"/>
     <use xlink:href="#m8e96b4a5a1" x="338.252624" y="292.80493" style="fill: #228b22; stroke: #228b22"/>
     <use xlink:href="#m8e96b4a5a1" x="340.294477" y="292.256294" style="fill: #228b22; stroke: #228b22"/>
     <use xlink:href="#m8e96b4a5a1" x="342.336329" y="291.656621" style="fill: #228b22; stroke: #228b22"/>
     <use xlink:href="#m8e96b4a5a1" x="344.378182" y="291.005912" style="fill: #228b22; stroke: #228b22"/>
     <use xlink:href="#m8e96b4a5a1" x="346.420034" y="290.304168" style="fill: #228b22; stroke: #228b22"/>
     <use xlink:href="#m8e96b4a5a1" x="348.461887" y="289.551387" style="fill: #228b22; stroke: #228b22"/>
     <use xlink:href="#m8e96b4a5a1" x="350.503739" y="288.747571" style="fill: #228b22; stroke: #228b22"/>
     <use xlink:href="#m8e96b4a5a1" x="352.545592" y="287.892718" style="fill: #228b22; stroke: #228b22"/>
     <use xlink:href="#m8e96b4a5a1" x="354.587444" y="286.98683" style="fill: #228b22; stroke: #228b22"/>
     <use xlink:href="#m8e96b4a5a1" x="356.629297" y="286.029905" style="fill: #228b22; stroke: #228b22"/>
     <use xlink:href="#m8e96b4a5a1" x="358.671149" y="285.021945" style="fill: #228b22; stroke: #228b22"/>
     <use xlink:href="#m8e96b4a5a1" x="360.713002" y="283.962948" style="fill: #228b22; stroke: #228b22"/>
     <use xlink:href="#m8e96b4a5a1" x="362.754854" y="282.852916" style="fill: #228b22; stroke: #228b22"/>
     <use xlink:href="#m8e96b4a5a1" x="364.796707" y="281.691847" style="fill: #228b22; stroke: #228b22"/>
     <use xlink:href="#m8e96b4a5a1" x="366.838559" y="280.479743" style="fill: #228b22; stroke: #228b22"/>
     <use xlink:href="#m8e96b4a5a1" x="368.880412" y="279.216603" style="fill: #228b22; stroke: #228b22"/>
     <use xlink:href="#m8e96b4a5a1" x="370.922264" y="277.902426" style="fill: #228b22; stroke: #228b22"/>
     <use xlink:href="#m8e96b4a5a1" x="372.964117" y="276.537214" style="fill: #228b22; stroke: #228b22"/>
     <use xlink:href="#m8e96b4a5a1" x="375.005969" y="275.120966" style="fill: #228b22; stroke: #228b22"/>
     <use xlink:href="#m8e96b4a5a1" x="377.047822" y="273.653682" style="fill: #228b22; stroke: #228b22"/>
     <use xlink:href="#m8e96b4a5a1" x="379.089674" y="272.135361" style="fill: #228b22; stroke: #228b22"/>
     <use xlink:href="#m8e96b4a5a1" x="381.131527" y="270.566005" style="fill: #228b22; stroke: #228b22"/>
     <use xlink:href="#m8e96b4a5a1" x="383.173379" y="268.945613" style="fill: #228b22; stroke: #228b22"/>
     <use xlink:href="#m8e96b4a5a1" x="385.215232" y="267.274185" style="fill: #228b22; stroke: #228b22"/>
     <use xlink:href="#m8e96b4a5a1" x="387.257084" y="265.551721" style="fill: #228b22; stroke: #228b22"/>
     <use xlink:href="#m8e96b4a5a1" x="389.298937" y="263.778221" style="fill: #228b22; stroke: #228b22"/>
     <use xlink:href="#m8e96b4a5a1" x="391.340789" y="261.953685" style="fill: #228b22; stroke: #228b22"/>
     <use xlink:href="#m8e96b4a5a1" x="393.382642" y="260.078113" style="fill: #228b22; stroke: #228b22"/>
     <use xlink:href="#m8e96b4a5a1" x="395.424494" y="258.151505" style="fill: #228b22; stroke: #228b22"/>
     <use xlink:href="#m8e96b4a5a1" x="397.466346" y="256.173861" style="fill: #228b22; stroke: #228b22"/>
    </g>
   </g>
   <g id="matplotlib.axis_1">
    <g id="xtick_1">
     <g id="line2d_1">
      <defs>
       <path id="m67d104d0c8" d="M 0 0 
L 0 3.5 
" style="stroke: #000000; stroke-width: 0.8"/>
      </defs>
      <g>
       <use xlink:href="#m67d104d0c8" x="73.832727" y="307.584" style="stroke: #000000; stroke-width: 0.8"/>
      </g>
     </g>
     <g id="text_1">
      <!-- −1.00 -->
      <g transform="translate(58.510071 322.182437)scale(0.1 -0.1)">
       <defs>
        <path id="DejaVuSans-2212" d="M 678 2272 
L 4684 2272 
L 4684 1741 
L 678 1741 
L 678 2272 
z
" transform="scale(0.015625)"/>
        <path id="DejaVuSans-31" d="M 794 531 
L 1825 531 
L 1825 4091 
L 703 3866 
L 703 4441 
L 1819 4666 
L 2450 4666 
L 2450 531 
L 3481 531 
L 3481 0 
L 794 0 
L 794 531 
z
" transform="scale(0.015625)"/>
        <path id="DejaVuSans-2e" d="M 684 794 
L 1344 794 
L 1344 0 
L 684 0 
L 684 794 
z
" transform="scale(0.015625)"/>
        <path id="DejaVuSans-30" d="M 2034 4250 
Q 1547 4250 1301 3770 
Q 1056 3291 1056 2328 
Q 1056 1369 1301 889 
Q 1547 409 2034 409 
Q 2525 409 2770 889 
Q 3016 1369 3016 2328 
Q 3016 3291 2770 3770 
Q 2525 4250 2034 4250 
z
M 2034 4750 
Q 2819 4750 3233 4129 
Q 3647 3509 3647 2328 
Q 3647 1150 3233 529 
Q 2819 -91 2034 -91 
Q 1250 -91 836 529 
Q 422 1150 422 2328 
Q 422 3509 836 4129 
Q 1250 4750 2034 4750 
z
" transform="scale(0.015625)"/>
       </defs>
       <use xlink:href="#DejaVuSans-2212"/>
       <use xlink:href="#DejaVuSans-31" x="83.789062"/>
       <use xlink:href="#DejaVuSans-2e" x="147.412109"/>
       <use xlink:href="#DejaVuSans-30" x="179.199219"/>
       <use xlink:href="#DejaVuSans-30" x="242.822266"/>
      </g>
     </g>
    </g>
    <g id="xtick_2">
     <g id="line2d_2">
      <g>
       <use xlink:href="#m67d104d0c8" x="114.414545" y="307.584" style="stroke: #000000; stroke-width: 0.8"/>
      </g>
     </g>
     <g id="text_2">
      <!-- −0.75 -->
      <g transform="translate(99.091889 322.182437)scale(0.1 -0.1)">
       <defs>
        <path id="DejaVuSans-37" d="M 525 4666 
L 3525 4666 
L 3525 4397 
L 1831 0 
L 1172 0 
L 2766 4134 
L 525 4134 
L 525 4666 
z
" transform="scale(0.015625)"/>
        <path id="DejaVuSans-35" d="M 691 4666 
L 3169 4666 
L 3169 4134 
L 1269 4134 
L 1269 2991 
Q 1406 3038 1543 3061 
Q 1681 3084 1819 3084 
Q 2600 3084 3056 2656 
Q 3513 2228 3513 1497 
Q 3513 744 3044 326 
Q 2575 -91 1722 -91 
Q 1428 -91 1123 -41 
Q 819 9 494 109 
L 494 744 
Q 775 591 1075 516 
Q 1375 441 1709 441 
Q 2250 441 2565 725 
Q 2881 1009 2881 1497 
Q 2881 1984 2565 2268 
Q 2250 2553 1709 2553 
Q 1456 2553 1204 2497 
Q 953 2441 691 2322 
L 691 4666 
z
" transform="scale(0.015625)"/>
       </defs>
       <use xlink:href="#DejaVuSans-2212"/>
       <use xlink:href="#DejaVuSans-30" x="83.789062"/>
       <use xlink:href="#DejaVuSans-2e" x="147.412109"/>
       <use xlink:href="#DejaVuSans-37" x="179.199219"/>
       <use xlink:href="#DejaVuSans-35" x="242.822266"/>
      </g>
     </g>
    </g>
    <g id="xtick_3">
     <g id="line2d_3">
      <g>
       <use xlink:href="#m67d104d0c8" x="154.996364" y="307.584" style="stroke: #000000; stroke-width: 0.8"/>
      </g>
     </g>
     <g id="text_3">
      <!-- −0.50 -->
      <g transform="translate(139.673707 322.182437)scale(0.1 -0.1)">
       <use xlink:href="#DejaVuSans-2212"/>
       <use xlink:href="#DejaVuSans-30" x="83.789062"/>
       <use xlink:href="#DejaVuSans-2e" x="147.412109"/>
       <use xlink:href="#DejaVuSans-35" x="179.199219"/>
       <use xlink:href="#DejaVuSans-30" x="242.822266"/>
      </g>
     </g>
    </g>
    <g id="xtick_4">
     <g id="line2d_4">
      <g>
       <use xlink:href="#m67d104d0c8" x="195.578182" y="307.584" style="stroke: #000000; stroke-width: 0.8"/>
      </g>
     </g>
     <g id="text_4">
      <!-- −0.25 -->
      <g transform="translate(180.255526 322.182437)scale(0.1 -0.1)">
       <defs>
        <path id="DejaVuSans-32" d="M 1228 531 
L 3431 531 
L 3431 0 
L 469 0 
L 469 531 
Q 828 903 1448 1529 
Q 2069 2156 2228 2338 
Q 2531 2678 2651 2914 
Q 2772 3150 2772 3378 
Q 2772 3750 2511 3984 
Q 2250 4219 1831 4219 
Q 1534 4219 1204 4116 
Q 875 4013 500 3803 
L 500 4441 
Q 881 4594 1212 4672 
Q 1544 4750 1819 4750 
Q 2544 4750 2975 4387 
Q 3406 4025 3406 3419 
Q 3406 3131 3298 2873 
Q 3191 2616 2906 2266 
Q 2828 2175 2409 1742 
Q 1991 1309 1228 531 
z
" transform="scale(0.015625)"/>
       </defs>
       <use xlink:href="#DejaVuSans-2212"/>
       <use xlink:href="#DejaVuSans-30" x="83.789062"/>
       <use xlink:href="#DejaVuSans-2e" x="147.412109"/>
       <use xlink:href="#DejaVuSans-32" x="179.199219"/>
       <use xlink:href="#DejaVuSans-35" x="242.822266"/>
      </g>
     </g>
    </g>
    <g id="xtick_5">
     <g id="line2d_5">
      <g>
       <use xlink:href="#m67d104d0c8" x="236.16" y="307.584" style="stroke: #000000; stroke-width: 0.8"/>
      </g>
     </g>
     <g id="text_5">
      <!-- 0.00 -->
      <g transform="translate(225.027187 322.182437)scale(0.1 -0.1)">
       <use xlink:href="#DejaVuSans-30"/>
       <use xlink:href="#DejaVuSans-2e" x="63.623047"/>
       <use xlink:href="#DejaVuSans-30" x="95.410156"/>
       <use xlink:href="#DejaVuSans-30" x="159.033203"/>
      </g>
     </g>
    </g>
    <g id="xtick_6">
     <g id="line2d_6">
      <g>
       <use xlink:href="#m67d104d0c8" x="276.741818" y="307.584" style="stroke: #000000; stroke-width: 0.8"/>
      </g>
     </g>
     <g id="text_6">
      <!-- 0.25 -->
      <g transform="translate(265.609006 322.182437)scale(0.1 -0.1)">
       <use xlink:href="#DejaVuSans-30"/>
       <use xlink:href="#DejaVuSans-2e" x="63.623047"/>
       <use xlink:href="#DejaVuSans-32" x="95.410156"/>
       <use xlink:href="#DejaVuSans-35" x="159.033203"/>
      </g>
     </g>
    </g>
    <g id="xtick_7">
     <g id="line2d_7">
      <g>
       <use xlink:href="#m67d104d0c8" x="317.323636" y="307.584" style="stroke: #000000; stroke-width: 0.8"/>
      </g>
     </g>
     <g id="text_7">
      <!-- 0.50 -->
      <g transform="translate(306.190824 322.182437)scale(0.1 -0.1)">
       <use xlink:href="#DejaVuSans-30"/>
       <use xlink:href="#DejaVuSans-2e" x="63.623047"/>
       <use xlink:href="#DejaVuSans-35" x="95.410156"/>
       <use xlink:href="#DejaVuSans-30" x="159.033203"/>
      </g>
     </g>
    </g>
    <g id="xtick_8">
     <g id="line2d_8">
      <g>
       <use xlink:href="#m67d104d0c8" x="357.905455" y="307.584" style="stroke: #000000; stroke-width: 0.8"/>
      </g>
     </g>
     <g id="text_8">
      <!-- 0.75 -->
      <g transform="translate(346.772642 322.182437)scale(0.1 -0.1)">
       <use xlink:href="#DejaVuSans-30"/>
       <use xlink:href="#DejaVuSans-2e" x="63.623047"/>
       <use xlink:href="#DejaVuSans-37" x="95.410156"/>
       <use xlink:href="#DejaVuSans-35" x="159.033203"/>
      </g>
     </g>
    </g>
    <g id="xtick_9">
     <g id="line2d_9">
      <g>
       <use xlink:href="#m67d104d0c8" x="398.487273" y="307.584" style="stroke: #000000; stroke-width: 0.8"/>
      </g>
     </g>
     <g id="text_9">
      <!-- 1.00 -->
      <g transform="translate(387.35446 322.182437)scale(0.1 -0.1)">
       <use xlink:href="#DejaVuSans-31"/>
       <use xlink:href="#DejaVuSans-2e" x="63.623047"/>
       <use xlink:href="#DejaVuSans-30" x="95.410156"/>
       <use xlink:href="#DejaVuSans-30" x="159.033203"/>
      </g>
     </g>
    </g>
    <g id="text_10">
     <!-- x -->
     <g transform="translate(233.200625 335.860562)scale(0.1 -0.1)">
      <defs>
       <path id="DejaVuSans-78" d="M 3513 3500 
L 2247 1797 
L 3578 0 
L 2900 0 
L 1881 1375 
L 863 0 
L 184 0 
L 1544 1831 
L 300 3500 
L 978 3500 
L 1906 2253 
L 2834 3500 
L 3513 3500 
z
" transform="scale(0.015625)"/>
      </defs>
      <use xlink:href="#DejaVuSans-78"/>
     </g>
    </g>
   </g>
   <g id="matplotlib.axis_2">
    <g id="ytick_1">
     <g id="line2d_10">
      <defs>
       <path id="mb3ef91c7bf" d="M 0 0 
L -3.5 0 
" style="stroke: #000000; stroke-width: 0.8"/>
      </defs>
      <g>
       <use xlink:href="#mb3ef91c7bf" x="57.6" y="287.424038" style="stroke: #000000; stroke-width: 0.8"/>
      </g>
     </g>
     <g id="text_11">
      <!-- 0.8 -->
      <g transform="translate(34.696875 291.223256)scale(0.1 -0.1)">
       <defs>
        <path id="DejaVuSans-38" d="M 2034 2216 
Q 1584 2216 1326 1975 
Q 1069 1734 1069 1313 
Q 1069 891 1326 650 
Q 1584 409 2034 409 
Q 2484 409 2743 651 
Q 3003 894 3003 1313 
Q 3003 1734 2745 1975 
Q 2488 2216 2034 2216 
z
M 1403 2484 
Q 997 2584 770 2862 
Q 544 3141 544 3541 
Q 544 4100 942 4425 
Q 1341 4750 2034 4750 
Q 2731 4750 3128 4425 
Q 3525 4100 3525 3541 
Q 3525 3141 3298 2862 
Q 3072 2584 2669 2484 
Q 3125 2378 3379 2068 
Q 3634 1759 3634 1313 
Q 3634 634 3220 271 
Q 2806 -91 2034 -91 
Q 1263 -91 848 271 
Q 434 634 434 1313 
Q 434 1759 690 2068 
Q 947 2378 1403 2484 
z
M 1172 3481 
Q 1172 3119 1398 2916 
Q 1625 2713 2034 2713 
Q 2441 2713 2670 2916 
Q 2900 3119 2900 3481 
Q 2900 3844 2670 4047 
Q 2441 4250 2034 4250 
Q 1625 4250 1398 4047 
Q 1172 3844 1172 3481 
z
" transform="scale(0.015625)"/>
       </defs>
       <use xlink:href="#DejaVuSans-30"/>
       <use xlink:href="#DejaVuSans-2e" x="63.623047"/>
       <use xlink:href="#DejaVuSans-38" x="95.410156"/>
      </g>
     </g>
    </g>
    <g id="ytick_2">
     <g id="line2d_11">
      <g>
       <use xlink:href="#mb3ef91c7bf" x="57.6" y="255.168027" style="stroke: #000000; stroke-width: 0.8"/>
      </g>
     </g>
     <g id="text_12">
      <!-- 1.0 -->
      <g transform="translate(34.696875 258.967246)scale(0.1 -0.1)">
       <use xlink:href="#DejaVuSans-31"/>
       <use xlink:href="#DejaVuSans-2e" x="63.623047"/>
       <use xlink:href="#DejaVuSans-30" x="95.410156"/>
      </g>
     </g>
    </g>
    <g id="ytick_3">
     <g id="line2d_12">
      <g>
       <use xlink:href="#mb3ef91c7bf" x="57.6" y="222.912016" style="stroke: #000000; stroke-width: 0.8"/>
      </g>
     </g>
     <g id="text_13">
      <!-- 1.2 -->
      <g transform="translate(34.696875 226.711235)scale(0.1 -0.1)">
       <use xlink:href="#DejaVuSans-31"/>
       <use xlink:href="#DejaVuSans-2e" x="63.623047"/>
       <use xlink:href="#DejaVuSans-32" x="95.410156"/>
      </g>
     </g>
    </g>
    <g id="ytick_4">
     <g id="line2d_13">
      <g>
       <use xlink:href="#mb3ef91c7bf" x="57.6" y="190.656005" style="stroke: #000000; stroke-width: 0.8"/>
      </g>
     </g>
     <g id="text_14">
      <!-- 1.4 -->
      <g transform="translate(34.696875 194.455224)scale(0.1 -0.1)">
       <defs>
        <path id="DejaVuSans-34" d="M 2419 4116 
L 825 1625 
L 2419 1625 
L 2419 4116 
z
M 2253 4666 
L 3047 4666 
L 3047 1625 
L 3713 1625 
L 3713 1100 
L 3047 1100 
L 3047 0 
L 2419 0 
L 2419 1100 
L 313 1100 
L 313 1709 
L 2253 4666 
z
" transform="scale(0.015625)"/>
       </defs>
       <use xlink:href="#DejaVuSans-31"/>
       <use xlink:href="#DejaVuSans-2e" x="63.623047"/>
       <use xlink:href="#DejaVuSans-34" x="95.410156"/>
      </g>
     </g>
    </g>
    <g id="ytick_5">
     <g id="line2d_14">
      <g>
       <use xlink:href="#mb3ef91c7bf" x="57.6" y="158.399995" style="stroke: #000000; stroke-width: 0.8"/>
      </g>
     </g>
     <g id="text_15">
      <!-- 1.6 -->
      <g transform="translate(34.696875 162.199213)scale(0.1 -0.1)">
       <defs>
        <path id="DejaVuSans-36" d="M 2113 2584 
Q 1688 2584 1439 2293 
Q 1191 2003 1191 1497 
Q 1191 994 1439 701 
Q 1688 409 2113 409 
Q 2538 409 2786 701 
Q 3034 994 3034 1497 
Q 3034 2003 2786 2293 
Q 2538 2584 2113 2584 
z
M 3366 4563 
L 3366 3988 
Q 3128 4100 2886 4159 
Q 2644 4219 2406 4219 
Q 1781 4219 1451 3797 
Q 1122 3375 1075 2522 
Q 1259 2794 1537 2939 
Q 1816 3084 2150 3084 
Q 2853 3084 3261 2657 
Q 3669 2231 3669 1497 
Q 3669 778 3244 343 
Q 2819 -91 2113 -91 
Q 1303 -91 875 529 
Q 447 1150 447 2328 
Q 447 3434 972 4092 
Q 1497 4750 2381 4750 
Q 2619 4750 2861 4703 
Q 3103 4656 3366 4563 
z
" transform="scale(0.015625)"/>
       </defs>
       <use xlink:href="#DejaVuSans-31"/>
       <use xlink:href="#DejaVuSans-2e" x="63.623047"/>
       <use xlink:href="#DejaVuSans-36" x="95.410156"/>
      </g>
     </g>
    </g>
    <g id="ytick_6">
     <g id="line2d_15">
      <g>
       <use xlink:href="#mb3ef91c7bf" x="57.6" y="126.143984" style="stroke: #000000; stroke-width: 0.8"/>
      </g>
     </g>
     <g id="text_16">
      <!-- 1.8 -->
      <g transform="translate(34.696875 129.943203)scale(0.1 -0.1)">
       <use xlink:href="#DejaVuSans-31"/>
       <use xlink:href="#DejaVuSans-2e" x="63.623047"/>
       <use xlink:href="#DejaVuSans-38" x="95.410156"/>
      </g>
     </g>
    </g>
    <g id="ytick_7">
     <g id="line2d_16">
      <g>
       <use xlink:href="#mb3ef91c7bf" x="57.6" y="93.887973" style="stroke: #000000; stroke-width: 0.8"/>
      </g>
     </g>
     <g id="text_17">
      <!-- 2.0 -->
      <g transform="translate(34.696875 97.687192)scale(0.1 -0.1)">
       <use xlink:href="#DejaVuSans-32"/>
       <use xlink:href="#DejaVuSans-2e" x="63.623047"/>
       <use xlink:href="#DejaVuSans-30" x="95.410156"/>
      </g>
     </g>
    </g>
    <g id="ytick_8">
     <g id="line2d_17">
      <g>
       <use xlink:href="#mb3ef91c7bf" x="57.6" y="61.631962" style="stroke: #000000; stroke-width: 0.8"/>
      </g>
     </g>
     <g id="text_18">
      <!-- 2.2 -->
      <g transform="translate(34.696875 65.431181)scale(0.1 -0.1)">
       <use xlink:href="#DejaVuSans-32"/>
       <use xlink:href="#DejaVuSans-2e" x="63.623047"/>
       <use xlink:href="#DejaVuSans-32" x="95.410156"/>
      </g>
     </g>
    </g>
    <g id="text_19">
     <!-- $f_i$ -->
     <g transform="translate(28.617188 177.428)rotate(-90)scale(0.1 -0.1)">
      <defs>
       <path id="DejaVuSans-Oblique-66" d="M 3059 4863 
L 2969 4384 
L 2419 4384 
Q 2106 4384 1964 4261 
Q 1822 4138 1753 3809 
L 1691 3500 
L 2638 3500 
L 2553 3053 
L 1606 3053 
L 1013 0 
L 434 0 
L 1031 3053 
L 481 3053 
L 563 3500 
L 1113 3500 
L 1159 3744 
Q 1278 4363 1576 4613 
Q 1875 4863 2516 4863 
L 3059 4863 
z
" transform="scale(0.015625)"/>
       <path id="DejaVuSans-Oblique-69" d="M 1172 4863 
L 1747 4863 
L 1606 4134 
L 1031 4134 
L 1172 4863 
z
M 909 3500 
L 1484 3500 
L 800 0 
L 225 0 
L 909 3500 
z
" transform="scale(0.015625)"/>
      </defs>
      <use xlink:href="#DejaVuSans-Oblique-66" transform="translate(0 0.015625)"/>
      <use xlink:href="#DejaVuSans-Oblique-69" transform="translate(35.205078 -16.390625)scale(0.7)"/>
     </g>
    </g>
   </g>
   <g id="line2d_18">
    <path d="M 73.832727 93.887973 
L 79.0324 88.887327 
L 83.907093 84.499803 
L 88.781785 80.403164 
L 93.656478 76.597411 
L 98.531171 73.082544 
L 103.080885 70.064444 
L 107.630598 67.299738 
L 112.180311 64.788426 
L 116.730025 62.530508 
L 121.279738 60.525983 
L 125.829451 58.774852 
L 130.379165 57.277114 
L 134.603898 56.113249 
L 138.828632 55.167871 
L 143.053366 54.44098 
L 147.2781 53.932577 
L 151.502834 53.642661 
L 155.727568 53.571232 
L 159.952301 53.718291 
L 164.177035 54.083837 
L 168.401769 54.667871 
L 172.626503 55.470392 
L 176.851237 56.4914 
L 181.075971 57.730896 
L 185.300704 59.188879 
L 189.850418 61.003359 
L 194.400131 63.071232 
L 198.949844 65.392499 
L 203.499558 67.967159 
L 208.049271 70.795214 
L 212.598984 73.876661 
L 217.473677 77.459402 
L 222.34837 81.333028 
L 227.223063 85.49754 
L 232.097756 89.952938 
L 235.99751 93.726693 
L 236.32249 255.329307 
L 241.522162 260.319611 
L 246.396855 264.697438 
L 251.271548 268.784381 
L 256.146241 272.580438 
L 261.020934 276.085609 
L 265.570647 279.094658 
L 270.12036 281.850315 
L 274.670074 284.352577 
L 279.219787 286.601446 
L 283.7695 288.596921 
L 288.319214 290.339002 
L 292.868927 291.82769 
L 297.093661 292.983152 
L 301.318395 293.920127 
L 305.543129 294.638614 
L 309.767862 295.138614 
L 313.992596 295.420127 
L 318.21733 295.483152 
L 322.442064 295.32769 
L 326.666798 294.95374 
L 330.891532 294.361303 
L 335.116265 293.550379 
L 339.340999 292.520967 
L 343.565733 291.273068 
L 347.790467 289.806681 
L 352.34018 287.983152 
L 356.889894 285.906229 
L 361.439607 283.575912 
L 365.98932 280.992202 
L 370.539034 278.155098 
L 375.088747 275.0646 
L 379.96344 271.472164 
L 384.838133 267.588841 
L 389.712826 263.414633 
L 394.587518 258.949539 
L 398.487273 255.168027 
L 398.487273 255.168027 
" clip-path="url(#pf8cbbea6a4)" style="fill: none; stroke: #0000ff; stroke-width: 1.5; stroke-linecap: square"/>
   </g>
   <g id="line2d_19">
    <path d="M 73.840844 93.879909 
L 74.245968 93.478444 
L 74.651092 93.078987 
L 75.056215 92.68154 
L 75.461339 92.286102 
L 75.866463 91.892673 
" clip-path="url(#pf8cbbea6a4)" style="fill: none; stroke: #008000; stroke-width: 1.5; stroke-linecap: square"/>
   </g>
   <g id="line2d_20">
    <path d="M 75.882696 91.87695 
L 76.28782 91.485611 
L 76.692944 91.09628 
L 77.098068 90.708959 
L 77.503192 90.323647 
L 77.908316 89.940344 
" clip-path="url(#pf8cbbea6a4)" style="fill: none; stroke: #008000; stroke-width: 1.5; stroke-linecap: square"/>
   </g>
   <g id="line2d_21">
    <path d="M 77.924549 89.925027 
L 78.329673 89.543814 
L 78.734797 89.164609 
L 79.13992 88.787414 
L 79.545044 88.412228 
L 79.950168 88.039051 
" clip-path="url(#pf8cbbea6a4)" style="fill: none; stroke: #008000; stroke-width: 1.5; stroke-linecap: square"/>
   </g>
   <g id="line2d_22">
    <path d="M 79.966401 88.02414 
L 80.371525 87.653053 
L 80.776649 87.283974 
L 81.181773 86.916905 
L 81.586897 86.551845 
L 81.992021 86.188794 
" clip-path="url(#pf8cbbea6a4)" style="fill: none; stroke: #008000; stroke-width: 1.5; stroke-linecap: square"/>
   </g>
   <g id="line2d_23">
    <path d="M 82.008254 86.174289 
L 82.413378 85.813328 
L 82.818501 85.454375 
L 83.223625 85.097432 
L 83.628749 84.742498 
L 84.033873 84.389573 
" clip-path="url(#pf8cbbea6a4)" style="fill: none; stroke: #008000; stroke-width: 1.5; stroke-linecap: square"/>
   </g>
   <g id="line2d_24">
    <path d="M 84.050106 84.375474 
L 84.45523 84.024639 
L 84.860354 83.675812 
L 85.265478 83.328995 
L 85.670602 82.984187 
L 86.075726 82.641388 
" clip-path="url(#pf8cbbea6a4)" style="fill: none; stroke: #008000; stroke-width: 1.5; stroke-linecap: square"/>
   </g>
   <g id="line2d_25">
    <path d="M 86.091959 82.627695 
L 86.497083 82.286985 
L 86.902206 81.948285 
L 87.30733 81.611594 
L 87.712454 81.276912 
L 88.117578 80.944239 
" clip-path="url(#pf8cbbea6a4)" style="fill: none; stroke: #008000; stroke-width: 1.5; stroke-linecap: square"/>
   </g>
   <g id="line2d_26">
    <path d="M 88.133811 80.930951 
L 88.538935 80.600368 
L 88.944059 80.271794 
L 89.349183 79.945229 
L 89.754307 79.620673 
L 90.159431 79.298126 
" clip-path="url(#pf8cbbea6a4)" style="fill: none; stroke: #008000; stroke-width: 1.5; stroke-linecap: square"/>
   </g>
   <g id="line2d_27">
    <path d="M 90.175664 79.285244 
L 90.580787 78.964787 
L 90.985911 78.646339 
L 91.391035 78.3299 
L 91.796159 78.01547 
L 92.201283 77.703049 
" clip-path="url(#pf8cbbea6a4)" style="fill: none; stroke: #008000; stroke-width: 1.5; stroke-linecap: square"/>
   </g>
   <g id="line2d_28">
    <path d="M 92.217516 77.690573 
L 92.62264 77.380242 
L 93.027764 77.07192 
L 93.432888 76.765607 
L 93.838012 76.461303 
L 94.243136 76.159008 
" clip-path="url(#pf8cbbea6a4)" style="fill: none; stroke: #008000; stroke-width: 1.5; stroke-linecap: square"/>
   </g>
   <g id="line2d_29">
    <path d="M 94.259369 76.146938 
L 94.664492 75.846732 
L 95.069616 75.548536 
L 95.47474 75.25235 
L 95.879864 74.958172 
L 96.284988 74.666003 
" clip-path="url(#pf8cbbea6a4)" style="fill: none; stroke: #008000; stroke-width: 1.5; stroke-linecap: square"/>
   </g>
   <g id="line2d_30">
    <path d="M 96.301221 74.654338 
L 96.706345 74.364259 
L 97.111469 74.076189 
L 97.516593 73.790128 
L 97.921717 73.506077 
L 98.326841 73.224034 
" clip-path="url(#pf8cbbea6a4)" style="fill: none; stroke: #008000; stroke-width: 1.5; stroke-linecap: square"/>
   </g>
   <g id="line2d_31">
    <path d="M 98.343073 73.212775 
L 98.748197 72.932822 
L 99.153321 72.654878 
L 99.558445 72.378943 
L 99.963569 72.105017 
L 100.368693 71.833101 
" clip-path="url(#pf8cbbea6a4)" style="fill: none; stroke: #008000; stroke-width: 1.5; stroke-linecap: square"/>
   </g>
   <g id="line2d_32">
    <path d="M 100.384926 71.822247 
L 100.79005 71.552421 
L 101.195174 71.284603 
L 101.600298 71.018794 
L 102.005422 70.754994 
L 102.410546 70.493204 
" clip-path="url(#pf8cbbea6a4)" style="fill: none; stroke: #008000; stroke-width: 1.5; stroke-linecap: square"/>
   </g>
   <g id="line2d_33">
    <path d="M 102.426778 70.482756 
L 102.831902 70.223055 
L 103.237026 69.965363 
L 103.64215 69.709681 
L 104.047274 69.456007 
L 104.452398 69.204343 
" clip-path="url(#pf8cbbea6a4)" style="fill: none; stroke: #008000; stroke-width: 1.5; stroke-linecap: square"/>
   </g>
   <g id="line2d_34">
    <path d="M 104.468631 69.194301 
L 104.873755 68.944726 
L 105.278879 68.69716 
L 105.684003 68.451603 
L 106.089127 68.208056 
L 106.494251 67.966517 
" clip-path="url(#pf8cbbea6a4)" style="fill: none; stroke: #008000; stroke-width: 1.5; stroke-linecap: square"/>
   </g>
   <g id="line2d_35">
    <path d="M 106.510483 67.956881 
L 106.915607 67.717432 
L 107.320731 67.479993 
L 107.725855 67.244562 
L 108.130979 67.01114 
L 108.536103 66.779728 
" clip-path="url(#pf8cbbea6a4)" style="fill: none; stroke: #008000; stroke-width: 1.5; stroke-linecap: square"/>
   </g>
   <g id="line2d_36">
    <path d="M 108.552336 66.770498 
L 108.95746 66.541175 
L 109.362584 66.313861 
L 109.767708 66.088557 
L 110.172832 65.865261 
L 110.577956 65.643975 
" clip-path="url(#pf8cbbea6a4)" style="fill: none; stroke: #008000; stroke-width: 1.5; stroke-linecap: square"/>
   </g>
   <g id="line2d_37">
    <path d="M 110.594188 65.63515 
L 110.999312 65.415953 
L 111.404436 65.198766 
L 111.80956 64.983587 
L 112.214684 64.770418 
L 112.619808 64.559258 
" clip-path="url(#pf8cbbea6a4)" style="fill: none; stroke: #008000; stroke-width: 1.5; stroke-linecap: square"/>
   </g>
   <g id="line2d_38">
    <path d="M 112.636041 64.550839 
L 113.041165 64.341768 
L 113.446289 64.134706 
L 113.851413 63.929654 
L 114.256537 63.72661 
L 114.661661 63.525576 
" clip-path="url(#pf8cbbea6a4)" style="fill: none; stroke: #008000; stroke-width: 1.5; stroke-linecap: square"/>
   </g>
   <g id="line2d_39">
    <path d="M 114.677893 63.517563 
L 115.083017 63.318618 
L 115.488141 63.121683 
L 115.893265 62.926756 
L 116.298389 62.733839 
L 116.703513 62.542931 
" clip-path="url(#pf8cbbea6a4)" style="fill: none; stroke: #008000; stroke-width: 1.5; stroke-linecap: square"/>
   </g>
   <g id="line2d_40">
    <path d="M 116.719746 62.535323 
L 117.12487 62.346505 
L 117.529994 62.159695 
L 117.935118 61.974895 
L 118.340242 61.792104 
L 118.745366 61.611322 
" clip-path="url(#pf8cbbea6a4)" style="fill: none; stroke: #008000; stroke-width: 1.5; stroke-linecap: square"/>
   </g>
   <g id="line2d_41">
    <path d="M 118.761598 61.60412 
L 119.166722 61.425427 
L 119.571846 61.248744 
L 119.97697 61.074069 
L 120.382094 60.901404 
L 120.787218 60.730748 
" clip-path="url(#pf8cbbea6a4)" style="fill: none; stroke: #008000; stroke-width: 1.5; stroke-linecap: square"/>
   </g>
   <g id="line2d_42">
    <path d="M 120.803451 60.723952 
L 121.208575 60.555386 
L 121.613699 60.388828 
L 122.018823 60.22428 
L 122.423947 60.061741 
L 122.829071 59.901211 
" clip-path="url(#pf8cbbea6a4)" style="fill: none; stroke: #008000; stroke-width: 1.5; stroke-linecap: square"/>
   </g>
   <g id="line2d_43">
    <path d="M 122.845303 59.89482 
L 123.250427 59.73638 
L 123.655551 59.579949 
L 124.060675 59.425526 
L 124.465799 59.273113 
L 124.870923 59.122709 
" clip-path="url(#pf8cbbea6a4)" style="fill: none; stroke: #008000; stroke-width: 1.5; stroke-linecap: square"/>
   </g>
   <g id="line2d_44">
    <path d="M 124.887156 59.116725 
L 125.29228 58.96841 
L 125.697404 58.822105 
L 126.102528 58.677809 
L 126.507652 58.535522 
L 126.912776 58.395244 
" clip-path="url(#pf8cbbea6a4)" style="fill: none; stroke: #008000; stroke-width: 1.5; stroke-linecap: square"/>
   </g>
   <g id="line2d_45">
    <path d="M 126.929008 58.389665 
L 127.334132 58.251477 
L 127.739256 58.115297 
L 128.14438 57.981127 
L 128.549504 57.848966 
L 128.954628 57.718814 
" clip-path="url(#pf8cbbea6a4)" style="fill: none; stroke: #008000; stroke-width: 1.5; stroke-linecap: square"/>
   </g>
   <g id="line2d_46">
    <path d="M 128.970861 57.713641 
L 129.375985 57.585579 
L 129.781109 57.459526 
L 130.186233 57.335482 
L 130.591357 57.213447 
L 130.996481 57.093421 
" clip-path="url(#pf8cbbea6a4)" style="fill: none; stroke: #008000; stroke-width: 1.5; stroke-linecap: square"/>
   </g>
   <g id="line2d_47">
    <path d="M 131.012713 57.088653 
L 131.417837 56.970717 
L 131.822961 56.85479 
L 132.228085 56.740872 
L 132.633209 56.628963 
L 133.038333 56.519063 
" clip-path="url(#pf8cbbea6a4)" style="fill: none; stroke: #008000; stroke-width: 1.5; stroke-linecap: square"/>
   </g>
   <g id="line2d_48">
    <path d="M 133.054566 56.514701 
L 133.45969 56.406891 
L 133.864814 56.30109 
L 134.269938 56.197298 
L 134.675062 56.095515 
L 135.080186 55.995742 
" clip-path="url(#pf8cbbea6a4)" style="fill: none; stroke: #008000; stroke-width: 1.5; stroke-linecap: square"/>
   </g>
   <g id="line2d_49">
    <path d="M 135.096418 55.991786 
L 135.501542 55.894101 
L 135.906666 55.798426 
L 136.31179 55.70476 
L 136.716914 55.613104 
L 137.122038 55.523456 
" clip-path="url(#pf8cbbea6a4)" style="fill: none; stroke: #008000; stroke-width: 1.5; stroke-linecap: square"/>
   </g>
   <g id="line2d_50">
    <path d="M 137.138271 55.519906 
L 137.543395 55.432348 
L 137.948519 55.346799 
L 138.353643 55.263259 
L 138.758767 55.181728 
L 139.16389 55.102206 
" clip-path="url(#pf8cbbea6a4)" style="fill: none; stroke: #008000; stroke-width: 1.5; stroke-linecap: square"/>
   </g>
   <g id="line2d_51">
    <path d="M 139.180123 55.099062 
L 139.585247 55.02163 
L 139.990371 54.946207 
L 140.395495 54.872793 
L 140.800619 54.801388 
L 141.205743 54.731993 
" clip-path="url(#pf8cbbea6a4)" style="fill: none; stroke: #008000; stroke-width: 1.5; stroke-linecap: square"/>
   </g>
   <g id="line2d_52">
    <path d="M 141.221976 54.729254 
L 141.6271 54.661948 
L 142.032224 54.596651 
L 142.437348 54.533363 
L 142.842472 54.472084 
L 143.247595 54.412815 
" clip-path="url(#pf8cbbea6a4)" style="fill: none; stroke: #008000; stroke-width: 1.5; stroke-linecap: square"/>
   </g>
   <g id="line2d_53">
    <path d="M 143.263828 54.410482 
L 143.668952 54.353302 
L 144.074076 54.298131 
L 144.4792 54.244969 
L 144.884324 54.193817 
L 145.289448 54.144673 
" clip-path="url(#pf8cbbea6a4)" style="fill: none; stroke: #008000; stroke-width: 1.5; stroke-linecap: square"/>
   </g>
   <g id="line2d_54">
    <path d="M 145.305681 54.142746 
L 145.710805 54.095692 
L 146.115929 54.050647 
L 146.521053 54.007612 
L 146.926176 53.966585 
L 147.3313 53.927567 
" clip-path="url(#pf8cbbea6a4)" style="fill: none; stroke: #008000; stroke-width: 1.5; stroke-linecap: square"/>
   </g>
   <g id="line2d_55">
    <path d="M 147.347533 53.926046 
L 147.752657 53.889118 
L 148.157781 53.854199 
L 148.562905 53.82129 
L 148.968029 53.790389 
L 149.373153 53.761498 
" clip-path="url(#pf8cbbea6a4)" style="fill: none; stroke: #008000; stroke-width: 1.5; stroke-linecap: square"/>
   </g>
   <g id="line2d_56">
    <path d="M 149.389386 53.760382 
L 149.79451 53.73358 
L 150.199634 53.708787 
L 150.604758 53.686004 
L 151.009881 53.665229 
L 151.415005 53.646464 
" clip-path="url(#pf8cbbea6a4)" style="fill: none; stroke: #008000; stroke-width: 1.5; stroke-linecap: square"/>
   </g>
   <g id="line2d_57">
    <path d="M 151.431238 53.645754 
L 151.836362 53.629078 
L 152.241486 53.614411 
L 152.64661 53.601754 
L 153.051734 53.591105 
L 153.456858 53.582466 
" clip-path="url(#pf8cbbea6a4)" style="fill: none; stroke: #008000; stroke-width: 1.5; stroke-linecap: square"/>
   </g>
   <g id="line2d_58">
    <path d="M 153.473091 53.582162 
L 153.878215 53.575612 
L 154.283339 53.571071 
L 154.688462 53.56854 
L 155.093586 53.568017 
L 155.49871 53.569504 
" clip-path="url(#pf8cbbea6a4)" style="fill: none; stroke: #008000; stroke-width: 1.5; stroke-linecap: square"/>
   </g>
   <g id="line2d_59">
    <path d="M 155.514943 53.569606 
L 155.920067 53.573182 
L 156.325191 53.578767 
L 156.730315 53.586362 
L 157.135439 53.595966 
L 157.540563 53.607578 
" clip-path="url(#pf8cbbea6a4)" style="fill: none; stroke: #008000; stroke-width: 1.5; stroke-linecap: square"/>
   </g>
   <g id="line2d_60">
    <path d="M 157.556796 53.608085 
L 157.96192 53.621788 
L 158.367044 53.637499 
L 158.772167 53.65522 
L 159.177291 53.67495 
L 159.582415 53.696688 
" clip-path="url(#pf8cbbea6a4)" style="fill: none; stroke: #008000; stroke-width: 1.5; stroke-linecap: square"/>
   </g>
   <g id="line2d_61">
    <path d="M 159.598648 53.697601 
L 160.003772 53.72143 
L 160.408896 53.747267 
L 160.81402 53.775114 
L 161.219144 53.80497 
L 161.624268 53.836834 
" clip-path="url(#pf8cbbea6a4)" style="fill: none; stroke: #008000; stroke-width: 1.5; stroke-linecap: square"/>
   </g>
   <g id="line2d_62">
    <path d="M 161.640501 53.838153 
L 162.045625 53.872108 
L 162.450748 53.908071 
L 162.855872 53.946044 
L 163.260996 53.986026 
L 163.66612 54.028016 
" clip-path="url(#pf8cbbea6a4)" style="fill: none; stroke: #008000; stroke-width: 1.5; stroke-linecap: square"/>
   </g>
   <g id="line2d_63">
    <path d="M 163.682353 54.029741 
L 164.087477 54.073821 
L 164.492601 54.119911 
L 164.897725 54.16801 
L 165.302849 54.218118 
L 165.707973 54.270234 
" clip-path="url(#pf8cbbea6a4)" style="fill: none; stroke: #008000; stroke-width: 1.5; stroke-linecap: square"/>
   </g>
   <g id="line2d_64">
    <path d="M 165.724206 54.272365 
L 166.12933 54.326571 
L 166.534453 54.382787 
L 166.939577 54.441012 
L 167.344701 54.501245 
L 167.749825 54.563488 
" clip-path="url(#pf8cbbea6a4)" style="fill: none; stroke: #008000; stroke-width: 1.5; stroke-linecap: square"/>
   </g>
   <g id="line2d_65">
    <path d="M 167.766058 54.566024 
L 168.171182 54.630357 
L 168.576306 54.696699 
L 168.98143 54.765049 
L 169.386554 54.835409 
L 169.791678 54.907778 
" clip-path="url(#pf8cbbea6a4)" style="fill: none; stroke: #008000; stroke-width: 1.5; stroke-linecap: square"/>
   </g>
   <g id="line2d_66">
    <path d="M 169.807911 54.91072 
L 170.213034 54.985179 
L 170.618158 55.061646 
L 171.023282 55.140123 
L 171.428406 55.220609 
L 171.83353 55.303104 
" clip-path="url(#pf8cbbea6a4)" style="fill: none; stroke: #008000; stroke-width: 1.5; stroke-linecap: square"/>
   </g>
   <g id="line2d_67">
    <path d="M 171.849763 55.306452 
L 172.254887 55.391036 
L 172.660011 55.47763 
L 173.065135 55.566233 
L 173.470259 55.656845 
L 173.875383 55.749466 
" clip-path="url(#pf8cbbea6a4)" style="fill: none; stroke: #008000; stroke-width: 1.5; stroke-linecap: square"/>
   </g>
   <g id="line2d_68">
    <path d="M 173.891616 55.753219 
L 174.296739 55.84793 
L 174.701863 55.94465 
L 175.106987 56.043379 
L 175.512111 56.144117 
L 175.917235 56.246864 
" clip-path="url(#pf8cbbea6a4)" style="fill: none; stroke: #008000; stroke-width: 1.5; stroke-linecap: square"/>
   </g>
   <g id="line2d_69">
    <path d="M 175.933468 56.251023 
L 176.338592 56.35586 
L 176.743716 56.462706 
L 177.14884 56.571561 
L 177.553964 56.682425 
L 177.959088 56.795298 
" clip-path="url(#pf8cbbea6a4)" style="fill: none; stroke: #008000; stroke-width: 1.5; stroke-linecap: square"/>
   </g>
   <g id="line2d_70">
    <path d="M 177.97532 56.799862 
L 178.380444 56.914825 
L 178.785568 57.031797 
L 179.190692 57.150778 
L 179.595816 57.271768 
L 180.00094 57.394768 
" clip-path="url(#pf8cbbea6a4)" style="fill: none; stroke: #008000; stroke-width: 1.5; stroke-linecap: square"/>
   </g>
   <g id="line2d_71">
    <path d="M 180.017173 57.399738 
L 180.422297 57.524827 
L 180.827421 57.651925 
L 181.232545 57.781032 
L 181.637669 57.912148 
L 182.042793 58.045273 
" clip-path="url(#pf8cbbea6a4)" style="fill: none; stroke: #008000; stroke-width: 1.5; stroke-linecap: square"/>
   </g>
   <g id="line2d_72">
    <path d="M 182.059025 58.050649 
L 182.464149 58.185864 
L 182.869273 58.323088 
L 183.274397 58.462322 
L 183.679521 58.603564 
L 184.084645 58.746815 
" clip-path="url(#pf8cbbea6a4)" style="fill: none; stroke: #008000; stroke-width: 1.5; stroke-linecap: square"/>
   </g>
   <g id="line2d_73">
    <path d="M 184.100878 58.752597 
L 184.506002 58.897938 
L 184.911126 59.045288 
L 185.31625 59.194647 
L 185.721374 59.346016 
L 186.126498 59.499393 
" clip-path="url(#pf8cbbea6a4)" style="fill: none; stroke: #008000; stroke-width: 1.5; stroke-linecap: square"/>
   </g>
   <g id="line2d_74">
    <path d="M 186.14273 59.50558 
L 186.547854 59.661047 
L 186.952978 59.818524 
L 187.358102 59.978009 
L 187.763226 60.139503 
L 188.16835 60.303007 
" clip-path="url(#pf8cbbea6a4)" style="fill: none; stroke: #008000; stroke-width: 1.5; stroke-linecap: square"/>
   </g>
   <g id="line2d_75">
    <path d="M 188.184583 60.3096 
L 188.589707 60.475193 
L 188.994831 60.642795 
L 189.399955 60.812406 
L 189.805079 60.984027 
L 190.210203 61.157656 
" clip-path="url(#pf8cbbea6a4)" style="fill: none; stroke: #008000; stroke-width: 1.5; stroke-linecap: square"/>
   </g>
   <g id="line2d_76">
    <path d="M 190.226435 61.164655 
L 190.631559 61.340374 
L 191.036683 61.518103 
L 191.441807 61.69784 
L 191.846931 61.879586 
L 192.252055 62.063342 
" clip-path="url(#pf8cbbea6a4)" style="fill: none; stroke: #008000; stroke-width: 1.5; stroke-linecap: square"/>
   </g>
   <g id="line2d_77">
    <path d="M 192.268288 62.070747 
L 192.673412 62.256592 
L 193.078536 62.444446 
L 193.48366 62.63431 
L 193.888784 62.826182 
L 194.293908 63.020064 
" clip-path="url(#pf8cbbea6a4)" style="fill: none; stroke: #008000; stroke-width: 1.5; stroke-linecap: square"/>
   </g>
   <g id="line2d_78">
    <path d="M 194.31014 63.027874 
L 194.715264 63.223845 
L 195.120388 63.421826 
L 195.525512 63.621815 
L 195.930636 63.823814 
L 196.33576 64.027821 
" clip-path="url(#pf8cbbea6a4)" style="fill: none; stroke: #008000; stroke-width: 1.5; stroke-linecap: square"/>
   </g>
   <g id="line2d_79">
    <path d="M 196.351993 64.036037 
L 196.757117 64.242135 
L 197.162241 64.450241 
L 197.567365 64.660357 
L 197.972489 64.872481 
L 198.377613 65.086615 
" clip-path="url(#pf8cbbea6a4)" style="fill: none; stroke: #008000; stroke-width: 1.5; stroke-linecap: square"/>
   </g>
   <g id="line2d_80">
    <path d="M 198.393845 65.095237 
L 198.798969 65.31146 
L 199.204093 65.529692 
L 199.609217 65.749934 
L 200.014341 65.972185 
L 200.419465 66.196444 
" clip-path="url(#pf8cbbea6a4)" style="fill: none; stroke: #008000; stroke-width: 1.5; stroke-linecap: square"/>
   </g>
   <g id="line2d_81">
    <path d="M 200.435698 66.205472 
L 200.840822 66.431821 
L 201.245946 66.66018 
L 201.65107 66.890547 
L 202.056194 67.122924 
L 202.461318 67.35731 
" clip-path="url(#pf8cbbea6a4)" style="fill: none; stroke: #008000; stroke-width: 1.5; stroke-linecap: square"/>
   </g>
   <g id="line2d_82">
    <path d="M 202.47755 67.366743 
L 202.882674 67.603219 
L 203.287798 67.841703 
L 203.692922 68.082197 
L 204.098046 68.3247 
L 204.50317 68.569211 
" clip-path="url(#pf8cbbea6a4)" style="fill: none; stroke: #008000; stroke-width: 1.5; stroke-linecap: square"/>
   </g>
   <g id="line2d_83">
    <path d="M 204.519403 68.57905 
L 204.924527 68.825652 
L 205.329651 69.074262 
L 205.734775 69.324882 
L 206.139899 69.577511 
L 206.545023 69.832149 
" clip-path="url(#pf8cbbea6a4)" style="fill: none; stroke: #008000; stroke-width: 1.5; stroke-linecap: square"/>
   </g>
   <g id="line2d_84">
    <path d="M 206.561255 69.842394 
L 206.966379 70.099121 
L 207.371503 70.357858 
L 207.776627 70.618603 
L 208.181751 70.881358 
L 208.586875 71.146122 
" clip-path="url(#pf8cbbea6a4)" style="fill: none; stroke: #008000; stroke-width: 1.5; stroke-linecap: square"/>
   </g>
   <g id="line2d_85">
    <path d="M 208.603108 71.156773 
L 209.008232 71.423626 
L 209.413356 71.692489 
L 209.81848 71.963361 
L 210.223604 72.236242 
L 210.628728 72.511132 
" clip-path="url(#pf8cbbea6a4)" style="fill: none; stroke: #008000; stroke-width: 1.5; stroke-linecap: square"/>
   </g>
   <g id="line2d_86">
    <path d="M 210.64496 72.522188 
L 211.050084 72.799168 
L 211.455208 73.078156 
L 211.860332 73.359154 
L 212.265456 73.642161 
L 212.67058 73.927177 
" clip-path="url(#pf8cbbea6a4)" style="fill: none; stroke: #008000; stroke-width: 1.5; stroke-linecap: square"/>
   </g>
   <g id="line2d_87">
    <path d="M 212.686813 73.938639 
L 213.091937 74.225745 
L 213.497061 74.514859 
L 213.902185 74.805983 
L 214.307309 75.099116 
L 214.712433 75.394258 
" clip-path="url(#pf8cbbea6a4)" style="fill: none; stroke: #008000; stroke-width: 1.5; stroke-linecap: square"/>
   </g>
   <g id="line2d_88">
    <path d="M 214.728665 75.406126 
L 215.133789 75.703358 
L 215.538913 76.002599 
L 215.944037 76.303849 
L 216.349161 76.607108 
L 216.754285 76.912376 
" clip-path="url(#pf8cbbea6a4)" style="fill: none; stroke: #008000; stroke-width: 1.5; stroke-linecap: square"/>
   </g>
   <g id="line2d_89">
    <path d="M 216.770518 76.924649 
L 217.175642 77.232007 
L 217.580766 77.541374 
L 217.98589 77.85275 
L 218.391014 78.166135 
L 218.796137 78.481529 
" clip-path="url(#pf8cbbea6a4)" style="fill: none; stroke: #008000; stroke-width: 1.5; stroke-linecap: square"/>
   </g>
   <g id="line2d_90">
    <path d="M 218.81237 78.494208 
L 219.217494 78.811692 
L 219.622618 79.131185 
L 220.027742 79.452687 
L 220.432866 79.776198 
L 220.83799 80.101718 
" clip-path="url(#pf8cbbea6a4)" style="fill: none; stroke: #008000; stroke-width: 1.5; stroke-linecap: square"/>
   </g>
   <g id="line2d_91">
    <path d="M 220.854223 80.114803 
L 221.259347 80.442413 
L 221.664471 80.772032 
L 222.069595 81.10366 
L 222.474719 81.437297 
L 222.879842 81.772944 
" clip-path="url(#pf8cbbea6a4)" style="fill: none; stroke: #008000; stroke-width: 1.5; stroke-linecap: square"/>
   </g>
   <g id="line2d_92">
    <path d="M 222.896075 81.786434 
L 223.301199 82.12417 
L 223.706323 82.463915 
L 224.111447 82.805669 
L 224.516571 83.149432 
L 224.921695 83.495205 
" clip-path="url(#pf8cbbea6a4)" style="fill: none; stroke: #008000; stroke-width: 1.5; stroke-linecap: square"/>
   </g>
   <g id="line2d_93">
    <path d="M 224.937928 83.509101 
L 225.343052 83.856963 
L 225.748176 84.206834 
L 226.1533 84.558714 
L 226.558423 84.912604 
L 226.963547 85.268502 
" clip-path="url(#pf8cbbea6a4)" style="fill: none; stroke: #008000; stroke-width: 1.5; stroke-linecap: square"/>
   </g>
   <g id="line2d_94">
    <path d="M 226.97978 85.282804 
L 227.384904 85.640792 
L 227.790028 86.000789 
L 228.195152 86.362795 
L 228.600276 86.726811 
L 229.0054 87.092835 
" clip-path="url(#pf8cbbea6a4)" style="fill: none; stroke: #008000; stroke-width: 1.5; stroke-linecap: square"/>
   </g>
   <g id="line2d_95">
    <path d="M 229.021633 87.107543 
L 229.426757 87.475657 
L 229.831881 87.84578 
L 230.237005 88.217912 
L 230.642128 88.592054 
L 231.047252 88.968204 
" clip-path="url(#pf8cbbea6a4)" style="fill: none; stroke: #008000; stroke-width: 1.5; stroke-linecap: square"/>
   </g>
   <g id="line2d_96">
    <path d="M 231.063485 88.979166 
L 231.468609 89.361424 
L 231.873733 89.743683 
L 232.278857 90.125941 
L 232.683981 90.508199 
L 233.089105 90.890457 
" clip-path="url(#pf8cbbea6a4)" style="fill: none; stroke: #008000; stroke-width: 1.5; stroke-linecap: square"/>
   </g>
   <g id="line2d_97">
    <path d="M 233.105338 89.950331 
L 233.510462 90.724974 
L 233.915586 91.499616 
L 234.320709 92.274259 
L 234.725833 93.048902 
L 235.130957 93.823544 
" clip-path="url(#pf8cbbea6a4)" style="fill: none; stroke: #008000; stroke-width: 1.5; stroke-linecap: square"/>
   </g>
   <g id="line2d_98">
    <path d="M 235.14719 93.846996 
L 235.441199 93.980232 
L 235.572996 94.351208 
L 235.696683 95.546352 
L 235.820369 99.4335 
L 235.950138 112.153491 
L 236.110323 155.275127 
L 236.467189 247.628222 
L 236.669953 254.131488 
L 236.87069 255.064107 
L 237.095759 255.200065 
L 237.17281 255.209004 
L 237.17281 255.209004 
" clip-path="url(#pf8cbbea6a4)" style="fill: none; stroke: #008000; stroke-width: 1.5; stroke-linecap: square"/>
   </g>
   <g id="line2d_99">
    <path d="M 237.189043 255.232456 
L 237.594167 256.007098 
L 237.999291 256.781741 
L 238.404414 257.556384 
L 238.809538 258.331026 
L 239.214662 259.105669 
" clip-path="url(#pf8cbbea6a4)" style="fill: none; stroke: #008000; stroke-width: 1.5; stroke-linecap: square"/>
   </g>
   <g id="line2d_100">
    <path d="M 239.230895 258.165543 
L 239.636019 258.547801 
L 240.041143 258.930059 
L 240.446267 259.312317 
L 240.851391 259.694576 
L 241.256515 260.076834 
" clip-path="url(#pf8cbbea6a4)" style="fill: none; stroke: #008000; stroke-width: 1.5; stroke-linecap: square"/>
   </g>
   <g id="line2d_101">
    <path d="M 241.272748 260.087796 
L 241.677872 260.463946 
L 242.082995 260.838088 
L 242.488119 261.21022 
L 242.893243 261.580343 
L 243.298367 261.948457 
" clip-path="url(#pf8cbbea6a4)" style="fill: none; stroke: #008000; stroke-width: 1.5; stroke-linecap: square"/>
   </g>
   <g id="line2d_102">
    <path d="M 243.3146 261.963165 
L 243.719724 262.329189 
L 244.124848 262.693205 
L 244.529972 263.055211 
L 244.935096 263.415208 
L 245.34022 263.773196 
" clip-path="url(#pf8cbbea6a4)" style="fill: none; stroke: #008000; stroke-width: 1.5; stroke-linecap: square"/>
   </g>
   <g id="line2d_103">
    <path d="M 245.356453 263.787498 
L 245.761577 264.143396 
L 246.1667 264.497286 
L 246.571824 264.849166 
L 246.976948 265.199037 
L 247.382072 265.546899 
" clip-path="url(#pf8cbbea6a4)" style="fill: none; stroke: #008000; stroke-width: 1.5; stroke-linecap: square"/>
   </g>
   <g id="line2d_104">
    <path d="M 247.398305 265.560795 
L 247.803429 265.906568 
L 248.208553 266.250331 
L 248.613677 266.592085 
L 249.018801 266.93183 
L 249.423925 267.269566 
" clip-path="url(#pf8cbbea6a4)" style="fill: none; stroke: #008000; stroke-width: 1.5; stroke-linecap: square"/>
   </g>
   <g id="line2d_105">
    <path d="M 249.440158 267.283056 
L 249.845281 267.618703 
L 250.250405 267.95234 
L 250.655529 268.283968 
L 251.060653 268.613587 
L 251.465777 268.941197 
" clip-path="url(#pf8cbbea6a4)" style="fill: none; stroke: #008000; stroke-width: 1.5; stroke-linecap: square"/>
   </g>
   <g id="line2d_106">
    <path d="M 251.48201 268.954282 
L 251.887134 269.279802 
L 252.292258 269.603313 
L 252.697382 269.924815 
L 253.102506 270.244308 
L 253.50763 270.561792 
" clip-path="url(#pf8cbbea6a4)" style="fill: none; stroke: #008000; stroke-width: 1.5; stroke-linecap: square"/>
   </g>
   <g id="line2d_107">
    <path d="M 253.523863 270.574471 
L 253.928986 270.889865 
L 254.33411 271.20325 
L 254.739234 271.514626 
L 255.144358 271.823993 
L 255.549482 272.131351 
" clip-path="url(#pf8cbbea6a4)" style="fill: none; stroke: #008000; stroke-width: 1.5; stroke-linecap: square"/>
   </g>
   <g id="line2d_108">
    <path d="M 255.565715 272.143624 
L 255.970839 272.448892 
L 256.375963 272.752151 
L 256.781087 273.053401 
L 257.186211 273.352642 
L 257.591335 273.649874 
" clip-path="url(#pf8cbbea6a4)" style="fill: none; stroke: #008000; stroke-width: 1.5; stroke-linecap: square"/>
   </g>
   <g id="line2d_109">
    <path d="M 257.607567 273.661742 
L 258.012691 273.956884 
L 258.417815 274.250017 
L 258.822939 274.541141 
L 259.228063 274.830255 
L 259.633187 275.117361 
" clip-path="url(#pf8cbbea6a4)" style="fill: none; stroke: #008000; stroke-width: 1.5; stroke-linecap: square"/>
   </g>
   <g id="line2d_110">
    <path d="M 259.64942 275.128823 
L 260.054544 275.413839 
L 260.459668 275.696846 
L 260.864792 275.977844 
L 261.269916 276.256832 
L 261.67504 276.533812 
" clip-path="url(#pf8cbbea6a4)" style="fill: none; stroke: #008000; stroke-width: 1.5; stroke-linecap: square"/>
   </g>
   <g id="line2d_111">
    <path d="M 261.691272 276.544868 
L 262.096396 276.819758 
L 262.50152 277.092639 
L 262.906644 277.363511 
L 263.311768 277.632374 
L 263.716892 277.899227 
" clip-path="url(#pf8cbbea6a4)" style="fill: none; stroke: #008000; stroke-width: 1.5; stroke-linecap: square"/>
   </g>
   <g id="line2d_112">
    <path d="M 263.733125 277.909878 
L 264.138249 278.174642 
L 264.543373 278.437397 
L 264.948497 278.698142 
L 265.353621 278.956879 
L 265.758745 279.213606 
" clip-path="url(#pf8cbbea6a4)" style="fill: none; stroke: #008000; stroke-width: 1.5; stroke-linecap: square"/>
   </g>
   <g id="line2d_113">
    <path d="M 265.774977 279.223851 
L 266.180101 279.478489 
L 266.585225 279.731118 
L 266.990349 279.981738 
L 267.395473 280.230348 
L 267.800597 280.47695 
" clip-path="url(#pf8cbbea6a4)" style="fill: none; stroke: #008000; stroke-width: 1.5; stroke-linecap: square"/>
   </g>
   <g id="line2d_114">
    <path d="M 267.81683 280.486789 
L 268.221954 280.7313 
L 268.627078 280.973803 
L 269.032202 281.214297 
L 269.437326 281.452781 
L 269.84245 281.689257 
" clip-path="url(#pf8cbbea6a4)" style="fill: none; stroke: #008000; stroke-width: 1.5; stroke-linecap: square"/>
   </g>
   <g id="line2d_115">
    <path d="M 269.858682 281.69869 
L 270.263806 281.933076 
L 270.66893 282.165453 
L 271.074054 282.39582 
L 271.479178 282.624179 
L 271.884302 282.850528 
" clip-path="url(#pf8cbbea6a4)" style="fill: none; stroke: #008000; stroke-width: 1.5; stroke-linecap: square"/>
   </g>
   <g id="line2d_116">
    <path d="M 271.900535 282.859556 
L 272.305659 283.083815 
L 272.710783 283.306066 
L 273.115907 283.526308 
L 273.521031 283.74454 
L 273.926155 283.960763 
" clip-path="url(#pf8cbbea6a4)" style="fill: none; stroke: #008000; stroke-width: 1.5; stroke-linecap: square"/>
   </g>
   <g id="line2d_117">
    <path d="M 273.942387 283.969385 
L 274.347511 284.183519 
L 274.752635 284.395643 
L 275.157759 284.605759 
L 275.562883 284.813865 
L 275.968007 285.019963 
" clip-path="url(#pf8cbbea6a4)" style="fill: none; stroke: #008000; stroke-width: 1.5; stroke-linecap: square"/>
   </g>
   <g id="line2d_118">
    <path d="M 275.98424 285.028179 
L 276.389364 285.232186 
L 276.794488 285.434185 
L 277.199612 285.634174 
L 277.604736 285.832155 
L 278.00986 286.028126 
" clip-path="url(#pf8cbbea6a4)" style="fill: none; stroke: #008000; stroke-width: 1.5; stroke-linecap: square"/>
   </g>
   <g id="line2d_119">
    <path d="M 278.026092 286.035936 
L 278.431216 286.229818 
L 278.83634 286.42169 
L 279.241464 286.611554 
L 279.646588 286.799408 
L 280.051712 286.985253 
" clip-path="url(#pf8cbbea6a4)" style="fill: none; stroke: #008000; stroke-width: 1.5; stroke-linecap: square"/>
   </g>
   <g id="line2d_120">
    <path d="M 280.067945 286.992658 
L 280.473069 287.176414 
L 280.878193 287.35816 
L 281.283317 287.537897 
L 281.688441 287.715626 
L 282.093565 287.891345 
" clip-path="url(#pf8cbbea6a4)" style="fill: none; stroke: #008000; stroke-width: 1.5; stroke-linecap: square"/>
   </g>
   <g id="line2d_121">
    <path d="M 282.109797 287.898344 
L 282.514921 288.071973 
L 282.920045 288.243594 
L 283.325169 288.413205 
L 283.730293 288.580807 
L 284.135417 288.7464 
" clip-path="url(#pf8cbbea6a4)" style="fill: none; stroke: #008000; stroke-width: 1.5; stroke-linecap: square"/>
   </g>
   <g id="line2d_122">
    <path d="M 284.15165 288.752993 
L 284.556774 288.916497 
L 284.961898 289.077991 
L 285.367022 289.237476 
L 285.772146 289.394953 
L 286.17727 289.55042 
" clip-path="url(#pf8cbbea6a4)" style="fill: none; stroke: #008000; stroke-width: 1.5; stroke-linecap: square"/>
   </g>
   <g id="line2d_123">
    <path d="M 286.193502 289.556607 
L 286.598626 289.709984 
L 287.00375 289.861353 
L 287.408874 290.010712 
L 287.813998 290.158062 
L 288.219122 290.303403 
" clip-path="url(#pf8cbbea6a4)" style="fill: none; stroke: #008000; stroke-width: 1.5; stroke-linecap: square"/>
   </g>
   <g id="line2d_124">
    <path d="M 288.235355 290.309185 
L 288.640479 290.452436 
L 289.045603 290.593678 
L 289.450727 290.732912 
L 289.855851 290.870136 
L 290.260975 291.005351 
" clip-path="url(#pf8cbbea6a4)" style="fill: none; stroke: #008000; stroke-width: 1.5; stroke-linecap: square"/>
   </g>
   <g id="line2d_125">
    <path d="M 290.277207 291.010727 
L 290.682331 291.143852 
L 291.087455 291.274968 
L 291.492579 291.404075 
L 291.897703 291.531173 
L 292.302827 291.656262 
" clip-path="url(#pf8cbbea6a4)" style="fill: none; stroke: #008000; stroke-width: 1.5; stroke-linecap: square"/>
   </g>
   <g id="line2d_126">
    <path d="M 292.31906 291.661232 
L 292.724184 291.784232 
L 293.129308 291.905222 
L 293.534432 292.024203 
L 293.939556 292.141175 
L 294.34468 292.256138 
" clip-path="url(#pf8cbbea6a4)" style="fill: none; stroke: #008000; stroke-width: 1.5; stroke-linecap: square"/>
   </g>
   <g id="line2d_127">
    <path d="M 294.360912 292.260702 
L 294.766036 292.373575 
L 295.17116 292.484439 
L 295.576284 292.593294 
L 295.981408 292.70014 
L 296.386532 292.804977 
" clip-path="url(#pf8cbbea6a4)" style="fill: none; stroke: #008000; stroke-width: 1.5; stroke-linecap: square"/>
   </g>
   <g id="line2d_128">
    <path d="M 296.402765 292.809136 
L 296.807889 292.911883 
L 297.213013 293.012621 
L 297.618137 293.11135 
L 298.023261 293.20807 
L 298.428384 293.302781 
" clip-path="url(#pf8cbbea6a4)" style="fill: none; stroke: #008000; stroke-width: 1.5; stroke-linecap: square"/>
   </g>
   <g id="line2d_129">
    <path d="M 298.444617 293.306534 
L 298.849741 293.399155 
L 299.254865 293.489767 
L 299.659989 293.57837 
L 300.065113 293.664964 
L 300.470237 293.749548 
" clip-path="url(#pf8cbbea6a4)" style="fill: none; stroke: #008000; stroke-width: 1.5; stroke-linecap: square"/>
   </g>
   <g id="line2d_130">
    <path d="M 300.48647 293.752896 
L 300.891594 293.835391 
L 301.296718 293.915877 
L 301.701842 293.994354 
L 302.106966 294.070821 
L 302.512089 294.14528 
" clip-path="url(#pf8cbbea6a4)" style="fill: none; stroke: #008000; stroke-width: 1.5; stroke-linecap: square"/>
   </g>
   <g id="line2d_131">
    <path d="M 302.528322 294.148222 
L 302.933446 294.220591 
L 303.33857 294.290951 
L 303.743694 294.359301 
L 304.148818 294.425643 
L 304.553942 294.489976 
" clip-path="url(#pf8cbbea6a4)" style="fill: none; stroke: #008000; stroke-width: 1.5; stroke-linecap: square"/>
   </g>
   <g id="line2d_132">
    <path d="M 304.570175 294.492512 
L 304.975299 294.554755 
L 305.380423 294.614988 
L 305.785547 294.673213 
L 306.19067 294.729429 
L 306.595794 294.783635 
" clip-path="url(#pf8cbbea6a4)" style="fill: none; stroke: #008000; stroke-width: 1.5; stroke-linecap: square"/>
   </g>
   <g id="line2d_133">
    <path d="M 306.612027 294.785766 
L 307.017151 294.837882 
L 307.422275 294.88799 
L 307.827399 294.936089 
L 308.232523 294.982179 
L 308.637647 295.026259 
" clip-path="url(#pf8cbbea6a4)" style="fill: none; stroke: #008000; stroke-width: 1.5; stroke-linecap: square"/>
   </g>
   <g id="line2d_134">
    <path d="M 308.65388 295.027984 
L 309.059004 295.069974 
L 309.464128 295.109956 
L 309.869252 295.147929 
L 310.274375 295.183892 
L 310.679499 295.217847 
" clip-path="url(#pf8cbbea6a4)" style="fill: none; stroke: #008000; stroke-width: 1.5; stroke-linecap: square"/>
   </g>
   <g id="line2d_135">
    <path d="M 310.695732 295.219166 
L 311.100856 295.25103 
L 311.50598 295.280886 
L 311.911104 295.308733 
L 312.316228 295.33457 
L 312.721352 295.358399 
" clip-path="url(#pf8cbbea6a4)" style="fill: none; stroke: #008000; stroke-width: 1.5; stroke-linecap: square"/>
   </g>
   <g id="line2d_136">
    <path d="M 312.737585 295.359312 
L 313.142709 295.38105 
L 313.547833 295.40078 
L 313.952956 295.418501 
L 314.35808 295.434212 
L 314.763204 295.447915 
" clip-path="url(#pf8cbbea6a4)" style="fill: none; stroke: #008000; stroke-width: 1.5; stroke-linecap: square"/>
   </g>
   <g id="line2d_137">
    <path d="M 314.779437 295.448422 
L 315.184561 295.460034 
L 315.589685 295.469638 
L 315.994809 295.477233 
L 316.399933 295.482818 
L 316.805057 295.486394 
" clip-path="url(#pf8cbbea6a4)" style="fill: none; stroke: #008000; stroke-width: 1.5; stroke-linecap: square"/>
   </g>
   <g id="line2d_138">
    <path d="M 316.82129 295.486496 
L 317.226414 295.487983 
L 317.631538 295.48746 
L 318.036661 295.484929 
L 318.441785 295.480388 
L 318.846909 295.473838 
" clip-path="url(#pf8cbbea6a4)" style="fill: none; stroke: #008000; stroke-width: 1.5; stroke-linecap: square"/>
   </g>
   <g id="line2d_139">
    <path d="M 318.863142 295.473534 
L 319.268266 295.464895 
L 319.67339 295.454246 
L 320.078514 295.441589 
L 320.483638 295.426922 
L 320.888762 295.410246 
" clip-path="url(#pf8cbbea6a4)" style="fill: none; stroke: #008000; stroke-width: 1.5; stroke-linecap: square"/>
   </g>
   <g id="line2d_140">
    <path d="M 320.904995 295.409536 
L 321.310119 295.390771 
L 321.715242 295.369996 
L 322.120366 295.347213 
L 322.52549 295.32242 
L 322.930614 295.295618 
" clip-path="url(#pf8cbbea6a4)" style="fill: none; stroke: #008000; stroke-width: 1.5; stroke-linecap: square"/>
   </g>
   <g id="line2d_141">
    <path d="M 322.946847 295.294502 
L 323.351971 295.265611 
L 323.757095 295.23471 
L 324.162219 295.201801 
L 324.567343 295.166882 
L 324.972467 295.129954 
" clip-path="url(#pf8cbbea6a4)" style="fill: none; stroke: #008000; stroke-width: 1.5; stroke-linecap: square"/>
   </g>
   <g id="line2d_142">
    <path d="M 324.9887 295.128433 
L 325.393824 295.089415 
L 325.798947 295.048388 
L 326.204071 295.005353 
L 326.609195 294.960308 
L 327.014319 294.913254 
" clip-path="url(#pf8cbbea6a4)" style="fill: none; stroke: #008000; stroke-width: 1.5; stroke-linecap: square"/>
   </g>
   <g id="line2d_143">
    <path d="M 327.030552 294.911327 
L 327.435676 294.862183 
L 327.8408 294.811031 
L 328.245924 294.757869 
L 328.651048 294.702698 
L 329.056172 294.645518 
" clip-path="url(#pf8cbbea6a4)" style="fill: none; stroke: #008000; stroke-width: 1.5; stroke-linecap: square"/>
   </g>
   <g id="line2d_144">
    <path d="M 329.072405 294.643185 
L 329.477528 294.583916 
L 329.882652 294.522637 
L 330.287776 294.459349 
L 330.6929 294.394052 
L 331.098024 294.326746 
" clip-path="url(#pf8cbbea6a4)" style="fill: none; stroke: #008000; stroke-width: 1.5; stroke-linecap: square"/>
   </g>
   <g id="line2d_145">
    <path d="M 331.114257 294.324007 
L 331.519381 294.254612 
L 331.924505 294.183207 
L 332.329629 294.109793 
L 332.734753 294.03437 
L 333.139877 293.956938 
" clip-path="url(#pf8cbbea6a4)" style="fill: none; stroke: #008000; stroke-width: 1.5; stroke-linecap: square"/>
   </g>
   <g id="line2d_146">
    <path d="M 333.15611 293.953794 
L 333.561233 293.874272 
L 333.966357 293.792741 
L 334.371481 293.709201 
L 334.776605 293.623652 
L 335.181729 293.536094 
" clip-path="url(#pf8cbbea6a4)" style="fill: none; stroke: #008000; stroke-width: 1.5; stroke-linecap: square"/>
   </g>
   <g id="line2d_147">
    <path d="M 335.197962 293.532544 
L 335.603086 293.442896 
L 336.00821 293.35124 
L 336.413334 293.257574 
L 336.818458 293.161899 
L 337.223582 293.064214 
" clip-path="url(#pf8cbbea6a4)" style="fill: none; stroke: #008000; stroke-width: 1.5; stroke-linecap: square"/>
   </g>
   <g id="line2d_148">
    <path d="M 337.239814 293.060258 
L 337.644938 292.960485 
L 338.050062 292.858702 
L 338.455186 292.75491 
L 338.86031 292.649109 
L 339.265434 292.541299 
" clip-path="url(#pf8cbbea6a4)" style="fill: none; stroke: #008000; stroke-width: 1.5; stroke-linecap: square"/>
   </g>
   <g id="line2d_149">
    <path d="M 339.281667 292.536937 
L 339.686791 292.427037 
L 340.091915 292.315128 
L 340.497039 292.20121 
L 340.902163 292.085283 
L 341.307287 291.967347 
" clip-path="url(#pf8cbbea6a4)" style="fill: none; stroke: #008000; stroke-width: 1.5; stroke-linecap: square"/>
   </g>
   <g id="line2d_150">
    <path d="M 341.323519 291.962579 
L 341.728643 291.842553 
L 342.133767 291.720518 
L 342.538891 291.596474 
L 342.944015 291.470421 
L 343.349139 291.342359 
" clip-path="url(#pf8cbbea6a4)" style="fill: none; stroke: #008000; stroke-width: 1.5; stroke-linecap: square"/>
   </g>
   <g id="line2d_151">
    <path d="M 343.365372 291.337186 
L 343.770496 291.207034 
L 344.17562 291.074873 
L 344.580744 290.940703 
L 344.985868 290.804523 
L 345.390992 290.666335 
" clip-path="url(#pf8cbbea6a4)" style="fill: none; stroke: #008000; stroke-width: 1.5; stroke-linecap: square"/>
   </g>
   <g id="line2d_152">
    <path d="M 345.407224 290.660756 
L 345.812348 290.520478 
L 346.217472 290.378191 
L 346.622596 290.233895 
L 347.02772 290.08759 
L 347.432844 289.939275 
" clip-path="url(#pf8cbbea6a4)" style="fill: none; stroke: #008000; stroke-width: 1.5; stroke-linecap: square"/>
   </g>
   <g id="line2d_153">
    <path d="M 347.449077 289.933291 
L 347.854201 289.782887 
L 348.259325 289.630474 
L 348.664449 289.476051 
L 349.069573 289.31962 
L 349.474697 289.16118 
" clip-path="url(#pf8cbbea6a4)" style="fill: none; stroke: #008000; stroke-width: 1.5; stroke-linecap: square"/>
   </g>
   <g id="line2d_154">
    <path d="M 349.490929 289.154789 
L 349.896053 288.994259 
L 350.301177 288.83172 
L 350.706301 288.667172 
L 351.111425 288.500614 
L 351.516549 288.332048 
" clip-path="url(#pf8cbbea6a4)" style="fill: none; stroke: #008000; stroke-width: 1.5; stroke-linecap: square"/>
   </g>
   <g id="line2d_155">
    <path d="M 351.532782 288.325252 
L 351.937906 288.154596 
L 352.34303 287.981931 
L 352.748154 287.807256 
L 353.153278 287.630573 
L 353.558402 287.45188 
" clip-path="url(#pf8cbbea6a4)" style="fill: none; stroke: #008000; stroke-width: 1.5; stroke-linecap: square"/>
   </g>
   <g id="line2d_156">
    <path d="M 353.574634 287.444678 
L 353.979758 287.263896 
L 354.384882 287.081105 
L 354.790006 286.896305 
L 355.19513 286.709495 
L 355.600254 286.520677 
" clip-path="url(#pf8cbbea6a4)" style="fill: none; stroke: #008000; stroke-width: 1.5; stroke-linecap: square"/>
   </g>
   <g id="line2d_157">
    <path d="M 355.616487 286.513069 
L 356.021611 286.322161 
L 356.426735 286.129244 
L 356.831859 285.934317 
L 357.236983 285.737382 
L 357.642107 285.538437 
" clip-path="url(#pf8cbbea6a4)" style="fill: none; stroke: #008000; stroke-width: 1.5; stroke-linecap: square"/>
   </g>
   <g id="line2d_158">
    <path d="M 357.658339 285.530424 
L 358.063463 285.32939 
L 358.468587 285.126346 
L 358.873711 284.921294 
L 359.278835 284.714232 
L 359.683959 284.505161 
" clip-path="url(#pf8cbbea6a4)" style="fill: none; stroke: #008000; stroke-width: 1.5; stroke-linecap: square"/>
   </g>
   <g id="line2d_159">
    <path d="M 359.700192 284.496742 
L 360.105316 284.285582 
L 360.51044 284.072413 
L 360.915564 283.857234 
L 361.320688 283.640047 
L 361.725812 283.42085 
" clip-path="url(#pf8cbbea6a4)" style="fill: none; stroke: #008000; stroke-width: 1.5; stroke-linecap: square"/>
   </g>
   <g id="line2d_160">
    <path d="M 361.742044 283.412025 
L 362.147168 283.190739 
L 362.552292 282.967443 
L 362.957416 282.742139 
L 363.36254 282.514825 
L 363.767664 282.285502 
" clip-path="url(#pf8cbbea6a4)" style="fill: none; stroke: #008000; stroke-width: 1.5; stroke-linecap: square"/>
   </g>
   <g id="line2d_161">
    <path d="M 363.783897 282.276272 
L 364.189021 282.04486 
L 364.594145 281.811438 
L 364.999269 281.576007 
L 365.404393 281.338568 
L 365.809517 281.099119 
" clip-path="url(#pf8cbbea6a4)" style="fill: none; stroke: #008000; stroke-width: 1.5; stroke-linecap: square"/>
   </g>
   <g id="line2d_162">
    <path d="M 365.825749 281.089483 
L 366.230873 280.847944 
L 366.635997 280.604397 
L 367.041121 280.35884 
L 367.446245 280.111274 
L 367.851369 279.861699 
" clip-path="url(#pf8cbbea6a4)" style="fill: none; stroke: #008000; stroke-width: 1.5; stroke-linecap: square"/>
   </g>
   <g id="line2d_163">
    <path d="M 367.867602 279.851657 
L 368.272726 279.599993 
L 368.67785 279.346319 
L 369.082974 279.090637 
L 369.488098 278.832945 
L 369.893222 278.573244 
" clip-path="url(#pf8cbbea6a4)" style="fill: none; stroke: #008000; stroke-width: 1.5; stroke-linecap: square"/>
   </g>
   <g id="line2d_164">
    <path d="M 369.909454 278.562796 
L 370.314578 278.301006 
L 370.719702 278.037206 
L 371.124826 277.771397 
L 371.52995 277.503579 
L 371.935074 277.233753 
" clip-path="url(#pf8cbbea6a4)" style="fill: none; stroke: #008000; stroke-width: 1.5; stroke-linecap: square"/>
   </g>
   <g id="line2d_165">
    <path d="M 371.951307 277.222899 
L 372.356431 276.950983 
L 372.761555 276.677057 
L 373.166679 276.401122 
L 373.571803 276.123178 
L 373.976927 275.843225 
" clip-path="url(#pf8cbbea6a4)" style="fill: none; stroke: #008000; stroke-width: 1.5; stroke-linecap: square"/>
   </g>
   <g id="line2d_166">
    <path d="M 373.993159 275.831966 
L 374.398283 275.549923 
L 374.803407 275.265872 
L 375.208531 274.979811 
L 375.613655 274.691741 
L 376.018779 274.401662 
" clip-path="url(#pf8cbbea6a4)" style="fill: none; stroke: #008000; stroke-width: 1.5; stroke-linecap: square"/>
   </g>
   <g id="line2d_167">
    <path d="M 376.035012 274.389997 
L 376.440136 274.097828 
L 376.84526 273.80365 
L 377.250384 273.507464 
L 377.655508 273.209268 
L 378.060631 272.909062 
" clip-path="url(#pf8cbbea6a4)" style="fill: none; stroke: #008000; stroke-width: 1.5; stroke-linecap: square"/>
   </g>
   <g id="line2d_168">
    <path d="M 378.076864 272.896992 
L 378.481988 272.594697 
L 378.887112 272.290393 
L 379.292236 271.98408 
L 379.69736 271.675758 
L 380.102484 271.365427 
" clip-path="url(#pf8cbbea6a4)" style="fill: none; stroke: #008000; stroke-width: 1.5; stroke-linecap: square"/>
   </g>
   <g id="line2d_169">
    <path d="M 380.118717 271.352951 
L 380.523841 271.04053 
L 380.928965 270.7261 
L 381.334089 270.409661 
L 381.739213 270.091213 
L 382.144336 269.770756 
" clip-path="url(#pf8cbbea6a4)" style="fill: none; stroke: #008000; stroke-width: 1.5; stroke-linecap: square"/>
   </g>
   <g id="line2d_170">
    <path d="M 382.160569 269.757874 
L 382.565693 269.435327 
L 382.970817 269.110771 
L 383.375941 268.784206 
L 383.781065 268.455632 
L 384.186189 268.125049 
" clip-path="url(#pf8cbbea6a4)" style="fill: none; stroke: #008000; stroke-width: 1.5; stroke-linecap: square"/>
   </g>
   <g id="line2d_171">
    <path d="M 384.202422 268.111761 
L 384.607546 267.779088 
L 385.01267 267.444406 
L 385.417794 267.107715 
L 385.822917 266.769015 
L 386.228041 266.428305 
" clip-path="url(#pf8cbbea6a4)" style="fill: none; stroke: #008000; stroke-width: 1.5; stroke-linecap: square"/>
   </g>
   <g id="line2d_172">
    <path d="M 386.244274 266.414612 
L 386.649398 266.071813 
L 387.054522 265.727005 
L 387.459646 265.380188 
L 387.86477 265.031361 
L 388.269894 264.680526 
" clip-path="url(#pf8cbbea6a4)" style="fill: none; stroke: #008000; stroke-width: 1.5; stroke-linecap: square"/>
   </g>
   <g id="line2d_173">
    <path d="M 388.286127 264.666427 
L 388.691251 264.313502 
L 389.096375 263.958568 
L 389.501499 263.601625 
L 389.906622 263.242672 
L 390.311746 262.881711 
" clip-path="url(#pf8cbbea6a4)" style="fill: none; stroke: #008000; stroke-width: 1.5; stroke-linecap: square"/>
   </g>
   <g id="line2d_174">
    <path d="M 390.327979 262.867206 
L 390.733103 262.504155 
L 391.138227 262.139095 
L 391.543351 261.772026 
L 391.948475 261.402947 
L 392.353599 261.03186 
" clip-path="url(#pf8cbbea6a4)" style="fill: none; stroke: #008000; stroke-width: 1.5; stroke-linecap: square"/>
   </g>
   <g id="line2d_175">
    <path d="M 392.369832 261.016949 
L 392.774956 260.643772 
L 393.18008 260.268586 
L 393.585203 259.891391 
L 393.990327 259.512186 
L 394.395451 259.130973 
" clip-path="url(#pf8cbbea6a4)" style="fill: none; stroke: #008000; stroke-width: 1.5; stroke-linecap: square"/>
   </g>
   <g id="line2d_176">
    <path d="M 394.411684 259.115656 
L 394.816808 258.732353 
L 395.221932 258.347041 
L 395.627056 257.95972 
L 396.03218 257.570389 
L 396.437304 257.17905 
" clip-path="url(#pf8cbbea6a4)" style="fill: none; stroke: #008000; stroke-width: 1.5; stroke-linecap: square"/>
   </g>
   <g id="line2d_177">
    <path d="M 396.453537 257.163327 
L 396.858661 256.769898 
L 397.263785 256.37446 
L 397.668908 255.977013 
L 398.074032 255.577556 
L 398.479156 255.176091 
" clip-path="url(#pf8cbbea6a4)" style="fill: none; stroke: #008000; stroke-width: 1.5; stroke-linecap: square"/>
   </g>
   <g id="patch_3">
    <path d="M 57.6 307.584 
L 57.6 41.472 
" style="fill: none; stroke: #000000; stroke-width: 0.8; stroke-linejoin: miter; stroke-linecap: square"/>
   </g>
   <g id="patch_4">
    <path d="M 414.72 307.584 
L 414.72 41.472 
" style="fill: none; stroke: #000000; stroke-width: 0.8; stroke-linejoin: miter; stroke-linecap: square"/>
   </g>
   <g id="patch_5">
    <path d="M 57.6 307.584 
L 414.72 307.584 
" style="fill: none; stroke: #000000; stroke-width: 0.8; stroke-linejoin: miter; stroke-linecap: square"/>
   </g>
   <g id="patch_6">
    <path d="M 57.6 41.472 
L 414.72 41.472 
" style="fill: none; stroke: #000000; stroke-width: 0.8; stroke-linejoin: miter; stroke-linecap: square"/>
   </g>
   <g id="legend_1">
    <g id="patch_7">
     <path d="M 64.6 93.906375 
L 210.795312 93.906375 
Q 212.795312 93.906375 212.795312 91.906375 
L 212.795312 48.472 
Q 212.795312 46.472 210.795312 46.472 
L 64.6 46.472 
Q 62.6 46.472 62.6 48.472 
L 62.6 91.906375 
Q 62.6 93.906375 64.6 93.906375 
z
" style="fill: #ffffff; opacity: 0.8; stroke: #cccccc; stroke-linejoin: miter"/>
    </g>
    <g id="line2d_178">
     <path d="M 66.6 54.570437 
L 76.6 54.570437 
L 86.6 54.570437 
" style="fill: none; stroke: #0000ff; stroke-width: 1.5; stroke-linecap: square"/>
    </g>
    <g id="text_20">
     <!-- Původní funkce -->
     <g transform="translate(94.6 58.070437)scale(0.1 -0.1)">
      <defs>
       <path id="DejaVuSans-50" d="M 1259 4147 
L 1259 2394 
L 2053 2394 
Q 2494 2394 2734 2622 
Q 2975 2850 2975 3272 
Q 2975 3691 2734 3919 
Q 2494 4147 2053 4147 
L 1259 4147 
z
M 628 4666 
L 2053 4666 
Q 2838 4666 3239 4311 
Q 3641 3956 3641 3272 
Q 3641 2581 3239 2228 
Q 2838 1875 2053 1875 
L 1259 1875 
L 1259 0 
L 628 0 
L 628 4666 
z
" transform="scale(0.015625)"/>
       <path id="DejaVuSans-16f" d="M 544 1381 
L 544 3500 
L 1119 3500 
L 1119 1403 
Q 1119 906 1312 657 
Q 1506 409 1894 409 
Q 2359 409 2629 706 
Q 2900 1003 2900 1516 
L 2900 3500 
L 3475 3500 
L 3475 0 
L 2900 0 
L 2900 538 
Q 2691 219 2414 64 
Q 2138 -91 1772 -91 
Q 1169 -91 856 284 
Q 544 659 544 1381 
z
M 1991 3584 
L 1991 3584 
z
M 2463 4575 
Q 2463 4771 2325 4908 
Q 2188 5046 1988 5046 
Q 1784 5046 1648 4910 
Q 1513 4775 1513 4575 
Q 1513 4371 1648 4235 
Q 1784 4100 1988 4100 
Q 2188 4100 2325 4237 
Q 2463 4375 2463 4575 
z
M 2844 4575 
Q 2844 4215 2595 3965 
Q 2347 3715 1988 3715 
Q 1628 3715 1379 3965 
Q 1131 4215 1131 4575 
Q 1131 4934 1379 5182 
Q 1628 5431 1988 5431 
Q 2347 5431 2595 5182 
Q 2844 4934 2844 4575 
z
" transform="scale(0.015625)"/>
       <path id="DejaVuSans-76" d="M 191 3500 
L 800 3500 
L 1894 563 
L 2988 3500 
L 3597 3500 
L 2284 0 
L 1503 0 
L 191 3500 
z
" transform="scale(0.015625)"/>
       <path id="DejaVuSans-6f" d="M 1959 3097 
Q 1497 3097 1228 2736 
Q 959 2375 959 1747 
Q 959 1119 1226 758 
Q 1494 397 1959 397 
Q 2419 397 2687 759 
Q 2956 1122 2956 1747 
Q 2956 2369 2687 2733 
Q 2419 3097 1959 3097 
z
M 1959 3584 
Q 2709 3584 3137 3096 
Q 3566 2609 3566 1747 
Q 3566 888 3137 398 
Q 2709 -91 1959 -91 
Q 1206 -91 779 398 
Q 353 888 353 1747 
Q 353 2609 779 3096 
Q 1206 3584 1959 3584 
z
" transform="scale(0.015625)"/>
       <path id="DejaVuSans-64" d="M 2906 2969 
L 2906 4863 
L 3481 4863 
L 3481 0 
L 2906 0 
L 2906 525 
Q 2725 213 2448 61 
Q 2172 -91 1784 -91 
Q 1150 -91 751 415 
Q 353 922 353 1747 
Q 353 2572 751 3078 
Q 1150 3584 1784 3584 
Q 2172 3584 2448 3432 
Q 2725 3281 2906 2969 
z
M 947 1747 
Q 947 1113 1208 752 
Q 1469 391 1925 391 
Q 2381 391 2643 752 
Q 2906 1113 2906 1747 
Q 2906 2381 2643 2742 
Q 2381 3103 1925 3103 
Q 1469 3103 1208 2742 
Q 947 2381 947 1747 
z
" transform="scale(0.015625)"/>
       <path id="DejaVuSans-6e" d="M 3513 2113 
L 3513 0 
L 2938 0 
L 2938 2094 
Q 2938 2591 2744 2837 
Q 2550 3084 2163 3084 
Q 1697 3084 1428 2787 
Q 1159 2491 1159 1978 
L 1159 0 
L 581 0 
L 581 3500 
L 1159 3500 
L 1159 2956 
Q 1366 3272 1645 3428 
Q 1925 3584 2291 3584 
Q 2894 3584 3203 3211 
Q 3513 2838 3513 2113 
z
" transform="scale(0.015625)"/>
       <path id="DejaVuSans-ed" d="M 1325 5119 
L 1947 5119 
L 928 3944 
L 450 3944 
L 1325 5119 
z
M 603 3500 
L 1178 3500 
L 1178 0 
L 603 0 
L 603 3500 
z
M 891 3584 
L 891 3584 
z
" transform="scale(0.015625)"/>
       <path id="DejaVuSans-20" transform="scale(0.015625)"/>
       <path id="DejaVuSans-66" d="M 2375 4863 
L 2375 4384 
L 1825 4384 
Q 1516 4384 1395 4259 
Q 1275 4134 1275 3809 
L 1275 3500 
L 2222 3500 
L 2222 3053 
L 1275 3053 
L 1275 0 
L 697 0 
L 697 3053 
L 147 3053 
L 147 3500 
L 697 3500 
L 697 3744 
Q 697 4328 969 4595 
Q 1241 4863 1831 4863 
L 2375 4863 
z
" transform="scale(0.015625)"/>
       <path id="DejaVuSans-75" d="M 544 1381 
L 544 3500 
L 1119 3500 
L 1119 1403 
Q 1119 906 1312 657 
Q 1506 409 1894 409 
Q 2359 409 2629 706 
Q 2900 1003 2900 1516 
L 2900 3500 
L 3475 3500 
L 3475 0 
L 2900 0 
L 2900 538 
Q 2691 219 2414 64 
Q 2138 -91 1772 -91 
Q 1169 -91 856 284 
Q 544 659 544 1381 
z
M 1991 3584 
L 1991 3584 
z
" transform="scale(0.015625)"/>
       <path id="DejaVuSans-6b" d="M 581 4863 
L 1159 4863 
L 1159 1991 
L 2875 3500 
L 3609 3500 
L 1753 1863 
L 3688 0 
L 2938 0 
L 1159 1709 
L 1159 0 
L 581 0 
L 581 4863 
z
" transform="scale(0.015625)"/>
       <path id="DejaVuSans-63" d="M 3122 3366 
L 3122 2828 
Q 2878 2963 2633 3030 
Q 2388 3097 2138 3097 
Q 1578 3097 1268 2742 
Q 959 2388 959 1747 
Q 959 1106 1268 751 
Q 1578 397 2138 397 
Q 2388 397 2633 464 
Q 2878 531 3122 666 
L 3122 134 
Q 2881 22 2623 -34 
Q 2366 -91 2075 -91 
Q 1284 -91 818 406 
Q 353 903 353 1747 
Q 353 2603 823 3093 
Q 1294 3584 2113 3584 
Q 2378 3584 2631 3529 
Q 2884 3475 3122 3366 
z
" transform="scale(0.015625)"/>
       <path id="DejaVuSans-65" d="M 3597 1894 
L 3597 1613 
L 953 1613 
Q 991 1019 1311 708 
Q 1631 397 2203 397 
Q 2534 397 2845 478 
Q 3156 559 3463 722 
L 3463 178 
Q 3153 47 2828 -22 
Q 2503 -91 2169 -91 
Q 1331 -91 842 396 
Q 353 884 353 1716 
Q 353 2575 817 3079 
Q 1281 3584 2069 3584 
Q 2775 3584 3186 3129 
Q 3597 2675 3597 1894 
z
M 3022 2063 
Q 3016 2534 2758 2815 
Q 2500 3097 2075 3097 
Q 1594 3097 1305 2825 
Q 1016 2553 972 2059 
L 3022 2063 
z
" transform="scale(0.015625)"/>
      </defs>
      <use xlink:href="#DejaVuSans-50"/>
      <use xlink:href="#DejaVuSans-16f" x="58.552734"/>
      <use xlink:href="#DejaVuSans-76" x="121.931641"/>
      <use xlink:href="#DejaVuSans-6f" x="181.111328"/>
      <use xlink:href="#DejaVuSans-64" x="242.292969"/>
      <use xlink:href="#DejaVuSans-6e" x="305.769531"/>
      <use xlink:href="#DejaVuSans-ed" x="369.148438"/>
      <use xlink:href="#DejaVuSans-20" x="396.931641"/>
      <use xlink:href="#DejaVuSans-66" x="428.71875"/>
      <use xlink:href="#DejaVuSans-75" x="463.923828"/>
      <use xlink:href="#DejaVuSans-6e" x="527.302734"/>
      <use xlink:href="#DejaVuSans-6b" x="590.681641"/>
      <use xlink:href="#DejaVuSans-63" x="648.591797"/>
      <use xlink:href="#DejaVuSans-65" x="703.572266"/>
     </g>
    </g>
    <g id="PathCollection_2">
     <g>
      <use xlink:href="#m8e96b4a5a1" x="76.6" y="70.523562" style="fill: #228b22; stroke: #228b22"/>
     </g>
    </g>
    <g id="text_21">
     <!-- Střední hodnoty buněk -->
     <g transform="translate(94.6 73.148562)scale(0.1 -0.1)">
      <defs>
       <path id="DejaVuSans-53" d="M 3425 4513 
L 3425 3897 
Q 3066 4069 2747 4153 
Q 2428 4238 2131 4238 
Q 1616 4238 1336 4038 
Q 1056 3838 1056 3469 
Q 1056 3159 1242 3001 
Q 1428 2844 1947 2747 
L 2328 2669 
Q 3034 2534 3370 2195 
Q 3706 1856 3706 1288 
Q 3706 609 3251 259 
Q 2797 -91 1919 -91 
Q 1588 -91 1214 -16 
Q 841 59 441 206 
L 441 856 
Q 825 641 1194 531 
Q 1563 422 1919 422 
Q 2459 422 2753 634 
Q 3047 847 3047 1241 
Q 3047 1584 2836 1778 
Q 2625 1972 2144 2069 
L 1759 2144 
Q 1053 2284 737 2584 
Q 422 2884 422 3419 
Q 422 4038 858 4394 
Q 1294 4750 2059 4750 
Q 2388 4750 2728 4690 
Q 3069 4631 3425 4513 
z
" transform="scale(0.015625)"/>
       <path id="DejaVuSans-74" d="M 1172 4494 
L 1172 3500 
L 2356 3500 
L 2356 3053 
L 1172 3053 
L 1172 1153 
Q 1172 725 1289 603 
Q 1406 481 1766 481 
L 2356 481 
L 2356 0 
L 1766 0 
Q 1100 0 847 248 
Q 594 497 594 1153 
L 594 3053 
L 172 3053 
L 172 3500 
L 594 3500 
L 594 4494 
L 1172 4494 
z
" transform="scale(0.015625)"/>
       <path id="DejaVuSans-159" d="M 2631 2963 
Q 2534 3019 2420 3045 
Q 2306 3072 2169 3072 
Q 1681 3072 1420 2755 
Q 1159 2438 1159 1844 
L 1159 0 
L 581 0 
L 581 3500 
L 1159 3500 
L 1159 2956 
Q 1341 3275 1631 3429 
Q 1922 3584 2338 3584 
Q 2397 3584 2469 3576 
Q 2541 3569 2628 3553 
L 2631 2963 
z
M 1453 3944 
L 688 5119 
L 1122 5119 
L 1684 4353 
L 2247 5119 
L 2681 5119 
L 1916 3944 
L 1453 3944 
z
" transform="scale(0.015625)"/>
       <path id="DejaVuSans-68" d="M 3513 2113 
L 3513 0 
L 2938 0 
L 2938 2094 
Q 2938 2591 2744 2837 
Q 2550 3084 2163 3084 
Q 1697 3084 1428 2787 
Q 1159 2491 1159 1978 
L 1159 0 
L 581 0 
L 581 4863 
L 1159 4863 
L 1159 2956 
Q 1366 3272 1645 3428 
Q 1925 3584 2291 3584 
Q 2894 3584 3203 3211 
Q 3513 2838 3513 2113 
z
" transform="scale(0.015625)"/>
       <path id="DejaVuSans-79" d="M 2059 -325 
Q 1816 -950 1584 -1140 
Q 1353 -1331 966 -1331 
L 506 -1331 
L 506 -850 
L 844 -850 
Q 1081 -850 1212 -737 
Q 1344 -625 1503 -206 
L 1606 56 
L 191 3500 
L 800 3500 
L 1894 763 
L 2988 3500 
L 3597 3500 
L 2059 -325 
z
" transform="scale(0.015625)"/>
       <path id="DejaVuSans-62" d="M 3116 1747 
Q 3116 2381 2855 2742 
Q 2594 3103 2138 3103 
Q 1681 3103 1420 2742 
Q 1159 2381 1159 1747 
Q 1159 1113 1420 752 
Q 1681 391 2138 391 
Q 2594 391 2855 752 
Q 3116 1113 3116 1747 
z
M 1159 2969 
Q 1341 3281 1617 3432 
Q 1894 3584 2278 3584 
Q 2916 3584 3314 3078 
Q 3713 2572 3713 1747 
Q 3713 922 3314 415 
Q 2916 -91 2278 -91 
Q 1894 -91 1617 61 
Q 1341 213 1159 525 
L 1159 0 
L 581 0 
L 581 4863 
L 1159 4863 
L 1159 2969 
z
" transform="scale(0.015625)"/>
       <path id="DejaVuSans-11b" d="M 3597 1894 
L 3597 1613 
L 953 1613 
Q 991 1019 1311 708 
Q 1631 397 2203 397 
Q 2534 397 2845 478 
Q 3156 559 3463 722 
L 3463 178 
Q 3153 47 2828 -22 
Q 2503 -91 2169 -91 
Q 1331 -91 842 396 
Q 353 884 353 1716 
Q 353 2575 817 3079 
Q 1281 3584 2069 3584 
Q 2775 3584 3186 3129 
Q 3597 2675 3597 1894 
z
M 3022 2063 
Q 3016 2534 2758 2815 
Q 2500 3097 2075 3097 
Q 1594 3097 1305 2825 
Q 1016 2553 972 2059 
L 3022 2063 
z
M 1831 3928 
L 1066 5103 
L 1500 5103 
L 2063 4337 
L 2625 5103 
L 3059 5103 
L 2294 3928 
L 1831 3928 
z
" transform="scale(0.015625)"/>
      </defs>
      <use xlink:href="#DejaVuSans-53"/>
      <use xlink:href="#DejaVuSans-74" x="63.476562"/>
      <use xlink:href="#DejaVuSans-159" x="102.685547"/>
      <use xlink:href="#DejaVuSans-65" x="141.548828"/>
      <use xlink:href="#DejaVuSans-64" x="203.072266"/>
      <use xlink:href="#DejaVuSans-6e" x="266.548828"/>
      <use xlink:href="#DejaVuSans-ed" x="329.927734"/>
      <use xlink:href="#DejaVuSans-20" x="357.710938"/>
      <use xlink:href="#DejaVuSans-68" x="389.498047"/>
      <use xlink:href="#DejaVuSans-6f" x="452.876953"/>
      <use xlink:href="#DejaVuSans-64" x="514.058594"/>
      <use xlink:href="#DejaVuSans-6e" x="577.535156"/>
      <use xlink:href="#DejaVuSans-6f" x="640.914062"/>
      <use xlink:href="#DejaVuSans-74" x="702.095703"/>
      <use xlink:href="#DejaVuSans-79" x="741.304688"/>
      <use xlink:href="#DejaVuSans-20" x="800.484375"/>
      <use xlink:href="#DejaVuSans-62" x="832.271484"/>
      <use xlink:href="#DejaVuSans-75" x="895.748047"/>
      <use xlink:href="#DejaVuSans-6e" x="959.126953"/>
      <use xlink:href="#DejaVuSans-11b" x="1022.505859"/>
      <use xlink:href="#DejaVuSans-6b" x="1084.029297"/>
     </g>
    </g>
    <g id="line2d_179">
     <path d="M 66.6 84.326687 
L 76.6 84.326687 
L 86.6 84.326687 
" style="fill: none; stroke: #008000; stroke-width: 1.5; stroke-linecap: square"/>
    </g>
    <g id="text_22">
     <!-- Rekonstrukce -->
     <g transform="translate(94.6 87.826687)scale(0.1 -0.1)">
      <defs>
       <path id="DejaVuSans-52" d="M 2841 2188 
Q 3044 2119 3236 1894 
Q 3428 1669 3622 1275 
L 4263 0 
L 3584 0 
L 2988 1197 
Q 2756 1666 2539 1819 
Q 2322 1972 1947 1972 
L 1259 1972 
L 1259 0 
L 628 0 
L 628 4666 
L 2053 4666 
Q 2853 4666 3247 4331 
Q 3641 3997 3641 3322 
Q 3641 2881 3436 2590 
Q 3231 2300 2841 2188 
z
M 1259 4147 
L 1259 2491 
L 2053 2491 
Q 2509 2491 2742 2702 
Q 2975 2913 2975 3322 
Q 2975 3731 2742 3939 
Q 2509 4147 2053 4147 
L 1259 4147 
z
" transform="scale(0.015625)"/>
       <path id="DejaVuSans-73" d="M 2834 3397 
L 2834 2853 
Q 2591 2978 2328 3040 
Q 2066 3103 1784 3103 
Q 1356 3103 1142 2972 
Q 928 2841 928 2578 
Q 928 2378 1081 2264 
Q 1234 2150 1697 2047 
L 1894 2003 
Q 2506 1872 2764 1633 
Q 3022 1394 3022 966 
Q 3022 478 2636 193 
Q 2250 -91 1575 -91 
Q 1294 -91 989 -36 
Q 684 19 347 128 
L 347 722 
Q 666 556 975 473 
Q 1284 391 1588 391 
Q 1994 391 2212 530 
Q 2431 669 2431 922 
Q 2431 1156 2273 1281 
Q 2116 1406 1581 1522 
L 1381 1569 
Q 847 1681 609 1914 
Q 372 2147 372 2553 
Q 372 3047 722 3315 
Q 1072 3584 1716 3584 
Q 2034 3584 2315 3537 
Q 2597 3491 2834 3397 
z
" transform="scale(0.015625)"/>
       <path id="DejaVuSans-72" d="M 2631 2963 
Q 2534 3019 2420 3045 
Q 2306 3072 2169 3072 
Q 1681 3072 1420 2755 
Q 1159 2438 1159 1844 
L 1159 0 
L 581 0 
L 581 3500 
L 1159 3500 
L 1159 2956 
Q 1341 3275 1631 3429 
Q 1922 3584 2338 3584 
Q 2397 3584 2469 3576 
Q 2541 3569 2628 3553 
L 2631 2963 
z
" transform="scale(0.015625)"/>
      </defs>
      <use xlink:href="#DejaVuSans-52"/>
      <use xlink:href="#DejaVuSans-65" x="64.982422"/>
      <use xlink:href="#DejaVuSans-6b" x="126.505859"/>
      <use xlink:href="#DejaVuSans-6f" x="180.791016"/>
      <use xlink:href="#DejaVuSans-6e" x="241.972656"/>
      <use xlink:href="#DejaVuSans-73" x="305.351562"/>
      <use xlink:href="#DejaVuSans-74" x="357.451172"/>
      <use xlink:href="#DejaVuSans-72" x="396.660156"/>
      <use xlink:href="#DejaVuSans-75" x="437.773438"/>
      <use xlink:href="#DejaVuSans-6b" x="501.152344"/>
      <use xlink:href="#DejaVuSans-63" x="559.0625"/>
      <use xlink:href="#DejaVuSans-65" x="614.042969"/>
     </g>
    </g>
   </g>
  </g>
 </g>
 <defs>
  <clipPath id="pf8cbbea6a4">
   <rect x="57.6" y="41.472" width="357.12" height="266.112"/>
  </clipPath>
 </defs>
</svg>
