<?xml version="1.0" encoding="utf-8" standalone="no"?>
<!DOCTYPE svg PUBLIC "-//W3C//DTD SVG 1.1//EN"
  "http://www.w3.org/Graphics/SVG/1.1/DTD/svg11.dtd">
<svg xmlns:xlink="http://www.w3.org/1999/xlink" width="460.8pt" height="345.6pt" viewBox="0 0 460.8 345.6" xmlns="http://www.w3.org/2000/svg" version="1.1">
 <metadata>
  <rdf:RDF xmlns:dc="http://purl.org/dc/elements/1.1/" xmlns:cc="http://creativecommons.org/ns#" xmlns:rdf="http://www.w3.org/1999/02/22-rdf-syntax-ns#">
   <cc:Work>
    <dc:type rdf:resource="http://purl.org/dc/dcmitype/StillImage"/>
    <dc:date>2023-07-31T06:45:08.573790</dc:date>
    <dc:format>image/svg+xml</dc:format>
    <dc:creator>
     <cc:Agent>
      <dc:title>Matplotlib v3.5.2, https://matplotlib.org/</dc:title>
     </cc:Agent>
    </dc:creator>
   </cc:Work>
  </rdf:RDF>
 </metadata>
 <defs>
  <style type="text/css">*{stroke-linejoin: round; stroke-linecap: butt}</style>
 </defs>
 <g id="figure_1">
  <g id="patch_1">
   <path d="M 0 345.6 
L 460.8 345.6 
L 460.8 0 
L 0 0 
z
" style="fill: #ffffff"/>
  </g>
  <g id="axes_1">
   <g id="patch_2">
    <path d="M 57.6 307.584 
L 414.72 307.584 
L 414.72 41.472 
L 57.6 41.472 
z
" style="fill: #ffffff"/>
   </g>
   <g id="PathCollection_1">
    <defs>
     <path id="m4f92e81d23" d="M 0 3 
C 0.795609 3 1.55874 2.683901 2.12132 2.12132 
C 2.683901 1.55874 3 0.795609 3 0 
C 3 -0.795609 2.683901 -1.55874 2.12132 -2.12132 
C 1.55874 -2.683901 0.795609 -3 0 -3 
C -0.795609 -3 -1.55874 -2.683901 -2.12132 -2.12132 
C -2.683901 -1.55874 -3 -0.795609 -3 0 
C -3 0.795609 -2.683901 1.55874 -2.12132 2.12132 
C -1.55874 2.683901 -0.795609 3 0 3 
z
" style="stroke: #0000ff"/>
    </defs>
    <g clip-path="url(#p1c948e78cd)">
     <use xlink:href="#m4f92e81d23" x="77.994965" y="262.764949" style="fill: #0000ff; stroke: #0000ff"/>
    </g>
   </g>
   <g id="PathCollection_2">
    <g clip-path="url(#p1c948e78cd)">
     <use xlink:href="#m4f92e81d23" x="86.319441" y="234.525687" style="fill: #0000ff; stroke: #0000ff"/>
    </g>
   </g>
   <g id="PathCollection_3">
    <g clip-path="url(#p1c948e78cd)">
     <use xlink:href="#m4f92e81d23" x="94.643916" y="200.426255" style="fill: #0000ff; stroke: #0000ff"/>
    </g>
   </g>
   <g id="PathCollection_4">
    <g clip-path="url(#p1c948e78cd)">
     <use xlink:href="#m4f92e81d23" x="102.968392" y="163.998062" style="fill: #0000ff; stroke: #0000ff"/>
    </g>
   </g>
   <g id="PathCollection_5">
    <g clip-path="url(#p1c948e78cd)">
     <use xlink:href="#m4f92e81d23" x="111.292867" y="128.739289" style="fill: #0000ff; stroke: #0000ff"/>
    </g>
   </g>
   <g id="PathCollection_6">
    <g clip-path="url(#p1c948e78cd)">
     <use xlink:href="#m4f92e81d23" x="119.617343" y="97.923127" style="fill: #0000ff; stroke: #0000ff"/>
    </g>
   </g>
   <g id="PathCollection_7">
    <g clip-path="url(#p1c948e78cd)">
     <use xlink:href="#m4f92e81d23" x="127.941818" y="74.371838" style="fill: #0000ff; stroke: #0000ff"/>
    </g>
   </g>
   <g id="PathCollection_8">
    <g clip-path="url(#p1c948e78cd)">
     <use xlink:href="#m4f92e81d23" x="136.266294" y="60.232619" style="fill: #0000ff; stroke: #0000ff"/>
    </g>
   </g>
   <g id="PathCollection_9">
    <g clip-path="url(#p1c948e78cd)">
     <use xlink:href="#m4f92e81d23" x="144.590769" y="56.790819" style="fill: #0000ff; stroke: #0000ff"/>
    </g>
   </g>
   <g id="PathCollection_10">
    <g clip-path="url(#p1c948e78cd)">
     <use xlink:href="#m4f92e81d23" x="152.915245" y="64.341205" style="fill: #0000ff; stroke: #0000ff"/>
    </g>
   </g>
   <g id="PathCollection_11">
    <g clip-path="url(#p1c948e78cd)">
     <use xlink:href="#m4f92e81d23" x="161.23972" y="82.137628" style="fill: #0000ff; stroke: #0000ff"/>
    </g>
   </g>
   <g id="PathCollection_12">
    <g clip-path="url(#p1c948e78cd)">
     <use xlink:href="#m4f92e81d23" x="169.564196" y="108.425467" style="fill: #0000ff; stroke: #0000ff"/>
    </g>
   </g>
   <g id="PathCollection_13">
    <g clip-path="url(#p1c948e78cd)">
     <use xlink:href="#m4f92e81d23" x="177.888671" y="140.609355" style="fill: #0000ff; stroke: #0000ff"/>
    </g>
   </g>
   <g id="PathCollection_14">
    <g clip-path="url(#p1c948e78cd)">
     <use xlink:href="#m4f92e81d23" x="186.213147" y="175.572076" style="fill: #0000ff; stroke: #0000ff"/>
    </g>
   </g>
   <g id="PathCollection_15">
    <g clip-path="url(#p1c948e78cd)">
     <use xlink:href="#m4f92e81d23" x="194.537622" y="210.096881" style="fill: #0000ff; stroke: #0000ff"/>
    </g>
   </g>
   <g id="PathCollection_16">
    <g clip-path="url(#p1c948e78cd)">
     <use xlink:href="#m4f92e81d23" x="202.862098" y="241.230207" style="fill: #0000ff; stroke: #0000ff"/>
    </g>
   </g>
   <g id="PathCollection_17">
    <g clip-path="url(#p1c948e78cd)">
     <use xlink:href="#m4f92e81d23" x="211.186573" y="266.536351" style="fill: #0000ff; stroke: #0000ff"/>
    </g>
   </g>
   <g id="PathCollection_18">
    <g clip-path="url(#p1c948e78cd)">
     <use xlink:href="#m4f92e81d23" x="219.511049" y="284.328226" style="fill: #0000ff; stroke: #0000ff"/>
    </g>
   </g>
   <g id="PathCollection_19">
    <g clip-path="url(#p1c948e78cd)">
     <use xlink:href="#m4f92e81d23" x="227.835524" y="293.777143" style="fill: #0000ff; stroke: #0000ff"/>
    </g>
   </g>
   <g id="PathCollection_20">
    <defs>
     <path id="m2a71927660" d="M -3 0 
L 3 0 
M 0 3 
L 0 -3 
" style="stroke: #ff0000; stroke-width: 1.5"/>
    </defs>
    <g clip-path="url(#p1c948e78cd)">
     <use xlink:href="#m2a71927660" x="236.16" y="240.182177" style="fill: #ff0000; stroke: #ff0000; stroke-width: 1.5"/>
    </g>
   </g>
   <g id="PathCollection_21">
    <g clip-path="url(#p1c948e78cd)">
     <use xlink:href="#m4f92e81d23" x="234.079693" y="295.213074" style="fill: #0000ff; stroke: #0000ff"/>
    </g>
   </g>
   <g id="PathCollection_22">
    <defs>
     <path id="mfaa7287ceb" d="M 0 3 
C 0.795609 3 1.55874 2.683901 2.12132 2.12132 
C 2.683901 1.55874 3 0.795609 3 0 
C 3 -0.795609 2.683901 -1.55874 2.12132 -2.12132 
C 1.55874 -2.683901 0.795609 -3 0 -3 
C -0.795609 -3 -1.55874 -2.683901 -2.12132 -2.12132 
C -2.683901 -1.55874 -3 -0.795609 -3 0 
C -3 0.795609 -2.683901 1.55874 -2.12132 2.12132 
C -1.55874 2.683901 -0.795609 3 0 3 
z
" style="stroke: #008000"/>
    </defs>
    <g clip-path="url(#p1c948e78cd)">
     <use xlink:href="#mfaa7287ceb" x="238.241931" y="185.108338" style="fill: #008000; stroke: #008000"/>
    </g>
   </g>
   <g id="PathCollection_23">
    <g clip-path="url(#p1c948e78cd)">
     <use xlink:href="#mfaa7287ceb" x="244.484476" y="184.633987" style="fill: #008000; stroke: #008000"/>
    </g>
   </g>
   <g id="PathCollection_24">
    <g clip-path="url(#p1c948e78cd)">
     <use xlink:href="#mfaa7287ceb" x="252.808951" y="182.890826" style="fill: #008000; stroke: #008000"/>
    </g>
   </g>
   <g id="PathCollection_25">
    <g clip-path="url(#p1c948e78cd)">
     <use xlink:href="#mfaa7287ceb" x="261.133427" y="180.246169" style="fill: #008000; stroke: #008000"/>
    </g>
   </g>
   <g id="PathCollection_26">
    <g clip-path="url(#p1c948e78cd)">
     <use xlink:href="#mfaa7287ceb" x="269.457902" y="177.517234" style="fill: #008000; stroke: #008000"/>
    </g>
   </g>
   <g id="PathCollection_27">
    <g clip-path="url(#p1c948e78cd)">
     <use xlink:href="#mfaa7287ceb" x="277.782378" y="175.505116" style="fill: #008000; stroke: #008000"/>
    </g>
   </g>
   <g id="PathCollection_28">
    <g clip-path="url(#p1c948e78cd)">
     <use xlink:href="#mfaa7287ceb" x="286.106853" y="174.75052" style="fill: #008000; stroke: #008000"/>
    </g>
   </g>
   <g id="PathCollection_29">
    <g clip-path="url(#p1c948e78cd)">
     <use xlink:href="#mfaa7287ceb" x="294.431329" y="175.506244" style="fill: #008000; stroke: #008000"/>
    </g>
   </g>
   <g id="PathCollection_30">
    <g clip-path="url(#p1c948e78cd)">
     <use xlink:href="#mfaa7287ceb" x="302.755804" y="177.785437" style="fill: #008000; stroke: #008000"/>
    </g>
   </g>
   <g id="PathCollection_31">
    <g clip-path="url(#p1c948e78cd)">
     <use xlink:href="#mfaa7287ceb" x="311.08028" y="181.463277" style="fill: #008000; stroke: #008000"/>
    </g>
   </g>
   <g id="PathCollection_32">
    <g clip-path="url(#p1c948e78cd)">
     <use xlink:href="#mfaa7287ceb" x="319.404755" y="186.384561" style="fill: #008000; stroke: #008000"/>
    </g>
   </g>
   <g id="PathCollection_33">
    <g clip-path="url(#p1c948e78cd)">
     <use xlink:href="#mfaa7287ceb" x="327.729231" y="192.424439" style="fill: #008000; stroke: #008000"/>
    </g>
   </g>
   <g id="PathCollection_34">
    <g clip-path="url(#p1c948e78cd)">
     <use xlink:href="#mfaa7287ceb" x="336.053706" y="199.499832" style="fill: #008000; stroke: #008000"/>
    </g>
   </g>
   <g id="PathCollection_35">
    <g clip-path="url(#p1c948e78cd)">
     <use xlink:href="#mfaa7287ceb" x="344.378182" y="207.549081" style="fill: #008000; stroke: #008000"/>
    </g>
   </g>
   <g id="PathCollection_36">
    <g clip-path="url(#p1c948e78cd)">
     <use xlink:href="#mfaa7287ceb" x="352.702657" y="216.506714" style="fill: #008000; stroke: #008000"/>
    </g>
   </g>
   <g id="PathCollection_37">
    <g clip-path="url(#p1c948e78cd)">
     <use xlink:href="#mfaa7287ceb" x="361.027133" y="226.289372" style="fill: #008000; stroke: #008000"/>
    </g>
   </g>
   <g id="PathCollection_38">
    <g clip-path="url(#p1c948e78cd)">
     <use xlink:href="#mfaa7287ceb" x="369.351608" y="236.794496" style="fill: #008000; stroke: #008000"/>
    </g>
   </g>
   <g id="PathCollection_39">
    <g clip-path="url(#p1c948e78cd)">
     <use xlink:href="#mfaa7287ceb" x="377.676084" y="247.905196" style="fill: #008000; stroke: #008000"/>
    </g>
   </g>
   <g id="PathCollection_40">
    <g clip-path="url(#p1c948e78cd)">
     <use xlink:href="#mfaa7287ceb" x="386.000559" y="259.494569" style="fill: #008000; stroke: #008000"/>
    </g>
   </g>
   <g id="PathCollection_41">
    <g clip-path="url(#p1c948e78cd)">
     <use xlink:href="#mfaa7287ceb" x="394.325035" y="271.429604" style="fill: #008000; stroke: #008000"/>
    </g>
   </g>
   <g id="PathCollection_42">
    <g clip-path="url(#p1c948e78cd)">
     <use xlink:href="#m4f92e81d23" x="77.994965" y="262.764949" style="fill: #0000ff; stroke: #0000ff"/>
    </g>
   </g>
   <g id="PathCollection_43">
    <g clip-path="url(#p1c948e78cd)">
     <use xlink:href="#m4f92e81d23" x="86.319441" y="234.525687" style="fill: #0000ff; stroke: #0000ff"/>
    </g>
   </g>
   <g id="PathCollection_44">
    <g clip-path="url(#p1c948e78cd)">
     <use xlink:href="#m4f92e81d23" x="94.643916" y="200.426255" style="fill: #0000ff; stroke: #0000ff"/>
    </g>
   </g>
   <g id="PathCollection_45">
    <g clip-path="url(#p1c948e78cd)">
     <use xlink:href="#m4f92e81d23" x="102.968392" y="163.998062" style="fill: #0000ff; stroke: #0000ff"/>
    </g>
   </g>
   <g id="PathCollection_46">
    <g clip-path="url(#p1c948e78cd)">
     <use xlink:href="#m4f92e81d23" x="111.292867" y="128.739289" style="fill: #0000ff; stroke: #0000ff"/>
    </g>
   </g>
   <g id="PathCollection_47">
    <g clip-path="url(#p1c948e78cd)">
     <use xlink:href="#m4f92e81d23" x="119.617343" y="97.923127" style="fill: #0000ff; stroke: #0000ff"/>
    </g>
   </g>
   <g id="PathCollection_48">
    <g clip-path="url(#p1c948e78cd)">
     <use xlink:href="#m4f92e81d23" x="127.941818" y="74.371838" style="fill: #0000ff; stroke: #0000ff"/>
    </g>
   </g>
   <g id="PathCollection_49">
    <g clip-path="url(#p1c948e78cd)">
     <use xlink:href="#m4f92e81d23" x="136.266294" y="60.232619" style="fill: #0000ff; stroke: #0000ff"/>
    </g>
   </g>
   <g id="PathCollection_50">
    <g clip-path="url(#p1c948e78cd)">
     <use xlink:href="#m4f92e81d23" x="144.590769" y="56.790819" style="fill: #0000ff; stroke: #0000ff"/>
    </g>
   </g>
   <g id="PathCollection_51">
    <g clip-path="url(#p1c948e78cd)">
     <use xlink:href="#m4f92e81d23" x="152.915245" y="64.341205" style="fill: #0000ff; stroke: #0000ff"/>
    </g>
   </g>
   <g id="PathCollection_52">
    <g clip-path="url(#p1c948e78cd)">
     <use xlink:href="#m4f92e81d23" x="161.23972" y="82.137628" style="fill: #0000ff; stroke: #0000ff"/>
    </g>
   </g>
   <g id="PathCollection_53">
    <g clip-path="url(#p1c948e78cd)">
     <use xlink:href="#m4f92e81d23" x="169.564196" y="108.425467" style="fill: #0000ff; stroke: #0000ff"/>
    </g>
   </g>
   <g id="PathCollection_54">
    <g clip-path="url(#p1c948e78cd)">
     <use xlink:href="#m4f92e81d23" x="177.888671" y="140.609355" style="fill: #0000ff; stroke: #0000ff"/>
    </g>
   </g>
   <g id="PathCollection_55">
    <g clip-path="url(#p1c948e78cd)">
     <use xlink:href="#m4f92e81d23" x="186.213147" y="175.572076" style="fill: #0000ff; stroke: #0000ff"/>
    </g>
   </g>
   <g id="PathCollection_56">
    <g clip-path="url(#p1c948e78cd)">
     <use xlink:href="#m4f92e81d23" x="194.537622" y="210.096881" style="fill: #0000ff; stroke: #0000ff"/>
    </g>
   </g>
   <g id="PathCollection_57">
    <g clip-path="url(#p1c948e78cd)">
     <use xlink:href="#m4f92e81d23" x="202.862098" y="241.230207" style="fill: #0000ff; stroke: #0000ff"/>
    </g>
   </g>
   <g id="PathCollection_58">
    <g clip-path="url(#p1c948e78cd)">
     <use xlink:href="#m4f92e81d23" x="211.186573" y="266.536351" style="fill: #0000ff; stroke: #0000ff"/>
    </g>
   </g>
   <g id="PathCollection_59">
    <g clip-path="url(#p1c948e78cd)">
     <use xlink:href="#m4f92e81d23" x="219.511049" y="284.328226" style="fill: #0000ff; stroke: #0000ff"/>
    </g>
   </g>
   <g id="PathCollection_60">
    <g clip-path="url(#p1c948e78cd)">
     <use xlink:href="#m4f92e81d23" x="227.835524" y="293.777143" style="fill: #0000ff; stroke: #0000ff"/>
    </g>
   </g>
   <g id="PathCollection_61">
    <g clip-path="url(#p1c948e78cd)">
     <use xlink:href="#m2a71927660" x="236.16" y="240.182177" style="fill: #ff0000; stroke: #ff0000; stroke-width: 1.5"/>
    </g>
   </g>
   <g id="PathCollection_62">
    <g clip-path="url(#p1c948e78cd)">
     <use xlink:href="#m4f92e81d23" x="234.079693" y="295.213074" style="fill: #0000ff; stroke: #0000ff"/>
    </g>
   </g>
   <g id="PathCollection_63">
    <g clip-path="url(#p1c948e78cd)">
     <use xlink:href="#mfaa7287ceb" x="238.241931" y="185.108338" style="fill: #008000; stroke: #008000"/>
    </g>
   </g>
   <g id="PathCollection_64">
    <g clip-path="url(#p1c948e78cd)">
     <use xlink:href="#mfaa7287ceb" x="244.484476" y="184.633987" style="fill: #008000; stroke: #008000"/>
    </g>
   </g>
   <g id="PathCollection_65">
    <g clip-path="url(#p1c948e78cd)">
     <use xlink:href="#mfaa7287ceb" x="252.808951" y="182.890826" style="fill: #008000; stroke: #008000"/>
    </g>
   </g>
   <g id="PathCollection_66">
    <g clip-path="url(#p1c948e78cd)">
     <use xlink:href="#mfaa7287ceb" x="261.133427" y="180.246169" style="fill: #008000; stroke: #008000"/>
    </g>
   </g>
   <g id="PathCollection_67">
    <g clip-path="url(#p1c948e78cd)">
     <use xlink:href="#mfaa7287ceb" x="269.457902" y="177.517234" style="fill: #008000; stroke: #008000"/>
    </g>
   </g>
   <g id="PathCollection_68">
    <g clip-path="url(#p1c948e78cd)">
     <use xlink:href="#mfaa7287ceb" x="277.782378" y="175.505116" style="fill: #008000; stroke: #008000"/>
    </g>
   </g>
   <g id="PathCollection_69">
    <g clip-path="url(#p1c948e78cd)">
     <use xlink:href="#mfaa7287ceb" x="286.106853" y="174.75052" style="fill: #008000; stroke: #008000"/>
    </g>
   </g>
   <g id="PathCollection_70">
    <g clip-path="url(#p1c948e78cd)">
     <use xlink:href="#mfaa7287ceb" x="294.431329" y="175.506244" style="fill: #008000; stroke: #008000"/>
    </g>
   </g>
   <g id="PathCollection_71">
    <g clip-path="url(#p1c948e78cd)">
     <use xlink:href="#mfaa7287ceb" x="302.755804" y="177.785437" style="fill: #008000; stroke: #008000"/>
    </g>
   </g>
   <g id="PathCollection_72">
    <g clip-path="url(#p1c948e78cd)">
     <use xlink:href="#mfaa7287ceb" x="311.08028" y="181.463277" style="fill: #008000; stroke: #008000"/>
    </g>
   </g>
   <g id="PathCollection_73">
    <g clip-path="url(#p1c948e78cd)">
     <use xlink:href="#mfaa7287ceb" x="319.404755" y="186.384561" style="fill: #008000; stroke: #008000"/>
    </g>
   </g>
   <g id="PathCollection_74">
    <g clip-path="url(#p1c948e78cd)">
     <use xlink:href="#mfaa7287ceb" x="327.729231" y="192.424439" style="fill: #008000; stroke: #008000"/>
    </g>
   </g>
   <g id="PathCollection_75">
    <g clip-path="url(#p1c948e78cd)">
     <use xlink:href="#mfaa7287ceb" x="336.053706" y="199.499832" style="fill: #008000; stroke: #008000"/>
    </g>
   </g>
   <g id="PathCollection_76">
    <g clip-path="url(#p1c948e78cd)">
     <use xlink:href="#mfaa7287ceb" x="344.378182" y="207.549081" style="fill: #008000; stroke: #008000"/>
    </g>
   </g>
   <g id="PathCollection_77">
    <g clip-path="url(#p1c948e78cd)">
     <use xlink:href="#mfaa7287ceb" x="352.702657" y="216.506714" style="fill: #008000; stroke: #008000"/>
    </g>
   </g>
   <g id="PathCollection_78">
    <g clip-path="url(#p1c948e78cd)">
     <use xlink:href="#mfaa7287ceb" x="361.027133" y="226.289372" style="fill: #008000; stroke: #008000"/>
    </g>
   </g>
   <g id="PathCollection_79">
    <g clip-path="url(#p1c948e78cd)">
     <use xlink:href="#mfaa7287ceb" x="369.351608" y="236.794496" style="fill: #008000; stroke: #008000"/>
    </g>
   </g>
   <g id="PathCollection_80">
    <g clip-path="url(#p1c948e78cd)">
     <use xlink:href="#mfaa7287ceb" x="377.676084" y="247.905196" style="fill: #008000; stroke: #008000"/>
    </g>
   </g>
   <g id="PathCollection_81">
    <g clip-path="url(#p1c948e78cd)">
     <use xlink:href="#mfaa7287ceb" x="386.000559" y="259.494569" style="fill: #008000; stroke: #008000"/>
    </g>
   </g>
   <g id="PathCollection_82">
    <g clip-path="url(#p1c948e78cd)">
     <use xlink:href="#mfaa7287ceb" x="394.325035" y="271.429604" style="fill: #008000; stroke: #008000"/>
    </g>
   </g>
   <g id="PathCollection_83">
    <defs>
     <path id="m0dcebcd3b5" d="M 0 1.5 
C 0.397805 1.5 0.77937 1.341951 1.06066 1.06066 
C 1.341951 0.77937 1.5 0.397805 1.5 0 
C 1.5 -0.397805 1.341951 -0.77937 1.06066 -1.06066 
C 0.77937 -1.341951 0.397805 -1.5 0 -1.5 
C -0.397805 -1.5 -0.77937 -1.341951 -1.06066 -1.06066 
C -1.341951 -0.77937 -1.5 -0.397805 -1.5 0 
C -1.5 0.397805 -1.341951 0.77937 -1.06066 1.06066 
C -0.77937 1.341951 -0.397805 1.5 0 1.5 
z
" style="stroke: #0000ff"/>
    </defs>
    <g clip-path="url(#p1c948e78cd)">
     <use xlink:href="#m0dcebcd3b5" x="73.832727" y="273.810347" style="fill: #0000ff; stroke: #0000ff"/>
     <use xlink:href="#m0dcebcd3b5" x="75.913846" y="268.767997" style="fill: #0000ff; stroke: #0000ff"/>
     <use xlink:href="#m0dcebcd3b5" x="77.994965" y="263.149228" style="fill: #0000ff; stroke: #0000ff"/>
     <use xlink:href="#m0dcebcd3b5" x="80.076084" y="256.954041" style="fill: #0000ff; stroke: #0000ff"/>
     <use xlink:href="#m0dcebcd3b5" x="82.157203" y="250.182435" style="fill: #0000ff; stroke: #0000ff"/>
    </g>
   </g>
   <g id="PathCollection_84">
    <g clip-path="url(#p1c948e78cd)">
     <use xlink:href="#m0dcebcd3b5" x="82.157203" y="249.622013" style="fill: #0000ff; stroke: #0000ff"/>
     <use xlink:href="#m0dcebcd3b5" x="84.238322" y="242.379067" style="fill: #0000ff; stroke: #0000ff"/>
     <use xlink:href="#m0dcebcd3b5" x="86.319441" y="234.769861" style="fill: #0000ff; stroke: #0000ff"/>
     <use xlink:href="#m0dcebcd3b5" x="88.400559" y="226.794394" style="fill: #0000ff; stroke: #0000ff"/>
     <use xlink:href="#m0dcebcd3b5" x="90.481678" y="218.452666" style="fill: #0000ff; stroke: #0000ff"/>
    </g>
   </g>
   <g id="PathCollection_85">
    <g clip-path="url(#p1c948e78cd)">
     <use xlink:href="#m0dcebcd3b5" x="90.481678" y="217.864098" style="fill: #0000ff; stroke: #0000ff"/>
     <use xlink:href="#m0dcebcd3b5" x="92.562797" y="209.266466" style="fill: #0000ff; stroke: #0000ff"/>
     <use xlink:href="#m0dcebcd3b5" x="94.643916" y="200.523287" style="fill: #0000ff; stroke: #0000ff"/>
     <use xlink:href="#m0dcebcd3b5" x="96.725035" y="191.63456" style="fill: #0000ff; stroke: #0000ff"/>
     <use xlink:href="#m0dcebcd3b5" x="98.806154" y="182.600285" style="fill: #0000ff; stroke: #0000ff"/>
    </g>
   </g>
   <g id="PathCollection_86">
    <g clip-path="url(#p1c948e78cd)">
     <use xlink:href="#m0dcebcd3b5" x="98.806154" y="182.017255" style="fill: #0000ff; stroke: #0000ff"/>
     <use xlink:href="#m0dcebcd3b5" x="100.887273" y="172.946751" style="fill: #0000ff; stroke: #0000ff"/>
     <use xlink:href="#m0dcebcd3b5" x="102.968392" y="163.949336" style="fill: #0000ff; stroke: #0000ff"/>
     <use xlink:href="#m0dcebcd3b5" x="105.04951" y="155.025009" style="fill: #0000ff; stroke: #0000ff"/>
     <use xlink:href="#m0dcebcd3b5" x="107.130629" y="146.173772" style="fill: #0000ff; stroke: #0000ff"/>
    </g>
   </g>
   <g id="PathCollection_87">
    <g clip-path="url(#p1c948e78cd)">
     <use xlink:href="#m0dcebcd3b5" x="107.130629" y="145.62824" style="fill: #0000ff; stroke: #0000ff"/>
     <use xlink:href="#m0dcebcd3b5" x="109.211748" y="136.952379" style="fill: #0000ff; stroke: #0000ff"/>
     <use xlink:href="#m0dcebcd3b5" x="111.292867" y="128.55418" style="fill: #0000ff; stroke: #0000ff"/>
     <use xlink:href="#m0dcebcd3b5" x="113.373986" y="120.433645" style="fill: #0000ff; stroke: #0000ff"/>
     <use xlink:href="#m0dcebcd3b5" x="115.455105" y="112.590773" style="fill: #0000ff; stroke: #0000ff"/>
    </g>
   </g>
   <g id="PathCollection_88">
    <g clip-path="url(#p1c948e78cd)">
     <use xlink:href="#m0dcebcd3b5" x="115.455105" y="112.120395" style="fill: #0000ff; stroke: #0000ff"/>
     <use xlink:href="#m0dcebcd3b5" x="117.536224" y="104.643382" style="fill: #0000ff; stroke: #0000ff"/>
     <use xlink:href="#m0dcebcd3b5" x="119.617343" y="97.620424" style="fill: #0000ff; stroke: #0000ff"/>
     <use xlink:href="#m0dcebcd3b5" x="121.698462" y="91.05152" style="fill: #0000ff; stroke: #0000ff"/>
     <use xlink:href="#m0dcebcd3b5" x="123.77958" y="84.93667" style="fill: #0000ff; stroke: #0000ff"/>
    </g>
   </g>
   <g id="PathCollection_89">
    <g clip-path="url(#p1c948e78cd)">
     <use xlink:href="#m0dcebcd3b5" x="123.77958" y="84.578804" style="fill: #0000ff; stroke: #0000ff"/>
     <use xlink:href="#m0dcebcd3b5" x="125.860699" y="78.985109" style="fill: #0000ff; stroke: #0000ff"/>
     <use xlink:href="#m0dcebcd3b5" x="127.941818" y="73.979669" style="fill: #0000ff; stroke: #0000ff"/>
     <use xlink:href="#m0dcebcd3b5" x="130.022937" y="69.562483" style="fill: #0000ff; stroke: #0000ff"/>
     <use xlink:href="#m0dcebcd3b5" x="132.104056" y="65.733551" style="fill: #0000ff; stroke: #0000ff"/>
    </g>
   </g>
   <g id="PathCollection_90">
    <g clip-path="url(#p1c948e78cd)">
     <use xlink:href="#m0dcebcd3b5" x="132.104056" y="65.519326" style="fill: #0000ff; stroke: #0000ff"/>
     <use xlink:href="#m0dcebcd3b5" x="134.185175" y="62.318815" style="fill: #0000ff; stroke: #0000ff"/>
     <use xlink:href="#m0dcebcd3b5" x="136.266294" y="59.786894" style="fill: #0000ff; stroke: #0000ff"/>
     <use xlink:href="#m0dcebcd3b5" x="138.347413" y="57.923561" style="fill: #0000ff; stroke: #0000ff"/>
     <use xlink:href="#m0dcebcd3b5" x="140.428531" y="56.728816" style="fill: #0000ff; stroke: #0000ff"/>
    </g>
   </g>
   <g id="PathCollection_91">
    <g clip-path="url(#p1c948e78cd)">
     <use xlink:href="#m0dcebcd3b5" x="140.428531" y="56.679688" style="fill: #0000ff; stroke: #0000ff"/>
     <use xlink:href="#m0dcebcd3b5" x="142.50965" y="56.162744" style="fill: #0000ff; stroke: #0000ff"/>
     <use xlink:href="#m0dcebcd3b5" x="144.590769" y="56.332812" style="fill: #0000ff; stroke: #0000ff"/>
     <use xlink:href="#m0dcebcd3b5" x="146.671888" y="57.189891" style="fill: #0000ff; stroke: #0000ff"/>
     <use xlink:href="#m0dcebcd3b5" x="148.753007" y="58.733981" style="fill: #0000ff; stroke: #0000ff"/>
    </g>
   </g>
   <g id="PathCollection_92">
    <g clip-path="url(#p1c948e78cd)">
     <use xlink:href="#m0dcebcd3b5" x="148.753007" y="58.858339" style="fill: #0000ff; stroke: #0000ff"/>
     <use xlink:href="#m0dcebcd3b5" x="150.834126" y="61.066124" style="fill: #0000ff; stroke: #0000ff"/>
     <use xlink:href="#m0dcebcd3b5" x="152.915245" y="63.914287" style="fill: #0000ff; stroke: #0000ff"/>
     <use xlink:href="#m0dcebcd3b5" x="154.996364" y="67.402826" style="fill: #0000ff; stroke: #0000ff"/>
     <use xlink:href="#m0dcebcd3b5" x="157.077483" y="71.531743" style="fill: #0000ff; stroke: #0000ff"/>
    </g>
   </g>
   <g id="PathCollection_93">
    <g clip-path="url(#p1c948e78cd)">
     <use xlink:href="#m0dcebcd3b5" x="157.077483" y="71.82418" style="fill: #0000ff; stroke: #0000ff"/>
     <use xlink:href="#m0dcebcd3b5" x="159.158601" y="76.538643" style="fill: #0000ff; stroke: #0000ff"/>
     <use xlink:href="#m0dcebcd3b5" x="161.23972" y="81.783819" style="fill: #0000ff; stroke: #0000ff"/>
     <use xlink:href="#m0dcebcd3b5" x="163.320839" y="87.559708" style="fill: #0000ff; stroke: #0000ff"/>
     <use xlink:href="#m0dcebcd3b5" x="165.401958" y="93.866311" style="fill: #0000ff; stroke: #0000ff"/>
    </g>
   </g>
   <g id="PathCollection_94">
    <g clip-path="url(#p1c948e78cd)">
     <use xlink:href="#m0dcebcd3b5" x="165.401958" y="94.298873" style="fill: #0000ff; stroke: #0000ff"/>
     <use xlink:href="#m0dcebcd3b5" x="167.483077" y="101.055084" style="fill: #0000ff; stroke: #0000ff"/>
     <use xlink:href="#m0dcebcd3b5" x="169.564196" y="108.179799" style="fill: #0000ff; stroke: #0000ff"/>
     <use xlink:href="#m0dcebcd3b5" x="171.645315" y="115.673016" style="fill: #0000ff; stroke: #0000ff"/>
     <use xlink:href="#m0dcebcd3b5" x="173.726434" y="123.534736" style="fill: #0000ff; stroke: #0000ff"/>
    </g>
   </g>
   <g id="PathCollection_95">
    <g clip-path="url(#p1c948e78cd)">
     <use xlink:href="#m0dcebcd3b5" x="173.726434" y="124.054273" style="fill: #0000ff; stroke: #0000ff"/>
     <use xlink:href="#m0dcebcd3b5" x="175.807552" y="132.187083" style="fill: #0000ff; stroke: #0000ff"/>
     <use xlink:href="#m0dcebcd3b5" x="177.888671" y="140.493571" style="fill: #0000ff; stroke: #0000ff"/>
     <use xlink:href="#m0dcebcd3b5" x="179.96979" y="148.973735" style="fill: #0000ff; stroke: #0000ff"/>
     <use xlink:href="#m0dcebcd3b5" x="182.050909" y="157.627577" style="fill: #0000ff; stroke: #0000ff"/>
    </g>
   </g>
   <g id="PathCollection_96">
    <g clip-path="url(#p1c948e78cd)">
     <use xlink:href="#m0dcebcd3b5" x="182.050909" y="158.163702" style="fill: #0000ff; stroke: #0000ff"/>
     <use xlink:href="#m0dcebcd3b5" x="184.132028" y="166.890697" style="fill: #0000ff; stroke: #0000ff"/>
     <use xlink:href="#m0dcebcd3b5" x="186.213147" y="175.590323" style="fill: #0000ff; stroke: #0000ff"/>
     <use xlink:href="#m0dcebcd3b5" x="188.294266" y="184.262578" style="fill: #0000ff; stroke: #0000ff"/>
     <use xlink:href="#m0dcebcd3b5" x="190.375385" y="192.907464" style="fill: #0000ff; stroke: #0000ff"/>
    </g>
   </g>
   <g id="PathCollection_97">
    <g clip-path="url(#p1c948e78cd)">
     <use xlink:href="#m0dcebcd3b5" x="190.375385" y="193.399725" style="fill: #0000ff; stroke: #0000ff"/>
     <use xlink:href="#m0dcebcd3b5" x="192.456504" y="201.924943" style="fill: #0000ff; stroke: #0000ff"/>
     <use xlink:href="#m0dcebcd3b5" x="194.537622" y="210.238193" style="fill: #0000ff; stroke: #0000ff"/>
     <use xlink:href="#m0dcebcd3b5" x="196.618741" y="218.339475" style="fill: #0000ff; stroke: #0000ff"/>
     <use xlink:href="#m0dcebcd3b5" x="198.69986" y="226.22879" style="fill: #0000ff; stroke: #0000ff"/>
    </g>
   </g>
   <g id="PathCollection_98">
    <g clip-path="url(#p1c948e78cd)">
     <use xlink:href="#m0dcebcd3b5" x="198.69986" y="226.634741" style="fill: #0000ff; stroke: #0000ff"/>
     <use xlink:href="#m0dcebcd3b5" x="200.780979" y="234.235973" style="fill: #0000ff; stroke: #0000ff"/>
     <use xlink:href="#m0dcebcd3b5" x="202.862098" y="241.473006" style="fill: #0000ff; stroke: #0000ff"/>
     <use xlink:href="#m0dcebcd3b5" x="204.943217" y="248.34584" style="fill: #0000ff; stroke: #0000ff"/>
     <use xlink:href="#m0dcebcd3b5" x="207.024336" y="254.854476" style="fill: #0000ff; stroke: #0000ff"/>
    </g>
   </g>
   <g id="PathCollection_99">
    <g clip-path="url(#p1c948e78cd)">
     <use xlink:href="#m0dcebcd3b5" x="207.024336" y="255.135657" style="fill: #0000ff; stroke: #0000ff"/>
     <use xlink:href="#m0dcebcd3b5" x="209.105455" y="261.227372" style="fill: #0000ff; stroke: #0000ff"/>
     <use xlink:href="#m0dcebcd3b5" x="211.186573" y="266.849445" style="fill: #0000ff; stroke: #0000ff"/>
     <use xlink:href="#m0dcebcd3b5" x="213.267692" y="272.001877" style="fill: #0000ff; stroke: #0000ff"/>
     <use xlink:href="#m0dcebcd3b5" x="215.348811" y="276.684666" style="fill: #0000ff; stroke: #0000ff"/>
    </g>
   </g>
   <g id="PathCollection_100">
    <g clip-path="url(#p1c948e78cd)">
     <use xlink:href="#m0dcebcd3b5" x="215.348811" y="276.822781" style="fill: #0000ff; stroke: #0000ff"/>
     <use xlink:href="#m0dcebcd3b5" x="217.42993" y="281.010033" style="fill: #0000ff; stroke: #0000ff"/>
     <use xlink:href="#m0dcebcd3b5" x="219.511049" y="284.675849" style="fill: #0000ff; stroke: #0000ff"/>
     <use xlink:href="#m0dcebcd3b5" x="221.592168" y="287.820231" style="fill: #0000ff; stroke: #0000ff"/>
     <use xlink:href="#m0dcebcd3b5" x="223.673287" y="290.443177" style="fill: #0000ff; stroke: #0000ff"/>
    </g>
   </g>
   <g id="PathCollection_101">
    <g clip-path="url(#p1c948e78cd)">
     <use xlink:href="#m0dcebcd3b5" x="223.673287" y="290.559485" style="fill: #0000ff; stroke: #0000ff"/>
     <use xlink:href="#m0dcebcd3b5" x="225.754406" y="292.639189" style="fill: #0000ff; stroke: #0000ff"/>
     <use xlink:href="#m0dcebcd3b5" x="227.835524" y="294.153843" style="fill: #0000ff; stroke: #0000ff"/>
     <use xlink:href="#m0dcebcd3b5" x="229.916643" y="295.103447" style="fill: #0000ff; stroke: #0000ff"/>
     <use xlink:href="#m0dcebcd3b5" x="231.997762" y="295.488" style="fill: #0000ff; stroke: #0000ff"/>
    </g>
   </g>
   <g id="PathCollection_102">
    <g clip-path="url(#p1c948e78cd)">
     <use xlink:href="#m0dcebcd3b5" x="231.997762" y="295.213074" style="fill: #0000ff; stroke: #0000ff"/>
     <use xlink:href="#m0dcebcd3b5" x="233.038728" y="295.213074" style="fill: #0000ff; stroke: #0000ff"/>
     <use xlink:href="#m0dcebcd3b5" x="234.079693" y="295.213074" style="fill: #0000ff; stroke: #0000ff"/>
     <use xlink:href="#m0dcebcd3b5" x="235.120658" y="295.213074" style="fill: #0000ff; stroke: #0000ff"/>
     <use xlink:href="#m0dcebcd3b5" x="236.161623" y="295.213074" style="fill: #0000ff; stroke: #0000ff"/>
    </g>
   </g>
   <g id="PathCollection_103">
    <defs>
     <path id="m95f1113d29" d="M 0 1.5 
C 0.397805 1.5 0.77937 1.341951 1.06066 1.06066 
C 1.341951 0.77937 1.5 0.397805 1.5 0 
C 1.5 -0.397805 1.341951 -0.77937 1.06066 -1.06066 
C 0.77937 -1.341951 0.397805 -1.5 0 -1.5 
C -0.397805 -1.5 -0.77937 -1.341951 -1.06066 -1.06066 
C -1.341951 -0.77937 -1.5 -0.397805 -1.5 0 
C -1.5 0.397805 -1.341951 0.77937 -1.06066 1.06066 
C -0.77937 1.341951 -0.397805 1.5 0 1.5 
z
" style="stroke: #008000"/>
    </defs>
    <g clip-path="url(#p1c948e78cd)">
     <use xlink:href="#m95f1113d29" x="236.161623" y="185.108338" style="fill: #008000; stroke: #008000"/>
     <use xlink:href="#m95f1113d29" x="237.201777" y="185.108338" style="fill: #008000; stroke: #008000"/>
     <use xlink:href="#m95f1113d29" x="238.241931" y="185.108338" style="fill: #008000; stroke: #008000"/>
     <use xlink:href="#m95f1113d29" x="239.282084" y="185.108338" style="fill: #008000; stroke: #008000"/>
     <use xlink:href="#m95f1113d29" x="240.322238" y="185.108338" style="fill: #008000; stroke: #008000"/>
    </g>
   </g>
   <g id="PathCollection_104">
    <g clip-path="url(#p1c948e78cd)">
     <use xlink:href="#m95f1113d29" x="240.322238" y="185.061289" style="fill: #008000; stroke: #008000"/>
     <use xlink:href="#m95f1113d29" x="242.403357" y="184.917057" style="fill: #008000; stroke: #008000"/>
     <use xlink:href="#m95f1113d29" x="244.484476" y="184.689522" style="fill: #008000; stroke: #008000"/>
     <use xlink:href="#m95f1113d29" x="246.565594" y="184.378685" style="fill: #008000; stroke: #008000"/>
     <use xlink:href="#m95f1113d29" x="248.646713" y="183.984546" style="fill: #008000; stroke: #008000"/>
    </g>
   </g>
   <g id="PathCollection_105">
    <g clip-path="url(#p1c948e78cd)">
     <use xlink:href="#m95f1113d29" x="248.646713" y="183.912656" style="fill: #008000; stroke: #008000"/>
     <use xlink:href="#m95f1113d29" x="250.727832" y="183.448693" style="fill: #008000; stroke: #008000"/>
     <use xlink:href="#m95f1113d29" x="252.808951" y="182.928388" style="fill: #008000; stroke: #008000"/>
     <use xlink:href="#m95f1113d29" x="254.89007" y="182.351739" style="fill: #008000; stroke: #008000"/>
     <use xlink:href="#m95f1113d29" x="256.971189" y="181.718746" style="fill: #008000; stroke: #008000"/>
    </g>
   </g>
   <g id="PathCollection_106">
    <g clip-path="url(#p1c948e78cd)">
     <use xlink:href="#m95f1113d29" x="256.971189" y="181.582544" style="fill: #008000; stroke: #008000"/>
     <use xlink:href="#m95f1113d29" x="259.052308" y="180.918746" style="fill: #008000; stroke: #008000"/>
     <use xlink:href="#m95f1113d29" x="261.133427" y="180.24968" style="fill: #008000; stroke: #008000"/>
     <use xlink:href="#m95f1113d29" x="263.214545" y="179.575348" style="fill: #008000; stroke: #008000"/>
     <use xlink:href="#m95f1113d29" x="265.295664" y="178.895748" style="fill: #008000; stroke: #008000"/>
    </g>
   </g>
   <g id="PathCollection_107">
    <g clip-path="url(#p1c948e78cd)">
     <use xlink:href="#m95f1113d29" x="265.295664" y="178.762232" style="fill: #008000; stroke: #008000"/>
     <use xlink:href="#m95f1113d29" x="267.376783" y="178.102398" style="fill: #008000; stroke: #008000"/>
     <use xlink:href="#m95f1113d29" x="269.457902" y="177.487366" style="fill: #008000; stroke: #008000"/>
     <use xlink:href="#m95f1113d29" x="271.539021" y="176.917135" style="fill: #008000; stroke: #008000"/>
     <use xlink:href="#m95f1113d29" x="273.62014" y="176.391705" style="fill: #008000; stroke: #008000"/>
    </g>
   </g>
   <g id="PathCollection_108">
    <g clip-path="url(#p1c948e78cd)">
     <use xlink:href="#m95f1113d29" x="273.62014" y="176.301588" style="fill: #008000; stroke: #008000"/>
     <use xlink:href="#m95f1113d29" x="275.701259" y="175.837856" style="fill: #008000; stroke: #008000"/>
     <use xlink:href="#m95f1113d29" x="277.782378" y="175.452719" style="fill: #008000; stroke: #008000"/>
     <use xlink:href="#m95f1113d29" x="279.863496" y="175.146177" style="fill: #008000; stroke: #008000"/>
     <use xlink:href="#m95f1113d29" x="281.944615" y="174.918231" style="fill: #008000; stroke: #008000"/>
    </g>
   </g>
   <g id="PathCollection_109">
    <g clip-path="url(#p1c948e78cd)">
     <use xlink:href="#m95f1113d29" x="281.944615" y="174.876098" style="fill: #008000; stroke: #008000"/>
     <use xlink:href="#m95f1113d29" x="284.025734" y="174.734646" style="fill: #008000; stroke: #008000"/>
     <use xlink:href="#m95f1113d29" x="286.106853" y="174.68759" style="fill: #008000; stroke: #008000"/>
     <use xlink:href="#m95f1113d29" x="288.187972" y="174.734928" style="fill: #008000; stroke: #008000"/>
     <use xlink:href="#m95f1113d29" x="290.269091" y="174.876662" style="fill: #008000; stroke: #008000"/>
    </g>
   </g>
   <g id="PathCollection_110">
    <g clip-path="url(#p1c948e78cd)">
     <use xlink:href="#m95f1113d29" x="290.269091" y="174.87447" style="fill: #008000; stroke: #008000"/>
     <use xlink:href="#m95f1113d29" x="292.35021" y="175.11101" style="fill: #008000; stroke: #008000"/>
     <use xlink:href="#m95f1113d29" x="294.431329" y="175.442766" style="fill: #008000; stroke: #008000"/>
     <use xlink:href="#m95f1113d29" x="296.512448" y="175.869739" style="fill: #008000; stroke: #008000"/>
     <use xlink:href="#m95f1113d29" x="298.593566" y="176.391929" style="fill: #008000; stroke: #008000"/>
    </g>
   </g>
   <g id="PathCollection_111">
    <g clip-path="url(#p1c948e78cd)">
     <use xlink:href="#m95f1113d29" x="298.593566" y="176.412733" style="fill: #008000; stroke: #008000"/>
     <use xlink:href="#m95f1113d29" x="300.674685" y="177.026239" style="fill: #008000; stroke: #008000"/>
     <use xlink:href="#m95f1113d29" x="302.755804" y="177.72716" style="fill: #008000; stroke: #008000"/>
     <use xlink:href="#m95f1113d29" x="304.836923" y="178.515497" style="fill: #008000; stroke: #008000"/>
     <use xlink:href="#m95f1113d29" x="306.918042" y="179.391249" style="fill: #008000; stroke: #008000"/>
    </g>
   </g>
   <g id="PathCollection_112">
    <g clip-path="url(#p1c948e78cd)">
     <use xlink:href="#m95f1113d29" x="306.918042" y="179.417117" style="fill: #008000; stroke: #008000"/>
     <use xlink:href="#m95f1113d29" x="308.999161" y="180.375434" style="fill: #008000; stroke: #008000"/>
     <use xlink:href="#m95f1113d29" x="311.08028" y="181.411467" style="fill: #008000; stroke: #008000"/>
     <use xlink:href="#m95f1113d29" x="313.161399" y="182.525215" style="fill: #008000; stroke: #008000"/>
     <use xlink:href="#m95f1113d29" x="315.242517" y="183.716679" style="fill: #008000; stroke: #008000"/>
    </g>
   </g>
   <g id="PathCollection_113">
    <g clip-path="url(#p1c948e78cd)">
     <use xlink:href="#m95f1113d29" x="315.242517" y="183.737487" style="fill: #008000; stroke: #008000"/>
     <use xlink:href="#m95f1113d29" x="317.323636" y="185.002764" style="fill: #008000; stroke: #008000"/>
     <use xlink:href="#m95f1113d29" x="319.404755" y="186.337953" style="fill: #008000; stroke: #008000"/>
     <use xlink:href="#m95f1113d29" x="321.485874" y="187.743055" style="fill: #008000; stroke: #008000"/>
     <use xlink:href="#m95f1113d29" x="323.566993" y="189.218068" style="fill: #008000; stroke: #008000"/>
    </g>
   </g>
   <g id="PathCollection_114">
    <g clip-path="url(#p1c948e78cd)">
     <use xlink:href="#m95f1113d29" x="323.566993" y="189.231915" style="fill: #008000; stroke: #008000"/>
     <use xlink:href="#m95f1113d29" x="325.648112" y="190.774244" style="fill: #008000; stroke: #008000"/>
     <use xlink:href="#m95f1113d29" x="327.729231" y="192.381293" style="fill: #008000; stroke: #008000"/>
     <use xlink:href="#m95f1113d29" x="329.81035" y="194.053062" style="fill: #008000; stroke: #008000"/>
     <use xlink:href="#m95f1113d29" x="331.891469" y="195.78955" style="fill: #008000; stroke: #008000"/>
    </g>
   </g>
   <g id="PathCollection_115">
    <g clip-path="url(#p1c948e78cd)">
     <use xlink:href="#m95f1113d29" x="331.891469" y="195.799826" style="fill: #008000; stroke: #008000"/>
     <use xlink:href="#m95f1113d29" x="333.972587" y="197.599107" style="fill: #008000; stroke: #008000"/>
     <use xlink:href="#m95f1113d29" x="336.053706" y="199.459255" style="fill: #008000; stroke: #008000"/>
     <use xlink:href="#m95f1113d29" x="338.134825" y="201.380268" style="fill: #008000; stroke: #008000"/>
     <use xlink:href="#m95f1113d29" x="340.215944" y="203.362147" style="fill: #008000; stroke: #008000"/>
    </g>
   </g>
   <g id="PathCollection_116">
    <g clip-path="url(#p1c948e78cd)">
     <use xlink:href="#m95f1113d29" x="340.215944" y="203.373059" style="fill: #008000; stroke: #008000"/>
     <use xlink:href="#m95f1113d29" x="342.297063" y="205.413759" style="fill: #008000; stroke: #008000"/>
     <use xlink:href="#m95f1113d29" x="344.378182" y="207.511232" style="fill: #008000; stroke: #008000"/>
     <use xlink:href="#m95f1113d29" x="346.459301" y="209.665479" style="fill: #008000; stroke: #008000"/>
     <use xlink:href="#m95f1113d29" x="348.54042" y="211.876501" style="fill: #008000; stroke: #008000"/>
    </g>
   </g>
   <g id="PathCollection_117">
    <g clip-path="url(#p1c948e78cd)">
     <use xlink:href="#m95f1113d29" x="348.54042" y="211.890394" style="fill: #008000; stroke: #008000"/>
     <use xlink:href="#m95f1113d29" x="350.621538" y="214.155584" style="fill: #008000; stroke: #008000"/>
     <use xlink:href="#m95f1113d29" x="352.702657" y="216.472338" style="fill: #008000; stroke: #008000"/>
     <use xlink:href="#m95f1113d29" x="354.783776" y="218.840657" style="fill: #008000; stroke: #008000"/>
     <use xlink:href="#m95f1113d29" x="356.864895" y="221.260539" style="fill: #008000; stroke: #008000"/>
    </g>
   </g>
   <g id="PathCollection_118">
    <g clip-path="url(#p1c948e78cd)">
     <use xlink:href="#m95f1113d29" x="356.864895" y="221.277632" style="fill: #008000; stroke: #008000"/>
     <use xlink:href="#m95f1113d29" x="358.946014" y="223.745873" style="fill: #008000; stroke: #008000"/>
     <use xlink:href="#m95f1113d29" x="361.027133" y="226.259269" style="fill: #008000; stroke: #008000"/>
     <use xlink:href="#m95f1113d29" x="363.108252" y="228.817819" style="fill: #008000; stroke: #008000"/>
     <use xlink:href="#m95f1113d29" x="365.189371" y="231.421523" style="fill: #008000; stroke: #008000"/>
    </g>
   </g>
   <g id="PathCollection_119">
    <g clip-path="url(#p1c948e78cd)">
     <use xlink:href="#m95f1113d29" x="365.189371" y="231.441005" style="fill: #008000; stroke: #008000"/>
     <use xlink:href="#m95f1113d29" x="367.27049" y="234.08621" style="fill: #008000; stroke: #008000"/>
     <use xlink:href="#m95f1113d29" x="369.351608" y="236.769264" style="fill: #008000; stroke: #008000"/>
     <use xlink:href="#m95f1113d29" x="371.432727" y="239.490166" style="fill: #008000; stroke: #008000"/>
     <use xlink:href="#m95f1113d29" x="373.513846" y="242.248917" style="fill: #008000; stroke: #008000"/>
    </g>
   </g>
   <g id="PathCollection_120">
    <g clip-path="url(#p1c948e78cd)">
     <use xlink:href="#m95f1113d29" x="373.513846" y="242.270067" style="fill: #008000; stroke: #008000"/>
     <use xlink:href="#m95f1113d29" x="375.594965" y="245.062701" style="fill: #008000; stroke: #008000"/>
     <use xlink:href="#m95f1113d29" x="377.676084" y="247.885251" style="fill: #008000; stroke: #008000"/>
     <use xlink:href="#m95f1113d29" x="379.757203" y="250.737719" style="fill: #008000; stroke: #008000"/>
     <use xlink:href="#m95f1113d29" x="381.838322" y="253.620104" style="fill: #008000; stroke: #008000"/>
    </g>
   </g>
   <g id="PathCollection_121">
    <g clip-path="url(#p1c948e78cd)">
     <use xlink:href="#m95f1113d29" x="381.838322" y="253.642273" style="fill: #008000; stroke: #008000"/>
     <use xlink:href="#m95f1113d29" x="383.919441" y="256.550418" style="fill: #008000; stroke: #008000"/>
     <use xlink:href="#m95f1113d29" x="386.000559" y="259.480167" style="fill: #008000; stroke: #008000"/>
     <use xlink:href="#m95f1113d29" x="388.081678" y="262.43152" style="fill: #008000; stroke: #008000"/>
     <use xlink:href="#m95f1113d29" x="390.162797" y="265.404476" style="fill: #008000; stroke: #008000"/>
    </g>
   </g>
   <g id="PathCollection_122">
    <g clip-path="url(#p1c948e78cd)">
     <use xlink:href="#m95f1113d29" x="390.162797" y="265.427954" style="fill: #008000; stroke: #008000"/>
     <use xlink:href="#m95f1113d29" x="392.243916" y="268.418112" style="fill: #008000; stroke: #008000"/>
     <use xlink:href="#m95f1113d29" x="394.325035" y="271.421071" style="fill: #008000; stroke: #008000"/>
     <use xlink:href="#m95f1113d29" x="396.406154" y="274.436828" style="fill: #008000; stroke: #008000"/>
     <use xlink:href="#m95f1113d29" x="398.487273" y="277.465386" style="fill: #008000; stroke: #008000"/>
    </g>
   </g>
   <g id="matplotlib.axis_1">
    <g id="xtick_1">
     <g id="line2d_1">
      <defs>
       <path id="m6b6fe207cd" d="M 0 0 
L 0 3.5 
" style="stroke: #000000; stroke-width: 0.8"/>
      </defs>
      <g>
       <use xlink:href="#m6b6fe207cd" x="73.832727" y="307.584" style="stroke: #000000; stroke-width: 0.8"/>
      </g>
     </g>
     <g id="text_1">
      <!-- −1.00 -->
      <g transform="translate(58.510071 322.182437)scale(0.1 -0.1)">
       <defs>
        <path id="DejaVuSans-2212" d="M 678 2272 
L 4684 2272 
L 4684 1741 
L 678 1741 
L 678 2272 
z
" transform="scale(0.015625)"/>
        <path id="DejaVuSans-31" d="M 794 531 
L 1825 531 
L 1825 4091 
L 703 3866 
L 703 4441 
L 1819 4666 
L 2450 4666 
L 2450 531 
L 3481 531 
L 3481 0 
L 794 0 
L 794 531 
z
" transform="scale(0.015625)"/>
        <path id="DejaVuSans-2e" d="M 684 794 
L 1344 794 
L 1344 0 
L 684 0 
L 684 794 
z
" transform="scale(0.015625)"/>
        <path id="DejaVuSans-30" d="M 2034 4250 
Q 1547 4250 1301 3770 
Q 1056 3291 1056 2328 
Q 1056 1369 1301 889 
Q 1547 409 2034 409 
Q 2525 409 2770 889 
Q 3016 1369 3016 2328 
Q 3016 3291 2770 3770 
Q 2525 4250 2034 4250 
z
M 2034 4750 
Q 2819 4750 3233 4129 
Q 3647 3509 3647 2328 
Q 3647 1150 3233 529 
Q 2819 -91 2034 -91 
Q 1250 -91 836 529 
Q 422 1150 422 2328 
Q 422 3509 836 4129 
Q 1250 4750 2034 4750 
z
" transform="scale(0.015625)"/>
       </defs>
       <use xlink:href="#DejaVuSans-2212"/>
       <use xlink:href="#DejaVuSans-31" x="83.789062"/>
       <use xlink:href="#DejaVuSans-2e" x="147.412109"/>
       <use xlink:href="#DejaVuSans-30" x="179.199219"/>
       <use xlink:href="#DejaVuSans-30" x="242.822266"/>
      </g>
     </g>
    </g>
    <g id="xtick_2">
     <g id="line2d_2">
      <g>
       <use xlink:href="#m6b6fe207cd" x="114.414545" y="307.584" style="stroke: #000000; stroke-width: 0.8"/>
      </g>
     </g>
     <g id="text_2">
      <!-- −0.75 -->
      <g transform="translate(99.091889 322.182437)scale(0.1 -0.1)">
       <defs>
        <path id="DejaVuSans-37" d="M 525 4666 
L 3525 4666 
L 3525 4397 
L 1831 0 
L 1172 0 
L 2766 4134 
L 525 4134 
L 525 4666 
z
" transform="scale(0.015625)"/>
        <path id="DejaVuSans-35" d="M 691 4666 
L 3169 4666 
L 3169 4134 
L 1269 4134 
L 1269 2991 
Q 1406 3038 1543 3061 
Q 1681 3084 1819 3084 
Q 2600 3084 3056 2656 
Q 3513 2228 3513 1497 
Q 3513 744 3044 326 
Q 2575 -91 1722 -91 
Q 1428 -91 1123 -41 
Q 819 9 494 109 
L 494 744 
Q 775 591 1075 516 
Q 1375 441 1709 441 
Q 2250 441 2565 725 
Q 2881 1009 2881 1497 
Q 2881 1984 2565 2268 
Q 2250 2553 1709 2553 
Q 1456 2553 1204 2497 
Q 953 2441 691 2322 
L 691 4666 
z
" transform="scale(0.015625)"/>
       </defs>
       <use xlink:href="#DejaVuSans-2212"/>
       <use xlink:href="#DejaVuSans-30" x="83.789062"/>
       <use xlink:href="#DejaVuSans-2e" x="147.412109"/>
       <use xlink:href="#DejaVuSans-37" x="179.199219"/>
       <use xlink:href="#DejaVuSans-35" x="242.822266"/>
      </g>
     </g>
    </g>
    <g id="xtick_3">
     <g id="line2d_3">
      <g>
       <use xlink:href="#m6b6fe207cd" x="154.996364" y="307.584" style="stroke: #000000; stroke-width: 0.8"/>
      </g>
     </g>
     <g id="text_3">
      <!-- −0.50 -->
      <g transform="translate(139.673707 322.182437)scale(0.1 -0.1)">
       <use xlink:href="#DejaVuSans-2212"/>
       <use xlink:href="#DejaVuSans-30" x="83.789062"/>
       <use xlink:href="#DejaVuSans-2e" x="147.412109"/>
       <use xlink:href="#DejaVuSans-35" x="179.199219"/>
       <use xlink:href="#DejaVuSans-30" x="242.822266"/>
      </g>
     </g>
    </g>
    <g id="xtick_4">
     <g id="line2d_4">
      <g>
       <use xlink:href="#m6b6fe207cd" x="195.578182" y="307.584" style="stroke: #000000; stroke-width: 0.8"/>
      </g>
     </g>
     <g id="text_4">
      <!-- −0.25 -->
      <g transform="translate(180.255526 322.182437)scale(0.1 -0.1)">
       <defs>
        <path id="DejaVuSans-32" d="M 1228 531 
L 3431 531 
L 3431 0 
L 469 0 
L 469 531 
Q 828 903 1448 1529 
Q 2069 2156 2228 2338 
Q 2531 2678 2651 2914 
Q 2772 3150 2772 3378 
Q 2772 3750 2511 3984 
Q 2250 4219 1831 4219 
Q 1534 4219 1204 4116 
Q 875 4013 500 3803 
L 500 4441 
Q 881 4594 1212 4672 
Q 1544 4750 1819 4750 
Q 2544 4750 2975 4387 
Q 3406 4025 3406 3419 
Q 3406 3131 3298 2873 
Q 3191 2616 2906 2266 
Q 2828 2175 2409 1742 
Q 1991 1309 1228 531 
z
" transform="scale(0.015625)"/>
       </defs>
       <use xlink:href="#DejaVuSans-2212"/>
       <use xlink:href="#DejaVuSans-30" x="83.789062"/>
       <use xlink:href="#DejaVuSans-2e" x="147.412109"/>
       <use xlink:href="#DejaVuSans-32" x="179.199219"/>
       <use xlink:href="#DejaVuSans-35" x="242.822266"/>
      </g>
     </g>
    </g>
    <g id="xtick_5">
     <g id="line2d_5">
      <g>
       <use xlink:href="#m6b6fe207cd" x="236.16" y="307.584" style="stroke: #000000; stroke-width: 0.8"/>
      </g>
     </g>
     <g id="text_5">
      <!-- 0.00 -->
      <g transform="translate(225.027187 322.182437)scale(0.1 -0.1)">
       <use xlink:href="#DejaVuSans-30"/>
       <use xlink:href="#DejaVuSans-2e" x="63.623047"/>
       <use xlink:href="#DejaVuSans-30" x="95.410156"/>
       <use xlink:href="#DejaVuSans-30" x="159.033203"/>
      </g>
     </g>
    </g>
    <g id="xtick_6">
     <g id="line2d_6">
      <g>
       <use xlink:href="#m6b6fe207cd" x="276.741818" y="307.584" style="stroke: #000000; stroke-width: 0.8"/>
      </g>
     </g>
     <g id="text_6">
      <!-- 0.25 -->
      <g transform="translate(265.609006 322.182437)scale(0.1 -0.1)">
       <use xlink:href="#DejaVuSans-30"/>
       <use xlink:href="#DejaVuSans-2e" x="63.623047"/>
       <use xlink:href="#DejaVuSans-32" x="95.410156"/>
       <use xlink:href="#DejaVuSans-35" x="159.033203"/>
      </g>
     </g>
    </g>
    <g id="xtick_7">
     <g id="line2d_7">
      <g>
       <use xlink:href="#m6b6fe207cd" x="317.323636" y="307.584" style="stroke: #000000; stroke-width: 0.8"/>
      </g>
     </g>
     <g id="text_7">
      <!-- 0.50 -->
      <g transform="translate(306.190824 322.182437)scale(0.1 -0.1)">
       <use xlink:href="#DejaVuSans-30"/>
       <use xlink:href="#DejaVuSans-2e" x="63.623047"/>
       <use xlink:href="#DejaVuSans-35" x="95.410156"/>
       <use xlink:href="#DejaVuSans-30" x="159.033203"/>
      </g>
     </g>
    </g>
    <g id="xtick_8">
     <g id="line2d_8">
      <g>
       <use xlink:href="#m6b6fe207cd" x="357.905455" y="307.584" style="stroke: #000000; stroke-width: 0.8"/>
      </g>
     </g>
     <g id="text_8">
      <!-- 0.75 -->
      <g transform="translate(346.772642 322.182437)scale(0.1 -0.1)">
       <use xlink:href="#DejaVuSans-30"/>
       <use xlink:href="#DejaVuSans-2e" x="63.623047"/>
       <use xlink:href="#DejaVuSans-37" x="95.410156"/>
       <use xlink:href="#DejaVuSans-35" x="159.033203"/>
      </g>
     </g>
    </g>
    <g id="xtick_9">
     <g id="line2d_9">
      <g>
       <use xlink:href="#m6b6fe207cd" x="398.487273" y="307.584" style="stroke: #000000; stroke-width: 0.8"/>
      </g>
     </g>
     <g id="text_9">
      <!-- 1.00 -->
      <g transform="translate(387.35446 322.182437)scale(0.1 -0.1)">
       <use xlink:href="#DejaVuSans-31"/>
       <use xlink:href="#DejaVuSans-2e" x="63.623047"/>
       <use xlink:href="#DejaVuSans-30" x="95.410156"/>
       <use xlink:href="#DejaVuSans-30" x="159.033203"/>
      </g>
     </g>
    </g>
   </g>
   <g id="matplotlib.axis_2">
    <g id="ytick_1">
     <g id="line2d_10">
      <defs>
       <path id="md26602e7af" d="M 0 0 
L -3.5 0 
" style="stroke: #000000; stroke-width: 0.8"/>
      </defs>
      <g>
       <use xlink:href="#md26602e7af" x="57.6" y="294.666218" style="stroke: #000000; stroke-width: 0.8"/>
      </g>
     </g>
     <g id="text_10">
      <!-- 0.00 -->
      <g transform="translate(28.334375 298.465437)scale(0.1 -0.1)">
       <use xlink:href="#DejaVuSans-30"/>
       <use xlink:href="#DejaVuSans-2e" x="63.623047"/>
       <use xlink:href="#DejaVuSans-30" x="95.410156"/>
       <use xlink:href="#DejaVuSans-30" x="159.033203"/>
      </g>
     </g>
    </g>
    <g id="ytick_2">
     <g id="line2d_11">
      <g>
       <use xlink:href="#md26602e7af" x="57.6" y="264.525238" style="stroke: #000000; stroke-width: 0.8"/>
      </g>
     </g>
     <g id="text_11">
      <!-- 0.25 -->
      <g transform="translate(28.334375 268.324457)scale(0.1 -0.1)">
       <use xlink:href="#DejaVuSans-30"/>
       <use xlink:href="#DejaVuSans-2e" x="63.623047"/>
       <use xlink:href="#DejaVuSans-32" x="95.410156"/>
       <use xlink:href="#DejaVuSans-35" x="159.033203"/>
      </g>
     </g>
    </g>
    <g id="ytick_3">
     <g id="line2d_12">
      <g>
       <use xlink:href="#md26602e7af" x="57.6" y="234.384258" style="stroke: #000000; stroke-width: 0.8"/>
      </g>
     </g>
     <g id="text_12">
      <!-- 0.50 -->
      <g transform="translate(28.334375 238.183477)scale(0.1 -0.1)">
       <use xlink:href="#DejaVuSans-30"/>
       <use xlink:href="#DejaVuSans-2e" x="63.623047"/>
       <use xlink:href="#DejaVuSans-35" x="95.410156"/>
       <use xlink:href="#DejaVuSans-30" x="159.033203"/>
      </g>
     </g>
    </g>
    <g id="ytick_4">
     <g id="line2d_13">
      <g>
       <use xlink:href="#md26602e7af" x="57.6" y="204.243277" style="stroke: #000000; stroke-width: 0.8"/>
      </g>
     </g>
     <g id="text_13">
      <!-- 0.75 -->
      <g transform="translate(28.334375 208.042496)scale(0.1 -0.1)">
       <use xlink:href="#DejaVuSans-30"/>
       <use xlink:href="#DejaVuSans-2e" x="63.623047"/>
       <use xlink:href="#DejaVuSans-37" x="95.410156"/>
       <use xlink:href="#DejaVuSans-35" x="159.033203"/>
      </g>
     </g>
    </g>
    <g id="ytick_5">
     <g id="line2d_14">
      <g>
       <use xlink:href="#md26602e7af" x="57.6" y="174.102297" style="stroke: #000000; stroke-width: 0.8"/>
      </g>
     </g>
     <g id="text_14">
      <!-- 1.00 -->
      <g transform="translate(28.334375 177.901516)scale(0.1 -0.1)">
       <use xlink:href="#DejaVuSans-31"/>
       <use xlink:href="#DejaVuSans-2e" x="63.623047"/>
       <use xlink:href="#DejaVuSans-30" x="95.410156"/>
       <use xlink:href="#DejaVuSans-30" x="159.033203"/>
      </g>
     </g>
    </g>
    <g id="ytick_6">
     <g id="line2d_15">
      <g>
       <use xlink:href="#md26602e7af" x="57.6" y="143.961317" style="stroke: #000000; stroke-width: 0.8"/>
      </g>
     </g>
     <g id="text_15">
      <!-- 1.25 -->
      <g transform="translate(28.334375 147.760536)scale(0.1 -0.1)">
       <use xlink:href="#DejaVuSans-31"/>
       <use xlink:href="#DejaVuSans-2e" x="63.623047"/>
       <use xlink:href="#DejaVuSans-32" x="95.410156"/>
       <use xlink:href="#DejaVuSans-35" x="159.033203"/>
      </g>
     </g>
    </g>
    <g id="ytick_7">
     <g id="line2d_16">
      <g>
       <use xlink:href="#md26602e7af" x="57.6" y="113.820337" style="stroke: #000000; stroke-width: 0.8"/>
      </g>
     </g>
     <g id="text_16">
      <!-- 1.50 -->
      <g transform="translate(28.334375 117.619555)scale(0.1 -0.1)">
       <use xlink:href="#DejaVuSans-31"/>
       <use xlink:href="#DejaVuSans-2e" x="63.623047"/>
       <use xlink:href="#DejaVuSans-35" x="95.410156"/>
       <use xlink:href="#DejaVuSans-30" x="159.033203"/>
      </g>
     </g>
    </g>
    <g id="ytick_8">
     <g id="line2d_17">
      <g>
       <use xlink:href="#md26602e7af" x="57.6" y="83.679356" style="stroke: #000000; stroke-width: 0.8"/>
      </g>
     </g>
     <g id="text_17">
      <!-- 1.75 -->
      <g transform="translate(28.334375 87.478575)scale(0.1 -0.1)">
       <use xlink:href="#DejaVuSans-31"/>
       <use xlink:href="#DejaVuSans-2e" x="63.623047"/>
       <use xlink:href="#DejaVuSans-37" x="95.410156"/>
       <use xlink:href="#DejaVuSans-35" x="159.033203"/>
      </g>
     </g>
    </g>
    <g id="ytick_9">
     <g id="line2d_18">
      <g>
       <use xlink:href="#md26602e7af" x="57.6" y="53.538376" style="stroke: #000000; stroke-width: 0.8"/>
      </g>
     </g>
     <g id="text_18">
      <!-- 2.00 -->
      <g transform="translate(28.334375 57.337595)scale(0.1 -0.1)">
       <use xlink:href="#DejaVuSans-32"/>
       <use xlink:href="#DejaVuSans-2e" x="63.623047"/>
       <use xlink:href="#DejaVuSans-30" x="95.410156"/>
       <use xlink:href="#DejaVuSans-30" x="159.033203"/>
      </g>
     </g>
    </g>
   </g>
   <g id="line2d_19">
    <path d="M 73.832727 275.553339 
L 75.464157 271.443225 
L 77.095587 266.97926 
L 80.358447 257.055914 
L 83.621307 245.927462 
L 86.884166 233.755573 
L 90.147026 220.717072 
L 95.041316 199.951543 
L 104.829895 156.594802 
L 109.724185 135.418636 
L 112.987044 121.961391 
L 116.249904 109.261621 
L 119.512764 97.503822 
L 122.775624 86.858804 
L 126.038483 77.481214 
L 127.669913 73.311051 
L 129.301343 69.507283 
L 130.932773 66.083734 
L 132.564203 63.052852 
L 134.195633 60.425653 
L 135.827063 58.211688 
L 137.458492 56.419006 
L 139.089922 55.054122 
L 140.721352 54.121998 
L 142.352782 53.626023 
L 143.984212 53.568 
L 145.615642 53.94814 
L 147.247072 54.76506 
L 148.878502 56.015792 
L 150.509931 57.695788 
L 152.141361 59.798941 
L 153.772791 62.317607 
L 155.404221 65.242629 
L 157.035651 68.563374 
L 158.667081 72.267772 
L 160.298511 76.342355 
L 161.929941 80.772312 
L 165.1928 90.632701 
L 168.45566 101.705691 
L 171.71852 113.83042 
L 174.98138 126.830748 
L 179.875669 147.557042 
L 188.032819 183.678583 
L 194.558538 212.109939 
L 197.821398 225.59938 
L 201.084258 238.340698 
L 204.347117 250.148795 
L 207.609977 260.85213 
L 210.872837 270.295209 
L 212.504267 274.500511 
L 214.135697 278.340849 
L 215.767127 281.802262 
L 217.398556 284.872167 
L 219.029986 287.539404 
L 220.661416 289.794279 
L 222.292846 291.628594 
L 223.924276 293.03568 
L 225.555706 294.010423 
L 227.187136 294.54928 
L 228.818566 294.650292 
L 230.449995 294.313091 
L 232.081425 293.538904 
L 233.712855 292.330544 
L 235.344285 290.692405 
L 236.975715 192.565628 
L 241.870005 188.887131 
L 246.764294 185.593158 
L 250.027154 183.616773 
L 253.290014 181.819833 
L 256.552873 180.205242 
L 259.815733 178.775609 
L 263.078593 177.533244 
L 266.341453 176.480155 
L 269.604312 175.618043 
L 272.867172 174.948301 
L 276.130032 174.472011 
L 279.392892 174.189944 
L 282.655751 174.102555 
L 285.918611 174.209985 
L 289.181471 174.512061 
L 292.444331 175.008294 
L 295.70719 175.697883 
L 298.97005 176.579713 
L 302.23291 177.652359 
L 305.49577 178.914089 
L 308.75863 180.362862 
L 312.021489 181.996339 
L 315.284349 183.81188 
L 318.547209 185.80655 
L 323.441498 189.127295 
L 328.335788 192.831693 
L 333.230078 196.906276 
L 338.124367 201.336233 
L 343.018657 206.105461 
L 347.912947 211.196622 
L 352.807236 216.591209 
L 357.701526 222.269612 
L 364.227245 230.246491 
L 370.752965 238.639586 
L 377.278684 247.394669 
L 385.435834 258.761199 
L 395.224413 272.868989 
L 398.487273 277.652237 
L 398.487273 277.652237 
" clip-path="url(#p1c948e78cd)" style="fill: none; stroke: #ffc0cb; stroke-width: 1.5; stroke-linecap: square"/>
   </g>
   <g id="patch_3">
    <path d="M 57.6 307.584 
L 57.6 41.472 
" style="fill: none; stroke: #000000; stroke-width: 0.8; stroke-linejoin: miter; stroke-linecap: square"/>
   </g>
   <g id="patch_4">
    <path d="M 414.72 307.584 
L 414.72 41.472 
" style="fill: none; stroke: #000000; stroke-width: 0.8; stroke-linejoin: miter; stroke-linecap: square"/>
   </g>
   <g id="patch_5">
    <path d="M 57.6 307.584 
L 414.72 307.584 
" style="fill: none; stroke: #000000; stroke-width: 0.8; stroke-linejoin: miter; stroke-linecap: square"/>
   </g>
   <g id="patch_6">
    <path d="M 57.6 41.472 
L 414.72 41.472 
" style="fill: none; stroke: #000000; stroke-width: 0.8; stroke-linejoin: miter; stroke-linecap: square"/>
   </g>
  </g>
 </g>
 <defs>
  <clipPath id="p1c948e78cd">
   <rect x="57.6" y="41.472" width="357.12" height="266.112"/>
  </clipPath>
 </defs>
</svg>
