<?xml version="1.0" encoding="utf-8" standalone="no"?>
<!DOCTYPE svg PUBLIC "-//W3C//DTD SVG 1.1//EN"
  "http://www.w3.org/Graphics/SVG/1.1/DTD/svg11.dtd">
<svg xmlns:xlink="http://www.w3.org/1999/xlink" width="460.8pt" height="345.6pt" viewBox="0 0 460.8 345.6" xmlns="http://www.w3.org/2000/svg" version="1.1">
 <metadata>
  <rdf:RDF xmlns:dc="http://purl.org/dc/elements/1.1/" xmlns:cc="http://creativecommons.org/ns#" xmlns:rdf="http://www.w3.org/1999/02/22-rdf-syntax-ns#">
   <cc:Work>
    <dc:type rdf:resource="http://purl.org/dc/dcmitype/StillImage"/>
    <dc:date>2023-07-31T06:45:02.205312</dc:date>
    <dc:format>image/svg+xml</dc:format>
    <dc:creator>
     <cc:Agent>
      <dc:title>Matplotlib v3.5.2, https://matplotlib.org/</dc:title>
     </cc:Agent>
    </dc:creator>
   </cc:Work>
  </rdf:RDF>
 </metadata>
 <defs>
  <style type="text/css">*{stroke-linejoin: round; stroke-linecap: butt}</style>
 </defs>
 <g id="figure_1">
  <g id="patch_1">
   <path d="M 0 345.6 
L 460.8 345.6 
L 460.8 0 
L 0 0 
z
" style="fill: #ffffff"/>
  </g>
  <g id="axes_1">
   <g id="patch_2">
    <path d="M 57.6 307.584 
L 414.72 307.584 
L 414.72 41.472 
L 57.6 41.472 
z
" style="fill: #ffffff"/>
   </g>
   <g id="PathCollection_1">
    <defs>
     <path id="m6af9e942a4" d="M 0 3 
C 0.795609 3 1.55874 2.683901 2.12132 2.12132 
C 2.683901 1.55874 3 0.795609 3 0 
C 3 -0.795609 2.683901 -1.55874 2.12132 -2.12132 
C 1.55874 -2.683901 0.795609 -3 0 -3 
C -0.795609 -3 -1.55874 -2.683901 -2.12132 -2.12132 
C -2.683901 -1.55874 -3 -0.795609 -3 0 
C -3 0.795609 -2.683901 1.55874 -2.12132 2.12132 
C -1.55874 2.683901 -0.795609 3 0 3 
z
" style="stroke: #0000ff"/>
    </defs>
    <g clip-path="url(#p1d530f45f9)">
     <use xlink:href="#m6af9e942a4" x="77.994965" y="264.748489" style="fill: #0000ff; stroke: #0000ff"/>
    </g>
   </g>
   <g id="PathCollection_2">
    <g clip-path="url(#p1d530f45f9)">
     <use xlink:href="#m6af9e942a4" x="86.319441" y="236.318598" style="fill: #0000ff; stroke: #0000ff"/>
    </g>
   </g>
   <g id="PathCollection_3">
    <g clip-path="url(#p1d530f45f9)">
     <use xlink:href="#m6af9e942a4" x="94.643916" y="202.084073" style="fill: #0000ff; stroke: #0000ff"/>
    </g>
   </g>
   <g id="PathCollection_4">
    <g clip-path="url(#p1d530f45f9)">
     <use xlink:href="#m6af9e942a4" x="102.968392" y="165.260561" style="fill: #0000ff; stroke: #0000ff"/>
    </g>
   </g>
   <g id="PathCollection_5">
    <g clip-path="url(#p1d530f45f9)">
     <use xlink:href="#m6af9e942a4" x="111.292867" y="129.306894" style="fill: #0000ff; stroke: #0000ff"/>
    </g>
   </g>
   <g id="PathCollection_6">
    <g clip-path="url(#p1d530f45f9)">
     <use xlink:href="#m6af9e942a4" x="119.617343" y="97.600198" style="fill: #0000ff; stroke: #0000ff"/>
    </g>
   </g>
   <g id="PathCollection_7">
    <g clip-path="url(#p1d530f45f9)">
     <use xlink:href="#m6af9e942a4" x="127.941818" y="73.118683" style="fill: #0000ff; stroke: #0000ff"/>
    </g>
   </g>
   <g id="PathCollection_8">
    <g clip-path="url(#p1d530f45f9)">
     <use xlink:href="#m6af9e942a4" x="136.266294" y="58.161896" style="fill: #0000ff; stroke: #0000ff"/>
    </g>
   </g>
   <g id="PathCollection_9">
    <g clip-path="url(#p1d530f45f9)">
     <use xlink:href="#m6af9e942a4" x="144.590769" y="54.134729" style="fill: #0000ff; stroke: #0000ff"/>
    </g>
   </g>
   <g id="PathCollection_10">
    <g clip-path="url(#p1d530f45f9)">
     <use xlink:href="#m6af9e942a4" x="152.915245" y="61.415452" style="fill: #0000ff; stroke: #0000ff"/>
    </g>
   </g>
   <g id="PathCollection_11">
    <g clip-path="url(#p1d530f45f9)">
     <use xlink:href="#m6af9e942a4" x="161.23972" y="79.320188" style="fill: #0000ff; stroke: #0000ff"/>
    </g>
   </g>
   <g id="PathCollection_12">
    <g clip-path="url(#p1d530f45f9)">
     <use xlink:href="#m6af9e942a4" x="169.564196" y="106.167146" style="fill: #0000ff; stroke: #0000ff"/>
    </g>
   </g>
   <g id="PathCollection_13">
    <g clip-path="url(#p1d530f45f9)">
     <use xlink:href="#m6af9e942a4" x="177.888671" y="139.434591" style="fill: #0000ff; stroke: #0000ff"/>
    </g>
   </g>
   <g id="PathCollection_14">
    <g clip-path="url(#p1d530f45f9)">
     <use xlink:href="#m6af9e942a4" x="186.213147" y="175.997713" style="fill: #0000ff; stroke: #0000ff"/>
    </g>
   </g>
   <g id="PathCollection_15">
    <g clip-path="url(#p1d530f45f9)">
     <use xlink:href="#m6af9e942a4" x="194.537622" y="212.422139" style="fill: #0000ff; stroke: #0000ff"/>
    </g>
   </g>
   <g id="PathCollection_16">
    <g clip-path="url(#p1d530f45f9)">
     <use xlink:href="#m6af9e942a4" x="202.862098" y="245.286525" style="fill: #0000ff; stroke: #0000ff"/>
    </g>
   </g>
   <g id="PathCollection_17">
    <g clip-path="url(#p1d530f45f9)">
     <use xlink:href="#m6af9e942a4" x="211.186573" y="271.503919" style="fill: #0000ff; stroke: #0000ff"/>
    </g>
   </g>
   <g id="PathCollection_18">
    <g clip-path="url(#p1d530f45f9)">
     <use xlink:href="#m6af9e942a4" x="219.511049" y="288.611722" style="fill: #0000ff; stroke: #0000ff"/>
    </g>
   </g>
   <g id="PathCollection_19">
    <g clip-path="url(#p1d530f45f9)">
     <use xlink:href="#m6af9e942a4" x="227.835524" y="295.002999" style="fill: #0000ff; stroke: #0000ff"/>
    </g>
   </g>
   <g id="PathCollection_20">
    <defs>
     <path id="m181d036d15" d="M -3 0 
L 3 0 
M 0 3 
L 0 -3 
" style="stroke: #ff0000; stroke-width: 1.5"/>
    </defs>
    <g clip-path="url(#p1d530f45f9)">
     <use xlink:href="#m181d036d15" x="236.16" y="242.409582" style="fill: #ff0000; stroke: #ff0000; stroke-width: 1.5"/>
    </g>
   </g>
   <g id="PathCollection_21">
    <g clip-path="url(#p1d530f45f9)">
     <use xlink:href="#m6af9e942a4" x="234.079693" y="292.711232" style="fill: #0000ff; stroke: #0000ff"/>
    </g>
   </g>
   <g id="PathCollection_22">
    <defs>
     <path id="m88bae27801" d="M 0 3 
C 0.795609 3 1.55874 2.683901 2.12132 2.12132 
C 2.683901 1.55874 3 0.795609 3 0 
C 3 -0.795609 2.683901 -1.55874 2.12132 -2.12132 
C 1.55874 -2.683901 0.795609 -3 0 -3 
C -0.795609 -3 -1.55874 -2.683901 -2.12132 -2.12132 
C -2.683901 -1.55874 -3 -0.795609 -3 0 
C -3 0.795609 -2.683901 1.55874 -2.12132 2.12132 
C -1.55874 2.683901 -0.795609 3 0 3 
z
" style="stroke: #008000"/>
    </defs>
    <g clip-path="url(#p1d530f45f9)">
     <use xlink:href="#m88bae27801" x="238.241931" y="192.068682" style="fill: #008000; stroke: #008000"/>
    </g>
   </g>
   <g id="PathCollection_23">
    <g clip-path="url(#p1d530f45f9)">
     <use xlink:href="#m88bae27801" x="244.484476" y="187.590129" style="fill: #008000; stroke: #008000"/>
    </g>
   </g>
   <g id="PathCollection_24">
    <g clip-path="url(#p1d530f45f9)">
     <use xlink:href="#m88bae27801" x="252.808951" y="182.569416" style="fill: #008000; stroke: #008000"/>
    </g>
   </g>
   <g id="PathCollection_25">
    <g clip-path="url(#p1d530f45f9)">
     <use xlink:href="#m88bae27801" x="261.133427" y="178.735665" style="fill: #008000; stroke: #008000"/>
    </g>
   </g>
   <g id="PathCollection_26">
    <g clip-path="url(#p1d530f45f9)">
     <use xlink:href="#m88bae27801" x="269.457902" y="176.12917" style="fill: #008000; stroke: #008000"/>
    </g>
   </g>
   <g id="PathCollection_27">
    <g clip-path="url(#p1d530f45f9)">
     <use xlink:href="#m88bae27801" x="277.782378" y="174.777326" style="fill: #008000; stroke: #008000"/>
    </g>
   </g>
   <g id="PathCollection_28">
    <g clip-path="url(#p1d530f45f9)">
     <use xlink:href="#m88bae27801" x="286.106853" y="174.694339" style="fill: #008000; stroke: #008000"/>
    </g>
   </g>
   <g id="PathCollection_29">
    <g clip-path="url(#p1d530f45f9)">
     <use xlink:href="#m88bae27801" x="294.431329" y="175.881084" style="fill: #008000; stroke: #008000"/>
    </g>
   </g>
   <g id="PathCollection_30">
    <g clip-path="url(#p1d530f45f9)">
     <use xlink:href="#m88bae27801" x="302.755804" y="178.325086" style="fill: #008000; stroke: #008000"/>
    </g>
   </g>
   <g id="PathCollection_31">
    <g clip-path="url(#p1d530f45f9)">
     <use xlink:href="#m88bae27801" x="311.08028" y="182.00066" style="fill: #008000; stroke: #008000"/>
    </g>
   </g>
   <g id="PathCollection_32">
    <g clip-path="url(#p1d530f45f9)">
     <use xlink:href="#m88bae27801" x="319.404755" y="186.869173" style="fill: #008000; stroke: #008000"/>
    </g>
   </g>
   <g id="PathCollection_33">
    <g clip-path="url(#p1d530f45f9)">
     <use xlink:href="#m88bae27801" x="327.729231" y="192.879457" style="fill: #008000; stroke: #008000"/>
    </g>
   </g>
   <g id="PathCollection_34">
    <g clip-path="url(#p1d530f45f9)">
     <use xlink:href="#m88bae27801" x="336.053706" y="199.968344" style="fill: #008000; stroke: #008000"/>
    </g>
   </g>
   <g id="PathCollection_35">
    <g clip-path="url(#p1d530f45f9)">
     <use xlink:href="#m88bae27801" x="344.378182" y="208.061326" style="fill: #008000; stroke: #008000"/>
    </g>
   </g>
   <g id="PathCollection_36">
    <g clip-path="url(#p1d530f45f9)">
     <use xlink:href="#m88bae27801" x="352.702657" y="217.073347" style="fill: #008000; stroke: #008000"/>
    </g>
   </g>
   <g id="PathCollection_37">
    <g clip-path="url(#p1d530f45f9)">
     <use xlink:href="#m88bae27801" x="361.027133" y="226.909687" style="fill: #008000; stroke: #008000"/>
    </g>
   </g>
   <g id="PathCollection_38">
    <g clip-path="url(#p1d530f45f9)">
     <use xlink:href="#m88bae27801" x="369.351608" y="237.466966" style="fill: #008000; stroke: #008000"/>
    </g>
   </g>
   <g id="PathCollection_39">
    <g clip-path="url(#p1d530f45f9)">
     <use xlink:href="#m88bae27801" x="377.676084" y="248.634223" style="fill: #008000; stroke: #008000"/>
    </g>
   </g>
   <g id="PathCollection_40">
    <g clip-path="url(#p1d530f45f9)">
     <use xlink:href="#m88bae27801" x="386.000559" y="260.294091" style="fill: #008000; stroke: #008000"/>
    </g>
   </g>
   <g id="PathCollection_41">
    <g clip-path="url(#p1d530f45f9)">
     <use xlink:href="#m88bae27801" x="394.325035" y="272.32402" style="fill: #008000; stroke: #008000"/>
    </g>
   </g>
   <g id="PathCollection_42">
    <g clip-path="url(#p1d530f45f9)">
     <use xlink:href="#m6af9e942a4" x="77.994965" y="264.748489" style="fill: #0000ff; stroke: #0000ff"/>
    </g>
   </g>
   <g id="PathCollection_43">
    <g clip-path="url(#p1d530f45f9)">
     <use xlink:href="#m6af9e942a4" x="86.319441" y="236.318598" style="fill: #0000ff; stroke: #0000ff"/>
    </g>
   </g>
   <g id="PathCollection_44">
    <g clip-path="url(#p1d530f45f9)">
     <use xlink:href="#m6af9e942a4" x="94.643916" y="202.084073" style="fill: #0000ff; stroke: #0000ff"/>
    </g>
   </g>
   <g id="PathCollection_45">
    <g clip-path="url(#p1d530f45f9)">
     <use xlink:href="#m6af9e942a4" x="102.968392" y="165.260561" style="fill: #0000ff; stroke: #0000ff"/>
    </g>
   </g>
   <g id="PathCollection_46">
    <g clip-path="url(#p1d530f45f9)">
     <use xlink:href="#m6af9e942a4" x="111.292867" y="129.306894" style="fill: #0000ff; stroke: #0000ff"/>
    </g>
   </g>
   <g id="PathCollection_47">
    <g clip-path="url(#p1d530f45f9)">
     <use xlink:href="#m6af9e942a4" x="119.617343" y="97.600198" style="fill: #0000ff; stroke: #0000ff"/>
    </g>
   </g>
   <g id="PathCollection_48">
    <g clip-path="url(#p1d530f45f9)">
     <use xlink:href="#m6af9e942a4" x="127.941818" y="73.118683" style="fill: #0000ff; stroke: #0000ff"/>
    </g>
   </g>
   <g id="PathCollection_49">
    <g clip-path="url(#p1d530f45f9)">
     <use xlink:href="#m6af9e942a4" x="136.266294" y="58.161896" style="fill: #0000ff; stroke: #0000ff"/>
    </g>
   </g>
   <g id="PathCollection_50">
    <g clip-path="url(#p1d530f45f9)">
     <use xlink:href="#m6af9e942a4" x="144.590769" y="54.134729" style="fill: #0000ff; stroke: #0000ff"/>
    </g>
   </g>
   <g id="PathCollection_51">
    <g clip-path="url(#p1d530f45f9)">
     <use xlink:href="#m6af9e942a4" x="152.915245" y="61.415452" style="fill: #0000ff; stroke: #0000ff"/>
    </g>
   </g>
   <g id="PathCollection_52">
    <g clip-path="url(#p1d530f45f9)">
     <use xlink:href="#m6af9e942a4" x="161.23972" y="79.320188" style="fill: #0000ff; stroke: #0000ff"/>
    </g>
   </g>
   <g id="PathCollection_53">
    <g clip-path="url(#p1d530f45f9)">
     <use xlink:href="#m6af9e942a4" x="169.564196" y="106.167146" style="fill: #0000ff; stroke: #0000ff"/>
    </g>
   </g>
   <g id="PathCollection_54">
    <g clip-path="url(#p1d530f45f9)">
     <use xlink:href="#m6af9e942a4" x="177.888671" y="139.434591" style="fill: #0000ff; stroke: #0000ff"/>
    </g>
   </g>
   <g id="PathCollection_55">
    <g clip-path="url(#p1d530f45f9)">
     <use xlink:href="#m6af9e942a4" x="186.213147" y="175.997713" style="fill: #0000ff; stroke: #0000ff"/>
    </g>
   </g>
   <g id="PathCollection_56">
    <g clip-path="url(#p1d530f45f9)">
     <use xlink:href="#m6af9e942a4" x="194.537622" y="212.422139" style="fill: #0000ff; stroke: #0000ff"/>
    </g>
   </g>
   <g id="PathCollection_57">
    <g clip-path="url(#p1d530f45f9)">
     <use xlink:href="#m6af9e942a4" x="202.862098" y="245.286525" style="fill: #0000ff; stroke: #0000ff"/>
    </g>
   </g>
   <g id="PathCollection_58">
    <g clip-path="url(#p1d530f45f9)">
     <use xlink:href="#m6af9e942a4" x="211.186573" y="271.503919" style="fill: #0000ff; stroke: #0000ff"/>
    </g>
   </g>
   <g id="PathCollection_59">
    <g clip-path="url(#p1d530f45f9)">
     <use xlink:href="#m6af9e942a4" x="219.511049" y="288.611722" style="fill: #0000ff; stroke: #0000ff"/>
    </g>
   </g>
   <g id="PathCollection_60">
    <g clip-path="url(#p1d530f45f9)">
     <use xlink:href="#m6af9e942a4" x="227.835524" y="295.002999" style="fill: #0000ff; stroke: #0000ff"/>
    </g>
   </g>
   <g id="PathCollection_61">
    <g clip-path="url(#p1d530f45f9)">
     <use xlink:href="#m181d036d15" x="236.16" y="242.409582" style="fill: #ff0000; stroke: #ff0000; stroke-width: 1.5"/>
    </g>
   </g>
   <g id="PathCollection_62">
    <g clip-path="url(#p1d530f45f9)">
     <use xlink:href="#m6af9e942a4" x="234.079693" y="292.711232" style="fill: #0000ff; stroke: #0000ff"/>
    </g>
   </g>
   <g id="PathCollection_63">
    <g clip-path="url(#p1d530f45f9)">
     <use xlink:href="#m88bae27801" x="238.241931" y="192.068682" style="fill: #008000; stroke: #008000"/>
    </g>
   </g>
   <g id="PathCollection_64">
    <g clip-path="url(#p1d530f45f9)">
     <use xlink:href="#m88bae27801" x="244.484476" y="187.590129" style="fill: #008000; stroke: #008000"/>
    </g>
   </g>
   <g id="PathCollection_65">
    <g clip-path="url(#p1d530f45f9)">
     <use xlink:href="#m88bae27801" x="252.808951" y="182.569416" style="fill: #008000; stroke: #008000"/>
    </g>
   </g>
   <g id="PathCollection_66">
    <g clip-path="url(#p1d530f45f9)">
     <use xlink:href="#m88bae27801" x="261.133427" y="178.735665" style="fill: #008000; stroke: #008000"/>
    </g>
   </g>
   <g id="PathCollection_67">
    <g clip-path="url(#p1d530f45f9)">
     <use xlink:href="#m88bae27801" x="269.457902" y="176.12917" style="fill: #008000; stroke: #008000"/>
    </g>
   </g>
   <g id="PathCollection_68">
    <g clip-path="url(#p1d530f45f9)">
     <use xlink:href="#m88bae27801" x="277.782378" y="174.777326" style="fill: #008000; stroke: #008000"/>
    </g>
   </g>
   <g id="PathCollection_69">
    <g clip-path="url(#p1d530f45f9)">
     <use xlink:href="#m88bae27801" x="286.106853" y="174.694339" style="fill: #008000; stroke: #008000"/>
    </g>
   </g>
   <g id="PathCollection_70">
    <g clip-path="url(#p1d530f45f9)">
     <use xlink:href="#m88bae27801" x="294.431329" y="175.881084" style="fill: #008000; stroke: #008000"/>
    </g>
   </g>
   <g id="PathCollection_71">
    <g clip-path="url(#p1d530f45f9)">
     <use xlink:href="#m88bae27801" x="302.755804" y="178.325086" style="fill: #008000; stroke: #008000"/>
    </g>
   </g>
   <g id="PathCollection_72">
    <g clip-path="url(#p1d530f45f9)">
     <use xlink:href="#m88bae27801" x="311.08028" y="182.00066" style="fill: #008000; stroke: #008000"/>
    </g>
   </g>
   <g id="PathCollection_73">
    <g clip-path="url(#p1d530f45f9)">
     <use xlink:href="#m88bae27801" x="319.404755" y="186.869173" style="fill: #008000; stroke: #008000"/>
    </g>
   </g>
   <g id="PathCollection_74">
    <g clip-path="url(#p1d530f45f9)">
     <use xlink:href="#m88bae27801" x="327.729231" y="192.879457" style="fill: #008000; stroke: #008000"/>
    </g>
   </g>
   <g id="PathCollection_75">
    <g clip-path="url(#p1d530f45f9)">
     <use xlink:href="#m88bae27801" x="336.053706" y="199.968344" style="fill: #008000; stroke: #008000"/>
    </g>
   </g>
   <g id="PathCollection_76">
    <g clip-path="url(#p1d530f45f9)">
     <use xlink:href="#m88bae27801" x="344.378182" y="208.061326" style="fill: #008000; stroke: #008000"/>
    </g>
   </g>
   <g id="PathCollection_77">
    <g clip-path="url(#p1d530f45f9)">
     <use xlink:href="#m88bae27801" x="352.702657" y="217.073347" style="fill: #008000; stroke: #008000"/>
    </g>
   </g>
   <g id="PathCollection_78">
    <g clip-path="url(#p1d530f45f9)">
     <use xlink:href="#m88bae27801" x="361.027133" y="226.909687" style="fill: #008000; stroke: #008000"/>
    </g>
   </g>
   <g id="PathCollection_79">
    <g clip-path="url(#p1d530f45f9)">
     <use xlink:href="#m88bae27801" x="369.351608" y="237.466966" style="fill: #008000; stroke: #008000"/>
    </g>
   </g>
   <g id="PathCollection_80">
    <g clip-path="url(#p1d530f45f9)">
     <use xlink:href="#m88bae27801" x="377.676084" y="248.634223" style="fill: #008000; stroke: #008000"/>
    </g>
   </g>
   <g id="PathCollection_81">
    <g clip-path="url(#p1d530f45f9)">
     <use xlink:href="#m88bae27801" x="386.000559" y="260.294091" style="fill: #008000; stroke: #008000"/>
    </g>
   </g>
   <g id="PathCollection_82">
    <g clip-path="url(#p1d530f45f9)">
     <use xlink:href="#m88bae27801" x="394.325035" y="272.32402" style="fill: #008000; stroke: #008000"/>
    </g>
   </g>
   <g id="PathCollection_83">
    <defs>
     <path id="m797239ea66" d="M 0 1.5 
C 0.397805 1.5 0.77937 1.341951 1.06066 1.06066 
C 1.341951 0.77937 1.5 0.397805 1.5 0 
C 1.5 -0.397805 1.341951 -0.77937 1.06066 -1.06066 
C 0.77937 -1.341951 0.397805 -1.5 0 -1.5 
C -0.397805 -1.5 -0.77937 -1.341951 -1.06066 -1.06066 
C -1.341951 -0.77937 -1.5 -0.397805 -1.5 0 
C -1.5 0.397805 -1.341951 0.77937 -1.06066 1.06066 
C -0.77937 1.341951 -0.397805 1.5 0 1.5 
z
" style="stroke: #0000ff"/>
    </defs>
    <g clip-path="url(#p1d530f45f9)">
     <use xlink:href="#m797239ea66" x="73.832727" y="275.775907" style="fill: #0000ff; stroke: #0000ff"/>
     <use xlink:href="#m797239ea66" x="75.913846" y="270.760249" style="fill: #0000ff; stroke: #0000ff"/>
     <use xlink:href="#m797239ea66" x="77.994965" y="265.14693" style="fill: #0000ff; stroke: #0000ff"/>
     <use xlink:href="#m797239ea66" x="80.076084" y="258.93595" style="fill: #0000ff; stroke: #0000ff"/>
     <use xlink:href="#m797239ea66" x="82.157203" y="252.127308" style="fill: #0000ff; stroke: #0000ff"/>
    </g>
   </g>
   <g id="PathCollection_84">
    <g clip-path="url(#p1d530f45f9)">
     <use xlink:href="#m797239ea66" x="82.157203" y="251.500983" style="fill: #0000ff; stroke: #0000ff"/>
     <use xlink:href="#m797239ea66" x="84.238322" y="244.212115" style="fill: #0000ff; stroke: #0000ff"/>
     <use xlink:href="#m797239ea66" x="86.319441" y="236.560458" style="fill: #0000ff; stroke: #0000ff"/>
     <use xlink:href="#m797239ea66" x="88.400559" y="228.546011" style="fill: #0000ff; stroke: #0000ff"/>
     <use xlink:href="#m797239ea66" x="90.481678" y="220.168775" style="fill: #0000ff; stroke: #0000ff"/>
    </g>
   </g>
   <g id="PathCollection_85">
    <g clip-path="url(#p1d530f45f9)">
     <use xlink:href="#m797239ea66" x="90.481678" y="219.632834" style="fill: #0000ff; stroke: #0000ff"/>
     <use xlink:href="#m797239ea66" x="92.562797" y="210.993296" style="fill: #0000ff; stroke: #0000ff"/>
     <use xlink:href="#m797239ea66" x="94.643916" y="202.191948" style="fill: #0000ff; stroke: #0000ff"/>
     <use xlink:href="#m797239ea66" x="96.725035" y="193.228787" style="fill: #0000ff; stroke: #0000ff"/>
     <use xlink:href="#m797239ea66" x="98.806154" y="184.103815" style="fill: #0000ff; stroke: #0000ff"/>
    </g>
   </g>
   <g id="PathCollection_86">
    <g clip-path="url(#p1d530f45f9)">
     <use xlink:href="#m797239ea66" x="98.806154" y="183.527343" style="fill: #0000ff; stroke: #0000ff"/>
     <use xlink:href="#m797239ea66" x="100.887273" y="174.348648" style="fill: #0000ff; stroke: #0000ff"/>
     <use xlink:href="#m797239ea66" x="102.968392" y="165.224318" style="fill: #0000ff; stroke: #0000ff"/>
     <use xlink:href="#m797239ea66" x="105.04951" y="156.154353" style="fill: #0000ff; stroke: #0000ff"/>
     <use xlink:href="#m797239ea66" x="107.130629" y="147.138753" style="fill: #0000ff; stroke: #0000ff"/>
    </g>
   </g>
   <g id="PathCollection_87">
    <g clip-path="url(#p1d530f45f9)">
     <use xlink:href="#m797239ea66" x="107.130629" y="146.575899" style="fill: #0000ff; stroke: #0000ff"/>
     <use xlink:href="#m797239ea66" x="109.211748" y="137.7202" style="fill: #0000ff; stroke: #0000ff"/>
     <use xlink:href="#m797239ea66" x="111.292867" y="129.129937" style="fill: #0000ff; stroke: #0000ff"/>
     <use xlink:href="#m797239ea66" x="113.373986" y="120.805109" style="fill: #0000ff; stroke: #0000ff"/>
     <use xlink:href="#m797239ea66" x="115.455105" y="112.745717" style="fill: #0000ff; stroke: #0000ff"/>
    </g>
   </g>
   <g id="PathCollection_88">
    <g clip-path="url(#p1d530f45f9)">
     <use xlink:href="#m797239ea66" x="115.455105" y="112.249349" style="fill: #0000ff; stroke: #0000ff"/>
     <use xlink:href="#m797239ea66" x="117.536224" y="104.548462" style="fill: #0000ff; stroke: #0000ff"/>
     <use xlink:href="#m797239ea66" x="119.617343" y="97.299149" style="fill: #0000ff; stroke: #0000ff"/>
     <use xlink:href="#m797239ea66" x="121.698462" y="90.501409" style="fill: #0000ff; stroke: #0000ff"/>
     <use xlink:href="#m797239ea66" x="123.77958" y="84.155244" style="fill: #0000ff; stroke: #0000ff"/>
    </g>
   </g>
   <g id="PathCollection_89">
    <g clip-path="url(#p1d530f45f9)">
     <use xlink:href="#m797239ea66" x="123.77958" y="83.771986" style="fill: #0000ff; stroke: #0000ff"/>
     <use xlink:href="#m797239ea66" x="125.860699" y="77.949255" style="fill: #0000ff; stroke: #0000ff"/>
     <use xlink:href="#m797239ea66" x="127.941818" y="72.721819" style="fill: #0000ff; stroke: #0000ff"/>
     <use xlink:href="#m797239ea66" x="130.022937" y="68.089679" style="fill: #0000ff; stroke: #0000ff"/>
     <use xlink:href="#m797239ea66" x="132.104056" y="64.052835" style="fill: #0000ff; stroke: #0000ff"/>
    </g>
   </g>
   <g id="PathCollection_90">
    <g clip-path="url(#p1d530f45f9)">
     <use xlink:href="#m797239ea66" x="132.104056" y="63.818686" style="fill: #0000ff; stroke: #0000ff"/>
     <use xlink:href="#m797239ea66" x="134.185175" y="60.42104" style="fill: #0000ff; stroke: #0000ff"/>
     <use xlink:href="#m797239ea66" x="136.266294" y="57.706496" style="fill: #0000ff; stroke: #0000ff"/>
     <use xlink:href="#m797239ea66" x="138.347413" y="55.675052" style="fill: #0000ff; stroke: #0000ff"/>
     <use xlink:href="#m797239ea66" x="140.428531" y="54.326709" style="fill: #0000ff; stroke: #0000ff"/>
    </g>
   </g>
   <g id="PathCollection_91">
    <g clip-path="url(#p1d530f45f9)">
     <use xlink:href="#m797239ea66" x="140.428531" y="54.263664" style="fill: #0000ff; stroke: #0000ff"/>
     <use xlink:href="#m797239ea66" x="142.50965" y="53.610244" style="fill: #0000ff; stroke: #0000ff"/>
     <use xlink:href="#m797239ea66" x="144.590769" y="53.663567" style="fill: #0000ff; stroke: #0000ff"/>
     <use xlink:href="#m797239ea66" x="146.671888" y="54.423633" style="fill: #0000ff; stroke: #0000ff"/>
     <use xlink:href="#m797239ea66" x="148.753007" y="55.890442" style="fill: #0000ff; stroke: #0000ff"/>
    </g>
   </g>
   <g id="PathCollection_92">
    <g clip-path="url(#p1d530f45f9)">
     <use xlink:href="#m797239ea66" x="148.753007" y="56.004422" style="fill: #0000ff; stroke: #0000ff"/>
     <use xlink:href="#m797239ea66" x="150.834126" y="58.156603" style="fill: #0000ff; stroke: #0000ff"/>
     <use xlink:href="#m797239ea66" x="152.915245" y="60.972785" style="fill: #0000ff; stroke: #0000ff"/>
     <use xlink:href="#m797239ea66" x="154.996364" y="64.452968" style="fill: #0000ff; stroke: #0000ff"/>
     <use xlink:href="#m797239ea66" x="157.077483" y="68.597151" style="fill: #0000ff; stroke: #0000ff"/>
    </g>
   </g>
   <g id="PathCollection_93">
    <g clip-path="url(#p1d530f45f9)">
     <use xlink:href="#m797239ea66" x="157.077483" y="68.87745" style="fill: #0000ff; stroke: #0000ff"/>
     <use xlink:href="#m797239ea66" x="159.158601" y="73.633078" style="fill: #0000ff; stroke: #0000ff"/>
     <use xlink:href="#m797239ea66" x="161.23972" y="78.947596" style="fill: #0000ff; stroke: #0000ff"/>
     <use xlink:href="#m797239ea66" x="163.320839" y="84.821002" style="fill: #0000ff; stroke: #0000ff"/>
     <use xlink:href="#m797239ea66" x="165.401958" y="91.253297" style="fill: #0000ff; stroke: #0000ff"/>
    </g>
   </g>
   <g id="PathCollection_94">
    <g clip-path="url(#p1d530f45f9)">
     <use xlink:href="#m797239ea66" x="165.401958" y="91.673586" style="fill: #0000ff; stroke: #0000ff"/>
     <use xlink:href="#m797239ea66" x="167.483077" y="98.585965" style="fill: #0000ff; stroke: #0000ff"/>
     <use xlink:href="#m797239ea66" x="169.564196" y="105.899625" style="fill: #0000ff; stroke: #0000ff"/>
     <use xlink:href="#m797239ea66" x="171.645315" y="113.614566" style="fill: #0000ff; stroke: #0000ff"/>
     <use xlink:href="#m797239ea66" x="173.726434" y="121.730787" style="fill: #0000ff; stroke: #0000ff"/>
    </g>
   </g>
   <g id="PathCollection_95">
    <g clip-path="url(#p1d530f45f9)">
     <use xlink:href="#m797239ea66" x="173.726434" y="122.251589" style="fill: #0000ff; stroke: #0000ff"/>
     <use xlink:href="#m797239ea66" x="175.807552" y="130.67144" style="fill: #0000ff; stroke: #0000ff"/>
     <use xlink:href="#m797239ea66" x="177.888671" y="139.297271" style="fill: #0000ff; stroke: #0000ff"/>
     <use xlink:href="#m797239ea66" x="179.96979" y="148.129081" style="fill: #0000ff; stroke: #0000ff"/>
     <use xlink:href="#m797239ea66" x="182.050909" y="157.166872" style="fill: #0000ff; stroke: #0000ff"/>
    </g>
   </g>
   <g id="PathCollection_96">
    <g clip-path="url(#p1d530f45f9)">
     <use xlink:href="#m797239ea66" x="182.050909" y="157.739268" style="fill: #0000ff; stroke: #0000ff"/>
     <use xlink:href="#m797239ea66" x="184.132028" y="166.875714" style="fill: #0000ff; stroke: #0000ff"/>
     <use xlink:href="#m797239ea66" x="186.213147" y="176.003492" style="fill: #0000ff; stroke: #0000ff"/>
     <use xlink:href="#m797239ea66" x="188.294266" y="185.122601" style="fill: #0000ff; stroke: #0000ff"/>
     <use xlink:href="#m797239ea66" x="190.375385" y="194.233042" style="fill: #0000ff; stroke: #0000ff"/>
    </g>
   </g>
   <g id="PathCollection_97">
    <g clip-path="url(#p1d530f45f9)">
     <use xlink:href="#m797239ea66" x="190.375385" y="194.803266" style="fill: #0000ff; stroke: #0000ff"/>
     <use xlink:href="#m797239ea66" x="192.456504" y="203.798122" style="fill: #0000ff; stroke: #0000ff"/>
     <use xlink:href="#m797239ea66" x="194.537622" y="212.570474" style="fill: #0000ff; stroke: #0000ff"/>
     <use xlink:href="#m797239ea66" x="196.618741" y="221.120325" style="fill: #0000ff; stroke: #0000ff"/>
     <use xlink:href="#m797239ea66" x="198.69986" y="229.447672" style="fill: #0000ff; stroke: #0000ff"/>
    </g>
   </g>
   <g id="PathCollection_98">
    <g clip-path="url(#p1d530f45f9)">
     <use xlink:href="#m797239ea66" x="198.69986" y="229.962164" style="fill: #0000ff; stroke: #0000ff"/>
     <use xlink:href="#m797239ea66" x="200.780979" y="237.970542" style="fill: #0000ff; stroke: #0000ff"/>
     <use xlink:href="#m797239ea66" x="202.862098" y="245.563483" style="fill: #0000ff; stroke: #0000ff"/>
     <use xlink:href="#m797239ea66" x="204.943217" y="252.740987" style="fill: #0000ff; stroke: #0000ff"/>
     <use xlink:href="#m797239ea66" x="207.024336" y="259.503054" style="fill: #0000ff; stroke: #0000ff"/>
    </g>
   </g>
   <g id="PathCollection_99">
    <g clip-path="url(#p1d530f45f9)">
     <use xlink:href="#m797239ea66" x="207.024336" y="259.913487" style="fill: #0000ff; stroke: #0000ff"/>
     <use xlink:href="#m797239ea66" x="209.105455" y="266.183161" style="fill: #0000ff; stroke: #0000ff"/>
     <use xlink:href="#m797239ea66" x="211.186573" y="271.883485" style="fill: #0000ff; stroke: #0000ff"/>
     <use xlink:href="#m797239ea66" x="213.267692" y="277.01446" style="fill: #0000ff; stroke: #0000ff"/>
     <use xlink:href="#m797239ea66" x="215.348811" y="281.576086" style="fill: #0000ff; stroke: #0000ff"/>
    </g>
   </g>
   <g id="PathCollection_100">
    <g clip-path="url(#p1d530f45f9)">
     <use xlink:href="#m797239ea66" x="215.348811" y="281.843908" style="fill: #0000ff; stroke: #0000ff"/>
     <use xlink:href="#m797239ea66" x="217.42993" y="285.785968" style="fill: #0000ff; stroke: #0000ff"/>
     <use xlink:href="#m797239ea66" x="219.511049" y="289.058244" style="fill: #0000ff; stroke: #0000ff"/>
     <use xlink:href="#m797239ea66" x="221.592168" y="291.660738" style="fill: #0000ff; stroke: #0000ff"/>
     <use xlink:href="#m797239ea66" x="223.673287" y="293.593448" style="fill: #0000ff; stroke: #0000ff"/>
    </g>
   </g>
   <g id="PathCollection_101">
    <g clip-path="url(#p1d530f45f9)">
     <use xlink:href="#m797239ea66" x="223.673287" y="293.696527" style="fill: #0000ff; stroke: #0000ff"/>
     <use xlink:href="#m797239ea66" x="225.754406" y="294.940128" style="fill: #0000ff; stroke: #0000ff"/>
     <use xlink:href="#m797239ea66" x="227.835524" y="295.475291" style="fill: #0000ff; stroke: #0000ff"/>
     <use xlink:href="#m797239ea66" x="229.916643" y="295.302017" style="fill: #0000ff; stroke: #0000ff"/>
     <use xlink:href="#m797239ea66" x="231.997762" y="294.420305" style="fill: #0000ff; stroke: #0000ff"/>
    </g>
   </g>
   <g id="PathCollection_102">
    <g clip-path="url(#p1d530f45f9)">
     <use xlink:href="#m797239ea66" x="231.997762" y="292.711232" style="fill: #0000ff; stroke: #0000ff"/>
     <use xlink:href="#m797239ea66" x="233.038728" y="292.711232" style="fill: #0000ff; stroke: #0000ff"/>
     <use xlink:href="#m797239ea66" x="234.079693" y="292.711232" style="fill: #0000ff; stroke: #0000ff"/>
     <use xlink:href="#m797239ea66" x="235.120658" y="292.711232" style="fill: #0000ff; stroke: #0000ff"/>
     <use xlink:href="#m797239ea66" x="236.161623" y="292.711232" style="fill: #0000ff; stroke: #0000ff"/>
    </g>
   </g>
   <g id="PathCollection_103">
    <defs>
     <path id="ma06321b680" d="M 0 1.5 
C 0.397805 1.5 0.77937 1.341951 1.06066 1.06066 
C 1.341951 0.77937 1.5 0.397805 1.5 0 
C 1.5 -0.397805 1.341951 -0.77937 1.06066 -1.06066 
C 0.77937 -1.341951 0.397805 -1.5 0 -1.5 
C -0.397805 -1.5 -0.77937 -1.341951 -1.06066 -1.06066 
C -1.341951 -0.77937 -1.5 -0.397805 -1.5 0 
C -1.5 0.397805 -1.341951 0.77937 -1.06066 1.06066 
C -0.77937 1.341951 -0.397805 1.5 0 1.5 
z
" style="stroke: #008000"/>
    </defs>
    <g clip-path="url(#p1d530f45f9)">
     <use xlink:href="#ma06321b680" x="236.161623" y="192.068682" style="fill: #008000; stroke: #008000"/>
     <use xlink:href="#ma06321b680" x="237.201777" y="192.068682" style="fill: #008000; stroke: #008000"/>
     <use xlink:href="#ma06321b680" x="238.241931" y="192.068682" style="fill: #008000; stroke: #008000"/>
     <use xlink:href="#ma06321b680" x="239.282084" y="192.068682" style="fill: #008000; stroke: #008000"/>
     <use xlink:href="#ma06321b680" x="240.322238" y="192.068682" style="fill: #008000; stroke: #008000"/>
    </g>
   </g>
   <g id="PathCollection_104">
    <g clip-path="url(#p1d530f45f9)">
     <use xlink:href="#ma06321b680" x="240.322238" y="190.481102" style="fill: #008000; stroke: #008000"/>
     <use xlink:href="#ma06321b680" x="242.403357" y="188.976144" style="fill: #008000; stroke: #008000"/>
     <use xlink:href="#ma06321b680" x="244.484476" y="187.542552" style="fill: #008000; stroke: #008000"/>
     <use xlink:href="#ma06321b680" x="246.565594" y="186.180325" style="fill: #008000; stroke: #008000"/>
     <use xlink:href="#ma06321b680" x="248.646713" y="184.889464" style="fill: #008000; stroke: #008000"/>
    </g>
   </g>
   <g id="PathCollection_105">
    <g clip-path="url(#p1d530f45f9)">
     <use xlink:href="#ma06321b680" x="248.646713" y="184.881945" style="fill: #008000; stroke: #008000"/>
     <use xlink:href="#ma06321b680" x="250.727832" y="183.66386" style="fill: #008000; stroke: #008000"/>
     <use xlink:href="#ma06321b680" x="252.808951" y="182.519959" style="fill: #008000; stroke: #008000"/>
     <use xlink:href="#ma06321b680" x="254.89007" y="181.450244" style="fill: #008000; stroke: #008000"/>
     <use xlink:href="#ma06321b680" x="256.971189" y="180.454714" style="fill: #008000; stroke: #008000"/>
    </g>
   </g>
   <g id="PathCollection_106">
    <g clip-path="url(#p1d530f45f9)">
     <use xlink:href="#ma06321b680" x="256.971189" y="180.447998" style="fill: #008000; stroke: #008000"/>
     <use xlink:href="#ma06321b680" x="259.052308" y="179.527912" style="fill: #008000; stroke: #008000"/>
     <use xlink:href="#ma06321b680" x="261.133427" y="178.68453" style="fill: #008000; stroke: #008000"/>
     <use xlink:href="#ma06321b680" x="263.214545" y="177.917851" style="fill: #008000; stroke: #008000"/>
     <use xlink:href="#ma06321b680" x="265.295664" y="177.227875" style="fill: #008000; stroke: #008000"/>
    </g>
   </g>
   <g id="PathCollection_107">
    <g clip-path="url(#p1d530f45f9)">
     <use xlink:href="#ma06321b680" x="265.295664" y="177.223309" style="fill: #008000; stroke: #008000"/>
     <use xlink:href="#ma06321b680" x="267.376783" y="176.610893" style="fill: #008000; stroke: #008000"/>
     <use xlink:href="#ma06321b680" x="269.457902" y="176.076893" style="fill: #008000; stroke: #008000"/>
     <use xlink:href="#ma06321b680" x="271.539021" y="175.621308" style="fill: #008000; stroke: #008000"/>
     <use xlink:href="#ma06321b680" x="273.62014" y="175.24414" style="fill: #008000; stroke: #008000"/>
    </g>
   </g>
   <g id="PathCollection_108">
    <g clip-path="url(#p1d530f45f9)">
     <use xlink:href="#ma06321b680" x="273.62014" y="175.241771" style="fill: #008000; stroke: #008000"/>
     <use xlink:href="#ma06321b680" x="275.701259" y="174.943462" style="fill: #008000; stroke: #008000"/>
     <use xlink:href="#ma06321b680" x="277.782378" y="174.724456" style="fill: #008000; stroke: #008000"/>
     <use xlink:href="#ma06321b680" x="279.863496" y="174.584754" style="fill: #008000; stroke: #008000"/>
     <use xlink:href="#ma06321b680" x="281.944615" y="174.524356" style="fill: #008000; stroke: #008000"/>
    </g>
   </g>
   <g id="PathCollection_109">
    <g clip-path="url(#p1d530f45f9)">
     <use xlink:href="#ma06321b680" x="281.944615" y="174.524211" style="fill: #008000; stroke: #008000"/>
     <use xlink:href="#ma06321b680" x="284.025734" y="174.543143" style="fill: #008000; stroke: #008000"/>
     <use xlink:href="#ma06321b680" x="286.106853" y="174.641434" style="fill: #008000; stroke: #008000"/>
     <use xlink:href="#ma06321b680" x="288.187972" y="174.819083" style="fill: #008000; stroke: #008000"/>
     <use xlink:href="#ma06321b680" x="290.269091" y="175.07609" style="fill: #008000; stroke: #008000"/>
    </g>
   </g>
   <g id="PathCollection_110">
    <g clip-path="url(#p1d530f45f9)">
     <use xlink:href="#ma06321b680" x="290.269091" y="175.078169" style="fill: #008000; stroke: #008000"/>
     <use xlink:href="#ma06321b680" x="292.35021" y="175.414144" style="fill: #008000; stroke: #008000"/>
     <use xlink:href="#ma06321b680" x="294.431329" y="175.828698" style="fill: #008000; stroke: #008000"/>
     <use xlink:href="#ma06321b680" x="296.512448" y="176.321831" style="fill: #008000; stroke: #008000"/>
     <use xlink:href="#ma06321b680" x="298.593566" y="176.893542" style="fill: #008000; stroke: #008000"/>
    </g>
   </g>
   <g id="PathCollection_111">
    <g clip-path="url(#p1d530f45f9)">
     <use xlink:href="#ma06321b680" x="298.593566" y="176.897823" style="fill: #008000; stroke: #008000"/>
     <use xlink:href="#ma06321b680" x="300.674685" y="177.547311" style="fill: #008000; stroke: #008000"/>
     <use xlink:href="#ma06321b680" x="302.755804" y="178.273771" style="fill: #008000; stroke: #008000"/>
     <use xlink:href="#ma06321b680" x="304.836923" y="179.077205" style="fill: #008000; stroke: #008000"/>
     <use xlink:href="#ma06321b680" x="306.918042" y="179.957611" style="fill: #008000; stroke: #008000"/>
    </g>
   </g>
   <g id="PathCollection_112">
    <g clip-path="url(#p1d530f45f9)">
     <use xlink:href="#ma06321b680" x="306.918042" y="179.96405" style="fill: #008000; stroke: #008000"/>
     <use xlink:href="#ma06321b680" x="308.999161" y="180.920222" style="fill: #008000; stroke: #008000"/>
     <use xlink:href="#ma06321b680" x="311.08028" y="181.950954" style="fill: #008000; stroke: #008000"/>
     <use xlink:href="#ma06321b680" x="313.161399" y="183.056244" style="fill: #008000; stroke: #008000"/>
     <use xlink:href="#ma06321b680" x="315.242517" y="184.236093" style="fill: #008000; stroke: #008000"/>
    </g>
   </g>
   <g id="PathCollection_113">
    <g clip-path="url(#p1d530f45f9)">
     <use xlink:href="#ma06321b680" x="315.242517" y="184.244621" style="fill: #008000; stroke: #008000"/>
     <use xlink:href="#ma06321b680" x="317.323636" y="185.49743" style="fill: #008000; stroke: #008000"/>
     <use xlink:href="#ma06321b680" x="319.404755" y="186.821599" style="fill: #008000; stroke: #008000"/>
     <use xlink:href="#ma06321b680" x="321.485874" y="188.217129" style="fill: #008000; stroke: #008000"/>
     <use xlink:href="#ma06321b680" x="323.566993" y="189.68402" style="fill: #008000; stroke: #008000"/>
    </g>
   </g>
   <g id="PathCollection_114">
    <g clip-path="url(#p1d530f45f9)">
     <use xlink:href="#ma06321b680" x="323.566993" y="189.694548" style="fill: #008000; stroke: #008000"/>
     <use xlink:href="#ma06321b680" x="325.648112" y="191.230826" style="fill: #008000; stroke: #008000"/>
     <use xlink:href="#ma06321b680" x="327.729231" y="192.834516" style="fill: #008000; stroke: #008000"/>
     <use xlink:href="#ma06321b680" x="329.81035" y="194.505618" style="fill: #008000; stroke: #008000"/>
     <use xlink:href="#ma06321b680" x="331.891469" y="196.244133" style="fill: #008000; stroke: #008000"/>
    </g>
   </g>
   <g id="PathCollection_115">
    <g clip-path="url(#p1d530f45f9)">
     <use xlink:href="#ma06321b680" x="331.891469" y="196.256551" style="fill: #008000; stroke: #008000"/>
     <use xlink:href="#ma06321b680" x="333.972587" y="198.060151" style="fill: #008000; stroke: #008000"/>
     <use xlink:href="#ma06321b680" x="336.053706" y="199.926506" style="fill: #008000; stroke: #008000"/>
     <use xlink:href="#ma06321b680" x="338.134825" y="201.855618" style="fill: #008000; stroke: #008000"/>
     <use xlink:href="#ma06321b680" x="340.215944" y="203.847486" style="fill: #008000; stroke: #008000"/>
    </g>
   </g>
   <g id="PathCollection_116">
    <g clip-path="url(#p1d530f45f9)">
     <use xlink:href="#ma06321b680" x="340.215944" y="203.861662" style="fill: #008000; stroke: #008000"/>
     <use xlink:href="#ma06321b680" x="342.297063" y="205.913628" style="fill: #008000; stroke: #008000"/>
     <use xlink:href="#ma06321b680" x="344.378182" y="208.023033" style="fill: #008000; stroke: #008000"/>
     <use xlink:href="#ma06321b680" x="346.459301" y="210.189878" style="fill: #008000; stroke: #008000"/>
     <use xlink:href="#ma06321b680" x="348.54042" y="212.414164" style="fill: #008000; stroke: #008000"/>
    </g>
   </g>
   <g id="PathCollection_117">
    <g clip-path="url(#p1d530f45f9)">
     <use xlink:href="#ma06321b680" x="348.54042" y="212.42995" style="fill: #008000; stroke: #008000"/>
     <use xlink:href="#ma06321b680" x="350.621538" y="214.708715" style="fill: #008000; stroke: #008000"/>
     <use xlink:href="#ma06321b680" x="352.702657" y="217.039" style="fill: #008000; stroke: #008000"/>
     <use xlink:href="#ma06321b680" x="354.783776" y="219.420805" style="fill: #008000; stroke: #008000"/>
     <use xlink:href="#ma06321b680" x="356.864895" y="221.85413" style="fill: #008000; stroke: #008000"/>
    </g>
   </g>
   <g id="PathCollection_118">
    <g clip-path="url(#p1d530f45f9)">
     <use xlink:href="#ma06321b680" x="356.864895" y="221.871361" style="fill: #008000; stroke: #008000"/>
     <use xlink:href="#ma06321b680" x="358.946014" y="224.352975" style="fill: #008000; stroke: #008000"/>
     <use xlink:href="#ma06321b680" x="361.027133" y="226.879648" style="fill: #008000; stroke: #008000"/>
     <use xlink:href="#ma06321b680" x="363.108252" y="229.45138" style="fill: #008000; stroke: #008000"/>
     <use xlink:href="#ma06321b680" x="365.189371" y="232.06817" style="fill: #008000; stroke: #008000"/>
    </g>
   </g>
   <g id="PathCollection_119">
    <g clip-path="url(#p1d530f45f9)">
     <use xlink:href="#ma06321b680" x="365.189371" y="232.086663" style="fill: #008000; stroke: #008000"/>
     <use xlink:href="#ma06321b680" x="367.27049" y="234.745045" style="fill: #008000; stroke: #008000"/>
     <use xlink:href="#ma06321b680" x="369.351608" y="237.44155" style="fill: #008000; stroke: #008000"/>
     <use xlink:href="#ma06321b680" x="371.432727" y="240.176179" style="fill: #008000; stroke: #008000"/>
     <use xlink:href="#ma06321b680" x="373.513846" y="242.948931" style="fill: #008000; stroke: #008000"/>
    </g>
   </g>
   <g id="PathCollection_120">
    <g clip-path="url(#p1d530f45f9)">
     <use xlink:href="#ma06321b680" x="373.513846" y="242.968493" style="fill: #008000; stroke: #008000"/>
     <use xlink:href="#ma06321b680" x="375.594965" y="245.775701" style="fill: #008000; stroke: #008000"/>
     <use xlink:href="#ma06321b680" x="377.676084" y="248.613698" style="fill: #008000; stroke: #008000"/>
     <use xlink:href="#ma06321b680" x="379.757203" y="251.482483" style="fill: #008000; stroke: #008000"/>
     <use xlink:href="#ma06321b680" x="381.838322" y="254.382055" style="fill: #008000; stroke: #008000"/>
    </g>
   </g>
   <g id="PathCollection_121">
    <g clip-path="url(#p1d530f45f9)">
     <use xlink:href="#ma06321b680" x="381.838322" y="254.40248" style="fill: #008000; stroke: #008000"/>
     <use xlink:href="#ma06321b680" x="383.919441" y="257.329011" style="fill: #008000; stroke: #008000"/>
     <use xlink:href="#ma06321b680" x="386.000559" y="260.278671" style="fill: #008000; stroke: #008000"/>
     <use xlink:href="#ma06321b680" x="388.081678" y="263.25146" style="fill: #008000; stroke: #008000"/>
     <use xlink:href="#ma06321b680" x="390.162797" y="266.247378" style="fill: #008000; stroke: #008000"/>
    </g>
   </g>
   <g id="PathCollection_122">
    <g clip-path="url(#p1d530f45f9)">
     <use xlink:href="#ma06321b680" x="390.162797" y="266.284084" style="fill: #008000; stroke: #008000"/>
     <use xlink:href="#ma06321b680" x="392.243916" y="269.296249" style="fill: #008000; stroke: #008000"/>
     <use xlink:href="#ma06321b680" x="394.325035" y="272.317777" style="fill: #008000; stroke: #008000"/>
     <use xlink:href="#ma06321b680" x="396.406154" y="275.34867" style="fill: #008000; stroke: #008000"/>
     <use xlink:href="#ma06321b680" x="398.487273" y="278.388927" style="fill: #008000; stroke: #008000"/>
    </g>
   </g>
   <g id="matplotlib.axis_1">
    <g id="xtick_1">
     <g id="line2d_1">
      <defs>
       <path id="m1b29f7dca2" d="M 0 0 
L 0 3.5 
" style="stroke: #000000; stroke-width: 0.8"/>
      </defs>
      <g>
       <use xlink:href="#m1b29f7dca2" x="73.832727" y="307.584" style="stroke: #000000; stroke-width: 0.8"/>
      </g>
     </g>
     <g id="text_1">
      <!-- −1.00 -->
      <g transform="translate(58.510071 322.182437)scale(0.1 -0.1)">
       <defs>
        <path id="DejaVuSans-2212" d="M 678 2272 
L 4684 2272 
L 4684 1741 
L 678 1741 
L 678 2272 
z
" transform="scale(0.015625)"/>
        <path id="DejaVuSans-31" d="M 794 531 
L 1825 531 
L 1825 4091 
L 703 3866 
L 703 4441 
L 1819 4666 
L 2450 4666 
L 2450 531 
L 3481 531 
L 3481 0 
L 794 0 
L 794 531 
z
" transform="scale(0.015625)"/>
        <path id="DejaVuSans-2e" d="M 684 794 
L 1344 794 
L 1344 0 
L 684 0 
L 684 794 
z
" transform="scale(0.015625)"/>
        <path id="DejaVuSans-30" d="M 2034 4250 
Q 1547 4250 1301 3770 
Q 1056 3291 1056 2328 
Q 1056 1369 1301 889 
Q 1547 409 2034 409 
Q 2525 409 2770 889 
Q 3016 1369 3016 2328 
Q 3016 3291 2770 3770 
Q 2525 4250 2034 4250 
z
M 2034 4750 
Q 2819 4750 3233 4129 
Q 3647 3509 3647 2328 
Q 3647 1150 3233 529 
Q 2819 -91 2034 -91 
Q 1250 -91 836 529 
Q 422 1150 422 2328 
Q 422 3509 836 4129 
Q 1250 4750 2034 4750 
z
" transform="scale(0.015625)"/>
       </defs>
       <use xlink:href="#DejaVuSans-2212"/>
       <use xlink:href="#DejaVuSans-31" x="83.789062"/>
       <use xlink:href="#DejaVuSans-2e" x="147.412109"/>
       <use xlink:href="#DejaVuSans-30" x="179.199219"/>
       <use xlink:href="#DejaVuSans-30" x="242.822266"/>
      </g>
     </g>
    </g>
    <g id="xtick_2">
     <g id="line2d_2">
      <g>
       <use xlink:href="#m1b29f7dca2" x="114.414545" y="307.584" style="stroke: #000000; stroke-width: 0.8"/>
      </g>
     </g>
     <g id="text_2">
      <!-- −0.75 -->
      <g transform="translate(99.091889 322.182437)scale(0.1 -0.1)">
       <defs>
        <path id="DejaVuSans-37" d="M 525 4666 
L 3525 4666 
L 3525 4397 
L 1831 0 
L 1172 0 
L 2766 4134 
L 525 4134 
L 525 4666 
z
" transform="scale(0.015625)"/>
        <path id="DejaVuSans-35" d="M 691 4666 
L 3169 4666 
L 3169 4134 
L 1269 4134 
L 1269 2991 
Q 1406 3038 1543 3061 
Q 1681 3084 1819 3084 
Q 2600 3084 3056 2656 
Q 3513 2228 3513 1497 
Q 3513 744 3044 326 
Q 2575 -91 1722 -91 
Q 1428 -91 1123 -41 
Q 819 9 494 109 
L 494 744 
Q 775 591 1075 516 
Q 1375 441 1709 441 
Q 2250 441 2565 725 
Q 2881 1009 2881 1497 
Q 2881 1984 2565 2268 
Q 2250 2553 1709 2553 
Q 1456 2553 1204 2497 
Q 953 2441 691 2322 
L 691 4666 
z
" transform="scale(0.015625)"/>
       </defs>
       <use xlink:href="#DejaVuSans-2212"/>
       <use xlink:href="#DejaVuSans-30" x="83.789062"/>
       <use xlink:href="#DejaVuSans-2e" x="147.412109"/>
       <use xlink:href="#DejaVuSans-37" x="179.199219"/>
       <use xlink:href="#DejaVuSans-35" x="242.822266"/>
      </g>
     </g>
    </g>
    <g id="xtick_3">
     <g id="line2d_3">
      <g>
       <use xlink:href="#m1b29f7dca2" x="154.996364" y="307.584" style="stroke: #000000; stroke-width: 0.8"/>
      </g>
     </g>
     <g id="text_3">
      <!-- −0.50 -->
      <g transform="translate(139.673707 322.182437)scale(0.1 -0.1)">
       <use xlink:href="#DejaVuSans-2212"/>
       <use xlink:href="#DejaVuSans-30" x="83.789062"/>
       <use xlink:href="#DejaVuSans-2e" x="147.412109"/>
       <use xlink:href="#DejaVuSans-35" x="179.199219"/>
       <use xlink:href="#DejaVuSans-30" x="242.822266"/>
      </g>
     </g>
    </g>
    <g id="xtick_4">
     <g id="line2d_4">
      <g>
       <use xlink:href="#m1b29f7dca2" x="195.578182" y="307.584" style="stroke: #000000; stroke-width: 0.8"/>
      </g>
     </g>
     <g id="text_4">
      <!-- −0.25 -->
      <g transform="translate(180.255526 322.182437)scale(0.1 -0.1)">
       <defs>
        <path id="DejaVuSans-32" d="M 1228 531 
L 3431 531 
L 3431 0 
L 469 0 
L 469 531 
Q 828 903 1448 1529 
Q 2069 2156 2228 2338 
Q 2531 2678 2651 2914 
Q 2772 3150 2772 3378 
Q 2772 3750 2511 3984 
Q 2250 4219 1831 4219 
Q 1534 4219 1204 4116 
Q 875 4013 500 3803 
L 500 4441 
Q 881 4594 1212 4672 
Q 1544 4750 1819 4750 
Q 2544 4750 2975 4387 
Q 3406 4025 3406 3419 
Q 3406 3131 3298 2873 
Q 3191 2616 2906 2266 
Q 2828 2175 2409 1742 
Q 1991 1309 1228 531 
z
" transform="scale(0.015625)"/>
       </defs>
       <use xlink:href="#DejaVuSans-2212"/>
       <use xlink:href="#DejaVuSans-30" x="83.789062"/>
       <use xlink:href="#DejaVuSans-2e" x="147.412109"/>
       <use xlink:href="#DejaVuSans-32" x="179.199219"/>
       <use xlink:href="#DejaVuSans-35" x="242.822266"/>
      </g>
     </g>
    </g>
    <g id="xtick_5">
     <g id="line2d_5">
      <g>
       <use xlink:href="#m1b29f7dca2" x="236.16" y="307.584" style="stroke: #000000; stroke-width: 0.8"/>
      </g>
     </g>
     <g id="text_5">
      <!-- 0.00 -->
      <g transform="translate(225.027187 322.182437)scale(0.1 -0.1)">
       <use xlink:href="#DejaVuSans-30"/>
       <use xlink:href="#DejaVuSans-2e" x="63.623047"/>
       <use xlink:href="#DejaVuSans-30" x="95.410156"/>
       <use xlink:href="#DejaVuSans-30" x="159.033203"/>
      </g>
     </g>
    </g>
    <g id="xtick_6">
     <g id="line2d_6">
      <g>
       <use xlink:href="#m1b29f7dca2" x="276.741818" y="307.584" style="stroke: #000000; stroke-width: 0.8"/>
      </g>
     </g>
     <g id="text_6">
      <!-- 0.25 -->
      <g transform="translate(265.609006 322.182437)scale(0.1 -0.1)">
       <use xlink:href="#DejaVuSans-30"/>
       <use xlink:href="#DejaVuSans-2e" x="63.623047"/>
       <use xlink:href="#DejaVuSans-32" x="95.410156"/>
       <use xlink:href="#DejaVuSans-35" x="159.033203"/>
      </g>
     </g>
    </g>
    <g id="xtick_7">
     <g id="line2d_7">
      <g>
       <use xlink:href="#m1b29f7dca2" x="317.323636" y="307.584" style="stroke: #000000; stroke-width: 0.8"/>
      </g>
     </g>
     <g id="text_7">
      <!-- 0.50 -->
      <g transform="translate(306.190824 322.182437)scale(0.1 -0.1)">
       <use xlink:href="#DejaVuSans-30"/>
       <use xlink:href="#DejaVuSans-2e" x="63.623047"/>
       <use xlink:href="#DejaVuSans-35" x="95.410156"/>
       <use xlink:href="#DejaVuSans-30" x="159.033203"/>
      </g>
     </g>
    </g>
    <g id="xtick_8">
     <g id="line2d_8">
      <g>
       <use xlink:href="#m1b29f7dca2" x="357.905455" y="307.584" style="stroke: #000000; stroke-width: 0.8"/>
      </g>
     </g>
     <g id="text_8">
      <!-- 0.75 -->
      <g transform="translate(346.772642 322.182437)scale(0.1 -0.1)">
       <use xlink:href="#DejaVuSans-30"/>
       <use xlink:href="#DejaVuSans-2e" x="63.623047"/>
       <use xlink:href="#DejaVuSans-37" x="95.410156"/>
       <use xlink:href="#DejaVuSans-35" x="159.033203"/>
      </g>
     </g>
    </g>
    <g id="xtick_9">
     <g id="line2d_9">
      <g>
       <use xlink:href="#m1b29f7dca2" x="398.487273" y="307.584" style="stroke: #000000; stroke-width: 0.8"/>
      </g>
     </g>
     <g id="text_9">
      <!-- 1.00 -->
      <g transform="translate(387.35446 322.182437)scale(0.1 -0.1)">
       <use xlink:href="#DejaVuSans-31"/>
       <use xlink:href="#DejaVuSans-2e" x="63.623047"/>
       <use xlink:href="#DejaVuSans-30" x="95.410156"/>
       <use xlink:href="#DejaVuSans-30" x="159.033203"/>
      </g>
     </g>
    </g>
   </g>
   <g id="matplotlib.axis_2">
    <g id="ytick_1">
     <g id="line2d_10">
      <defs>
       <path id="m13a438a310" d="M 0 0 
L -3.5 0 
" style="stroke: #000000; stroke-width: 0.8"/>
      </defs>
      <g>
       <use xlink:href="#m13a438a310" x="57.6" y="295.503981" style="stroke: #000000; stroke-width: 0.8"/>
      </g>
     </g>
     <g id="text_10">
      <!-- 0.00 -->
      <g transform="translate(28.334375 299.3032)scale(0.1 -0.1)">
       <use xlink:href="#DejaVuSans-30"/>
       <use xlink:href="#DejaVuSans-2e" x="63.623047"/>
       <use xlink:href="#DejaVuSans-30" x="95.410156"/>
       <use xlink:href="#DejaVuSans-30" x="159.033203"/>
      </g>
     </g>
    </g>
    <g id="ytick_2">
     <g id="line2d_11">
      <g>
       <use xlink:href="#m13a438a310" x="57.6" y="265.258268" style="stroke: #000000; stroke-width: 0.8"/>
      </g>
     </g>
     <g id="text_11">
      <!-- 0.25 -->
      <g transform="translate(28.334375 269.057487)scale(0.1 -0.1)">
       <use xlink:href="#DejaVuSans-30"/>
       <use xlink:href="#DejaVuSans-2e" x="63.623047"/>
       <use xlink:href="#DejaVuSans-32" x="95.410156"/>
       <use xlink:href="#DejaVuSans-35" x="159.033203"/>
      </g>
     </g>
    </g>
    <g id="ytick_3">
     <g id="line2d_12">
      <g>
       <use xlink:href="#m13a438a310" x="57.6" y="235.012554" style="stroke: #000000; stroke-width: 0.8"/>
      </g>
     </g>
     <g id="text_12">
      <!-- 0.50 -->
      <g transform="translate(28.334375 238.811773)scale(0.1 -0.1)">
       <use xlink:href="#DejaVuSans-30"/>
       <use xlink:href="#DejaVuSans-2e" x="63.623047"/>
       <use xlink:href="#DejaVuSans-35" x="95.410156"/>
       <use xlink:href="#DejaVuSans-30" x="159.033203"/>
      </g>
     </g>
    </g>
    <g id="ytick_4">
     <g id="line2d_13">
      <g>
       <use xlink:href="#m13a438a310" x="57.6" y="204.766841" style="stroke: #000000; stroke-width: 0.8"/>
      </g>
     </g>
     <g id="text_13">
      <!-- 0.75 -->
      <g transform="translate(28.334375 208.56606)scale(0.1 -0.1)">
       <use xlink:href="#DejaVuSans-30"/>
       <use xlink:href="#DejaVuSans-2e" x="63.623047"/>
       <use xlink:href="#DejaVuSans-37" x="95.410156"/>
       <use xlink:href="#DejaVuSans-35" x="159.033203"/>
      </g>
     </g>
    </g>
    <g id="ytick_5">
     <g id="line2d_14">
      <g>
       <use xlink:href="#m13a438a310" x="57.6" y="174.521127" style="stroke: #000000; stroke-width: 0.8"/>
      </g>
     </g>
     <g id="text_14">
      <!-- 1.00 -->
      <g transform="translate(28.334375 178.320346)scale(0.1 -0.1)">
       <use xlink:href="#DejaVuSans-31"/>
       <use xlink:href="#DejaVuSans-2e" x="63.623047"/>
       <use xlink:href="#DejaVuSans-30" x="95.410156"/>
       <use xlink:href="#DejaVuSans-30" x="159.033203"/>
      </g>
     </g>
    </g>
    <g id="ytick_6">
     <g id="line2d_15">
      <g>
       <use xlink:href="#m13a438a310" x="57.6" y="144.275414" style="stroke: #000000; stroke-width: 0.8"/>
      </g>
     </g>
     <g id="text_15">
      <!-- 1.25 -->
      <g transform="translate(28.334375 148.074633)scale(0.1 -0.1)">
       <use xlink:href="#DejaVuSans-31"/>
       <use xlink:href="#DejaVuSans-2e" x="63.623047"/>
       <use xlink:href="#DejaVuSans-32" x="95.410156"/>
       <use xlink:href="#DejaVuSans-35" x="159.033203"/>
      </g>
     </g>
    </g>
    <g id="ytick_7">
     <g id="line2d_16">
      <g>
       <use xlink:href="#m13a438a310" x="57.6" y="114.0297" style="stroke: #000000; stroke-width: 0.8"/>
      </g>
     </g>
     <g id="text_16">
      <!-- 1.50 -->
      <g transform="translate(28.334375 117.828919)scale(0.1 -0.1)">
       <use xlink:href="#DejaVuSans-31"/>
       <use xlink:href="#DejaVuSans-2e" x="63.623047"/>
       <use xlink:href="#DejaVuSans-35" x="95.410156"/>
       <use xlink:href="#DejaVuSans-30" x="159.033203"/>
      </g>
     </g>
    </g>
    <g id="ytick_8">
     <g id="line2d_17">
      <g>
       <use xlink:href="#m13a438a310" x="57.6" y="83.783987" style="stroke: #000000; stroke-width: 0.8"/>
      </g>
     </g>
     <g id="text_17">
      <!-- 1.75 -->
      <g transform="translate(28.334375 87.583205)scale(0.1 -0.1)">
       <use xlink:href="#DejaVuSans-31"/>
       <use xlink:href="#DejaVuSans-2e" x="63.623047"/>
       <use xlink:href="#DejaVuSans-37" x="95.410156"/>
       <use xlink:href="#DejaVuSans-35" x="159.033203"/>
      </g>
     </g>
    </g>
    <g id="ytick_9">
     <g id="line2d_18">
      <g>
       <use xlink:href="#m13a438a310" x="57.6" y="53.538273" style="stroke: #000000; stroke-width: 0.8"/>
      </g>
     </g>
     <g id="text_18">
      <!-- 2.00 -->
      <g transform="translate(28.334375 57.337492)scale(0.1 -0.1)">
       <use xlink:href="#DejaVuSans-32"/>
       <use xlink:href="#DejaVuSans-2e" x="63.623047"/>
       <use xlink:href="#DejaVuSans-30" x="95.410156"/>
       <use xlink:href="#DejaVuSans-30" x="159.033203"/>
      </g>
     </g>
    </g>
   </g>
   <g id="line2d_19">
    <path d="M 73.832727 276.324689 
L 75.464157 272.200293 
L 77.095587 267.720817 
L 80.358447 257.762989 
L 83.621307 246.595869 
L 86.884166 234.381685 
L 90.147026 221.297879 
L 95.041316 200.460194 
L 104.829895 156.952797 
L 109.724185 135.703049 
L 112.987044 122.199043 
L 116.249904 109.455144 
L 119.512764 97.656489 
L 122.775624 86.974483 
L 126.038483 77.564307 
L 127.669913 73.379654 
L 129.301343 69.562668 
L 130.932773 66.127224 
L 132.564203 63.08581 
L 134.195633 60.449482 
L 135.827063 58.227824 
L 137.458492 56.428912 
L 139.089922 55.059285 
L 140.721352 54.123923 
L 142.352782 53.626225 
L 143.984212 53.568 
L 145.615642 53.94946 
L 147.247072 54.769219 
L 148.878502 56.024297 
L 150.509931 57.710131 
L 152.141361 59.820592 
L 153.772791 62.34801 
L 155.404221 65.283196 
L 157.035651 68.61548 
L 158.667081 72.332749 
L 160.298511 76.421491 
L 161.929941 80.866841 
L 165.1928 90.761492 
L 168.45566 101.872959 
L 171.71852 114.039819 
L 174.98138 127.085319 
L 179.875669 147.883634 
L 188.032819 184.130689 
L 194.558538 212.660838 
L 197.821398 226.197151 
L 201.084258 238.982743 
L 204.347117 250.83187 
L 207.609977 261.572396 
L 210.872837 271.048288 
L 212.504267 275.268203 
L 214.135697 279.121885 
L 215.767127 282.595325 
L 217.398556 285.675898 
L 219.029986 288.352403 
L 220.661416 290.615113 
L 222.292846 292.455802 
L 223.924276 293.867777 
L 225.555706 294.845908 
L 227.187136 295.386637 
L 228.818566 295.488 
L 230.449995 295.149628 
L 232.081425 294.37275 
L 233.712855 293.160191 
L 235.344285 291.51636 
L 236.975715 193.048615 
L 241.870005 189.357335 
L 246.764294 186.051916 
L 250.027154 184.068664 
L 253.290014 182.26548 
L 256.552873 180.645279 
L 259.815733 179.210678 
L 263.078593 177.963996 
L 266.341453 176.907248 
L 269.604312 176.04214 
L 272.867172 175.370071 
L 276.130032 174.892126 
L 279.392892 174.609079 
L 282.655751 174.521386 
L 285.918611 174.629189 
L 289.181471 174.932315 
L 292.444331 175.430272 
L 295.70719 176.122257 
L 298.97005 177.007151 
L 302.23291 178.083525 
L 305.49577 179.349639 
L 308.75863 180.803446 
L 312.021489 182.442599 
L 315.284349 184.264448 
L 318.547209 186.26605 
L 323.441498 189.598334 
L 328.335788 193.315603 
L 333.230078 197.404345 
L 338.124367 201.849695 
L 343.018657 206.635495 
L 347.912947 211.744346 
L 352.807236 217.157679 
L 357.701526 222.855813 
L 364.227245 230.86041 
L 370.752965 239.282669 
L 377.278684 248.068174 
L 385.435834 259.4742 
L 395.224413 273.631012 
L 398.487273 278.43088 
L 398.487273 278.43088 
" clip-path="url(#p1d530f45f9)" style="fill: none; stroke: #ffc0cb; stroke-width: 1.5; stroke-linecap: square"/>
   </g>
   <g id="patch_3">
    <path d="M 57.6 307.584 
L 57.6 41.472 
" style="fill: none; stroke: #000000; stroke-width: 0.8; stroke-linejoin: miter; stroke-linecap: square"/>
   </g>
   <g id="patch_4">
    <path d="M 414.72 307.584 
L 414.72 41.472 
" style="fill: none; stroke: #000000; stroke-width: 0.8; stroke-linejoin: miter; stroke-linecap: square"/>
   </g>
   <g id="patch_5">
    <path d="M 57.6 307.584 
L 414.72 307.584 
" style="fill: none; stroke: #000000; stroke-width: 0.8; stroke-linejoin: miter; stroke-linecap: square"/>
   </g>
   <g id="patch_6">
    <path d="M 57.6 41.472 
L 414.72 41.472 
" style="fill: none; stroke: #000000; stroke-width: 0.8; stroke-linejoin: miter; stroke-linecap: square"/>
   </g>
  </g>
 </g>
 <defs>
  <clipPath id="p1d530f45f9">
   <rect x="57.6" y="41.472" width="357.12" height="266.112"/>
  </clipPath>
 </defs>
</svg>
