<?xml version="1.0" encoding="utf-8" standalone="no"?>
<!DOCTYPE svg PUBLIC "-//W3C//DTD SVG 1.1//EN"
  "http://www.w3.org/Graphics/SVG/1.1/DTD/svg11.dtd">
<svg xmlns:xlink="http://www.w3.org/1999/xlink" width="460.8pt" height="345.6pt" viewBox="0 0 460.8 345.6" xmlns="http://www.w3.org/2000/svg" version="1.1">
 <metadata>
  <rdf:RDF xmlns:dc="http://purl.org/dc/elements/1.1/" xmlns:cc="http://creativecommons.org/ns#" xmlns:rdf="http://www.w3.org/1999/02/22-rdf-syntax-ns#">
   <cc:Work>
    <dc:type rdf:resource="http://purl.org/dc/dcmitype/StillImage"/>
    <dc:date>2023-08-02T06:01:50.576110</dc:date>
    <dc:format>image/svg+xml</dc:format>
    <dc:creator>
     <cc:Agent>
      <dc:title>Matplotlib v3.5.2, https://matplotlib.org/</dc:title>
     </cc:Agent>
    </dc:creator>
   </cc:Work>
  </rdf:RDF>
 </metadata>
 <defs>
  <style type="text/css">*{stroke-linejoin: round; stroke-linecap: butt}</style>
 </defs>
 <g id="figure_1">
  <g id="patch_1">
   <path d="M 0 345.6 
L 460.8 345.6 
L 460.8 0 
L 0 0 
z
" style="fill: #ffffff"/>
  </g>
  <g id="axes_1">
   <g id="patch_2">
    <path d="M 57.6 307.584 
L 414.72 307.584 
L 414.72 41.472 
L 57.6 41.472 
z
" style="fill: #ffffff"/>
   </g>
   <g id="PathCollection_1">
    <defs>
     <path id="m5e25cda909" d="M 0 3 
C 0.795609 3 1.55874 2.683901 2.12132 2.12132 
C 2.683901 1.55874 3 0.795609 3 0 
C 3 -0.795609 2.683901 -1.55874 2.12132 -2.12132 
C 1.55874 -2.683901 0.795609 -3 0 -3 
C -0.795609 -3 -1.55874 -2.683901 -2.12132 -2.12132 
C -2.683901 -1.55874 -3 -0.795609 -3 0 
C -3 0.795609 -2.683901 1.55874 -2.12132 2.12132 
C -1.55874 2.683901 -0.795609 3 0 3 
z
" style="stroke: #228b22"/>
    </defs>
    <g clip-path="url(#pd7d151a081)">
     <use xlink:href="#m5e25cda909" x="75.887503" y="287.301432" style="fill: #228b22; stroke: #228b22"/>
     <use xlink:href="#m5e25cda909" x="79.997054" y="287.301432" style="fill: #228b22; stroke: #228b22"/>
     <use xlink:href="#m5e25cda909" x="84.106605" y="287.301432" style="fill: #228b22; stroke: #228b22"/>
     <use xlink:href="#m5e25cda909" x="88.216157" y="287.301432" style="fill: #228b22; stroke: #228b22"/>
     <use xlink:href="#m5e25cda909" x="92.325708" y="287.301432" style="fill: #228b22; stroke: #228b22"/>
     <use xlink:href="#m5e25cda909" x="96.435259" y="287.301432" style="fill: #228b22; stroke: #228b22"/>
     <use xlink:href="#m5e25cda909" x="100.54481" y="287.301432" style="fill: #228b22; stroke: #228b22"/>
     <use xlink:href="#m5e25cda909" x="104.654361" y="287.287336" style="fill: #228b22; stroke: #228b22"/>
     <use xlink:href="#m5e25cda909" x="108.763913" y="285.900189" style="fill: #228b22; stroke: #228b22"/>
     <use xlink:href="#m5e25cda909" x="112.873464" y="268.761543" style="fill: #228b22; stroke: #228b22"/>
     <use xlink:href="#m5e25cda909" x="116.983015" y="188.950876" style="fill: #228b22; stroke: #228b22"/>
     <use xlink:href="#m5e25cda909" x="121.092566" y="76.095559" style="fill: #228b22; stroke: #228b22"/>
     <use xlink:href="#m5e25cda909" x="125.202117" y="102.723159" style="fill: #228b22; stroke: #228b22"/>
     <use xlink:href="#m5e25cda909" x="129.311669" y="221.72044" style="fill: #228b22; stroke: #228b22"/>
     <use xlink:href="#m5e25cda909" x="133.42122" y="277.892837" style="fill: #228b22; stroke: #228b22"/>
     <use xlink:href="#m5e25cda909" x="137.530771" y="286.778098" style="fill: #228b22; stroke: #228b22"/>
     <use xlink:href="#m5e25cda909" x="141.640322" y="287.301432" style="fill: #228b22; stroke: #228b22"/>
     <use xlink:href="#m5e25cda909" x="145.749873" y="287.301432" style="fill: #228b22; stroke: #228b22"/>
     <use xlink:href="#m5e25cda909" x="149.859425" y="287.301432" style="fill: #228b22; stroke: #228b22"/>
     <use xlink:href="#m5e25cda909" x="153.968976" y="287.301432" style="fill: #228b22; stroke: #228b22"/>
     <use xlink:href="#m5e25cda909" x="158.078527" y="287.301432" style="fill: #228b22; stroke: #228b22"/>
     <use xlink:href="#m5e25cda909" x="162.188078" y="287.301432" style="fill: #228b22; stroke: #228b22"/>
     <use xlink:href="#m5e25cda909" x="166.297629" y="287.301432" style="fill: #228b22; stroke: #228b22"/>
     <use xlink:href="#m5e25cda909" x="170.407181" y="217.181402" style="fill: #228b22; stroke: #228b22"/>
     <use xlink:href="#m5e25cda909" x="174.516732" y="53.568" style="fill: #228b22; stroke: #228b22"/>
     <use xlink:href="#m5e25cda909" x="178.626283" y="53.568" style="fill: #228b22; stroke: #228b22"/>
     <use xlink:href="#m5e25cda909" x="182.735834" y="53.568" style="fill: #228b22; stroke: #228b22"/>
     <use xlink:href="#m5e25cda909" x="186.845386" y="53.568" style="fill: #228b22; stroke: #228b22"/>
     <use xlink:href="#m5e25cda909" x="190.954937" y="53.568" style="fill: #228b22; stroke: #228b22"/>
     <use xlink:href="#m5e25cda909" x="195.064488" y="53.568" style="fill: #228b22; stroke: #228b22"/>
     <use xlink:href="#m5e25cda909" x="199.174039" y="53.568" style="fill: #228b22; stroke: #228b22"/>
     <use xlink:href="#m5e25cda909" x="203.28359" y="147.061373" style="fill: #228b22; stroke: #228b22"/>
     <use xlink:href="#m5e25cda909" x="207.393142" y="287.301432" style="fill: #228b22; stroke: #228b22"/>
     <use xlink:href="#m5e25cda909" x="211.502693" y="287.301432" style="fill: #228b22; stroke: #228b22"/>
     <use xlink:href="#m5e25cda909" x="215.612244" y="287.301432" style="fill: #228b22; stroke: #228b22"/>
     <use xlink:href="#m5e25cda909" x="219.721795" y="287.301432" style="fill: #228b22; stroke: #228b22"/>
     <use xlink:href="#m5e25cda909" x="223.831346" y="287.301432" style="fill: #228b22; stroke: #228b22"/>
     <use xlink:href="#m5e25cda909" x="227.940898" y="287.301432" style="fill: #228b22; stroke: #228b22"/>
     <use xlink:href="#m5e25cda909" x="232.050449" y="287.301432" style="fill: #228b22; stroke: #228b22"/>
     <use xlink:href="#m5e25cda909" x="236.16" y="279.904804" style="fill: #228b22; stroke: #228b22"/>
     <use xlink:href="#m5e25cda909" x="240.269551" y="228.128411" style="fill: #228b22; stroke: #228b22"/>
     <use xlink:href="#m5e25cda909" x="244.379102" y="168.95539" style="fill: #228b22; stroke: #228b22"/>
     <use xlink:href="#m5e25cda909" x="248.488654" y="109.78237" style="fill: #228b22; stroke: #228b22"/>
     <use xlink:href="#m5e25cda909" x="252.598205" y="68.509188" style="fill: #228b22; stroke: #228b22"/>
     <use xlink:href="#m5e25cda909" x="256.707756" y="115.699672" style="fill: #228b22; stroke: #228b22"/>
     <use xlink:href="#m5e25cda909" x="260.817307" y="174.872692" style="fill: #228b22; stroke: #228b22"/>
     <use xlink:href="#m5e25cda909" x="264.926858" y="234.045713" style="fill: #228b22; stroke: #228b22"/>
     <use xlink:href="#m5e25cda909" x="269.03641" y="282.56759" style="fill: #228b22; stroke: #228b22"/>
     <use xlink:href="#m5e25cda909" x="273.145961" y="287.301432" style="fill: #228b22; stroke: #228b22"/>
     <use xlink:href="#m5e25cda909" x="277.255512" y="287.301432" style="fill: #228b22; stroke: #228b22"/>
     <use xlink:href="#m5e25cda909" x="281.365063" y="287.301432" style="fill: #228b22; stroke: #228b22"/>
     <use xlink:href="#m5e25cda909" x="285.474614" y="287.301432" style="fill: #228b22; stroke: #228b22"/>
     <use xlink:href="#m5e25cda909" x="289.584166" y="287.301432" style="fill: #228b22; stroke: #228b22"/>
     <use xlink:href="#m5e25cda909" x="293.693717" y="287.301432" style="fill: #228b22; stroke: #228b22"/>
     <use xlink:href="#m5e25cda909" x="297.803268" y="287.301432" style="fill: #228b22; stroke: #228b22"/>
     <use xlink:href="#m5e25cda909" x="301.912819" y="225.168227" style="fill: #228b22; stroke: #228b22"/>
     <use xlink:href="#m5e25cda909" x="306.022371" y="121.545738" style="fill: #228b22; stroke: #228b22"/>
     <use xlink:href="#m5e25cda909" x="310.131922" y="78.769432" style="fill: #228b22; stroke: #228b22"/>
     <use xlink:href="#m5e25cda909" x="314.241473" y="58.58546" style="fill: #228b22; stroke: #228b22"/>
     <use xlink:href="#m5e25cda909" x="318.351024" y="54.76498" style="fill: #228b22; stroke: #228b22"/>
     <use xlink:href="#m5e25cda909" x="322.460575" y="66.430348" style="fill: #228b22; stroke: #228b22"/>
     <use xlink:href="#m5e25cda909" x="326.570127" y="96.515992" style="fill: #228b22; stroke: #228b22"/>
     <use xlink:href="#m5e25cda909" x="330.679678" y="159.132041" style="fill: #228b22; stroke: #228b22"/>
     <use xlink:href="#m5e25cda909" x="334.789229" y="277.787104" style="fill: #228b22; stroke: #228b22"/>
     <use xlink:href="#m5e25cda909" x="338.89878" y="287.301432" style="fill: #228b22; stroke: #228b22"/>
     <use xlink:href="#m5e25cda909" x="343.008331" y="287.301432" style="fill: #228b22; stroke: #228b22"/>
     <use xlink:href="#m5e25cda909" x="347.117883" y="287.301432" style="fill: #228b22; stroke: #228b22"/>
     <use xlink:href="#m5e25cda909" x="351.227434" y="287.301432" style="fill: #228b22; stroke: #228b22"/>
     <use xlink:href="#m5e25cda909" x="355.336985" y="287.301432" style="fill: #228b22; stroke: #228b22"/>
     <use xlink:href="#m5e25cda909" x="359.446536" y="287.301432" style="fill: #228b22; stroke: #228b22"/>
     <use xlink:href="#m5e25cda909" x="363.556087" y="287.301432" style="fill: #228b22; stroke: #228b22"/>
     <use xlink:href="#m5e25cda909" x="367.665639" y="287.301432" style="fill: #228b22; stroke: #228b22"/>
     <use xlink:href="#m5e25cda909" x="371.77519" y="287.301432" style="fill: #228b22; stroke: #228b22"/>
     <use xlink:href="#m5e25cda909" x="375.884741" y="287.301432" style="fill: #228b22; stroke: #228b22"/>
     <use xlink:href="#m5e25cda909" x="379.994292" y="287.301432" style="fill: #228b22; stroke: #228b22"/>
     <use xlink:href="#m5e25cda909" x="384.103843" y="287.301432" style="fill: #228b22; stroke: #228b22"/>
     <use xlink:href="#m5e25cda909" x="388.213395" y="287.301432" style="fill: #228b22; stroke: #228b22"/>
     <use xlink:href="#m5e25cda909" x="392.322946" y="287.301432" style="fill: #228b22; stroke: #228b22"/>
     <use xlink:href="#m5e25cda909" x="396.432497" y="287.301432" style="fill: #228b22; stroke: #228b22"/>
    </g>
   </g>
   <g id="matplotlib.axis_1">
    <g id="xtick_1">
     <g id="line2d_1">
      <defs>
       <path id="mc43f7e3179" d="M 0 0 
L 0 3.5 
" style="stroke: #000000; stroke-width: 0.8"/>
      </defs>
      <g>
       <use xlink:href="#mc43f7e3179" x="73.832727" y="307.584" style="stroke: #000000; stroke-width: 0.8"/>
      </g>
     </g>
     <g id="text_1">
      <!-- −1.00 -->
      <g transform="translate(58.510071 322.182437)scale(0.1 -0.1)">
       <defs>
        <path id="DejaVuSans-2212" d="M 678 2272 
L 4684 2272 
L 4684 1741 
L 678 1741 
L 678 2272 
z
" transform="scale(0.015625)"/>
        <path id="DejaVuSans-31" d="M 794 531 
L 1825 531 
L 1825 4091 
L 703 3866 
L 703 4441 
L 1819 4666 
L 2450 4666 
L 2450 531 
L 3481 531 
L 3481 0 
L 794 0 
L 794 531 
z
" transform="scale(0.015625)"/>
        <path id="DejaVuSans-2e" d="M 684 794 
L 1344 794 
L 1344 0 
L 684 0 
L 684 794 
z
" transform="scale(0.015625)"/>
        <path id="DejaVuSans-30" d="M 2034 4250 
Q 1547 4250 1301 3770 
Q 1056 3291 1056 2328 
Q 1056 1369 1301 889 
Q 1547 409 2034 409 
Q 2525 409 2770 889 
Q 3016 1369 3016 2328 
Q 3016 3291 2770 3770 
Q 2525 4250 2034 4250 
z
M 2034 4750 
Q 2819 4750 3233 4129 
Q 3647 3509 3647 2328 
Q 3647 1150 3233 529 
Q 2819 -91 2034 -91 
Q 1250 -91 836 529 
Q 422 1150 422 2328 
Q 422 3509 836 4129 
Q 1250 4750 2034 4750 
z
" transform="scale(0.015625)"/>
       </defs>
       <use xlink:href="#DejaVuSans-2212"/>
       <use xlink:href="#DejaVuSans-31" x="83.789062"/>
       <use xlink:href="#DejaVuSans-2e" x="147.412109"/>
       <use xlink:href="#DejaVuSans-30" x="179.199219"/>
       <use xlink:href="#DejaVuSans-30" x="242.822266"/>
      </g>
     </g>
    </g>
    <g id="xtick_2">
     <g id="line2d_2">
      <g>
       <use xlink:href="#mc43f7e3179" x="114.414545" y="307.584" style="stroke: #000000; stroke-width: 0.8"/>
      </g>
     </g>
     <g id="text_2">
      <!-- −0.75 -->
      <g transform="translate(99.091889 322.182437)scale(0.1 -0.1)">
       <defs>
        <path id="DejaVuSans-37" d="M 525 4666 
L 3525 4666 
L 3525 4397 
L 1831 0 
L 1172 0 
L 2766 4134 
L 525 4134 
L 525 4666 
z
" transform="scale(0.015625)"/>
        <path id="DejaVuSans-35" d="M 691 4666 
L 3169 4666 
L 3169 4134 
L 1269 4134 
L 1269 2991 
Q 1406 3038 1543 3061 
Q 1681 3084 1819 3084 
Q 2600 3084 3056 2656 
Q 3513 2228 3513 1497 
Q 3513 744 3044 326 
Q 2575 -91 1722 -91 
Q 1428 -91 1123 -41 
Q 819 9 494 109 
L 494 744 
Q 775 591 1075 516 
Q 1375 441 1709 441 
Q 2250 441 2565 725 
Q 2881 1009 2881 1497 
Q 2881 1984 2565 2268 
Q 2250 2553 1709 2553 
Q 1456 2553 1204 2497 
Q 953 2441 691 2322 
L 691 4666 
z
" transform="scale(0.015625)"/>
       </defs>
       <use xlink:href="#DejaVuSans-2212"/>
       <use xlink:href="#DejaVuSans-30" x="83.789062"/>
       <use xlink:href="#DejaVuSans-2e" x="147.412109"/>
       <use xlink:href="#DejaVuSans-37" x="179.199219"/>
       <use xlink:href="#DejaVuSans-35" x="242.822266"/>
      </g>
     </g>
    </g>
    <g id="xtick_3">
     <g id="line2d_3">
      <g>
       <use xlink:href="#mc43f7e3179" x="154.996364" y="307.584" style="stroke: #000000; stroke-width: 0.8"/>
      </g>
     </g>
     <g id="text_3">
      <!-- −0.50 -->
      <g transform="translate(139.673707 322.182437)scale(0.1 -0.1)">
       <use xlink:href="#DejaVuSans-2212"/>
       <use xlink:href="#DejaVuSans-30" x="83.789062"/>
       <use xlink:href="#DejaVuSans-2e" x="147.412109"/>
       <use xlink:href="#DejaVuSans-35" x="179.199219"/>
       <use xlink:href="#DejaVuSans-30" x="242.822266"/>
      </g>
     </g>
    </g>
    <g id="xtick_4">
     <g id="line2d_4">
      <g>
       <use xlink:href="#mc43f7e3179" x="195.578182" y="307.584" style="stroke: #000000; stroke-width: 0.8"/>
      </g>
     </g>
     <g id="text_4">
      <!-- −0.25 -->
      <g transform="translate(180.255526 322.182437)scale(0.1 -0.1)">
       <defs>
        <path id="DejaVuSans-32" d="M 1228 531 
L 3431 531 
L 3431 0 
L 469 0 
L 469 531 
Q 828 903 1448 1529 
Q 2069 2156 2228 2338 
Q 2531 2678 2651 2914 
Q 2772 3150 2772 3378 
Q 2772 3750 2511 3984 
Q 2250 4219 1831 4219 
Q 1534 4219 1204 4116 
Q 875 4013 500 3803 
L 500 4441 
Q 881 4594 1212 4672 
Q 1544 4750 1819 4750 
Q 2544 4750 2975 4387 
Q 3406 4025 3406 3419 
Q 3406 3131 3298 2873 
Q 3191 2616 2906 2266 
Q 2828 2175 2409 1742 
Q 1991 1309 1228 531 
z
" transform="scale(0.015625)"/>
       </defs>
       <use xlink:href="#DejaVuSans-2212"/>
       <use xlink:href="#DejaVuSans-30" x="83.789062"/>
       <use xlink:href="#DejaVuSans-2e" x="147.412109"/>
       <use xlink:href="#DejaVuSans-32" x="179.199219"/>
       <use xlink:href="#DejaVuSans-35" x="242.822266"/>
      </g>
     </g>
    </g>
    <g id="xtick_5">
     <g id="line2d_5">
      <g>
       <use xlink:href="#mc43f7e3179" x="236.16" y="307.584" style="stroke: #000000; stroke-width: 0.8"/>
      </g>
     </g>
     <g id="text_5">
      <!-- 0.00 -->
      <g transform="translate(225.027187 322.182437)scale(0.1 -0.1)">
       <use xlink:href="#DejaVuSans-30"/>
       <use xlink:href="#DejaVuSans-2e" x="63.623047"/>
       <use xlink:href="#DejaVuSans-30" x="95.410156"/>
       <use xlink:href="#DejaVuSans-30" x="159.033203"/>
      </g>
     </g>
    </g>
    <g id="xtick_6">
     <g id="line2d_6">
      <g>
       <use xlink:href="#mc43f7e3179" x="276.741818" y="307.584" style="stroke: #000000; stroke-width: 0.8"/>
      </g>
     </g>
     <g id="text_6">
      <!-- 0.25 -->
      <g transform="translate(265.609006 322.182437)scale(0.1 -0.1)">
       <use xlink:href="#DejaVuSans-30"/>
       <use xlink:href="#DejaVuSans-2e" x="63.623047"/>
       <use xlink:href="#DejaVuSans-32" x="95.410156"/>
       <use xlink:href="#DejaVuSans-35" x="159.033203"/>
      </g>
     </g>
    </g>
    <g id="xtick_7">
     <g id="line2d_7">
      <g>
       <use xlink:href="#mc43f7e3179" x="317.323636" y="307.584" style="stroke: #000000; stroke-width: 0.8"/>
      </g>
     </g>
     <g id="text_7">
      <!-- 0.50 -->
      <g transform="translate(306.190824 322.182437)scale(0.1 -0.1)">
       <use xlink:href="#DejaVuSans-30"/>
       <use xlink:href="#DejaVuSans-2e" x="63.623047"/>
       <use xlink:href="#DejaVuSans-35" x="95.410156"/>
       <use xlink:href="#DejaVuSans-30" x="159.033203"/>
      </g>
     </g>
    </g>
    <g id="xtick_8">
     <g id="line2d_8">
      <g>
       <use xlink:href="#mc43f7e3179" x="357.905455" y="307.584" style="stroke: #000000; stroke-width: 0.8"/>
      </g>
     </g>
     <g id="text_8">
      <!-- 0.75 -->
      <g transform="translate(346.772642 322.182437)scale(0.1 -0.1)">
       <use xlink:href="#DejaVuSans-30"/>
       <use xlink:href="#DejaVuSans-2e" x="63.623047"/>
       <use xlink:href="#DejaVuSans-37" x="95.410156"/>
       <use xlink:href="#DejaVuSans-35" x="159.033203"/>
      </g>
     </g>
    </g>
    <g id="xtick_9">
     <g id="line2d_9">
      <g>
       <use xlink:href="#mc43f7e3179" x="398.487273" y="307.584" style="stroke: #000000; stroke-width: 0.8"/>
      </g>
     </g>
     <g id="text_9">
      <!-- 1.00 -->
      <g transform="translate(387.35446 322.182437)scale(0.1 -0.1)">
       <use xlink:href="#DejaVuSans-31"/>
       <use xlink:href="#DejaVuSans-2e" x="63.623047"/>
       <use xlink:href="#DejaVuSans-30" x="95.410156"/>
       <use xlink:href="#DejaVuSans-30" x="159.033203"/>
      </g>
     </g>
    </g>
    <g id="text_10">
     <!-- x -->
     <g transform="translate(233.200625 335.860562)scale(0.1 -0.1)">
      <defs>
       <path id="DejaVuSans-78" d="M 3513 3500 
L 2247 1797 
L 3578 0 
L 2900 0 
L 1881 1375 
L 863 0 
L 184 0 
L 1544 1831 
L 300 3500 
L 978 3500 
L 1906 2253 
L 2834 3500 
L 3513 3500 
z
" transform="scale(0.015625)"/>
      </defs>
      <use xlink:href="#DejaVuSans-78"/>
     </g>
    </g>
   </g>
   <g id="matplotlib.axis_2">
    <g id="ytick_1">
     <g id="line2d_10">
      <defs>
       <path id="m3cf257f2ba" d="M 0 0 
L -3.5 0 
" style="stroke: #000000; stroke-width: 0.8"/>
      </defs>
      <g>
       <use xlink:href="#m3cf257f2ba" x="57.6" y="287.301432" style="stroke: #000000; stroke-width: 0.8"/>
      </g>
     </g>
     <g id="text_11">
      <!-- 2.0 -->
      <g transform="translate(34.696875 291.10065)scale(0.1 -0.1)">
       <use xlink:href="#DejaVuSans-32"/>
       <use xlink:href="#DejaVuSans-2e" x="63.623047"/>
       <use xlink:href="#DejaVuSans-30" x="95.410156"/>
      </g>
     </g>
    </g>
    <g id="ytick_2">
     <g id="line2d_11">
      <g>
       <use xlink:href="#m3cf257f2ba" x="57.6" y="240.554745" style="stroke: #000000; stroke-width: 0.8"/>
      </g>
     </g>
     <g id="text_12">
      <!-- 2.2 -->
      <g transform="translate(34.696875 244.353964)scale(0.1 -0.1)">
       <use xlink:href="#DejaVuSans-32"/>
       <use xlink:href="#DejaVuSans-2e" x="63.623047"/>
       <use xlink:href="#DejaVuSans-32" x="95.410156"/>
      </g>
     </g>
    </g>
    <g id="ytick_3">
     <g id="line2d_12">
      <g>
       <use xlink:href="#m3cf257f2ba" x="57.6" y="193.808059" style="stroke: #000000; stroke-width: 0.8"/>
      </g>
     </g>
     <g id="text_13">
      <!-- 2.4 -->
      <g transform="translate(34.696875 197.607278)scale(0.1 -0.1)">
       <defs>
        <path id="DejaVuSans-34" d="M 2419 4116 
L 825 1625 
L 2419 1625 
L 2419 4116 
z
M 2253 4666 
L 3047 4666 
L 3047 1625 
L 3713 1625 
L 3713 1100 
L 3047 1100 
L 3047 0 
L 2419 0 
L 2419 1100 
L 313 1100 
L 313 1709 
L 2253 4666 
z
" transform="scale(0.015625)"/>
       </defs>
       <use xlink:href="#DejaVuSans-32"/>
       <use xlink:href="#DejaVuSans-2e" x="63.623047"/>
       <use xlink:href="#DejaVuSans-34" x="95.410156"/>
      </g>
     </g>
    </g>
    <g id="ytick_4">
     <g id="line2d_13">
      <g>
       <use xlink:href="#m3cf257f2ba" x="57.6" y="147.061373" style="stroke: #000000; stroke-width: 0.8"/>
      </g>
     </g>
     <g id="text_14">
      <!-- 2.6 -->
      <g transform="translate(34.696875 150.860591)scale(0.1 -0.1)">
       <defs>
        <path id="DejaVuSans-36" d="M 2113 2584 
Q 1688 2584 1439 2293 
Q 1191 2003 1191 1497 
Q 1191 994 1439 701 
Q 1688 409 2113 409 
Q 2538 409 2786 701 
Q 3034 994 3034 1497 
Q 3034 2003 2786 2293 
Q 2538 2584 2113 2584 
z
M 3366 4563 
L 3366 3988 
Q 3128 4100 2886 4159 
Q 2644 4219 2406 4219 
Q 1781 4219 1451 3797 
Q 1122 3375 1075 2522 
Q 1259 2794 1537 2939 
Q 1816 3084 2150 3084 
Q 2853 3084 3261 2657 
Q 3669 2231 3669 1497 
Q 3669 778 3244 343 
Q 2819 -91 2113 -91 
Q 1303 -91 875 529 
Q 447 1150 447 2328 
Q 447 3434 972 4092 
Q 1497 4750 2381 4750 
Q 2619 4750 2861 4703 
Q 3103 4656 3366 4563 
z
" transform="scale(0.015625)"/>
       </defs>
       <use xlink:href="#DejaVuSans-32"/>
       <use xlink:href="#DejaVuSans-2e" x="63.623047"/>
       <use xlink:href="#DejaVuSans-36" x="95.410156"/>
      </g>
     </g>
    </g>
    <g id="ytick_5">
     <g id="line2d_14">
      <g>
       <use xlink:href="#m3cf257f2ba" x="57.6" y="100.314686" style="stroke: #000000; stroke-width: 0.8"/>
      </g>
     </g>
     <g id="text_15">
      <!-- 2.8 -->
      <g transform="translate(34.696875 104.113905)scale(0.1 -0.1)">
       <defs>
        <path id="DejaVuSans-38" d="M 2034 2216 
Q 1584 2216 1326 1975 
Q 1069 1734 1069 1313 
Q 1069 891 1326 650 
Q 1584 409 2034 409 
Q 2484 409 2743 651 
Q 3003 894 3003 1313 
Q 3003 1734 2745 1975 
Q 2488 2216 2034 2216 
z
M 1403 2484 
Q 997 2584 770 2862 
Q 544 3141 544 3541 
Q 544 4100 942 4425 
Q 1341 4750 2034 4750 
Q 2731 4750 3128 4425 
Q 3525 4100 3525 3541 
Q 3525 3141 3298 2862 
Q 3072 2584 2669 2484 
Q 3125 2378 3379 2068 
Q 3634 1759 3634 1313 
Q 3634 634 3220 271 
Q 2806 -91 2034 -91 
Q 1263 -91 848 271 
Q 434 634 434 1313 
Q 434 1759 690 2068 
Q 947 2378 1403 2484 
z
M 1172 3481 
Q 1172 3119 1398 2916 
Q 1625 2713 2034 2713 
Q 2441 2713 2670 2916 
Q 2900 3119 2900 3481 
Q 2900 3844 2670 4047 
Q 2441 4250 2034 4250 
Q 1625 4250 1398 4047 
Q 1172 3844 1172 3481 
z
" transform="scale(0.015625)"/>
       </defs>
       <use xlink:href="#DejaVuSans-32"/>
       <use xlink:href="#DejaVuSans-2e" x="63.623047"/>
       <use xlink:href="#DejaVuSans-38" x="95.410156"/>
      </g>
     </g>
    </g>
    <g id="ytick_6">
     <g id="line2d_15">
      <g>
       <use xlink:href="#m3cf257f2ba" x="57.6" y="53.568" style="stroke: #000000; stroke-width: 0.8"/>
      </g>
     </g>
     <g id="text_16">
      <!-- 3.0 -->
      <g transform="translate(34.696875 57.367219)scale(0.1 -0.1)">
       <defs>
        <path id="DejaVuSans-33" d="M 2597 2516 
Q 3050 2419 3304 2112 
Q 3559 1806 3559 1356 
Q 3559 666 3084 287 
Q 2609 -91 1734 -91 
Q 1441 -91 1130 -33 
Q 819 25 488 141 
L 488 750 
Q 750 597 1062 519 
Q 1375 441 1716 441 
Q 2309 441 2620 675 
Q 2931 909 2931 1356 
Q 2931 1769 2642 2001 
Q 2353 2234 1838 2234 
L 1294 2234 
L 1294 2753 
L 1863 2753 
Q 2328 2753 2575 2939 
Q 2822 3125 2822 3475 
Q 2822 3834 2567 4026 
Q 2313 4219 1838 4219 
Q 1578 4219 1281 4162 
Q 984 4106 628 3988 
L 628 4550 
Q 988 4650 1302 4700 
Q 1616 4750 1894 4750 
Q 2613 4750 3031 4423 
Q 3450 4097 3450 3541 
Q 3450 3153 3228 2886 
Q 3006 2619 2597 2516 
z
" transform="scale(0.015625)"/>
       </defs>
       <use xlink:href="#DejaVuSans-33"/>
       <use xlink:href="#DejaVuSans-2e" x="63.623047"/>
       <use xlink:href="#DejaVuSans-30" x="95.410156"/>
      </g>
     </g>
    </g>
    <g id="text_17">
     <!-- $f_i$ -->
     <g transform="translate(28.617188 177.428)rotate(-90)scale(0.1 -0.1)">
      <defs>
       <path id="DejaVuSans-Oblique-66" d="M 3059 4863 
L 2969 4384 
L 2419 4384 
Q 2106 4384 1964 4261 
Q 1822 4138 1753 3809 
L 1691 3500 
L 2638 3500 
L 2553 3053 
L 1606 3053 
L 1013 0 
L 434 0 
L 1031 3053 
L 481 3053 
L 563 3500 
L 1113 3500 
L 1159 3744 
Q 1278 4363 1576 4613 
Q 1875 4863 2516 4863 
L 3059 4863 
z
" transform="scale(0.015625)"/>
       <path id="DejaVuSans-Oblique-69" d="M 1172 4863 
L 1747 4863 
L 1606 4134 
L 1031 4134 
L 1172 4863 
z
M 909 3500 
L 1484 3500 
L 800 0 
L 225 0 
L 909 3500 
z
" transform="scale(0.015625)"/>
      </defs>
      <use xlink:href="#DejaVuSans-Oblique-66" transform="translate(0 0.015625)"/>
      <use xlink:href="#DejaVuSans-Oblique-69" transform="translate(35.205078 -16.390625)scale(0.7)"/>
     </g>
    </g>
   </g>
   <g id="line2d_16">
    <path d="M 73.832727 287.301432 
L 106.0057 287.301432 
L 106.655659 287.140216 
L 107.630598 286.918214 
L 108.605536 286.439134 
L 109.255495 285.865186 
L 109.905455 284.96684 
L 110.555414 283.598 
L 111.205373 281.568079 
L 111.855332 278.639313 
L 112.505291 274.529671 
L 113.15525 268.92384 
L 113.805209 261.494427 
L 114.455168 251.934463 
L 115.430106 233.097073 
L 116.405045 208.661009 
L 117.704963 168.706187 
L 119.97982 94.820528 
L 120.954758 71.120732 
L 121.604717 60.732475 
L 121.929697 57.463693 
L 122.254676 55.564598 
L 122.579656 55.069684 
L 122.904636 55.987971 
L 123.229615 58.302732 
L 123.554595 61.972001 
L 124.204554 73.088291 
L 124.854513 88.561344 
L 125.829451 117.637118 
L 128.754267 211.346358 
L 129.729206 235.234416 
L 130.704144 253.514883 
L 131.679083 266.547508 
L 132.329042 272.754597 
L 132.979001 277.350862 
L 133.62896 280.658825 
L 134.278919 282.973899 
L 134.928878 284.550035 
L 135.578837 285.594261 
L 136.228796 286.26769 
L 136.878755 286.690549 
L 137.853694 287.036324 
L 139.478591 287.301432 
L 171.001605 287.301432 
L 171.326585 53.568 
L 203.499558 53.568 
L 203.824537 287.301432 
L 235.99751 287.301432 
L 236.32249 284.961758 
L 252.246486 55.673707 
L 252.571466 56.141641 
L 268.495463 285.429692 
L 268.820442 287.301432 
L 300.993415 287.301432 
L 301.318395 247.592073 
L 302.293333 201.156309 
L 302.943292 179.907954 
L 303.918231 156.049377 
L 304.89317 137.353599 
L 306.193088 117.421554 
L 307.493006 101.498575 
L 308.792924 88.604755 
L 310.092842 78.173708 
L 311.39276 69.848243 
L 312.367699 64.840618 
L 313.342637 60.812948 
L 314.317576 57.713438 
L 315.292514 55.504708 
L 315.942473 54.514111 
L 316.592432 53.902998 
L 317.242391 53.668381 
L 317.892351 53.809123 
L 318.54231 54.325904 
L 319.192269 55.221247 
L 319.842228 56.499572 
L 320.492187 58.167312 
L 321.467125 61.418567 
L 322.442064 65.60553 
L 323.417002 70.782723 
L 324.391941 77.023649 
L 325.36688 84.427047 
L 326.666798 96.344925 
L 327.966716 111.046092 
L 328.941654 124.352161 
L 329.916593 140.206572 
L 330.891532 159.591362 
L 331.86647 184.658389 
L 332.516429 207.847158 
L 333.491368 260.742702 
L 333.816347 287.301432 
L 398.487273 287.301432 
L 398.487273 287.301432 
" clip-path="url(#pd7d151a081)" style="fill: none; stroke: #0000ff; stroke-width: 1.5; stroke-linecap: square"/>
   </g>
   <g id="line2d_17">
    <path d="M 73.840844 287.301432 
L 74.212963 287.301432 
L 74.585083 287.301432 
L 74.957203 287.301432 
L 75.329323 287.301432 
L 75.701443 287.301432 
L 76.073563 287.301432 
L 76.445683 287.301432 
L 76.817803 287.301432 
L 77.189922 287.301432 
L 77.562042 287.301432 
L 77.934162 287.301432 
" clip-path="url(#pd7d151a081)" style="fill: none; stroke: #008000; stroke-width: 1.5; stroke-linecap: square"/>
   </g>
   <g id="line2d_18">
    <path d="M 77.950395 287.301432 
L 78.322515 287.301432 
L 78.694635 287.301432 
L 79.066754 287.301432 
L 79.438874 287.301432 
L 79.810994 287.301432 
L 80.183114 287.301432 
L 80.555234 287.301432 
L 80.927354 287.301432 
L 81.299474 287.301432 
L 81.671593 287.301432 
L 82.043713 287.301432 
" clip-path="url(#pd7d151a081)" style="fill: none; stroke: #008000; stroke-width: 1.5; stroke-linecap: square"/>
   </g>
   <g id="line2d_19">
    <path d="M 82.059946 287.301432 
L 82.432066 287.301432 
L 82.804186 287.301432 
L 83.176306 287.301432 
L 83.548426 287.301432 
L 83.920545 287.301432 
L 84.292665 287.301432 
L 84.664785 287.301432 
L 85.036905 287.301432 
L 85.409025 287.301432 
L 85.781145 287.301432 
L 86.153265 287.301432 
" clip-path="url(#pd7d151a081)" style="fill: none; stroke: #008000; stroke-width: 1.5; stroke-linecap: square"/>
   </g>
   <g id="line2d_20">
    <path d="M 86.169497 287.301432 
L 86.541617 287.301432 
L 86.913737 287.301432 
L 87.285857 287.301432 
L 87.657977 287.301432 
L 88.030097 287.301432 
L 88.402216 287.301432 
L 88.774336 287.301432 
L 89.146456 287.301432 
L 89.518576 287.301432 
L 89.890696 287.301432 
L 90.262816 287.301432 
" clip-path="url(#pd7d151a081)" style="fill: none; stroke: #008000; stroke-width: 1.5; stroke-linecap: square"/>
   </g>
   <g id="line2d_21">
    <path d="M 90.279048 287.301432 
L 90.651168 287.301432 
L 91.023288 287.301432 
L 91.395408 287.301432 
L 91.767528 287.301432 
L 92.139648 287.301432 
L 92.511768 287.301432 
L 92.883888 287.301432 
L 93.256007 287.301432 
L 93.628127 287.301432 
L 94.000247 287.301432 
L 94.372367 287.301432 
" clip-path="url(#pd7d151a081)" style="fill: none; stroke: #008000; stroke-width: 1.5; stroke-linecap: square"/>
   </g>
   <g id="line2d_22">
    <path d="M 94.3886 287.300962 
L 94.76072 287.300977 
L 95.132839 287.30102 
L 95.504959 287.30109 
L 95.877079 287.301185 
L 96.249199 287.301301 
L 96.621319 287.301434 
L 96.993439 287.301578 
L 97.365559 287.301728 
L 97.737678 287.301876 
L 98.109798 287.302014 
L 98.481918 287.302134 
" clip-path="url(#pd7d151a081)" style="fill: none; stroke: #008000; stroke-width: 1.5; stroke-linecap: square"/>
   </g>
   <g id="line2d_23">
    <path d="M 98.498151 287.25778 
L 98.870271 287.259289 
L 99.242391 287.263431 
L 99.61451 287.270059 
L 99.98663 287.278934 
L 100.35875 287.289727 
L 100.73087 287.302018 
L 101.10299 287.315299 
L 101.47511 287.328969 
L 101.84723 287.342337 
L 102.21935 287.354623 
L 102.591469 287.364954 
" clip-path="url(#pd7d151a081)" style="fill: none; stroke: #008000; stroke-width: 1.5; stroke-linecap: square"/>
   </g>
   <g id="line2d_24">
    <path d="M 102.607702 286.976198 
L 102.979822 286.995915 
L 103.351942 287.035072 
L 103.724062 287.091329 
L 104.096182 287.161468 
L 104.468301 287.241399 
L 104.840421 287.326154 
L 105.212541 287.409892 
L 105.584661 287.485894 
L 105.956781 287.546569 
L 106.328901 287.583448 
L 106.701021 287.587188 
" clip-path="url(#pd7d151a081)" style="fill: none; stroke: #008000; stroke-width: 1.5; stroke-linecap: square"/>
   </g>
   <g id="line2d_25">
    <path d="M 106.717253 286.935699 
L 107.089373 286.914766 
L 107.461493 286.878103 
L 107.833613 286.811703 
L 108.205733 286.699374 
L 108.577853 286.522737 
L 108.949972 286.261223 
L 109.322092 285.892077 
L 109.694212 285.390356 
L 110.066332 284.728928 
L 110.438452 283.878475 
L 110.810572 282.807489 
" clip-path="url(#pd7d151a081)" style="fill: none; stroke: #008000; stroke-width: 1.5; stroke-linecap: square"/>
   </g>
   <g id="line2d_26">
    <path d="M 110.826805 286.391515 
L 111.198924 284.938061 
L 111.571044 282.973706 
L 111.943164 280.471449 
L 112.315284 277.409429 
L 112.687404 273.770935 
L 113.059524 269.544402 
L 113.431644 264.723409 
L 113.803763 259.306683 
L 114.175883 253.298097 
L 114.548003 246.706669 
L 114.920123 239.546566 
" clip-path="url(#pd7d151a081)" style="fill: none; stroke: #008000; stroke-width: 1.5; stroke-linecap: square"/>
   </g>
   <g id="line2d_27">
    <path d="M 114.936356 241.433273 
L 115.308476 233.629591 
L 115.680595 225.168876 
L 116.052715 216.087745 
L 116.424835 206.432421 
L 116.796955 196.258735 
L 117.169075 185.632125 
L 117.541195 174.627636 
L 117.913315 163.329918 
L 118.285434 151.833232 
L 118.657554 140.241441 
L 119.029674 128.66802 
" clip-path="url(#pd7d151a081)" style="fill: none; stroke: #008000; stroke-width: 1.5; stroke-linecap: square"/>
   </g>
   <g id="line2d_28">
    <path d="M 119.045907 116.080928 
L 119.418027 105.044751 
L 119.790147 95.017105 
L 120.162267 86.103614 
L 120.534386 78.395131 
L 120.906506 71.967745 
L 121.278626 66.882781 
L 121.650746 63.186794 
L 122.022866 60.911575 
L 122.394986 60.074148 
L 122.767106 60.676772 
L 123.139225 62.706939 
" clip-path="url(#pd7d151a081)" style="fill: none; stroke: #008000; stroke-width: 1.5; stroke-linecap: square"/>
   </g>
   <g id="line2d_29">
    <path d="M 123.155458 66.546221 
L 123.527578 69.917904 
L 123.899698 74.42151 
L 124.271818 80.011 
L 124.643938 86.633073 
L 125.016057 94.227158 
L 125.388177 102.725422 
L 125.760297 112.052762 
L 126.132417 122.12681 
L 126.504537 132.857934 
L 126.876657 144.149233 
L 127.248777 155.896542 
" clip-path="url(#pd7d151a081)" style="fill: none; stroke: #008000; stroke-width: 1.5; stroke-linecap: square"/>
   </g>
   <g id="line2d_30">
    <path d="M 127.265009 165.711318 
L 127.637129 177.518212 
L 128.009249 188.98547 
L 128.381369 200.015335 
L 128.753489 210.521529 
L 129.125609 220.429253 
L 129.497729 229.675183 
L 129.869848 238.207478 
L 130.241968 245.985769 
L 130.614088 252.981171 
L 130.986208 259.176273 
L 131.358328 264.565144 
" clip-path="url(#pd7d151a081)" style="fill: none; stroke: #008000; stroke-width: 1.5; stroke-linecap: square"/>
   </g>
   <g id="line2d_31">
    <path d="M 131.374561 259.870487 
L 131.74668 264.581203 
L 132.1188 268.805297 
L 132.49092 272.556698 
L 132.86304 275.850907 
L 133.23516 278.704997 
L 133.60728 281.137615 
L 133.9794 283.168977 
L 134.351519 284.820874 
L 134.723639 286.116669 
L 135.095759 287.081297 
L 135.467879 287.741264 
" clip-path="url(#pd7d151a081)" style="fill: none; stroke: #008000; stroke-width: 1.5; stroke-linecap: square"/>
   </g>
   <g id="line2d_32">
    <path d="M 135.484112 285.947772 
L 135.856232 286.377857 
L 136.228351 286.671788 
L 136.600471 286.855283 
L 136.972591 286.951973 
L 137.344711 286.983397 
L 137.716831 286.969004 
L 138.088951 286.926155 
L 138.461071 286.87012 
L 138.833191 286.814078 
L 139.20531 286.76912 
L 139.57743 286.744246 
" clip-path="url(#pd7d151a081)" style="fill: none; stroke: #008000; stroke-width: 1.5; stroke-linecap: square"/>
   </g>
   <g id="line2d_33">
    <path d="M 139.593663 287.5361 
L 139.965783 287.514168 
L 140.337903 287.476454 
L 140.710023 287.428029 
L 141.082142 287.373472 
L 141.454262 287.316871 
L 141.826382 287.261822 
L 142.198502 287.211429 
L 142.570622 287.168305 
L 142.942742 287.13457 
L 143.314862 287.111852 
L 143.686981 287.10129 
" clip-path="url(#pd7d151a081)" style="fill: none; stroke: #008000; stroke-width: 1.5; stroke-linecap: square"/>
   </g>
   <g id="line2d_34">
    <path d="M 143.703214 287.327512 
L 144.075334 287.323071 
L 144.447454 287.317932 
L 144.819574 287.312432 
L 145.191694 287.30687 
L 145.563813 287.301509 
L 145.935933 287.296581 
L 146.308053 287.292279 
L 146.680173 287.288763 
L 147.052293 287.286155 
L 147.424413 287.284546 
L 147.796533 287.283987 
" clip-path="url(#pd7d151a081)" style="fill: none; stroke: #008000; stroke-width: 1.5; stroke-linecap: square"/>
   </g>
   <g id="line2d_35">
    <path d="M 147.812765 287.301432 
L 148.184885 287.301432 
L 148.557005 287.301432 
L 148.929125 287.301432 
L 149.301245 287.301432 
L 149.673365 287.301432 
L 150.045485 287.301432 
L 150.417604 287.301432 
L 150.789724 287.301432 
L 151.161844 287.301432 
L 151.533964 287.301432 
L 151.906084 287.301432 
" clip-path="url(#pd7d151a081)" style="fill: none; stroke: #008000; stroke-width: 1.5; stroke-linecap: square"/>
   </g>
   <g id="line2d_36">
    <path d="M 151.922317 287.301432 
L 152.294436 287.301432 
L 152.666556 287.301432 
L 153.038676 287.301432 
L 153.410796 287.301432 
L 153.782916 287.301432 
L 154.155036 287.301432 
L 154.527156 287.301432 
L 154.899275 287.301432 
L 155.271395 287.301432 
L 155.643515 287.301432 
L 156.015635 287.301432 
" clip-path="url(#pd7d151a081)" style="fill: none; stroke: #008000; stroke-width: 1.5; stroke-linecap: square"/>
   </g>
   <g id="line2d_37">
    <path d="M 156.031868 287.301432 
L 156.403988 287.301432 
L 156.776108 287.301432 
L 157.148227 287.301432 
L 157.520347 287.301432 
L 157.892467 287.301432 
L 158.264587 287.301432 
L 158.636707 287.301432 
L 159.008827 287.301432 
L 159.380947 287.301432 
L 159.753066 287.301432 
L 160.125186 287.301432 
" clip-path="url(#pd7d151a081)" style="fill: none; stroke: #008000; stroke-width: 1.5; stroke-linecap: square"/>
   </g>
   <g id="line2d_38">
    <path d="M 160.141419 287.301432 
L 160.513539 287.301432 
L 160.885659 287.301432 
L 161.257779 287.301432 
L 161.629898 287.301432 
L 162.002018 287.301432 
L 162.374138 287.301432 
L 162.746258 287.301432 
L 163.118378 287.301432 
L 163.490498 287.301432 
L 163.862618 287.301432 
L 164.234737 287.301432 
" clip-path="url(#pd7d151a081)" style="fill: none; stroke: #008000; stroke-width: 1.5; stroke-linecap: square"/>
   </g>
   <g id="line2d_39">
    <path d="M 164.25097 287.301432 
L 164.62309 287.301432 
L 164.99521 287.301432 
L 165.36733 287.301432 
L 165.73945 287.301432 
L 166.11157 287.301432 
L 166.483689 287.301432 
L 166.855809 287.301432 
L 167.227929 287.301432 
L 167.600049 287.301432 
L 167.972169 287.301432 
L 168.344289 287.301432 
" clip-path="url(#pd7d151a081)" style="fill: none; stroke: #008000; stroke-width: 1.5; stroke-linecap: square"/>
   </g>
   <g id="line2d_40">
    <path d="M 168.360521 287.301432 
L 168.732641 287.301432 
L 169.104761 287.301432 
L 169.476881 287.301432 
L 169.849001 287.301432 
L 170.221121 287.301432 
L 170.593241 287.301432 
L 170.96536 287.301432 
L 171.33748 53.568 
L 171.7096 53.568 
L 172.08172 53.568 
L 172.45384 53.568 
" clip-path="url(#pd7d151a081)" style="fill: none; stroke: #008000; stroke-width: 1.5; stroke-linecap: square"/>
   </g>
   <g id="line2d_41">
    <path d="M 172.470073 53.568 
L 172.842192 53.568 
L 173.214312 53.568 
L 173.586432 53.568 
L 173.958552 53.568 
L 174.330672 53.568 
L 174.702792 53.568 
L 175.074912 53.568 
L 175.447032 53.568 
L 175.819151 53.568 
L 176.191271 53.568 
L 176.563391 53.568 
" clip-path="url(#pd7d151a081)" style="fill: none; stroke: #008000; stroke-width: 1.5; stroke-linecap: square"/>
   </g>
   <g id="line2d_42">
    <path d="M 176.579624 53.568 
L 176.951744 53.568 
L 177.323864 53.568 
L 177.695983 53.568 
L 178.068103 53.568 
L 178.440223 53.568 
L 178.812343 53.568 
L 179.184463 53.568 
L 179.556583 53.568 
L 179.928703 53.568 
L 180.300822 53.568 
L 180.672942 53.568 
" clip-path="url(#pd7d151a081)" style="fill: none; stroke: #008000; stroke-width: 1.5; stroke-linecap: square"/>
   </g>
   <g id="line2d_43">
    <path d="M 180.689175 53.568 
L 181.061295 53.568 
L 181.433415 53.568 
L 181.805535 53.568 
L 182.177654 53.568 
L 182.549774 53.568 
L 182.921894 53.568 
L 183.294014 53.568 
L 183.666134 53.568 
L 184.038254 53.568 
L 184.410374 53.568 
L 184.782494 53.568 
" clip-path="url(#pd7d151a081)" style="fill: none; stroke: #008000; stroke-width: 1.5; stroke-linecap: square"/>
   </g>
   <g id="line2d_44">
    <path d="M 184.798726 53.568 
L 185.170846 53.568 
L 185.542966 53.568 
L 185.915086 53.568 
L 186.287206 53.568 
L 186.659326 53.568 
L 187.031445 53.568 
L 187.403565 53.568 
L 187.775685 53.568 
L 188.147805 53.568 
L 188.519925 53.568 
L 188.892045 53.568 
" clip-path="url(#pd7d151a081)" style="fill: none; stroke: #008000; stroke-width: 1.5; stroke-linecap: square"/>
   </g>
   <g id="line2d_45">
    <path d="M 188.908277 53.568 
L 189.280397 53.568 
L 189.652517 53.568 
L 190.024637 53.568 
L 190.396757 53.568 
L 190.768877 53.568 
L 191.140997 53.568 
L 191.513117 53.568 
L 191.885236 53.568 
L 192.257356 53.568 
L 192.629476 53.568 
L 193.001596 53.568 
" clip-path="url(#pd7d151a081)" style="fill: none; stroke: #008000; stroke-width: 1.5; stroke-linecap: square"/>
   </g>
   <g id="line2d_46">
    <path d="M 193.017829 53.568 
L 193.389949 53.568 
L 193.762068 53.568 
L 194.134188 53.568 
L 194.506308 53.568 
L 194.878428 53.568 
L 195.250548 53.568 
L 195.622668 53.568 
L 195.994788 53.568 
L 196.366907 53.568 
L 196.739027 53.568 
L 197.111147 53.568 
" clip-path="url(#pd7d151a081)" style="fill: none; stroke: #008000; stroke-width: 1.5; stroke-linecap: square"/>
   </g>
   <g id="line2d_47">
    <path d="M 197.12738 53.568 
L 197.4995 53.568 
L 197.87162 53.568 
L 198.243739 53.568 
L 198.615859 53.568 
L 198.987979 53.568 
L 199.360099 53.568 
L 199.732219 53.568 
L 200.104339 53.568 
L 200.476459 53.568 
L 200.848579 53.568 
L 201.220698 53.568 
" clip-path="url(#pd7d151a081)" style="fill: none; stroke: #008000; stroke-width: 1.5; stroke-linecap: square"/>
   </g>
   <g id="line2d_48">
    <path d="M 201.236931 53.568 
L 201.609051 53.568 
L 201.981171 53.568 
L 202.353291 53.568 
L 202.725411 53.568 
L 203.09753 53.568 
L 203.46965 53.568 
L 203.84177 287.301432 
L 204.21389 287.301432 
L 204.58601 287.301432 
L 204.95813 287.301432 
L 205.33025 287.301432 
" clip-path="url(#pd7d151a081)" style="fill: none; stroke: #008000; stroke-width: 1.5; stroke-linecap: square"/>
   </g>
   <g id="line2d_49">
    <path d="M 205.346482 287.301432 
L 205.718602 287.301432 
L 206.090722 287.301432 
L 206.462842 287.301432 
L 206.834962 287.301432 
L 207.207082 287.301432 
L 207.579201 287.301432 
L 207.951321 287.301432 
L 208.323441 287.301432 
L 208.695561 287.301432 
L 209.067681 287.301432 
L 209.439801 287.301432 
" clip-path="url(#pd7d151a081)" style="fill: none; stroke: #008000; stroke-width: 1.5; stroke-linecap: square"/>
   </g>
   <g id="line2d_50">
    <path d="M 209.456034 287.301432 
L 209.828153 287.301432 
L 210.200273 287.301432 
L 210.572393 287.301432 
L 210.944513 287.301432 
L 211.316633 287.301432 
L 211.688753 287.301432 
L 212.060873 287.301432 
L 212.432992 287.301432 
L 212.805112 287.301432 
L 213.177232 287.301432 
L 213.549352 287.301432 
" clip-path="url(#pd7d151a081)" style="fill: none; stroke: #008000; stroke-width: 1.5; stroke-linecap: square"/>
   </g>
   <g id="line2d_51">
    <path d="M 213.565585 287.301432 
L 213.937705 287.301432 
L 214.309824 287.301432 
L 214.681944 287.301432 
L 215.054064 287.301432 
L 215.426184 287.301432 
L 215.798304 287.301432 
L 216.170424 287.301432 
L 216.542544 287.301432 
L 216.914663 287.301432 
L 217.286783 287.301432 
L 217.658903 287.301432 
" clip-path="url(#pd7d151a081)" style="fill: none; stroke: #008000; stroke-width: 1.5; stroke-linecap: square"/>
   </g>
   <g id="line2d_52">
    <path d="M 217.675136 287.301432 
L 218.047256 287.301432 
L 218.419376 287.301432 
L 218.791496 287.301432 
L 219.163615 287.301432 
L 219.535735 287.301432 
L 219.907855 287.301432 
L 220.279975 287.301432 
L 220.652095 287.301432 
L 221.024215 287.301432 
L 221.396335 287.301432 
L 221.768454 287.301432 
" clip-path="url(#pd7d151a081)" style="fill: none; stroke: #008000; stroke-width: 1.5; stroke-linecap: square"/>
   </g>
   <g id="line2d_53">
    <path d="M 221.784687 287.301432 
L 222.156807 287.301432 
L 222.528927 287.301432 
L 222.901047 287.301432 
L 223.273167 287.301432 
L 223.645286 287.301432 
L 224.017406 287.301432 
L 224.389526 287.301432 
L 224.761646 287.301432 
L 225.133766 287.301432 
L 225.505886 287.301432 
L 225.878006 287.301432 
" clip-path="url(#pd7d151a081)" style="fill: none; stroke: #008000; stroke-width: 1.5; stroke-linecap: square"/>
   </g>
   <g id="line2d_54">
    <path d="M 225.894238 287.054881 
L 226.266358 287.06277 
L 226.638478 287.08552 
L 227.010598 287.122373 
L 227.382718 287.172077 
L 227.754838 287.23288 
L 228.126958 287.302533 
L 228.499077 287.37829 
L 228.871197 287.456908 
L 229.243317 287.534648 
L 229.615437 287.607271 
L 229.987557 287.670042 
" clip-path="url(#pd7d151a081)" style="fill: none; stroke: #008000; stroke-width: 1.5; stroke-linecap: square"/>
   </g>
   <g id="line2d_55">
    <path d="M 230.00379 286.932825 
L 230.375909 287.003395 
L 230.748029 287.097473 
L 231.120149 287.206541 
L 231.492269 287.32009 
L 231.864389 287.425625 
L 232.236509 287.508659 
L 232.608629 287.552718 
L 232.980748 287.539337 
L 233.352868 287.448065 
L 233.724988 287.256458 
L 234.097108 286.940086 
" clip-path="url(#pd7d151a081)" style="fill: none; stroke: #008000; stroke-width: 1.5; stroke-linecap: square"/>
   </g>
   <g id="line2d_56">
    <path d="M 234.113341 287.272215 
L 234.485461 285.932686 
L 234.85758 284.593156 
L 235.2297 283.253627 
L 235.60182 281.914098 
L 235.97394 280.574569 
L 236.34606 279.235039 
L 236.71818 277.89551 
L 237.0903 276.555981 
L 237.46242 275.216452 
L 237.834539 273.876922 
L 238.206659 272.537393 
" clip-path="url(#pd7d151a081)" style="fill: none; stroke: #008000; stroke-width: 1.5; stroke-linecap: square"/>
   </g>
   <g id="line2d_57">
    <path d="M 238.222892 257.236709 
L 238.595012 252.194964 
L 238.967132 247.028454 
L 239.339252 241.761609 
L 239.711371 236.416873 
L 240.083491 231.014697 
L 240.455611 225.573546 
L 240.827731 220.109894 
L 241.199851 214.638227 
L 241.571971 209.171043 
L 241.944091 203.718848 
L 242.31621 198.290161 
" clip-path="url(#pd7d151a081)" style="fill: none; stroke: #008000; stroke-width: 1.5; stroke-linecap: square"/>
   </g>
   <g id="line2d_58">
    <path d="M 242.332443 199.390297 
L 242.704563 193.950317 
L 243.076683 188.464523 
L 243.448803 182.93948 
L 243.820923 177.382461 
L 244.193042 171.801445 
L 244.565162 166.205116 
L 244.937282 160.602864 
L 245.309402 155.004786 
L 245.681522 149.421686 
L 246.053642 143.865072 
L 246.425762 138.347159 
" clip-path="url(#pd7d151a081)" style="fill: none; stroke: #008000; stroke-width: 1.5; stroke-linecap: square"/>
   </g>
   <g id="line2d_59">
    <path d="M 246.441994 139.512872 
L 246.814114 134.004171 
L 247.186234 128.476624 
L 247.558354 122.948909 
L 247.930474 117.443244 
L 248.302594 111.985388 
L 248.674714 106.604639 
L 249.046833 101.333838 
L 249.418953 96.209365 
L 249.791073 91.271141 
L 250.163193 86.562627 
L 250.535313 82.130826 
" clip-path="url(#pd7d151a081)" style="fill: none; stroke: #008000; stroke-width: 1.5; stroke-linecap: square"/>
   </g>
   <g id="line2d_60">
    <path d="M 250.551546 68.509188 
L 250.923665 68.509188 
L 251.295785 68.509188 
L 251.667905 68.509188 
L 252.040025 68.509188 
L 252.412145 68.509188 
L 252.784265 68.509188 
L 253.156385 68.509188 
L 253.528504 68.509188 
L 253.900624 68.509188 
L 254.272744 68.509188 
L 254.644864 68.509188 
" clip-path="url(#pd7d151a081)" style="fill: none; stroke: #008000; stroke-width: 1.5; stroke-linecap: square"/>
   </g>
   <g id="line2d_61">
    <path d="M 254.661097 85.989721 
L 255.033217 90.975923 
L 255.405337 96.186313 
L 255.777456 101.570704 
L 256.149576 107.08325 
L 256.521696 112.682438 
L 256.893816 118.331093 
L 257.265936 123.996374 
L 257.638056 129.649778 
L 258.010176 135.267137 
L 258.382295 140.82862 
L 258.754415 146.318732 
" clip-path="url(#pd7d151a081)" style="fill: none; stroke: #008000; stroke-width: 1.5; stroke-linecap: square"/>
   </g>
   <g id="line2d_62">
    <path d="M 258.770648 144.450867 
L 259.142768 149.922034 
L 259.514888 155.43056 
L 259.887008 160.967684 
L 260.259127 166.524736 
L 260.631247 172.093136 
L 261.003367 177.66439 
L 261.375487 183.230098 
L 261.747607 188.781945 
L 262.119727 194.31171 
L 262.491847 199.811259 
L 262.863966 205.272547 
" clip-path="url(#pd7d151a081)" style="fill: none; stroke: #008000; stroke-width: 1.5; stroke-linecap: square"/>
   </g>
   <g id="line2d_63">
    <path d="M 262.880199 204.715893 
L 263.252319 210.154173 
L 263.624439 215.585883 
L 263.996559 221.000816 
L 264.368679 226.38725 
L 264.740799 231.731954 
L 265.112918 237.020184 
L 265.485038 242.235687 
L 265.857158 247.360693 
L 266.229278 252.375926 
L 266.601398 257.260595 
L 266.973518 261.992398 
" clip-path="url(#pd7d151a081)" style="fill: none; stroke: #008000; stroke-width: 1.5; stroke-linecap: square"/>
   </g>
   <g id="line2d_64">
    <path d="M 266.98975 277.852447 
L 267.36187 278.709746 
L 267.73399 279.567044 
L 268.10611 280.424343 
L 268.47823 281.281642 
L 268.85035 282.138941 
L 269.22247 282.996239 
L 269.594589 283.853538 
L 269.966709 284.710837 
L 270.338829 285.568135 
L 270.710949 286.425434 
L 271.083069 287.282733 
" clip-path="url(#pd7d151a081)" style="fill: none; stroke: #008000; stroke-width: 1.5; stroke-linecap: square"/>
   </g>
   <g id="line2d_65">
    <path d="M 271.099302 287.83688 
L 271.471421 287.908793 
L 271.843541 287.880366 
L 272.215661 287.777083 
L 272.587781 287.62212 
L 272.959901 287.436347 
L 273.332021 287.238328 
L 273.704141 287.044316 
L 274.076261 286.868261 
L 274.44838 286.721801 
L 274.8205 286.614272 
L 275.19262 286.552698 
" clip-path="url(#pd7d151a081)" style="fill: none; stroke: #008000; stroke-width: 1.5; stroke-linecap: square"/>
   </g>
   <g id="line2d_66">
    <path d="M 275.208853 287.537342 
L 275.580973 287.497169 
L 275.953093 287.45069 
L 276.325212 287.400937 
L 276.697332 287.350621 
L 277.069452 287.302136 
L 277.441572 287.257558 
L 277.813692 287.218645 
L 278.185812 287.186834 
L 278.557932 287.163248 
L 278.930051 287.148688 
L 279.302171 287.143639 
" clip-path="url(#pd7d151a081)" style="fill: none; stroke: #008000; stroke-width: 1.5; stroke-linecap: square"/>
   </g>
   <g id="line2d_67">
    <path d="M 279.318404 287.301432 
L 279.690524 287.301432 
L 280.062644 287.301432 
L 280.434764 287.301432 
L 280.806883 287.301432 
L 281.179003 287.301432 
L 281.551123 287.301432 
L 281.923243 287.301432 
L 282.295363 287.301432 
L 282.667483 287.301432 
L 283.039603 287.301432 
L 283.411723 287.301432 
" clip-path="url(#pd7d151a081)" style="fill: none; stroke: #008000; stroke-width: 1.5; stroke-linecap: square"/>
   </g>
   <g id="line2d_68">
    <path d="M 283.427955 287.301432 
L 283.800075 287.301432 
L 284.172195 287.301432 
L 284.544315 287.301432 
L 284.916435 287.301432 
L 285.288555 287.301432 
L 285.660674 287.301432 
L 286.032794 287.301432 
L 286.404914 287.301432 
L 286.777034 287.301432 
L 287.149154 287.301432 
L 287.521274 287.301432 
" clip-path="url(#pd7d151a081)" style="fill: none; stroke: #008000; stroke-width: 1.5; stroke-linecap: square"/>
   </g>
   <g id="line2d_69">
    <path d="M 287.537506 287.301432 
L 287.909626 287.301432 
L 288.281746 287.301432 
L 288.653866 287.301432 
L 289.025986 287.301432 
L 289.398106 287.301432 
L 289.770226 287.301432 
L 290.142346 287.301432 
L 290.514465 287.301432 
L 290.886585 287.301432 
L 291.258705 287.301432 
L 291.630825 287.301432 
" clip-path="url(#pd7d151a081)" style="fill: none; stroke: #008000; stroke-width: 1.5; stroke-linecap: square"/>
   </g>
   <g id="line2d_70">
    <path d="M 291.647058 285.230355 
L 292.019178 285.296624 
L 292.391297 285.487727 
L 292.763417 285.797307 
L 293.135537 286.214829 
L 293.507657 286.725583 
L 293.879777 287.31068 
L 294.251897 287.947056 
L 294.624017 288.607467 
L 294.996136 289.260495 
L 295.368256 289.870542 
L 295.740376 290.397836 
" clip-path="url(#pd7d151a081)" style="fill: none; stroke: #008000; stroke-width: 1.5; stroke-linecap: square"/>
   </g>
   <g id="line2d_71">
    <path d="M 295.756609 295.248561 
L 296.128729 295.488 
L 296.500849 295.259268 
L 296.872968 294.524703 
L 297.245088 293.252209 
L 297.617208 291.415253 
L 297.989328 288.99287 
L 298.361448 285.969656 
L 298.733568 282.335776 
L 299.105688 278.086958 
L 299.477808 273.224494 
L 299.849927 267.755243 
" clip-path="url(#pd7d151a081)" style="fill: none; stroke: #008000; stroke-width: 1.5; stroke-linecap: square"/>
   </g>
   <g id="line2d_72">
    <path d="M 299.86616 266.443467 
L 300.23828 258.938878 
L 300.6104 251.434288 
L 300.98252 243.929699 
L 301.35464 236.42511 
L 301.726759 228.920521 
L 302.098879 221.415932 
L 302.470999 213.911343 
L 302.843119 206.406754 
L 303.215239 198.902165 
L 303.587359 191.397576 
L 303.959479 183.892987 
" clip-path="url(#pd7d151a081)" style="fill: none; stroke: #008000; stroke-width: 1.5; stroke-linecap: square"/>
   </g>
   <g id="line2d_73">
    <path d="M 303.975711 166.836187 
L 304.347831 156.885831 
L 304.719951 147.37493 
L 305.092071 138.365077 
L 305.464191 129.908417 
L 305.836311 122.047642 
L 306.20843 114.815991 
L 306.58055 108.237253 
L 306.95267 102.325766 
L 307.32479 97.086415 
L 307.69691 92.514632 
L 308.06903 88.596401 
" clip-path="url(#pd7d151a081)" style="fill: none; stroke: #008000; stroke-width: 1.5; stroke-linecap: square"/>
   </g>
   <g id="line2d_74">
    <path d="M 308.085263 94.193753 
L 308.457382 90.748304 
L 308.829502 87.551561 
L 309.201622 84.578398 
L 309.573742 81.805844 
L 309.945862 79.21308 
L 310.317982 76.781439 
L 310.690102 74.494409 
L 311.062221 72.337629 
L 311.434341 70.298893 
L 311.806461 68.368146 
L 312.178581 66.537488 
" clip-path="url(#pd7d151a081)" style="fill: none; stroke: #008000; stroke-width: 1.5; stroke-linecap: square"/>
   </g>
   <g id="line2d_75">
    <path d="M 312.194814 65.570698 
L 312.566934 63.866847 
L 312.939053 62.307225 
L 313.311173 60.887755 
L 313.683293 59.604719 
L 314.055413 58.454759 
L 314.427533 57.434878 
L 314.799653 56.542438 
L 315.171773 55.775159 
L 315.543892 55.131125 
L 315.916012 54.608775 
L 316.288132 54.206911 
" clip-path="url(#pd7d151a081)" style="fill: none; stroke: #008000; stroke-width: 1.5; stroke-linecap: square"/>
   </g>
   <g id="line2d_76">
    <path d="M 316.304365 54.140806 
L 316.676485 53.865435 
L 317.048605 53.712312 
L 317.420725 53.681173 
L 317.792844 53.772014 
L 318.164964 53.985085 
L 318.537084 54.320894 
L 318.909204 54.780204 
L 319.281324 55.364035 
L 319.653444 56.073664 
L 320.025564 56.910622 
L 320.397683 57.876698 
" clip-path="url(#pd7d151a081)" style="fill: none; stroke: #008000; stroke-width: 1.5; stroke-linecap: square"/>
   </g>
   <g id="line2d_77">
    <path d="M 320.413916 58.167261 
L 320.786036 59.262419 
L 321.158156 60.476352 
L 321.530276 61.812384 
L 321.902396 63.274587 
L 322.274515 64.867787 
L 322.646635 66.597558 
L 323.018755 68.470229 
L 323.390875 70.492878 
L 323.762995 72.673336 
L 324.135115 75.020182 
L 324.507235 77.542751 
" clip-path="url(#pd7d151a081)" style="fill: none; stroke: #008000; stroke-width: 1.5; stroke-linecap: square"/>
   </g>
   <g id="line2d_78">
    <path d="M 324.523467 77.597705 
L 324.895587 80.316322 
L 325.267707 83.23564 
L 325.639827 86.367099 
L 326.011947 89.722765 
L 326.384067 93.315342 
L 326.756187 97.158162 
L 327.128306 101.265191 
L 327.500426 105.651024 
L 327.872546 110.33089 
L 328.244666 115.320651 
L 328.616786 120.636798 
" clip-path="url(#pd7d151a081)" style="fill: none; stroke: #008000; stroke-width: 1.5; stroke-linecap: square"/>
   </g>
   <g id="line2d_79">
    <path d="M 328.633019 114.273596 
L 329.005138 120.159911 
L 329.377258 126.806263 
L 329.749378 134.210802 
L 330.121498 142.358991 
L 330.493618 151.22361 
L 330.865738 160.764752 
L 331.237858 170.929825 
L 331.609977 181.653553 
L 331.982097 192.857973 
L 332.354217 204.452438 
L 332.726337 216.333615 
" clip-path="url(#pd7d151a081)" style="fill: none; stroke: #008000; stroke-width: 1.5; stroke-linecap: square"/>
   </g>
   <g id="line2d_80">
    <path d="M 332.74257 268.310358 
L 333.11469 270.033403 
L 333.486809 271.756448 
L 333.858929 273.479493 
L 334.231049 275.202537 
L 334.603169 276.925582 
L 334.975289 278.648627 
L 335.347409 280.371671 
L 335.719529 282.094716 
L 336.091649 283.817761 
L 336.463768 285.540805 
L 336.835888 287.26385 
" clip-path="url(#pd7d151a081)" style="fill: none; stroke: #008000; stroke-width: 1.5; stroke-linecap: square"/>
   </g>
   <g id="line2d_81">
    <path d="M 336.852121 289.430776 
L 337.224241 289.395965 
L 337.596361 289.131336 
L 337.968481 288.701639 
L 338.3406 288.165562 
L 338.71272 287.575738 
L 339.08484 286.97874 
L 339.45696 286.415084 
L 339.82908 285.919227 
L 340.2012 285.519569 
L 340.57332 285.238451 
L 340.945439 285.092157 
" clip-path="url(#pd7d151a081)" style="fill: none; stroke: #008000; stroke-width: 1.5; stroke-linecap: square"/>
   </g>
   <g id="line2d_82">
    <path d="M 340.961672 287.775577 
L 341.333792 287.694834 
L 341.705912 287.601419 
L 342.078032 287.501422 
L 342.450152 287.400295 
L 342.822271 287.302848 
L 343.194391 287.213253 
L 343.566511 287.135042 
L 343.938631 287.071108 
L 344.310751 287.023703 
L 344.682871 286.99444 
L 345.054991 286.984292 
" clip-path="url(#pd7d151a081)" style="fill: none; stroke: #008000; stroke-width: 1.5; stroke-linecap: square"/>
   </g>
   <g id="line2d_83">
    <path d="M 345.071223 287.301432 
L 345.443343 287.301432 
L 345.815463 287.301432 
L 346.187583 287.301432 
L 346.559703 287.301432 
L 346.931823 287.301432 
L 347.303943 287.301432 
L 347.676062 287.301432 
L 348.048182 287.301432 
L 348.420302 287.301432 
L 348.792422 287.301432 
L 349.164542 287.301432 
" clip-path="url(#pd7d151a081)" style="fill: none; stroke: #008000; stroke-width: 1.5; stroke-linecap: square"/>
   </g>
   <g id="line2d_84">
    <path d="M 349.180775 287.301432 
L 349.552894 287.301432 
L 349.925014 287.301432 
L 350.297134 287.301432 
L 350.669254 287.301432 
L 351.041374 287.301432 
L 351.413494 287.301432 
L 351.785614 287.301432 
L 352.157733 287.301432 
L 352.529853 287.301432 
L 352.901973 287.301432 
L 353.274093 287.301432 
" clip-path="url(#pd7d151a081)" style="fill: none; stroke: #008000; stroke-width: 1.5; stroke-linecap: square"/>
   </g>
   <g id="line2d_85">
    <path d="M 353.290326 287.301432 
L 353.662446 287.301432 
L 354.034566 287.301432 
L 354.406685 287.301432 
L 354.778805 287.301432 
L 355.150925 287.301432 
L 355.523045 287.301432 
L 355.895165 287.301432 
L 356.267285 287.301432 
L 356.639405 287.301432 
L 357.011524 287.301432 
L 357.383644 287.301432 
" clip-path="url(#pd7d151a081)" style="fill: none; stroke: #008000; stroke-width: 1.5; stroke-linecap: square"/>
   </g>
   <g id="line2d_86">
    <path d="M 357.399877 287.301432 
L 357.771997 287.301432 
L 358.144117 287.301432 
L 358.516237 287.301432 
L 358.888356 287.301432 
L 359.260476 287.301432 
L 359.632596 287.301432 
L 360.004716 287.301432 
L 360.376836 287.301432 
L 360.748956 287.301432 
L 361.121076 287.301432 
L 361.493195 287.301432 
" clip-path="url(#pd7d151a081)" style="fill: none; stroke: #008000; stroke-width: 1.5; stroke-linecap: square"/>
   </g>
   <g id="line2d_87">
    <path d="M 361.509428 287.301432 
L 361.881548 287.301432 
L 362.253668 287.301432 
L 362.625788 287.301432 
L 362.997908 287.301432 
L 363.370028 287.301432 
L 363.742147 287.301432 
L 364.114267 287.301432 
L 364.486387 287.301432 
L 364.858507 287.301432 
L 365.230627 287.301432 
L 365.602747 287.301432 
" clip-path="url(#pd7d151a081)" style="fill: none; stroke: #008000; stroke-width: 1.5; stroke-linecap: square"/>
   </g>
   <g id="line2d_88">
    <path d="M 365.618979 287.301432 
L 365.991099 287.301432 
L 366.363219 287.301432 
L 366.735339 287.301432 
L 367.107459 287.301432 
L 367.479579 287.301432 
L 367.851699 287.301432 
L 368.223818 287.301432 
L 368.595938 287.301432 
L 368.968058 287.301432 
L 369.340178 287.301432 
L 369.712298 287.301432 
" clip-path="url(#pd7d151a081)" style="fill: none; stroke: #008000; stroke-width: 1.5; stroke-linecap: square"/>
   </g>
   <g id="line2d_89">
    <path d="M 369.728531 287.301432 
L 370.10065 287.301432 
L 370.47277 287.301432 
L 370.84489 287.301432 
L 371.21701 287.301432 
L 371.58913 287.301432 
L 371.96125 287.301432 
L 372.33337 287.301432 
L 372.70549 287.301432 
L 373.077609 287.301432 
L 373.449729 287.301432 
L 373.821849 287.301432 
" clip-path="url(#pd7d151a081)" style="fill: none; stroke: #008000; stroke-width: 1.5; stroke-linecap: square"/>
   </g>
   <g id="line2d_90">
    <path d="M 373.838082 287.301432 
L 374.210202 287.301432 
L 374.582322 287.301432 
L 374.954441 287.301432 
L 375.326561 287.301432 
L 375.698681 287.301432 
L 376.070801 287.301432 
L 376.442921 287.301432 
L 376.815041 287.301432 
L 377.187161 287.301432 
L 377.55928 287.301432 
L 377.9314 287.301432 
" clip-path="url(#pd7d151a081)" style="fill: none; stroke: #008000; stroke-width: 1.5; stroke-linecap: square"/>
   </g>
   <g id="line2d_91">
    <path d="M 377.947633 287.301432 
L 378.319753 287.301432 
L 378.691873 287.301432 
L 379.063993 287.301432 
L 379.436112 287.301432 
L 379.808232 287.301432 
L 380.180352 287.301432 
L 380.552472 287.301432 
L 380.924592 287.301432 
L 381.296712 287.301432 
L 381.668832 287.301432 
L 382.040952 287.301432 
" clip-path="url(#pd7d151a081)" style="fill: none; stroke: #008000; stroke-width: 1.5; stroke-linecap: square"/>
   </g>
   <g id="line2d_92">
    <path d="M 382.057184 287.301432 
L 382.429304 287.301432 
L 382.801424 287.301432 
L 383.173544 287.301432 
L 383.545664 287.301432 
L 383.917784 287.301432 
L 384.289903 287.301432 
L 384.662023 287.301432 
L 385.034143 287.301432 
L 385.406263 287.301432 
L 385.778383 287.301432 
L 386.150503 287.301432 
" clip-path="url(#pd7d151a081)" style="fill: none; stroke: #008000; stroke-width: 1.5; stroke-linecap: square"/>
   </g>
   <g id="line2d_93">
    <path d="M 386.166735 287.301432 
L 386.538855 287.301432 
L 386.910975 287.301432 
L 387.283095 287.301432 
L 387.655215 287.301432 
L 388.027335 287.301432 
L 388.399455 287.301432 
L 388.771574 287.301432 
L 389.143694 287.301432 
L 389.515814 287.301432 
L 389.887934 287.301432 
L 390.260054 287.301432 
" clip-path="url(#pd7d151a081)" style="fill: none; stroke: #008000; stroke-width: 1.5; stroke-linecap: square"/>
   </g>
   <g id="line2d_94">
    <path d="M 390.276287 287.301432 
L 390.648407 287.301432 
L 391.020526 287.301432 
L 391.392646 287.301432 
L 391.764766 287.301432 
L 392.136886 287.301432 
L 392.509006 287.301432 
L 392.881126 287.301432 
L 393.253246 287.301432 
L 393.625365 287.301432 
L 393.997485 287.301432 
L 394.369605 287.301432 
" clip-path="url(#pd7d151a081)" style="fill: none; stroke: #008000; stroke-width: 1.5; stroke-linecap: square"/>
   </g>
   <g id="line2d_95">
    <path d="M 394.385838 287.301432 
L 394.757958 287.301432 
L 395.130078 287.301432 
L 395.502197 287.301432 
L 395.874317 287.301432 
L 396.246437 287.301432 
L 396.618557 287.301432 
L 396.990677 287.301432 
L 397.362797 287.301432 
L 397.734917 287.301432 
L 398.107037 287.301432 
L 398.479156 287.301432 
" clip-path="url(#pd7d151a081)" style="fill: none; stroke: #008000; stroke-width: 1.5; stroke-linecap: square"/>
   </g>
   <g id="patch_3">
    <path d="M 57.6 307.584 
L 57.6 41.472 
" style="fill: none; stroke: #000000; stroke-width: 0.8; stroke-linejoin: miter; stroke-linecap: square"/>
   </g>
   <g id="patch_4">
    <path d="M 414.72 307.584 
L 414.72 41.472 
" style="fill: none; stroke: #000000; stroke-width: 0.8; stroke-linejoin: miter; stroke-linecap: square"/>
   </g>
   <g id="patch_5">
    <path d="M 57.6 307.584 
L 414.72 307.584 
" style="fill: none; stroke: #000000; stroke-width: 0.8; stroke-linejoin: miter; stroke-linecap: square"/>
   </g>
   <g id="patch_6">
    <path d="M 57.6 41.472 
L 414.72 41.472 
" style="fill: none; stroke: #000000; stroke-width: 0.8; stroke-linejoin: miter; stroke-linecap: square"/>
   </g>
   <g id="legend_1">
    <g id="patch_7">
     <path d="M 64.6 93.906375 
L 210.795312 93.906375 
Q 212.795312 93.906375 212.795312 91.906375 
L 212.795312 48.472 
Q 212.795312 46.472 210.795312 46.472 
L 64.6 46.472 
Q 62.6 46.472 62.6 48.472 
L 62.6 91.906375 
Q 62.6 93.906375 64.6 93.906375 
z
" style="fill: #ffffff; opacity: 0.8; stroke: #cccccc; stroke-linejoin: miter"/>
    </g>
    <g id="line2d_96">
     <path d="M 66.6 54.570437 
L 76.6 54.570437 
L 86.6 54.570437 
" style="fill: none; stroke: #0000ff; stroke-width: 1.5; stroke-linecap: square"/>
    </g>
    <g id="text_18">
     <!-- Původní funkce -->
     <g transform="translate(94.6 58.070437)scale(0.1 -0.1)">
      <defs>
       <path id="DejaVuSans-50" d="M 1259 4147 
L 1259 2394 
L 2053 2394 
Q 2494 2394 2734 2622 
Q 2975 2850 2975 3272 
Q 2975 3691 2734 3919 
Q 2494 4147 2053 4147 
L 1259 4147 
z
M 628 4666 
L 2053 4666 
Q 2838 4666 3239 4311 
Q 3641 3956 3641 3272 
Q 3641 2581 3239 2228 
Q 2838 1875 2053 1875 
L 1259 1875 
L 1259 0 
L 628 0 
L 628 4666 
z
" transform="scale(0.015625)"/>
       <path id="DejaVuSans-16f" d="M 544 1381 
L 544 3500 
L 1119 3500 
L 1119 1403 
Q 1119 906 1312 657 
Q 1506 409 1894 409 
Q 2359 409 2629 706 
Q 2900 1003 2900 1516 
L 2900 3500 
L 3475 3500 
L 3475 0 
L 2900 0 
L 2900 538 
Q 2691 219 2414 64 
Q 2138 -91 1772 -91 
Q 1169 -91 856 284 
Q 544 659 544 1381 
z
M 1991 3584 
L 1991 3584 
z
M 2463 4575 
Q 2463 4771 2325 4908 
Q 2188 5046 1988 5046 
Q 1784 5046 1648 4910 
Q 1513 4775 1513 4575 
Q 1513 4371 1648 4235 
Q 1784 4100 1988 4100 
Q 2188 4100 2325 4237 
Q 2463 4375 2463 4575 
z
M 2844 4575 
Q 2844 4215 2595 3965 
Q 2347 3715 1988 3715 
Q 1628 3715 1379 3965 
Q 1131 4215 1131 4575 
Q 1131 4934 1379 5182 
Q 1628 5431 1988 5431 
Q 2347 5431 2595 5182 
Q 2844 4934 2844 4575 
z
" transform="scale(0.015625)"/>
       <path id="DejaVuSans-76" d="M 191 3500 
L 800 3500 
L 1894 563 
L 2988 3500 
L 3597 3500 
L 2284 0 
L 1503 0 
L 191 3500 
z
" transform="scale(0.015625)"/>
       <path id="DejaVuSans-6f" d="M 1959 3097 
Q 1497 3097 1228 2736 
Q 959 2375 959 1747 
Q 959 1119 1226 758 
Q 1494 397 1959 397 
Q 2419 397 2687 759 
Q 2956 1122 2956 1747 
Q 2956 2369 2687 2733 
Q 2419 3097 1959 3097 
z
M 1959 3584 
Q 2709 3584 3137 3096 
Q 3566 2609 3566 1747 
Q 3566 888 3137 398 
Q 2709 -91 1959 -91 
Q 1206 -91 779 398 
Q 353 888 353 1747 
Q 353 2609 779 3096 
Q 1206 3584 1959 3584 
z
" transform="scale(0.015625)"/>
       <path id="DejaVuSans-64" d="M 2906 2969 
L 2906 4863 
L 3481 4863 
L 3481 0 
L 2906 0 
L 2906 525 
Q 2725 213 2448 61 
Q 2172 -91 1784 -91 
Q 1150 -91 751 415 
Q 353 922 353 1747 
Q 353 2572 751 3078 
Q 1150 3584 1784 3584 
Q 2172 3584 2448 3432 
Q 2725 3281 2906 2969 
z
M 947 1747 
Q 947 1113 1208 752 
Q 1469 391 1925 391 
Q 2381 391 2643 752 
Q 2906 1113 2906 1747 
Q 2906 2381 2643 2742 
Q 2381 3103 1925 3103 
Q 1469 3103 1208 2742 
Q 947 2381 947 1747 
z
" transform="scale(0.015625)"/>
       <path id="DejaVuSans-6e" d="M 3513 2113 
L 3513 0 
L 2938 0 
L 2938 2094 
Q 2938 2591 2744 2837 
Q 2550 3084 2163 3084 
Q 1697 3084 1428 2787 
Q 1159 2491 1159 1978 
L 1159 0 
L 581 0 
L 581 3500 
L 1159 3500 
L 1159 2956 
Q 1366 3272 1645 3428 
Q 1925 3584 2291 3584 
Q 2894 3584 3203 3211 
Q 3513 2838 3513 2113 
z
" transform="scale(0.015625)"/>
       <path id="DejaVuSans-ed" d="M 1325 5119 
L 1947 5119 
L 928 3944 
L 450 3944 
L 1325 5119 
z
M 603 3500 
L 1178 3500 
L 1178 0 
L 603 0 
L 603 3500 
z
M 891 3584 
L 891 3584 
z
" transform="scale(0.015625)"/>
       <path id="DejaVuSans-20" transform="scale(0.015625)"/>
       <path id="DejaVuSans-66" d="M 2375 4863 
L 2375 4384 
L 1825 4384 
Q 1516 4384 1395 4259 
Q 1275 4134 1275 3809 
L 1275 3500 
L 2222 3500 
L 2222 3053 
L 1275 3053 
L 1275 0 
L 697 0 
L 697 3053 
L 147 3053 
L 147 3500 
L 697 3500 
L 697 3744 
Q 697 4328 969 4595 
Q 1241 4863 1831 4863 
L 2375 4863 
z
" transform="scale(0.015625)"/>
       <path id="DejaVuSans-75" d="M 544 1381 
L 544 3500 
L 1119 3500 
L 1119 1403 
Q 1119 906 1312 657 
Q 1506 409 1894 409 
Q 2359 409 2629 706 
Q 2900 1003 2900 1516 
L 2900 3500 
L 3475 3500 
L 3475 0 
L 2900 0 
L 2900 538 
Q 2691 219 2414 64 
Q 2138 -91 1772 -91 
Q 1169 -91 856 284 
Q 544 659 544 1381 
z
M 1991 3584 
L 1991 3584 
z
" transform="scale(0.015625)"/>
       <path id="DejaVuSans-6b" d="M 581 4863 
L 1159 4863 
L 1159 1991 
L 2875 3500 
L 3609 3500 
L 1753 1863 
L 3688 0 
L 2938 0 
L 1159 1709 
L 1159 0 
L 581 0 
L 581 4863 
z
" transform="scale(0.015625)"/>
       <path id="DejaVuSans-63" d="M 3122 3366 
L 3122 2828 
Q 2878 2963 2633 3030 
Q 2388 3097 2138 3097 
Q 1578 3097 1268 2742 
Q 959 2388 959 1747 
Q 959 1106 1268 751 
Q 1578 397 2138 397 
Q 2388 397 2633 464 
Q 2878 531 3122 666 
L 3122 134 
Q 2881 22 2623 -34 
Q 2366 -91 2075 -91 
Q 1284 -91 818 406 
Q 353 903 353 1747 
Q 353 2603 823 3093 
Q 1294 3584 2113 3584 
Q 2378 3584 2631 3529 
Q 2884 3475 3122 3366 
z
" transform="scale(0.015625)"/>
       <path id="DejaVuSans-65" d="M 3597 1894 
L 3597 1613 
L 953 1613 
Q 991 1019 1311 708 
Q 1631 397 2203 397 
Q 2534 397 2845 478 
Q 3156 559 3463 722 
L 3463 178 
Q 3153 47 2828 -22 
Q 2503 -91 2169 -91 
Q 1331 -91 842 396 
Q 353 884 353 1716 
Q 353 2575 817 3079 
Q 1281 3584 2069 3584 
Q 2775 3584 3186 3129 
Q 3597 2675 3597 1894 
z
M 3022 2063 
Q 3016 2534 2758 2815 
Q 2500 3097 2075 3097 
Q 1594 3097 1305 2825 
Q 1016 2553 972 2059 
L 3022 2063 
z
" transform="scale(0.015625)"/>
      </defs>
      <use xlink:href="#DejaVuSans-50"/>
      <use xlink:href="#DejaVuSans-16f" x="58.552734"/>
      <use xlink:href="#DejaVuSans-76" x="121.931641"/>
      <use xlink:href="#DejaVuSans-6f" x="181.111328"/>
      <use xlink:href="#DejaVuSans-64" x="242.292969"/>
      <use xlink:href="#DejaVuSans-6e" x="305.769531"/>
      <use xlink:href="#DejaVuSans-ed" x="369.148438"/>
      <use xlink:href="#DejaVuSans-20" x="396.931641"/>
      <use xlink:href="#DejaVuSans-66" x="428.71875"/>
      <use xlink:href="#DejaVuSans-75" x="463.923828"/>
      <use xlink:href="#DejaVuSans-6e" x="527.302734"/>
      <use xlink:href="#DejaVuSans-6b" x="590.681641"/>
      <use xlink:href="#DejaVuSans-63" x="648.591797"/>
      <use xlink:href="#DejaVuSans-65" x="703.572266"/>
     </g>
    </g>
    <g id="PathCollection_2">
     <g>
      <use xlink:href="#m5e25cda909" x="76.6" y="70.523562" style="fill: #228b22; stroke: #228b22"/>
     </g>
    </g>
    <g id="text_19">
     <!-- Střední hodnoty buněk -->
     <g transform="translate(94.6 73.148562)scale(0.1 -0.1)">
      <defs>
       <path id="DejaVuSans-53" d="M 3425 4513 
L 3425 3897 
Q 3066 4069 2747 4153 
Q 2428 4238 2131 4238 
Q 1616 4238 1336 4038 
Q 1056 3838 1056 3469 
Q 1056 3159 1242 3001 
Q 1428 2844 1947 2747 
L 2328 2669 
Q 3034 2534 3370 2195 
Q 3706 1856 3706 1288 
Q 3706 609 3251 259 
Q 2797 -91 1919 -91 
Q 1588 -91 1214 -16 
Q 841 59 441 206 
L 441 856 
Q 825 641 1194 531 
Q 1563 422 1919 422 
Q 2459 422 2753 634 
Q 3047 847 3047 1241 
Q 3047 1584 2836 1778 
Q 2625 1972 2144 2069 
L 1759 2144 
Q 1053 2284 737 2584 
Q 422 2884 422 3419 
Q 422 4038 858 4394 
Q 1294 4750 2059 4750 
Q 2388 4750 2728 4690 
Q 3069 4631 3425 4513 
z
" transform="scale(0.015625)"/>
       <path id="DejaVuSans-74" d="M 1172 4494 
L 1172 3500 
L 2356 3500 
L 2356 3053 
L 1172 3053 
L 1172 1153 
Q 1172 725 1289 603 
Q 1406 481 1766 481 
L 2356 481 
L 2356 0 
L 1766 0 
Q 1100 0 847 248 
Q 594 497 594 1153 
L 594 3053 
L 172 3053 
L 172 3500 
L 594 3500 
L 594 4494 
L 1172 4494 
z
" transform="scale(0.015625)"/>
       <path id="DejaVuSans-159" d="M 2631 2963 
Q 2534 3019 2420 3045 
Q 2306 3072 2169 3072 
Q 1681 3072 1420 2755 
Q 1159 2438 1159 1844 
L 1159 0 
L 581 0 
L 581 3500 
L 1159 3500 
L 1159 2956 
Q 1341 3275 1631 3429 
Q 1922 3584 2338 3584 
Q 2397 3584 2469 3576 
Q 2541 3569 2628 3553 
L 2631 2963 
z
M 1453 3944 
L 688 5119 
L 1122 5119 
L 1684 4353 
L 2247 5119 
L 2681 5119 
L 1916 3944 
L 1453 3944 
z
" transform="scale(0.015625)"/>
       <path id="DejaVuSans-68" d="M 3513 2113 
L 3513 0 
L 2938 0 
L 2938 2094 
Q 2938 2591 2744 2837 
Q 2550 3084 2163 3084 
Q 1697 3084 1428 2787 
Q 1159 2491 1159 1978 
L 1159 0 
L 581 0 
L 581 4863 
L 1159 4863 
L 1159 2956 
Q 1366 3272 1645 3428 
Q 1925 3584 2291 3584 
Q 2894 3584 3203 3211 
Q 3513 2838 3513 2113 
z
" transform="scale(0.015625)"/>
       <path id="DejaVuSans-79" d="M 2059 -325 
Q 1816 -950 1584 -1140 
Q 1353 -1331 966 -1331 
L 506 -1331 
L 506 -850 
L 844 -850 
Q 1081 -850 1212 -737 
Q 1344 -625 1503 -206 
L 1606 56 
L 191 3500 
L 800 3500 
L 1894 763 
L 2988 3500 
L 3597 3500 
L 2059 -325 
z
" transform="scale(0.015625)"/>
       <path id="DejaVuSans-62" d="M 3116 1747 
Q 3116 2381 2855 2742 
Q 2594 3103 2138 3103 
Q 1681 3103 1420 2742 
Q 1159 2381 1159 1747 
Q 1159 1113 1420 752 
Q 1681 391 2138 391 
Q 2594 391 2855 752 
Q 3116 1113 3116 1747 
z
M 1159 2969 
Q 1341 3281 1617 3432 
Q 1894 3584 2278 3584 
Q 2916 3584 3314 3078 
Q 3713 2572 3713 1747 
Q 3713 922 3314 415 
Q 2916 -91 2278 -91 
Q 1894 -91 1617 61 
Q 1341 213 1159 525 
L 1159 0 
L 581 0 
L 581 4863 
L 1159 4863 
L 1159 2969 
z
" transform="scale(0.015625)"/>
       <path id="DejaVuSans-11b" d="M 3597 1894 
L 3597 1613 
L 953 1613 
Q 991 1019 1311 708 
Q 1631 397 2203 397 
Q 2534 397 2845 478 
Q 3156 559 3463 722 
L 3463 178 
Q 3153 47 2828 -22 
Q 2503 -91 2169 -91 
Q 1331 -91 842 396 
Q 353 884 353 1716 
Q 353 2575 817 3079 
Q 1281 3584 2069 3584 
Q 2775 3584 3186 3129 
Q 3597 2675 3597 1894 
z
M 3022 2063 
Q 3016 2534 2758 2815 
Q 2500 3097 2075 3097 
Q 1594 3097 1305 2825 
Q 1016 2553 972 2059 
L 3022 2063 
z
M 1831 3928 
L 1066 5103 
L 1500 5103 
L 2063 4337 
L 2625 5103 
L 3059 5103 
L 2294 3928 
L 1831 3928 
z
" transform="scale(0.015625)"/>
      </defs>
      <use xlink:href="#DejaVuSans-53"/>
      <use xlink:href="#DejaVuSans-74" x="63.476562"/>
      <use xlink:href="#DejaVuSans-159" x="102.685547"/>
      <use xlink:href="#DejaVuSans-65" x="141.548828"/>
      <use xlink:href="#DejaVuSans-64" x="203.072266"/>
      <use xlink:href="#DejaVuSans-6e" x="266.548828"/>
      <use xlink:href="#DejaVuSans-ed" x="329.927734"/>
      <use xlink:href="#DejaVuSans-20" x="357.710938"/>
      <use xlink:href="#DejaVuSans-68" x="389.498047"/>
      <use xlink:href="#DejaVuSans-6f" x="452.876953"/>
      <use xlink:href="#DejaVuSans-64" x="514.058594"/>
      <use xlink:href="#DejaVuSans-6e" x="577.535156"/>
      <use xlink:href="#DejaVuSans-6f" x="640.914062"/>
      <use xlink:href="#DejaVuSans-74" x="702.095703"/>
      <use xlink:href="#DejaVuSans-79" x="741.304688"/>
      <use xlink:href="#DejaVuSans-20" x="800.484375"/>
      <use xlink:href="#DejaVuSans-62" x="832.271484"/>
      <use xlink:href="#DejaVuSans-75" x="895.748047"/>
      <use xlink:href="#DejaVuSans-6e" x="959.126953"/>
      <use xlink:href="#DejaVuSans-11b" x="1022.505859"/>
      <use xlink:href="#DejaVuSans-6b" x="1084.029297"/>
     </g>
    </g>
    <g id="line2d_97">
     <path d="M 66.6 84.326687 
L 76.6 84.326687 
L 86.6 84.326687 
" style="fill: none; stroke: #008000; stroke-width: 1.5; stroke-linecap: square"/>
    </g>
    <g id="text_20">
     <!-- Rekonstrukce -->
     <g transform="translate(94.6 87.826687)scale(0.1 -0.1)">
      <defs>
       <path id="DejaVuSans-52" d="M 2841 2188 
Q 3044 2119 3236 1894 
Q 3428 1669 3622 1275 
L 4263 0 
L 3584 0 
L 2988 1197 
Q 2756 1666 2539 1819 
Q 2322 1972 1947 1972 
L 1259 1972 
L 1259 0 
L 628 0 
L 628 4666 
L 2053 4666 
Q 2853 4666 3247 4331 
Q 3641 3997 3641 3322 
Q 3641 2881 3436 2590 
Q 3231 2300 2841 2188 
z
M 1259 4147 
L 1259 2491 
L 2053 2491 
Q 2509 2491 2742 2702 
Q 2975 2913 2975 3322 
Q 2975 3731 2742 3939 
Q 2509 4147 2053 4147 
L 1259 4147 
z
" transform="scale(0.015625)"/>
       <path id="DejaVuSans-73" d="M 2834 3397 
L 2834 2853 
Q 2591 2978 2328 3040 
Q 2066 3103 1784 3103 
Q 1356 3103 1142 2972 
Q 928 2841 928 2578 
Q 928 2378 1081 2264 
Q 1234 2150 1697 2047 
L 1894 2003 
Q 2506 1872 2764 1633 
Q 3022 1394 3022 966 
Q 3022 478 2636 193 
Q 2250 -91 1575 -91 
Q 1294 -91 989 -36 
Q 684 19 347 128 
L 347 722 
Q 666 556 975 473 
Q 1284 391 1588 391 
Q 1994 391 2212 530 
Q 2431 669 2431 922 
Q 2431 1156 2273 1281 
Q 2116 1406 1581 1522 
L 1381 1569 
Q 847 1681 609 1914 
Q 372 2147 372 2553 
Q 372 3047 722 3315 
Q 1072 3584 1716 3584 
Q 2034 3584 2315 3537 
Q 2597 3491 2834 3397 
z
" transform="scale(0.015625)"/>
       <path id="DejaVuSans-72" d="M 2631 2963 
Q 2534 3019 2420 3045 
Q 2306 3072 2169 3072 
Q 1681 3072 1420 2755 
Q 1159 2438 1159 1844 
L 1159 0 
L 581 0 
L 581 3500 
L 1159 3500 
L 1159 2956 
Q 1341 3275 1631 3429 
Q 1922 3584 2338 3584 
Q 2397 3584 2469 3576 
Q 2541 3569 2628 3553 
L 2631 2963 
z
" transform="scale(0.015625)"/>
      </defs>
      <use xlink:href="#DejaVuSans-52"/>
      <use xlink:href="#DejaVuSans-65" x="64.982422"/>
      <use xlink:href="#DejaVuSans-6b" x="126.505859"/>
      <use xlink:href="#DejaVuSans-6f" x="180.791016"/>
      <use xlink:href="#DejaVuSans-6e" x="241.972656"/>
      <use xlink:href="#DejaVuSans-73" x="305.351562"/>
      <use xlink:href="#DejaVuSans-74" x="357.451172"/>
      <use xlink:href="#DejaVuSans-72" x="396.660156"/>
      <use xlink:href="#DejaVuSans-75" x="437.773438"/>
      <use xlink:href="#DejaVuSans-6b" x="501.152344"/>
      <use xlink:href="#DejaVuSans-63" x="559.0625"/>
      <use xlink:href="#DejaVuSans-65" x="614.042969"/>
     </g>
    </g>
   </g>
  </g>
 </g>
 <defs>
  <clipPath id="pd7d151a081">
   <rect x="57.6" y="41.472" width="357.12" height="266.112"/>
  </clipPath>
 </defs>
</svg>
