<?xml version="1.0" encoding="utf-8" standalone="no"?>
<!DOCTYPE svg PUBLIC "-//W3C//DTD SVG 1.1//EN"
  "http://www.w3.org/Graphics/SVG/1.1/DTD/svg11.dtd">
<svg xmlns:xlink="http://www.w3.org/1999/xlink" width="460.8pt" height="345.6pt" viewBox="0 0 460.8 345.6" xmlns="http://www.w3.org/2000/svg" version="1.1">
 <metadata>
  <rdf:RDF xmlns:dc="http://purl.org/dc/elements/1.1/" xmlns:cc="http://creativecommons.org/ns#" xmlns:rdf="http://www.w3.org/1999/02/22-rdf-syntax-ns#">
   <cc:Work>
    <dc:type rdf:resource="http://purl.org/dc/dcmitype/StillImage"/>
    <dc:date>2023-08-02T06:02:37.364781</dc:date>
    <dc:format>image/svg+xml</dc:format>
    <dc:creator>
     <cc:Agent>
      <dc:title>Matplotlib v3.5.2, https://matplotlib.org/</dc:title>
     </cc:Agent>
    </dc:creator>
   </cc:Work>
  </rdf:RDF>
 </metadata>
 <defs>
  <style type="text/css">*{stroke-linejoin: round; stroke-linecap: butt}</style>
 </defs>
 <g id="figure_1">
  <g id="patch_1">
   <path d="M 0 345.6 
L 460.8 345.6 
L 460.8 0 
L 0 0 
z
" style="fill: #ffffff"/>
  </g>
  <g id="axes_1">
   <g id="patch_2">
    <path d="M 57.6 307.584 
L 414.72 307.584 
L 414.72 41.472 
L 57.6 41.472 
z
" style="fill: #ffffff"/>
   </g>
   <g id="PathCollection_1">
    <defs>
     <path id="m3a518b90d7" d="M 0 3 
C 0.795609 3 1.55874 2.683901 2.12132 2.12132 
C 2.683901 1.55874 3 0.795609 3 0 
C 3 -0.795609 2.683901 -1.55874 2.12132 -2.12132 
C 1.55874 -2.683901 0.795609 -3 0 -3 
C -0.795609 -3 -1.55874 -2.683901 -2.12132 -2.12132 
C -2.683901 -1.55874 -3 -0.795609 -3 0 
C -3 0.795609 -2.683901 1.55874 -2.12132 2.12132 
C -1.55874 2.683901 -0.795609 3 0 3 
z
" style="stroke: #228b22"/>
    </defs>
    <g clip-path="url(#p543bf6a615)">
     <use xlink:href="#m3a518b90d7" x="75.887503" y="280.684378" style="fill: #228b22; stroke: #228b22"/>
     <use xlink:href="#m3a518b90d7" x="79.997054" y="280.979228" style="fill: #228b22; stroke: #228b22"/>
     <use xlink:href="#m3a518b90d7" x="84.106605" y="281.054696" style="fill: #228b22; stroke: #228b22"/>
     <use xlink:href="#m3a518b90d7" x="88.216157" y="279.684456" style="fill: #228b22; stroke: #228b22"/>
     <use xlink:href="#m3a518b90d7" x="92.325708" y="278.329031" style="fill: #228b22; stroke: #228b22"/>
     <use xlink:href="#m3a518b90d7" x="96.435259" y="281.567876" style="fill: #228b22; stroke: #228b22"/>
     <use xlink:href="#m3a518b90d7" x="100.54481" y="289.482941" style="fill: #228b22; stroke: #228b22"/>
     <use xlink:href="#m3a518b90d7" x="104.654361" y="291.076156" style="fill: #228b22; stroke: #228b22"/>
     <use xlink:href="#m3a518b90d7" x="108.763913" y="270.722803" style="fill: #228b22; stroke: #228b22"/>
     <use xlink:href="#m3a518b90d7" x="112.873464" y="224.605631" style="fill: #228b22; stroke: #228b22"/>
     <use xlink:href="#m3a518b90d7" x="116.983015" y="170.026258" style="fill: #228b22; stroke: #228b22"/>
     <use xlink:href="#m3a518b90d7" x="121.092566" y="135.856021" style="fill: #228b22; stroke: #228b22"/>
     <use xlink:href="#m3a518b90d7" x="125.202117" y="141.388492" style="fill: #228b22; stroke: #228b22"/>
     <use xlink:href="#m3a518b90d7" x="129.311669" y="182.367052" style="fill: #228b22; stroke: #228b22"/>
     <use xlink:href="#m3a518b90d7" x="133.42122" y="235.579988" style="fill: #228b22; stroke: #228b22"/>
     <use xlink:href="#m3a518b90d7" x="137.530771" y="276.353473" style="fill: #228b22; stroke: #228b22"/>
     <use xlink:href="#m3a518b90d7" x="141.640322" y="293.639388" style="fill: #228b22; stroke: #228b22"/>
     <use xlink:href="#m3a518b90d7" x="145.749873" y="292.337758" style="fill: #228b22; stroke: #228b22"/>
     <use xlink:href="#m3a518b90d7" x="149.859425" y="284.572386" style="fill: #228b22; stroke: #228b22"/>
     <use xlink:href="#m3a518b90d7" x="153.968976" y="279.301717" style="fill: #228b22; stroke: #228b22"/>
     <use xlink:href="#m3a518b90d7" x="158.078527" y="278.305937" style="fill: #228b22; stroke: #228b22"/>
     <use xlink:href="#m3a518b90d7" x="162.188078" y="278.964166" style="fill: #228b22; stroke: #228b22"/>
     <use xlink:href="#m3a518b90d7" x="166.297629" y="279.206739" style="fill: #228b22; stroke: #228b22"/>
     <use xlink:href="#m3a518b90d7" x="170.407181" y="212.592707" style="fill: #228b22; stroke: #228b22"/>
     <use xlink:href="#m3a518b90d7" x="174.516732" y="54.864617" style="fill: #228b22; stroke: #228b22"/>
     <use xlink:href="#m3a518b90d7" x="178.626283" y="54.864561" style="fill: #228b22; stroke: #228b22"/>
     <use xlink:href="#m3a518b90d7" x="182.735834" y="54.879793" style="fill: #228b22; stroke: #228b22"/>
     <use xlink:href="#m3a518b90d7" x="186.845386" y="54.990935" style="fill: #228b22; stroke: #228b22"/>
     <use xlink:href="#m3a518b90d7" x="190.954937" y="55.162733" style="fill: #228b22; stroke: #228b22"/>
     <use xlink:href="#m3a518b90d7" x="195.064488" y="55.298896" style="fill: #228b22; stroke: #228b22"/>
     <use xlink:href="#m3a518b90d7" x="199.174039" y="55.420844" style="fill: #228b22; stroke: #228b22"/>
     <use xlink:href="#m3a518b90d7" x="203.28359" y="131.100409" style="fill: #228b22; stroke: #228b22"/>
     <use xlink:href="#m3a518b90d7" x="207.393142" y="278.259897" style="fill: #228b22; stroke: #228b22"/>
     <use xlink:href="#m3a518b90d7" x="211.502693" y="283.066193" style="fill: #228b22; stroke: #228b22"/>
     <use xlink:href="#m3a518b90d7" x="215.612244" y="285.184521" style="fill: #228b22; stroke: #228b22"/>
     <use xlink:href="#m3a518b90d7" x="219.721795" y="286.895211" style="fill: #228b22; stroke: #228b22"/>
     <use xlink:href="#m3a518b90d7" x="223.831346" y="288.292875" style="fill: #228b22; stroke: #228b22"/>
     <use xlink:href="#m3a518b90d7" x="227.940898" y="284.242014" style="fill: #228b22; stroke: #228b22"/>
     <use xlink:href="#m3a518b90d7" x="232.050449" y="269.653289" style="fill: #228b22; stroke: #228b22"/>
     <use xlink:href="#m3a518b90d7" x="236.16" y="242.42198" style="fill: #228b22; stroke: #228b22"/>
     <use xlink:href="#m3a518b90d7" x="240.269551" y="204.27778" style="fill: #228b22; stroke: #228b22"/>
     <use xlink:href="#m3a518b90d7" x="244.379102" y="163.662792" style="fill: #228b22; stroke: #228b22"/>
     <use xlink:href="#m3a518b90d7" x="248.488654" y="135.370692" style="fill: #228b22; stroke: #228b22"/>
     <use xlink:href="#m3a518b90d7" x="252.598205" y="128.947911" style="fill: #228b22; stroke: #228b22"/>
     <use xlink:href="#m3a518b90d7" x="256.707756" y="137.363385" style="fill: #228b22; stroke: #228b22"/>
     <use xlink:href="#m3a518b90d7" x="260.817307" y="166.116889" style="fill: #228b22; stroke: #228b22"/>
     <use xlink:href="#m3a518b90d7" x="264.926858" y="206.934987" style="fill: #228b22; stroke: #228b22"/>
     <use xlink:href="#m3a518b90d7" x="269.03641" y="243.643244" style="fill: #228b22; stroke: #228b22"/>
     <use xlink:href="#m3a518b90d7" x="273.145961" y="270.291828" style="fill: #228b22; stroke: #228b22"/>
     <use xlink:href="#m3a518b90d7" x="277.255512" y="286.210987" style="fill: #228b22; stroke: #228b22"/>
     <use xlink:href="#m3a518b90d7" x="281.365063" y="292.368016" style="fill: #228b22; stroke: #228b22"/>
     <use xlink:href="#m3a518b90d7" x="285.474614" y="291.525136" style="fill: #228b22; stroke: #228b22"/>
     <use xlink:href="#m3a518b90d7" x="289.584166" y="284.140863" style="fill: #228b22; stroke: #228b22"/>
     <use xlink:href="#m3a518b90d7" x="293.693717" y="267.775649" style="fill: #228b22; stroke: #228b22"/>
     <use xlink:href="#m3a518b90d7" x="297.803268" y="239.920004" style="fill: #228b22; stroke: #228b22"/>
     <use xlink:href="#m3a518b90d7" x="301.912819" y="200.360432" style="fill: #228b22; stroke: #228b22"/>
     <use xlink:href="#m3a518b90d7" x="306.022371" y="151.130566" style="fill: #228b22; stroke: #228b22"/>
     <use xlink:href="#m3a518b90d7" x="310.131922" y="100.61893" style="fill: #228b22; stroke: #228b22"/>
     <use xlink:href="#m3a518b90d7" x="314.241473" y="64.343465" style="fill: #228b22; stroke: #228b22"/>
     <use xlink:href="#m3a518b90d7" x="318.351024" y="55.785773" style="fill: #228b22; stroke: #228b22"/>
     <use xlink:href="#m3a518b90d7" x="322.460575" y="78.339127" style="fill: #228b22; stroke: #228b22"/>
     <use xlink:href="#m3a518b90d7" x="326.570127" y="123.501216" style="fill: #228b22; stroke: #228b22"/>
     <use xlink:href="#m3a518b90d7" x="330.679678" y="175.950393" style="fill: #228b22; stroke: #228b22"/>
     <use xlink:href="#m3a518b90d7" x="334.789229" y="222.149237" style="fill: #228b22; stroke: #228b22"/>
     <use xlink:href="#m3a518b90d7" x="338.89878" y="257.809148" style="fill: #228b22; stroke: #228b22"/>
     <use xlink:href="#m3a518b90d7" x="343.008331" y="280.414399" style="fill: #228b22; stroke: #228b22"/>
     <use xlink:href="#m3a518b90d7" x="347.117883" y="289.383486" style="fill: #228b22; stroke: #228b22"/>
     <use xlink:href="#m3a518b90d7" x="351.227434" y="288.242709" style="fill: #228b22; stroke: #228b22"/>
     <use xlink:href="#m3a518b90d7" x="355.336985" y="283.015028" style="fill: #228b22; stroke: #228b22"/>
     <use xlink:href="#m3a518b90d7" x="359.446536" y="279.030778" style="fill: #228b22; stroke: #228b22"/>
     <use xlink:href="#m3a518b90d7" x="363.556087" y="278.325328" style="fill: #228b22; stroke: #228b22"/>
     <use xlink:href="#m3a518b90d7" x="367.665639" y="279.638374" style="fill: #228b22; stroke: #228b22"/>
     <use xlink:href="#m3a518b90d7" x="371.77519" y="280.886694" style="fill: #228b22; stroke: #228b22"/>
     <use xlink:href="#m3a518b90d7" x="375.884741" y="281.22028" style="fill: #228b22; stroke: #228b22"/>
     <use xlink:href="#m3a518b90d7" x="379.994292" y="280.988234" style="fill: #228b22; stroke: #228b22"/>
     <use xlink:href="#m3a518b90d7" x="384.103843" y="280.730631" style="fill: #228b22; stroke: #228b22"/>
     <use xlink:href="#m3a518b90d7" x="388.213395" y="280.668948" style="fill: #228b22; stroke: #228b22"/>
     <use xlink:href="#m3a518b90d7" x="392.322946" y="280.74631" style="fill: #228b22; stroke: #228b22"/>
     <use xlink:href="#m3a518b90d7" x="396.432497" y="280.779162" style="fill: #228b22; stroke: #228b22"/>
    </g>
   </g>
   <g id="matplotlib.axis_1">
    <g id="xtick_1">
     <g id="line2d_1">
      <defs>
       <path id="m9639f73e6a" d="M 0 0 
L 0 3.5 
" style="stroke: #000000; stroke-width: 0.8"/>
      </defs>
      <g>
       <use xlink:href="#m9639f73e6a" x="73.832727" y="307.584" style="stroke: #000000; stroke-width: 0.8"/>
      </g>
     </g>
     <g id="text_1">
      <!-- −1.00 -->
      <g transform="translate(58.510071 322.182437)scale(0.1 -0.1)">
       <defs>
        <path id="DejaVuSans-2212" d="M 678 2272 
L 4684 2272 
L 4684 1741 
L 678 1741 
L 678 2272 
z
" transform="scale(0.015625)"/>
        <path id="DejaVuSans-31" d="M 794 531 
L 1825 531 
L 1825 4091 
L 703 3866 
L 703 4441 
L 1819 4666 
L 2450 4666 
L 2450 531 
L 3481 531 
L 3481 0 
L 794 0 
L 794 531 
z
" transform="scale(0.015625)"/>
        <path id="DejaVuSans-2e" d="M 684 794 
L 1344 794 
L 1344 0 
L 684 0 
L 684 794 
z
" transform="scale(0.015625)"/>
        <path id="DejaVuSans-30" d="M 2034 4250 
Q 1547 4250 1301 3770 
Q 1056 3291 1056 2328 
Q 1056 1369 1301 889 
Q 1547 409 2034 409 
Q 2525 409 2770 889 
Q 3016 1369 3016 2328 
Q 3016 3291 2770 3770 
Q 2525 4250 2034 4250 
z
M 2034 4750 
Q 2819 4750 3233 4129 
Q 3647 3509 3647 2328 
Q 3647 1150 3233 529 
Q 2819 -91 2034 -91 
Q 1250 -91 836 529 
Q 422 1150 422 2328 
Q 422 3509 836 4129 
Q 1250 4750 2034 4750 
z
" transform="scale(0.015625)"/>
       </defs>
       <use xlink:href="#DejaVuSans-2212"/>
       <use xlink:href="#DejaVuSans-31" x="83.789062"/>
       <use xlink:href="#DejaVuSans-2e" x="147.412109"/>
       <use xlink:href="#DejaVuSans-30" x="179.199219"/>
       <use xlink:href="#DejaVuSans-30" x="242.822266"/>
      </g>
     </g>
    </g>
    <g id="xtick_2">
     <g id="line2d_2">
      <g>
       <use xlink:href="#m9639f73e6a" x="114.414545" y="307.584" style="stroke: #000000; stroke-width: 0.8"/>
      </g>
     </g>
     <g id="text_2">
      <!-- −0.75 -->
      <g transform="translate(99.091889 322.182437)scale(0.1 -0.1)">
       <defs>
        <path id="DejaVuSans-37" d="M 525 4666 
L 3525 4666 
L 3525 4397 
L 1831 0 
L 1172 0 
L 2766 4134 
L 525 4134 
L 525 4666 
z
" transform="scale(0.015625)"/>
        <path id="DejaVuSans-35" d="M 691 4666 
L 3169 4666 
L 3169 4134 
L 1269 4134 
L 1269 2991 
Q 1406 3038 1543 3061 
Q 1681 3084 1819 3084 
Q 2600 3084 3056 2656 
Q 3513 2228 3513 1497 
Q 3513 744 3044 326 
Q 2575 -91 1722 -91 
Q 1428 -91 1123 -41 
Q 819 9 494 109 
L 494 744 
Q 775 591 1075 516 
Q 1375 441 1709 441 
Q 2250 441 2565 725 
Q 2881 1009 2881 1497 
Q 2881 1984 2565 2268 
Q 2250 2553 1709 2553 
Q 1456 2553 1204 2497 
Q 953 2441 691 2322 
L 691 4666 
z
" transform="scale(0.015625)"/>
       </defs>
       <use xlink:href="#DejaVuSans-2212"/>
       <use xlink:href="#DejaVuSans-30" x="83.789062"/>
       <use xlink:href="#DejaVuSans-2e" x="147.412109"/>
       <use xlink:href="#DejaVuSans-37" x="179.199219"/>
       <use xlink:href="#DejaVuSans-35" x="242.822266"/>
      </g>
     </g>
    </g>
    <g id="xtick_3">
     <g id="line2d_3">
      <g>
       <use xlink:href="#m9639f73e6a" x="154.996364" y="307.584" style="stroke: #000000; stroke-width: 0.8"/>
      </g>
     </g>
     <g id="text_3">
      <!-- −0.50 -->
      <g transform="translate(139.673707 322.182437)scale(0.1 -0.1)">
       <use xlink:href="#DejaVuSans-2212"/>
       <use xlink:href="#DejaVuSans-30" x="83.789062"/>
       <use xlink:href="#DejaVuSans-2e" x="147.412109"/>
       <use xlink:href="#DejaVuSans-35" x="179.199219"/>
       <use xlink:href="#DejaVuSans-30" x="242.822266"/>
      </g>
     </g>
    </g>
    <g id="xtick_4">
     <g id="line2d_4">
      <g>
       <use xlink:href="#m9639f73e6a" x="195.578182" y="307.584" style="stroke: #000000; stroke-width: 0.8"/>
      </g>
     </g>
     <g id="text_4">
      <!-- −0.25 -->
      <g transform="translate(180.255526 322.182437)scale(0.1 -0.1)">
       <defs>
        <path id="DejaVuSans-32" d="M 1228 531 
L 3431 531 
L 3431 0 
L 469 0 
L 469 531 
Q 828 903 1448 1529 
Q 2069 2156 2228 2338 
Q 2531 2678 2651 2914 
Q 2772 3150 2772 3378 
Q 2772 3750 2511 3984 
Q 2250 4219 1831 4219 
Q 1534 4219 1204 4116 
Q 875 4013 500 3803 
L 500 4441 
Q 881 4594 1212 4672 
Q 1544 4750 1819 4750 
Q 2544 4750 2975 4387 
Q 3406 4025 3406 3419 
Q 3406 3131 3298 2873 
Q 3191 2616 2906 2266 
Q 2828 2175 2409 1742 
Q 1991 1309 1228 531 
z
" transform="scale(0.015625)"/>
       </defs>
       <use xlink:href="#DejaVuSans-2212"/>
       <use xlink:href="#DejaVuSans-30" x="83.789062"/>
       <use xlink:href="#DejaVuSans-2e" x="147.412109"/>
       <use xlink:href="#DejaVuSans-32" x="179.199219"/>
       <use xlink:href="#DejaVuSans-35" x="242.822266"/>
      </g>
     </g>
    </g>
    <g id="xtick_5">
     <g id="line2d_5">
      <g>
       <use xlink:href="#m9639f73e6a" x="236.16" y="307.584" style="stroke: #000000; stroke-width: 0.8"/>
      </g>
     </g>
     <g id="text_5">
      <!-- 0.00 -->
      <g transform="translate(225.027187 322.182437)scale(0.1 -0.1)">
       <use xlink:href="#DejaVuSans-30"/>
       <use xlink:href="#DejaVuSans-2e" x="63.623047"/>
       <use xlink:href="#DejaVuSans-30" x="95.410156"/>
       <use xlink:href="#DejaVuSans-30" x="159.033203"/>
      </g>
     </g>
    </g>
    <g id="xtick_6">
     <g id="line2d_6">
      <g>
       <use xlink:href="#m9639f73e6a" x="276.741818" y="307.584" style="stroke: #000000; stroke-width: 0.8"/>
      </g>
     </g>
     <g id="text_6">
      <!-- 0.25 -->
      <g transform="translate(265.609006 322.182437)scale(0.1 -0.1)">
       <use xlink:href="#DejaVuSans-30"/>
       <use xlink:href="#DejaVuSans-2e" x="63.623047"/>
       <use xlink:href="#DejaVuSans-32" x="95.410156"/>
       <use xlink:href="#DejaVuSans-35" x="159.033203"/>
      </g>
     </g>
    </g>
    <g id="xtick_7">
     <g id="line2d_7">
      <g>
       <use xlink:href="#m9639f73e6a" x="317.323636" y="307.584" style="stroke: #000000; stroke-width: 0.8"/>
      </g>
     </g>
     <g id="text_7">
      <!-- 0.50 -->
      <g transform="translate(306.190824 322.182437)scale(0.1 -0.1)">
       <use xlink:href="#DejaVuSans-30"/>
       <use xlink:href="#DejaVuSans-2e" x="63.623047"/>
       <use xlink:href="#DejaVuSans-35" x="95.410156"/>
       <use xlink:href="#DejaVuSans-30" x="159.033203"/>
      </g>
     </g>
    </g>
    <g id="xtick_8">
     <g id="line2d_8">
      <g>
       <use xlink:href="#m9639f73e6a" x="357.905455" y="307.584" style="stroke: #000000; stroke-width: 0.8"/>
      </g>
     </g>
     <g id="text_8">
      <!-- 0.75 -->
      <g transform="translate(346.772642 322.182437)scale(0.1 -0.1)">
       <use xlink:href="#DejaVuSans-30"/>
       <use xlink:href="#DejaVuSans-2e" x="63.623047"/>
       <use xlink:href="#DejaVuSans-37" x="95.410156"/>
       <use xlink:href="#DejaVuSans-35" x="159.033203"/>
      </g>
     </g>
    </g>
    <g id="xtick_9">
     <g id="line2d_9">
      <g>
       <use xlink:href="#m9639f73e6a" x="398.487273" y="307.584" style="stroke: #000000; stroke-width: 0.8"/>
      </g>
     </g>
     <g id="text_9">
      <!-- 1.00 -->
      <g transform="translate(387.35446 322.182437)scale(0.1 -0.1)">
       <use xlink:href="#DejaVuSans-31"/>
       <use xlink:href="#DejaVuSans-2e" x="63.623047"/>
       <use xlink:href="#DejaVuSans-30" x="95.410156"/>
       <use xlink:href="#DejaVuSans-30" x="159.033203"/>
      </g>
     </g>
    </g>
    <g id="text_10">
     <!-- x -->
     <g transform="translate(233.200625 335.860562)scale(0.1 -0.1)">
      <defs>
       <path id="DejaVuSans-78" d="M 3513 3500 
L 2247 1797 
L 3578 0 
L 2900 0 
L 1881 1375 
L 863 0 
L 184 0 
L 1544 1831 
L 300 3500 
L 978 3500 
L 1906 2253 
L 2834 3500 
L 3513 3500 
z
" transform="scale(0.015625)"/>
      </defs>
      <use xlink:href="#DejaVuSans-78"/>
     </g>
    </g>
   </g>
   <g id="matplotlib.axis_2">
    <g id="ytick_1">
     <g id="line2d_10">
      <defs>
       <path id="mec5524f67f" d="M 0 0 
L -3.5 0 
" style="stroke: #000000; stroke-width: 0.8"/>
      </defs>
      <g>
       <use xlink:href="#mec5524f67f" x="57.6" y="280.75879" style="stroke: #000000; stroke-width: 0.8"/>
      </g>
     </g>
     <g id="text_11">
      <!-- 2.0 -->
      <g transform="translate(34.696875 284.558009)scale(0.1 -0.1)">
       <use xlink:href="#DejaVuSans-32"/>
       <use xlink:href="#DejaVuSans-2e" x="63.623047"/>
       <use xlink:href="#DejaVuSans-30" x="95.410156"/>
      </g>
     </g>
    </g>
    <g id="ytick_2">
     <g id="line2d_11">
      <g>
       <use xlink:href="#mec5524f67f" x="57.6" y="235.493408" style="stroke: #000000; stroke-width: 0.8"/>
      </g>
     </g>
     <g id="text_12">
      <!-- 2.2 -->
      <g transform="translate(34.696875 239.292627)scale(0.1 -0.1)">
       <use xlink:href="#DejaVuSans-32"/>
       <use xlink:href="#DejaVuSans-2e" x="63.623047"/>
       <use xlink:href="#DejaVuSans-32" x="95.410156"/>
      </g>
     </g>
    </g>
    <g id="ytick_3">
     <g id="line2d_12">
      <g>
       <use xlink:href="#mec5524f67f" x="57.6" y="190.228026" style="stroke: #000000; stroke-width: 0.8"/>
      </g>
     </g>
     <g id="text_13">
      <!-- 2.4 -->
      <g transform="translate(34.696875 194.027245)scale(0.1 -0.1)">
       <defs>
        <path id="DejaVuSans-34" d="M 2419 4116 
L 825 1625 
L 2419 1625 
L 2419 4116 
z
M 2253 4666 
L 3047 4666 
L 3047 1625 
L 3713 1625 
L 3713 1100 
L 3047 1100 
L 3047 0 
L 2419 0 
L 2419 1100 
L 313 1100 
L 313 1709 
L 2253 4666 
z
" transform="scale(0.015625)"/>
       </defs>
       <use xlink:href="#DejaVuSans-32"/>
       <use xlink:href="#DejaVuSans-2e" x="63.623047"/>
       <use xlink:href="#DejaVuSans-34" x="95.410156"/>
      </g>
     </g>
    </g>
    <g id="ytick_4">
     <g id="line2d_13">
      <g>
       <use xlink:href="#mec5524f67f" x="57.6" y="144.962644" style="stroke: #000000; stroke-width: 0.8"/>
      </g>
     </g>
     <g id="text_14">
      <!-- 2.6 -->
      <g transform="translate(34.696875 148.761863)scale(0.1 -0.1)">
       <defs>
        <path id="DejaVuSans-36" d="M 2113 2584 
Q 1688 2584 1439 2293 
Q 1191 2003 1191 1497 
Q 1191 994 1439 701 
Q 1688 409 2113 409 
Q 2538 409 2786 701 
Q 3034 994 3034 1497 
Q 3034 2003 2786 2293 
Q 2538 2584 2113 2584 
z
M 3366 4563 
L 3366 3988 
Q 3128 4100 2886 4159 
Q 2644 4219 2406 4219 
Q 1781 4219 1451 3797 
Q 1122 3375 1075 2522 
Q 1259 2794 1537 2939 
Q 1816 3084 2150 3084 
Q 2853 3084 3261 2657 
Q 3669 2231 3669 1497 
Q 3669 778 3244 343 
Q 2819 -91 2113 -91 
Q 1303 -91 875 529 
Q 447 1150 447 2328 
Q 447 3434 972 4092 
Q 1497 4750 2381 4750 
Q 2619 4750 2861 4703 
Q 3103 4656 3366 4563 
z
" transform="scale(0.015625)"/>
       </defs>
       <use xlink:href="#DejaVuSans-32"/>
       <use xlink:href="#DejaVuSans-2e" x="63.623047"/>
       <use xlink:href="#DejaVuSans-36" x="95.410156"/>
      </g>
     </g>
    </g>
    <g id="ytick_5">
     <g id="line2d_14">
      <g>
       <use xlink:href="#mec5524f67f" x="57.6" y="99.697262" style="stroke: #000000; stroke-width: 0.8"/>
      </g>
     </g>
     <g id="text_15">
      <!-- 2.8 -->
      <g transform="translate(34.696875 103.496481)scale(0.1 -0.1)">
       <defs>
        <path id="DejaVuSans-38" d="M 2034 2216 
Q 1584 2216 1326 1975 
Q 1069 1734 1069 1313 
Q 1069 891 1326 650 
Q 1584 409 2034 409 
Q 2484 409 2743 651 
Q 3003 894 3003 1313 
Q 3003 1734 2745 1975 
Q 2488 2216 2034 2216 
z
M 1403 2484 
Q 997 2584 770 2862 
Q 544 3141 544 3541 
Q 544 4100 942 4425 
Q 1341 4750 2034 4750 
Q 2731 4750 3128 4425 
Q 3525 4100 3525 3541 
Q 3525 3141 3298 2862 
Q 3072 2584 2669 2484 
Q 3125 2378 3379 2068 
Q 3634 1759 3634 1313 
Q 3634 634 3220 271 
Q 2806 -91 2034 -91 
Q 1263 -91 848 271 
Q 434 634 434 1313 
Q 434 1759 690 2068 
Q 947 2378 1403 2484 
z
M 1172 3481 
Q 1172 3119 1398 2916 
Q 1625 2713 2034 2713 
Q 2441 2713 2670 2916 
Q 2900 3119 2900 3481 
Q 2900 3844 2670 4047 
Q 2441 4250 2034 4250 
Q 1625 4250 1398 4047 
Q 1172 3844 1172 3481 
z
" transform="scale(0.015625)"/>
       </defs>
       <use xlink:href="#DejaVuSans-32"/>
       <use xlink:href="#DejaVuSans-2e" x="63.623047"/>
       <use xlink:href="#DejaVuSans-38" x="95.410156"/>
      </g>
     </g>
    </g>
    <g id="ytick_6">
     <g id="line2d_15">
      <g>
       <use xlink:href="#mec5524f67f" x="57.6" y="54.431881" style="stroke: #000000; stroke-width: 0.8"/>
      </g>
     </g>
     <g id="text_16">
      <!-- 3.0 -->
      <g transform="translate(34.696875 58.231099)scale(0.1 -0.1)">
       <defs>
        <path id="DejaVuSans-33" d="M 2597 2516 
Q 3050 2419 3304 2112 
Q 3559 1806 3559 1356 
Q 3559 666 3084 287 
Q 2609 -91 1734 -91 
Q 1441 -91 1130 -33 
Q 819 25 488 141 
L 488 750 
Q 750 597 1062 519 
Q 1375 441 1716 441 
Q 2309 441 2620 675 
Q 2931 909 2931 1356 
Q 2931 1769 2642 2001 
Q 2353 2234 1838 2234 
L 1294 2234 
L 1294 2753 
L 1863 2753 
Q 2328 2753 2575 2939 
Q 2822 3125 2822 3475 
Q 2822 3834 2567 4026 
Q 2313 4219 1838 4219 
Q 1578 4219 1281 4162 
Q 984 4106 628 3988 
L 628 4550 
Q 988 4650 1302 4700 
Q 1616 4750 1894 4750 
Q 2613 4750 3031 4423 
Q 3450 4097 3450 3541 
Q 3450 3153 3228 2886 
Q 3006 2619 2597 2516 
z
" transform="scale(0.015625)"/>
       </defs>
       <use xlink:href="#DejaVuSans-33"/>
       <use xlink:href="#DejaVuSans-2e" x="63.623047"/>
       <use xlink:href="#DejaVuSans-30" x="95.410156"/>
      </g>
     </g>
    </g>
    <g id="text_17">
     <!-- $f_i$ -->
     <g transform="translate(28.617188 177.428)rotate(-90)scale(0.1 -0.1)">
      <defs>
       <path id="DejaVuSans-Oblique-66" d="M 3059 4863 
L 2969 4384 
L 2419 4384 
Q 2106 4384 1964 4261 
Q 1822 4138 1753 3809 
L 1691 3500 
L 2638 3500 
L 2553 3053 
L 1606 3053 
L 1013 0 
L 434 0 
L 1031 3053 
L 481 3053 
L 563 3500 
L 1113 3500 
L 1159 3744 
Q 1278 4363 1576 4613 
Q 1875 4863 2516 4863 
L 3059 4863 
z
" transform="scale(0.015625)"/>
       <path id="DejaVuSans-Oblique-69" d="M 1172 4863 
L 1747 4863 
L 1606 4134 
L 1031 4134 
L 1172 4863 
z
M 909 3500 
L 1484 3500 
L 800 0 
L 225 0 
L 909 3500 
z
" transform="scale(0.015625)"/>
      </defs>
      <use xlink:href="#DejaVuSans-Oblique-66" transform="translate(0 0.015625)"/>
      <use xlink:href="#DejaVuSans-Oblique-69" transform="translate(35.205078 -16.390625)scale(0.7)"/>
     </g>
    </g>
   </g>
   <g id="line2d_16">
    <path d="M 73.832727 280.75879 
L 106.0057 280.75879 
L 106.655659 280.602683 
L 107.630598 280.387716 
L 108.605536 279.923817 
L 109.255495 279.368056 
L 109.905455 278.498176 
L 110.555414 277.172713 
L 111.205373 275.207115 
L 111.855332 272.371156 
L 112.505291 268.39174 
L 113.15525 262.963546 
L 113.805209 255.769555 
L 114.455168 246.512527 
L 115.430106 228.272054 
L 116.405045 204.610318 
L 117.704963 165.92158 
L 119.97982 94.377202 
L 120.954758 71.428404 
L 121.604717 61.369328 
L 121.929697 58.204128 
L 122.254676 56.365211 
L 122.579656 55.88598 
L 122.904636 56.775168 
L 123.229615 59.016579 
L 123.554595 62.569577 
L 124.204554 73.333615 
L 124.854513 88.316359 
L 125.829451 116.470783 
L 128.754267 207.210574 
L 129.729206 230.341669 
L 130.704144 248.042866 
L 131.679083 260.662514 
L 132.329042 266.672915 
L 132.979001 271.123533 
L 133.62896 274.326673 
L 134.278919 276.568388 
L 134.928878 278.09458 
L 135.578837 279.105716 
L 136.228796 279.757806 
L 136.878755 280.167265 
L 137.853694 280.502084 
L 139.478591 280.75879 
L 171.001605 280.75879 
L 171.326585 54.431881 
L 203.499558 54.431881 
L 203.824537 280.75879 
L 235.99751 280.75879 
L 236.32249 278.493255 
L 252.246486 56.470862 
L 252.571466 56.923969 
L 268.495463 278.946362 
L 268.820442 280.75879 
L 300.993415 280.75879 
L 301.318395 242.307738 
L 302.293333 197.343425 
L 302.943292 176.768387 
L 303.918231 153.665838 
L 304.89317 135.562489 
L 306.193088 116.26205 
L 307.493006 100.843636 
L 308.792924 88.358395 
L 310.092842 78.257886 
L 311.39276 70.196237 
L 312.367699 65.347293 
L 313.342637 61.447251 
L 314.317576 58.445958 
L 315.292514 56.307219 
L 315.942473 55.348011 
L 316.592432 54.756263 
L 317.242391 54.529081 
L 317.892351 54.665362 
L 318.54231 55.165769 
L 319.192269 56.03274 
L 319.842228 57.270558 
L 320.492187 58.88545 
L 321.467125 62.033679 
L 322.442064 66.087966 
L 323.417002 71.101105 
L 324.391941 77.14427 
L 325.36688 84.313069 
L 326.666798 95.853294 
L 327.966716 110.088612 
L 328.941654 122.97304 
L 329.916593 138.325058 
L 330.891532 157.095585 
L 331.86647 181.36829 
L 332.516429 203.822256 
L 333.491368 255.041651 
L 333.816347 280.75879 
L 398.487273 280.75879 
L 398.487273 280.75879 
" clip-path="url(#p543bf6a615)" style="fill: none; stroke: #0000ff; stroke-width: 1.5; stroke-linecap: square"/>
   </g>
   <g id="line2d_17">
    <path d="M 73.840844 280.527644 
L 74.212963 280.554402 
L 74.585083 280.581994 
L 74.957203 280.610293 
L 75.329323 280.639169 
L 75.701443 280.668486 
L 76.073563 280.698102 
L 76.445683 280.727871 
L 76.817803 280.757639 
L 77.189922 280.787251 
L 77.562042 280.816543 
L 77.934162 280.845347 
" clip-path="url(#p543bf6a615)" style="fill: none; stroke: #008000; stroke-width: 1.5; stroke-linecap: square"/>
   </g>
   <g id="line2d_18">
    <path d="M 77.950395 280.795367 
L 78.322515 280.828004 
L 78.694635 280.862181 
L 79.066754 280.897351 
L 79.438874 280.93293 
L 79.810994 280.968297 
L 80.183114 281.002792 
L 80.555234 281.035714 
L 80.927354 281.066327 
L 81.299474 281.093855 
L 81.671593 281.117485 
L 82.043713 281.136365 
" clip-path="url(#p543bf6a615)" style="fill: none; stroke: #008000; stroke-width: 1.5; stroke-linecap: square"/>
   </g>
   <g id="line2d_19">
    <path d="M 82.059946 281.245629 
L 82.432066 281.255127 
L 82.804186 281.251469 
L 83.176306 281.234022 
L 83.548426 281.202329 
L 83.920545 281.156116 
L 84.292665 281.09529 
L 84.664785 281.019937 
L 85.036905 280.930326 
L 85.409025 280.826903 
L 85.781145 280.710299 
L 86.153265 280.581323 
" clip-path="url(#p543bf6a615)" style="fill: none; stroke: #008000; stroke-width: 1.5; stroke-linecap: square"/>
   </g>
   <g id="line2d_20">
    <path d="M 86.169497 280.589832 
L 86.541617 280.448541 
L 86.913737 280.296226 
L 87.285857 280.134289 
L 87.657977 279.964345 
L 88.030097 279.788216 
L 88.402216 279.607934 
L 88.774336 279.425742 
L 89.146456 279.244091 
L 89.518576 279.065643 
L 89.890696 278.893269 
L 90.262816 278.730051 
" clip-path="url(#p543bf6a615)" style="fill: none; stroke: #008000; stroke-width: 1.5; stroke-linecap: square"/>
   </g>
   <g id="line2d_21">
    <path d="M 90.279048 278.469312 
L 90.651168 278.327284 
L 91.023288 278.216661 
L 91.395408 278.140385 
L 91.767528 278.101092 
L 92.139648 278.101117 
L 92.511768 278.142493 
L 92.883888 278.226951 
L 93.256007 278.355918 
L 93.628127 278.530521 
L 94.000247 278.751583 
L 94.372367 279.019624 
" clip-path="url(#p543bf6a615)" style="fill: none; stroke: #008000; stroke-width: 1.5; stroke-linecap: square"/>
   </g>
   <g id="line2d_22">
    <path d="M 94.3886 278.812977 
L 94.76072 279.137296 
L 95.132839 279.521944 
L 95.504959 279.965849 
L 95.877079 280.467193 
L 96.249199 281.023412 
L 96.621319 281.631201 
L 96.993439 282.286506 
L 97.365559 282.98453 
L 97.737678 283.719731 
L 98.109798 284.485822 
L 98.481918 285.275772 
" clip-path="url(#p543bf6a615)" style="fill: none; stroke: #008000; stroke-width: 1.5; stroke-linecap: square"/>
   </g>
   <g id="line2d_23">
    <path d="M 98.498151 285.525766 
L 98.870271 286.325427 
L 99.242391 287.119293 
L 99.61451 287.898726 
L 99.98663 288.654776 
L 100.35875 289.378181 
L 100.73087 290.059371 
L 101.10299 290.688461 
L 101.47511 291.255258 
L 101.84723 291.749257 
L 102.21935 292.159642 
L 102.591469 292.475285 
" clip-path="url(#p543bf6a615)" style="fill: none; stroke: #008000; stroke-width: 1.5; stroke-linecap: square"/>
   </g>
   <g id="line2d_24">
    <path d="M 102.607702 293.034517 
L 102.979822 293.221555 
L 103.351942 293.257126 
L 103.724062 293.130838 
L 104.096182 292.833092 
L 104.468301 292.355082 
L 104.840421 291.688798 
L 105.212541 290.827023 
L 105.584661 289.763333 
L 105.956781 288.492098 
L 106.328901 287.008483 
L 106.701021 285.308445 
" clip-path="url(#p543bf6a615)" style="fill: none; stroke: #008000; stroke-width: 1.5; stroke-linecap: square"/>
   </g>
   <g id="line2d_25">
    <path d="M 106.717253 285.539681 
L 107.089373 283.600396 
L 107.461493 281.420189 
L 107.833613 278.998386 
L 108.205733 276.335734 
L 108.577853 273.434399 
L 108.949972 270.297966 
L 109.322092 266.931441 
L 109.694212 263.34125 
L 110.066332 259.535239 
L 110.438452 255.522671 
L 110.810572 251.314233 
" clip-path="url(#p543bf6a615)" style="fill: none; stroke: #008000; stroke-width: 1.5; stroke-linecap: square"/>
   </g>
   <g id="line2d_26">
    <path d="M 110.826805 250.808075 
L 111.198924 246.418336 
L 111.571044 241.878163 
L 111.943164 237.201586 
L 112.315284 232.40341 
L 112.687404 227.499222 
L 113.059524 222.505383 
L 113.431644 217.439035 
L 113.803763 212.318095 
L 114.175883 207.16126 
L 114.548003 201.988003 
L 114.920123 196.818576 
" clip-path="url(#p543bf6a615)" style="fill: none; stroke: #008000; stroke-width: 1.5; stroke-linecap: square"/>
   </g>
   <g id="line2d_27">
    <path d="M 114.936356 195.888578 
L 115.308476 190.768142 
L 115.680595 185.73783 
L 116.052715 180.818097 
L 116.424835 176.028756 
L 116.796955 171.388974 
L 117.169075 166.917275 
L 117.541195 162.631539 
L 117.913315 158.549002 
L 118.285434 154.686255 
L 118.657554 151.059248 
L 119.029674 147.683285 
" clip-path="url(#p543bf6a615)" style="fill: none; stroke: #008000; stroke-width: 1.5; stroke-linecap: square"/>
   </g>
   <g id="line2d_28">
    <path d="M 119.045907 147.076221 
L 119.418027 143.992779 
L 119.790147 141.217726 
L 120.162267 138.762979 
L 120.534386 136.638868 
L 120.906506 134.854142 
L 121.278626 133.415967 
L 121.650746 132.329924 
L 122.022866 131.600013 
L 122.394986 131.228649 
L 122.767106 131.216664 
L 123.139225 131.563307 
" clip-path="url(#p543bf6a615)" style="fill: none; stroke: #008000; stroke-width: 1.5; stroke-linecap: square"/>
   </g>
   <g id="line2d_29">
    <path d="M 123.155458 131.739729 
L 123.527578 132.453231 
L 123.899698 133.50967 
L 124.271818 134.903948 
L 124.643938 136.62969 
L 125.016057 138.679248 
L 125.388177 141.043699 
L 125.760297 143.712847 
L 126.132417 146.675221 
L 126.504537 149.918074 
L 126.876657 153.427387 
L 127.248777 157.187866 
" clip-path="url(#p543bf6a615)" style="fill: none; stroke: #008000; stroke-width: 1.5; stroke-linecap: square"/>
   </g>
   <g id="line2d_30">
    <path d="M 127.265009 157.940463 
L 127.637129 161.926719 
L 128.009249 166.093776 
L 128.381369 170.424251 
L 128.753489 174.900664 
L 129.125609 179.505434 
L 129.497729 184.220884 
L 129.869848 189.029237 
L 130.241968 193.912619 
L 130.614088 198.853057 
L 130.986208 203.832479 
L 131.358328 208.832717 
" clip-path="url(#p543bf6a615)" style="fill: none; stroke: #008000; stroke-width: 1.5; stroke-linecap: square"/>
   </g>
   <g id="line2d_31">
    <path d="M 131.374561 209.55395 
L 131.74668 214.540337 
L 132.1188 219.479789 
L 132.49092 224.355381 
L 132.86304 229.151104 
L 133.23516 233.851865 
L 133.60728 238.443488 
L 133.9794 242.912711 
L 134.351519 247.247189 
L 134.723639 251.435495 
L 135.095759 255.467115 
L 135.467879 259.332452 
" clip-path="url(#p543bf6a615)" style="fill: none; stroke: #008000; stroke-width: 1.5; stroke-linecap: square"/>
   </g>
   <g id="line2d_32">
    <path d="M 135.484112 259.574557 
L 135.856232 263.254639 
L 136.228351 266.747008 
L 136.600471 270.045095 
L 136.972591 273.143401 
L 137.344711 276.037498 
L 137.716831 278.724033 
L 138.088951 281.200723 
L 138.461071 283.466358 
L 138.833191 285.5208 
L 139.20531 287.364983 
L 139.57743 289.000913 
" clip-path="url(#p543bf6a615)" style="fill: none; stroke: #008000; stroke-width: 1.5; stroke-linecap: square"/>
   </g>
   <g id="line2d_33">
    <path d="M 139.593663 288.776772 
L 139.965783 290.20797 
L 140.337903 291.455878 
L 140.710023 292.524875 
L 141.082142 293.419821 
L 141.454262 294.146067 
L 141.826382 294.709445 
L 142.198502 295.116275 
L 142.570622 295.373363 
L 142.942742 295.488 
L 143.314862 295.467962 
L 143.686981 295.321511 
" clip-path="url(#p543bf6a615)" style="fill: none; stroke: #008000; stroke-width: 1.5; stroke-linecap: square"/>
   </g>
   <g id="line2d_34">
    <path d="M 143.703214 294.966079 
L 144.075334 294.708118 
L 144.447454 294.363013 
L 144.819574 293.939441 
L 145.191694 293.445866 
L 145.563813 292.890541 
L 145.935933 292.281505 
L 146.308053 291.626583 
L 146.680173 290.93339 
L 147.052293 290.209325 
L 147.424413 289.461578 
L 147.796533 288.697122 
" clip-path="url(#p543bf6a615)" style="fill: none; stroke: #008000; stroke-width: 1.5; stroke-linecap: square"/>
   </g>
   <g id="line2d_35">
    <path d="M 147.812765 288.529738 
L 148.184885 287.759333 
L 148.557005 286.993874 
L 148.929125 286.239279 
L 149.301245 285.500981 
L 149.673365 284.783932 
L 150.045485 284.092602 
L 150.417604 283.430976 
L 150.789724 282.802558 
L 151.161844 282.21037 
L 151.533964 281.656951 
L 151.906084 281.144356 
" clip-path="url(#p543bf6a615)" style="fill: none; stroke: #008000; stroke-width: 1.5; stroke-linecap: square"/>
   </g>
   <g id="line2d_36">
    <path d="M 151.922317 281.215523 
L 152.294436 280.744242 
L 152.666556 280.310906 
L 153.038676 279.916388 
L 153.410796 279.561263 
L 153.782916 279.24581 
L 154.155036 278.970013 
L 154.527156 278.73356 
L 154.899275 278.535844 
L 155.271395 278.37596 
L 155.643515 278.252708 
L 156.015635 278.164594 
" clip-path="url(#p543bf6a615)" style="fill: none; stroke: #008000; stroke-width: 1.5; stroke-linecap: square"/>
   </g>
   <g id="line2d_37">
    <path d="M 156.031868 278.326597 
L 156.403988 278.267955 
L 156.776108 278.230524 
L 157.148227 278.212414 
L 157.520347 278.211773 
L 157.892467 278.226785 
L 158.264587 278.255673 
L 158.636707 278.296694 
L 159.008827 278.348145 
L 159.380947 278.408358 
L 159.753066 278.475704 
L 160.125186 278.54859 
" clip-path="url(#p543bf6a615)" style="fill: none; stroke: #008000; stroke-width: 1.5; stroke-linecap: square"/>
   </g>
   <g id="line2d_38">
    <path d="M 160.141419 278.739855 
L 160.513539 278.780639 
L 160.885659 278.821422 
L 161.257779 278.862206 
L 161.629898 278.90299 
L 162.002018 278.943774 
L 162.374138 278.984558 
L 162.746258 279.025341 
L 163.118378 279.066125 
L 163.490498 279.106909 
L 163.862618 279.147693 
L 164.234737 279.188477 
" clip-path="url(#p543bf6a615)" style="fill: none; stroke: #008000; stroke-width: 1.5; stroke-linecap: square"/>
   </g>
   <g id="line2d_39">
    <path d="M 164.25097 279.206739 
L 164.62309 279.206739 
L 164.99521 279.206739 
L 165.36733 279.206739 
L 165.73945 279.206739 
L 166.11157 279.206739 
L 166.483689 279.206739 
L 166.855809 279.206739 
L 167.227929 279.206739 
L 167.600049 279.206739 
L 167.972169 279.206739 
L 168.344289 279.206739 
" clip-path="url(#p543bf6a615)" style="fill: none; stroke: #008000; stroke-width: 1.5; stroke-linecap: square"/>
   </g>
   <g id="line2d_40">
    <path d="M 168.360521 279.206739 
L 168.732641 279.206739 
L 169.104761 279.206739 
L 169.476881 279.206739 
L 169.849001 279.206739 
L 170.221121 279.206739 
L 170.593241 279.206739 
L 170.96536 279.206739 
L 171.33748 54.864672 
L 171.7096 54.864672 
L 172.08172 54.864672 
L 172.45384 54.864672 
" clip-path="url(#p543bf6a615)" style="fill: none; stroke: #008000; stroke-width: 1.5; stroke-linecap: square"/>
   </g>
   <g id="line2d_41">
    <path d="M 172.470073 54.864672 
L 172.842192 54.864662 
L 173.214312 54.864652 
L 173.586432 54.864642 
L 173.958552 54.864632 
L 174.330672 54.864622 
L 174.702792 54.864611 
L 175.074912 54.864601 
L 175.447032 54.864591 
L 175.819151 54.864581 
L 176.191271 54.864571 
L 176.563391 54.864561 
" clip-path="url(#p543bf6a615)" style="fill: none; stroke: #008000; stroke-width: 1.5; stroke-linecap: square"/>
   </g>
   <g id="line2d_42">
    <path d="M 176.579624 54.864561 
L 176.951744 54.864561 
L 177.323864 54.864561 
L 177.695983 54.864561 
L 178.068103 54.864561 
L 178.440223 54.864561 
L 178.812343 54.864561 
L 179.184463 54.864561 
L 179.556583 54.864561 
L 179.928703 54.864561 
L 180.300822 54.864561 
L 180.672942 54.864561 
" clip-path="url(#p543bf6a615)" style="fill: none; stroke: #008000; stroke-width: 1.5; stroke-linecap: square"/>
   </g>
   <g id="line2d_43">
    <path d="M 180.689175 54.859065 
L 181.061295 54.860208 
L 181.433415 54.862101 
L 181.805535 54.864791 
L 182.177654 54.86832 
L 182.549774 54.872719 
L 182.921894 54.878014 
L 183.294014 54.88422 
L 183.666134 54.891347 
L 184.038254 54.899397 
L 184.410374 54.908362 
L 184.782494 54.918229 
" clip-path="url(#p543bf6a615)" style="fill: none; stroke: #008000; stroke-width: 1.5; stroke-linecap: square"/>
   </g>
   <g id="line2d_44">
    <path d="M 184.798726 54.920508 
L 185.170846 54.931233 
L 185.542966 54.942696 
L 185.915086 54.954864 
L 186.287206 54.967702 
L 186.659326 54.981167 
L 187.031445 54.995216 
L 187.403565 55.0098 
L 187.775685 55.024865 
L 188.147805 55.040355 
L 188.519925 55.056208 
L 188.892045 55.07236 
" clip-path="url(#p543bf6a615)" style="fill: none; stroke: #008000; stroke-width: 1.5; stroke-linecap: square"/>
   </g>
   <g id="line2d_45">
    <path d="M 188.908277 55.079028 
L 189.280397 55.095226 
L 189.652517 55.111218 
L 190.024637 55.126942 
L 190.396757 55.142349 
L 190.768877 55.157395 
L 191.140997 55.172042 
L 191.513117 55.186265 
L 191.885236 55.200043 
L 192.257356 55.213364 
L 192.629476 55.226224 
L 193.001596 55.238627 
" clip-path="url(#p543bf6a615)" style="fill: none; stroke: #008000; stroke-width: 1.5; stroke-linecap: square"/>
   </g>
   <g id="line2d_46">
    <path d="M 193.017829 55.234623 
L 193.389949 55.246309 
L 193.762068 55.257995 
L 194.134188 55.269681 
L 194.506308 55.281367 
L 194.878428 55.293053 
L 195.250548 55.304739 
L 195.622668 55.316425 
L 195.994788 55.328111 
L 196.366907 55.339797 
L 196.739027 55.351483 
L 197.111147 55.363168 
" clip-path="url(#p543bf6a615)" style="fill: none; stroke: #008000; stroke-width: 1.5; stroke-linecap: square"/>
   </g>
   <g id="line2d_47">
    <path d="M 197.12738 55.299377 
L 197.4995 55.321462 
L 197.87162 55.343547 
L 198.243739 55.365632 
L 198.615859 55.387717 
L 198.987979 55.409802 
L 199.360099 55.431887 
L 199.732219 55.453972 
L 200.104339 55.476056 
L 200.476459 55.498141 
L 200.848579 55.520226 
L 201.220698 55.542311 
" clip-path="url(#p543bf6a615)" style="fill: none; stroke: #008000; stroke-width: 1.5; stroke-linecap: square"/>
   </g>
   <g id="line2d_48">
    <path d="M 201.236931 55.542793 
L 201.609051 55.542793 
L 201.981171 55.542793 
L 202.353291 55.542793 
L 202.725411 55.542793 
L 203.09753 55.542793 
L 203.46965 55.542793 
L 203.84177 55.542793 
L 204.21389 273.453601 
L 204.58601 273.453601 
L 204.95813 273.453601 
L 205.33025 273.453601 
" clip-path="url(#p543bf6a615)" style="fill: none; stroke: #008000; stroke-width: 1.5; stroke-linecap: square"/>
   </g>
   <g id="line2d_49">
    <path d="M 205.346482 273.472586 
L 205.718602 274.343006 
L 206.090722 275.213426 
L 206.462842 276.083847 
L 206.834962 276.954267 
L 207.207082 277.824687 
L 207.579201 278.695107 
L 207.951321 279.565527 
L 208.323441 280.435948 
L 208.695561 281.306368 
L 209.067681 282.176788 
L 209.439801 283.047208 
" clip-path="url(#p543bf6a615)" style="fill: none; stroke: #008000; stroke-width: 1.5; stroke-linecap: square"/>
   </g>
   <g id="line2d_50">
    <path d="M 209.456034 281.341875 
L 209.828153 281.655388 
L 210.200273 281.9689 
L 210.572393 282.282412 
L 210.944513 282.595925 
L 211.316633 282.909437 
L 211.688753 283.222949 
L 212.060873 283.536462 
L 212.432992 283.849974 
L 212.805112 284.163486 
L 213.177232 284.476999 
L 213.549352 284.790511 
" clip-path="url(#p543bf6a615)" style="fill: none; stroke: #008000; stroke-width: 1.5; stroke-linecap: square"/>
   </g>
   <g id="line2d_51">
    <path d="M 213.565585 284.314273 
L 213.937705 284.484891 
L 214.309824 284.648939 
L 214.681944 284.807887 
L 215.054064 284.963057 
L 215.426184 285.115625 
L 215.798304 285.266619 
L 216.170424 285.416922 
L 216.542544 285.567267 
L 216.914663 285.718243 
L 217.286783 285.870289 
L 217.658903 286.023701 
" clip-path="url(#p543bf6a615)" style="fill: none; stroke: #008000; stroke-width: 1.5; stroke-linecap: square"/>
   </g>
   <g id="line2d_52">
    <path d="M 217.675136 285.928949 
L 218.047256 286.087188 
L 218.419376 286.253051 
L 218.791496 286.426075 
L 219.163615 286.605443 
L 219.535735 286.789986 
L 219.907855 286.978186 
L 220.279975 287.168171 
L 220.652095 287.357718 
L 221.024215 287.544252 
L 221.396335 287.724848 
L 221.768454 287.896227 
" clip-path="url(#p543bf6a615)" style="fill: none; stroke: #008000; stroke-width: 1.5; stroke-linecap: square"/>
   </g>
   <g id="line2d_53">
    <path d="M 221.784687 288.079311 
L 222.156807 288.231569 
L 222.528927 288.356217 
L 222.901047 288.449448 
L 223.273167 288.507457 
L 223.645286 288.526442 
L 224.017406 288.502604 
L 224.389526 288.432148 
L 224.761646 288.31128 
L 225.133766 288.136211 
L 225.505886 287.903155 
L 225.878006 287.608329 
" clip-path="url(#p543bf6a615)" style="fill: none; stroke: #008000; stroke-width: 1.5; stroke-linecap: square"/>
   </g>
   <g id="line2d_54">
    <path d="M 225.894238 287.691951 
L 226.266358 287.325495 
L 226.638478 286.883642 
L 227.010598 286.362921 
L 227.382718 285.760058 
L 227.754838 285.07198 
L 228.126958 284.295818 
L 228.499077 283.428901 
L 228.871197 282.468757 
L 229.243317 281.413119 
L 229.615437 280.259918 
L 229.987557 279.007285 
" clip-path="url(#p543bf6a615)" style="fill: none; stroke: #008000; stroke-width: 1.5; stroke-linecap: square"/>
   </g>
   <g id="line2d_55">
    <path d="M 230.00379 278.978678 
L 230.375909 277.619595 
L 230.748029 276.156179 
L 231.120149 274.587261 
L 231.492269 272.911927 
L 231.864389 271.129524 
L 232.236509 269.239653 
L 232.608629 267.242177 
L 232.980748 265.137213 
L 233.352868 262.925137 
L 233.724988 260.606584 
L 234.097108 258.182446 
" clip-path="url(#p543bf6a615)" style="fill: none; stroke: #008000; stroke-width: 1.5; stroke-linecap: square"/>
   </g>
   <g id="line2d_56">
    <path d="M 234.113341 258.701299 
L 234.485461 255.741423 
L 234.85758 252.781547 
L 235.2297 249.82167 
L 235.60182 246.861794 
L 235.97394 243.901918 
L 236.34606 240.942042 
L 236.71818 237.982166 
L 237.0903 235.02229 
L 237.46242 232.062413 
L 237.834539 229.102537 
L 238.206659 226.142661 
" clip-path="url(#p543bf6a615)" style="fill: none; stroke: #008000; stroke-width: 1.5; stroke-linecap: square"/>
   </g>
   <g id="line2d_57">
    <path d="M 238.222892 224.600165 
L 238.595012 221.048215 
L 238.967132 217.435039 
L 239.339252 213.767555 
L 239.711371 210.053109 
L 240.083491 206.299472 
L 240.455611 202.514843 
L 240.827731 198.707847 
L 241.199851 194.887536 
L 241.571971 191.063391 
L 241.944091 187.245319 
L 242.31621 183.443652 
" clip-path="url(#p543bf6a615)" style="fill: none; stroke: #008000; stroke-width: 1.5; stroke-linecap: square"/>
   </g>
   <g id="line2d_58">
    <path d="M 242.332443 182.891732 
L 242.704563 179.13104 
L 243.076683 175.432503 
L 243.448803 171.806569 
L 243.820923 168.263331 
L 244.193042 164.81253 
L 244.565162 161.463555 
L 244.937282 158.225442 
L 245.309402 155.106872 
L 245.681522 152.116177 
L 246.053642 149.261334 
L 246.425762 146.549967 
" clip-path="url(#p543bf6a615)" style="fill: none; stroke: #008000; stroke-width: 1.5; stroke-linecap: square"/>
   </g>
   <g id="line2d_59">
    <path d="M 246.441994 146.057401 
L 246.814114 143.515603 
L 247.186234 141.154529 
L 247.558354 138.979571 
L 247.930474 136.995007 
L 248.302594 135.204 
L 248.674714 133.608597 
L 249.046833 132.209732 
L 249.418953 131.007225 
L 249.791073 129.999781 
L 250.163193 129.184989 
L 250.535313 128.559326 
" clip-path="url(#p543bf6a615)" style="fill: none; stroke: #008000; stroke-width: 1.5; stroke-linecap: square"/>
   </g>
   <g id="line2d_60">
    <path d="M 250.551546 128.947911 
L 250.923665 128.947911 
L 251.295785 128.947911 
L 251.667905 128.947911 
L 252.040025 128.947911 
L 252.412145 128.947911 
L 252.784265 128.947911 
L 253.156385 128.947911 
L 253.528504 128.947911 
L 253.900624 128.947911 
L 254.272744 128.947911 
L 254.644864 128.947911 
" clip-path="url(#p543bf6a615)" style="fill: none; stroke: #008000; stroke-width: 1.5; stroke-linecap: square"/>
   </g>
   <g id="line2d_61">
    <path d="M 254.661097 129.780941 
L 255.033217 130.592128 
L 255.405337 131.579371 
L 255.777456 132.745342 
L 256.149576 134.091791 
L 256.521696 135.61954 
L 256.893816 137.328484 
L 257.265936 139.217595 
L 257.638056 141.284917 
L 258.010176 143.527567 
L 258.382295 145.941739 
L 258.754415 148.5227 
" clip-path="url(#p543bf6a615)" style="fill: none; stroke: #008000; stroke-width: 1.5; stroke-linecap: square"/>
   </g>
   <g id="line2d_62">
    <path d="M 258.770648 148.834737 
L 259.142768 151.577448 
L 259.514888 154.462597 
L 259.887008 157.483232 
L 260.259127 160.63187 
L 260.631247 163.9005 
L 261.003367 167.280575 
L 261.375487 170.763021 
L 261.747607 174.338232 
L 262.119727 177.996067 
L 262.491847 181.72586 
L 262.863966 185.516409 
" clip-path="url(#p543bf6a615)" style="fill: none; stroke: #008000; stroke-width: 1.5; stroke-linecap: square"/>
   </g>
   <g id="line2d_63">
    <path d="M 262.880199 186.287143 
L 263.252319 190.109248 
L 263.624439 193.931152 
L 263.996559 197.741891 
L 264.368679 201.531192 
L 264.740799 205.289465 
L 265.112918 209.007811 
L 265.485038 212.678017 
L 265.857158 216.292556 
L 266.229278 219.844591 
L 266.601398 223.327971 
L 266.973518 226.737232 
" clip-path="url(#p543bf6a615)" style="fill: none; stroke: #008000; stroke-width: 1.5; stroke-linecap: square"/>
   </g>
   <g id="line2d_64">
    <path d="M 266.98975 227.866599 
L 267.36187 230.73508 
L 267.73399 233.603561 
L 268.10611 236.472042 
L 268.47823 239.340523 
L 268.85035 242.209004 
L 269.22247 245.077485 
L 269.594589 247.945966 
L 269.966709 250.814446 
L 270.338829 253.682927 
L 270.710949 256.551408 
L 271.083069 259.419889 
" clip-path="url(#p543bf6a615)" style="fill: none; stroke: #008000; stroke-width: 1.5; stroke-linecap: square"/>
   </g>
   <g id="line2d_65">
    <path d="M 271.099302 258.807249 
L 271.471421 261.179025 
L 271.843541 263.461775 
L 272.215661 265.655171 
L 272.587781 267.758991 
L 272.959901 269.773128 
L 273.332021 271.697581 
L 273.704141 273.53246 
L 274.076261 275.277986 
L 274.44838 276.93449 
L 274.8205 278.502412 
L 275.19262 279.982303 
" clip-path="url(#p543bf6a615)" style="fill: none; stroke: #008000; stroke-width: 1.5; stroke-linecap: square"/>
   </g>
   <g id="line2d_66">
    <path d="M 275.208853 280.050128 
L 275.580973 281.438685 
L 275.953093 282.740362 
L 276.325212 283.956061 
L 276.697332 285.086803 
L 277.069452 286.133731 
L 277.441572 287.09811 
L 277.813692 287.981325 
L 278.185812 288.784879 
L 278.557932 289.5104 
L 278.930051 290.159633 
L 279.302171 290.734446 
" clip-path="url(#p543bf6a615)" style="fill: none; stroke: #008000; stroke-width: 1.5; stroke-linecap: square"/>
   </g>
   <g id="line2d_67">
    <path d="M 279.318404 290.621238 
L 279.690524 291.124877 
L 280.062644 291.566522 
L 280.434764 291.947987 
L 280.806883 292.270933 
L 281.179003 292.536866 
L 281.551123 292.747135 
L 281.923243 292.902936 
L 282.295363 293.00531 
L 282.667483 293.055144 
L 283.039603 293.053167 
L 283.411723 292.999956 
" clip-path="url(#p543bf6a615)" style="fill: none; stroke: #008000; stroke-width: 1.5; stroke-linecap: square"/>
   </g>
   <g id="line2d_68">
    <path d="M 283.427955 292.976664 
L 283.800075 292.871065 
L 284.172195 292.716121 
L 284.544315 292.511878 
L 284.916435 292.258183 
L 285.288555 291.954691 
L 285.660674 291.600862 
L 286.032794 291.195959 
L 286.404914 290.739054 
L 286.777034 290.22902 
L 287.149154 289.664539 
L 287.521274 289.044094 
" clip-path="url(#p543bf6a615)" style="fill: none; stroke: #008000; stroke-width: 1.5; stroke-linecap: square"/>
   </g>
   <g id="line2d_69">
    <path d="M 287.537506 289.109998 
L 287.909626 288.426307 
L 288.281746 287.67727 
L 288.653866 286.861068 
L 289.025986 285.975878 
L 289.398106 285.019872 
L 289.770226 283.991218 
L 290.142346 282.888079 
L 290.514465 281.708612 
L 290.886585 280.450972 
L 291.258705 279.113307 
L 291.630825 277.69376 
" clip-path="url(#p543bf6a615)" style="fill: none; stroke: #008000; stroke-width: 1.5; stroke-linecap: square"/>
   </g>
   <g id="line2d_70">
    <path d="M 291.647058 277.708807 
L 292.019178 276.1993 
L 292.391297 274.59935 
L 292.763417 272.90733 
L 293.135537 271.121766 
L 293.507657 269.241337 
L 293.879777 267.26488 
L 294.251897 265.191382 
L 294.624017 263.019989 
L 294.996136 260.749996 
L 295.368256 258.380857 
L 295.740376 255.912179 
" clip-path="url(#p543bf6a615)" style="fill: none; stroke: #008000; stroke-width: 1.5; stroke-linecap: square"/>
   </g>
   <g id="line2d_71">
    <path d="M 295.756609 255.80059 
L 296.128729 253.22783 
L 296.500849 250.555303 
L 296.872968 247.783083 
L 297.245088 244.91139 
L 297.617208 241.9406 
L 297.989328 238.871236 
L 298.361448 235.703975 
L 298.733568 232.439642 
L 299.105688 229.079216 
L 299.477808 225.623825 
L 299.849927 222.074751 
" clip-path="url(#p543bf6a615)" style="fill: none; stroke: #008000; stroke-width: 1.5; stroke-linecap: square"/>
   </g>
   <g id="line2d_72">
    <path d="M 299.86616 222.470112 
L 300.23828 218.45017 
L 300.6104 214.430228 
L 300.98252 210.410287 
L 301.35464 206.390345 
L 301.726759 202.370403 
L 302.098879 198.350461 
L 302.470999 194.330519 
L 302.843119 190.310578 
L 303.215239 186.290636 
L 303.587359 182.270694 
L 303.959479 178.250752 
" clip-path="url(#p543bf6a615)" style="fill: none; stroke: #008000; stroke-width: 1.5; stroke-linecap: square"/>
   </g>
   <g id="line2d_73">
    <path d="M 303.975711 176.797195 
L 304.347831 172.246206 
L 304.719951 167.642358 
L 305.092071 162.992607 
L 305.464191 158.304392 
L 305.836311 153.585626 
L 306.20843 148.844707 
L 306.58055 144.090508 
L 306.95267 139.332383 
L 307.32479 134.580166 
L 307.69691 129.84417 
L 308.06903 125.135185 
" clip-path="url(#p543bf6a615)" style="fill: none; stroke: #008000; stroke-width: 1.5; stroke-linecap: square"/>
   </g>
   <g id="line2d_74">
    <path d="M 308.085263 124.625035 
L 308.457382 119.966044 
L 308.829502 115.376025 
L 309.201622 110.866291 
L 309.573742 106.448019 
L 309.945862 102.132246 
L 310.317982 97.929877 
L 310.690102 93.851675 
L 311.062221 89.90827 
L 311.434341 86.110152 
L 311.806461 82.467677 
L 312.178581 78.991062 
" clip-path="url(#p543bf6a615)" style="fill: none; stroke: #008000; stroke-width: 1.5; stroke-linecap: square"/>
   </g>
   <g id="line2d_75">
    <path d="M 312.194814 78.574941 
L 312.566934 75.290757 
L 312.939053 72.209066 
L 313.311173 69.338846 
L 313.683293 66.688394 
L 314.055413 64.265333 
L 314.427533 62.076604 
L 314.799653 60.128472 
L 315.171773 58.426523 
L 315.543892 56.975665 
L 315.916012 55.780128 
L 316.288132 54.843462 
" clip-path="url(#p543bf6a615)" style="fill: none; stroke: #008000; stroke-width: 1.5; stroke-linecap: square"/>
   </g>
   <g id="line2d_76">
    <path d="M 316.304365 54.748301 
L 316.676485 54.086782 
L 317.048605 53.692914 
L 317.420725 53.568 
L 317.792844 53.712543 
L 318.164964 54.126245 
L 318.537084 54.808009 
L 318.909204 55.755939 
L 319.281324 56.967339 
L 319.653444 58.438713 
L 320.025564 60.165764 
L 320.397683 62.143398 
" clip-path="url(#p543bf6a615)" style="fill: none; stroke: #008000; stroke-width: 1.5; stroke-linecap: square"/>
   </g>
   <g id="line2d_77">
    <path d="M 320.413916 62.404488 
L 320.786036 64.631922 
L 321.158156 67.086839 
L 321.530276 69.762229 
L 321.902396 72.650623 
L 322.274515 75.744094 
L 322.646635 79.034257 
L 323.018755 82.512267 
L 323.390875 86.168822 
L 323.762995 89.994162 
L 324.135115 93.978066 
L 324.507235 98.109857 
" clip-path="url(#p543bf6a615)" style="fill: none; stroke: #008000; stroke-width: 1.5; stroke-linecap: square"/>
   </g>
   <g id="line2d_78">
    <path d="M 324.523467 98.580072 
L 324.895587 102.845143 
L 325.267707 107.217567 
L 325.639827 111.686153 
L 326.011947 116.239827 
L 326.384067 120.867636 
L 326.756187 125.558746 
L 327.128306 130.302446 
L 327.500426 135.088141 
L 327.872546 139.905359 
L 328.244666 144.743745 
L 328.616786 149.593067 
" clip-path="url(#p543bf6a615)" style="fill: none; stroke: #008000; stroke-width: 1.5; stroke-linecap: square"/>
   </g>
   <g id="line2d_79">
    <path d="M 328.633019 150.053514 
L 329.005138 154.895504 
L 329.377258 159.712892 
L 329.749378 164.496575 
L 330.121498 169.238068 
L 330.493618 173.929511 
L 330.865738 178.563664 
L 331.237858 183.133911 
L 331.609977 187.634256 
L 331.982097 192.059324 
L 332.354217 196.404364 
L 332.726337 200.665245 
" clip-path="url(#p543bf6a615)" style="fill: none; stroke: #008000; stroke-width: 1.5; stroke-linecap: square"/>
   </g>
   <g id="line2d_80">
    <path d="M 332.74257 201.765383 
L 333.11469 205.471538 
L 333.486809 209.177694 
L 333.858929 212.883849 
L 334.231049 216.590004 
L 334.603169 220.296159 
L 334.975289 224.002314 
L 335.347409 227.708469 
L 335.719529 231.414625 
L 336.091649 235.12078 
L 336.463768 238.826935 
L 336.835888 242.53309 
" clip-path="url(#p543bf6a615)" style="fill: none; stroke: #008000; stroke-width: 1.5; stroke-linecap: square"/>
   </g>
   <g id="line2d_81">
    <path d="M 336.852121 242.080618 
L 337.224241 245.275739 
L 337.596361 248.368339 
L 337.968481 251.35675 
L 338.3406 254.23943 
L 338.71272 257.014971 
L 339.08484 259.682093 
L 339.45696 262.239645 
L 339.82908 264.686608 
L 340.2012 267.022092 
L 340.57332 269.245338 
L 340.945439 271.355715 
" clip-path="url(#p543bf6a615)" style="fill: none; stroke: #008000; stroke-width: 1.5; stroke-linecap: square"/>
   </g>
   <g id="line2d_82">
    <path d="M 340.961672 271.517649 
L 341.333792 273.507386 
L 341.705912 275.379006 
L 342.078032 277.132497 
L 342.450152 278.768124 
L 342.822271 280.286428 
L 343.194391 281.688225 
L 343.566511 282.97461 
L 343.938631 284.146951 
L 344.310751 285.206893 
L 344.682871 286.156359 
L 345.054991 286.997546 
" clip-path="url(#p543bf6a615)" style="fill: none; stroke: #008000; stroke-width: 1.5; stroke-linecap: square"/>
   </g>
   <g id="line2d_83">
    <path d="M 345.071223 286.978109 
L 345.443343 287.710655 
L 345.815463 288.34351 
L 346.187583 288.879547 
L 346.559703 289.321807 
L 346.931823 289.673501 
L 347.303943 289.938004 
L 347.676062 290.118861 
L 348.048182 290.219787 
L 348.420302 290.24466 
L 348.792422 290.19753 
L 349.164542 290.082613 
" clip-path="url(#p543bf6a615)" style="fill: none; stroke: #008000; stroke-width: 1.5; stroke-linecap: square"/>
   </g>
   <g id="line2d_84">
    <path d="M 349.180775 289.969816 
L 349.552894 289.792234 
L 349.925014 289.562411 
L 350.297134 289.284748 
L 350.669254 288.963599 
L 351.041374 288.603272 
L 351.413494 288.208028 
L 351.785614 287.782082 
L 352.157733 287.329601 
L 352.529853 286.854708 
L 352.901973 286.361477 
L 353.274093 285.853937 
" clip-path="url(#p543bf6a615)" style="fill: none; stroke: #008000; stroke-width: 1.5; stroke-linecap: square"/>
   </g>
   <g id="line2d_85">
    <path d="M 353.290326 285.744789 
L 353.662446 285.229336 
L 354.034566 284.712889 
L 354.406685 284.199069 
L 354.778805 283.691275 
L 355.150925 283.192684 
L 355.523045 282.706253 
L 355.895165 282.234714 
L 356.267285 281.780582 
L 356.639405 281.346147 
L 357.011524 280.93348 
L 357.383644 280.544428 
" clip-path="url(#p543bf6a615)" style="fill: none; stroke: #008000; stroke-width: 1.5; stroke-linecap: square"/>
   </g>
   <g id="line2d_86">
    <path d="M 357.399877 280.527996 
L 357.771997 280.165322 
L 358.144117 279.829353 
L 358.516237 279.521263 
L 358.888356 279.242004 
L 359.260476 278.992307 
L 359.632596 278.772683 
L 360.004716 278.583417 
L 360.376836 278.424577 
L 360.748956 278.296008 
L 361.121076 278.197331 
L 361.493195 278.127949 
" clip-path="url(#p543bf6a615)" style="fill: none; stroke: #008000; stroke-width: 1.5; stroke-linecap: square"/>
   </g>
   <g id="line2d_87">
    <path d="M 361.509428 278.208001 
L 361.881548 278.165676 
L 362.253668 278.145766 
L 362.625788 278.147249 
L 362.997908 278.169052 
L 363.370028 278.210044 
L 363.742147 278.269038 
L 364.114267 278.344794 
L 364.486387 278.436015 
L 364.858507 278.541349 
L 365.230627 278.659389 
L 365.602747 278.788673 
" clip-path="url(#p543bf6a615)" style="fill: none; stroke: #008000; stroke-width: 1.5; stroke-linecap: square"/>
   </g>
   <g id="line2d_88">
    <path d="M 365.618979 278.863082 
L 365.991099 279.000287 
L 366.363219 279.141444 
L 366.735339 279.285132 
L 367.107459 279.430013 
L 367.479579 279.574834 
L 367.851699 279.718421 
L 368.223818 279.859687 
L 368.595938 279.997625 
L 368.968058 280.131312 
L 369.340178 280.259908 
L 369.712298 280.382656 
" clip-path="url(#p543bf6a615)" style="fill: none; stroke: #008000; stroke-width: 1.5; stroke-linecap: square"/>
   </g>
   <g id="line2d_89">
    <path d="M 369.728531 280.38673 
L 370.10065 280.502693 
L 370.47277 280.611586 
L 370.84489 280.712902 
L 371.21701 280.806212 
L 371.58913 280.891169 
L 371.96125 280.967507 
L 372.33337 281.035039 
L 372.70549 281.093661 
L 373.077609 281.143347 
L 373.449729 281.184154 
L 373.821849 281.216218 
" clip-path="url(#p543bf6a615)" style="fill: none; stroke: #008000; stroke-width: 1.5; stroke-linecap: square"/>
   </g>
   <g id="line2d_90">
    <path d="M 373.838082 281.183817 
L 374.210202 281.208064 
L 374.582322 281.226124 
L 374.954441 281.238274 
L 375.326561 281.244807 
L 375.698681 281.246027 
L 376.070801 281.242251 
L 376.442921 281.233809 
L 376.815041 281.221045 
L 377.187161 281.204313 
L 377.55928 281.183983 
L 377.9314 281.160435 
" clip-path="url(#p543bf6a615)" style="fill: none; stroke: #008000; stroke-width: 1.5; stroke-linecap: square"/>
   </g>
   <g id="line2d_91">
    <path d="M 377.947633 281.142356 
L 378.319753 281.116415 
L 378.691873 281.0891 
L 379.063993 281.06078 
L 379.436112 281.031802 
L 379.808232 281.00249 
L 380.180352 280.97315 
L 380.552472 280.944064 
L 380.924592 280.915493 
L 381.296712 280.887676 
L 381.668832 280.860834 
L 382.040952 280.835161 
" clip-path="url(#p543bf6a615)" style="fill: none; stroke: #008000; stroke-width: 1.5; stroke-linecap: square"/>
   </g>
   <g id="line2d_92">
    <path d="M 382.057184 280.835412 
L 382.429304 280.811106 
L 382.801424 280.788225 
L 383.173544 280.766905 
L 383.545664 280.747265 
L 383.917784 280.729402 
L 384.289903 280.713396 
L 384.662023 280.699309 
L 385.034143 280.687182 
L 385.406263 280.67704 
L 385.778383 280.668887 
L 386.150503 280.66271 
" clip-path="url(#p543bf6a615)" style="fill: none; stroke: #008000; stroke-width: 1.5; stroke-linecap: square"/>
   </g>
   <g id="line2d_93">
    <path d="M 386.166735 280.667541 
L 386.538855 280.663229 
L 386.910975 280.660501 
L 387.283095 280.659303 
L 387.655215 280.659571 
L 388.027335 280.661232 
L 388.399455 280.664206 
L 388.771574 280.668404 
L 389.143694 280.673727 
L 389.515814 280.68007 
L 389.887934 280.687317 
L 390.260054 280.695346 
" clip-path="url(#p543bf6a615)" style="fill: none; stroke: #008000; stroke-width: 1.5; stroke-linecap: square"/>
   </g>
   <g id="line2d_94">
    <path d="M 390.276287 280.703482 
L 390.648407 280.711936 
L 391.020526 280.720426 
L 391.392646 280.728824 
L 391.764766 280.737013 
L 392.136886 280.744882 
L 392.509006 280.752327 
L 392.881126 280.759251 
L 393.253246 280.765564 
L 393.625365 280.771185 
L 393.997485 280.776037 
L 394.369605 280.780052 
" clip-path="url(#p543bf6a615)" style="fill: none; stroke: #008000; stroke-width: 1.5; stroke-linecap: square"/>
   </g>
   <g id="line2d_95">
    <path d="M 394.385838 280.768771 
L 394.757958 280.771473 
L 395.130078 280.773894 
L 395.502197 280.776047 
L 395.874317 280.777943 
L 396.246437 280.779593 
L 396.618557 280.781008 
L 396.990677 280.782199 
L 397.362797 280.783177 
L 397.734917 280.783953 
L 398.107037 280.784536 
L 398.479156 280.784937 
" clip-path="url(#p543bf6a615)" style="fill: none; stroke: #008000; stroke-width: 1.5; stroke-linecap: square"/>
   </g>
   <g id="patch_3">
    <path d="M 57.6 307.584 
L 57.6 41.472 
" style="fill: none; stroke: #000000; stroke-width: 0.8; stroke-linejoin: miter; stroke-linecap: square"/>
   </g>
   <g id="patch_4">
    <path d="M 414.72 307.584 
L 414.72 41.472 
" style="fill: none; stroke: #000000; stroke-width: 0.8; stroke-linejoin: miter; stroke-linecap: square"/>
   </g>
   <g id="patch_5">
    <path d="M 57.6 307.584 
L 414.72 307.584 
" style="fill: none; stroke: #000000; stroke-width: 0.8; stroke-linejoin: miter; stroke-linecap: square"/>
   </g>
   <g id="patch_6">
    <path d="M 57.6 41.472 
L 414.72 41.472 
" style="fill: none; stroke: #000000; stroke-width: 0.8; stroke-linejoin: miter; stroke-linecap: square"/>
   </g>
   <g id="legend_1">
    <g id="patch_7">
     <path d="M 64.6 93.906375 
L 210.795312 93.906375 
Q 212.795312 93.906375 212.795312 91.906375 
L 212.795312 48.472 
Q 212.795312 46.472 210.795312 46.472 
L 64.6 46.472 
Q 62.6 46.472 62.6 48.472 
L 62.6 91.906375 
Q 62.6 93.906375 64.6 93.906375 
z
" style="fill: #ffffff; opacity: 0.8; stroke: #cccccc; stroke-linejoin: miter"/>
    </g>
    <g id="line2d_96">
     <path d="M 66.6 54.570437 
L 76.6 54.570437 
L 86.6 54.570437 
" style="fill: none; stroke: #0000ff; stroke-width: 1.5; stroke-linecap: square"/>
    </g>
    <g id="text_18">
     <!-- Původní funkce -->
     <g transform="translate(94.6 58.070437)scale(0.1 -0.1)">
      <defs>
       <path id="DejaVuSans-50" d="M 1259 4147 
L 1259 2394 
L 2053 2394 
Q 2494 2394 2734 2622 
Q 2975 2850 2975 3272 
Q 2975 3691 2734 3919 
Q 2494 4147 2053 4147 
L 1259 4147 
z
M 628 4666 
L 2053 4666 
Q 2838 4666 3239 4311 
Q 3641 3956 3641 3272 
Q 3641 2581 3239 2228 
Q 2838 1875 2053 1875 
L 1259 1875 
L 1259 0 
L 628 0 
L 628 4666 
z
" transform="scale(0.015625)"/>
       <path id="DejaVuSans-16f" d="M 544 1381 
L 544 3500 
L 1119 3500 
L 1119 1403 
Q 1119 906 1312 657 
Q 1506 409 1894 409 
Q 2359 409 2629 706 
Q 2900 1003 2900 1516 
L 2900 3500 
L 3475 3500 
L 3475 0 
L 2900 0 
L 2900 538 
Q 2691 219 2414 64 
Q 2138 -91 1772 -91 
Q 1169 -91 856 284 
Q 544 659 544 1381 
z
M 1991 3584 
L 1991 3584 
z
M 2463 4575 
Q 2463 4771 2325 4908 
Q 2188 5046 1988 5046 
Q 1784 5046 1648 4910 
Q 1513 4775 1513 4575 
Q 1513 4371 1648 4235 
Q 1784 4100 1988 4100 
Q 2188 4100 2325 4237 
Q 2463 4375 2463 4575 
z
M 2844 4575 
Q 2844 4215 2595 3965 
Q 2347 3715 1988 3715 
Q 1628 3715 1379 3965 
Q 1131 4215 1131 4575 
Q 1131 4934 1379 5182 
Q 1628 5431 1988 5431 
Q 2347 5431 2595 5182 
Q 2844 4934 2844 4575 
z
" transform="scale(0.015625)"/>
       <path id="DejaVuSans-76" d="M 191 3500 
L 800 3500 
L 1894 563 
L 2988 3500 
L 3597 3500 
L 2284 0 
L 1503 0 
L 191 3500 
z
" transform="scale(0.015625)"/>
       <path id="DejaVuSans-6f" d="M 1959 3097 
Q 1497 3097 1228 2736 
Q 959 2375 959 1747 
Q 959 1119 1226 758 
Q 1494 397 1959 397 
Q 2419 397 2687 759 
Q 2956 1122 2956 1747 
Q 2956 2369 2687 2733 
Q 2419 3097 1959 3097 
z
M 1959 3584 
Q 2709 3584 3137 3096 
Q 3566 2609 3566 1747 
Q 3566 888 3137 398 
Q 2709 -91 1959 -91 
Q 1206 -91 779 398 
Q 353 888 353 1747 
Q 353 2609 779 3096 
Q 1206 3584 1959 3584 
z
" transform="scale(0.015625)"/>
       <path id="DejaVuSans-64" d="M 2906 2969 
L 2906 4863 
L 3481 4863 
L 3481 0 
L 2906 0 
L 2906 525 
Q 2725 213 2448 61 
Q 2172 -91 1784 -91 
Q 1150 -91 751 415 
Q 353 922 353 1747 
Q 353 2572 751 3078 
Q 1150 3584 1784 3584 
Q 2172 3584 2448 3432 
Q 2725 3281 2906 2969 
z
M 947 1747 
Q 947 1113 1208 752 
Q 1469 391 1925 391 
Q 2381 391 2643 752 
Q 2906 1113 2906 1747 
Q 2906 2381 2643 2742 
Q 2381 3103 1925 3103 
Q 1469 3103 1208 2742 
Q 947 2381 947 1747 
z
" transform="scale(0.015625)"/>
       <path id="DejaVuSans-6e" d="M 3513 2113 
L 3513 0 
L 2938 0 
L 2938 2094 
Q 2938 2591 2744 2837 
Q 2550 3084 2163 3084 
Q 1697 3084 1428 2787 
Q 1159 2491 1159 1978 
L 1159 0 
L 581 0 
L 581 3500 
L 1159 3500 
L 1159 2956 
Q 1366 3272 1645 3428 
Q 1925 3584 2291 3584 
Q 2894 3584 3203 3211 
Q 3513 2838 3513 2113 
z
" transform="scale(0.015625)"/>
       <path id="DejaVuSans-ed" d="M 1325 5119 
L 1947 5119 
L 928 3944 
L 450 3944 
L 1325 5119 
z
M 603 3500 
L 1178 3500 
L 1178 0 
L 603 0 
L 603 3500 
z
M 891 3584 
L 891 3584 
z
" transform="scale(0.015625)"/>
       <path id="DejaVuSans-20" transform="scale(0.015625)"/>
       <path id="DejaVuSans-66" d="M 2375 4863 
L 2375 4384 
L 1825 4384 
Q 1516 4384 1395 4259 
Q 1275 4134 1275 3809 
L 1275 3500 
L 2222 3500 
L 2222 3053 
L 1275 3053 
L 1275 0 
L 697 0 
L 697 3053 
L 147 3053 
L 147 3500 
L 697 3500 
L 697 3744 
Q 697 4328 969 4595 
Q 1241 4863 1831 4863 
L 2375 4863 
z
" transform="scale(0.015625)"/>
       <path id="DejaVuSans-75" d="M 544 1381 
L 544 3500 
L 1119 3500 
L 1119 1403 
Q 1119 906 1312 657 
Q 1506 409 1894 409 
Q 2359 409 2629 706 
Q 2900 1003 2900 1516 
L 2900 3500 
L 3475 3500 
L 3475 0 
L 2900 0 
L 2900 538 
Q 2691 219 2414 64 
Q 2138 -91 1772 -91 
Q 1169 -91 856 284 
Q 544 659 544 1381 
z
M 1991 3584 
L 1991 3584 
z
" transform="scale(0.015625)"/>
       <path id="DejaVuSans-6b" d="M 581 4863 
L 1159 4863 
L 1159 1991 
L 2875 3500 
L 3609 3500 
L 1753 1863 
L 3688 0 
L 2938 0 
L 1159 1709 
L 1159 0 
L 581 0 
L 581 4863 
z
" transform="scale(0.015625)"/>
       <path id="DejaVuSans-63" d="M 3122 3366 
L 3122 2828 
Q 2878 2963 2633 3030 
Q 2388 3097 2138 3097 
Q 1578 3097 1268 2742 
Q 959 2388 959 1747 
Q 959 1106 1268 751 
Q 1578 397 2138 397 
Q 2388 397 2633 464 
Q 2878 531 3122 666 
L 3122 134 
Q 2881 22 2623 -34 
Q 2366 -91 2075 -91 
Q 1284 -91 818 406 
Q 353 903 353 1747 
Q 353 2603 823 3093 
Q 1294 3584 2113 3584 
Q 2378 3584 2631 3529 
Q 2884 3475 3122 3366 
z
" transform="scale(0.015625)"/>
       <path id="DejaVuSans-65" d="M 3597 1894 
L 3597 1613 
L 953 1613 
Q 991 1019 1311 708 
Q 1631 397 2203 397 
Q 2534 397 2845 478 
Q 3156 559 3463 722 
L 3463 178 
Q 3153 47 2828 -22 
Q 2503 -91 2169 -91 
Q 1331 -91 842 396 
Q 353 884 353 1716 
Q 353 2575 817 3079 
Q 1281 3584 2069 3584 
Q 2775 3584 3186 3129 
Q 3597 2675 3597 1894 
z
M 3022 2063 
Q 3016 2534 2758 2815 
Q 2500 3097 2075 3097 
Q 1594 3097 1305 2825 
Q 1016 2553 972 2059 
L 3022 2063 
z
" transform="scale(0.015625)"/>
      </defs>
      <use xlink:href="#DejaVuSans-50"/>
      <use xlink:href="#DejaVuSans-16f" x="58.552734"/>
      <use xlink:href="#DejaVuSans-76" x="121.931641"/>
      <use xlink:href="#DejaVuSans-6f" x="181.111328"/>
      <use xlink:href="#DejaVuSans-64" x="242.292969"/>
      <use xlink:href="#DejaVuSans-6e" x="305.769531"/>
      <use xlink:href="#DejaVuSans-ed" x="369.148438"/>
      <use xlink:href="#DejaVuSans-20" x="396.931641"/>
      <use xlink:href="#DejaVuSans-66" x="428.71875"/>
      <use xlink:href="#DejaVuSans-75" x="463.923828"/>
      <use xlink:href="#DejaVuSans-6e" x="527.302734"/>
      <use xlink:href="#DejaVuSans-6b" x="590.681641"/>
      <use xlink:href="#DejaVuSans-63" x="648.591797"/>
      <use xlink:href="#DejaVuSans-65" x="703.572266"/>
     </g>
    </g>
    <g id="PathCollection_2">
     <g>
      <use xlink:href="#m3a518b90d7" x="76.6" y="70.523562" style="fill: #228b22; stroke: #228b22"/>
     </g>
    </g>
    <g id="text_19">
     <!-- Střední hodnoty buněk -->
     <g transform="translate(94.6 73.148562)scale(0.1 -0.1)">
      <defs>
       <path id="DejaVuSans-53" d="M 3425 4513 
L 3425 3897 
Q 3066 4069 2747 4153 
Q 2428 4238 2131 4238 
Q 1616 4238 1336 4038 
Q 1056 3838 1056 3469 
Q 1056 3159 1242 3001 
Q 1428 2844 1947 2747 
L 2328 2669 
Q 3034 2534 3370 2195 
Q 3706 1856 3706 1288 
Q 3706 609 3251 259 
Q 2797 -91 1919 -91 
Q 1588 -91 1214 -16 
Q 841 59 441 206 
L 441 856 
Q 825 641 1194 531 
Q 1563 422 1919 422 
Q 2459 422 2753 634 
Q 3047 847 3047 1241 
Q 3047 1584 2836 1778 
Q 2625 1972 2144 2069 
L 1759 2144 
Q 1053 2284 737 2584 
Q 422 2884 422 3419 
Q 422 4038 858 4394 
Q 1294 4750 2059 4750 
Q 2388 4750 2728 4690 
Q 3069 4631 3425 4513 
z
" transform="scale(0.015625)"/>
       <path id="DejaVuSans-74" d="M 1172 4494 
L 1172 3500 
L 2356 3500 
L 2356 3053 
L 1172 3053 
L 1172 1153 
Q 1172 725 1289 603 
Q 1406 481 1766 481 
L 2356 481 
L 2356 0 
L 1766 0 
Q 1100 0 847 248 
Q 594 497 594 1153 
L 594 3053 
L 172 3053 
L 172 3500 
L 594 3500 
L 594 4494 
L 1172 4494 
z
" transform="scale(0.015625)"/>
       <path id="DejaVuSans-159" d="M 2631 2963 
Q 2534 3019 2420 3045 
Q 2306 3072 2169 3072 
Q 1681 3072 1420 2755 
Q 1159 2438 1159 1844 
L 1159 0 
L 581 0 
L 581 3500 
L 1159 3500 
L 1159 2956 
Q 1341 3275 1631 3429 
Q 1922 3584 2338 3584 
Q 2397 3584 2469 3576 
Q 2541 3569 2628 3553 
L 2631 2963 
z
M 1453 3944 
L 688 5119 
L 1122 5119 
L 1684 4353 
L 2247 5119 
L 2681 5119 
L 1916 3944 
L 1453 3944 
z
" transform="scale(0.015625)"/>
       <path id="DejaVuSans-68" d="M 3513 2113 
L 3513 0 
L 2938 0 
L 2938 2094 
Q 2938 2591 2744 2837 
Q 2550 3084 2163 3084 
Q 1697 3084 1428 2787 
Q 1159 2491 1159 1978 
L 1159 0 
L 581 0 
L 581 4863 
L 1159 4863 
L 1159 2956 
Q 1366 3272 1645 3428 
Q 1925 3584 2291 3584 
Q 2894 3584 3203 3211 
Q 3513 2838 3513 2113 
z
" transform="scale(0.015625)"/>
       <path id="DejaVuSans-79" d="M 2059 -325 
Q 1816 -950 1584 -1140 
Q 1353 -1331 966 -1331 
L 506 -1331 
L 506 -850 
L 844 -850 
Q 1081 -850 1212 -737 
Q 1344 -625 1503 -206 
L 1606 56 
L 191 3500 
L 800 3500 
L 1894 763 
L 2988 3500 
L 3597 3500 
L 2059 -325 
z
" transform="scale(0.015625)"/>
       <path id="DejaVuSans-62" d="M 3116 1747 
Q 3116 2381 2855 2742 
Q 2594 3103 2138 3103 
Q 1681 3103 1420 2742 
Q 1159 2381 1159 1747 
Q 1159 1113 1420 752 
Q 1681 391 2138 391 
Q 2594 391 2855 752 
Q 3116 1113 3116 1747 
z
M 1159 2969 
Q 1341 3281 1617 3432 
Q 1894 3584 2278 3584 
Q 2916 3584 3314 3078 
Q 3713 2572 3713 1747 
Q 3713 922 3314 415 
Q 2916 -91 2278 -91 
Q 1894 -91 1617 61 
Q 1341 213 1159 525 
L 1159 0 
L 581 0 
L 581 4863 
L 1159 4863 
L 1159 2969 
z
" transform="scale(0.015625)"/>
       <path id="DejaVuSans-11b" d="M 3597 1894 
L 3597 1613 
L 953 1613 
Q 991 1019 1311 708 
Q 1631 397 2203 397 
Q 2534 397 2845 478 
Q 3156 559 3463 722 
L 3463 178 
Q 3153 47 2828 -22 
Q 2503 -91 2169 -91 
Q 1331 -91 842 396 
Q 353 884 353 1716 
Q 353 2575 817 3079 
Q 1281 3584 2069 3584 
Q 2775 3584 3186 3129 
Q 3597 2675 3597 1894 
z
M 3022 2063 
Q 3016 2534 2758 2815 
Q 2500 3097 2075 3097 
Q 1594 3097 1305 2825 
Q 1016 2553 972 2059 
L 3022 2063 
z
M 1831 3928 
L 1066 5103 
L 1500 5103 
L 2063 4337 
L 2625 5103 
L 3059 5103 
L 2294 3928 
L 1831 3928 
z
" transform="scale(0.015625)"/>
      </defs>
      <use xlink:href="#DejaVuSans-53"/>
      <use xlink:href="#DejaVuSans-74" x="63.476562"/>
      <use xlink:href="#DejaVuSans-159" x="102.685547"/>
      <use xlink:href="#DejaVuSans-65" x="141.548828"/>
      <use xlink:href="#DejaVuSans-64" x="203.072266"/>
      <use xlink:href="#DejaVuSans-6e" x="266.548828"/>
      <use xlink:href="#DejaVuSans-ed" x="329.927734"/>
      <use xlink:href="#DejaVuSans-20" x="357.710938"/>
      <use xlink:href="#DejaVuSans-68" x="389.498047"/>
      <use xlink:href="#DejaVuSans-6f" x="452.876953"/>
      <use xlink:href="#DejaVuSans-64" x="514.058594"/>
      <use xlink:href="#DejaVuSans-6e" x="577.535156"/>
      <use xlink:href="#DejaVuSans-6f" x="640.914062"/>
      <use xlink:href="#DejaVuSans-74" x="702.095703"/>
      <use xlink:href="#DejaVuSans-79" x="741.304688"/>
      <use xlink:href="#DejaVuSans-20" x="800.484375"/>
      <use xlink:href="#DejaVuSans-62" x="832.271484"/>
      <use xlink:href="#DejaVuSans-75" x="895.748047"/>
      <use xlink:href="#DejaVuSans-6e" x="959.126953"/>
      <use xlink:href="#DejaVuSans-11b" x="1022.505859"/>
      <use xlink:href="#DejaVuSans-6b" x="1084.029297"/>
     </g>
    </g>
    <g id="line2d_97">
     <path d="M 66.6 84.326687 
L 76.6 84.326687 
L 86.6 84.326687 
" style="fill: none; stroke: #008000; stroke-width: 1.5; stroke-linecap: square"/>
    </g>
    <g id="text_20">
     <!-- Rekonstrukce -->
     <g transform="translate(94.6 87.826687)scale(0.1 -0.1)">
      <defs>
       <path id="DejaVuSans-52" d="M 2841 2188 
Q 3044 2119 3236 1894 
Q 3428 1669 3622 1275 
L 4263 0 
L 3584 0 
L 2988 1197 
Q 2756 1666 2539 1819 
Q 2322 1972 1947 1972 
L 1259 1972 
L 1259 0 
L 628 0 
L 628 4666 
L 2053 4666 
Q 2853 4666 3247 4331 
Q 3641 3997 3641 3322 
Q 3641 2881 3436 2590 
Q 3231 2300 2841 2188 
z
M 1259 4147 
L 1259 2491 
L 2053 2491 
Q 2509 2491 2742 2702 
Q 2975 2913 2975 3322 
Q 2975 3731 2742 3939 
Q 2509 4147 2053 4147 
L 1259 4147 
z
" transform="scale(0.015625)"/>
       <path id="DejaVuSans-73" d="M 2834 3397 
L 2834 2853 
Q 2591 2978 2328 3040 
Q 2066 3103 1784 3103 
Q 1356 3103 1142 2972 
Q 928 2841 928 2578 
Q 928 2378 1081 2264 
Q 1234 2150 1697 2047 
L 1894 2003 
Q 2506 1872 2764 1633 
Q 3022 1394 3022 966 
Q 3022 478 2636 193 
Q 2250 -91 1575 -91 
Q 1294 -91 989 -36 
Q 684 19 347 128 
L 347 722 
Q 666 556 975 473 
Q 1284 391 1588 391 
Q 1994 391 2212 530 
Q 2431 669 2431 922 
Q 2431 1156 2273 1281 
Q 2116 1406 1581 1522 
L 1381 1569 
Q 847 1681 609 1914 
Q 372 2147 372 2553 
Q 372 3047 722 3315 
Q 1072 3584 1716 3584 
Q 2034 3584 2315 3537 
Q 2597 3491 2834 3397 
z
" transform="scale(0.015625)"/>
       <path id="DejaVuSans-72" d="M 2631 2963 
Q 2534 3019 2420 3045 
Q 2306 3072 2169 3072 
Q 1681 3072 1420 2755 
Q 1159 2438 1159 1844 
L 1159 0 
L 581 0 
L 581 3500 
L 1159 3500 
L 1159 2956 
Q 1341 3275 1631 3429 
Q 1922 3584 2338 3584 
Q 2397 3584 2469 3576 
Q 2541 3569 2628 3553 
L 2631 2963 
z
" transform="scale(0.015625)"/>
      </defs>
      <use xlink:href="#DejaVuSans-52"/>
      <use xlink:href="#DejaVuSans-65" x="64.982422"/>
      <use xlink:href="#DejaVuSans-6b" x="126.505859"/>
      <use xlink:href="#DejaVuSans-6f" x="180.791016"/>
      <use xlink:href="#DejaVuSans-6e" x="241.972656"/>
      <use xlink:href="#DejaVuSans-73" x="305.351562"/>
      <use xlink:href="#DejaVuSans-74" x="357.451172"/>
      <use xlink:href="#DejaVuSans-72" x="396.660156"/>
      <use xlink:href="#DejaVuSans-75" x="437.773438"/>
      <use xlink:href="#DejaVuSans-6b" x="501.152344"/>
      <use xlink:href="#DejaVuSans-63" x="559.0625"/>
      <use xlink:href="#DejaVuSans-65" x="614.042969"/>
     </g>
    </g>
   </g>
  </g>
 </g>
 <defs>
  <clipPath id="p543bf6a615">
   <rect x="57.6" y="41.472" width="357.12" height="266.112"/>
  </clipPath>
 </defs>
</svg>
