<?xml version="1.0" encoding="utf-8" standalone="no"?>
<!DOCTYPE svg PUBLIC "-//W3C//DTD SVG 1.1//EN"
  "http://www.w3.org/Graphics/SVG/1.1/DTD/svg11.dtd">
<svg xmlns:xlink="http://www.w3.org/1999/xlink" width="460.8pt" height="345.6pt" viewBox="0 0 460.8 345.6" xmlns="http://www.w3.org/2000/svg" version="1.1">
 <metadata>
  <rdf:RDF xmlns:dc="http://purl.org/dc/elements/1.1/" xmlns:cc="http://creativecommons.org/ns#" xmlns:rdf="http://www.w3.org/1999/02/22-rdf-syntax-ns#">
   <cc:Work>
    <dc:type rdf:resource="http://purl.org/dc/dcmitype/StillImage"/>
    <dc:date>2023-08-02T06:02:39.966367</dc:date>
    <dc:format>image/svg+xml</dc:format>
    <dc:creator>
     <cc:Agent>
      <dc:title>Matplotlib v3.5.2, https://matplotlib.org/</dc:title>
     </cc:Agent>
    </dc:creator>
   </cc:Work>
  </rdf:RDF>
 </metadata>
 <defs>
  <style type="text/css">*{stroke-linejoin: round; stroke-linecap: butt}</style>
 </defs>
 <g id="figure_1">
  <g id="patch_1">
   <path d="M 0 345.6 
L 460.8 345.6 
L 460.8 0 
L 0 0 
z
" style="fill: #ffffff"/>
  </g>
  <g id="axes_1">
   <g id="patch_2">
    <path d="M 57.6 307.584 
L 414.72 307.584 
L 414.72 41.472 
L 57.6 41.472 
z
" style="fill: #ffffff"/>
   </g>
   <g id="PathCollection_1">
    <defs>
     <path id="m4efa1e503d" d="M 0 3 
C 0.795609 3 1.55874 2.683901 2.12132 2.12132 
C 2.683901 1.55874 3 0.795609 3 0 
C 3 -0.795609 2.683901 -1.55874 2.12132 -2.12132 
C 1.55874 -2.683901 0.795609 -3 0 -3 
C -0.795609 -3 -1.55874 -2.683901 -2.12132 -2.12132 
C -2.683901 -1.55874 -3 -0.795609 -3 0 
C -3 0.795609 -2.683901 1.55874 -2.12132 2.12132 
C -1.55874 2.683901 -0.795609 3 0 3 
z
" style="stroke: #228b22"/>
    </defs>
    <g clip-path="url(#paf040551fd)">
     <use xlink:href="#m4efa1e503d" x="75.887503" y="295.488" style="fill: #228b22; stroke: #228b22"/>
     <use xlink:href="#m4efa1e503d" x="79.997054" y="295.488" style="fill: #228b22; stroke: #228b22"/>
     <use xlink:href="#m4efa1e503d" x="84.106605" y="295.488" style="fill: #228b22; stroke: #228b22"/>
     <use xlink:href="#m4efa1e503d" x="88.216157" y="295.488" style="fill: #228b22; stroke: #228b22"/>
     <use xlink:href="#m4efa1e503d" x="92.325708" y="295.488" style="fill: #228b22; stroke: #228b22"/>
     <use xlink:href="#m4efa1e503d" x="96.435259" y="295.488" style="fill: #228b22; stroke: #228b22"/>
     <use xlink:href="#m4efa1e503d" x="100.54481" y="295.488" style="fill: #228b22; stroke: #228b22"/>
     <use xlink:href="#m4efa1e503d" x="104.654361" y="295.473411" style="fill: #228b22; stroke: #228b22"/>
     <use xlink:href="#m4efa1e503d" x="108.763913" y="294.037678" style="fill: #228b22; stroke: #228b22"/>
     <use xlink:href="#m4efa1e503d" x="112.873464" y="276.298747" style="fill: #228b22; stroke: #228b22"/>
     <use xlink:href="#m4efa1e503d" x="116.983015" y="193.692693" style="fill: #228b22; stroke: #228b22"/>
     <use xlink:href="#m4efa1e503d" x="121.092566" y="76.884592" style="fill: #228b22; stroke: #228b22"/>
     <use xlink:href="#m4efa1e503d" x="125.202117" y="104.44483" style="fill: #228b22; stroke: #228b22"/>
     <use xlink:href="#m4efa1e503d" x="129.311669" y="227.610019" style="fill: #228b22; stroke: #228b22"/>
     <use xlink:href="#m4efa1e503d" x="133.42122" y="285.749868" style="fill: #228b22; stroke: #228b22"/>
     <use xlink:href="#m4efa1e503d" x="137.530771" y="294.946337" style="fill: #228b22; stroke: #228b22"/>
     <use xlink:href="#m4efa1e503d" x="141.640322" y="295.488" style="fill: #228b22; stroke: #228b22"/>
     <use xlink:href="#m4efa1e503d" x="145.749873" y="295.488" style="fill: #228b22; stroke: #228b22"/>
     <use xlink:href="#m4efa1e503d" x="149.859425" y="295.488" style="fill: #228b22; stroke: #228b22"/>
     <use xlink:href="#m4efa1e503d" x="153.968976" y="295.488" style="fill: #228b22; stroke: #228b22"/>
     <use xlink:href="#m4efa1e503d" x="158.078527" y="295.488" style="fill: #228b22; stroke: #228b22"/>
     <use xlink:href="#m4efa1e503d" x="162.188078" y="295.488" style="fill: #228b22; stroke: #228b22"/>
     <use xlink:href="#m4efa1e503d" x="166.297629" y="295.488" style="fill: #228b22; stroke: #228b22"/>
     <use xlink:href="#m4efa1e503d" x="170.407181" y="222.912" style="fill: #228b22; stroke: #228b22"/>
     <use xlink:href="#m4efa1e503d" x="174.516732" y="53.568" style="fill: #228b22; stroke: #228b22"/>
     <use xlink:href="#m4efa1e503d" x="178.626283" y="53.568" style="fill: #228b22; stroke: #228b22"/>
     <use xlink:href="#m4efa1e503d" x="182.735834" y="53.568" style="fill: #228b22; stroke: #228b22"/>
     <use xlink:href="#m4efa1e503d" x="186.845386" y="53.568" style="fill: #228b22; stroke: #228b22"/>
     <use xlink:href="#m4efa1e503d" x="190.954937" y="53.568" style="fill: #228b22; stroke: #228b22"/>
     <use xlink:href="#m4efa1e503d" x="195.064488" y="53.568" style="fill: #228b22; stroke: #228b22"/>
     <use xlink:href="#m4efa1e503d" x="199.174039" y="53.568" style="fill: #228b22; stroke: #228b22"/>
     <use xlink:href="#m4efa1e503d" x="203.28359" y="150.336" style="fill: #228b22; stroke: #228b22"/>
     <use xlink:href="#m4efa1e503d" x="207.393142" y="295.488" style="fill: #228b22; stroke: #228b22"/>
     <use xlink:href="#m4efa1e503d" x="211.502693" y="295.488" style="fill: #228b22; stroke: #228b22"/>
     <use xlink:href="#m4efa1e503d" x="215.612244" y="295.488" style="fill: #228b22; stroke: #228b22"/>
     <use xlink:href="#m4efa1e503d" x="219.721795" y="295.488" style="fill: #228b22; stroke: #228b22"/>
     <use xlink:href="#m4efa1e503d" x="223.831346" y="295.488" style="fill: #228b22; stroke: #228b22"/>
     <use xlink:href="#m4efa1e503d" x="227.940898" y="295.488" style="fill: #228b22; stroke: #228b22"/>
     <use xlink:href="#m4efa1e503d" x="232.050449" y="295.488" style="fill: #228b22; stroke: #228b22"/>
     <use xlink:href="#m4efa1e503d" x="236.16" y="287.832304" style="fill: #228b22; stroke: #228b22"/>
     <use xlink:href="#m4efa1e503d" x="240.269551" y="234.24243" style="fill: #228b22; stroke: #228b22"/>
     <use xlink:href="#m4efa1e503d" x="244.379102" y="172.996861" style="fill: #228b22; stroke: #228b22"/>
     <use xlink:href="#m4efa1e503d" x="248.488654" y="111.751291" style="fill: #228b22; stroke: #228b22"/>
     <use xlink:href="#m4efa1e503d" x="252.598205" y="69.032506" style="fill: #228b22; stroke: #228b22"/>
     <use xlink:href="#m4efa1e503d" x="256.707756" y="117.875848" style="fill: #228b22; stroke: #228b22"/>
     <use xlink:href="#m4efa1e503d" x="260.817307" y="179.121418" style="fill: #228b22; stroke: #228b22"/>
     <use xlink:href="#m4efa1e503d" x="264.926858" y="240.366987" style="fill: #228b22; stroke: #228b22"/>
     <use xlink:href="#m4efa1e503d" x="269.03641" y="290.588354" style="fill: #228b22; stroke: #228b22"/>
     <use xlink:href="#m4efa1e503d" x="273.145961" y="295.488" style="fill: #228b22; stroke: #228b22"/>
     <use xlink:href="#m4efa1e503d" x="277.255512" y="295.488" style="fill: #228b22; stroke: #228b22"/>
     <use xlink:href="#m4efa1e503d" x="281.365063" y="295.488" style="fill: #228b22; stroke: #228b22"/>
     <use xlink:href="#m4efa1e503d" x="285.474614" y="295.488" style="fill: #228b22; stroke: #228b22"/>
     <use xlink:href="#m4efa1e503d" x="289.584166" y="295.488" style="fill: #228b22; stroke: #228b22"/>
     <use xlink:href="#m4efa1e503d" x="293.693717" y="295.488" style="fill: #228b22; stroke: #228b22"/>
     <use xlink:href="#m4efa1e503d" x="297.803268" y="295.488" style="fill: #228b22; stroke: #228b22"/>
     <use xlink:href="#m4efa1e503d" x="301.912819" y="231.178565" style="fill: #228b22; stroke: #228b22"/>
     <use xlink:href="#m4efa1e503d" x="306.022371" y="123.926674" style="fill: #228b22; stroke: #228b22"/>
     <use xlink:href="#m4efa1e503d" x="310.131922" y="79.652118" style="fill: #228b22; stroke: #228b22"/>
     <use xlink:href="#m4efa1e503d" x="314.241473" y="58.761198" style="fill: #228b22; stroke: #228b22"/>
     <use xlink:href="#m4efa1e503d" x="318.351024" y="54.806904" style="fill: #228b22; stroke: #228b22"/>
     <use xlink:href="#m4efa1e503d" x="322.460575" y="66.880855" style="fill: #228b22; stroke: #228b22"/>
     <use xlink:href="#m4efa1e503d" x="326.570127" y="98.020256" style="fill: #228b22; stroke: #228b22"/>
     <use xlink:href="#m4efa1e503d" x="330.679678" y="162.829446" style="fill: #228b22; stroke: #228b22"/>
     <use xlink:href="#m4efa1e503d" x="334.789229" y="285.640431" style="fill: #228b22; stroke: #228b22"/>
     <use xlink:href="#m4efa1e503d" x="338.89878" y="295.488" style="fill: #228b22; stroke: #228b22"/>
     <use xlink:href="#m4efa1e503d" x="343.008331" y="295.488" style="fill: #228b22; stroke: #228b22"/>
     <use xlink:href="#m4efa1e503d" x="347.117883" y="295.488" style="fill: #228b22; stroke: #228b22"/>
     <use xlink:href="#m4efa1e503d" x="351.227434" y="295.488" style="fill: #228b22; stroke: #228b22"/>
     <use xlink:href="#m4efa1e503d" x="355.336985" y="295.488" style="fill: #228b22; stroke: #228b22"/>
     <use xlink:href="#m4efa1e503d" x="359.446536" y="295.488" style="fill: #228b22; stroke: #228b22"/>
     <use xlink:href="#m4efa1e503d" x="363.556087" y="295.488" style="fill: #228b22; stroke: #228b22"/>
     <use xlink:href="#m4efa1e503d" x="367.665639" y="295.488" style="fill: #228b22; stroke: #228b22"/>
     <use xlink:href="#m4efa1e503d" x="371.77519" y="295.488" style="fill: #228b22; stroke: #228b22"/>
     <use xlink:href="#m4efa1e503d" x="375.884741" y="295.488" style="fill: #228b22; stroke: #228b22"/>
     <use xlink:href="#m4efa1e503d" x="379.994292" y="295.488" style="fill: #228b22; stroke: #228b22"/>
     <use xlink:href="#m4efa1e503d" x="384.103843" y="295.488" style="fill: #228b22; stroke: #228b22"/>
     <use xlink:href="#m4efa1e503d" x="388.213395" y="295.488" style="fill: #228b22; stroke: #228b22"/>
     <use xlink:href="#m4efa1e503d" x="392.322946" y="295.488" style="fill: #228b22; stroke: #228b22"/>
     <use xlink:href="#m4efa1e503d" x="396.432497" y="295.488" style="fill: #228b22; stroke: #228b22"/>
    </g>
   </g>
   <g id="matplotlib.axis_1">
    <g id="xtick_1">
     <g id="line2d_1">
      <defs>
       <path id="mfb58fbb0a1" d="M 0 0 
L 0 3.5 
" style="stroke: #000000; stroke-width: 0.8"/>
      </defs>
      <g>
       <use xlink:href="#mfb58fbb0a1" x="73.832727" y="307.584" style="stroke: #000000; stroke-width: 0.8"/>
      </g>
     </g>
     <g id="text_1">
      <!-- −1.00 -->
      <g transform="translate(58.510071 322.182437)scale(0.1 -0.1)">
       <defs>
        <path id="DejaVuSans-2212" d="M 678 2272 
L 4684 2272 
L 4684 1741 
L 678 1741 
L 678 2272 
z
" transform="scale(0.015625)"/>
        <path id="DejaVuSans-31" d="M 794 531 
L 1825 531 
L 1825 4091 
L 703 3866 
L 703 4441 
L 1819 4666 
L 2450 4666 
L 2450 531 
L 3481 531 
L 3481 0 
L 794 0 
L 794 531 
z
" transform="scale(0.015625)"/>
        <path id="DejaVuSans-2e" d="M 684 794 
L 1344 794 
L 1344 0 
L 684 0 
L 684 794 
z
" transform="scale(0.015625)"/>
        <path id="DejaVuSans-30" d="M 2034 4250 
Q 1547 4250 1301 3770 
Q 1056 3291 1056 2328 
Q 1056 1369 1301 889 
Q 1547 409 2034 409 
Q 2525 409 2770 889 
Q 3016 1369 3016 2328 
Q 3016 3291 2770 3770 
Q 2525 4250 2034 4250 
z
M 2034 4750 
Q 2819 4750 3233 4129 
Q 3647 3509 3647 2328 
Q 3647 1150 3233 529 
Q 2819 -91 2034 -91 
Q 1250 -91 836 529 
Q 422 1150 422 2328 
Q 422 3509 836 4129 
Q 1250 4750 2034 4750 
z
" transform="scale(0.015625)"/>
       </defs>
       <use xlink:href="#DejaVuSans-2212"/>
       <use xlink:href="#DejaVuSans-31" x="83.789062"/>
       <use xlink:href="#DejaVuSans-2e" x="147.412109"/>
       <use xlink:href="#DejaVuSans-30" x="179.199219"/>
       <use xlink:href="#DejaVuSans-30" x="242.822266"/>
      </g>
     </g>
    </g>
    <g id="xtick_2">
     <g id="line2d_2">
      <g>
       <use xlink:href="#mfb58fbb0a1" x="114.414545" y="307.584" style="stroke: #000000; stroke-width: 0.8"/>
      </g>
     </g>
     <g id="text_2">
      <!-- −0.75 -->
      <g transform="translate(99.091889 322.182437)scale(0.1 -0.1)">
       <defs>
        <path id="DejaVuSans-37" d="M 525 4666 
L 3525 4666 
L 3525 4397 
L 1831 0 
L 1172 0 
L 2766 4134 
L 525 4134 
L 525 4666 
z
" transform="scale(0.015625)"/>
        <path id="DejaVuSans-35" d="M 691 4666 
L 3169 4666 
L 3169 4134 
L 1269 4134 
L 1269 2991 
Q 1406 3038 1543 3061 
Q 1681 3084 1819 3084 
Q 2600 3084 3056 2656 
Q 3513 2228 3513 1497 
Q 3513 744 3044 326 
Q 2575 -91 1722 -91 
Q 1428 -91 1123 -41 
Q 819 9 494 109 
L 494 744 
Q 775 591 1075 516 
Q 1375 441 1709 441 
Q 2250 441 2565 725 
Q 2881 1009 2881 1497 
Q 2881 1984 2565 2268 
Q 2250 2553 1709 2553 
Q 1456 2553 1204 2497 
Q 953 2441 691 2322 
L 691 4666 
z
" transform="scale(0.015625)"/>
       </defs>
       <use xlink:href="#DejaVuSans-2212"/>
       <use xlink:href="#DejaVuSans-30" x="83.789062"/>
       <use xlink:href="#DejaVuSans-2e" x="147.412109"/>
       <use xlink:href="#DejaVuSans-37" x="179.199219"/>
       <use xlink:href="#DejaVuSans-35" x="242.822266"/>
      </g>
     </g>
    </g>
    <g id="xtick_3">
     <g id="line2d_3">
      <g>
       <use xlink:href="#mfb58fbb0a1" x="154.996364" y="307.584" style="stroke: #000000; stroke-width: 0.8"/>
      </g>
     </g>
     <g id="text_3">
      <!-- −0.50 -->
      <g transform="translate(139.673707 322.182437)scale(0.1 -0.1)">
       <use xlink:href="#DejaVuSans-2212"/>
       <use xlink:href="#DejaVuSans-30" x="83.789062"/>
       <use xlink:href="#DejaVuSans-2e" x="147.412109"/>
       <use xlink:href="#DejaVuSans-35" x="179.199219"/>
       <use xlink:href="#DejaVuSans-30" x="242.822266"/>
      </g>
     </g>
    </g>
    <g id="xtick_4">
     <g id="line2d_4">
      <g>
       <use xlink:href="#mfb58fbb0a1" x="195.578182" y="307.584" style="stroke: #000000; stroke-width: 0.8"/>
      </g>
     </g>
     <g id="text_4">
      <!-- −0.25 -->
      <g transform="translate(180.255526 322.182437)scale(0.1 -0.1)">
       <defs>
        <path id="DejaVuSans-32" d="M 1228 531 
L 3431 531 
L 3431 0 
L 469 0 
L 469 531 
Q 828 903 1448 1529 
Q 2069 2156 2228 2338 
Q 2531 2678 2651 2914 
Q 2772 3150 2772 3378 
Q 2772 3750 2511 3984 
Q 2250 4219 1831 4219 
Q 1534 4219 1204 4116 
Q 875 4013 500 3803 
L 500 4441 
Q 881 4594 1212 4672 
Q 1544 4750 1819 4750 
Q 2544 4750 2975 4387 
Q 3406 4025 3406 3419 
Q 3406 3131 3298 2873 
Q 3191 2616 2906 2266 
Q 2828 2175 2409 1742 
Q 1991 1309 1228 531 
z
" transform="scale(0.015625)"/>
       </defs>
       <use xlink:href="#DejaVuSans-2212"/>
       <use xlink:href="#DejaVuSans-30" x="83.789062"/>
       <use xlink:href="#DejaVuSans-2e" x="147.412109"/>
       <use xlink:href="#DejaVuSans-32" x="179.199219"/>
       <use xlink:href="#DejaVuSans-35" x="242.822266"/>
      </g>
     </g>
    </g>
    <g id="xtick_5">
     <g id="line2d_5">
      <g>
       <use xlink:href="#mfb58fbb0a1" x="236.16" y="307.584" style="stroke: #000000; stroke-width: 0.8"/>
      </g>
     </g>
     <g id="text_5">
      <!-- 0.00 -->
      <g transform="translate(225.027187 322.182437)scale(0.1 -0.1)">
       <use xlink:href="#DejaVuSans-30"/>
       <use xlink:href="#DejaVuSans-2e" x="63.623047"/>
       <use xlink:href="#DejaVuSans-30" x="95.410156"/>
       <use xlink:href="#DejaVuSans-30" x="159.033203"/>
      </g>
     </g>
    </g>
    <g id="xtick_6">
     <g id="line2d_6">
      <g>
       <use xlink:href="#mfb58fbb0a1" x="276.741818" y="307.584" style="stroke: #000000; stroke-width: 0.8"/>
      </g>
     </g>
     <g id="text_6">
      <!-- 0.25 -->
      <g transform="translate(265.609006 322.182437)scale(0.1 -0.1)">
       <use xlink:href="#DejaVuSans-30"/>
       <use xlink:href="#DejaVuSans-2e" x="63.623047"/>
       <use xlink:href="#DejaVuSans-32" x="95.410156"/>
       <use xlink:href="#DejaVuSans-35" x="159.033203"/>
      </g>
     </g>
    </g>
    <g id="xtick_7">
     <g id="line2d_7">
      <g>
       <use xlink:href="#mfb58fbb0a1" x="317.323636" y="307.584" style="stroke: #000000; stroke-width: 0.8"/>
      </g>
     </g>
     <g id="text_7">
      <!-- 0.50 -->
      <g transform="translate(306.190824 322.182437)scale(0.1 -0.1)">
       <use xlink:href="#DejaVuSans-30"/>
       <use xlink:href="#DejaVuSans-2e" x="63.623047"/>
       <use xlink:href="#DejaVuSans-35" x="95.410156"/>
       <use xlink:href="#DejaVuSans-30" x="159.033203"/>
      </g>
     </g>
    </g>
    <g id="xtick_8">
     <g id="line2d_8">
      <g>
       <use xlink:href="#mfb58fbb0a1" x="357.905455" y="307.584" style="stroke: #000000; stroke-width: 0.8"/>
      </g>
     </g>
     <g id="text_8">
      <!-- 0.75 -->
      <g transform="translate(346.772642 322.182437)scale(0.1 -0.1)">
       <use xlink:href="#DejaVuSans-30"/>
       <use xlink:href="#DejaVuSans-2e" x="63.623047"/>
       <use xlink:href="#DejaVuSans-37" x="95.410156"/>
       <use xlink:href="#DejaVuSans-35" x="159.033203"/>
      </g>
     </g>
    </g>
    <g id="xtick_9">
     <g id="line2d_9">
      <g>
       <use xlink:href="#mfb58fbb0a1" x="398.487273" y="307.584" style="stroke: #000000; stroke-width: 0.8"/>
      </g>
     </g>
     <g id="text_9">
      <!-- 1.00 -->
      <g transform="translate(387.35446 322.182437)scale(0.1 -0.1)">
       <use xlink:href="#DejaVuSans-31"/>
       <use xlink:href="#DejaVuSans-2e" x="63.623047"/>
       <use xlink:href="#DejaVuSans-30" x="95.410156"/>
       <use xlink:href="#DejaVuSans-30" x="159.033203"/>
      </g>
     </g>
    </g>
    <g id="text_10">
     <!-- x -->
     <g transform="translate(233.200625 335.860562)scale(0.1 -0.1)">
      <defs>
       <path id="DejaVuSans-78" d="M 3513 3500 
L 2247 1797 
L 3578 0 
L 2900 0 
L 1881 1375 
L 863 0 
L 184 0 
L 1544 1831 
L 300 3500 
L 978 3500 
L 1906 2253 
L 2834 3500 
L 3513 3500 
z
" transform="scale(0.015625)"/>
      </defs>
      <use xlink:href="#DejaVuSans-78"/>
     </g>
    </g>
   </g>
   <g id="matplotlib.axis_2">
    <g id="ytick_1">
     <g id="line2d_10">
      <defs>
       <path id="m0d5447da8c" d="M 0 0 
L -3.5 0 
" style="stroke: #000000; stroke-width: 0.8"/>
      </defs>
      <g>
       <use xlink:href="#m0d5447da8c" x="57.6" y="295.488" style="stroke: #000000; stroke-width: 0.8"/>
      </g>
     </g>
     <g id="text_11">
      <!-- 2.0 -->
      <g transform="translate(34.696875 299.287219)scale(0.1 -0.1)">
       <use xlink:href="#DejaVuSans-32"/>
       <use xlink:href="#DejaVuSans-2e" x="63.623047"/>
       <use xlink:href="#DejaVuSans-30" x="95.410156"/>
      </g>
     </g>
    </g>
    <g id="ytick_2">
     <g id="line2d_11">
      <g>
       <use xlink:href="#m0d5447da8c" x="57.6" y="247.104" style="stroke: #000000; stroke-width: 0.8"/>
      </g>
     </g>
     <g id="text_12">
      <!-- 2.2 -->
      <g transform="translate(34.696875 250.903219)scale(0.1 -0.1)">
       <use xlink:href="#DejaVuSans-32"/>
       <use xlink:href="#DejaVuSans-2e" x="63.623047"/>
       <use xlink:href="#DejaVuSans-32" x="95.410156"/>
      </g>
     </g>
    </g>
    <g id="ytick_3">
     <g id="line2d_12">
      <g>
       <use xlink:href="#m0d5447da8c" x="57.6" y="198.72" style="stroke: #000000; stroke-width: 0.8"/>
      </g>
     </g>
     <g id="text_13">
      <!-- 2.4 -->
      <g transform="translate(34.696875 202.519219)scale(0.1 -0.1)">
       <defs>
        <path id="DejaVuSans-34" d="M 2419 4116 
L 825 1625 
L 2419 1625 
L 2419 4116 
z
M 2253 4666 
L 3047 4666 
L 3047 1625 
L 3713 1625 
L 3713 1100 
L 3047 1100 
L 3047 0 
L 2419 0 
L 2419 1100 
L 313 1100 
L 313 1709 
L 2253 4666 
z
" transform="scale(0.015625)"/>
       </defs>
       <use xlink:href="#DejaVuSans-32"/>
       <use xlink:href="#DejaVuSans-2e" x="63.623047"/>
       <use xlink:href="#DejaVuSans-34" x="95.410156"/>
      </g>
     </g>
    </g>
    <g id="ytick_4">
     <g id="line2d_13">
      <g>
       <use xlink:href="#m0d5447da8c" x="57.6" y="150.336" style="stroke: #000000; stroke-width: 0.8"/>
      </g>
     </g>
     <g id="text_14">
      <!-- 2.6 -->
      <g transform="translate(34.696875 154.135219)scale(0.1 -0.1)">
       <defs>
        <path id="DejaVuSans-36" d="M 2113 2584 
Q 1688 2584 1439 2293 
Q 1191 2003 1191 1497 
Q 1191 994 1439 701 
Q 1688 409 2113 409 
Q 2538 409 2786 701 
Q 3034 994 3034 1497 
Q 3034 2003 2786 2293 
Q 2538 2584 2113 2584 
z
M 3366 4563 
L 3366 3988 
Q 3128 4100 2886 4159 
Q 2644 4219 2406 4219 
Q 1781 4219 1451 3797 
Q 1122 3375 1075 2522 
Q 1259 2794 1537 2939 
Q 1816 3084 2150 3084 
Q 2853 3084 3261 2657 
Q 3669 2231 3669 1497 
Q 3669 778 3244 343 
Q 2819 -91 2113 -91 
Q 1303 -91 875 529 
Q 447 1150 447 2328 
Q 447 3434 972 4092 
Q 1497 4750 2381 4750 
Q 2619 4750 2861 4703 
Q 3103 4656 3366 4563 
z
" transform="scale(0.015625)"/>
       </defs>
       <use xlink:href="#DejaVuSans-32"/>
       <use xlink:href="#DejaVuSans-2e" x="63.623047"/>
       <use xlink:href="#DejaVuSans-36" x="95.410156"/>
      </g>
     </g>
    </g>
    <g id="ytick_5">
     <g id="line2d_14">
      <g>
       <use xlink:href="#m0d5447da8c" x="57.6" y="101.952" style="stroke: #000000; stroke-width: 0.8"/>
      </g>
     </g>
     <g id="text_15">
      <!-- 2.8 -->
      <g transform="translate(34.696875 105.751219)scale(0.1 -0.1)">
       <defs>
        <path id="DejaVuSans-38" d="M 2034 2216 
Q 1584 2216 1326 1975 
Q 1069 1734 1069 1313 
Q 1069 891 1326 650 
Q 1584 409 2034 409 
Q 2484 409 2743 651 
Q 3003 894 3003 1313 
Q 3003 1734 2745 1975 
Q 2488 2216 2034 2216 
z
M 1403 2484 
Q 997 2584 770 2862 
Q 544 3141 544 3541 
Q 544 4100 942 4425 
Q 1341 4750 2034 4750 
Q 2731 4750 3128 4425 
Q 3525 4100 3525 3541 
Q 3525 3141 3298 2862 
Q 3072 2584 2669 2484 
Q 3125 2378 3379 2068 
Q 3634 1759 3634 1313 
Q 3634 634 3220 271 
Q 2806 -91 2034 -91 
Q 1263 -91 848 271 
Q 434 634 434 1313 
Q 434 1759 690 2068 
Q 947 2378 1403 2484 
z
M 1172 3481 
Q 1172 3119 1398 2916 
Q 1625 2713 2034 2713 
Q 2441 2713 2670 2916 
Q 2900 3119 2900 3481 
Q 2900 3844 2670 4047 
Q 2441 4250 2034 4250 
Q 1625 4250 1398 4047 
Q 1172 3844 1172 3481 
z
" transform="scale(0.015625)"/>
       </defs>
       <use xlink:href="#DejaVuSans-32"/>
       <use xlink:href="#DejaVuSans-2e" x="63.623047"/>
       <use xlink:href="#DejaVuSans-38" x="95.410156"/>
      </g>
     </g>
    </g>
    <g id="ytick_6">
     <g id="line2d_15">
      <g>
       <use xlink:href="#m0d5447da8c" x="57.6" y="53.568" style="stroke: #000000; stroke-width: 0.8"/>
      </g>
     </g>
     <g id="text_16">
      <!-- 3.0 -->
      <g transform="translate(34.696875 57.367219)scale(0.1 -0.1)">
       <defs>
        <path id="DejaVuSans-33" d="M 2597 2516 
Q 3050 2419 3304 2112 
Q 3559 1806 3559 1356 
Q 3559 666 3084 287 
Q 2609 -91 1734 -91 
Q 1441 -91 1130 -33 
Q 819 25 488 141 
L 488 750 
Q 750 597 1062 519 
Q 1375 441 1716 441 
Q 2309 441 2620 675 
Q 2931 909 2931 1356 
Q 2931 1769 2642 2001 
Q 2353 2234 1838 2234 
L 1294 2234 
L 1294 2753 
L 1863 2753 
Q 2328 2753 2575 2939 
Q 2822 3125 2822 3475 
Q 2822 3834 2567 4026 
Q 2313 4219 1838 4219 
Q 1578 4219 1281 4162 
Q 984 4106 628 3988 
L 628 4550 
Q 988 4650 1302 4700 
Q 1616 4750 1894 4750 
Q 2613 4750 3031 4423 
Q 3450 4097 3450 3541 
Q 3450 3153 3228 2886 
Q 3006 2619 2597 2516 
z
" transform="scale(0.015625)"/>
       </defs>
       <use xlink:href="#DejaVuSans-33"/>
       <use xlink:href="#DejaVuSans-2e" x="63.623047"/>
       <use xlink:href="#DejaVuSans-30" x="95.410156"/>
      </g>
     </g>
    </g>
    <g id="text_17">
     <!-- $f_i$ -->
     <g transform="translate(28.617188 177.428)rotate(-90)scale(0.1 -0.1)">
      <defs>
       <path id="DejaVuSans-Oblique-66" d="M 3059 4863 
L 2969 4384 
L 2419 4384 
Q 2106 4384 1964 4261 
Q 1822 4138 1753 3809 
L 1691 3500 
L 2638 3500 
L 2553 3053 
L 1606 3053 
L 1013 0 
L 434 0 
L 1031 3053 
L 481 3053 
L 563 3500 
L 1113 3500 
L 1159 3744 
Q 1278 4363 1576 4613 
Q 1875 4863 2516 4863 
L 3059 4863 
z
" transform="scale(0.015625)"/>
       <path id="DejaVuSans-Oblique-69" d="M 1172 4863 
L 1747 4863 
L 1606 4134 
L 1031 4134 
L 1172 4863 
z
M 909 3500 
L 1484 3500 
L 800 0 
L 225 0 
L 909 3500 
z
" transform="scale(0.015625)"/>
      </defs>
      <use xlink:href="#DejaVuSans-Oblique-66" transform="translate(0 0.015625)"/>
      <use xlink:href="#DejaVuSans-Oblique-69" transform="translate(35.205078 -16.390625)scale(0.7)"/>
     </g>
    </g>
   </g>
   <g id="line2d_16">
    <path d="M 73.832727 295.488 
L 106.0057 295.488 
L 106.655659 295.321137 
L 107.630598 295.09136 
L 108.605536 294.5955 
L 109.255495 294.00145 
L 109.905455 293.071638 
L 110.555414 291.654855 
L 111.205373 289.553835 
L 111.855332 286.522488 
L 112.505291 282.268905 
L 113.15525 276.466729 
L 113.805209 268.777099 
L 114.455168 258.882295 
L 115.430106 239.385121 
L 116.405045 214.093179 
L 117.704963 172.738929 
L 119.97982 96.265407 
L 120.954758 71.735521 
L 121.604717 60.983413 
L 121.929697 57.600141 
L 122.254676 55.63453 
L 122.579656 55.122281 
L 122.904636 56.072731 
L 123.229615 58.468567 
L 123.554595 62.266353 
L 124.204554 73.771994 
L 124.854513 89.786994 
L 125.829451 119.881154 
L 128.754267 216.872582 
L 129.729206 241.597325 
L 130.704144 260.518069 
L 131.679083 274.007165 
L 132.329042 280.431659 
L 132.979001 285.188909 
L 133.62896 288.612734 
L 134.278919 291.008895 
L 134.928878 292.640236 
L 135.578837 293.721035 
L 136.228796 294.418052 
L 136.878755 294.855721 
L 137.853694 295.213607 
L 139.478591 295.488 
L 171.001605 295.488 
L 171.326585 53.568 
L 203.499558 53.568 
L 203.824537 295.488 
L 235.99751 295.488 
L 236.32249 293.066378 
L 252.246486 55.747459 
L 252.571466 56.231784 
L 268.495463 293.550703 
L 268.820442 295.488 
L 300.993415 295.488 
L 301.318395 254.387812 
L 302.293333 206.325624 
L 302.943292 184.333041 
L 303.918231 159.638811 
L 304.89317 140.288209 
L 306.193088 119.65804 
L 307.493006 103.177355 
L 308.792924 89.831926 
L 310.092842 79.035529 
L 311.39276 70.418463 
L 312.367699 65.235444 
L 313.342637 61.066704 
L 314.317576 57.858633 
L 315.292514 55.572542 
L 315.942473 54.547248 
L 316.592432 53.914731 
L 317.242391 53.671897 
L 317.892351 53.817568 
L 318.54231 54.35245 
L 319.192269 55.279153 
L 319.842228 56.602251 
L 320.492187 58.328404 
L 321.467125 61.693535 
L 322.442064 66.027147 
L 323.417002 71.385672 
L 324.391941 77.845189 
L 325.36688 85.507893 
L 326.666798 97.843197 
L 327.966716 113.059275 
L 328.941654 126.831393 
L 329.916593 143.241108 
L 330.891532 163.304855 
L 331.86647 189.24986 
L 332.516429 213.250822 
L 333.491368 267.999045 
L 333.816347 295.488 
L 398.487273 295.488 
L 398.487273 295.488 
" clip-path="url(#paf040551fd)" style="fill: none; stroke: #0000ff; stroke-width: 1.5; stroke-linecap: square"/>
   </g>
   <g id="line2d_17">
    <path d="M 73.840844 295.488 
L 74.212963 295.488 
L 74.585083 295.488 
L 74.957203 295.488 
L 75.329323 295.488 
L 75.701443 295.488 
L 76.073563 295.488 
L 76.445683 295.488 
L 76.817803 295.488 
L 77.189922 295.488 
L 77.562042 295.488 
L 77.934162 295.488 
" clip-path="url(#paf040551fd)" style="fill: none; stroke: #008000; stroke-width: 1.5; stroke-linecap: square"/>
   </g>
   <g id="line2d_18">
    <path d="M 77.950395 295.488 
L 78.322515 295.488 
L 78.694635 295.488 
L 79.066754 295.488 
L 79.438874 295.488 
L 79.810994 295.488 
L 80.183114 295.488 
L 80.555234 295.488 
L 80.927354 295.488 
L 81.299474 295.488 
L 81.671593 295.488 
L 82.043713 295.488 
" clip-path="url(#paf040551fd)" style="fill: none; stroke: #008000; stroke-width: 1.5; stroke-linecap: square"/>
   </g>
   <g id="line2d_19">
    <path d="M 82.059946 295.488 
L 82.432066 295.488 
L 82.804186 295.488 
L 83.176306 295.488 
L 83.548426 295.488 
L 83.920545 295.488 
L 84.292665 295.488 
L 84.664785 295.488 
L 85.036905 295.488 
L 85.409025 295.488 
L 85.781145 295.488 
L 86.153265 295.488 
" clip-path="url(#paf040551fd)" style="fill: none; stroke: #008000; stroke-width: 1.5; stroke-linecap: square"/>
   </g>
   <g id="line2d_20">
    <path d="M 86.169497 295.488 
L 86.541617 295.488 
L 86.913737 295.488 
L 87.285857 295.488 
L 87.657977 295.488 
L 88.030097 295.488 
L 88.402216 295.488 
L 88.774336 295.488 
L 89.146456 295.488 
L 89.518576 295.488 
L 89.890696 295.488 
L 90.262816 295.488 
" clip-path="url(#paf040551fd)" style="fill: none; stroke: #008000; stroke-width: 1.5; stroke-linecap: square"/>
   </g>
   <g id="line2d_21">
    <path d="M 90.279048 295.488 
L 90.651168 295.488 
L 91.023288 295.488 
L 91.395408 295.488 
L 91.767528 295.488 
L 92.139648 295.488 
L 92.511768 295.488 
L 92.883888 295.488 
L 93.256007 295.488 
L 93.628127 295.488 
L 94.000247 295.488 
L 94.372367 295.488 
" clip-path="url(#paf040551fd)" style="fill: none; stroke: #008000; stroke-width: 1.5; stroke-linecap: square"/>
   </g>
   <g id="line2d_22">
    <path d="M 94.3886 295.488 
L 94.76072 295.488 
L 95.132839 295.488 
L 95.504959 295.488 
L 95.877079 295.488 
L 96.249199 295.488 
L 96.621319 295.488 
L 96.993439 295.488 
L 97.365559 295.488 
L 97.737678 295.488 
L 98.109798 295.488 
L 98.481918 295.488 
" clip-path="url(#paf040551fd)" style="fill: none; stroke: #008000; stroke-width: 1.5; stroke-linecap: square"/>
   </g>
   <g id="line2d_23">
    <path d="M 98.498151 295.488 
L 98.870271 295.488 
L 99.242391 295.488 
L 99.61451 295.488 
L 99.98663 295.488 
L 100.35875 295.488 
L 100.73087 295.488 
L 101.10299 295.488 
L 101.47511 295.488 
L 101.84723 295.488 
L 102.21935 295.488 
L 102.591469 295.488 
" clip-path="url(#paf040551fd)" style="fill: none; stroke: #008000; stroke-width: 1.5; stroke-linecap: square"/>
   </g>
   <g id="line2d_24">
    <path d="M 102.607702 295.487942 
L 102.979822 295.4853 
L 103.351942 295.482658 
L 103.724062 295.480016 
L 104.096182 295.477374 
L 104.468301 295.474732 
L 104.840421 295.47209 
L 105.212541 295.469448 
L 105.584661 295.466806 
L 105.956781 295.464164 
L 106.328901 295.461522 
L 106.701021 295.45888 
" clip-path="url(#paf040551fd)" style="fill: none; stroke: #008000; stroke-width: 1.5; stroke-linecap: square"/>
   </g>
   <g id="line2d_25">
    <path d="M 106.717253 295.46774 
L 107.089373 295.207729 
L 107.461493 294.947718 
L 107.833613 294.687706 
L 108.205733 294.427695 
L 108.577853 294.167684 
L 108.949972 293.907673 
L 109.322092 293.647662 
L 109.694212 293.38765 
L 110.066332 293.127639 
L 110.438452 292.867628 
L 110.810572 292.607617 
" clip-path="url(#paf040551fd)" style="fill: none; stroke: #008000; stroke-width: 1.5; stroke-linecap: square"/>
   </g>
   <g id="line2d_26">
    <path d="M 110.826805 293.96761 
L 111.198924 290.755089 
L 111.571044 287.542569 
L 111.943164 284.330048 
L 112.315284 281.117528 
L 112.687404 277.905007 
L 113.059524 274.692487 
L 113.431644 271.479967 
L 113.803763 268.267446 
L 114.175883 265.054926 
L 114.548003 261.842405 
L 114.920123 258.629885 
" clip-path="url(#paf040551fd)" style="fill: none; stroke: #008000; stroke-width: 1.5; stroke-linecap: square"/>
   </g>
   <g id="line2d_27">
    <path d="M 114.936356 243.34931 
L 115.308476 234.320834 
L 115.680595 225.292358 
L 116.052715 216.263882 
L 116.424835 207.235406 
L 116.796955 198.20693 
L 117.169075 189.178455 
L 117.541195 180.149979 
L 117.913315 171.121503 
L 118.285434 162.093027 
L 118.657554 153.064551 
L 119.029674 144.036075 
" clip-path="url(#paf040551fd)" style="fill: none; stroke: #008000; stroke-width: 1.5; stroke-linecap: square"/>
   </g>
   <g id="line2d_28">
    <path d="M 119.045907 76.884592 
L 119.418027 76.884592 
L 119.790147 76.884592 
L 120.162267 76.884592 
L 120.534386 76.884592 
L 120.906506 76.884592 
L 121.278626 76.884592 
L 121.650746 76.884592 
L 122.022866 76.884592 
L 122.394986 76.884592 
L 122.767106 76.884592 
L 123.139225 76.884592 
" clip-path="url(#paf040551fd)" style="fill: none; stroke: #008000; stroke-width: 1.5; stroke-linecap: square"/>
   </g>
   <g id="line2d_29">
    <path d="M 123.155458 76.993455 
L 123.527578 81.984614 
L 123.899698 86.975773 
L 124.271818 91.966932 
L 124.643938 96.958092 
L 125.016057 101.949251 
L 125.388177 106.94041 
L 125.760297 111.931569 
L 126.132417 116.922728 
L 126.504537 121.913887 
L 126.876657 126.905046 
L 127.248777 131.896205 
" clip-path="url(#paf040551fd)" style="fill: none; stroke: #008000; stroke-width: 1.5; stroke-linecap: square"/>
   </g>
   <g id="line2d_30">
    <path d="M 127.265009 182.462798 
L 127.637129 190.671384 
L 128.009249 198.879969 
L 128.381369 207.088555 
L 128.753489 215.297141 
L 129.125609 223.505726 
L 129.497729 231.714312 
L 129.869848 239.922897 
L 130.241968 248.131483 
L 130.614088 256.340068 
L 130.986208 264.548654 
L 131.358328 272.75724 
" clip-path="url(#paf040551fd)" style="fill: none; stroke: #008000; stroke-width: 1.5; stroke-linecap: square"/>
   </g>
   <g id="line2d_31">
    <path d="M 131.374561 276.589724 
L 131.74668 278.255205 
L 132.1188 279.920685 
L 132.49092 281.586166 
L 132.86304 283.251647 
L 133.23516 284.917127 
L 133.60728 286.582608 
L 133.9794 288.248088 
L 134.351519 289.913569 
L 134.723639 291.57905 
L 135.095759 293.24453 
L 135.467879 294.910011 
" clip-path="url(#paf040551fd)" style="fill: none; stroke: #008000; stroke-width: 1.5; stroke-linecap: square"/>
   </g>
   <g id="line2d_32">
    <path d="M 135.484112 294.406813 
L 135.856232 294.504908 
L 136.228351 294.603004 
L 136.600471 294.701099 
L 136.972591 294.799194 
L 137.344711 294.897289 
L 137.716831 294.995384 
L 138.088951 295.09348 
L 138.461071 295.191575 
L 138.833191 295.28967 
L 139.20531 295.387765 
L 139.57743 295.48586 
" clip-path="url(#paf040551fd)" style="fill: none; stroke: #008000; stroke-width: 1.5; stroke-linecap: square"/>
   </g>
   <g id="line2d_33">
    <path d="M 139.593663 295.488 
L 139.965783 295.488 
L 140.337903 295.488 
L 140.710023 295.488 
L 141.082142 295.488 
L 141.454262 295.488 
L 141.826382 295.488 
L 142.198502 295.488 
L 142.570622 295.488 
L 142.942742 295.488 
L 143.314862 295.488 
L 143.686981 295.488 
" clip-path="url(#paf040551fd)" style="fill: none; stroke: #008000; stroke-width: 1.5; stroke-linecap: square"/>
   </g>
   <g id="line2d_34">
    <path d="M 143.703214 295.488 
L 144.075334 295.488 
L 144.447454 295.488 
L 144.819574 295.488 
L 145.191694 295.488 
L 145.563813 295.488 
L 145.935933 295.488 
L 146.308053 295.488 
L 146.680173 295.488 
L 147.052293 295.488 
L 147.424413 295.488 
L 147.796533 295.488 
" clip-path="url(#paf040551fd)" style="fill: none; stroke: #008000; stroke-width: 1.5; stroke-linecap: square"/>
   </g>
   <g id="line2d_35">
    <path d="M 147.812765 295.488 
L 148.184885 295.488 
L 148.557005 295.488 
L 148.929125 295.488 
L 149.301245 295.488 
L 149.673365 295.488 
L 150.045485 295.488 
L 150.417604 295.488 
L 150.789724 295.488 
L 151.161844 295.488 
L 151.533964 295.488 
L 151.906084 295.488 
" clip-path="url(#paf040551fd)" style="fill: none; stroke: #008000; stroke-width: 1.5; stroke-linecap: square"/>
   </g>
   <g id="line2d_36">
    <path d="M 151.922317 295.488 
L 152.294436 295.488 
L 152.666556 295.488 
L 153.038676 295.488 
L 153.410796 295.488 
L 153.782916 295.488 
L 154.155036 295.488 
L 154.527156 295.488 
L 154.899275 295.488 
L 155.271395 295.488 
L 155.643515 295.488 
L 156.015635 295.488 
" clip-path="url(#paf040551fd)" style="fill: none; stroke: #008000; stroke-width: 1.5; stroke-linecap: square"/>
   </g>
   <g id="line2d_37">
    <path d="M 156.031868 295.488 
L 156.403988 295.488 
L 156.776108 295.488 
L 157.148227 295.488 
L 157.520347 295.488 
L 157.892467 295.488 
L 158.264587 295.488 
L 158.636707 295.488 
L 159.008827 295.488 
L 159.380947 295.488 
L 159.753066 295.488 
L 160.125186 295.488 
" clip-path="url(#paf040551fd)" style="fill: none; stroke: #008000; stroke-width: 1.5; stroke-linecap: square"/>
   </g>
   <g id="line2d_38">
    <path d="M 160.141419 295.488 
L 160.513539 295.488 
L 160.885659 295.488 
L 161.257779 295.488 
L 161.629898 295.488 
L 162.002018 295.488 
L 162.374138 295.488 
L 162.746258 295.488 
L 163.118378 295.488 
L 163.490498 295.488 
L 163.862618 295.488 
L 164.234737 295.488 
" clip-path="url(#paf040551fd)" style="fill: none; stroke: #008000; stroke-width: 1.5; stroke-linecap: square"/>
   </g>
   <g id="line2d_39">
    <path d="M 164.25097 295.488 
L 164.62309 295.488 
L 164.99521 295.488 
L 165.36733 295.488 
L 165.73945 295.488 
L 166.11157 295.488 
L 166.483689 295.488 
L 166.855809 295.488 
L 167.227929 295.488 
L 167.600049 295.488 
L 167.972169 295.488 
L 168.344289 295.488 
" clip-path="url(#paf040551fd)" style="fill: none; stroke: #008000; stroke-width: 1.5; stroke-linecap: square"/>
   </g>
   <g id="line2d_40">
    <path d="M 168.360521 283.153104 
L 168.732641 272.200176 
L 169.104761 261.247248 
L 169.476881 250.29432 
L 169.849001 239.341392 
L 170.221121 228.388464 
L 170.593241 217.435536 
L 170.96536 206.482608 
L 171.33748 195.52968 
L 171.7096 184.576752 
L 172.08172 173.623824 
L 172.45384 162.670896 
" clip-path="url(#paf040551fd)" style="fill: none; stroke: #008000; stroke-width: 1.5; stroke-linecap: square"/>
   </g>
   <g id="line2d_41">
    <path d="M 172.470073 53.568 
L 172.842192 53.568 
L 173.214312 53.568 
L 173.586432 53.568 
L 173.958552 53.568 
L 174.330672 53.568 
L 174.702792 53.568 
L 175.074912 53.568 
L 175.447032 53.568 
L 175.819151 53.568 
L 176.191271 53.568 
L 176.563391 53.568 
" clip-path="url(#paf040551fd)" style="fill: none; stroke: #008000; stroke-width: 1.5; stroke-linecap: square"/>
   </g>
   <g id="line2d_42">
    <path d="M 176.579624 53.568 
L 176.951744 53.568 
L 177.323864 53.568 
L 177.695983 53.568 
L 178.068103 53.568 
L 178.440223 53.568 
L 178.812343 53.568 
L 179.184463 53.568 
L 179.556583 53.568 
L 179.928703 53.568 
L 180.300822 53.568 
L 180.672942 53.568 
" clip-path="url(#paf040551fd)" style="fill: none; stroke: #008000; stroke-width: 1.5; stroke-linecap: square"/>
   </g>
   <g id="line2d_43">
    <path d="M 180.689175 53.568 
L 181.061295 53.568 
L 181.433415 53.568 
L 181.805535 53.568 
L 182.177654 53.568 
L 182.549774 53.568 
L 182.921894 53.568 
L 183.294014 53.568 
L 183.666134 53.568 
L 184.038254 53.568 
L 184.410374 53.568 
L 184.782494 53.568 
" clip-path="url(#paf040551fd)" style="fill: none; stroke: #008000; stroke-width: 1.5; stroke-linecap: square"/>
   </g>
   <g id="line2d_44">
    <path d="M 184.798726 53.568 
L 185.170846 53.568 
L 185.542966 53.568 
L 185.915086 53.568 
L 186.287206 53.568 
L 186.659326 53.568 
L 187.031445 53.568 
L 187.403565 53.568 
L 187.775685 53.568 
L 188.147805 53.568 
L 188.519925 53.568 
L 188.892045 53.568 
" clip-path="url(#paf040551fd)" style="fill: none; stroke: #008000; stroke-width: 1.5; stroke-linecap: square"/>
   </g>
   <g id="line2d_45">
    <path d="M 188.908277 53.568 
L 189.280397 53.568 
L 189.652517 53.568 
L 190.024637 53.568 
L 190.396757 53.568 
L 190.768877 53.568 
L 191.140997 53.568 
L 191.513117 53.568 
L 191.885236 53.568 
L 192.257356 53.568 
L 192.629476 53.568 
L 193.001596 53.568 
" clip-path="url(#paf040551fd)" style="fill: none; stroke: #008000; stroke-width: 1.5; stroke-linecap: square"/>
   </g>
   <g id="line2d_46">
    <path d="M 193.017829 53.568 
L 193.389949 53.568 
L 193.762068 53.568 
L 194.134188 53.568 
L 194.506308 53.568 
L 194.878428 53.568 
L 195.250548 53.568 
L 195.622668 53.568 
L 195.994788 53.568 
L 196.366907 53.568 
L 196.739027 53.568 
L 197.111147 53.568 
" clip-path="url(#paf040551fd)" style="fill: none; stroke: #008000; stroke-width: 1.5; stroke-linecap: square"/>
   </g>
   <g id="line2d_47">
    <path d="M 197.12738 53.568 
L 197.4995 53.568 
L 197.87162 53.568 
L 198.243739 53.568 
L 198.615859 53.568 
L 198.987979 53.568 
L 199.360099 53.568 
L 199.732219 53.568 
L 200.104339 53.568 
L 200.476459 53.568 
L 200.848579 53.568 
L 201.220698 53.568 
" clip-path="url(#paf040551fd)" style="fill: none; stroke: #008000; stroke-width: 1.5; stroke-linecap: square"/>
   </g>
   <g id="line2d_48">
    <path d="M 201.236931 90.094896 
L 201.609051 101.047824 
L 201.981171 112.000752 
L 202.353291 122.95368 
L 202.725411 133.906608 
L 203.09753 144.859536 
L 203.46965 155.812464 
L 203.84177 166.765392 
L 204.21389 177.71832 
L 204.58601 188.671248 
L 204.95813 199.624176 
L 205.33025 210.577104 
" clip-path="url(#paf040551fd)" style="fill: none; stroke: #008000; stroke-width: 1.5; stroke-linecap: square"/>
   </g>
   <g id="line2d_49">
    <path d="M 205.346482 295.488 
L 205.718602 295.488 
L 206.090722 295.488 
L 206.462842 295.488 
L 206.834962 295.488 
L 207.207082 295.488 
L 207.579201 295.488 
L 207.951321 295.488 
L 208.323441 295.488 
L 208.695561 295.488 
L 209.067681 295.488 
L 209.439801 295.488 
" clip-path="url(#paf040551fd)" style="fill: none; stroke: #008000; stroke-width: 1.5; stroke-linecap: square"/>
   </g>
   <g id="line2d_50">
    <path d="M 209.456034 295.488 
L 209.828153 295.488 
L 210.200273 295.488 
L 210.572393 295.488 
L 210.944513 295.488 
L 211.316633 295.488 
L 211.688753 295.488 
L 212.060873 295.488 
L 212.432992 295.488 
L 212.805112 295.488 
L 213.177232 295.488 
L 213.549352 295.488 
" clip-path="url(#paf040551fd)" style="fill: none; stroke: #008000; stroke-width: 1.5; stroke-linecap: square"/>
   </g>
   <g id="line2d_51">
    <path d="M 213.565585 295.488 
L 213.937705 295.488 
L 214.309824 295.488 
L 214.681944 295.488 
L 215.054064 295.488 
L 215.426184 295.488 
L 215.798304 295.488 
L 216.170424 295.488 
L 216.542544 295.488 
L 216.914663 295.488 
L 217.286783 295.488 
L 217.658903 295.488 
" clip-path="url(#paf040551fd)" style="fill: none; stroke: #008000; stroke-width: 1.5; stroke-linecap: square"/>
   </g>
   <g id="line2d_52">
    <path d="M 217.675136 295.488 
L 218.047256 295.488 
L 218.419376 295.488 
L 218.791496 295.488 
L 219.163615 295.488 
L 219.535735 295.488 
L 219.907855 295.488 
L 220.279975 295.488 
L 220.652095 295.488 
L 221.024215 295.488 
L 221.396335 295.488 
L 221.768454 295.488 
" clip-path="url(#paf040551fd)" style="fill: none; stroke: #008000; stroke-width: 1.5; stroke-linecap: square"/>
   </g>
   <g id="line2d_53">
    <path d="M 221.784687 295.488 
L 222.156807 295.488 
L 222.528927 295.488 
L 222.901047 295.488 
L 223.273167 295.488 
L 223.645286 295.488 
L 224.017406 295.488 
L 224.389526 295.488 
L 224.761646 295.488 
L 225.133766 295.488 
L 225.505886 295.488 
L 225.878006 295.488 
" clip-path="url(#paf040551fd)" style="fill: none; stroke: #008000; stroke-width: 1.5; stroke-linecap: square"/>
   </g>
   <g id="line2d_54">
    <path d="M 225.894238 295.488 
L 226.266358 295.488 
L 226.638478 295.488 
L 227.010598 295.488 
L 227.382718 295.488 
L 227.754838 295.488 
L 228.126958 295.488 
L 228.499077 295.488 
L 228.871197 295.488 
L 229.243317 295.488 
L 229.615437 295.488 
L 229.987557 295.488 
" clip-path="url(#paf040551fd)" style="fill: none; stroke: #008000; stroke-width: 1.5; stroke-linecap: square"/>
   </g>
   <g id="line2d_55">
    <path d="M 230.00379 295.488 
L 230.375909 295.488 
L 230.748029 295.488 
L 231.120149 295.488 
L 231.492269 295.488 
L 231.864389 295.488 
L 232.236509 295.488 
L 232.608629 295.488 
L 232.980748 295.488 
L 233.352868 295.488 
L 233.724988 295.488 
L 234.097108 295.488 
" clip-path="url(#paf040551fd)" style="fill: none; stroke: #008000; stroke-width: 1.5; stroke-linecap: square"/>
   </g>
   <g id="line2d_56">
    <path d="M 234.113341 295.45776 
L 234.485461 294.071313 
L 234.85758 292.684867 
L 235.2297 291.29842 
L 235.60182 289.911974 
L 235.97394 288.525527 
L 236.34606 287.139081 
L 236.71818 285.752634 
L 237.0903 284.366187 
L 237.46242 282.979741 
L 237.834539 281.593294 
L 238.206659 280.206848 
" clip-path="url(#paf040551fd)" style="fill: none; stroke: #008000; stroke-width: 1.5; stroke-linecap: square"/>
   </g>
   <g id="line2d_57">
    <path d="M 238.222892 262.837891 
L 238.595012 257.638716 
L 238.967132 252.439542 
L 239.339252 247.240367 
L 239.711371 242.041192 
L 240.083491 236.842018 
L 240.455611 231.642843 
L 240.827731 226.443668 
L 241.199851 221.244494 
L 241.571971 216.045319 
L 241.944091 210.846144 
L 242.31621 205.64697 
" clip-path="url(#paf040551fd)" style="fill: none; stroke: #008000; stroke-width: 1.5; stroke-linecap: square"/>
   </g>
   <g id="line2d_58">
    <path d="M 242.332443 203.498686 
L 242.704563 197.952899 
L 243.076683 192.407113 
L 243.448803 186.861327 
L 243.820923 181.31554 
L 244.193042 175.769754 
L 244.565162 170.223968 
L 244.937282 164.678181 
L 245.309402 159.132395 
L 245.681522 153.586609 
L 246.053642 148.040822 
L 246.425762 142.495036 
" clip-path="url(#paf040551fd)" style="fill: none; stroke: #008000; stroke-width: 1.5; stroke-linecap: square"/>
   </g>
   <g id="line2d_59">
    <path d="M 246.441994 137.639715 
L 246.814114 132.932729 
L 247.186234 128.225743 
L 247.558354 123.518757 
L 247.930474 118.81177 
L 248.302594 114.104784 
L 248.674714 109.397798 
L 249.046833 104.690812 
L 249.418953 99.983826 
L 249.791073 95.27684 
L 250.163193 90.569853 
L 250.535313 85.862867 
" clip-path="url(#paf040551fd)" style="fill: none; stroke: #008000; stroke-width: 1.5; stroke-linecap: square"/>
   </g>
   <g id="line2d_60">
    <path d="M 250.551546 69.032506 
L 250.923665 69.032506 
L 251.295785 69.032506 
L 251.667905 69.032506 
L 252.040025 69.032506 
L 252.412145 69.032506 
L 252.784265 69.032506 
L 253.156385 69.032506 
L 253.528504 69.032506 
L 253.900624 69.032506 
L 254.272744 69.032506 
L 254.644864 69.032506 
" clip-path="url(#paf040551fd)" style="fill: none; stroke: #008000; stroke-width: 1.5; stroke-linecap: square"/>
   </g>
   <g id="line2d_61">
    <path d="M 254.661097 90.462333 
L 255.033217 95.446609 
L 255.405337 100.430884 
L 255.777456 105.415159 
L 256.149576 110.399435 
L 256.521696 115.38371 
L 256.893816 120.367986 
L 257.265936 125.352261 
L 257.638056 130.336537 
L 258.010176 135.320812 
L 258.382295 140.305088 
L 258.754415 145.289363 
" clip-path="url(#paf040551fd)" style="fill: none; stroke: #008000; stroke-width: 1.5; stroke-linecap: square"/>
   </g>
   <g id="line2d_62">
    <path d="M 258.770648 148.619593 
L 259.142768 154.165379 
L 259.514888 159.711166 
L 259.887008 165.256952 
L 260.259127 170.802738 
L 260.631247 176.348525 
L 261.003367 181.894311 
L 261.375487 187.440097 
L 261.747607 192.985884 
L 262.119727 198.53167 
L 262.491847 204.077456 
L 262.863966 209.623243 
" clip-path="url(#paf040551fd)" style="fill: none; stroke: #008000; stroke-width: 1.5; stroke-linecap: square"/>
   </g>
   <g id="line2d_63">
    <path d="M 262.880199 212.610327 
L 263.252319 217.656992 
L 263.624439 222.703658 
L 263.996559 227.750323 
L 264.368679 232.796989 
L 264.740799 237.843655 
L 265.112918 242.89032 
L 265.485038 247.936986 
L 265.857158 252.983651 
L 266.229278 258.030317 
L 266.601398 263.076982 
L 266.973518 268.123648 
" clip-path="url(#paf040551fd)" style="fill: none; stroke: #008000; stroke-width: 1.5; stroke-linecap: square"/>
   </g>
   <g id="line2d_64">
    <path d="M 266.98975 285.708062 
L 267.36187 286.595388 
L 267.73399 287.482714 
L 268.10611 288.37004 
L 268.47823 289.257366 
L 268.85035 290.144692 
L 269.22247 291.032017 
L 269.594589 291.919343 
L 269.966709 292.806669 
L 270.338829 293.693995 
L 270.710949 294.581321 
L 271.083069 295.468646 
" clip-path="url(#paf040551fd)" style="fill: none; stroke: #008000; stroke-width: 1.5; stroke-linecap: square"/>
   </g>
   <g id="line2d_65">
    <path d="M 271.099302 295.488 
L 271.471421 295.488 
L 271.843541 295.488 
L 272.215661 295.488 
L 272.587781 295.488 
L 272.959901 295.488 
L 273.332021 295.488 
L 273.704141 295.488 
L 274.076261 295.488 
L 274.44838 295.488 
L 274.8205 295.488 
L 275.19262 295.488 
" clip-path="url(#paf040551fd)" style="fill: none; stroke: #008000; stroke-width: 1.5; stroke-linecap: square"/>
   </g>
   <g id="line2d_66">
    <path d="M 275.208853 295.488 
L 275.580973 295.488 
L 275.953093 295.488 
L 276.325212 295.488 
L 276.697332 295.488 
L 277.069452 295.488 
L 277.441572 295.488 
L 277.813692 295.488 
L 278.185812 295.488 
L 278.557932 295.488 
L 278.930051 295.488 
L 279.302171 295.488 
" clip-path="url(#paf040551fd)" style="fill: none; stroke: #008000; stroke-width: 1.5; stroke-linecap: square"/>
   </g>
   <g id="line2d_67">
    <path d="M 279.318404 295.488 
L 279.690524 295.488 
L 280.062644 295.488 
L 280.434764 295.488 
L 280.806883 295.488 
L 281.179003 295.488 
L 281.551123 295.488 
L 281.923243 295.488 
L 282.295363 295.488 
L 282.667483 295.488 
L 283.039603 295.488 
L 283.411723 295.488 
" clip-path="url(#paf040551fd)" style="fill: none; stroke: #008000; stroke-width: 1.5; stroke-linecap: square"/>
   </g>
   <g id="line2d_68">
    <path d="M 283.427955 295.488 
L 283.800075 295.488 
L 284.172195 295.488 
L 284.544315 295.488 
L 284.916435 295.488 
L 285.288555 295.488 
L 285.660674 295.488 
L 286.032794 295.488 
L 286.404914 295.488 
L 286.777034 295.488 
L 287.149154 295.488 
L 287.521274 295.488 
" clip-path="url(#paf040551fd)" style="fill: none; stroke: #008000; stroke-width: 1.5; stroke-linecap: square"/>
   </g>
   <g id="line2d_69">
    <path d="M 287.537506 295.488 
L 287.909626 295.488 
L 288.281746 295.488 
L 288.653866 295.488 
L 289.025986 295.488 
L 289.398106 295.488 
L 289.770226 295.488 
L 290.142346 295.488 
L 290.514465 295.488 
L 290.886585 295.488 
L 291.258705 295.488 
L 291.630825 295.488 
" clip-path="url(#paf040551fd)" style="fill: none; stroke: #008000; stroke-width: 1.5; stroke-linecap: square"/>
   </g>
   <g id="line2d_70">
    <path d="M 291.647058 295.488 
L 292.019178 295.488 
L 292.391297 295.488 
L 292.763417 295.488 
L 293.135537 295.488 
L 293.507657 295.488 
L 293.879777 295.488 
L 294.251897 295.488 
L 294.624017 295.488 
L 294.996136 295.488 
L 295.368256 295.488 
L 295.740376 295.488 
" clip-path="url(#paf040551fd)" style="fill: none; stroke: #008000; stroke-width: 1.5; stroke-linecap: square"/>
   </g>
   <g id="line2d_71">
    <path d="M 295.756609 295.488 
L 296.128729 295.488 
L 296.500849 295.488 
L 296.872968 295.488 
L 297.245088 295.488 
L 297.617208 295.488 
L 297.989328 295.488 
L 298.361448 295.488 
L 298.733568 295.488 
L 299.105688 295.488 
L 299.477808 295.488 
L 299.849927 295.488 
" clip-path="url(#paf040551fd)" style="fill: none; stroke: #008000; stroke-width: 1.5; stroke-linecap: square"/>
   </g>
   <g id="line2d_72">
    <path d="M 299.86616 273.89948 
L 300.23828 266.132041 
L 300.6104 258.364602 
L 300.98252 250.597163 
L 301.35464 242.829724 
L 301.726759 235.062285 
L 302.098879 227.294846 
L 302.470999 219.527407 
L 302.843119 211.759968 
L 303.215239 203.992528 
L 303.587359 196.225089 
L 303.959479 188.45765 
" clip-path="url(#paf040551fd)" style="fill: none; stroke: #008000; stroke-width: 1.5; stroke-linecap: square"/>
   </g>
   <g id="line2d_73">
    <path d="M 303.975711 161.658653 
L 304.347831 154.798293 
L 304.719951 147.937933 
L 305.092071 141.077574 
L 305.464191 134.217214 
L 305.836311 127.356854 
L 306.20843 120.496494 
L 306.58055 113.636134 
L 306.95267 106.775774 
L 307.32479 99.915414 
L 307.69691 93.055054 
L 308.06903 86.194694 
" clip-path="url(#paf040551fd)" style="fill: none; stroke: #008000; stroke-width: 1.5; stroke-linecap: square"/>
   </g>
   <g id="line2d_74">
    <path d="M 308.085263 95.879136 
L 308.457382 92.928769 
L 308.829502 89.978402 
L 309.201622 87.028035 
L 309.573742 84.077668 
L 309.945862 81.127301 
L 310.317982 78.176934 
L 310.690102 75.226567 
L 311.062221 72.2762 
L 311.434341 69.325833 
L 311.806461 66.375467 
L 312.178581 63.4251 
" clip-path="url(#paf040551fd)" style="fill: none; stroke: #008000; stroke-width: 1.5; stroke-linecap: square"/>
   </g>
   <g id="line2d_75">
    <path d="M 312.194814 62.699872 
L 312.566934 61.98375 
L 312.939053 61.267627 
L 313.311173 60.551505 
L 313.683293 59.835382 
L 314.055413 59.119259 
L 314.427533 58.403137 
L 314.799653 57.687014 
L 315.171773 56.970892 
L 315.543892 56.254769 
L 315.916012 55.538646 
L 316.288132 54.822524 
" clip-path="url(#paf040551fd)" style="fill: none; stroke: #008000; stroke-width: 1.5; stroke-linecap: square"/>
   </g>
   <g id="line2d_76">
    <path d="M 316.304365 54.806904 
L 316.676485 54.806904 
L 317.048605 54.806904 
L 317.420725 54.806904 
L 317.792844 54.806904 
L 318.164964 54.806904 
L 318.537084 54.806904 
L 318.909204 54.806904 
L 319.281324 54.806904 
L 319.653444 54.806904 
L 320.025564 54.806904 
L 320.397683 54.806904 
" clip-path="url(#paf040551fd)" style="fill: none; stroke: #008000; stroke-width: 1.5; stroke-linecap: square"/>
   </g>
   <g id="line2d_77">
    <path d="M 320.413916 56.120191 
L 320.786036 58.076675 
L 321.158156 60.03316 
L 321.530276 61.989644 
L 321.902396 63.946128 
L 322.274515 65.902613 
L 322.646635 67.859097 
L 323.018755 69.815582 
L 323.390875 71.772066 
L 323.762995 73.728551 
L 324.135115 75.685035 
L 324.507235 77.64152 
" clip-path="url(#paf040551fd)" style="fill: none; stroke: #008000; stroke-width: 1.5; stroke-linecap: square"/>
   </g>
   <g id="line2d_78">
    <path d="M 324.523467 74.127857 
L 324.895587 78.47193 
L 325.267707 82.816002 
L 325.639827 87.160074 
L 326.011947 91.504147 
L 326.384067 95.848219 
L 326.756187 100.192292 
L 327.128306 104.536364 
L 327.500426 108.880437 
L 327.872546 113.224509 
L 328.244666 117.568582 
L 328.616786 121.912654 
" clip-path="url(#paf040551fd)" style="fill: none; stroke: #008000; stroke-width: 1.5; stroke-linecap: square"/>
   </g>
   <g id="line2d_79">
    <path d="M 328.633019 116.109677 
L 329.005138 124.604181 
L 329.377258 133.098684 
L 329.749378 141.593188 
L 330.121498 150.087691 
L 330.493618 158.582195 
L 330.865738 167.076698 
L 331.237858 175.571201 
L 331.609977 184.065705 
L 331.982097 192.560208 
L 332.354217 201.054712 
L 332.726337 209.549215 
" clip-path="url(#paf040551fd)" style="fill: none; stroke: #008000; stroke-width: 1.5; stroke-linecap: square"/>
   </g>
   <g id="line2d_80">
    <path d="M 332.74257 275.83176 
L 333.11469 277.615155 
L 333.486809 279.39855 
L 333.858929 281.181944 
L 334.231049 282.965339 
L 334.603169 284.748734 
L 334.975289 286.532128 
L 335.347409 288.315523 
L 335.719529 290.098918 
L 336.091649 291.882313 
L 336.463768 293.665707 
L 336.835888 295.449102 
" clip-path="url(#paf040551fd)" style="fill: none; stroke: #008000; stroke-width: 1.5; stroke-linecap: square"/>
   </g>
   <g id="line2d_81">
    <path d="M 336.852121 295.488 
L 337.224241 295.488 
L 337.596361 295.488 
L 337.968481 295.488 
L 338.3406 295.488 
L 338.71272 295.488 
L 339.08484 295.488 
L 339.45696 295.488 
L 339.82908 295.488 
L 340.2012 295.488 
L 340.57332 295.488 
L 340.945439 295.488 
" clip-path="url(#paf040551fd)" style="fill: none; stroke: #008000; stroke-width: 1.5; stroke-linecap: square"/>
   </g>
   <g id="line2d_82">
    <path d="M 340.961672 295.488 
L 341.333792 295.488 
L 341.705912 295.488 
L 342.078032 295.488 
L 342.450152 295.488 
L 342.822271 295.488 
L 343.194391 295.488 
L 343.566511 295.488 
L 343.938631 295.488 
L 344.310751 295.488 
L 344.682871 295.488 
L 345.054991 295.488 
" clip-path="url(#paf040551fd)" style="fill: none; stroke: #008000; stroke-width: 1.5; stroke-linecap: square"/>
   </g>
   <g id="line2d_83">
    <path d="M 345.071223 295.488 
L 345.443343 295.488 
L 345.815463 295.488 
L 346.187583 295.488 
L 346.559703 295.488 
L 346.931823 295.488 
L 347.303943 295.488 
L 347.676062 295.488 
L 348.048182 295.488 
L 348.420302 295.488 
L 348.792422 295.488 
L 349.164542 295.488 
" clip-path="url(#paf040551fd)" style="fill: none; stroke: #008000; stroke-width: 1.5; stroke-linecap: square"/>
   </g>
   <g id="line2d_84">
    <path d="M 349.180775 295.488 
L 349.552894 295.488 
L 349.925014 295.488 
L 350.297134 295.488 
L 350.669254 295.488 
L 351.041374 295.488 
L 351.413494 295.488 
L 351.785614 295.488 
L 352.157733 295.488 
L 352.529853 295.488 
L 352.901973 295.488 
L 353.274093 295.488 
" clip-path="url(#paf040551fd)" style="fill: none; stroke: #008000; stroke-width: 1.5; stroke-linecap: square"/>
   </g>
   <g id="line2d_85">
    <path d="M 353.290326 295.488 
L 353.662446 295.488 
L 354.034566 295.488 
L 354.406685 295.488 
L 354.778805 295.488 
L 355.150925 295.488 
L 355.523045 295.488 
L 355.895165 295.488 
L 356.267285 295.488 
L 356.639405 295.488 
L 357.011524 295.488 
L 357.383644 295.488 
" clip-path="url(#paf040551fd)" style="fill: none; stroke: #008000; stroke-width: 1.5; stroke-linecap: square"/>
   </g>
   <g id="line2d_86">
    <path d="M 357.399877 295.488 
L 357.771997 295.488 
L 358.144117 295.488 
L 358.516237 295.488 
L 358.888356 295.488 
L 359.260476 295.488 
L 359.632596 295.488 
L 360.004716 295.488 
L 360.376836 295.488 
L 360.748956 295.488 
L 361.121076 295.488 
L 361.493195 295.488 
" clip-path="url(#paf040551fd)" style="fill: none; stroke: #008000; stroke-width: 1.5; stroke-linecap: square"/>
   </g>
   <g id="line2d_87">
    <path d="M 361.509428 295.488 
L 361.881548 295.488 
L 362.253668 295.488 
L 362.625788 295.488 
L 362.997908 295.488 
L 363.370028 295.488 
L 363.742147 295.488 
L 364.114267 295.488 
L 364.486387 295.488 
L 364.858507 295.488 
L 365.230627 295.488 
L 365.602747 295.488 
" clip-path="url(#paf040551fd)" style="fill: none; stroke: #008000; stroke-width: 1.5; stroke-linecap: square"/>
   </g>
   <g id="line2d_88">
    <path d="M 365.618979 295.488 
L 365.991099 295.488 
L 366.363219 295.488 
L 366.735339 295.488 
L 367.107459 295.488 
L 367.479579 295.488 
L 367.851699 295.488 
L 368.223818 295.488 
L 368.595938 295.488 
L 368.968058 295.488 
L 369.340178 295.488 
L 369.712298 295.488 
" clip-path="url(#paf040551fd)" style="fill: none; stroke: #008000; stroke-width: 1.5; stroke-linecap: square"/>
   </g>
   <g id="line2d_89">
    <path d="M 369.728531 295.488 
L 370.10065 295.488 
L 370.47277 295.488 
L 370.84489 295.488 
L 371.21701 295.488 
L 371.58913 295.488 
L 371.96125 295.488 
L 372.33337 295.488 
L 372.70549 295.488 
L 373.077609 295.488 
L 373.449729 295.488 
L 373.821849 295.488 
" clip-path="url(#paf040551fd)" style="fill: none; stroke: #008000; stroke-width: 1.5; stroke-linecap: square"/>
   </g>
   <g id="line2d_90">
    <path d="M 373.838082 295.488 
L 374.210202 295.488 
L 374.582322 295.488 
L 374.954441 295.488 
L 375.326561 295.488 
L 375.698681 295.488 
L 376.070801 295.488 
L 376.442921 295.488 
L 376.815041 295.488 
L 377.187161 295.488 
L 377.55928 295.488 
L 377.9314 295.488 
" clip-path="url(#paf040551fd)" style="fill: none; stroke: #008000; stroke-width: 1.5; stroke-linecap: square"/>
   </g>
   <g id="line2d_91">
    <path d="M 377.947633 295.488 
L 378.319753 295.488 
L 378.691873 295.488 
L 379.063993 295.488 
L 379.436112 295.488 
L 379.808232 295.488 
L 380.180352 295.488 
L 380.552472 295.488 
L 380.924592 295.488 
L 381.296712 295.488 
L 381.668832 295.488 
L 382.040952 295.488 
" clip-path="url(#paf040551fd)" style="fill: none; stroke: #008000; stroke-width: 1.5; stroke-linecap: square"/>
   </g>
   <g id="line2d_92">
    <path d="M 382.057184 295.488 
L 382.429304 295.488 
L 382.801424 295.488 
L 383.173544 295.488 
L 383.545664 295.488 
L 383.917784 295.488 
L 384.289903 295.488 
L 384.662023 295.488 
L 385.034143 295.488 
L 385.406263 295.488 
L 385.778383 295.488 
L 386.150503 295.488 
" clip-path="url(#paf040551fd)" style="fill: none; stroke: #008000; stroke-width: 1.5; stroke-linecap: square"/>
   </g>
   <g id="line2d_93">
    <path d="M 386.166735 295.488 
L 386.538855 295.488 
L 386.910975 295.488 
L 387.283095 295.488 
L 387.655215 295.488 
L 388.027335 295.488 
L 388.399455 295.488 
L 388.771574 295.488 
L 389.143694 295.488 
L 389.515814 295.488 
L 389.887934 295.488 
L 390.260054 295.488 
" clip-path="url(#paf040551fd)" style="fill: none; stroke: #008000; stroke-width: 1.5; stroke-linecap: square"/>
   </g>
   <g id="line2d_94">
    <path d="M 390.276287 295.488 
L 390.648407 295.488 
L 391.020526 295.488 
L 391.392646 295.488 
L 391.764766 295.488 
L 392.136886 295.488 
L 392.509006 295.488 
L 392.881126 295.488 
L 393.253246 295.488 
L 393.625365 295.488 
L 393.997485 295.488 
L 394.369605 295.488 
" clip-path="url(#paf040551fd)" style="fill: none; stroke: #008000; stroke-width: 1.5; stroke-linecap: square"/>
   </g>
   <g id="line2d_95">
    <path d="M 394.385838 295.488 
L 394.757958 295.488 
L 395.130078 295.488 
L 395.502197 295.488 
L 395.874317 295.488 
L 396.246437 295.488 
L 396.618557 295.488 
L 396.990677 295.488 
L 397.362797 295.488 
L 397.734917 295.488 
L 398.107037 295.488 
L 398.479156 295.488 
" clip-path="url(#paf040551fd)" style="fill: none; stroke: #008000; stroke-width: 1.5; stroke-linecap: square"/>
   </g>
   <g id="patch_3">
    <path d="M 57.6 307.584 
L 57.6 41.472 
" style="fill: none; stroke: #000000; stroke-width: 0.8; stroke-linejoin: miter; stroke-linecap: square"/>
   </g>
   <g id="patch_4">
    <path d="M 414.72 307.584 
L 414.72 41.472 
" style="fill: none; stroke: #000000; stroke-width: 0.8; stroke-linejoin: miter; stroke-linecap: square"/>
   </g>
   <g id="patch_5">
    <path d="M 57.6 307.584 
L 414.72 307.584 
" style="fill: none; stroke: #000000; stroke-width: 0.8; stroke-linejoin: miter; stroke-linecap: square"/>
   </g>
   <g id="patch_6">
    <path d="M 57.6 41.472 
L 414.72 41.472 
" style="fill: none; stroke: #000000; stroke-width: 0.8; stroke-linejoin: miter; stroke-linecap: square"/>
   </g>
   <g id="legend_1">
    <g id="patch_7">
     <path d="M 64.6 93.906375 
L 210.795312 93.906375 
Q 212.795312 93.906375 212.795312 91.906375 
L 212.795312 48.472 
Q 212.795312 46.472 210.795312 46.472 
L 64.6 46.472 
Q 62.6 46.472 62.6 48.472 
L 62.6 91.906375 
Q 62.6 93.906375 64.6 93.906375 
z
" style="fill: #ffffff; opacity: 0.8; stroke: #cccccc; stroke-linejoin: miter"/>
    </g>
    <g id="line2d_96">
     <path d="M 66.6 54.570437 
L 76.6 54.570437 
L 86.6 54.570437 
" style="fill: none; stroke: #0000ff; stroke-width: 1.5; stroke-linecap: square"/>
    </g>
    <g id="text_18">
     <!-- Původní funkce -->
     <g transform="translate(94.6 58.070437)scale(0.1 -0.1)">
      <defs>
       <path id="DejaVuSans-50" d="M 1259 4147 
L 1259 2394 
L 2053 2394 
Q 2494 2394 2734 2622 
Q 2975 2850 2975 3272 
Q 2975 3691 2734 3919 
Q 2494 4147 2053 4147 
L 1259 4147 
z
M 628 4666 
L 2053 4666 
Q 2838 4666 3239 4311 
Q 3641 3956 3641 3272 
Q 3641 2581 3239 2228 
Q 2838 1875 2053 1875 
L 1259 1875 
L 1259 0 
L 628 0 
L 628 4666 
z
" transform="scale(0.015625)"/>
       <path id="DejaVuSans-16f" d="M 544 1381 
L 544 3500 
L 1119 3500 
L 1119 1403 
Q 1119 906 1312 657 
Q 1506 409 1894 409 
Q 2359 409 2629 706 
Q 2900 1003 2900 1516 
L 2900 3500 
L 3475 3500 
L 3475 0 
L 2900 0 
L 2900 538 
Q 2691 219 2414 64 
Q 2138 -91 1772 -91 
Q 1169 -91 856 284 
Q 544 659 544 1381 
z
M 1991 3584 
L 1991 3584 
z
M 2463 4575 
Q 2463 4771 2325 4908 
Q 2188 5046 1988 5046 
Q 1784 5046 1648 4910 
Q 1513 4775 1513 4575 
Q 1513 4371 1648 4235 
Q 1784 4100 1988 4100 
Q 2188 4100 2325 4237 
Q 2463 4375 2463 4575 
z
M 2844 4575 
Q 2844 4215 2595 3965 
Q 2347 3715 1988 3715 
Q 1628 3715 1379 3965 
Q 1131 4215 1131 4575 
Q 1131 4934 1379 5182 
Q 1628 5431 1988 5431 
Q 2347 5431 2595 5182 
Q 2844 4934 2844 4575 
z
" transform="scale(0.015625)"/>
       <path id="DejaVuSans-76" d="M 191 3500 
L 800 3500 
L 1894 563 
L 2988 3500 
L 3597 3500 
L 2284 0 
L 1503 0 
L 191 3500 
z
" transform="scale(0.015625)"/>
       <path id="DejaVuSans-6f" d="M 1959 3097 
Q 1497 3097 1228 2736 
Q 959 2375 959 1747 
Q 959 1119 1226 758 
Q 1494 397 1959 397 
Q 2419 397 2687 759 
Q 2956 1122 2956 1747 
Q 2956 2369 2687 2733 
Q 2419 3097 1959 3097 
z
M 1959 3584 
Q 2709 3584 3137 3096 
Q 3566 2609 3566 1747 
Q 3566 888 3137 398 
Q 2709 -91 1959 -91 
Q 1206 -91 779 398 
Q 353 888 353 1747 
Q 353 2609 779 3096 
Q 1206 3584 1959 3584 
z
" transform="scale(0.015625)"/>
       <path id="DejaVuSans-64" d="M 2906 2969 
L 2906 4863 
L 3481 4863 
L 3481 0 
L 2906 0 
L 2906 525 
Q 2725 213 2448 61 
Q 2172 -91 1784 -91 
Q 1150 -91 751 415 
Q 353 922 353 1747 
Q 353 2572 751 3078 
Q 1150 3584 1784 3584 
Q 2172 3584 2448 3432 
Q 2725 3281 2906 2969 
z
M 947 1747 
Q 947 1113 1208 752 
Q 1469 391 1925 391 
Q 2381 391 2643 752 
Q 2906 1113 2906 1747 
Q 2906 2381 2643 2742 
Q 2381 3103 1925 3103 
Q 1469 3103 1208 2742 
Q 947 2381 947 1747 
z
" transform="scale(0.015625)"/>
       <path id="DejaVuSans-6e" d="M 3513 2113 
L 3513 0 
L 2938 0 
L 2938 2094 
Q 2938 2591 2744 2837 
Q 2550 3084 2163 3084 
Q 1697 3084 1428 2787 
Q 1159 2491 1159 1978 
L 1159 0 
L 581 0 
L 581 3500 
L 1159 3500 
L 1159 2956 
Q 1366 3272 1645 3428 
Q 1925 3584 2291 3584 
Q 2894 3584 3203 3211 
Q 3513 2838 3513 2113 
z
" transform="scale(0.015625)"/>
       <path id="DejaVuSans-ed" d="M 1325 5119 
L 1947 5119 
L 928 3944 
L 450 3944 
L 1325 5119 
z
M 603 3500 
L 1178 3500 
L 1178 0 
L 603 0 
L 603 3500 
z
M 891 3584 
L 891 3584 
z
" transform="scale(0.015625)"/>
       <path id="DejaVuSans-20" transform="scale(0.015625)"/>
       <path id="DejaVuSans-66" d="M 2375 4863 
L 2375 4384 
L 1825 4384 
Q 1516 4384 1395 4259 
Q 1275 4134 1275 3809 
L 1275 3500 
L 2222 3500 
L 2222 3053 
L 1275 3053 
L 1275 0 
L 697 0 
L 697 3053 
L 147 3053 
L 147 3500 
L 697 3500 
L 697 3744 
Q 697 4328 969 4595 
Q 1241 4863 1831 4863 
L 2375 4863 
z
" transform="scale(0.015625)"/>
       <path id="DejaVuSans-75" d="M 544 1381 
L 544 3500 
L 1119 3500 
L 1119 1403 
Q 1119 906 1312 657 
Q 1506 409 1894 409 
Q 2359 409 2629 706 
Q 2900 1003 2900 1516 
L 2900 3500 
L 3475 3500 
L 3475 0 
L 2900 0 
L 2900 538 
Q 2691 219 2414 64 
Q 2138 -91 1772 -91 
Q 1169 -91 856 284 
Q 544 659 544 1381 
z
M 1991 3584 
L 1991 3584 
z
" transform="scale(0.015625)"/>
       <path id="DejaVuSans-6b" d="M 581 4863 
L 1159 4863 
L 1159 1991 
L 2875 3500 
L 3609 3500 
L 1753 1863 
L 3688 0 
L 2938 0 
L 1159 1709 
L 1159 0 
L 581 0 
L 581 4863 
z
" transform="scale(0.015625)"/>
       <path id="DejaVuSans-63" d="M 3122 3366 
L 3122 2828 
Q 2878 2963 2633 3030 
Q 2388 3097 2138 3097 
Q 1578 3097 1268 2742 
Q 959 2388 959 1747 
Q 959 1106 1268 751 
Q 1578 397 2138 397 
Q 2388 397 2633 464 
Q 2878 531 3122 666 
L 3122 134 
Q 2881 22 2623 -34 
Q 2366 -91 2075 -91 
Q 1284 -91 818 406 
Q 353 903 353 1747 
Q 353 2603 823 3093 
Q 1294 3584 2113 3584 
Q 2378 3584 2631 3529 
Q 2884 3475 3122 3366 
z
" transform="scale(0.015625)"/>
       <path id="DejaVuSans-65" d="M 3597 1894 
L 3597 1613 
L 953 1613 
Q 991 1019 1311 708 
Q 1631 397 2203 397 
Q 2534 397 2845 478 
Q 3156 559 3463 722 
L 3463 178 
Q 3153 47 2828 -22 
Q 2503 -91 2169 -91 
Q 1331 -91 842 396 
Q 353 884 353 1716 
Q 353 2575 817 3079 
Q 1281 3584 2069 3584 
Q 2775 3584 3186 3129 
Q 3597 2675 3597 1894 
z
M 3022 2063 
Q 3016 2534 2758 2815 
Q 2500 3097 2075 3097 
Q 1594 3097 1305 2825 
Q 1016 2553 972 2059 
L 3022 2063 
z
" transform="scale(0.015625)"/>
      </defs>
      <use xlink:href="#DejaVuSans-50"/>
      <use xlink:href="#DejaVuSans-16f" x="58.552734"/>
      <use xlink:href="#DejaVuSans-76" x="121.931641"/>
      <use xlink:href="#DejaVuSans-6f" x="181.111328"/>
      <use xlink:href="#DejaVuSans-64" x="242.292969"/>
      <use xlink:href="#DejaVuSans-6e" x="305.769531"/>
      <use xlink:href="#DejaVuSans-ed" x="369.148438"/>
      <use xlink:href="#DejaVuSans-20" x="396.931641"/>
      <use xlink:href="#DejaVuSans-66" x="428.71875"/>
      <use xlink:href="#DejaVuSans-75" x="463.923828"/>
      <use xlink:href="#DejaVuSans-6e" x="527.302734"/>
      <use xlink:href="#DejaVuSans-6b" x="590.681641"/>
      <use xlink:href="#DejaVuSans-63" x="648.591797"/>
      <use xlink:href="#DejaVuSans-65" x="703.572266"/>
     </g>
    </g>
    <g id="PathCollection_2">
     <g>
      <use xlink:href="#m4efa1e503d" x="76.6" y="70.523562" style="fill: #228b22; stroke: #228b22"/>
     </g>
    </g>
    <g id="text_19">
     <!-- Střední hodnoty buněk -->
     <g transform="translate(94.6 73.148562)scale(0.1 -0.1)">
      <defs>
       <path id="DejaVuSans-53" d="M 3425 4513 
L 3425 3897 
Q 3066 4069 2747 4153 
Q 2428 4238 2131 4238 
Q 1616 4238 1336 4038 
Q 1056 3838 1056 3469 
Q 1056 3159 1242 3001 
Q 1428 2844 1947 2747 
L 2328 2669 
Q 3034 2534 3370 2195 
Q 3706 1856 3706 1288 
Q 3706 609 3251 259 
Q 2797 -91 1919 -91 
Q 1588 -91 1214 -16 
Q 841 59 441 206 
L 441 856 
Q 825 641 1194 531 
Q 1563 422 1919 422 
Q 2459 422 2753 634 
Q 3047 847 3047 1241 
Q 3047 1584 2836 1778 
Q 2625 1972 2144 2069 
L 1759 2144 
Q 1053 2284 737 2584 
Q 422 2884 422 3419 
Q 422 4038 858 4394 
Q 1294 4750 2059 4750 
Q 2388 4750 2728 4690 
Q 3069 4631 3425 4513 
z
" transform="scale(0.015625)"/>
       <path id="DejaVuSans-74" d="M 1172 4494 
L 1172 3500 
L 2356 3500 
L 2356 3053 
L 1172 3053 
L 1172 1153 
Q 1172 725 1289 603 
Q 1406 481 1766 481 
L 2356 481 
L 2356 0 
L 1766 0 
Q 1100 0 847 248 
Q 594 497 594 1153 
L 594 3053 
L 172 3053 
L 172 3500 
L 594 3500 
L 594 4494 
L 1172 4494 
z
" transform="scale(0.015625)"/>
       <path id="DejaVuSans-159" d="M 2631 2963 
Q 2534 3019 2420 3045 
Q 2306 3072 2169 3072 
Q 1681 3072 1420 2755 
Q 1159 2438 1159 1844 
L 1159 0 
L 581 0 
L 581 3500 
L 1159 3500 
L 1159 2956 
Q 1341 3275 1631 3429 
Q 1922 3584 2338 3584 
Q 2397 3584 2469 3576 
Q 2541 3569 2628 3553 
L 2631 2963 
z
M 1453 3944 
L 688 5119 
L 1122 5119 
L 1684 4353 
L 2247 5119 
L 2681 5119 
L 1916 3944 
L 1453 3944 
z
" transform="scale(0.015625)"/>
       <path id="DejaVuSans-68" d="M 3513 2113 
L 3513 0 
L 2938 0 
L 2938 2094 
Q 2938 2591 2744 2837 
Q 2550 3084 2163 3084 
Q 1697 3084 1428 2787 
Q 1159 2491 1159 1978 
L 1159 0 
L 581 0 
L 581 4863 
L 1159 4863 
L 1159 2956 
Q 1366 3272 1645 3428 
Q 1925 3584 2291 3584 
Q 2894 3584 3203 3211 
Q 3513 2838 3513 2113 
z
" transform="scale(0.015625)"/>
       <path id="DejaVuSans-79" d="M 2059 -325 
Q 1816 -950 1584 -1140 
Q 1353 -1331 966 -1331 
L 506 -1331 
L 506 -850 
L 844 -850 
Q 1081 -850 1212 -737 
Q 1344 -625 1503 -206 
L 1606 56 
L 191 3500 
L 800 3500 
L 1894 763 
L 2988 3500 
L 3597 3500 
L 2059 -325 
z
" transform="scale(0.015625)"/>
       <path id="DejaVuSans-62" d="M 3116 1747 
Q 3116 2381 2855 2742 
Q 2594 3103 2138 3103 
Q 1681 3103 1420 2742 
Q 1159 2381 1159 1747 
Q 1159 1113 1420 752 
Q 1681 391 2138 391 
Q 2594 391 2855 752 
Q 3116 1113 3116 1747 
z
M 1159 2969 
Q 1341 3281 1617 3432 
Q 1894 3584 2278 3584 
Q 2916 3584 3314 3078 
Q 3713 2572 3713 1747 
Q 3713 922 3314 415 
Q 2916 -91 2278 -91 
Q 1894 -91 1617 61 
Q 1341 213 1159 525 
L 1159 0 
L 581 0 
L 581 4863 
L 1159 4863 
L 1159 2969 
z
" transform="scale(0.015625)"/>
       <path id="DejaVuSans-11b" d="M 3597 1894 
L 3597 1613 
L 953 1613 
Q 991 1019 1311 708 
Q 1631 397 2203 397 
Q 2534 397 2845 478 
Q 3156 559 3463 722 
L 3463 178 
Q 3153 47 2828 -22 
Q 2503 -91 2169 -91 
Q 1331 -91 842 396 
Q 353 884 353 1716 
Q 353 2575 817 3079 
Q 1281 3584 2069 3584 
Q 2775 3584 3186 3129 
Q 3597 2675 3597 1894 
z
M 3022 2063 
Q 3016 2534 2758 2815 
Q 2500 3097 2075 3097 
Q 1594 3097 1305 2825 
Q 1016 2553 972 2059 
L 3022 2063 
z
M 1831 3928 
L 1066 5103 
L 1500 5103 
L 2063 4337 
L 2625 5103 
L 3059 5103 
L 2294 3928 
L 1831 3928 
z
" transform="scale(0.015625)"/>
      </defs>
      <use xlink:href="#DejaVuSans-53"/>
      <use xlink:href="#DejaVuSans-74" x="63.476562"/>
      <use xlink:href="#DejaVuSans-159" x="102.685547"/>
      <use xlink:href="#DejaVuSans-65" x="141.548828"/>
      <use xlink:href="#DejaVuSans-64" x="203.072266"/>
      <use xlink:href="#DejaVuSans-6e" x="266.548828"/>
      <use xlink:href="#DejaVuSans-ed" x="329.927734"/>
      <use xlink:href="#DejaVuSans-20" x="357.710938"/>
      <use xlink:href="#DejaVuSans-68" x="389.498047"/>
      <use xlink:href="#DejaVuSans-6f" x="452.876953"/>
      <use xlink:href="#DejaVuSans-64" x="514.058594"/>
      <use xlink:href="#DejaVuSans-6e" x="577.535156"/>
      <use xlink:href="#DejaVuSans-6f" x="640.914062"/>
      <use xlink:href="#DejaVuSans-74" x="702.095703"/>
      <use xlink:href="#DejaVuSans-79" x="741.304688"/>
      <use xlink:href="#DejaVuSans-20" x="800.484375"/>
      <use xlink:href="#DejaVuSans-62" x="832.271484"/>
      <use xlink:href="#DejaVuSans-75" x="895.748047"/>
      <use xlink:href="#DejaVuSans-6e" x="959.126953"/>
      <use xlink:href="#DejaVuSans-11b" x="1022.505859"/>
      <use xlink:href="#DejaVuSans-6b" x="1084.029297"/>
     </g>
    </g>
    <g id="line2d_97">
     <path d="M 66.6 84.326687 
L 76.6 84.326687 
L 86.6 84.326687 
" style="fill: none; stroke: #008000; stroke-width: 1.5; stroke-linecap: square"/>
    </g>
    <g id="text_20">
     <!-- Rekonstrukce -->
     <g transform="translate(94.6 87.826687)scale(0.1 -0.1)">
      <defs>
       <path id="DejaVuSans-52" d="M 2841 2188 
Q 3044 2119 3236 1894 
Q 3428 1669 3622 1275 
L 4263 0 
L 3584 0 
L 2988 1197 
Q 2756 1666 2539 1819 
Q 2322 1972 1947 1972 
L 1259 1972 
L 1259 0 
L 628 0 
L 628 4666 
L 2053 4666 
Q 2853 4666 3247 4331 
Q 3641 3997 3641 3322 
Q 3641 2881 3436 2590 
Q 3231 2300 2841 2188 
z
M 1259 4147 
L 1259 2491 
L 2053 2491 
Q 2509 2491 2742 2702 
Q 2975 2913 2975 3322 
Q 2975 3731 2742 3939 
Q 2509 4147 2053 4147 
L 1259 4147 
z
" transform="scale(0.015625)"/>
       <path id="DejaVuSans-73" d="M 2834 3397 
L 2834 2853 
Q 2591 2978 2328 3040 
Q 2066 3103 1784 3103 
Q 1356 3103 1142 2972 
Q 928 2841 928 2578 
Q 928 2378 1081 2264 
Q 1234 2150 1697 2047 
L 1894 2003 
Q 2506 1872 2764 1633 
Q 3022 1394 3022 966 
Q 3022 478 2636 193 
Q 2250 -91 1575 -91 
Q 1294 -91 989 -36 
Q 684 19 347 128 
L 347 722 
Q 666 556 975 473 
Q 1284 391 1588 391 
Q 1994 391 2212 530 
Q 2431 669 2431 922 
Q 2431 1156 2273 1281 
Q 2116 1406 1581 1522 
L 1381 1569 
Q 847 1681 609 1914 
Q 372 2147 372 2553 
Q 372 3047 722 3315 
Q 1072 3584 1716 3584 
Q 2034 3584 2315 3537 
Q 2597 3491 2834 3397 
z
" transform="scale(0.015625)"/>
       <path id="DejaVuSans-72" d="M 2631 2963 
Q 2534 3019 2420 3045 
Q 2306 3072 2169 3072 
Q 1681 3072 1420 2755 
Q 1159 2438 1159 1844 
L 1159 0 
L 581 0 
L 581 3500 
L 1159 3500 
L 1159 2956 
Q 1341 3275 1631 3429 
Q 1922 3584 2338 3584 
Q 2397 3584 2469 3576 
Q 2541 3569 2628 3553 
L 2631 2963 
z
" transform="scale(0.015625)"/>
      </defs>
      <use xlink:href="#DejaVuSans-52"/>
      <use xlink:href="#DejaVuSans-65" x="64.982422"/>
      <use xlink:href="#DejaVuSans-6b" x="126.505859"/>
      <use xlink:href="#DejaVuSans-6f" x="180.791016"/>
      <use xlink:href="#DejaVuSans-6e" x="241.972656"/>
      <use xlink:href="#DejaVuSans-73" x="305.351562"/>
      <use xlink:href="#DejaVuSans-74" x="357.451172"/>
      <use xlink:href="#DejaVuSans-72" x="396.660156"/>
      <use xlink:href="#DejaVuSans-75" x="437.773438"/>
      <use xlink:href="#DejaVuSans-6b" x="501.152344"/>
      <use xlink:href="#DejaVuSans-63" x="559.0625"/>
      <use xlink:href="#DejaVuSans-65" x="614.042969"/>
     </g>
    </g>
   </g>
  </g>
 </g>
 <defs>
  <clipPath id="paf040551fd">
   <rect x="57.6" y="41.472" width="357.12" height="266.112"/>
  </clipPath>
 </defs>
</svg>
