<?xml version="1.0" encoding="utf-8" standalone="no"?>
<!DOCTYPE svg PUBLIC "-//W3C//DTD SVG 1.1//EN"
  "http://www.w3.org/Graphics/SVG/1.1/DTD/svg11.dtd">
<svg xmlns:xlink="http://www.w3.org/1999/xlink" width="460.8pt" height="345.6pt" viewBox="0 0 460.8 345.6" xmlns="http://www.w3.org/2000/svg" version="1.1">
 <metadata>
  <rdf:RDF xmlns:dc="http://purl.org/dc/elements/1.1/" xmlns:cc="http://creativecommons.org/ns#" xmlns:rdf="http://www.w3.org/1999/02/22-rdf-syntax-ns#">
   <cc:Work>
    <dc:type rdf:resource="http://purl.org/dc/dcmitype/StillImage"/>
    <dc:date>2023-08-02T06:04:59.332789</dc:date>
    <dc:format>image/svg+xml</dc:format>
    <dc:creator>
     <cc:Agent>
      <dc:title>Matplotlib v3.5.2, https://matplotlib.org/</dc:title>
     </cc:Agent>
    </dc:creator>
   </cc:Work>
  </rdf:RDF>
 </metadata>
 <defs>
  <style type="text/css">*{stroke-linejoin: round; stroke-linecap: butt}</style>
 </defs>
 <g id="figure_1">
  <g id="patch_1">
   <path d="M 0 345.6 
L 460.8 345.6 
L 460.8 0 
L 0 0 
z
" style="fill: #ffffff"/>
  </g>
  <g id="axes_1">
   <g id="patch_2">
    <path d="M 57.6 307.584 
L 414.72 307.584 
L 414.72 41.472 
L 57.6 41.472 
z
" style="fill: #ffffff"/>
   </g>
   <g id="PathCollection_1">
    <defs>
     <path id="m2af3b473f8" d="M 0 3 
C 0.795609 3 1.55874 2.683901 2.12132 2.12132 
C 2.683901 1.55874 3 0.795609 3 0 
C 3 -0.795609 2.683901 -1.55874 2.12132 -2.12132 
C 1.55874 -2.683901 0.795609 -3 0 -3 
C -0.795609 -3 -1.55874 -2.683901 -2.12132 -2.12132 
C -2.683901 -1.55874 -3 -0.795609 -3 0 
C -3 0.795609 -2.683901 1.55874 -2.12132 2.12132 
C -1.55874 2.683901 -0.795609 3 0 3 
z
" style="stroke: #228b22"/>
    </defs>
    <g clip-path="url(#pf20f456bc4)">
     <use xlink:href="#m2af3b473f8" x="77.994965" y="281.695197" style="fill: #228b22; stroke: #228b22"/>
     <use xlink:href="#m2af3b473f8" x="86.319441" y="289.59069" style="fill: #228b22; stroke: #228b22"/>
     <use xlink:href="#m2af3b473f8" x="94.643916" y="291.785306" style="fill: #228b22; stroke: #228b22"/>
     <use xlink:href="#m2af3b473f8" x="102.968392" y="267.748932" style="fill: #228b22; stroke: #228b22"/>
     <use xlink:href="#m2af3b473f8" x="111.292867" y="224.50062" style="fill: #228b22; stroke: #228b22"/>
     <use xlink:href="#m2af3b473f8" x="119.617343" y="193.675726" style="fill: #228b22; stroke: #228b22"/>
     <use xlink:href="#m2af3b473f8" x="127.941818" y="202.980179" style="fill: #228b22; stroke: #228b22"/>
     <use xlink:href="#m2af3b473f8" x="136.266294" y="241.904393" style="fill: #228b22; stroke: #228b22"/>
     <use xlink:href="#m2af3b473f8" x="144.590769" y="274.010367" style="fill: #228b22; stroke: #228b22"/>
     <use xlink:href="#m2af3b473f8" x="152.915245" y="281.691442" style="fill: #228b22; stroke: #228b22"/>
     <use xlink:href="#m2af3b473f8" x="161.23972" y="281.117416" style="fill: #228b22; stroke: #228b22"/>
     <use xlink:href="#m2af3b473f8" x="169.564196" y="209.433733" style="fill: #228b22; stroke: #228b22"/>
     <use xlink:href="#m2af3b473f8" x="177.888671" y="60.540554" style="fill: #228b22; stroke: #228b22"/>
     <use xlink:href="#m2af3b473f8" x="186.213147" y="60.55468" style="fill: #228b22; stroke: #228b22"/>
     <use xlink:href="#m2af3b473f8" x="194.537622" y="62.621066" style="fill: #228b22; stroke: #228b22"/>
     <use xlink:href="#m2af3b473f8" x="202.862098" y="156.010808" style="fill: #228b22; stroke: #228b22"/>
     <use xlink:href="#m2af3b473f8" x="211.186573" y="257.348775" style="fill: #228b22; stroke: #228b22"/>
     <use xlink:href="#m2af3b473f8" x="219.511049" y="256.729181" style="fill: #228b22; stroke: #228b22"/>
     <use xlink:href="#m2af3b473f8" x="227.835524" y="249.394765" style="fill: #228b22; stroke: #228b22"/>
     <use xlink:href="#m2af3b473f8" x="236.16" y="231.856081" style="fill: #228b22; stroke: #228b22"/>
     <use xlink:href="#m2af3b473f8" x="244.484476" y="213.271227" style="fill: #228b22; stroke: #228b22"/>
     <use xlink:href="#m2af3b473f8" x="252.808951" y="207.806997" style="fill: #228b22; stroke: #228b22"/>
     <use xlink:href="#m2af3b473f8" x="261.133427" y="213.649916" style="fill: #228b22; stroke: #228b22"/>
     <use xlink:href="#m2af3b473f8" x="269.457902" y="228.145146" style="fill: #228b22; stroke: #228b22"/>
     <use xlink:href="#m2af3b473f8" x="277.782378" y="242.025174" style="fill: #228b22; stroke: #228b22"/>
     <use xlink:href="#m2af3b473f8" x="286.106853" y="241.565023" style="fill: #228b22; stroke: #228b22"/>
     <use xlink:href="#m2af3b473f8" x="294.431329" y="219.182297" style="fill: #228b22; stroke: #228b22"/>
     <use xlink:href="#m2af3b473f8" x="302.755804" y="185.580094" style="fill: #228b22; stroke: #228b22"/>
     <use xlink:href="#m2af3b473f8" x="311.08028" y="153.582059" style="fill: #228b22; stroke: #228b22"/>
     <use xlink:href="#m2af3b473f8" x="319.404755" y="141.224382" style="fill: #228b22; stroke: #228b22"/>
     <use xlink:href="#m2af3b473f8" x="327.729231" y="158.775258" style="fill: #228b22; stroke: #228b22"/>
     <use xlink:href="#m2af3b473f8" x="336.053706" y="196.173147" style="fill: #228b22; stroke: #228b22"/>
     <use xlink:href="#m2af3b473f8" x="344.378182" y="242.561793" style="fill: #228b22; stroke: #228b22"/>
     <use xlink:href="#m2af3b473f8" x="352.702657" y="279.632143" style="fill: #228b22; stroke: #228b22"/>
     <use xlink:href="#m2af3b473f8" x="361.027133" y="294.294343" style="fill: #228b22; stroke: #228b22"/>
     <use xlink:href="#m2af3b473f8" x="369.351608" y="291.127956" style="fill: #228b22; stroke: #228b22"/>
     <use xlink:href="#m2af3b473f8" x="377.676084" y="283.596459" style="fill: #228b22; stroke: #228b22"/>
     <use xlink:href="#m2af3b473f8" x="386.000559" y="281.058086" style="fill: #228b22; stroke: #228b22"/>
     <use xlink:href="#m2af3b473f8" x="394.325035" y="283.719016" style="fill: #228b22; stroke: #228b22"/>
    </g>
   </g>
   <g id="matplotlib.axis_1">
    <g id="xtick_1">
     <g id="line2d_1">
      <defs>
       <path id="m8e67200ae1" d="M 0 0 
L 0 3.5 
" style="stroke: #000000; stroke-width: 0.8"/>
      </defs>
      <g>
       <use xlink:href="#m8e67200ae1" x="73.832727" y="307.584" style="stroke: #000000; stroke-width: 0.8"/>
      </g>
     </g>
     <g id="text_1">
      <!-- −1.00 -->
      <g transform="translate(58.510071 322.182437)scale(0.1 -0.1)">
       <defs>
        <path id="DejaVuSans-2212" d="M 678 2272 
L 4684 2272 
L 4684 1741 
L 678 1741 
L 678 2272 
z
" transform="scale(0.015625)"/>
        <path id="DejaVuSans-31" d="M 794 531 
L 1825 531 
L 1825 4091 
L 703 3866 
L 703 4441 
L 1819 4666 
L 2450 4666 
L 2450 531 
L 3481 531 
L 3481 0 
L 794 0 
L 794 531 
z
" transform="scale(0.015625)"/>
        <path id="DejaVuSans-2e" d="M 684 794 
L 1344 794 
L 1344 0 
L 684 0 
L 684 794 
z
" transform="scale(0.015625)"/>
        <path id="DejaVuSans-30" d="M 2034 4250 
Q 1547 4250 1301 3770 
Q 1056 3291 1056 2328 
Q 1056 1369 1301 889 
Q 1547 409 2034 409 
Q 2525 409 2770 889 
Q 3016 1369 3016 2328 
Q 3016 3291 2770 3770 
Q 2525 4250 2034 4250 
z
M 2034 4750 
Q 2819 4750 3233 4129 
Q 3647 3509 3647 2328 
Q 3647 1150 3233 529 
Q 2819 -91 2034 -91 
Q 1250 -91 836 529 
Q 422 1150 422 2328 
Q 422 3509 836 4129 
Q 1250 4750 2034 4750 
z
" transform="scale(0.015625)"/>
       </defs>
       <use xlink:href="#DejaVuSans-2212"/>
       <use xlink:href="#DejaVuSans-31" x="83.789062"/>
       <use xlink:href="#DejaVuSans-2e" x="147.412109"/>
       <use xlink:href="#DejaVuSans-30" x="179.199219"/>
       <use xlink:href="#DejaVuSans-30" x="242.822266"/>
      </g>
     </g>
    </g>
    <g id="xtick_2">
     <g id="line2d_2">
      <g>
       <use xlink:href="#m8e67200ae1" x="114.414545" y="307.584" style="stroke: #000000; stroke-width: 0.8"/>
      </g>
     </g>
     <g id="text_2">
      <!-- −0.75 -->
      <g transform="translate(99.091889 322.182437)scale(0.1 -0.1)">
       <defs>
        <path id="DejaVuSans-37" d="M 525 4666 
L 3525 4666 
L 3525 4397 
L 1831 0 
L 1172 0 
L 2766 4134 
L 525 4134 
L 525 4666 
z
" transform="scale(0.015625)"/>
        <path id="DejaVuSans-35" d="M 691 4666 
L 3169 4666 
L 3169 4134 
L 1269 4134 
L 1269 2991 
Q 1406 3038 1543 3061 
Q 1681 3084 1819 3084 
Q 2600 3084 3056 2656 
Q 3513 2228 3513 1497 
Q 3513 744 3044 326 
Q 2575 -91 1722 -91 
Q 1428 -91 1123 -41 
Q 819 9 494 109 
L 494 744 
Q 775 591 1075 516 
Q 1375 441 1709 441 
Q 2250 441 2565 725 
Q 2881 1009 2881 1497 
Q 2881 1984 2565 2268 
Q 2250 2553 1709 2553 
Q 1456 2553 1204 2497 
Q 953 2441 691 2322 
L 691 4666 
z
" transform="scale(0.015625)"/>
       </defs>
       <use xlink:href="#DejaVuSans-2212"/>
       <use xlink:href="#DejaVuSans-30" x="83.789062"/>
       <use xlink:href="#DejaVuSans-2e" x="147.412109"/>
       <use xlink:href="#DejaVuSans-37" x="179.199219"/>
       <use xlink:href="#DejaVuSans-35" x="242.822266"/>
      </g>
     </g>
    </g>
    <g id="xtick_3">
     <g id="line2d_3">
      <g>
       <use xlink:href="#m8e67200ae1" x="154.996364" y="307.584" style="stroke: #000000; stroke-width: 0.8"/>
      </g>
     </g>
     <g id="text_3">
      <!-- −0.50 -->
      <g transform="translate(139.673707 322.182437)scale(0.1 -0.1)">
       <use xlink:href="#DejaVuSans-2212"/>
       <use xlink:href="#DejaVuSans-30" x="83.789062"/>
       <use xlink:href="#DejaVuSans-2e" x="147.412109"/>
       <use xlink:href="#DejaVuSans-35" x="179.199219"/>
       <use xlink:href="#DejaVuSans-30" x="242.822266"/>
      </g>
     </g>
    </g>
    <g id="xtick_4">
     <g id="line2d_4">
      <g>
       <use xlink:href="#m8e67200ae1" x="195.578182" y="307.584" style="stroke: #000000; stroke-width: 0.8"/>
      </g>
     </g>
     <g id="text_4">
      <!-- −0.25 -->
      <g transform="translate(180.255526 322.182437)scale(0.1 -0.1)">
       <defs>
        <path id="DejaVuSans-32" d="M 1228 531 
L 3431 531 
L 3431 0 
L 469 0 
L 469 531 
Q 828 903 1448 1529 
Q 2069 2156 2228 2338 
Q 2531 2678 2651 2914 
Q 2772 3150 2772 3378 
Q 2772 3750 2511 3984 
Q 2250 4219 1831 4219 
Q 1534 4219 1204 4116 
Q 875 4013 500 3803 
L 500 4441 
Q 881 4594 1212 4672 
Q 1544 4750 1819 4750 
Q 2544 4750 2975 4387 
Q 3406 4025 3406 3419 
Q 3406 3131 3298 2873 
Q 3191 2616 2906 2266 
Q 2828 2175 2409 1742 
Q 1991 1309 1228 531 
z
" transform="scale(0.015625)"/>
       </defs>
       <use xlink:href="#DejaVuSans-2212"/>
       <use xlink:href="#DejaVuSans-30" x="83.789062"/>
       <use xlink:href="#DejaVuSans-2e" x="147.412109"/>
       <use xlink:href="#DejaVuSans-32" x="179.199219"/>
       <use xlink:href="#DejaVuSans-35" x="242.822266"/>
      </g>
     </g>
    </g>
    <g id="xtick_5">
     <g id="line2d_5">
      <g>
       <use xlink:href="#m8e67200ae1" x="236.16" y="307.584" style="stroke: #000000; stroke-width: 0.8"/>
      </g>
     </g>
     <g id="text_5">
      <!-- 0.00 -->
      <g transform="translate(225.027187 322.182437)scale(0.1 -0.1)">
       <use xlink:href="#DejaVuSans-30"/>
       <use xlink:href="#DejaVuSans-2e" x="63.623047"/>
       <use xlink:href="#DejaVuSans-30" x="95.410156"/>
       <use xlink:href="#DejaVuSans-30" x="159.033203"/>
      </g>
     </g>
    </g>
    <g id="xtick_6">
     <g id="line2d_6">
      <g>
       <use xlink:href="#m8e67200ae1" x="276.741818" y="307.584" style="stroke: #000000; stroke-width: 0.8"/>
      </g>
     </g>
     <g id="text_6">
      <!-- 0.25 -->
      <g transform="translate(265.609006 322.182437)scale(0.1 -0.1)">
       <use xlink:href="#DejaVuSans-30"/>
       <use xlink:href="#DejaVuSans-2e" x="63.623047"/>
       <use xlink:href="#DejaVuSans-32" x="95.410156"/>
       <use xlink:href="#DejaVuSans-35" x="159.033203"/>
      </g>
     </g>
    </g>
    <g id="xtick_7">
     <g id="line2d_7">
      <g>
       <use xlink:href="#m8e67200ae1" x="317.323636" y="307.584" style="stroke: #000000; stroke-width: 0.8"/>
      </g>
     </g>
     <g id="text_7">
      <!-- 0.50 -->
      <g transform="translate(306.190824 322.182437)scale(0.1 -0.1)">
       <use xlink:href="#DejaVuSans-30"/>
       <use xlink:href="#DejaVuSans-2e" x="63.623047"/>
       <use xlink:href="#DejaVuSans-35" x="95.410156"/>
       <use xlink:href="#DejaVuSans-30" x="159.033203"/>
      </g>
     </g>
    </g>
    <g id="xtick_8">
     <g id="line2d_8">
      <g>
       <use xlink:href="#m8e67200ae1" x="357.905455" y="307.584" style="stroke: #000000; stroke-width: 0.8"/>
      </g>
     </g>
     <g id="text_8">
      <!-- 0.75 -->
      <g transform="translate(346.772642 322.182437)scale(0.1 -0.1)">
       <use xlink:href="#DejaVuSans-30"/>
       <use xlink:href="#DejaVuSans-2e" x="63.623047"/>
       <use xlink:href="#DejaVuSans-37" x="95.410156"/>
       <use xlink:href="#DejaVuSans-35" x="159.033203"/>
      </g>
     </g>
    </g>
    <g id="xtick_9">
     <g id="line2d_9">
      <g>
       <use xlink:href="#m8e67200ae1" x="398.487273" y="307.584" style="stroke: #000000; stroke-width: 0.8"/>
      </g>
     </g>
     <g id="text_9">
      <!-- 1.00 -->
      <g transform="translate(387.35446 322.182437)scale(0.1 -0.1)">
       <use xlink:href="#DejaVuSans-31"/>
       <use xlink:href="#DejaVuSans-2e" x="63.623047"/>
       <use xlink:href="#DejaVuSans-30" x="95.410156"/>
       <use xlink:href="#DejaVuSans-30" x="159.033203"/>
      </g>
     </g>
    </g>
    <g id="text_10">
     <!-- x -->
     <g transform="translate(233.200625 335.860562)scale(0.1 -0.1)">
      <defs>
       <path id="DejaVuSans-78" d="M 3513 3500 
L 2247 1797 
L 3578 0 
L 2900 0 
L 1881 1375 
L 863 0 
L 184 0 
L 1544 1831 
L 300 3500 
L 978 3500 
L 1906 2253 
L 2834 3500 
L 3513 3500 
z
" transform="scale(0.015625)"/>
      </defs>
      <use xlink:href="#DejaVuSans-78"/>
     </g>
    </g>
   </g>
   <g id="matplotlib.axis_2">
    <g id="ytick_1">
     <g id="line2d_10">
      <defs>
       <path id="m733153288a" d="M 0 0 
L -3.5 0 
" style="stroke: #000000; stroke-width: 0.8"/>
      </defs>
      <g>
       <use xlink:href="#m733153288a" x="57.6" y="283.840704" style="stroke: #000000; stroke-width: 0.8"/>
      </g>
     </g>
     <g id="text_11">
      <!-- 2.0 -->
      <g transform="translate(34.696875 287.639922)scale(0.1 -0.1)">
       <use xlink:href="#DejaVuSans-32"/>
       <use xlink:href="#DejaVuSans-2e" x="63.623047"/>
       <use xlink:href="#DejaVuSans-30" x="95.410156"/>
      </g>
     </g>
    </g>
    <g id="ytick_2">
     <g id="line2d_11">
      <g>
       <use xlink:href="#m733153288a" x="57.6" y="237.786163" style="stroke: #000000; stroke-width: 0.8"/>
      </g>
     </g>
     <g id="text_12">
      <!-- 2.2 -->
      <g transform="translate(34.696875 241.585382)scale(0.1 -0.1)">
       <use xlink:href="#DejaVuSans-32"/>
       <use xlink:href="#DejaVuSans-2e" x="63.623047"/>
       <use xlink:href="#DejaVuSans-32" x="95.410156"/>
      </g>
     </g>
    </g>
    <g id="ytick_3">
     <g id="line2d_12">
      <g>
       <use xlink:href="#m733153288a" x="57.6" y="191.731622" style="stroke: #000000; stroke-width: 0.8"/>
      </g>
     </g>
     <g id="text_13">
      <!-- 2.4 -->
      <g transform="translate(34.696875 195.530841)scale(0.1 -0.1)">
       <defs>
        <path id="DejaVuSans-34" d="M 2419 4116 
L 825 1625 
L 2419 1625 
L 2419 4116 
z
M 2253 4666 
L 3047 4666 
L 3047 1625 
L 3713 1625 
L 3713 1100 
L 3047 1100 
L 3047 0 
L 2419 0 
L 2419 1100 
L 313 1100 
L 313 1709 
L 2253 4666 
z
" transform="scale(0.015625)"/>
       </defs>
       <use xlink:href="#DejaVuSans-32"/>
       <use xlink:href="#DejaVuSans-2e" x="63.623047"/>
       <use xlink:href="#DejaVuSans-34" x="95.410156"/>
      </g>
     </g>
    </g>
    <g id="ytick_4">
     <g id="line2d_13">
      <g>
       <use xlink:href="#m733153288a" x="57.6" y="145.677081" style="stroke: #000000; stroke-width: 0.8"/>
      </g>
     </g>
     <g id="text_14">
      <!-- 2.6 -->
      <g transform="translate(34.696875 149.4763)scale(0.1 -0.1)">
       <defs>
        <path id="DejaVuSans-36" d="M 2113 2584 
Q 1688 2584 1439 2293 
Q 1191 2003 1191 1497 
Q 1191 994 1439 701 
Q 1688 409 2113 409 
Q 2538 409 2786 701 
Q 3034 994 3034 1497 
Q 3034 2003 2786 2293 
Q 2538 2584 2113 2584 
z
M 3366 4563 
L 3366 3988 
Q 3128 4100 2886 4159 
Q 2644 4219 2406 4219 
Q 1781 4219 1451 3797 
Q 1122 3375 1075 2522 
Q 1259 2794 1537 2939 
Q 1816 3084 2150 3084 
Q 2853 3084 3261 2657 
Q 3669 2231 3669 1497 
Q 3669 778 3244 343 
Q 2819 -91 2113 -91 
Q 1303 -91 875 529 
Q 447 1150 447 2328 
Q 447 3434 972 4092 
Q 1497 4750 2381 4750 
Q 2619 4750 2861 4703 
Q 3103 4656 3366 4563 
z
" transform="scale(0.015625)"/>
       </defs>
       <use xlink:href="#DejaVuSans-32"/>
       <use xlink:href="#DejaVuSans-2e" x="63.623047"/>
       <use xlink:href="#DejaVuSans-36" x="95.410156"/>
      </g>
     </g>
    </g>
    <g id="ytick_5">
     <g id="line2d_14">
      <g>
       <use xlink:href="#m733153288a" x="57.6" y="99.622541" style="stroke: #000000; stroke-width: 0.8"/>
      </g>
     </g>
     <g id="text_15">
      <!-- 2.8 -->
      <g transform="translate(34.696875 103.421759)scale(0.1 -0.1)">
       <defs>
        <path id="DejaVuSans-38" d="M 2034 2216 
Q 1584 2216 1326 1975 
Q 1069 1734 1069 1313 
Q 1069 891 1326 650 
Q 1584 409 2034 409 
Q 2484 409 2743 651 
Q 3003 894 3003 1313 
Q 3003 1734 2745 1975 
Q 2488 2216 2034 2216 
z
M 1403 2484 
Q 997 2584 770 2862 
Q 544 3141 544 3541 
Q 544 4100 942 4425 
Q 1341 4750 2034 4750 
Q 2731 4750 3128 4425 
Q 3525 4100 3525 3541 
Q 3525 3141 3298 2862 
Q 3072 2584 2669 2484 
Q 3125 2378 3379 2068 
Q 3634 1759 3634 1313 
Q 3634 634 3220 271 
Q 2806 -91 2034 -91 
Q 1263 -91 848 271 
Q 434 634 434 1313 
Q 434 1759 690 2068 
Q 947 2378 1403 2484 
z
M 1172 3481 
Q 1172 3119 1398 2916 
Q 1625 2713 2034 2713 
Q 2441 2713 2670 2916 
Q 2900 3119 2900 3481 
Q 2900 3844 2670 4047 
Q 2441 4250 2034 4250 
Q 1625 4250 1398 4047 
Q 1172 3844 1172 3481 
z
" transform="scale(0.015625)"/>
       </defs>
       <use xlink:href="#DejaVuSans-32"/>
       <use xlink:href="#DejaVuSans-2e" x="63.623047"/>
       <use xlink:href="#DejaVuSans-38" x="95.410156"/>
      </g>
     </g>
    </g>
    <g id="ytick_6">
     <g id="line2d_15">
      <g>
       <use xlink:href="#m733153288a" x="57.6" y="53.568" style="stroke: #000000; stroke-width: 0.8"/>
      </g>
     </g>
     <g id="text_16">
      <!-- 3.0 -->
      <g transform="translate(34.696875 57.367219)scale(0.1 -0.1)">
       <defs>
        <path id="DejaVuSans-33" d="M 2597 2516 
Q 3050 2419 3304 2112 
Q 3559 1806 3559 1356 
Q 3559 666 3084 287 
Q 2609 -91 1734 -91 
Q 1441 -91 1130 -33 
Q 819 25 488 141 
L 488 750 
Q 750 597 1062 519 
Q 1375 441 1716 441 
Q 2309 441 2620 675 
Q 2931 909 2931 1356 
Q 2931 1769 2642 2001 
Q 2353 2234 1838 2234 
L 1294 2234 
L 1294 2753 
L 1863 2753 
Q 2328 2753 2575 2939 
Q 2822 3125 2822 3475 
Q 2822 3834 2567 4026 
Q 2313 4219 1838 4219 
Q 1578 4219 1281 4162 
Q 984 4106 628 3988 
L 628 4550 
Q 988 4650 1302 4700 
Q 1616 4750 1894 4750 
Q 2613 4750 3031 4423 
Q 3450 4097 3450 3541 
Q 3450 3153 3228 2886 
Q 3006 2619 2597 2516 
z
" transform="scale(0.015625)"/>
       </defs>
       <use xlink:href="#DejaVuSans-33"/>
       <use xlink:href="#DejaVuSans-2e" x="63.623047"/>
       <use xlink:href="#DejaVuSans-30" x="95.410156"/>
      </g>
     </g>
    </g>
    <g id="text_17">
     <!-- $f_i$ -->
     <g transform="translate(28.617188 177.428)rotate(-90)scale(0.1 -0.1)">
      <defs>
       <path id="DejaVuSans-Oblique-66" d="M 3059 4863 
L 2969 4384 
L 2419 4384 
Q 2106 4384 1964 4261 
Q 1822 4138 1753 3809 
L 1691 3500 
L 2638 3500 
L 2553 3053 
L 1606 3053 
L 1013 0 
L 434 0 
L 1031 3053 
L 481 3053 
L 563 3500 
L 1113 3500 
L 1159 3744 
Q 1278 4363 1576 4613 
Q 1875 4863 2516 4863 
L 3059 4863 
z
" transform="scale(0.015625)"/>
       <path id="DejaVuSans-Oblique-69" d="M 1172 4863 
L 1747 4863 
L 1606 4134 
L 1031 4134 
L 1172 4863 
z
M 909 3500 
L 1484 3500 
L 800 0 
L 225 0 
L 909 3500 
z
" transform="scale(0.015625)"/>
      </defs>
      <use xlink:href="#DejaVuSans-Oblique-66" transform="translate(0 0.015625)"/>
      <use xlink:href="#DejaVuSans-Oblique-69" transform="translate(35.205078 -16.390625)scale(0.7)"/>
     </g>
    </g>
   </g>
   <g id="line2d_16">
    <path d="M 73.832727 283.840704 
L 106.0057 283.840704 
L 106.655659 283.681875 
L 107.630598 283.46316 
L 108.605536 282.991173 
L 109.255495 282.425724 
L 109.905455 281.540678 
L 110.555414 280.192107 
L 111.205373 278.192241 
L 111.855332 275.306839 
L 112.505291 271.258045 
L 113.15525 265.735216 
L 113.805209 258.415805 
L 114.455168 248.99739 
L 115.430106 230.438912 
L 116.405045 206.364655 
L 117.704963 167.001416 
L 119.97982 94.20973 
L 120.954758 70.860841 
L 121.604717 60.626396 
L 121.929697 57.406013 
L 122.254676 55.535036 
L 122.579656 55.04745 
L 122.904636 55.95214 
L 123.229615 58.232628 
L 123.554595 61.847569 
L 124.204554 72.799268 
L 124.854513 88.043222 
L 125.829451 116.688491 
L 128.754267 209.010244 
L 129.729206 232.544608 
L 130.704144 250.554409 
L 131.679083 263.394069 
L 132.329042 269.509254 
L 132.979001 274.037465 
L 133.62896 277.296449 
L 134.278919 279.577246 
L 134.928878 281.130046 
L 135.578837 282.15881 
L 136.228796 282.822268 
L 136.878755 283.238866 
L 137.853694 283.579522 
L 139.478591 283.840704 
L 171.001605 283.840704 
L 171.326585 53.568 
L 203.499558 53.568 
L 203.824537 283.840704 
L 235.99751 283.840704 
L 236.32249 281.535672 
L 252.246486 55.642529 
L 252.571466 56.103535 
L 268.495463 281.996678 
L 268.820442 283.840704 
L 300.993415 283.840704 
L 301.318395 244.719294 
L 302.293333 198.971072 
L 302.943292 178.037327 
L 303.918231 154.532007 
L 304.89317 136.113044 
L 306.193088 116.476119 
L 307.493006 100.7889 
L 308.792924 88.085991 
L 310.092842 77.809389 
L 311.39276 69.607193 
L 312.367699 64.673712 
L 313.342637 60.705677 
L 314.317576 57.652059 
L 315.292514 55.476033 
L 315.942473 54.500102 
L 316.592432 53.898037 
L 317.242391 53.666895 
L 317.892351 53.805552 
L 318.54231 54.314683 
L 319.192269 55.196769 
L 319.842228 56.456167 
L 320.492187 58.099213 
L 321.467125 61.302329 
L 322.442064 65.427298 
L 323.417002 70.527836 
L 324.391941 76.676358 
L 325.36688 83.970139 
L 326.666798 95.711557 
L 327.966716 110.195054 
L 328.941654 123.304109 
L 329.916593 138.923775 
L 330.891532 158.021548 
L 331.86647 182.717425 
L 332.516429 205.562854 
L 333.491368 257.675211 
L 333.816347 283.840704 
L 398.487273 283.840704 
L 398.487273 283.840704 
" clip-path="url(#pf20f456bc4)" style="fill: none; stroke: #0000ff; stroke-width: 1.5; stroke-linecap: square"/>
   </g>
   <g id="line2d_17">
    <path d="M 73.840844 278.871405 
L 74.18702 279.013969 
L 74.533197 279.170848 
L 74.879374 279.341767 
L 75.225551 279.52643 
L 75.571728 279.724518 
L 75.917904 279.935691 
L 76.264081 280.159586 
L 76.610258 280.395821 
L 76.956435 280.643989 
L 77.302611 280.903664 
L 77.648788 281.174397 
L 77.994965 281.455716 
L 78.341142 281.747131 
L 78.687319 282.048126 
L 79.033495 282.358167 
L 79.379672 282.676694 
L 79.725849 283.00313 
L 80.072026 283.336873 
L 80.418203 283.6773 
L 80.764379 284.023766 
L 81.110556 284.375607 
L 81.456733 284.732133 
L 81.80291 285.092635 
L 82.149086 285.456382 
" clip-path="url(#pf20f456bc4)" style="fill: none; stroke: #008000; stroke-width: 1.5; stroke-linecap: square"/>
   </g>
   <g id="line2d_18">
    <path d="M 82.165319 285.353922 
L 82.511496 285.723201 
L 82.857673 286.095522 
L 83.20385 286.470034 
L 83.550026 286.845856 
L 83.896203 287.22208 
L 84.24238 287.597771 
L 84.588557 287.971964 
L 84.934733 288.343668 
L 85.28091 288.711866 
L 85.627087 289.075511 
L 85.973264 289.433527 
L 86.319441 289.784815 
L 86.665617 290.128243 
L 87.011794 290.462654 
L 87.357971 290.786865 
L 87.704148 291.099661 
L 88.050324 291.399803 
L 88.396501 291.686022 
L 88.742678 291.957023 
L 89.088855 292.211483 
L 89.435032 292.44805 
L 89.781208 292.665345 
L 90.127385 292.861962 
L 90.473562 293.036466 
" clip-path="url(#pf20f456bc4)" style="fill: none; stroke: #008000; stroke-width: 1.5; stroke-linecap: square"/>
   </g>
   <g id="line2d_19">
    <path d="M 90.489795 294.271089 
L 90.835971 294.412552 
L 91.182148 294.513033 
L 91.528325 294.571181 
L 91.874502 294.585727 
L 92.220679 294.555485 
L 92.566855 294.479352 
L 92.913032 294.356305 
L 93.259209 294.185407 
L 93.605386 293.965801 
L 93.951563 293.696712 
L 94.297739 293.377448 
L 94.643916 293.007401 
L 94.990093 292.586042 
L 95.33627 292.112929 
L 95.682446 291.587697 
L 96.028623 291.010068 
L 96.3748 290.379844 
L 96.720977 289.696909 
L 97.067154 288.961232 
L 97.41333 288.172862 
L 97.759507 287.33193 
L 98.105684 286.438652 
L 98.451861 285.493325 
L 98.798037 284.496327 
" clip-path="url(#pf20f456bc4)" style="fill: none; stroke: #008000; stroke-width: 1.5; stroke-linecap: square"/>
   </g>
   <g id="line2d_20">
    <path d="M 98.81427 284.350553 
L 99.160447 283.300621 
L 99.506624 282.201315 
L 99.852801 281.053251 
L 100.198977 279.85712 
L 100.545154 278.613686 
L 100.891331 277.323787 
L 101.237508 275.988334 
L 101.583684 274.608313 
L 101.929861 273.184781 
L 102.276038 271.718872 
L 102.622215 270.211791 
L 102.968392 268.664818 
L 103.314568 267.079305 
L 103.660745 265.45668 
L 104.006922 263.798443 
L 104.353099 262.106168 
L 104.699276 260.381502 
L 105.045452 258.626167 
L 105.391629 256.841957 
L 105.737806 255.030741 
L 106.083983 253.194461 
L 106.430159 251.335133 
L 106.776336 249.454846 
L 107.122513 247.555762 
" clip-path="url(#pf20f456bc4)" style="fill: none; stroke: #008000; stroke-width: 1.5; stroke-linecap: square"/>
   </g>
   <g id="line2d_21">
    <path d="M 107.138746 246.514766 
L 107.484923 244.604859 
L 107.831099 242.693102 
L 108.177276 240.781753 
L 108.523453 238.873056 
L 108.86963 236.969246 
L 109.215806 235.072544 
L 109.561983 233.185161 
L 109.90816 231.309295 
L 110.254337 229.447133 
L 110.600514 227.600849 
L 110.94669 225.772607 
L 111.292867 223.964559 
L 111.639044 222.178843 
L 111.985221 220.417587 
L 112.331397 218.682909 
L 112.677574 216.976912 
L 113.023751 215.301689 
L 113.369928 213.659321 
L 113.716105 212.051877 
L 114.062281 210.481414 
L 114.408458 208.949978 
L 114.754635 207.459604 
L 115.100812 206.012312 
L 115.446989 204.610114 
" clip-path="url(#pf20f456bc4)" style="fill: none; stroke: #008000; stroke-width: 1.5; stroke-linecap: square"/>
   </g>
   <g id="line2d_22">
    <path d="M 115.463221 203.402637 
L 115.809398 202.057543 
L 116.155575 200.776381 
L 116.501752 199.56097 
L 116.847928 198.413015 
L 117.194105 197.334105 
L 117.540282 196.325715 
L 117.886459 195.389207 
L 118.232636 194.525827 
L 118.578812 193.736709 
L 118.924989 193.022871 
L 119.271166 192.385216 
L 119.617343 191.824535 
L 119.963519 191.341503 
L 120.309696 190.936681 
L 120.655873 190.610517 
L 121.00205 190.363342 
L 121.348227 190.195375 
L 121.694403 190.10672 
L 122.04058 190.097367 
L 122.386757 190.167192 
L 122.732934 190.315955 
L 123.07911 190.543303 
L 123.425287 190.848769 
L 123.771464 191.231772 
" clip-path="url(#pf20f456bc4)" style="fill: none; stroke: #008000; stroke-width: 1.5; stroke-linecap: square"/>
   </g>
   <g id="line2d_23">
    <path d="M 123.787697 191.661192 
L 124.133874 192.121841 
L 124.48005 192.653188 
L 124.826227 193.254361 
L 125.172404 193.924408 
L 125.518581 194.662301 
L 125.864757 195.466931 
L 126.210934 196.337116 
L 126.557111 197.271593 
L 126.903288 198.269024 
L 127.249465 199.327992 
L 127.595641 200.447002 
L 127.941818 201.624483 
L 128.287995 202.858785 
L 128.634172 204.148182 
L 128.980349 205.490868 
L 129.326525 206.884962 
L 129.672702 208.328505 
L 130.018879 209.819459 
L 130.365056 211.35571 
L 130.711232 212.935065 
L 131.057409 214.555256 
L 131.403586 216.213934 
L 131.749763 217.908674 
L 132.09594 219.636975 
" clip-path="url(#pf20f456bc4)" style="fill: none; stroke: #008000; stroke-width: 1.5; stroke-linecap: square"/>
   </g>
   <g id="line2d_24">
    <path d="M 132.112172 221.210785 
L 132.458349 222.961332 
L 132.804526 224.720805 
L 133.150703 226.486671 
L 133.496879 228.25645 
L 133.843056 230.02772 
L 134.189233 231.798117 
L 134.53541 233.56533 
L 134.881587 235.327107 
L 135.227763 237.08125 
L 135.57394 238.82562 
L 135.920117 240.558132 
L 136.266294 242.276758 
L 136.61247 243.979527 
L 136.958647 245.664523 
L 137.304824 247.329889 
L 137.651001 248.973821 
L 137.997178 250.594572 
L 138.343354 252.190454 
L 138.689531 253.759833 
L 139.035708 255.301131 
L 139.381885 256.812827 
L 139.728062 258.293458 
L 140.074238 259.741613 
L 140.420415 261.155942 
" clip-path="url(#pf20f456bc4)" style="fill: none; stroke: #008000; stroke-width: 1.5; stroke-linecap: square"/>
   </g>
   <g id="line2d_25">
    <path d="M 140.436648 261.719579 
L 140.782825 263.093728 
L 141.129001 264.425025 
L 141.475178 265.712356 
L 141.821355 266.954712 
L 142.167532 268.151182 
L 142.513709 269.300955 
L 142.859885 270.403325 
L 143.206062 271.457684 
L 143.552239 272.463525 
L 143.898416 273.420444 
L 144.244592 274.328136 
L 144.590769 275.186398 
L 144.936946 275.995128 
L 145.283123 276.754325 
L 145.6293 277.464089 
L 145.975476 278.124619 
L 146.321653 278.73622 
L 146.66783 279.299292 
L 147.014007 279.814341 
L 147.360183 280.28197 
L 147.70636 280.702887 
L 148.052537 281.077897 
L 148.398714 281.40791 
L 148.744891 281.693933 
" clip-path="url(#pf20f456bc4)" style="fill: none; stroke: #008000; stroke-width: 1.5; stroke-linecap: square"/>
   </g>
   <g id="line2d_26">
    <path d="M 148.761123 281.691442 
L 149.1073 281.691442 
L 149.453477 281.691442 
L 149.799654 281.691442 
L 150.14583 281.691442 
L 150.492007 281.691442 
L 150.838184 281.691442 
L 151.184361 281.691442 
L 151.530538 281.691442 
L 151.876714 281.691442 
L 152.222891 281.691442 
L 152.569068 281.691442 
L 152.915245 281.691442 
L 153.261422 281.691442 
L 153.607598 281.691442 
L 153.953775 281.691442 
L 154.299952 281.691442 
L 154.646129 281.691442 
L 154.992305 281.691442 
L 155.338482 281.691442 
L 155.684659 281.691442 
L 156.030836 281.691442 
L 156.377013 281.691442 
L 156.723189 281.691442 
L 157.069366 281.691442 
" clip-path="url(#pf20f456bc4)" style="fill: none; stroke: #008000; stroke-width: 1.5; stroke-linecap: square"/>
   </g>
   <g id="line2d_27">
    <path d="M 157.085599 281.690322 
L 157.431776 281.64258 
L 157.777952 281.594838 
L 158.124129 281.547096 
L 158.470306 281.499354 
L 158.816483 281.451611 
L 159.16266 281.403869 
L 159.508836 281.356127 
L 159.855013 281.308385 
L 160.20119 281.260642 
L 160.547367 281.2129 
L 160.893543 281.165158 
L 161.23972 281.117416 
L 161.585897 281.069673 
L 161.932074 281.021931 
L 162.278251 280.974189 
L 162.624427 280.926447 
L 162.970604 280.878704 
L 163.316781 280.830962 
L 163.662958 280.78322 
L 164.009135 280.735478 
L 164.355311 280.687736 
L 164.701488 280.639993 
L 165.047665 280.592251 
L 165.393842 280.544509 
" clip-path="url(#pf20f456bc4)" style="fill: none; stroke: #008000; stroke-width: 1.5; stroke-linecap: square"/>
   </g>
   <g id="line2d_28">
    <path d="M 165.410074 280.543093 
L 167.880093 280.431489 
L 168.362453 280.187224 
L 168.686799 279.76848 
L 168.977878 278.989492 
L 169.252325 277.558489 
L 169.526771 274.844041 
L 169.809534 269.57715 
L 170.100614 259.534973 
L 170.416643 240.049579 
L 170.807521 200.050663 
L 171.813825 89.977984 
L 172.196387 73.309239 
L 172.553999 66.135395 
L 172.903294 62.993261 
L 173.25259 61.607012 
L 173.618518 60.984531 
L 173.718317 60.890029 
L 173.718317 60.890029 
" clip-path="url(#pf20f456bc4)" style="fill: none; stroke: #008000; stroke-width: 1.5; stroke-linecap: square"/>
   </g>
   <g id="line2d_29">
    <path d="M 173.73455 60.540554 
L 174.080727 60.540554 
L 174.426903 60.540554 
L 174.77308 60.540554 
L 175.119257 60.540554 
L 175.465434 60.540554 
L 175.811611 60.540554 
L 176.157787 60.540554 
L 176.503964 60.540554 
L 176.850141 60.540554 
L 177.196318 60.540554 
L 177.542495 60.540554 
L 177.888671 60.540554 
L 178.234848 60.540554 
L 178.581025 60.540554 
L 178.927202 60.540554 
L 179.273378 60.540554 
L 179.619555 60.540554 
L 179.965732 60.540554 
L 180.311909 60.540554 
L 180.658086 60.540554 
L 181.004262 60.540554 
L 181.350439 60.540554 
L 181.696616 60.540554 
L 182.042793 60.540554 
" clip-path="url(#pf20f456bc4)" style="fill: none; stroke: #008000; stroke-width: 1.5; stroke-linecap: square"/>
   </g>
   <g id="line2d_30">
    <path d="M 182.059025 60.540581 
L 182.405202 60.541756 
L 182.751379 60.542931 
L 183.097556 60.544106 
L 183.443733 60.545281 
L 183.789909 60.546456 
L 184.136086 60.547631 
L 184.482263 60.548806 
L 184.82844 60.549981 
L 185.174617 60.551156 
L 185.520793 60.552331 
L 185.86697 60.553506 
L 186.213147 60.55468 
L 186.559324 60.555855 
L 186.9055 60.55703 
L 187.251677 60.558205 
L 187.597854 60.55938 
L 187.944031 60.560555 
L 188.290208 60.56173 
L 188.636384 60.562905 
L 188.982561 60.56408 
L 189.328738 60.565255 
L 189.674915 60.56643 
L 190.021091 60.567605 
L 190.367268 60.56878 
" clip-path="url(#pf20f456bc4)" style="fill: none; stroke: #008000; stroke-width: 1.5; stroke-linecap: square"/>
   </g>
   <g id="line2d_31">
    <path d="M 190.383501 60.55871 
L 190.729678 60.730573 
L 191.075855 60.902436 
L 191.422031 61.074299 
L 191.768208 61.246162 
L 192.114385 61.418025 
L 192.460562 61.589888 
L 192.806738 61.761751 
L 193.152915 61.933614 
L 193.499092 62.105477 
L 193.845269 62.27734 
L 194.191446 62.449203 
L 194.537622 62.621066 
L 194.883799 62.792929 
L 195.229976 62.964792 
L 195.576153 63.136655 
L 195.92233 63.308518 
L 196.268506 63.480381 
L 196.614683 63.652244 
L 196.96086 63.824107 
L 197.307037 63.99597 
L 197.653213 64.167833 
L 197.99939 64.339696 
L 198.345567 64.511559 
L 198.691744 64.683423 
" clip-path="url(#pf20f456bc4)" style="fill: none; stroke: #008000; stroke-width: 1.5; stroke-linecap: square"/>
   </g>
   <g id="line2d_32">
    <path d="M 198.707977 64.692755 
L 200.046943 64.819688 
L 200.496037 65.075927 
L 200.820383 65.532261 
L 201.103146 66.346846 
L 201.377592 67.870427 
L 201.660355 70.8669 
L 201.943118 76.508287 
L 202.242514 87.48314 
L 202.575177 108.969336 
L 203.032587 155.713587 
L 203.739495 224.664607 
L 204.13869 243.359063 
L 204.504618 251.283642 
L 204.86223 254.732663 
L 205.211526 256.209684 
L 205.569138 256.864711 
L 205.976649 257.166645 
L 206.575442 257.305533 
L 207.016219 257.333776 
L 207.016219 257.333776 
" clip-path="url(#pf20f456bc4)" style="fill: none; stroke: #008000; stroke-width: 1.5; stroke-linecap: square"/>
   </g>
   <g id="line2d_33">
    <path d="M 207.032452 257.348775 
L 207.378629 257.348775 
L 207.724806 257.348775 
L 208.070982 257.348775 
L 208.417159 257.348775 
L 208.763336 257.348775 
L 209.109513 257.348775 
L 209.45569 257.348775 
L 209.801866 257.348775 
L 210.148043 257.348775 
L 210.49422 257.348775 
L 210.840397 257.348775 
L 211.186573 257.348775 
L 211.53275 257.348775 
L 211.878927 257.348775 
L 212.225104 257.348775 
L 212.571281 257.348775 
L 212.917457 257.348775 
L 213.263634 257.348775 
L 213.609811 257.348775 
L 213.955988 257.348775 
L 214.302164 257.348775 
L 214.648341 257.348775 
L 214.994518 257.348775 
L 215.340695 257.348775 
" clip-path="url(#pf20f456bc4)" style="fill: none; stroke: #008000; stroke-width: 1.5; stroke-linecap: square"/>
   </g>
   <g id="line2d_34">
    <path d="M 215.356928 257.347567 
L 215.703104 257.296035 
L 216.049281 257.244502 
L 216.395458 257.19297 
L 216.741635 257.141438 
L 217.087811 257.089906 
L 217.433988 257.038374 
L 217.780165 256.986841 
L 218.126342 256.935309 
L 218.472519 256.883777 
L 218.818695 256.832245 
L 219.164872 256.780713 
L 219.511049 256.729181 
L 219.857226 256.677648 
L 220.203403 256.626116 
L 220.549579 256.574584 
L 220.895756 256.523052 
L 221.241933 256.47152 
L 221.58811 256.419988 
L 221.934286 256.368455 
L 222.280463 256.316923 
L 222.62664 256.265391 
L 222.972817 256.213859 
L 223.318994 256.162327 
L 223.66517 256.110795 
" clip-path="url(#pf20f456bc4)" style="fill: none; stroke: #008000; stroke-width: 1.5; stroke-linecap: square"/>
   </g>
   <g id="line2d_35">
    <path d="M 223.681403 254.886609 
L 224.02758 254.583134 
L 224.373757 254.259327 
L 224.719933 253.914996 
L 225.06611 253.549985 
L 225.412287 253.164175 
L 225.758464 252.757488 
L 226.104641 252.329881 
L 226.450817 251.881351 
L 226.796994 251.41193 
L 227.143171 250.92169 
L 227.489348 250.410741 
L 227.835524 249.879229 
L 228.181701 249.327339 
L 228.527878 248.755295 
L 228.874055 248.163356 
L 229.220232 247.551822 
L 229.566408 246.921028 
L 229.912585 246.271348 
L 230.258762 245.603195 
L 230.604939 244.917017 
L 230.951116 244.213303 
L 231.297292 243.492578 
L 231.643469 242.755405 
L 231.989646 242.002385 
" clip-path="url(#pf20f456bc4)" style="fill: none; stroke: #008000; stroke-width: 1.5; stroke-linecap: square"/>
   </g>
   <g id="line2d_36">
    <path d="M 232.005879 240.869355 
L 232.352055 240.118249 
L 232.698232 239.367143 
L 233.044409 238.616037 
L 233.390586 237.86493 
L 233.736763 237.113824 
L 234.082939 236.362718 
L 234.429116 235.611612 
L 234.775293 234.860506 
L 235.12147 234.109399 
L 235.467646 233.358293 
L 235.813823 232.607187 
L 236.16 231.856081 
L 236.506177 231.104975 
L 236.852354 230.353868 
L 237.19853 229.602762 
L 237.544707 228.851656 
L 237.890884 228.10055 
L 238.237061 227.349444 
L 238.583237 226.598338 
L 238.929414 225.847231 
L 239.275591 225.096125 
L 239.621768 224.345019 
L 239.967945 223.593913 
L 240.314121 222.842807 
" clip-path="url(#pf20f456bc4)" style="fill: none; stroke: #008000; stroke-width: 1.5; stroke-linecap: square"/>
   </g>
   <g id="line2d_37">
    <path d="M 240.330354 221.005507 
L 240.676531 220.192815 
L 241.022708 219.398486 
L 241.368884 218.623467 
L 241.715061 217.868654 
L 242.061238 217.134899 
L 242.407415 216.423004 
L 242.753592 215.733724 
L 243.099768 215.067767 
L 243.445945 214.425791 
L 243.792122 213.808408 
L 244.138299 213.216181 
L 244.484476 212.649627 
L 244.830652 212.109213 
L 245.176829 211.595361 
L 245.523006 211.108441 
L 245.869183 210.64878 
L 246.215359 210.216654 
L 246.561536 209.812292 
L 246.907713 209.435875 
L 247.25389 209.087538 
L 247.600067 208.767365 
L 247.946243 208.475395 
L 248.29242 208.211618 
L 248.638597 207.975977 
" clip-path="url(#pf20f456bc4)" style="fill: none; stroke: #008000; stroke-width: 1.5; stroke-linecap: square"/>
   </g>
   <g id="line2d_38">
    <path d="M 248.65483 207.806997 
L 249.001006 207.806997 
L 249.347183 207.806997 
L 249.69336 207.806997 
L 250.039537 207.806997 
L 250.385714 207.806997 
L 250.73189 207.806997 
L 251.078067 207.806997 
L 251.424244 207.806997 
L 251.770421 207.806997 
L 252.116597 207.806997 
L 252.462774 207.806997 
L 252.808951 207.806997 
L 253.155128 207.806997 
L 253.501305 207.806997 
L 253.847481 207.806997 
L 254.193658 207.806997 
L 254.539835 207.806997 
L 254.886012 207.806997 
L 255.232189 207.806997 
L 255.578365 207.806997 
L 255.924542 207.806997 
L 256.270719 207.806997 
L 256.616896 207.806997 
L 256.963072 207.806997 
" clip-path="url(#pf20f456bc4)" style="fill: none; stroke: #008000; stroke-width: 1.5; stroke-linecap: square"/>
   </g>
   <g id="line2d_39">
    <path d="M 256.979305 208.850664 
L 257.325482 209.113339 
L 257.671659 209.395925 
L 258.017836 209.6982 
L 258.364012 210.019922 
L 258.710189 210.360832 
L 259.056366 210.720649 
L 259.402543 211.099073 
L 259.748719 211.495784 
L 260.094896 211.910442 
L 260.441073 212.342688 
L 260.78725 212.792142 
L 261.133427 213.258406 
L 261.479603 213.741061 
L 261.82578 214.239667 
L 262.171957 214.753767 
L 262.518134 215.282883 
L 262.86431 215.826517 
L 263.210487 216.38415 
L 263.556664 216.955246 
L 263.902841 217.539247 
L 264.249018 218.135576 
L 264.595194 218.743637 
L 264.941371 219.362812 
L 265.287548 219.992466 
" clip-path="url(#pf20f456bc4)" style="fill: none; stroke: #008000; stroke-width: 1.5; stroke-linecap: square"/>
   </g>
   <g id="line2d_40">
    <path d="M 265.303781 221.065165 
L 265.649957 221.655163 
L 265.996134 222.245161 
L 266.342311 222.83516 
L 266.688488 223.425158 
L 267.034665 224.015157 
L 267.380841 224.605155 
L 267.727018 225.195154 
L 268.073195 225.785152 
L 268.419372 226.375151 
L 268.765549 226.965149 
L 269.111725 227.555148 
L 269.457902 228.145146 
L 269.804079 228.735144 
L 270.150256 229.325143 
L 270.496432 229.915141 
L 270.842609 230.50514 
L 271.188786 231.095138 
L 271.534963 231.685137 
L 271.88114 232.275135 
L 272.227316 232.865134 
L 272.573493 233.455132 
L 272.91967 234.045131 
L 273.265847 234.635129 
L 273.612023 235.225127 
" clip-path="url(#pf20f456bc4)" style="fill: none; stroke: #008000; stroke-width: 1.5; stroke-linecap: square"/>
   </g>
   <g id="line2d_41">
    <path d="M 273.628256 236.550838 
L 273.974433 237.167273 
L 274.32061 237.767123 
L 274.666787 238.349427 
L 275.012963 238.913245 
L 275.35914 239.457654 
L 275.705317 239.981752 
L 276.051494 240.484652 
L 276.39767 240.965486 
L 276.743847 241.423407 
L 277.090024 241.857584 
L 277.436201 242.267204 
L 277.782378 242.651474 
L 278.128554 243.009619 
L 278.474731 243.340881 
L 278.820908 243.644523 
L 279.167085 243.919823 
L 279.513262 244.16608 
L 279.859438 244.38261 
L 280.205615 244.568748 
L 280.551792 244.723848 
L 280.897969 244.847281 
L 281.244145 244.938437 
L 281.590322 244.996725 
L 281.936499 245.02157 
" clip-path="url(#pf20f456bc4)" style="fill: none; stroke: #008000; stroke-width: 1.5; stroke-linecap: square"/>
   </g>
   <g id="line2d_42">
    <path d="M 281.952732 245.426667 
L 282.298909 245.413162 
L 282.645085 245.359872 
L 282.991262 245.266333 
L 283.337439 245.132139 
L 283.683616 244.956938 
L 284.029792 244.740431 
L 284.375969 244.482375 
L 284.722146 244.182582 
L 285.068323 243.840917 
L 285.4145 243.457302 
L 285.760676 243.031712 
L 286.106853 242.564177 
L 286.45303 242.054782 
L 286.799207 241.503667 
L 287.145383 240.911025 
L 287.49156 240.277107 
L 287.837737 239.602215 
L 288.183914 238.886707 
L 288.530091 238.130998 
L 288.876267 237.335553 
L 289.222444 236.500897 
L 289.568621 235.627605 
L 289.914798 234.716309 
L 290.260975 233.767697 
" clip-path="url(#pf20f456bc4)" style="fill: none; stroke: #008000; stroke-width: 1.5; stroke-linecap: square"/>
   </g>
   <g id="line2d_43">
    <path d="M 290.277207 233.183482 
L 290.623384 232.200253 
L 290.969561 231.188243 
L 291.315738 230.148229 
L 291.661914 229.080998 
L 292.008091 227.987342 
L 292.354268 226.86806 
L 292.700445 225.723956 
L 293.046622 224.555841 
L 293.392798 223.364532 
L 293.738975 222.150854 
L 294.085152 220.915636 
L 294.431329 219.659716 
L 294.777505 218.383935 
L 295.123682 217.089143 
L 295.469859 215.776195 
L 295.816036 214.445954 
L 296.162213 213.099287 
L 296.508389 211.737069 
L 296.854566 210.36018 
L 297.200743 208.969509 
L 297.54692 207.565948 
L 297.893097 206.150397 
L 298.239273 204.723763 
L 298.58545 203.286958 
" clip-path="url(#pf20f456bc4)" style="fill: none; stroke: #008000; stroke-width: 1.5; stroke-linecap: square"/>
   </g>
   <g id="line2d_44">
    <path d="M 298.601683 201.948174 
L 298.94786 200.584167 
L 299.294036 199.22016 
L 299.640213 197.856154 
L 299.98639 196.492147 
L 300.332567 195.128141 
L 300.678743 193.764134 
L 301.02492 192.400127 
L 301.371097 191.036121 
L 301.717274 189.672114 
L 302.063451 188.308107 
L 302.409627 186.944101 
L 302.755804 185.580094 
L 303.101981 184.216088 
L 303.448158 182.852081 
L 303.794335 181.488074 
L 304.140511 180.124068 
L 304.486688 178.760061 
L 304.832865 177.396054 
L 305.179042 176.032048 
L 305.525218 174.668041 
L 305.871395 173.304035 
L 306.217572 171.940028 
L 306.563749 170.576021 
L 306.909926 169.212015 
" clip-path="url(#pf20f456bc4)" style="fill: none; stroke: #008000; stroke-width: 1.5; stroke-linecap: square"/>
   </g>
   <g id="line2d_45">
    <path d="M 306.926158 167.519109 
L 307.272335 166.137558 
L 307.618512 164.779048 
L 307.964689 163.444841 
L 308.310865 162.136176 
L 308.657042 160.854268 
L 309.003219 159.600308 
L 309.349396 158.375466 
L 309.695573 157.180887 
L 310.041749 156.017693 
L 310.387926 154.886984 
L 310.734103 153.789834 
L 311.08028 152.727298 
L 311.426457 151.700404 
L 311.772633 150.710159 
L 312.11881 149.757544 
L 312.464987 148.843521 
L 312.811164 147.969025 
L 313.15734 147.13497 
L 313.503517 146.342246 
L 313.849694 145.591719 
L 314.195871 144.884232 
L 314.542048 144.220608 
L 314.888224 143.601641 
L 315.234401 143.028107 
" clip-path="url(#pf20f456bc4)" style="fill: none; stroke: #008000; stroke-width: 1.5; stroke-linecap: square"/>
   </g>
   <g id="line2d_46">
    <path d="M 315.250634 142.583617 
L 315.596811 142.061291 
L 315.942987 141.591315 
L 316.289164 141.174338 
L 316.635341 140.810943 
L 316.981518 140.501655 
L 317.327695 140.246937 
L 317.673871 140.047192 
L 318.020048 139.902762 
L 318.366225 139.813927 
L 318.712402 139.780909 
L 319.058578 139.803865 
L 319.404755 139.882896 
L 319.750932 140.018039 
L 320.097109 140.20927 
L 320.443286 140.456507 
L 320.789462 140.759604 
L 321.135639 141.118357 
L 321.481816 141.532498 
L 321.827993 142.001701 
L 322.17417 142.525579 
L 322.520346 143.103682 
L 322.866523 143.735502 
L 323.2127 144.420468 
L 323.558877 145.157949 
" clip-path="url(#pf20f456bc4)" style="fill: none; stroke: #008000; stroke-width: 1.5; stroke-linecap: square"/>
   </g>
   <g id="line2d_47">
    <path d="M 323.575109 145.844974 
L 323.921286 146.632273 
L 324.267463 147.462195 
L 324.61364 148.334014 
L 324.959817 149.247001 
L 325.305993 150.200422 
L 325.65217 151.193545 
L 325.998347 152.225631 
L 326.344524 153.295943 
L 326.6907 154.403738 
L 327.036877 155.548273 
L 327.383054 156.728801 
L 327.729231 157.944574 
L 328.075408 159.194842 
L 328.421584 160.47885 
L 328.767761 161.795842 
L 329.113938 163.145062 
L 329.460115 164.525748 
L 329.806291 165.937137 
L 330.152468 167.378465 
L 330.498645 168.848963 
L 330.844822 170.347862 
L 331.190999 171.874389 
L 331.537175 173.42777 
L 331.883352 175.007227 
" clip-path="url(#pf20f456bc4)" style="fill: none; stroke: #008000; stroke-width: 1.5; stroke-linecap: square"/>
   </g>
   <g id="line2d_48">
    <path d="M 331.899585 175.267359 
L 332.245762 177.009508 
L 332.591938 178.751657 
L 332.938115 180.493806 
L 333.284292 182.235955 
L 333.630469 183.978104 
L 333.976646 185.720253 
L 334.322822 187.462402 
L 334.668999 189.204551 
L 335.015176 190.9467 
L 335.361353 192.688849 
L 335.70753 194.430998 
L 336.053706 196.173147 
L 336.399883 197.915296 
L 336.74606 199.657445 
L 337.092237 201.399594 
L 337.438413 203.141743 
L 337.78459 204.883892 
L 338.130767 206.626041 
L 338.476944 208.36819 
L 338.823121 210.110339 
L 339.169297 211.852488 
L 339.515474 213.594637 
L 339.861651 215.336786 
L 340.207828 217.078935 
" clip-path="url(#pf20f456bc4)" style="fill: none; stroke: #008000; stroke-width: 1.5; stroke-linecap: square"/>
   </g>
   <g id="line2d_49">
    <path d="M 340.22406 219.615454 
L 340.570237 221.606431 
L 340.916414 223.593529 
L 341.262591 225.575457 
L 341.608768 227.550937 
L 341.954944 229.518707 
L 342.301121 231.477522 
L 342.647298 233.42615 
L 342.993475 235.363377 
L 343.339651 237.288003 
L 343.685828 239.198845 
L 344.032005 241.094735 
L 344.378182 242.974521 
L 344.724359 244.837065 
L 345.070535 246.681246 
L 345.416712 248.505958 
L 345.762889 250.310113 
L 346.109066 252.092635 
L 346.455243 253.852465 
L 346.801419 255.58856 
L 347.147596 257.299893 
L 347.493773 258.985452 
L 347.83995 260.64424 
L 348.186126 262.275276 
L 348.532303 263.877597 
" clip-path="url(#pf20f456bc4)" style="fill: none; stroke: #008000; stroke-width: 1.5; stroke-linecap: square"/>
   </g>
   <g id="line2d_50">
    <path d="M 348.548536 264.367016 
L 348.894713 265.93544 
L 349.24089 267.467861 
L 349.587066 268.963417 
L 349.933243 270.421301 
L 350.27942 271.840757 
L 350.625597 273.221083 
L 350.971773 274.56163 
L 351.31795 275.861801 
L 351.664127 277.121052 
L 352.010304 278.338892 
L 352.356481 279.514884 
L 352.702657 280.648641 
L 353.048834 281.739831 
L 353.395011 282.788176 
L 353.741188 283.793447 
L 354.087364 284.755471 
L 354.433541 285.674128 
L 354.779718 286.549348 
L 355.125895 287.381117 
L 355.472072 288.169472 
L 355.818248 288.914503 
L 356.164425 289.616354 
L 356.510602 290.275219 
L 356.856779 290.89135 
" clip-path="url(#pf20f456bc4)" style="fill: none; stroke: #008000; stroke-width: 1.5; stroke-linecap: square"/>
   </g>
   <g id="line2d_51">
    <path d="M 356.873011 290.626348 
L 357.219188 291.200049 
L 357.565365 291.735472 
L 357.911542 292.232984 
L 358.257719 292.692984 
L 358.603895 293.115894 
L 358.950072 293.502163 
L 359.296249 293.852267 
L 359.642426 294.16671 
L 359.988603 294.44602 
L 360.334779 294.690753 
L 360.680956 294.901491 
L 361.027133 295.078845 
L 361.37331 295.223448 
L 361.719486 295.335963 
L 362.065663 295.417079 
L 362.41184 295.467511 
L 362.758017 295.488 
L 363.104194 295.479315 
L 363.45037 295.442252 
L 363.796547 295.377631 
L 364.142724 295.2863 
L 364.488901 295.169135 
L 364.835077 295.027035 
L 365.181254 294.86093 
" clip-path="url(#pf20f456bc4)" style="fill: none; stroke: #008000; stroke-width: 1.5; stroke-linecap: square"/>
   </g>
   <g id="line2d_52">
    <path d="M 365.197487 294.419597 
L 365.543664 294.232321 
L 365.889841 294.028613 
L 366.236017 293.809423 
L 366.582194 293.575687 
L 366.928371 293.328331 
L 367.274548 293.068267 
L 367.620724 292.796397 
L 367.966901 292.513607 
L 368.313078 292.220775 
L 368.659255 291.918763 
L 369.005432 291.608422 
L 369.351608 291.290593 
L 369.697785 290.966101 
L 370.043962 290.635761 
L 370.390139 290.300376 
L 370.736316 289.960735 
L 371.082492 289.617615 
L 371.428669 289.271783 
L 371.774846 288.923991 
L 372.121023 288.574981 
L 372.467199 288.22548 
L 372.813376 287.876205 
L 373.159553 287.527859 
L 373.50573 287.181136 
" clip-path="url(#pf20f456bc4)" style="fill: none; stroke: #008000; stroke-width: 1.5; stroke-linecap: square"/>
   </g>
   <g id="line2d_53">
    <path d="M 373.521963 286.996702 
L 373.868139 286.653546 
L 374.214316 286.315561 
L 374.560493 285.98338 
L 374.90667 285.657606 
L 375.252846 285.338815 
L 375.599023 285.027558 
L 375.9452 284.724355 
L 376.291377 284.429702 
L 376.637554 284.144065 
L 376.98373 283.867884 
L 377.329907 283.601571 
L 377.676084 283.345512 
L 378.022261 283.100063 
L 378.368437 282.865556 
L 378.714614 282.642293 
L 379.060791 282.430549 
L 379.406968 282.230573 
L 379.753145 282.042586 
L 380.099321 281.86678 
L 380.445498 281.703322 
L 380.791675 281.55235 
L 381.137852 281.413976 
L 381.484029 281.288284 
L 381.830205 281.17533 
" clip-path="url(#pf20f456bc4)" style="fill: none; stroke: #008000; stroke-width: 1.5; stroke-linecap: square"/>
   </g>
   <g id="line2d_54">
    <path d="M 381.846438 281.345918 
L 382.192615 281.245139 
L 382.538792 281.154861 
L 382.884968 281.07508 
L 383.231145 281.005783 
L 383.577322 280.946943 
L 383.923499 280.898523 
L 384.269676 280.860473 
L 384.615852 280.832733 
L 384.962029 280.815229 
L 385.308206 280.807877 
L 385.654383 280.810583 
L 386.000559 280.823238 
L 386.346736 280.845722 
L 386.692913 280.877907 
L 387.03909 280.919649 
L 387.385267 280.970794 
L 387.731443 281.031176 
L 388.07762 281.10062 
L 388.423797 281.178935 
L 388.769974 281.265922 
L 389.11615 281.361369 
L 389.462327 281.465051 
L 389.808504 281.576734 
L 390.154681 281.696171 
" clip-path="url(#pf20f456bc4)" style="fill: none; stroke: #008000; stroke-width: 1.5; stroke-linecap: square"/>
   </g>
   <g id="line2d_55">
    <path d="M 390.170914 282.149022 
L 390.51709 282.281764 
L 390.863267 282.416277 
L 391.209444 282.552139 
L 391.555621 282.688942 
L 391.901797 282.826287 
L 392.247974 282.963787 
L 392.594151 283.101065 
L 392.940328 283.237753 
L 393.286505 283.373497 
L 393.632681 283.507952 
L 393.978858 283.640782 
L 394.325035 283.771664 
L 394.671212 283.900284 
L 395.017389 284.026341 
L 395.363565 284.149543 
L 395.709742 284.269607 
L 396.055919 284.386265 
L 396.402096 284.499254 
L 396.748272 284.608328 
L 397.094449 284.713246 
L 397.440626 284.813782 
L 397.786803 284.909717 
L 398.13298 285.000846 
L 398.479156 285.086972 
" clip-path="url(#pf20f456bc4)" style="fill: none; stroke: #008000; stroke-width: 1.5; stroke-linecap: square"/>
   </g>
   <g id="patch_3">
    <path d="M 57.6 307.584 
L 57.6 41.472 
" style="fill: none; stroke: #000000; stroke-width: 0.8; stroke-linejoin: miter; stroke-linecap: square"/>
   </g>
   <g id="patch_4">
    <path d="M 414.72 307.584 
L 414.72 41.472 
" style="fill: none; stroke: #000000; stroke-width: 0.8; stroke-linejoin: miter; stroke-linecap: square"/>
   </g>
   <g id="patch_5">
    <path d="M 57.6 307.584 
L 414.72 307.584 
" style="fill: none; stroke: #000000; stroke-width: 0.8; stroke-linejoin: miter; stroke-linecap: square"/>
   </g>
   <g id="patch_6">
    <path d="M 57.6 41.472 
L 414.72 41.472 
" style="fill: none; stroke: #000000; stroke-width: 0.8; stroke-linejoin: miter; stroke-linecap: square"/>
   </g>
   <g id="legend_1">
    <g id="patch_7">
     <path d="M 64.6 93.906375 
L 210.795312 93.906375 
Q 212.795312 93.906375 212.795312 91.906375 
L 212.795312 48.472 
Q 212.795312 46.472 210.795312 46.472 
L 64.6 46.472 
Q 62.6 46.472 62.6 48.472 
L 62.6 91.906375 
Q 62.6 93.906375 64.6 93.906375 
z
" style="fill: #ffffff; opacity: 0.8; stroke: #cccccc; stroke-linejoin: miter"/>
    </g>
    <g id="line2d_56">
     <path d="M 66.6 54.570437 
L 76.6 54.570437 
L 86.6 54.570437 
" style="fill: none; stroke: #0000ff; stroke-width: 1.5; stroke-linecap: square"/>
    </g>
    <g id="text_18">
     <!-- Původní funkce -->
     <g transform="translate(94.6 58.070437)scale(0.1 -0.1)">
      <defs>
       <path id="DejaVuSans-50" d="M 1259 4147 
L 1259 2394 
L 2053 2394 
Q 2494 2394 2734 2622 
Q 2975 2850 2975 3272 
Q 2975 3691 2734 3919 
Q 2494 4147 2053 4147 
L 1259 4147 
z
M 628 4666 
L 2053 4666 
Q 2838 4666 3239 4311 
Q 3641 3956 3641 3272 
Q 3641 2581 3239 2228 
Q 2838 1875 2053 1875 
L 1259 1875 
L 1259 0 
L 628 0 
L 628 4666 
z
" transform="scale(0.015625)"/>
       <path id="DejaVuSans-16f" d="M 544 1381 
L 544 3500 
L 1119 3500 
L 1119 1403 
Q 1119 906 1312 657 
Q 1506 409 1894 409 
Q 2359 409 2629 706 
Q 2900 1003 2900 1516 
L 2900 3500 
L 3475 3500 
L 3475 0 
L 2900 0 
L 2900 538 
Q 2691 219 2414 64 
Q 2138 -91 1772 -91 
Q 1169 -91 856 284 
Q 544 659 544 1381 
z
M 1991 3584 
L 1991 3584 
z
M 2463 4575 
Q 2463 4771 2325 4908 
Q 2188 5046 1988 5046 
Q 1784 5046 1648 4910 
Q 1513 4775 1513 4575 
Q 1513 4371 1648 4235 
Q 1784 4100 1988 4100 
Q 2188 4100 2325 4237 
Q 2463 4375 2463 4575 
z
M 2844 4575 
Q 2844 4215 2595 3965 
Q 2347 3715 1988 3715 
Q 1628 3715 1379 3965 
Q 1131 4215 1131 4575 
Q 1131 4934 1379 5182 
Q 1628 5431 1988 5431 
Q 2347 5431 2595 5182 
Q 2844 4934 2844 4575 
z
" transform="scale(0.015625)"/>
       <path id="DejaVuSans-76" d="M 191 3500 
L 800 3500 
L 1894 563 
L 2988 3500 
L 3597 3500 
L 2284 0 
L 1503 0 
L 191 3500 
z
" transform="scale(0.015625)"/>
       <path id="DejaVuSans-6f" d="M 1959 3097 
Q 1497 3097 1228 2736 
Q 959 2375 959 1747 
Q 959 1119 1226 758 
Q 1494 397 1959 397 
Q 2419 397 2687 759 
Q 2956 1122 2956 1747 
Q 2956 2369 2687 2733 
Q 2419 3097 1959 3097 
z
M 1959 3584 
Q 2709 3584 3137 3096 
Q 3566 2609 3566 1747 
Q 3566 888 3137 398 
Q 2709 -91 1959 -91 
Q 1206 -91 779 398 
Q 353 888 353 1747 
Q 353 2609 779 3096 
Q 1206 3584 1959 3584 
z
" transform="scale(0.015625)"/>
       <path id="DejaVuSans-64" d="M 2906 2969 
L 2906 4863 
L 3481 4863 
L 3481 0 
L 2906 0 
L 2906 525 
Q 2725 213 2448 61 
Q 2172 -91 1784 -91 
Q 1150 -91 751 415 
Q 353 922 353 1747 
Q 353 2572 751 3078 
Q 1150 3584 1784 3584 
Q 2172 3584 2448 3432 
Q 2725 3281 2906 2969 
z
M 947 1747 
Q 947 1113 1208 752 
Q 1469 391 1925 391 
Q 2381 391 2643 752 
Q 2906 1113 2906 1747 
Q 2906 2381 2643 2742 
Q 2381 3103 1925 3103 
Q 1469 3103 1208 2742 
Q 947 2381 947 1747 
z
" transform="scale(0.015625)"/>
       <path id="DejaVuSans-6e" d="M 3513 2113 
L 3513 0 
L 2938 0 
L 2938 2094 
Q 2938 2591 2744 2837 
Q 2550 3084 2163 3084 
Q 1697 3084 1428 2787 
Q 1159 2491 1159 1978 
L 1159 0 
L 581 0 
L 581 3500 
L 1159 3500 
L 1159 2956 
Q 1366 3272 1645 3428 
Q 1925 3584 2291 3584 
Q 2894 3584 3203 3211 
Q 3513 2838 3513 2113 
z
" transform="scale(0.015625)"/>
       <path id="DejaVuSans-ed" d="M 1325 5119 
L 1947 5119 
L 928 3944 
L 450 3944 
L 1325 5119 
z
M 603 3500 
L 1178 3500 
L 1178 0 
L 603 0 
L 603 3500 
z
M 891 3584 
L 891 3584 
z
" transform="scale(0.015625)"/>
       <path id="DejaVuSans-20" transform="scale(0.015625)"/>
       <path id="DejaVuSans-66" d="M 2375 4863 
L 2375 4384 
L 1825 4384 
Q 1516 4384 1395 4259 
Q 1275 4134 1275 3809 
L 1275 3500 
L 2222 3500 
L 2222 3053 
L 1275 3053 
L 1275 0 
L 697 0 
L 697 3053 
L 147 3053 
L 147 3500 
L 697 3500 
L 697 3744 
Q 697 4328 969 4595 
Q 1241 4863 1831 4863 
L 2375 4863 
z
" transform="scale(0.015625)"/>
       <path id="DejaVuSans-75" d="M 544 1381 
L 544 3500 
L 1119 3500 
L 1119 1403 
Q 1119 906 1312 657 
Q 1506 409 1894 409 
Q 2359 409 2629 706 
Q 2900 1003 2900 1516 
L 2900 3500 
L 3475 3500 
L 3475 0 
L 2900 0 
L 2900 538 
Q 2691 219 2414 64 
Q 2138 -91 1772 -91 
Q 1169 -91 856 284 
Q 544 659 544 1381 
z
M 1991 3584 
L 1991 3584 
z
" transform="scale(0.015625)"/>
       <path id="DejaVuSans-6b" d="M 581 4863 
L 1159 4863 
L 1159 1991 
L 2875 3500 
L 3609 3500 
L 1753 1863 
L 3688 0 
L 2938 0 
L 1159 1709 
L 1159 0 
L 581 0 
L 581 4863 
z
" transform="scale(0.015625)"/>
       <path id="DejaVuSans-63" d="M 3122 3366 
L 3122 2828 
Q 2878 2963 2633 3030 
Q 2388 3097 2138 3097 
Q 1578 3097 1268 2742 
Q 959 2388 959 1747 
Q 959 1106 1268 751 
Q 1578 397 2138 397 
Q 2388 397 2633 464 
Q 2878 531 3122 666 
L 3122 134 
Q 2881 22 2623 -34 
Q 2366 -91 2075 -91 
Q 1284 -91 818 406 
Q 353 903 353 1747 
Q 353 2603 823 3093 
Q 1294 3584 2113 3584 
Q 2378 3584 2631 3529 
Q 2884 3475 3122 3366 
z
" transform="scale(0.015625)"/>
       <path id="DejaVuSans-65" d="M 3597 1894 
L 3597 1613 
L 953 1613 
Q 991 1019 1311 708 
Q 1631 397 2203 397 
Q 2534 397 2845 478 
Q 3156 559 3463 722 
L 3463 178 
Q 3153 47 2828 -22 
Q 2503 -91 2169 -91 
Q 1331 -91 842 396 
Q 353 884 353 1716 
Q 353 2575 817 3079 
Q 1281 3584 2069 3584 
Q 2775 3584 3186 3129 
Q 3597 2675 3597 1894 
z
M 3022 2063 
Q 3016 2534 2758 2815 
Q 2500 3097 2075 3097 
Q 1594 3097 1305 2825 
Q 1016 2553 972 2059 
L 3022 2063 
z
" transform="scale(0.015625)"/>
      </defs>
      <use xlink:href="#DejaVuSans-50"/>
      <use xlink:href="#DejaVuSans-16f" x="58.552734"/>
      <use xlink:href="#DejaVuSans-76" x="121.931641"/>
      <use xlink:href="#DejaVuSans-6f" x="181.111328"/>
      <use xlink:href="#DejaVuSans-64" x="242.292969"/>
      <use xlink:href="#DejaVuSans-6e" x="305.769531"/>
      <use xlink:href="#DejaVuSans-ed" x="369.148438"/>
      <use xlink:href="#DejaVuSans-20" x="396.931641"/>
      <use xlink:href="#DejaVuSans-66" x="428.71875"/>
      <use xlink:href="#DejaVuSans-75" x="463.923828"/>
      <use xlink:href="#DejaVuSans-6e" x="527.302734"/>
      <use xlink:href="#DejaVuSans-6b" x="590.681641"/>
      <use xlink:href="#DejaVuSans-63" x="648.591797"/>
      <use xlink:href="#DejaVuSans-65" x="703.572266"/>
     </g>
    </g>
    <g id="PathCollection_2">
     <g>
      <use xlink:href="#m2af3b473f8" x="76.6" y="70.523562" style="fill: #228b22; stroke: #228b22"/>
     </g>
    </g>
    <g id="text_19">
     <!-- Střední hodnoty buněk -->
     <g transform="translate(94.6 73.148562)scale(0.1 -0.1)">
      <defs>
       <path id="DejaVuSans-53" d="M 3425 4513 
L 3425 3897 
Q 3066 4069 2747 4153 
Q 2428 4238 2131 4238 
Q 1616 4238 1336 4038 
Q 1056 3838 1056 3469 
Q 1056 3159 1242 3001 
Q 1428 2844 1947 2747 
L 2328 2669 
Q 3034 2534 3370 2195 
Q 3706 1856 3706 1288 
Q 3706 609 3251 259 
Q 2797 -91 1919 -91 
Q 1588 -91 1214 -16 
Q 841 59 441 206 
L 441 856 
Q 825 641 1194 531 
Q 1563 422 1919 422 
Q 2459 422 2753 634 
Q 3047 847 3047 1241 
Q 3047 1584 2836 1778 
Q 2625 1972 2144 2069 
L 1759 2144 
Q 1053 2284 737 2584 
Q 422 2884 422 3419 
Q 422 4038 858 4394 
Q 1294 4750 2059 4750 
Q 2388 4750 2728 4690 
Q 3069 4631 3425 4513 
z
" transform="scale(0.015625)"/>
       <path id="DejaVuSans-74" d="M 1172 4494 
L 1172 3500 
L 2356 3500 
L 2356 3053 
L 1172 3053 
L 1172 1153 
Q 1172 725 1289 603 
Q 1406 481 1766 481 
L 2356 481 
L 2356 0 
L 1766 0 
Q 1100 0 847 248 
Q 594 497 594 1153 
L 594 3053 
L 172 3053 
L 172 3500 
L 594 3500 
L 594 4494 
L 1172 4494 
z
" transform="scale(0.015625)"/>
       <path id="DejaVuSans-159" d="M 2631 2963 
Q 2534 3019 2420 3045 
Q 2306 3072 2169 3072 
Q 1681 3072 1420 2755 
Q 1159 2438 1159 1844 
L 1159 0 
L 581 0 
L 581 3500 
L 1159 3500 
L 1159 2956 
Q 1341 3275 1631 3429 
Q 1922 3584 2338 3584 
Q 2397 3584 2469 3576 
Q 2541 3569 2628 3553 
L 2631 2963 
z
M 1453 3944 
L 688 5119 
L 1122 5119 
L 1684 4353 
L 2247 5119 
L 2681 5119 
L 1916 3944 
L 1453 3944 
z
" transform="scale(0.015625)"/>
       <path id="DejaVuSans-68" d="M 3513 2113 
L 3513 0 
L 2938 0 
L 2938 2094 
Q 2938 2591 2744 2837 
Q 2550 3084 2163 3084 
Q 1697 3084 1428 2787 
Q 1159 2491 1159 1978 
L 1159 0 
L 581 0 
L 581 4863 
L 1159 4863 
L 1159 2956 
Q 1366 3272 1645 3428 
Q 1925 3584 2291 3584 
Q 2894 3584 3203 3211 
Q 3513 2838 3513 2113 
z
" transform="scale(0.015625)"/>
       <path id="DejaVuSans-79" d="M 2059 -325 
Q 1816 -950 1584 -1140 
Q 1353 -1331 966 -1331 
L 506 -1331 
L 506 -850 
L 844 -850 
Q 1081 -850 1212 -737 
Q 1344 -625 1503 -206 
L 1606 56 
L 191 3500 
L 800 3500 
L 1894 763 
L 2988 3500 
L 3597 3500 
L 2059 -325 
z
" transform="scale(0.015625)"/>
       <path id="DejaVuSans-62" d="M 3116 1747 
Q 3116 2381 2855 2742 
Q 2594 3103 2138 3103 
Q 1681 3103 1420 2742 
Q 1159 2381 1159 1747 
Q 1159 1113 1420 752 
Q 1681 391 2138 391 
Q 2594 391 2855 752 
Q 3116 1113 3116 1747 
z
M 1159 2969 
Q 1341 3281 1617 3432 
Q 1894 3584 2278 3584 
Q 2916 3584 3314 3078 
Q 3713 2572 3713 1747 
Q 3713 922 3314 415 
Q 2916 -91 2278 -91 
Q 1894 -91 1617 61 
Q 1341 213 1159 525 
L 1159 0 
L 581 0 
L 581 4863 
L 1159 4863 
L 1159 2969 
z
" transform="scale(0.015625)"/>
       <path id="DejaVuSans-11b" d="M 3597 1894 
L 3597 1613 
L 953 1613 
Q 991 1019 1311 708 
Q 1631 397 2203 397 
Q 2534 397 2845 478 
Q 3156 559 3463 722 
L 3463 178 
Q 3153 47 2828 -22 
Q 2503 -91 2169 -91 
Q 1331 -91 842 396 
Q 353 884 353 1716 
Q 353 2575 817 3079 
Q 1281 3584 2069 3584 
Q 2775 3584 3186 3129 
Q 3597 2675 3597 1894 
z
M 3022 2063 
Q 3016 2534 2758 2815 
Q 2500 3097 2075 3097 
Q 1594 3097 1305 2825 
Q 1016 2553 972 2059 
L 3022 2063 
z
M 1831 3928 
L 1066 5103 
L 1500 5103 
L 2063 4337 
L 2625 5103 
L 3059 5103 
L 2294 3928 
L 1831 3928 
z
" transform="scale(0.015625)"/>
      </defs>
      <use xlink:href="#DejaVuSans-53"/>
      <use xlink:href="#DejaVuSans-74" x="63.476562"/>
      <use xlink:href="#DejaVuSans-159" x="102.685547"/>
      <use xlink:href="#DejaVuSans-65" x="141.548828"/>
      <use xlink:href="#DejaVuSans-64" x="203.072266"/>
      <use xlink:href="#DejaVuSans-6e" x="266.548828"/>
      <use xlink:href="#DejaVuSans-ed" x="329.927734"/>
      <use xlink:href="#DejaVuSans-20" x="357.710938"/>
      <use xlink:href="#DejaVuSans-68" x="389.498047"/>
      <use xlink:href="#DejaVuSans-6f" x="452.876953"/>
      <use xlink:href="#DejaVuSans-64" x="514.058594"/>
      <use xlink:href="#DejaVuSans-6e" x="577.535156"/>
      <use xlink:href="#DejaVuSans-6f" x="640.914062"/>
      <use xlink:href="#DejaVuSans-74" x="702.095703"/>
      <use xlink:href="#DejaVuSans-79" x="741.304688"/>
      <use xlink:href="#DejaVuSans-20" x="800.484375"/>
      <use xlink:href="#DejaVuSans-62" x="832.271484"/>
      <use xlink:href="#DejaVuSans-75" x="895.748047"/>
      <use xlink:href="#DejaVuSans-6e" x="959.126953"/>
      <use xlink:href="#DejaVuSans-11b" x="1022.505859"/>
      <use xlink:href="#DejaVuSans-6b" x="1084.029297"/>
     </g>
    </g>
    <g id="line2d_57">
     <path d="M 66.6 84.326687 
L 76.6 84.326687 
L 86.6 84.326687 
" style="fill: none; stroke: #008000; stroke-width: 1.5; stroke-linecap: square"/>
    </g>
    <g id="text_20">
     <!-- Rekonstrukce -->
     <g transform="translate(94.6 87.826687)scale(0.1 -0.1)">
      <defs>
       <path id="DejaVuSans-52" d="M 2841 2188 
Q 3044 2119 3236 1894 
Q 3428 1669 3622 1275 
L 4263 0 
L 3584 0 
L 2988 1197 
Q 2756 1666 2539 1819 
Q 2322 1972 1947 1972 
L 1259 1972 
L 1259 0 
L 628 0 
L 628 4666 
L 2053 4666 
Q 2853 4666 3247 4331 
Q 3641 3997 3641 3322 
Q 3641 2881 3436 2590 
Q 3231 2300 2841 2188 
z
M 1259 4147 
L 1259 2491 
L 2053 2491 
Q 2509 2491 2742 2702 
Q 2975 2913 2975 3322 
Q 2975 3731 2742 3939 
Q 2509 4147 2053 4147 
L 1259 4147 
z
" transform="scale(0.015625)"/>
       <path id="DejaVuSans-73" d="M 2834 3397 
L 2834 2853 
Q 2591 2978 2328 3040 
Q 2066 3103 1784 3103 
Q 1356 3103 1142 2972 
Q 928 2841 928 2578 
Q 928 2378 1081 2264 
Q 1234 2150 1697 2047 
L 1894 2003 
Q 2506 1872 2764 1633 
Q 3022 1394 3022 966 
Q 3022 478 2636 193 
Q 2250 -91 1575 -91 
Q 1294 -91 989 -36 
Q 684 19 347 128 
L 347 722 
Q 666 556 975 473 
Q 1284 391 1588 391 
Q 1994 391 2212 530 
Q 2431 669 2431 922 
Q 2431 1156 2273 1281 
Q 2116 1406 1581 1522 
L 1381 1569 
Q 847 1681 609 1914 
Q 372 2147 372 2553 
Q 372 3047 722 3315 
Q 1072 3584 1716 3584 
Q 2034 3584 2315 3537 
Q 2597 3491 2834 3397 
z
" transform="scale(0.015625)"/>
       <path id="DejaVuSans-72" d="M 2631 2963 
Q 2534 3019 2420 3045 
Q 2306 3072 2169 3072 
Q 1681 3072 1420 2755 
Q 1159 2438 1159 1844 
L 1159 0 
L 581 0 
L 581 3500 
L 1159 3500 
L 1159 2956 
Q 1341 3275 1631 3429 
Q 1922 3584 2338 3584 
Q 2397 3584 2469 3576 
Q 2541 3569 2628 3553 
L 2631 2963 
z
" transform="scale(0.015625)"/>
      </defs>
      <use xlink:href="#DejaVuSans-52"/>
      <use xlink:href="#DejaVuSans-65" x="64.982422"/>
      <use xlink:href="#DejaVuSans-6b" x="126.505859"/>
      <use xlink:href="#DejaVuSans-6f" x="180.791016"/>
      <use xlink:href="#DejaVuSans-6e" x="241.972656"/>
      <use xlink:href="#DejaVuSans-73" x="305.351562"/>
      <use xlink:href="#DejaVuSans-74" x="357.451172"/>
      <use xlink:href="#DejaVuSans-72" x="396.660156"/>
      <use xlink:href="#DejaVuSans-75" x="437.773438"/>
      <use xlink:href="#DejaVuSans-6b" x="501.152344"/>
      <use xlink:href="#DejaVuSans-63" x="559.0625"/>
      <use xlink:href="#DejaVuSans-65" x="614.042969"/>
     </g>
    </g>
   </g>
  </g>
 </g>
 <defs>
  <clipPath id="pf20f456bc4">
   <rect x="57.6" y="41.472" width="357.12" height="266.112"/>
  </clipPath>
 </defs>
</svg>
