<?xml version="1.0" encoding="utf-8" standalone="no"?>
<!DOCTYPE svg PUBLIC "-//W3C//DTD SVG 1.1//EN"
  "http://www.w3.org/Graphics/SVG/1.1/DTD/svg11.dtd">
<svg xmlns:xlink="http://www.w3.org/1999/xlink" width="460.8pt" height="345.6pt" viewBox="0 0 460.8 345.6" xmlns="http://www.w3.org/2000/svg" version="1.1">
 <metadata>
  <rdf:RDF xmlns:dc="http://purl.org/dc/elements/1.1/" xmlns:cc="http://creativecommons.org/ns#" xmlns:rdf="http://www.w3.org/1999/02/22-rdf-syntax-ns#">
   <cc:Work>
    <dc:type rdf:resource="http://purl.org/dc/dcmitype/StillImage"/>
    <dc:date>2023-08-02T21:39:15.569220</dc:date>
    <dc:format>image/svg+xml</dc:format>
    <dc:creator>
     <cc:Agent>
      <dc:title>Matplotlib v3.5.2, https://matplotlib.org/</dc:title>
     </cc:Agent>
    </dc:creator>
   </cc:Work>
  </rdf:RDF>
 </metadata>
 <defs>
  <style type="text/css">*{stroke-linejoin: round; stroke-linecap: butt}</style>
 </defs>
 <g id="figure_1">
  <g id="patch_1">
   <path d="M 0 345.6 
L 460.8 345.6 
L 460.8 0 
L 0 0 
z
" style="fill: #ffffff"/>
  </g>
  <g id="axes_1">
   <g id="patch_2">
    <path d="M 47.81 303.64 
L 450 303.64 
L 450 138.856 
L 47.81 138.856 
z
" style="fill: #ffffff"/>
   </g>
   <g id="matplotlib.axis_1">
    <g id="xtick_1">
     <g id="line2d_1">
      <defs>
       <path id="m027edabb8a" d="M 0 0 
L 0 3.5 
" style="stroke: #000000; stroke-width: 0.8"/>
      </defs>
      <g>
       <use xlink:href="#m027edabb8a" x="66.091364" y="303.64" style="stroke: #000000; stroke-width: 0.8"/>
      </g>
     </g>
     <g id="text_1">
      <!-- −1.00 -->
      <g transform="translate(50.768707 318.238437)scale(0.1 -0.1)">
       <defs>
        <path id="DejaVuSans-2212" d="M 678 2272 
L 4684 2272 
L 4684 1741 
L 678 1741 
L 678 2272 
z
" transform="scale(0.015625)"/>
        <path id="DejaVuSans-31" d="M 794 531 
L 1825 531 
L 1825 4091 
L 703 3866 
L 703 4441 
L 1819 4666 
L 2450 4666 
L 2450 531 
L 3481 531 
L 3481 0 
L 794 0 
L 794 531 
z
" transform="scale(0.015625)"/>
        <path id="DejaVuSans-2e" d="M 684 794 
L 1344 794 
L 1344 0 
L 684 0 
L 684 794 
z
" transform="scale(0.015625)"/>
        <path id="DejaVuSans-30" d="M 2034 4250 
Q 1547 4250 1301 3770 
Q 1056 3291 1056 2328 
Q 1056 1369 1301 889 
Q 1547 409 2034 409 
Q 2525 409 2770 889 
Q 3016 1369 3016 2328 
Q 3016 3291 2770 3770 
Q 2525 4250 2034 4250 
z
M 2034 4750 
Q 2819 4750 3233 4129 
Q 3647 3509 3647 2328 
Q 3647 1150 3233 529 
Q 2819 -91 2034 -91 
Q 1250 -91 836 529 
Q 422 1150 422 2328 
Q 422 3509 836 4129 
Q 1250 4750 2034 4750 
z
" transform="scale(0.015625)"/>
       </defs>
       <use xlink:href="#DejaVuSans-2212"/>
       <use xlink:href="#DejaVuSans-31" x="83.789062"/>
       <use xlink:href="#DejaVuSans-2e" x="147.412109"/>
       <use xlink:href="#DejaVuSans-30" x="179.199219"/>
       <use xlink:href="#DejaVuSans-30" x="242.822266"/>
      </g>
     </g>
    </g>
    <g id="xtick_2">
     <g id="line2d_2">
      <g>
       <use xlink:href="#m027edabb8a" x="111.794773" y="303.64" style="stroke: #000000; stroke-width: 0.8"/>
      </g>
     </g>
     <g id="text_2">
      <!-- −0.75 -->
      <g transform="translate(96.472116 318.238437)scale(0.1 -0.1)">
       <defs>
        <path id="DejaVuSans-37" d="M 525 4666 
L 3525 4666 
L 3525 4397 
L 1831 0 
L 1172 0 
L 2766 4134 
L 525 4134 
L 525 4666 
z
" transform="scale(0.015625)"/>
        <path id="DejaVuSans-35" d="M 691 4666 
L 3169 4666 
L 3169 4134 
L 1269 4134 
L 1269 2991 
Q 1406 3038 1543 3061 
Q 1681 3084 1819 3084 
Q 2600 3084 3056 2656 
Q 3513 2228 3513 1497 
Q 3513 744 3044 326 
Q 2575 -91 1722 -91 
Q 1428 -91 1123 -41 
Q 819 9 494 109 
L 494 744 
Q 775 591 1075 516 
Q 1375 441 1709 441 
Q 2250 441 2565 725 
Q 2881 1009 2881 1497 
Q 2881 1984 2565 2268 
Q 2250 2553 1709 2553 
Q 1456 2553 1204 2497 
Q 953 2441 691 2322 
L 691 4666 
z
" transform="scale(0.015625)"/>
       </defs>
       <use xlink:href="#DejaVuSans-2212"/>
       <use xlink:href="#DejaVuSans-30" x="83.789062"/>
       <use xlink:href="#DejaVuSans-2e" x="147.412109"/>
       <use xlink:href="#DejaVuSans-37" x="179.199219"/>
       <use xlink:href="#DejaVuSans-35" x="242.822266"/>
      </g>
     </g>
    </g>
    <g id="xtick_3">
     <g id="line2d_3">
      <g>
       <use xlink:href="#m027edabb8a" x="157.498182" y="303.64" style="stroke: #000000; stroke-width: 0.8"/>
      </g>
     </g>
     <g id="text_3">
      <!-- −0.50 -->
      <g transform="translate(142.175526 318.238437)scale(0.1 -0.1)">
       <use xlink:href="#DejaVuSans-2212"/>
       <use xlink:href="#DejaVuSans-30" x="83.789062"/>
       <use xlink:href="#DejaVuSans-2e" x="147.412109"/>
       <use xlink:href="#DejaVuSans-35" x="179.199219"/>
       <use xlink:href="#DejaVuSans-30" x="242.822266"/>
      </g>
     </g>
    </g>
    <g id="xtick_4">
     <g id="line2d_4">
      <g>
       <use xlink:href="#m027edabb8a" x="203.201591" y="303.64" style="stroke: #000000; stroke-width: 0.8"/>
      </g>
     </g>
     <g id="text_4">
      <!-- −0.25 -->
      <g transform="translate(187.878935 318.238437)scale(0.1 -0.1)">
       <defs>
        <path id="DejaVuSans-32" d="M 1228 531 
L 3431 531 
L 3431 0 
L 469 0 
L 469 531 
Q 828 903 1448 1529 
Q 2069 2156 2228 2338 
Q 2531 2678 2651 2914 
Q 2772 3150 2772 3378 
Q 2772 3750 2511 3984 
Q 2250 4219 1831 4219 
Q 1534 4219 1204 4116 
Q 875 4013 500 3803 
L 500 4441 
Q 881 4594 1212 4672 
Q 1544 4750 1819 4750 
Q 2544 4750 2975 4387 
Q 3406 4025 3406 3419 
Q 3406 3131 3298 2873 
Q 3191 2616 2906 2266 
Q 2828 2175 2409 1742 
Q 1991 1309 1228 531 
z
" transform="scale(0.015625)"/>
       </defs>
       <use xlink:href="#DejaVuSans-2212"/>
       <use xlink:href="#DejaVuSans-30" x="83.789062"/>
       <use xlink:href="#DejaVuSans-2e" x="147.412109"/>
       <use xlink:href="#DejaVuSans-32" x="179.199219"/>
       <use xlink:href="#DejaVuSans-35" x="242.822266"/>
      </g>
     </g>
    </g>
    <g id="xtick_5">
     <g id="line2d_5">
      <g>
       <use xlink:href="#m027edabb8a" x="248.905" y="303.64" style="stroke: #000000; stroke-width: 0.8"/>
      </g>
     </g>
     <g id="text_5">
      <!-- 0.00 -->
      <g transform="translate(237.772188 318.238437)scale(0.1 -0.1)">
       <use xlink:href="#DejaVuSans-30"/>
       <use xlink:href="#DejaVuSans-2e" x="63.623047"/>
       <use xlink:href="#DejaVuSans-30" x="95.410156"/>
       <use xlink:href="#DejaVuSans-30" x="159.033203"/>
      </g>
     </g>
    </g>
    <g id="xtick_6">
     <g id="line2d_6">
      <g>
       <use xlink:href="#m027edabb8a" x="294.608409" y="303.64" style="stroke: #000000; stroke-width: 0.8"/>
      </g>
     </g>
     <g id="text_6">
      <!-- 0.25 -->
      <g transform="translate(283.475597 318.238437)scale(0.1 -0.1)">
       <use xlink:href="#DejaVuSans-30"/>
       <use xlink:href="#DejaVuSans-2e" x="63.623047"/>
       <use xlink:href="#DejaVuSans-32" x="95.410156"/>
       <use xlink:href="#DejaVuSans-35" x="159.033203"/>
      </g>
     </g>
    </g>
    <g id="xtick_7">
     <g id="line2d_7">
      <g>
       <use xlink:href="#m027edabb8a" x="340.311818" y="303.64" style="stroke: #000000; stroke-width: 0.8"/>
      </g>
     </g>
     <g id="text_7">
      <!-- 0.50 -->
      <g transform="translate(329.179006 318.238437)scale(0.1 -0.1)">
       <use xlink:href="#DejaVuSans-30"/>
       <use xlink:href="#DejaVuSans-2e" x="63.623047"/>
       <use xlink:href="#DejaVuSans-35" x="95.410156"/>
       <use xlink:href="#DejaVuSans-30" x="159.033203"/>
      </g>
     </g>
    </g>
    <g id="xtick_8">
     <g id="line2d_8">
      <g>
       <use xlink:href="#m027edabb8a" x="386.015227" y="303.64" style="stroke: #000000; stroke-width: 0.8"/>
      </g>
     </g>
     <g id="text_8">
      <!-- 0.75 -->
      <g transform="translate(374.882415 318.238437)scale(0.1 -0.1)">
       <use xlink:href="#DejaVuSans-30"/>
       <use xlink:href="#DejaVuSans-2e" x="63.623047"/>
       <use xlink:href="#DejaVuSans-37" x="95.410156"/>
       <use xlink:href="#DejaVuSans-35" x="159.033203"/>
      </g>
     </g>
    </g>
    <g id="xtick_9">
     <g id="line2d_9">
      <g>
       <use xlink:href="#m027edabb8a" x="431.718636" y="303.64" style="stroke: #000000; stroke-width: 0.8"/>
      </g>
     </g>
     <g id="text_9">
      <!-- 1.00 -->
      <g transform="translate(420.585824 318.238437)scale(0.1 -0.1)">
       <use xlink:href="#DejaVuSans-31"/>
       <use xlink:href="#DejaVuSans-2e" x="63.623047"/>
       <use xlink:href="#DejaVuSans-30" x="95.410156"/>
       <use xlink:href="#DejaVuSans-30" x="159.033203"/>
      </g>
     </g>
    </g>
    <g id="text_10">
     <!-- x -->
     <g transform="translate(245.945625 331.916562)scale(0.1 -0.1)">
      <defs>
       <path id="DejaVuSans-78" d="M 3513 3500 
L 2247 1797 
L 3578 0 
L 2900 0 
L 1881 1375 
L 863 0 
L 184 0 
L 1544 1831 
L 300 3500 
L 978 3500 
L 1906 2253 
L 2834 3500 
L 3513 3500 
z
" transform="scale(0.015625)"/>
      </defs>
      <use xlink:href="#DejaVuSans-78"/>
     </g>
    </g>
   </g>
   <g id="matplotlib.axis_2">
    <g id="ytick_1">
     <g id="line2d_10">
      <defs>
       <path id="ma437c53ed3" d="M 0 0 
L -3.5 0 
" style="stroke: #000000; stroke-width: 0.8"/>
      </defs>
      <g>
       <use xlink:href="#ma437c53ed3" x="47.81" y="286.775222" style="stroke: #000000; stroke-width: 0.8"/>
      </g>
     </g>
     <g id="text_11">
      <!-- 2.0 -->
      <g transform="translate(24.906875 290.574441)scale(0.1 -0.1)">
       <use xlink:href="#DejaVuSans-32"/>
       <use xlink:href="#DejaVuSans-2e" x="63.623047"/>
       <use xlink:href="#DejaVuSans-30" x="95.410156"/>
      </g>
     </g>
    </g>
    <g id="ytick_2">
     <g id="line2d_11">
      <g>
       <use xlink:href="#ma437c53ed3" x="47.81" y="261.796529" style="stroke: #000000; stroke-width: 0.8"/>
      </g>
     </g>
     <g id="text_12">
      <!-- 2.2 -->
      <g transform="translate(24.906875 265.595747)scale(0.1 -0.1)">
       <use xlink:href="#DejaVuSans-32"/>
       <use xlink:href="#DejaVuSans-2e" x="63.623047"/>
       <use xlink:href="#DejaVuSans-32" x="95.410156"/>
      </g>
     </g>
    </g>
    <g id="ytick_3">
     <g id="line2d_12">
      <g>
       <use xlink:href="#ma437c53ed3" x="47.81" y="236.817835" style="stroke: #000000; stroke-width: 0.8"/>
      </g>
     </g>
     <g id="text_13">
      <!-- 2.4 -->
      <g transform="translate(24.906875 240.617054)scale(0.1 -0.1)">
       <defs>
        <path id="DejaVuSans-34" d="M 2419 4116 
L 825 1625 
L 2419 1625 
L 2419 4116 
z
M 2253 4666 
L 3047 4666 
L 3047 1625 
L 3713 1625 
L 3713 1100 
L 3047 1100 
L 3047 0 
L 2419 0 
L 2419 1100 
L 313 1100 
L 313 1709 
L 2253 4666 
z
" transform="scale(0.015625)"/>
       </defs>
       <use xlink:href="#DejaVuSans-32"/>
       <use xlink:href="#DejaVuSans-2e" x="63.623047"/>
       <use xlink:href="#DejaVuSans-34" x="95.410156"/>
      </g>
     </g>
    </g>
    <g id="ytick_4">
     <g id="line2d_13">
      <g>
       <use xlink:href="#ma437c53ed3" x="47.81" y="211.839142" style="stroke: #000000; stroke-width: 0.8"/>
      </g>
     </g>
     <g id="text_14">
      <!-- 2.6 -->
      <g transform="translate(24.906875 215.638361)scale(0.1 -0.1)">
       <defs>
        <path id="DejaVuSans-36" d="M 2113 2584 
Q 1688 2584 1439 2293 
Q 1191 2003 1191 1497 
Q 1191 994 1439 701 
Q 1688 409 2113 409 
Q 2538 409 2786 701 
Q 3034 994 3034 1497 
Q 3034 2003 2786 2293 
Q 2538 2584 2113 2584 
z
M 3366 4563 
L 3366 3988 
Q 3128 4100 2886 4159 
Q 2644 4219 2406 4219 
Q 1781 4219 1451 3797 
Q 1122 3375 1075 2522 
Q 1259 2794 1537 2939 
Q 1816 3084 2150 3084 
Q 2853 3084 3261 2657 
Q 3669 2231 3669 1497 
Q 3669 778 3244 343 
Q 2819 -91 2113 -91 
Q 1303 -91 875 529 
Q 447 1150 447 2328 
Q 447 3434 972 4092 
Q 1497 4750 2381 4750 
Q 2619 4750 2861 4703 
Q 3103 4656 3366 4563 
z
" transform="scale(0.015625)"/>
       </defs>
       <use xlink:href="#DejaVuSans-32"/>
       <use xlink:href="#DejaVuSans-2e" x="63.623047"/>
       <use xlink:href="#DejaVuSans-36" x="95.410156"/>
      </g>
     </g>
    </g>
    <g id="ytick_5">
     <g id="line2d_14">
      <g>
       <use xlink:href="#ma437c53ed3" x="47.81" y="186.860449" style="stroke: #000000; stroke-width: 0.8"/>
      </g>
     </g>
     <g id="text_15">
      <!-- 2.8 -->
      <g transform="translate(24.906875 190.659668)scale(0.1 -0.1)">
       <defs>
        <path id="DejaVuSans-38" d="M 2034 2216 
Q 1584 2216 1326 1975 
Q 1069 1734 1069 1313 
Q 1069 891 1326 650 
Q 1584 409 2034 409 
Q 2484 409 2743 651 
Q 3003 894 3003 1313 
Q 3003 1734 2745 1975 
Q 2488 2216 2034 2216 
z
M 1403 2484 
Q 997 2584 770 2862 
Q 544 3141 544 3541 
Q 544 4100 942 4425 
Q 1341 4750 2034 4750 
Q 2731 4750 3128 4425 
Q 3525 4100 3525 3541 
Q 3525 3141 3298 2862 
Q 3072 2584 2669 2484 
Q 3125 2378 3379 2068 
Q 3634 1759 3634 1313 
Q 3634 634 3220 271 
Q 2806 -91 2034 -91 
Q 1263 -91 848 271 
Q 434 634 434 1313 
Q 434 1759 690 2068 
Q 947 2378 1403 2484 
z
M 1172 3481 
Q 1172 3119 1398 2916 
Q 1625 2713 2034 2713 
Q 2441 2713 2670 2916 
Q 2900 3119 2900 3481 
Q 2900 3844 2670 4047 
Q 2441 4250 2034 4250 
Q 1625 4250 1398 4047 
Q 1172 3844 1172 3481 
z
" transform="scale(0.015625)"/>
       </defs>
       <use xlink:href="#DejaVuSans-32"/>
       <use xlink:href="#DejaVuSans-2e" x="63.623047"/>
       <use xlink:href="#DejaVuSans-38" x="95.410156"/>
      </g>
     </g>
    </g>
    <g id="ytick_6">
     <g id="line2d_15">
      <g>
       <use xlink:href="#ma437c53ed3" x="47.81" y="161.881755" style="stroke: #000000; stroke-width: 0.8"/>
      </g>
     </g>
     <g id="text_16">
      <!-- 3.0 -->
      <g transform="translate(24.906875 165.680974)scale(0.1 -0.1)">
       <defs>
        <path id="DejaVuSans-33" d="M 2597 2516 
Q 3050 2419 3304 2112 
Q 3559 1806 3559 1356 
Q 3559 666 3084 287 
Q 2609 -91 1734 -91 
Q 1441 -91 1130 -33 
Q 819 25 488 141 
L 488 750 
Q 750 597 1062 519 
Q 1375 441 1716 441 
Q 2309 441 2620 675 
Q 2931 909 2931 1356 
Q 2931 1769 2642 2001 
Q 2353 2234 1838 2234 
L 1294 2234 
L 1294 2753 
L 1863 2753 
Q 2328 2753 2575 2939 
Q 2822 3125 2822 3475 
Q 2822 3834 2567 4026 
Q 2313 4219 1838 4219 
Q 1578 4219 1281 4162 
Q 984 4106 628 3988 
L 628 4550 
Q 988 4650 1302 4700 
Q 1616 4750 1894 4750 
Q 2613 4750 3031 4423 
Q 3450 4097 3450 3541 
Q 3450 3153 3228 2886 
Q 3006 2619 2597 2516 
z
" transform="scale(0.015625)"/>
       </defs>
       <use xlink:href="#DejaVuSans-33"/>
       <use xlink:href="#DejaVuSans-2e" x="63.623047"/>
       <use xlink:href="#DejaVuSans-30" x="95.410156"/>
      </g>
     </g>
    </g>
    <g id="text_17">
     <!-- f(x) -->
     <g transform="translate(18.827188 229.869094)rotate(-90)scale(0.1 -0.1)">
      <defs>
       <path id="DejaVuSans-66" d="M 2375 4863 
L 2375 4384 
L 1825 4384 
Q 1516 4384 1395 4259 
Q 1275 4134 1275 3809 
L 1275 3500 
L 2222 3500 
L 2222 3053 
L 1275 3053 
L 1275 0 
L 697 0 
L 697 3053 
L 147 3053 
L 147 3500 
L 697 3500 
L 697 3744 
Q 697 4328 969 4595 
Q 1241 4863 1831 4863 
L 2375 4863 
z
" transform="scale(0.015625)"/>
       <path id="DejaVuSans-28" d="M 1984 4856 
Q 1566 4138 1362 3434 
Q 1159 2731 1159 2009 
Q 1159 1288 1364 580 
Q 1569 -128 1984 -844 
L 1484 -844 
Q 1016 -109 783 600 
Q 550 1309 550 2009 
Q 550 2706 781 3412 
Q 1013 4119 1484 4856 
L 1984 4856 
z
" transform="scale(0.015625)"/>
       <path id="DejaVuSans-29" d="M 513 4856 
L 1013 4856 
Q 1481 4119 1714 3412 
Q 1947 2706 1947 2009 
Q 1947 1309 1714 600 
Q 1481 -109 1013 -844 
L 513 -844 
Q 928 -128 1133 580 
Q 1338 1288 1338 2009 
Q 1338 2731 1133 3434 
Q 928 4138 513 4856 
z
" transform="scale(0.015625)"/>
      </defs>
      <use xlink:href="#DejaVuSans-66"/>
      <use xlink:href="#DejaVuSans-28" x="35.205078"/>
      <use xlink:href="#DejaVuSans-78" x="74.21875"/>
      <use xlink:href="#DejaVuSans-29" x="133.398438"/>
     </g>
    </g>
   </g>
   <g id="line2d_16">
    <path d="M 66.091364 286.775222 
L 103.056684 286.689078 
L 104.520657 286.505252 
L 105.618636 286.178756 
L 106.350623 285.793785 
L 107.082609 285.199244 
L 107.814596 284.305495 
L 108.546582 282.998118 
L 109.278569 281.137808 
L 110.010556 278.563917 
L 110.742542 275.102945 
L 111.474529 270.58286 
L 112.206515 264.853431 
L 113.304495 253.786095 
L 114.402475 239.781388 
L 115.866448 217.612269 
L 118.062407 183.924692 
L 118.794394 174.967126 
L 119.52638 168.157071 
L 120.258367 163.963386 
L 120.62436 162.948621 
L 120.990354 162.684168 
L 121.356347 163.174846 
L 121.72234 164.411719 
L 122.088333 166.372362 
L 122.82032 172.312257 
L 123.552306 180.58015 
L 124.650286 196.116542 
L 127.944226 246.189276 
L 129.042205 258.953656 
L 130.140185 268.721668 
L 130.872172 273.649773 
L 131.604158 277.462496 
L 132.336145 280.326841 
L 133.068131 282.417739 
L 133.800118 283.901585 
L 134.532104 284.925786 
L 135.264091 285.613619 
L 135.996077 286.063211 
L 137.094057 286.448802 
L 138.55803 286.669272 
L 141.119983 286.775222 
L 175.52335 286.775222 
L 175.889343 161.881755 
L 212.122677 161.881755 
L 212.48867 286.775222 
L 248.722003 286.775222 
L 249.087997 285.525037 
L 267.021667 163.006922 
L 267.38766 163.256959 
L 285.32133 285.775074 
L 285.687323 286.775222 
L 321.920657 286.775222 
L 322.28665 265.556865 
L 323.38463 240.74431 
L 324.116616 229.390433 
L 325.214596 216.641806 
L 326.312576 206.651876 
L 327.410556 198.434987 
L 328.508535 191.51937 
L 329.972508 183.868227 
L 331.436481 177.665811 
L 332.900455 172.673708 
L 333.998434 169.628776 
L 335.096414 167.131161 
L 336.194394 165.14699 
L 337.292374 163.651335 
L 338.390354 162.626474 
L 339.12234 162.198807 
L 339.854327 161.97299 
L 340.586313 161.947924 
L 341.3183 162.123489 
L 342.050286 162.500536 
L 342.782273 163.080916 
L 343.880253 164.339359 
L 344.978232 166.076639 
L 346.076212 168.313907 
L 347.174192 171.080296 
L 348.272172 174.415082 
L 349.370152 178.371024 
L 350.468131 183.019667 
L 351.566111 188.460124 
L 352.664091 194.834558 
L 353.762071 202.3579 
L 354.860051 211.382414 
L 355.95803 222.568417 
L 356.690017 231.928787 
L 357.422003 244.319508 
L 358.519983 272.583791 
L 358.885976 286.775222 
L 431.718636 286.775222 
L 431.718636 286.775222 
" clip-path="url(#paffbb0bf25)" style="fill: none; stroke: #000000; stroke-width: 1.5; stroke-linecap: square"/>
   </g>
   <g id="line2d_17">
    <path d="M 70.778893 285.61156 
L 80.153951 289.893854 
L 89.529009 291.084152 
L 98.904068 278.047495 
L 108.279126 254.590822 
L 117.654184 237.872263 
L 127.029242 242.918738 
L 136.404301 264.030141 
L 145.779359 281.443523 
L 155.154417 285.609523 
L 164.529476 285.298187 
L 173.904534 246.418965 
L 183.279592 165.663473 
L 192.65465 165.671135 
L 202.029709 166.791885 
L 211.404767 217.443866 
L 220.779825 272.406742 
L 230.154883 272.070691 
L 239.529942 268.09271 
L 248.905 258.580218 
L 258.280058 248.500314 
L 267.655117 245.536668 
L 277.030175 248.705704 
L 286.405233 256.567511 
L 295.780291 264.095649 
L 305.15535 263.846077 
L 314.530408 251.706313 
L 323.905466 233.481419 
L 333.280524 216.12658 
L 342.655583 209.424122 
L 352.030641 218.943226 
L 361.405699 239.226794 
L 370.780758 264.386697 
L 380.155816 284.492616 
L 389.530874 292.444983 
L 398.905932 290.727624 
L 408.280991 286.64275 
L 417.656049 285.266008 
L 427.031107 286.709222 
" clip-path="url(#paffbb0bf25)" style="fill: none; stroke: #008000; stroke-width: 1.5; stroke-linecap: square"/>
   </g>
   <g id="line2d_18">
    <path d="M 68.40546 286.734159 
L 73.033654 286.896865 
L 77.661847 286.938506 
L 82.29004 286.182386 
L 86.918234 285.434446 
L 91.546427 287.221551 
L 96.17462 291.589649 
L 100.802814 292.468292 
L 105.431007 281.238386 
L 110.0592 255.785442 
L 114.687394 225.66976 
L 119.315587 206.827219 
L 123.94378 209.859945 
L 128.571974 232.436167 
L 133.200167 261.833271 
L 137.82836 284.433412 
L 142.456554 293.987232 
L 147.084747 293.069197 
L 151.71294 288.422836 
L 156.341133 284.874773 
L 160.969327 283.514799 
L 165.59752 282.682748 
L 170.225713 280.312388 
L 174.853907 249.886265 
L 179.4821 167.790075 
L 184.110293 164.32922 
L 188.738487 163.972552 
L 193.36668 164.045791 
L 197.994873 164.155844 
L 202.623067 164.364437 
L 207.25126 166.055344 
L 211.879453 199.348653 
L 216.507647 281.509031 
L 221.13584 288.151988 
L 225.764033 290.006036 
L 230.392227 290.646389 
L 235.02042 291.012138 
L 239.648613 288.503514 
L 244.276807 280.468569 
L 248.905 265.549107 
L 253.533193 244.57325 
L 258.161387 222.182382 
L 262.78958 206.553583 
L 267.417773 203.00084 
L 272.045967 207.64395 
L 276.67416 223.511385 
L 281.302353 246.036965 
L 285.930547 266.294063 
L 290.55874 280.999703 
L 295.186933 289.784231 
L 299.815127 293.181574 
L 304.44332 292.71629 
L 309.071513 288.64146 
L 313.699707 279.610752 
L 318.3279 264.239267 
L 322.956093 242.409196 
L 327.584287 215.242778 
L 332.21248 187.369048 
L 336.840673 167.351241 
L 341.468867 162.628871 
L 346.09706 175.074438 
L 350.725253 199.996131 
L 355.353446 228.939041 
L 359.98164 254.432845 
L 364.609833 274.110973 
L 369.238026 286.585178 
L 373.86622 291.534568 
L 378.494413 290.905056 
L 383.122606 288.020276 
L 387.7508 285.821657 
L 392.378993 285.43237 
L 397.007186 286.156945 
L 401.63538 286.845803 
L 406.263573 287.029885 
L 410.891766 286.901836 
L 415.51996 286.759683 
L 420.148153 286.725645 
L 424.776346 286.768335 
L 429.40454 286.786464 
" clip-path="url(#paffbb0bf25)" style="fill: none; stroke: #ff0000; stroke-width: 1.5; stroke-linecap: square"/>
   </g>
   <g id="line2d_19">
    <path d="M 68.40546 286.775222 
L 73.033654 286.775222 
L 77.661847 286.775216 
L 82.29004 286.77474 
L 86.918234 286.727628 
L 91.546427 286.339563 
L 96.17462 284.367943 
L 100.802814 277.490773 
L 105.431007 265.375214 
L 110.0592 250.98006 
L 114.687394 240.819179 
L 119.315587 239.502456 
L 123.94378 240.156512 
L 128.571974 244.684088 
L 133.200167 254.977833 
L 137.82836 267.882182 
L 142.456554 279.028094 
L 147.084747 283.321664 
L 151.71294 283.583367 
L 156.341133 283.202171 
L 160.969327 280.064444 
L 165.59752 269.148989 
L 170.225713 250.459172 
L 174.853907 226.749616 
L 179.4821 202.568681 
L 184.110293 184.242178 
L 188.738487 177.935909 
L 193.36668 177.403721 
L 197.994873 177.871025 
L 202.623067 183.039755 
L 207.25126 198.133028 
L 211.879453 219.933084 
L 216.507647 243.931655 
L 221.13584 264.240955 
L 225.764033 275.116487 
L 230.392227 277.179302 
L 235.02042 277.299381 
L 239.648613 276.285394 
L 244.276807 269.61719 
L 248.905 257.511231 
L 253.533193 243.831652 
L 258.161387 233.093361 
L 262.78958 228.951665 
L 267.417773 228.467647 
L 272.045967 228.803202 
L 276.67416 233.294345 
L 281.302353 244.44253 
L 285.930547 258.251787 
L 290.55874 270.543669 
L 295.186933 277.464402 
L 299.815127 278.886437 
L 304.44332 278.955261 
L 309.071513 277.853179 
L 313.699707 269.71331 
L 318.3279 253.739341 
L 322.956093 233.912457 
L 327.584287 214.932621 
L 332.21248 202.088404 
L 336.840673 198.211504 
L 341.468867 197.873134 
L 346.09706 198.707072 
L 350.725253 205.90733 
L 355.353446 221.946861 
L 359.98164 241.733584 
L 364.609833 260.717547 
L 369.238026 275.450104 
L 373.86622 284.060226 
L 378.494413 286.424202 
L 383.122606 286.732638 
L 387.7508 286.770245 
L 392.378993 286.774616 
L 397.007186 286.775145 
L 401.63538 286.775213 
L 406.263573 286.775221 
L 410.891766 286.775222 
L 415.51996 286.775222 
L 420.148153 286.775222 
L 424.776346 286.775222 
L 429.40454 286.775222 
" clip-path="url(#paffbb0bf25)" style="fill: none; stroke: #ffff00; stroke-width: 1.5; stroke-linecap: square"/>
   </g>
   <g id="line2d_20">
    <path d="M 68.40546 286.734159 
L 73.033654 286.896866 
L 77.661847 286.938511 
L 82.29004 286.182375 
L 86.918234 285.434413 
L 91.546427 287.221698 
L 96.17462 291.58945 
L 100.802814 292.468631 
L 105.431007 281.237086 
L 110.0592 255.788351 
L 114.687394 225.669939 
L 119.315587 206.813854 
L 123.94378 209.866825 
L 128.571974 232.479932 
L 133.200167 261.844306 
L 137.82836 284.344246 
L 142.456554 293.883093 
L 147.084747 293.164818 
L 151.71294 288.87967 
L 156.341133 285.971169 
L 160.969327 285.42167 
L 165.59752 285.784898 
L 170.225713 285.918757 
L 174.853907 249.159287 
L 179.4821 162.120551 
L 184.110293 162.120521 
L 188.738487 162.128926 
L 193.36668 162.190257 
L 197.994873 162.28506 
L 202.623067 162.360198 
L 207.25126 162.427493 
L 211.879453 204.189576 
L 216.507647 285.396264 
L 221.13584 288.048511 
L 225.764033 289.217463 
L 230.392227 290.161469 
L 235.02042 290.932739 
L 239.648613 288.697361 
L 244.276807 280.646898 
L 248.905 265.619907 
L 253.533193 244.570879 
L 258.161387 222.158402 
L 262.78958 206.546037 
L 267.417773 203.001768 
L 272.045967 207.64566 
L 276.67416 223.512641 
L 281.302353 246.0372 
L 285.930547 266.293834 
L 290.55874 280.999262 
L 295.186933 289.783895 
L 299.815127 293.181515 
L 304.44332 292.716391 
L 309.071513 288.641543 
L 313.699707 279.610764 
L 318.3279 264.239247 
L 322.956093 242.409178 
L 327.584287 215.242772 
L 332.21248 187.36905 
L 336.840673 167.351243 
L 341.468867 162.628871 
L 346.09706 175.074437 
L 350.725253 199.99613 
L 355.353446 228.939041 
L 359.98164 254.432845 
L 364.609833 274.110973 
L 369.238026 286.585178 
L 373.86622 291.534568 
L 378.494413 290.905056 
L 383.122606 288.020276 
L 387.7508 285.821657 
L 392.378993 285.43237 
L 397.007186 286.156945 
L 401.63538 286.845803 
L 406.263573 287.029885 
L 410.891766 286.901836 
L 415.51996 286.759683 
L 420.148153 286.725645 
L 424.776346 286.768335 
L 429.40454 286.786464 
" clip-path="url(#paffbb0bf25)" style="fill: none; stroke: #0000ff; stroke-width: 1.5; stroke-linecap: square"/>
   </g>
   <g id="line2d_21">
    <path d="M 68.40546 286.734175 
L 73.033654 286.896814 
L 77.661847 286.938433 
L 82.29004 286.182909 
L 86.918234 285.434815 
L 91.546427 287.218642 
L 96.17462 291.586118 
L 100.802814 292.479324 
L 105.431007 281.259407 
L 110.0592 255.772851 
L 114.687394 225.579936 
L 119.315587 206.749176 
L 123.94378 210.039573 
L 128.571974 232.903588 
L 133.200167 262.024523 
L 137.82836 283.542069 
L 142.456554 292.083365 
L 147.084747 291.892858 
L 151.71294 290.580669 
L 156.341133 291.613702 
L 160.969327 291.593878 
L 165.59752 283.692248 
L 170.225713 263.671175 
L 174.853907 233.504922 
L 179.4821 200.239997 
L 184.110293 171.771517 
L 188.738487 153.233037 
L 193.36668 146.346182 
L 197.994873 151.014568 
L 202.623067 166.656411 
L 207.25126 191.74638 
L 211.879453 222.487696 
L 216.507647 252.802391 
L 221.13584 276.585167 
L 225.764033 290.708373 
L 230.392227 296.149818 
L 235.02042 296.080265 
L 239.648613 292.48602 
L 244.276807 284.337644 
L 248.905 269.059302 
L 253.533193 246.173119 
L 258.161387 219.995592 
L 262.78958 198.854769 
L 267.417773 190.97443 
L 272.045967 199.763468 
L 276.67416 221.757502 
L 281.302353 248.589975 
L 285.930547 271.601171 
L 290.55874 286.035773 
L 295.186933 292.29186 
L 299.815127 293.834916 
L 304.44332 293.588329 
L 309.071513 291.397631 
L 313.699707 284.176644 
L 318.3279 268.428747 
L 322.956093 243.34055 
L 327.584287 212.452364 
L 332.21248 182.935946 
L 336.840673 162.933421 
L 341.468867 158.352384 
L 346.09706 170.591991 
L 350.725253 196.084778 
L 355.353446 227.716105 
L 359.98164 257.472524 
L 364.609833 279.242136 
L 369.238026 290.643894 
L 373.86622 293.170097 
L 378.494413 290.706906 
L 383.122606 287.303256 
L 387.7508 285.401918 
L 392.378993 285.362138 
L 397.007186 286.226356 
L 401.63538 286.933221 
L 406.263573 287.08081 
L 410.891766 286.894431 
L 415.51996 286.734348 
L 420.148153 286.72458 
L 424.776346 286.772627 
L 429.40454 286.785698 
" clip-path="url(#paffbb0bf25)" style="fill: none; stroke: #800080; stroke-width: 1.5; stroke-linecap: square"/>
   </g>
   <g id="patch_3">
    <path d="M 47.81 303.64 
L 47.81 138.856 
" style="fill: none; stroke: #000000; stroke-width: 0.8; stroke-linejoin: miter; stroke-linecap: square"/>
   </g>
   <g id="patch_4">
    <path d="M 450 303.64 
L 450 138.856 
" style="fill: none; stroke: #000000; stroke-width: 0.8; stroke-linejoin: miter; stroke-linecap: square"/>
   </g>
   <g id="patch_5">
    <path d="M 47.81 303.64 
L 450 303.64 
" style="fill: none; stroke: #000000; stroke-width: 0.8; stroke-linejoin: miter; stroke-linecap: square"/>
   </g>
   <g id="patch_6">
    <path d="M 47.81 138.856 
L 450 138.856 
" style="fill: none; stroke: #000000; stroke-width: 0.8; stroke-linejoin: miter; stroke-linecap: square"/>
   </g>
   <g id="legend_1">
    <g id="patch_7">
     <path d="M 142.5925 153.629625 
L 355.2175 153.629625 
Q 357.2175 153.629625 357.2175 151.629625 
L 357.2175 63.464 
Q 357.2175 61.464 355.2175 61.464 
L 142.5925 61.464 
Q 140.5925 61.464 140.5925 63.464 
L 140.5925 151.629625 
Q 140.5925 153.629625 142.5925 153.629625 
z
" style="fill: #ffffff; opacity: 0.8; stroke: #cccccc; stroke-linejoin: miter"/>
    </g>
    <g id="line2d_22">
     <path d="M 144.5925 69.562437 
L 154.5925 69.562437 
L 164.5925 69.562437 
" style="fill: none; stroke: #000000; stroke-width: 1.5; stroke-linecap: square"/>
    </g>
    <g id="text_18">
     <!-- Původní funkce -->
     <g transform="translate(172.5925 73.062437)scale(0.1 -0.1)">
      <defs>
       <path id="DejaVuSans-50" d="M 1259 4147 
L 1259 2394 
L 2053 2394 
Q 2494 2394 2734 2622 
Q 2975 2850 2975 3272 
Q 2975 3691 2734 3919 
Q 2494 4147 2053 4147 
L 1259 4147 
z
M 628 4666 
L 2053 4666 
Q 2838 4666 3239 4311 
Q 3641 3956 3641 3272 
Q 3641 2581 3239 2228 
Q 2838 1875 2053 1875 
L 1259 1875 
L 1259 0 
L 628 0 
L 628 4666 
z
" transform="scale(0.015625)"/>
       <path id="DejaVuSans-16f" d="M 544 1381 
L 544 3500 
L 1119 3500 
L 1119 1403 
Q 1119 906 1312 657 
Q 1506 409 1894 409 
Q 2359 409 2629 706 
Q 2900 1003 2900 1516 
L 2900 3500 
L 3475 3500 
L 3475 0 
L 2900 0 
L 2900 538 
Q 2691 219 2414 64 
Q 2138 -91 1772 -91 
Q 1169 -91 856 284 
Q 544 659 544 1381 
z
M 1991 3584 
L 1991 3584 
z
M 2463 4575 
Q 2463 4771 2325 4908 
Q 2188 5046 1988 5046 
Q 1784 5046 1648 4910 
Q 1513 4775 1513 4575 
Q 1513 4371 1648 4235 
Q 1784 4100 1988 4100 
Q 2188 4100 2325 4237 
Q 2463 4375 2463 4575 
z
M 2844 4575 
Q 2844 4215 2595 3965 
Q 2347 3715 1988 3715 
Q 1628 3715 1379 3965 
Q 1131 4215 1131 4575 
Q 1131 4934 1379 5182 
Q 1628 5431 1988 5431 
Q 2347 5431 2595 5182 
Q 2844 4934 2844 4575 
z
" transform="scale(0.015625)"/>
       <path id="DejaVuSans-76" d="M 191 3500 
L 800 3500 
L 1894 563 
L 2988 3500 
L 3597 3500 
L 2284 0 
L 1503 0 
L 191 3500 
z
" transform="scale(0.015625)"/>
       <path id="DejaVuSans-6f" d="M 1959 3097 
Q 1497 3097 1228 2736 
Q 959 2375 959 1747 
Q 959 1119 1226 758 
Q 1494 397 1959 397 
Q 2419 397 2687 759 
Q 2956 1122 2956 1747 
Q 2956 2369 2687 2733 
Q 2419 3097 1959 3097 
z
M 1959 3584 
Q 2709 3584 3137 3096 
Q 3566 2609 3566 1747 
Q 3566 888 3137 398 
Q 2709 -91 1959 -91 
Q 1206 -91 779 398 
Q 353 888 353 1747 
Q 353 2609 779 3096 
Q 1206 3584 1959 3584 
z
" transform="scale(0.015625)"/>
       <path id="DejaVuSans-64" d="M 2906 2969 
L 2906 4863 
L 3481 4863 
L 3481 0 
L 2906 0 
L 2906 525 
Q 2725 213 2448 61 
Q 2172 -91 1784 -91 
Q 1150 -91 751 415 
Q 353 922 353 1747 
Q 353 2572 751 3078 
Q 1150 3584 1784 3584 
Q 2172 3584 2448 3432 
Q 2725 3281 2906 2969 
z
M 947 1747 
Q 947 1113 1208 752 
Q 1469 391 1925 391 
Q 2381 391 2643 752 
Q 2906 1113 2906 1747 
Q 2906 2381 2643 2742 
Q 2381 3103 1925 3103 
Q 1469 3103 1208 2742 
Q 947 2381 947 1747 
z
" transform="scale(0.015625)"/>
       <path id="DejaVuSans-6e" d="M 3513 2113 
L 3513 0 
L 2938 0 
L 2938 2094 
Q 2938 2591 2744 2837 
Q 2550 3084 2163 3084 
Q 1697 3084 1428 2787 
Q 1159 2491 1159 1978 
L 1159 0 
L 581 0 
L 581 3500 
L 1159 3500 
L 1159 2956 
Q 1366 3272 1645 3428 
Q 1925 3584 2291 3584 
Q 2894 3584 3203 3211 
Q 3513 2838 3513 2113 
z
" transform="scale(0.015625)"/>
       <path id="DejaVuSans-ed" d="M 1325 5119 
L 1947 5119 
L 928 3944 
L 450 3944 
L 1325 5119 
z
M 603 3500 
L 1178 3500 
L 1178 0 
L 603 0 
L 603 3500 
z
M 891 3584 
L 891 3584 
z
" transform="scale(0.015625)"/>
       <path id="DejaVuSans-20" transform="scale(0.015625)"/>
       <path id="DejaVuSans-75" d="M 544 1381 
L 544 3500 
L 1119 3500 
L 1119 1403 
Q 1119 906 1312 657 
Q 1506 409 1894 409 
Q 2359 409 2629 706 
Q 2900 1003 2900 1516 
L 2900 3500 
L 3475 3500 
L 3475 0 
L 2900 0 
L 2900 538 
Q 2691 219 2414 64 
Q 2138 -91 1772 -91 
Q 1169 -91 856 284 
Q 544 659 544 1381 
z
M 1991 3584 
L 1991 3584 
z
" transform="scale(0.015625)"/>
       <path id="DejaVuSans-6b" d="M 581 4863 
L 1159 4863 
L 1159 1991 
L 2875 3500 
L 3609 3500 
L 1753 1863 
L 3688 0 
L 2938 0 
L 1159 1709 
L 1159 0 
L 581 0 
L 581 4863 
z
" transform="scale(0.015625)"/>
       <path id="DejaVuSans-63" d="M 3122 3366 
L 3122 2828 
Q 2878 2963 2633 3030 
Q 2388 3097 2138 3097 
Q 1578 3097 1268 2742 
Q 959 2388 959 1747 
Q 959 1106 1268 751 
Q 1578 397 2138 397 
Q 2388 397 2633 464 
Q 2878 531 3122 666 
L 3122 134 
Q 2881 22 2623 -34 
Q 2366 -91 2075 -91 
Q 1284 -91 818 406 
Q 353 903 353 1747 
Q 353 2603 823 3093 
Q 1294 3584 2113 3584 
Q 2378 3584 2631 3529 
Q 2884 3475 3122 3366 
z
" transform="scale(0.015625)"/>
       <path id="DejaVuSans-65" d="M 3597 1894 
L 3597 1613 
L 953 1613 
Q 991 1019 1311 708 
Q 1631 397 2203 397 
Q 2534 397 2845 478 
Q 3156 559 3463 722 
L 3463 178 
Q 3153 47 2828 -22 
Q 2503 -91 2169 -91 
Q 1331 -91 842 396 
Q 353 884 353 1716 
Q 353 2575 817 3079 
Q 1281 3584 2069 3584 
Q 2775 3584 3186 3129 
Q 3597 2675 3597 1894 
z
M 3022 2063 
Q 3016 2534 2758 2815 
Q 2500 3097 2075 3097 
Q 1594 3097 1305 2825 
Q 1016 2553 972 2059 
L 3022 2063 
z
" transform="scale(0.015625)"/>
      </defs>
      <use xlink:href="#DejaVuSans-50"/>
      <use xlink:href="#DejaVuSans-16f" x="58.552734"/>
      <use xlink:href="#DejaVuSans-76" x="121.931641"/>
      <use xlink:href="#DejaVuSans-6f" x="181.111328"/>
      <use xlink:href="#DejaVuSans-64" x="242.292969"/>
      <use xlink:href="#DejaVuSans-6e" x="305.769531"/>
      <use xlink:href="#DejaVuSans-ed" x="369.148438"/>
      <use xlink:href="#DejaVuSans-20" x="396.931641"/>
      <use xlink:href="#DejaVuSans-66" x="428.71875"/>
      <use xlink:href="#DejaVuSans-75" x="463.923828"/>
      <use xlink:href="#DejaVuSans-6e" x="527.302734"/>
      <use xlink:href="#DejaVuSans-6b" x="590.681641"/>
      <use xlink:href="#DejaVuSans-63" x="648.591797"/>
      <use xlink:href="#DejaVuSans-65" x="703.572266"/>
     </g>
    </g>
    <g id="line2d_23">
     <path d="M 144.5925 84.240562 
L 154.5925 84.240562 
L 164.5925 84.240562 
" style="fill: none; stroke: #008000; stroke-width: 1.5; stroke-linecap: square"/>
    </g>
    <g id="text_19">
     <!-- THINC10 -->
     <g transform="translate(172.5925 87.740562)scale(0.1 -0.1)">
      <defs>
       <path id="DejaVuSans-54" d="M -19 4666 
L 3928 4666 
L 3928 4134 
L 2272 4134 
L 2272 0 
L 1638 0 
L 1638 4134 
L -19 4134 
L -19 4666 
z
" transform="scale(0.015625)"/>
       <path id="DejaVuSans-48" d="M 628 4666 
L 1259 4666 
L 1259 2753 
L 3553 2753 
L 3553 4666 
L 4184 4666 
L 4184 0 
L 3553 0 
L 3553 2222 
L 1259 2222 
L 1259 0 
L 628 0 
L 628 4666 
z
" transform="scale(0.015625)"/>
       <path id="DejaVuSans-49" d="M 628 4666 
L 1259 4666 
L 1259 0 
L 628 0 
L 628 4666 
z
" transform="scale(0.015625)"/>
       <path id="DejaVuSans-4e" d="M 628 4666 
L 1478 4666 
L 3547 763 
L 3547 4666 
L 4159 4666 
L 4159 0 
L 3309 0 
L 1241 3903 
L 1241 0 
L 628 0 
L 628 4666 
z
" transform="scale(0.015625)"/>
       <path id="DejaVuSans-43" d="M 4122 4306 
L 4122 3641 
Q 3803 3938 3442 4084 
Q 3081 4231 2675 4231 
Q 1875 4231 1450 3742 
Q 1025 3253 1025 2328 
Q 1025 1406 1450 917 
Q 1875 428 2675 428 
Q 3081 428 3442 575 
Q 3803 722 4122 1019 
L 4122 359 
Q 3791 134 3420 21 
Q 3050 -91 2638 -91 
Q 1578 -91 968 557 
Q 359 1206 359 2328 
Q 359 3453 968 4101 
Q 1578 4750 2638 4750 
Q 3056 4750 3426 4639 
Q 3797 4528 4122 4306 
z
" transform="scale(0.015625)"/>
      </defs>
      <use xlink:href="#DejaVuSans-54"/>
      <use xlink:href="#DejaVuSans-48" x="61.083984"/>
      <use xlink:href="#DejaVuSans-49" x="136.279297"/>
      <use xlink:href="#DejaVuSans-4e" x="165.771484"/>
      <use xlink:href="#DejaVuSans-43" x="240.576172"/>
      <use xlink:href="#DejaVuSans-31" x="310.400391"/>
      <use xlink:href="#DejaVuSans-30" x="374.023438"/>
     </g>
    </g>
    <g id="line2d_24">
     <path d="M 144.5925 98.918687 
L 154.5925 98.918687 
L 164.5925 98.918687 
" style="fill: none; stroke: #ff0000; stroke-width: 1.5; stroke-linecap: square"/>
    </g>
    <g id="text_20">
     <!-- THINC5 -->
     <g transform="translate(172.5925 102.418687)scale(0.1 -0.1)">
      <use xlink:href="#DejaVuSans-54"/>
      <use xlink:href="#DejaVuSans-48" x="61.083984"/>
      <use xlink:href="#DejaVuSans-49" x="136.279297"/>
      <use xlink:href="#DejaVuSans-4e" x="165.771484"/>
      <use xlink:href="#DejaVuSans-43" x="240.576172"/>
      <use xlink:href="#DejaVuSans-35" x="310.400391"/>
     </g>
    </g>
    <g id="line2d_25">
     <path d="M 144.5925 113.918687 
L 154.5925 113.918687 
L 164.5925 113.918687 
" style="fill: none; stroke: #ffff00; stroke-width: 1.5; stroke-linecap: square"/>
    </g>
    <g id="text_21">
     <!-- Lineární rekonstrukce s BJ limiterem -->
     <g transform="translate(172.5925 117.418687)scale(0.1 -0.1)">
      <defs>
       <path id="DejaVuSans-4c" d="M 628 4666 
L 1259 4666 
L 1259 531 
L 3531 531 
L 3531 0 
L 628 0 
L 628 4666 
z
" transform="scale(0.015625)"/>
       <path id="DejaVuSans-69" d="M 603 3500 
L 1178 3500 
L 1178 0 
L 603 0 
L 603 3500 
z
M 603 4863 
L 1178 4863 
L 1178 4134 
L 603 4134 
L 603 4863 
z
" transform="scale(0.015625)"/>
       <path id="DejaVuSans-e1" d="M 2194 1759 
Q 1497 1759 1228 1600 
Q 959 1441 959 1056 
Q 959 750 1161 570 
Q 1363 391 1709 391 
Q 2188 391 2477 730 
Q 2766 1069 2766 1631 
L 2766 1759 
L 2194 1759 
z
M 3341 1997 
L 3341 0 
L 2766 0 
L 2766 531 
Q 2569 213 2275 61 
Q 1981 -91 1556 -91 
Q 1019 -91 701 211 
Q 384 513 384 1019 
Q 384 1609 779 1909 
Q 1175 2209 1959 2209 
L 2766 2209 
L 2766 2266 
Q 2766 2663 2505 2880 
Q 2244 3097 1772 3097 
Q 1472 3097 1187 3025 
Q 903 2953 641 2809 
L 641 3341 
Q 956 3463 1253 3523 
Q 1550 3584 1831 3584 
Q 2591 3584 2966 3190 
Q 3341 2797 3341 1997 
z
M 2291 5119 
L 2913 5119 
L 1894 3944 
L 1416 3944 
L 2291 5119 
z
" transform="scale(0.015625)"/>
       <path id="DejaVuSans-72" d="M 2631 2963 
Q 2534 3019 2420 3045 
Q 2306 3072 2169 3072 
Q 1681 3072 1420 2755 
Q 1159 2438 1159 1844 
L 1159 0 
L 581 0 
L 581 3500 
L 1159 3500 
L 1159 2956 
Q 1341 3275 1631 3429 
Q 1922 3584 2338 3584 
Q 2397 3584 2469 3576 
Q 2541 3569 2628 3553 
L 2631 2963 
z
" transform="scale(0.015625)"/>
       <path id="DejaVuSans-73" d="M 2834 3397 
L 2834 2853 
Q 2591 2978 2328 3040 
Q 2066 3103 1784 3103 
Q 1356 3103 1142 2972 
Q 928 2841 928 2578 
Q 928 2378 1081 2264 
Q 1234 2150 1697 2047 
L 1894 2003 
Q 2506 1872 2764 1633 
Q 3022 1394 3022 966 
Q 3022 478 2636 193 
Q 2250 -91 1575 -91 
Q 1294 -91 989 -36 
Q 684 19 347 128 
L 347 722 
Q 666 556 975 473 
Q 1284 391 1588 391 
Q 1994 391 2212 530 
Q 2431 669 2431 922 
Q 2431 1156 2273 1281 
Q 2116 1406 1581 1522 
L 1381 1569 
Q 847 1681 609 1914 
Q 372 2147 372 2553 
Q 372 3047 722 3315 
Q 1072 3584 1716 3584 
Q 2034 3584 2315 3537 
Q 2597 3491 2834 3397 
z
" transform="scale(0.015625)"/>
       <path id="DejaVuSans-74" d="M 1172 4494 
L 1172 3500 
L 2356 3500 
L 2356 3053 
L 1172 3053 
L 1172 1153 
Q 1172 725 1289 603 
Q 1406 481 1766 481 
L 2356 481 
L 2356 0 
L 1766 0 
Q 1100 0 847 248 
Q 594 497 594 1153 
L 594 3053 
L 172 3053 
L 172 3500 
L 594 3500 
L 594 4494 
L 1172 4494 
z
" transform="scale(0.015625)"/>
       <path id="DejaVuSans-42" d="M 1259 2228 
L 1259 519 
L 2272 519 
Q 2781 519 3026 730 
Q 3272 941 3272 1375 
Q 3272 1813 3026 2020 
Q 2781 2228 2272 2228 
L 1259 2228 
z
M 1259 4147 
L 1259 2741 
L 2194 2741 
Q 2656 2741 2882 2914 
Q 3109 3088 3109 3444 
Q 3109 3797 2882 3972 
Q 2656 4147 2194 4147 
L 1259 4147 
z
M 628 4666 
L 2241 4666 
Q 2963 4666 3353 4366 
Q 3744 4066 3744 3513 
Q 3744 3084 3544 2831 
Q 3344 2578 2956 2516 
Q 3422 2416 3680 2098 
Q 3938 1781 3938 1306 
Q 3938 681 3513 340 
Q 3088 0 2303 0 
L 628 0 
L 628 4666 
z
" transform="scale(0.015625)"/>
       <path id="DejaVuSans-4a" d="M 628 4666 
L 1259 4666 
L 1259 325 
Q 1259 -519 939 -900 
Q 619 -1281 -91 -1281 
L -331 -1281 
L -331 -750 
L -134 -750 
Q 284 -750 456 -515 
Q 628 -281 628 325 
L 628 4666 
z
" transform="scale(0.015625)"/>
       <path id="DejaVuSans-6c" d="M 603 4863 
L 1178 4863 
L 1178 0 
L 603 0 
L 603 4863 
z
" transform="scale(0.015625)"/>
       <path id="DejaVuSans-6d" d="M 3328 2828 
Q 3544 3216 3844 3400 
Q 4144 3584 4550 3584 
Q 5097 3584 5394 3201 
Q 5691 2819 5691 2113 
L 5691 0 
L 5113 0 
L 5113 2094 
Q 5113 2597 4934 2840 
Q 4756 3084 4391 3084 
Q 3944 3084 3684 2787 
Q 3425 2491 3425 1978 
L 3425 0 
L 2847 0 
L 2847 2094 
Q 2847 2600 2669 2842 
Q 2491 3084 2119 3084 
Q 1678 3084 1418 2786 
Q 1159 2488 1159 1978 
L 1159 0 
L 581 0 
L 581 3500 
L 1159 3500 
L 1159 2956 
Q 1356 3278 1631 3431 
Q 1906 3584 2284 3584 
Q 2666 3584 2933 3390 
Q 3200 3197 3328 2828 
z
" transform="scale(0.015625)"/>
      </defs>
      <use xlink:href="#DejaVuSans-4c"/>
      <use xlink:href="#DejaVuSans-69" x="55.712891"/>
      <use xlink:href="#DejaVuSans-6e" x="83.496094"/>
      <use xlink:href="#DejaVuSans-65" x="146.875"/>
      <use xlink:href="#DejaVuSans-e1" x="208.398438"/>
      <use xlink:href="#DejaVuSans-72" x="269.677734"/>
      <use xlink:href="#DejaVuSans-6e" x="309.041016"/>
      <use xlink:href="#DejaVuSans-ed" x="372.419922"/>
      <use xlink:href="#DejaVuSans-20" x="400.203125"/>
      <use xlink:href="#DejaVuSans-72" x="431.990234"/>
      <use xlink:href="#DejaVuSans-65" x="470.853516"/>
      <use xlink:href="#DejaVuSans-6b" x="532.376953"/>
      <use xlink:href="#DejaVuSans-6f" x="586.662109"/>
      <use xlink:href="#DejaVuSans-6e" x="647.84375"/>
      <use xlink:href="#DejaVuSans-73" x="711.222656"/>
      <use xlink:href="#DejaVuSans-74" x="763.322266"/>
      <use xlink:href="#DejaVuSans-72" x="802.53125"/>
      <use xlink:href="#DejaVuSans-75" x="843.644531"/>
      <use xlink:href="#DejaVuSans-6b" x="907.023438"/>
      <use xlink:href="#DejaVuSans-63" x="964.933594"/>
      <use xlink:href="#DejaVuSans-65" x="1019.914062"/>
      <use xlink:href="#DejaVuSans-20" x="1081.4375"/>
      <use xlink:href="#DejaVuSans-73" x="1113.224609"/>
      <use xlink:href="#DejaVuSans-20" x="1165.324219"/>
      <use xlink:href="#DejaVuSans-42" x="1197.111328"/>
      <use xlink:href="#DejaVuSans-4a" x="1265.714844"/>
      <use xlink:href="#DejaVuSans-20" x="1295.207031"/>
      <use xlink:href="#DejaVuSans-6c" x="1326.994141"/>
      <use xlink:href="#DejaVuSans-69" x="1354.777344"/>
      <use xlink:href="#DejaVuSans-6d" x="1382.560547"/>
      <use xlink:href="#DejaVuSans-69" x="1479.972656"/>
      <use xlink:href="#DejaVuSans-74" x="1507.755859"/>
      <use xlink:href="#DejaVuSans-65" x="1546.964844"/>
      <use xlink:href="#DejaVuSans-72" x="1608.488281"/>
      <use xlink:href="#DejaVuSans-65" x="1647.351562"/>
      <use xlink:href="#DejaVuSans-6d" x="1708.875"/>
     </g>
    </g>
    <g id="line2d_26">
     <path d="M 144.5925 128.996812 
L 154.5925 128.996812 
L 164.5925 128.996812 
" style="fill: none; stroke: #0000ff; stroke-width: 1.5; stroke-linecap: square"/>
    </g>
    <g id="text_22">
     <!-- Rekonstrukce nespojitou funkcí -->
     <g transform="translate(172.5925 132.496812)scale(0.1 -0.1)">
      <defs>
       <path id="DejaVuSans-52" d="M 2841 2188 
Q 3044 2119 3236 1894 
Q 3428 1669 3622 1275 
L 4263 0 
L 3584 0 
L 2988 1197 
Q 2756 1666 2539 1819 
Q 2322 1972 1947 1972 
L 1259 1972 
L 1259 0 
L 628 0 
L 628 4666 
L 2053 4666 
Q 2853 4666 3247 4331 
Q 3641 3997 3641 3322 
Q 3641 2881 3436 2590 
Q 3231 2300 2841 2188 
z
M 1259 4147 
L 1259 2491 
L 2053 2491 
Q 2509 2491 2742 2702 
Q 2975 2913 2975 3322 
Q 2975 3731 2742 3939 
Q 2509 4147 2053 4147 
L 1259 4147 
z
" transform="scale(0.015625)"/>
       <path id="DejaVuSans-70" d="M 1159 525 
L 1159 -1331 
L 581 -1331 
L 581 3500 
L 1159 3500 
L 1159 2969 
Q 1341 3281 1617 3432 
Q 1894 3584 2278 3584 
Q 2916 3584 3314 3078 
Q 3713 2572 3713 1747 
Q 3713 922 3314 415 
Q 2916 -91 2278 -91 
Q 1894 -91 1617 61 
Q 1341 213 1159 525 
z
M 3116 1747 
Q 3116 2381 2855 2742 
Q 2594 3103 2138 3103 
Q 1681 3103 1420 2742 
Q 1159 2381 1159 1747 
Q 1159 1113 1420 752 
Q 1681 391 2138 391 
Q 2594 391 2855 752 
Q 3116 1113 3116 1747 
z
" transform="scale(0.015625)"/>
       <path id="DejaVuSans-6a" d="M 603 3500 
L 1178 3500 
L 1178 -63 
Q 1178 -731 923 -1031 
Q 669 -1331 103 -1331 
L -116 -1331 
L -116 -844 
L 38 -844 
Q 366 -844 484 -692 
Q 603 -541 603 -63 
L 603 3500 
z
M 603 4863 
L 1178 4863 
L 1178 4134 
L 603 4134 
L 603 4863 
z
" transform="scale(0.015625)"/>
      </defs>
      <use xlink:href="#DejaVuSans-52"/>
      <use xlink:href="#DejaVuSans-65" x="64.982422"/>
      <use xlink:href="#DejaVuSans-6b" x="126.505859"/>
      <use xlink:href="#DejaVuSans-6f" x="180.791016"/>
      <use xlink:href="#DejaVuSans-6e" x="241.972656"/>
      <use xlink:href="#DejaVuSans-73" x="305.351562"/>
      <use xlink:href="#DejaVuSans-74" x="357.451172"/>
      <use xlink:href="#DejaVuSans-72" x="396.660156"/>
      <use xlink:href="#DejaVuSans-75" x="437.773438"/>
      <use xlink:href="#DejaVuSans-6b" x="501.152344"/>
      <use xlink:href="#DejaVuSans-63" x="559.0625"/>
      <use xlink:href="#DejaVuSans-65" x="614.042969"/>
      <use xlink:href="#DejaVuSans-20" x="675.566406"/>
      <use xlink:href="#DejaVuSans-6e" x="707.353516"/>
      <use xlink:href="#DejaVuSans-65" x="770.732422"/>
      <use xlink:href="#DejaVuSans-73" x="832.255859"/>
      <use xlink:href="#DejaVuSans-70" x="884.355469"/>
      <use xlink:href="#DejaVuSans-6f" x="947.832031"/>
      <use xlink:href="#DejaVuSans-6a" x="1009.013672"/>
      <use xlink:href="#DejaVuSans-69" x="1036.796875"/>
      <use xlink:href="#DejaVuSans-74" x="1064.580078"/>
      <use xlink:href="#DejaVuSans-6f" x="1103.789062"/>
      <use xlink:href="#DejaVuSans-75" x="1164.970703"/>
      <use xlink:href="#DejaVuSans-20" x="1228.349609"/>
      <use xlink:href="#DejaVuSans-66" x="1260.136719"/>
      <use xlink:href="#DejaVuSans-75" x="1295.341797"/>
      <use xlink:href="#DejaVuSans-6e" x="1358.720703"/>
      <use xlink:href="#DejaVuSans-6b" x="1422.099609"/>
      <use xlink:href="#DejaVuSans-63" x="1480.009766"/>
      <use xlink:href="#DejaVuSans-ed" x="1534.990234"/>
     </g>
    </g>
    <g id="line2d_27">
     <path d="M 144.5925 144.049937 
L 154.5925 144.049937 
L 164.5925 144.049937 
" style="fill: none; stroke: #800080; stroke-width: 1.5; stroke-linecap: square"/>
    </g>
    <g id="text_23">
     <!-- Rekonstrukce polynomem 4. stupně -->
     <g transform="translate(172.5925 147.549937)scale(0.1 -0.1)">
      <defs>
       <path id="DejaVuSans-79" d="M 2059 -325 
Q 1816 -950 1584 -1140 
Q 1353 -1331 966 -1331 
L 506 -1331 
L 506 -850 
L 844 -850 
Q 1081 -850 1212 -737 
Q 1344 -625 1503 -206 
L 1606 56 
L 191 3500 
L 800 3500 
L 1894 763 
L 2988 3500 
L 3597 3500 
L 2059 -325 
z
" transform="scale(0.015625)"/>
       <path id="DejaVuSans-11b" d="M 3597 1894 
L 3597 1613 
L 953 1613 
Q 991 1019 1311 708 
Q 1631 397 2203 397 
Q 2534 397 2845 478 
Q 3156 559 3463 722 
L 3463 178 
Q 3153 47 2828 -22 
Q 2503 -91 2169 -91 
Q 1331 -91 842 396 
Q 353 884 353 1716 
Q 353 2575 817 3079 
Q 1281 3584 2069 3584 
Q 2775 3584 3186 3129 
Q 3597 2675 3597 1894 
z
M 3022 2063 
Q 3016 2534 2758 2815 
Q 2500 3097 2075 3097 
Q 1594 3097 1305 2825 
Q 1016 2553 972 2059 
L 3022 2063 
z
M 1831 3928 
L 1066 5103 
L 1500 5103 
L 2063 4337 
L 2625 5103 
L 3059 5103 
L 2294 3928 
L 1831 3928 
z
" transform="scale(0.015625)"/>
      </defs>
      <use xlink:href="#DejaVuSans-52"/>
      <use xlink:href="#DejaVuSans-65" x="64.982422"/>
      <use xlink:href="#DejaVuSans-6b" x="126.505859"/>
      <use xlink:href="#DejaVuSans-6f" x="180.791016"/>
      <use xlink:href="#DejaVuSans-6e" x="241.972656"/>
      <use xlink:href="#DejaVuSans-73" x="305.351562"/>
      <use xlink:href="#DejaVuSans-74" x="357.451172"/>
      <use xlink:href="#DejaVuSans-72" x="396.660156"/>
      <use xlink:href="#DejaVuSans-75" x="437.773438"/>
      <use xlink:href="#DejaVuSans-6b" x="501.152344"/>
      <use xlink:href="#DejaVuSans-63" x="559.0625"/>
      <use xlink:href="#DejaVuSans-65" x="614.042969"/>
      <use xlink:href="#DejaVuSans-20" x="675.566406"/>
      <use xlink:href="#DejaVuSans-70" x="707.353516"/>
      <use xlink:href="#DejaVuSans-6f" x="770.830078"/>
      <use xlink:href="#DejaVuSans-6c" x="832.011719"/>
      <use xlink:href="#DejaVuSans-79" x="859.794922"/>
      <use xlink:href="#DejaVuSans-6e" x="918.974609"/>
      <use xlink:href="#DejaVuSans-6f" x="982.353516"/>
      <use xlink:href="#DejaVuSans-6d" x="1043.535156"/>
      <use xlink:href="#DejaVuSans-65" x="1140.947266"/>
      <use xlink:href="#DejaVuSans-6d" x="1202.470703"/>
      <use xlink:href="#DejaVuSans-20" x="1299.882812"/>
      <use xlink:href="#DejaVuSans-34" x="1331.669922"/>
      <use xlink:href="#DejaVuSans-2e" x="1395.292969"/>
      <use xlink:href="#DejaVuSans-20" x="1427.080078"/>
      <use xlink:href="#DejaVuSans-73" x="1458.867188"/>
      <use xlink:href="#DejaVuSans-74" x="1510.966797"/>
      <use xlink:href="#DejaVuSans-75" x="1550.175781"/>
      <use xlink:href="#DejaVuSans-70" x="1613.554688"/>
      <use xlink:href="#DejaVuSans-6e" x="1677.03125"/>
      <use xlink:href="#DejaVuSans-11b" x="1740.410156"/>
     </g>
    </g>
   </g>
  </g>
 </g>
 <defs>
  <clipPath id="paffbb0bf25">
   <rect x="47.81" y="138.856" width="402.19" height="164.784"/>
  </clipPath>
 </defs>
</svg>
