<?xml version="1.0" encoding="utf-8" standalone="no"?>
<!DOCTYPE svg PUBLIC "-//W3C//DTD SVG 1.1//EN"
  "http://www.w3.org/Graphics/SVG/1.1/DTD/svg11.dtd">
<svg xmlns:xlink="http://www.w3.org/1999/xlink" width="460.8pt" height="345.6pt" viewBox="0 0 460.8 345.6" xmlns="http://www.w3.org/2000/svg" version="1.1">
 <metadata>
  <rdf:RDF xmlns:dc="http://purl.org/dc/elements/1.1/" xmlns:cc="http://creativecommons.org/ns#" xmlns:rdf="http://www.w3.org/1999/02/22-rdf-syntax-ns#">
   <cc:Work>
    <dc:type rdf:resource="http://purl.org/dc/dcmitype/StillImage"/>
    <dc:date>2023-08-02T12:45:59.412986</dc:date>
    <dc:format>image/svg+xml</dc:format>
    <dc:creator>
     <cc:Agent>
      <dc:title>Matplotlib v3.5.1, https://matplotlib.org/</dc:title>
     </cc:Agent>
    </dc:creator>
   </cc:Work>
  </rdf:RDF>
 </metadata>
 <defs>
  <style type="text/css">*{stroke-linejoin: round; stroke-linecap: butt}</style>
 </defs>
 <g id="figure_1">
  <g id="patch_1">
   <path d="M 0 345.6 
L 460.8 345.6 
L 460.8 0 
L 0 0 
z
" style="fill: #ffffff"/>
  </g>
  <g id="axes_1">
   <g id="patch_2">
    <path d="M 57.6 307.584 
L 414.72 307.584 
L 414.72 41.472 
L 57.6 41.472 
z
" style="fill: #ffffff"/>
   </g>
   <g id="PathCollection_1">
    <defs>
     <path id="m2747413501" d="M 0 3 
C 0.795609 3 1.55874 2.683901 2.12132 2.12132 
C 2.683901 1.55874 3 0.795609 3 0 
C 3 -0.795609 2.683901 -1.55874 2.12132 -2.12132 
C 1.55874 -2.683901 0.795609 -3 0 -3 
C -0.795609 -3 -1.55874 -2.683901 -2.12132 -2.12132 
C -2.683901 -1.55874 -3 -0.795609 -3 0 
C -3 0.795609 -2.683901 1.55874 -2.12132 2.12132 
C -1.55874 2.683901 -0.795609 3 0 3 
z
" style="stroke: #ff0000"/>
    </defs>
    <g clip-path="url(#p5e12ef5f2c)">
     <use xlink:href="#m2747413501" x="73.832727" y="295.488" style="fill: #ff0000; stroke: #ff0000"/>
    </g>
   </g>
   <g id="PathCollection_2">
    <g clip-path="url(#p5e12ef5f2c)">
     <use xlink:href="#m2747413501" x="73.832797" y="295.487756" style="fill: #ff0000; stroke: #ff0000"/>
    </g>
   </g>
   <g id="PathCollection_3">
    <g clip-path="url(#p5e12ef5f2c)">
     <use xlink:href="#m2747413501" x="73.832881" y="295.487461" style="fill: #ff0000; stroke: #ff0000"/>
    </g>
   </g>
   <g id="PathCollection_4">
    <g clip-path="url(#p5e12ef5f2c)">
     <use xlink:href="#m2747413501" x="73.832983" y="295.487104" style="fill: #ff0000; stroke: #ff0000"/>
    </g>
   </g>
   <g id="PathCollection_5">
    <g clip-path="url(#p5e12ef5f2c)">
     <use xlink:href="#m2747413501" x="73.833106" y="295.486672" style="fill: #ff0000; stroke: #ff0000"/>
    </g>
   </g>
   <g id="PathCollection_6">
    <g clip-path="url(#p5e12ef5f2c)">
     <use xlink:href="#m2747413501" x="73.833256" y="295.486149" style="fill: #ff0000; stroke: #ff0000"/>
    </g>
   </g>
   <g id="PathCollection_7">
    <g clip-path="url(#p5e12ef5f2c)">
     <use xlink:href="#m2747413501" x="73.833436" y="295.485516" style="fill: #ff0000; stroke: #ff0000"/>
    </g>
   </g>
   <g id="PathCollection_8">
    <g clip-path="url(#p5e12ef5f2c)">
     <use xlink:href="#m2747413501" x="73.833655" y="295.484751" style="fill: #ff0000; stroke: #ff0000"/>
    </g>
   </g>
   <g id="PathCollection_9">
    <g clip-path="url(#p5e12ef5f2c)">
     <use xlink:href="#m2747413501" x="73.833919" y="295.483825" style="fill: #ff0000; stroke: #ff0000"/>
    </g>
   </g>
   <g id="PathCollection_10">
    <g clip-path="url(#p5e12ef5f2c)">
     <use xlink:href="#m2747413501" x="73.834239" y="295.482704" style="fill: #ff0000; stroke: #ff0000"/>
    </g>
   </g>
   <g id="PathCollection_11">
    <g clip-path="url(#p5e12ef5f2c)">
     <use xlink:href="#m2747413501" x="73.834627" y="295.481348" style="fill: #ff0000; stroke: #ff0000"/>
    </g>
   </g>
   <g id="PathCollection_12">
    <g clip-path="url(#p5e12ef5f2c)">
     <use xlink:href="#m2747413501" x="73.835096" y="295.479707" style="fill: #ff0000; stroke: #ff0000"/>
    </g>
   </g>
   <g id="PathCollection_13">
    <g clip-path="url(#p5e12ef5f2c)">
     <use xlink:href="#m2747413501" x="73.835663" y="295.477722" style="fill: #ff0000; stroke: #ff0000"/>
    </g>
   </g>
   <g id="PathCollection_14">
    <g clip-path="url(#p5e12ef5f2c)">
     <use xlink:href="#m2747413501" x="73.83635" y="295.475319" style="fill: #ff0000; stroke: #ff0000"/>
    </g>
   </g>
   <g id="PathCollection_15">
    <g clip-path="url(#p5e12ef5f2c)">
     <use xlink:href="#m2747413501" x="73.837181" y="295.472412" style="fill: #ff0000; stroke: #ff0000"/>
    </g>
   </g>
   <g id="PathCollection_16">
    <g clip-path="url(#p5e12ef5f2c)">
     <use xlink:href="#m2747413501" x="73.838188" y="295.468895" style="fill: #ff0000; stroke: #ff0000"/>
    </g>
   </g>
   <g id="PathCollection_17">
    <g clip-path="url(#p5e12ef5f2c)">
     <use xlink:href="#m2747413501" x="73.839407" y="295.464639" style="fill: #ff0000; stroke: #ff0000"/>
    </g>
   </g>
   <g id="PathCollection_18">
    <g clip-path="url(#p5e12ef5f2c)">
     <use xlink:href="#m2747413501" x="73.840883" y="295.459489" style="fill: #ff0000; stroke: #ff0000"/>
    </g>
   </g>
   <g id="PathCollection_19">
    <g clip-path="url(#p5e12ef5f2c)">
     <use xlink:href="#m2747413501" x="73.84267" y="295.453258" style="fill: #ff0000; stroke: #ff0000"/>
    </g>
   </g>
   <g id="PathCollection_20">
    <g clip-path="url(#p5e12ef5f2c)">
     <use xlink:href="#m2747413501" x="73.844835" y="295.445719" style="fill: #ff0000; stroke: #ff0000"/>
    </g>
   </g>
   <g id="PathCollection_21">
    <g clip-path="url(#p5e12ef5f2c)">
     <use xlink:href="#m2747413501" x="73.84746" y="295.436596" style="fill: #ff0000; stroke: #ff0000"/>
    </g>
   </g>
   <g id="PathCollection_22">
    <g clip-path="url(#p5e12ef5f2c)">
     <use xlink:href="#m2747413501" x="73.850641" y="295.425557" style="fill: #ff0000; stroke: #ff0000"/>
    </g>
   </g>
   <g id="PathCollection_23">
    <g clip-path="url(#p5e12ef5f2c)">
     <use xlink:href="#m2747413501" x="73.854497" y="295.4122" style="fill: #ff0000; stroke: #ff0000"/>
    </g>
   </g>
   <g id="PathCollection_24">
    <g clip-path="url(#p5e12ef5f2c)">
     <use xlink:href="#m2747413501" x="73.859175" y="295.396038" style="fill: #ff0000; stroke: #ff0000"/>
    </g>
   </g>
   <g id="PathCollection_25">
    <g clip-path="url(#p5e12ef5f2c)">
     <use xlink:href="#m2747413501" x="73.864851" y="295.376482" style="fill: #ff0000; stroke: #ff0000"/>
    </g>
   </g>
   <g id="PathCollection_26">
    <g clip-path="url(#p5e12ef5f2c)">
     <use xlink:href="#m2747413501" x="73.871743" y="295.35282" style="fill: #ff0000; stroke: #ff0000"/>
    </g>
   </g>
   <g id="PathCollection_27">
    <g clip-path="url(#p5e12ef5f2c)">
     <use xlink:href="#m2747413501" x="73.880116" y="295.324188" style="fill: #ff0000; stroke: #ff0000"/>
    </g>
   </g>
   <g id="PathCollection_28">
    <g clip-path="url(#p5e12ef5f2c)">
     <use xlink:href="#m2747413501" x="73.890298" y="295.289543" style="fill: #ff0000; stroke: #ff0000"/>
    </g>
   </g>
   <g id="PathCollection_29">
    <g clip-path="url(#p5e12ef5f2c)">
     <use xlink:href="#m2747413501" x="73.902692" y="295.247623" style="fill: #ff0000; stroke: #ff0000"/>
    </g>
   </g>
   <g id="PathCollection_30">
    <g clip-path="url(#p5e12ef5f2c)">
     <use xlink:href="#m2747413501" x="73.917796" y="295.196901" style="fill: #ff0000; stroke: #ff0000"/>
    </g>
   </g>
   <g id="PathCollection_31">
    <g clip-path="url(#p5e12ef5f2c)">
     <use xlink:href="#m2747413501" x="73.936227" y="295.135526" style="fill: #ff0000; stroke: #ff0000"/>
    </g>
   </g>
   <g id="PathCollection_32">
    <g clip-path="url(#p5e12ef5f2c)">
     <use xlink:href="#m2747413501" x="73.958754" y="295.061262" style="fill: #ff0000; stroke: #ff0000"/>
    </g>
   </g>
   <g id="PathCollection_33">
    <g clip-path="url(#p5e12ef5f2c)">
     <use xlink:href="#m2747413501" x="73.986339" y="294.971403" style="fill: #ff0000; stroke: #ff0000"/>
    </g>
   </g>
   <g id="PathCollection_34">
    <g clip-path="url(#p5e12ef5f2c)">
     <use xlink:href="#m2747413501" x="74.02019" y="294.862674" style="fill: #ff0000; stroke: #ff0000"/>
    </g>
   </g>
   <g id="PathCollection_35">
    <g clip-path="url(#p5e12ef5f2c)">
     <use xlink:href="#m2747413501" x="74.061833" y="294.731112" style="fill: #ff0000; stroke: #ff0000"/>
    </g>
   </g>
   <g id="PathCollection_36">
    <g clip-path="url(#p5e12ef5f2c)">
     <use xlink:href="#m2747413501" x="74.113204" y="294.571921" style="fill: #ff0000; stroke: #ff0000"/>
    </g>
   </g>
   <g id="PathCollection_37">
    <g clip-path="url(#p5e12ef5f2c)">
     <use xlink:href="#m2747413501" x="74.176773" y="294.379301" style="fill: #ff0000; stroke: #ff0000"/>
    </g>
   </g>
   <g id="PathCollection_38">
    <g clip-path="url(#p5e12ef5f2c)">
     <use xlink:href="#m2747413501" x="74.255707" y="294.14623" style="fill: #ff0000; stroke: #ff0000"/>
    </g>
   </g>
   <g id="PathCollection_39">
    <g clip-path="url(#p5e12ef5f2c)">
     <use xlink:href="#m2747413501" x="74.354083" y="293.864215" style="fill: #ff0000; stroke: #ff0000"/>
    </g>
   </g>
   <g id="PathCollection_40">
    <g clip-path="url(#p5e12ef5f2c)">
     <use xlink:href="#m2747413501" x="74.477175" y="293.522976" style="fill: #ff0000; stroke: #ff0000"/>
    </g>
   </g>
   <g id="PathCollection_41">
    <g clip-path="url(#p5e12ef5f2c)">
     <use xlink:href="#m2747413501" x="74.627299" y="293.110077" style="fill: #ff0000; stroke: #ff0000"/>
    </g>
   </g>
   <g id="PathCollection_42">
    <g clip-path="url(#p5e12ef5f2c)">
     <use xlink:href="#m2747413501" x="74.816871" y="292.610469" style="fill: #ff0000; stroke: #ff0000"/>
    </g>
   </g>
   <g id="PathCollection_43">
    <g clip-path="url(#p5e12ef5f2c)">
     <use xlink:href="#m2747413501" x="75.057292" y="292.005944" style="fill: #ff0000; stroke: #ff0000"/>
    </g>
   </g>
   <g id="PathCollection_44">
    <g clip-path="url(#p5e12ef5f2c)">
     <use xlink:href="#m2747413501" x="75.36349" y="291.274468" style="fill: #ff0000; stroke: #ff0000"/>
    </g>
   </g>
   <g id="PathCollection_45">
    <g clip-path="url(#p5e12ef5f2c)">
     <use xlink:href="#m2747413501" x="75.755023" y="290.389383" style="fill: #ff0000; stroke: #ff0000"/>
    </g>
   </g>
   <g id="PathCollection_46">
    <g clip-path="url(#p5e12ef5f2c)">
     <use xlink:href="#m2747413501" x="76.257552" y="289.318429" style="fill: #ff0000; stroke: #ff0000"/>
    </g>
   </g>
   <g id="PathCollection_47">
    <g clip-path="url(#p5e12ef5f2c)">
     <use xlink:href="#m2747413501" x="76.904799" y="288.022576" style="fill: #ff0000; stroke: #ff0000"/>
    </g>
   </g>
   <g id="PathCollection_48">
    <g clip-path="url(#p5e12ef5f2c)">
     <use xlink:href="#m2747413501" x="77.741178" y="286.454593" style="fill: #ff0000; stroke: #ff0000"/>
    </g>
   </g>
   <g id="PathCollection_49">
    <g clip-path="url(#p5e12ef5f2c)">
     <use xlink:href="#m2747413501" x="78.823386" y="284.557333" style="fill: #ff0000; stroke: #ff0000"/>
    </g>
   </g>
   <g id="PathCollection_50">
    <g clip-path="url(#p5e12ef5f2c)">
     <use xlink:href="#m2747413501" x="80.22371" y="282.261649" style="fill: #ff0000; stroke: #ff0000"/>
    </g>
   </g>
   <g id="PathCollection_51">
    <g clip-path="url(#p5e12ef5f2c)">
     <use xlink:href="#m2747413501" x="82.037079" y="279.483872" style="fill: #ff0000; stroke: #ff0000"/>
    </g>
   </g>
   <g id="PathCollection_52">
    <g clip-path="url(#p5e12ef5f2c)">
     <use xlink:href="#m2747413501" x="84.385105" y="276.122761" style="fill: #ff0000; stroke: #ff0000"/>
    </g>
   </g>
   <g id="PathCollection_53">
    <g clip-path="url(#p5e12ef5f2c)">
     <use xlink:href="#m2747413501" x="87.420075" y="272.055817" style="fill: #ff0000; stroke: #ff0000"/>
    </g>
   </g>
   <g id="PathCollection_54">
    <g clip-path="url(#p5e12ef5f2c)">
     <use xlink:href="#m2747413501" x="90.535999" y="267.134815" style="fill: #ff0000; stroke: #ff0000"/>
    </g>
   </g>
   <g id="PathCollection_55">
    <g clip-path="url(#p5e12ef5f2c)">
     <use xlink:href="#m2747413501" x="93.595704" y="262.379592" style="fill: #ff0000; stroke: #ff0000"/>
    </g>
   </g>
   <g id="PathCollection_56">
    <g clip-path="url(#p5e12ef5f2c)">
     <use xlink:href="#m2747413501" x="96.528273" y="257.913984" style="fill: #ff0000; stroke: #ff0000"/>
    </g>
   </g>
   <g id="PathCollection_57">
    <g clip-path="url(#p5e12ef5f2c)">
     <use xlink:href="#m2747413501" x="99.281357" y="253.762379" style="fill: #ff0000; stroke: #ff0000"/>
    </g>
   </g>
   <g id="PathCollection_58">
    <g clip-path="url(#p5e12ef5f2c)">
     <use xlink:href="#m2747413501" x="101.885718" y="249.940479" style="fill: #ff0000; stroke: #ff0000"/>
    </g>
   </g>
   <g id="PathCollection_59">
    <g clip-path="url(#p5e12ef5f2c)">
     <use xlink:href="#m2747413501" x="104.371135" y="246.368061" style="fill: #ff0000; stroke: #ff0000"/>
    </g>
   </g>
   <g id="PathCollection_60">
    <g clip-path="url(#p5e12ef5f2c)">
     <use xlink:href="#m2747413501" x="106.763425" y="242.981808" style="fill: #ff0000; stroke: #ff0000"/>
    </g>
   </g>
   <g id="PathCollection_61">
    <g clip-path="url(#p5e12ef5f2c)">
     <use xlink:href="#m2747413501" x="109.344169" y="239.736535" style="fill: #ff0000; stroke: #ff0000"/>
    </g>
   </g>
   <g id="PathCollection_62">
    <g clip-path="url(#p5e12ef5f2c)">
     <use xlink:href="#m2747413501" x="111.843863" y="236.255858" style="fill: #ff0000; stroke: #ff0000"/>
    </g>
   </g>
   <g id="PathCollection_63">
    <g clip-path="url(#p5e12ef5f2c)">
     <use xlink:href="#m2747413501" x="114.277751" y="232.929903" style="fill: #ff0000; stroke: #ff0000"/>
    </g>
   </g>
   <g id="PathCollection_64">
    <g clip-path="url(#p5e12ef5f2c)">
     <use xlink:href="#m2747413501" x="116.66078" y="229.722665" style="fill: #ff0000; stroke: #ff0000"/>
    </g>
   </g>
   <g id="PathCollection_65">
    <g clip-path="url(#p5e12ef5f2c)">
     <use xlink:href="#m2747413501" x="118.994962" y="226.602108" style="fill: #ff0000; stroke: #ff0000"/>
    </g>
   </g>
   <g id="PathCollection_66">
    <g clip-path="url(#p5e12ef5f2c)">
     <use xlink:href="#m2747413501" x="121.29349" y="223.543325" style="fill: #ff0000; stroke: #ff0000"/>
    </g>
   </g>
   <g id="PathCollection_67">
    <g clip-path="url(#p5e12ef5f2c)">
     <use xlink:href="#m2747413501" x="123.567327" y="220.525702" style="fill: #ff0000; stroke: #ff0000"/>
    </g>
   </g>
   <g id="PathCollection_68">
    <g clip-path="url(#p5e12ef5f2c)">
     <use xlink:href="#m2747413501" x="125.823447" y="217.53519" style="fill: #ff0000; stroke: #ff0000"/>
    </g>
   </g>
   <g id="PathCollection_69">
    <g clip-path="url(#p5e12ef5f2c)">
     <use xlink:href="#m2747413501" x="128.027737" y="214.562801" style="fill: #ff0000; stroke: #ff0000"/>
    </g>
   </g>
   <g id="PathCollection_70">
    <g clip-path="url(#p5e12ef5f2c)">
     <use xlink:href="#m2747413501" x="130.191798" y="211.654006" style="fill: #ff0000; stroke: #ff0000"/>
    </g>
   </g>
   <g id="PathCollection_71">
    <g clip-path="url(#p5e12ef5f2c)">
     <use xlink:href="#m2747413501" x="132.327159" y="208.794242" style="fill: #ff0000; stroke: #ff0000"/>
    </g>
   </g>
   <g id="PathCollection_72">
    <g clip-path="url(#p5e12ef5f2c)">
     <use xlink:href="#m2747413501" x="134.441446" y="205.969033" style="fill: #ff0000; stroke: #ff0000"/>
    </g>
   </g>
   <g id="PathCollection_73">
    <g clip-path="url(#p5e12ef5f2c)">
     <use xlink:href="#m2747413501" x="136.523253" y="203.169" style="fill: #ff0000; stroke: #ff0000"/>
    </g>
   </g>
   <g id="PathCollection_74">
    <g clip-path="url(#p5e12ef5f2c)">
     <use xlink:href="#m2747413501" x="138.553552" y="200.410041" style="fill: #ff0000; stroke: #ff0000"/>
    </g>
   </g>
   <g id="PathCollection_75">
    <g clip-path="url(#p5e12ef5f2c)">
     <use xlink:href="#m2747413501" x="140.549922" y="197.718415" style="fill: #ff0000; stroke: #ff0000"/>
    </g>
   </g>
   <g id="PathCollection_76">
    <g clip-path="url(#p5e12ef5f2c)">
     <use xlink:href="#m2747413501" x="142.524682" y="195.071237" style="fill: #ff0000; stroke: #ff0000"/>
    </g>
   </g>
   <g id="PathCollection_77">
    <g clip-path="url(#p5e12ef5f2c)">
     <use xlink:href="#m2747413501" x="144.484667" y="192.452614" style="fill: #ff0000; stroke: #ff0000"/>
    </g>
   </g>
   <g id="PathCollection_78">
    <g clip-path="url(#p5e12ef5f2c)">
     <use xlink:href="#m2747413501" x="146.434374" y="189.852848" style="fill: #ff0000; stroke: #ff0000"/>
    </g>
   </g>
   <g id="PathCollection_79">
    <g clip-path="url(#p5e12ef5f2c)">
     <use xlink:href="#m2747413501" x="148.377137" y="187.266086" style="fill: #ff0000; stroke: #ff0000"/>
    </g>
   </g>
   <g id="PathCollection_80">
    <g clip-path="url(#p5e12ef5f2c)">
     <use xlink:href="#m2747413501" x="150.315197" y="184.688226" style="fill: #ff0000; stroke: #ff0000"/>
    </g>
   </g>
   <g id="PathCollection_81">
    <g clip-path="url(#p5e12ef5f2c)">
     <use xlink:href="#m2747413501" x="152.329309" y="182.116448" style="fill: #ff0000; stroke: #ff0000"/>
    </g>
   </g>
   <g id="PathCollection_82">
    <g clip-path="url(#p5e12ef5f2c)">
     <use xlink:href="#m2747413501" x="154.337874" y="179.475466" style="fill: #ff0000; stroke: #ff0000"/>
    </g>
   </g>
   <g id="PathCollection_83">
    <g clip-path="url(#p5e12ef5f2c)">
     <use xlink:href="#m2747413501" x="156.342246" y="176.836841" style="fill: #ff0000; stroke: #ff0000"/>
    </g>
   </g>
   <g id="PathCollection_84">
    <g clip-path="url(#p5e12ef5f2c)">
     <use xlink:href="#m2747413501" x="158.343989" y="174.198656" style="fill: #ff0000; stroke: #ff0000"/>
    </g>
   </g>
   <g id="PathCollection_85">
    <g clip-path="url(#p5e12ef5f2c)">
     <use xlink:href="#m2747413501" x="160.344047" y="171.558646" style="fill: #ff0000; stroke: #ff0000"/>
    </g>
   </g>
   <g id="PathCollection_86">
    <g clip-path="url(#p5e12ef5f2c)">
     <use xlink:href="#m2747413501" x="162.342623" y="168.915449" style="fill: #ff0000; stroke: #ff0000"/>
    </g>
   </g>
   <g id="PathCollection_87">
    <g clip-path="url(#p5e12ef5f2c)">
     <use xlink:href="#m2747413501" x="164.340377" y="166.268785" style="fill: #ff0000; stroke: #ff0000"/>
    </g>
   </g>
   <g id="PathCollection_88">
    <g clip-path="url(#p5e12ef5f2c)">
     <use xlink:href="#m2747413501" x="166.338647" y="163.618018" style="fill: #ff0000; stroke: #ff0000"/>
    </g>
   </g>
   <g id="PathCollection_89">
    <g clip-path="url(#p5e12ef5f2c)">
     <use xlink:href="#m2747413501" x="168.336238" y="160.962973" style="fill: #ff0000; stroke: #ff0000"/>
    </g>
   </g>
   <g id="PathCollection_90">
    <g clip-path="url(#p5e12ef5f2c)">
     <use xlink:href="#m2747413501" x="170.331624" y="158.30448" style="fill: #ff0000; stroke: #ff0000"/>
    </g>
   </g>
   <g id="PathCollection_91">
    <g clip-path="url(#p5e12ef5f2c)">
     <use xlink:href="#m2747413501" x="172.323651" y="155.644133" style="fill: #ff0000; stroke: #ff0000"/>
    </g>
   </g>
   <g id="PathCollection_92">
    <g clip-path="url(#p5e12ef5f2c)">
     <use xlink:href="#m2747413501" x="174.311751" y="152.983145" style="fill: #ff0000; stroke: #ff0000"/>
    </g>
   </g>
   <g id="PathCollection_93">
    <g clip-path="url(#p5e12ef5f2c)">
     <use xlink:href="#m2747413501" x="176.294963" y="150.322164" style="fill: #ff0000; stroke: #ff0000"/>
    </g>
   </g>
   <g id="PathCollection_94">
    <g clip-path="url(#p5e12ef5f2c)">
     <use xlink:href="#m2747413501" x="178.247695" y="147.662149" style="fill: #ff0000; stroke: #ff0000"/>
    </g>
   </g>
   <g id="PathCollection_95">
    <g clip-path="url(#p5e12ef5f2c)">
     <use xlink:href="#m2747413501" x="180.182517" y="145.038456" style="fill: #ff0000; stroke: #ff0000"/>
    </g>
   </g>
   <g id="PathCollection_96">
    <g clip-path="url(#p5e12ef5f2c)">
     <use xlink:href="#m2747413501" x="182.107089" y="142.434976" style="fill: #ff0000; stroke: #ff0000"/>
    </g>
   </g>
   <g id="PathCollection_97">
    <g clip-path="url(#p5e12ef5f2c)">
     <use xlink:href="#m2747413501" x="184.024902" y="139.842042" style="fill: #ff0000; stroke: #ff0000"/>
    </g>
   </g>
   <g id="PathCollection_98">
    <g clip-path="url(#p5e12ef5f2c)">
     <use xlink:href="#m2747413501" x="185.937349" y="137.255339" style="fill: #ff0000; stroke: #ff0000"/>
    </g>
   </g>
   <g id="PathCollection_99">
    <g clip-path="url(#p5e12ef5f2c)">
     <use xlink:href="#m2747413501" x="187.845063" y="134.673941" style="fill: #ff0000; stroke: #ff0000"/>
    </g>
   </g>
   <g id="PathCollection_100">
    <g clip-path="url(#p5e12ef5f2c)">
     <use xlink:href="#m2747413501" x="189.748427" y="132.09686" style="fill: #ff0000; stroke: #ff0000"/>
    </g>
   </g>
   <g id="PathCollection_101">
    <g clip-path="url(#p5e12ef5f2c)">
     <use xlink:href="#m2747413501" x="191.713264" y="129.523452" style="fill: #ff0000; stroke: #ff0000"/>
    </g>
   </g>
   <g id="PathCollection_102">
    <g clip-path="url(#p5e12ef5f2c)">
     <use xlink:href="#m2747413501" x="193.673252" y="126.878794" style="fill: #ff0000; stroke: #ff0000"/>
    </g>
   </g>
   <g id="PathCollection_103">
    <g clip-path="url(#p5e12ef5f2c)">
     <use xlink:href="#m2747413501" x="195.628382" y="124.237135" style="fill: #ff0000; stroke: #ff0000"/>
    </g>
   </g>
   <g id="PathCollection_104">
    <g clip-path="url(#p5e12ef5f2c)">
     <use xlink:href="#m2747413501" x="197.578537" y="121.597883" style="fill: #ff0000; stroke: #ff0000"/>
    </g>
   </g>
   <g id="PathCollection_105">
    <g clip-path="url(#p5e12ef5f2c)">
     <use xlink:href="#m2747413501" x="199.523605" y="118.960492" style="fill: #ff0000; stroke: #ff0000"/>
    </g>
   </g>
   <g id="PathCollection_106">
    <g clip-path="url(#p5e12ef5f2c)">
     <use xlink:href="#m2747413501" x="201.463267" y="116.324546" style="fill: #ff0000; stroke: #ff0000"/>
    </g>
   </g>
   <g id="PathCollection_107">
    <g clip-path="url(#p5e12ef5f2c)">
     <use xlink:href="#m2747413501" x="203.397459" y="113.690116" style="fill: #ff0000; stroke: #ff0000"/>
    </g>
   </g>
   <g id="PathCollection_108">
    <g clip-path="url(#p5e12ef5f2c)">
     <use xlink:href="#m2747413501" x="205.326325" y="111.057136" style="fill: #ff0000; stroke: #ff0000"/>
    </g>
   </g>
   <g id="PathCollection_109">
    <g clip-path="url(#p5e12ef5f2c)">
     <use xlink:href="#m2747413501" x="207.250202" y="108.425483" style="fill: #ff0000; stroke: #ff0000"/>
    </g>
   </g>
   <g id="PathCollection_110">
    <g clip-path="url(#p5e12ef5f2c)">
     <use xlink:href="#m2747413501" x="209.169537" y="105.794878" style="fill: #ff0000; stroke: #ff0000"/>
    </g>
   </g>
   <g id="PathCollection_111">
    <g clip-path="url(#p5e12ef5f2c)">
     <use xlink:href="#m2747413501" x="211.08494" y="103.164962" style="fill: #ff0000; stroke: #ff0000"/>
    </g>
   </g>
   <g id="PathCollection_112">
    <g clip-path="url(#p5e12ef5f2c)">
     <use xlink:href="#m2747413501" x="212.996838" y="100.535229" style="fill: #ff0000; stroke: #ff0000"/>
    </g>
   </g>
   <g id="PathCollection_113">
    <g clip-path="url(#p5e12ef5f2c)">
     <use xlink:href="#m2747413501" x="214.894223" y="97.905441" style="fill: #ff0000; stroke: #ff0000"/>
    </g>
   </g>
   <g id="PathCollection_114">
    <g clip-path="url(#p5e12ef5f2c)">
     <use xlink:href="#m2747413501" x="216.765999" y="95.291129" style="fill: #ff0000; stroke: #ff0000"/>
    </g>
   </g>
   <g id="PathCollection_115">
    <g clip-path="url(#p5e12ef5f2c)">
     <use xlink:href="#m2747413501" x="218.622544" y="92.708045" style="fill: #ff0000; stroke: #ff0000"/>
    </g>
   </g>
   <g id="PathCollection_116">
    <g clip-path="url(#p5e12ef5f2c)">
     <use xlink:href="#m2747413501" x="220.469467" y="90.142303" style="fill: #ff0000; stroke: #ff0000"/>
    </g>
   </g>
   <g id="PathCollection_117">
    <g clip-path="url(#p5e12ef5f2c)">
     <use xlink:href="#m2747413501" x="222.309963" y="87.586519" style="fill: #ff0000; stroke: #ff0000"/>
    </g>
   </g>
   <g id="PathCollection_118">
    <g clip-path="url(#p5e12ef5f2c)">
     <use xlink:href="#m2747413501" x="224.145614" y="85.036627" style="fill: #ff0000; stroke: #ff0000"/>
    </g>
   </g>
   <g id="PathCollection_119">
    <g clip-path="url(#p5e12ef5f2c)">
     <use xlink:href="#m2747413501" x="225.977559" y="82.490848" style="fill: #ff0000; stroke: #ff0000"/>
    </g>
   </g>
   <g id="PathCollection_120">
    <g clip-path="url(#p5e12ef5f2c)">
     <use xlink:href="#m2747413501" x="227.806868" y="79.94793" style="fill: #ff0000; stroke: #ff0000"/>
    </g>
   </g>
   <g id="PathCollection_121">
    <g clip-path="url(#p5e12ef5f2c)">
     <use xlink:href="#m2747413501" x="229.701943" y="77.406611" style="fill: #ff0000; stroke: #ff0000"/>
    </g>
   </g>
   <g id="PathCollection_122">
    <g clip-path="url(#p5e12ef5f2c)">
     <use xlink:href="#m2747413501" x="231.596755" y="74.775308" style="fill: #ff0000; stroke: #ff0000"/>
    </g>
   </g>
   <g id="PathCollection_123">
    <g clip-path="url(#p5e12ef5f2c)">
     <use xlink:href="#m2747413501" x="233.492291" y="72.142871" style="fill: #ff0000; stroke: #ff0000"/>
    </g>
   </g>
   <g id="PathCollection_124">
    <g clip-path="url(#p5e12ef5f2c)">
     <use xlink:href="#m2747413501" x="235.390295" y="69.507948" style="fill: #ff0000; stroke: #ff0000"/>
    </g>
   </g>
   <g id="PathCollection_125">
    <g clip-path="url(#p5e12ef5f2c)">
     <use xlink:href="#m2747413501" x="237.292291" y="66.868035" style="fill: #ff0000; stroke: #ff0000"/>
    </g>
   </g>
   <g id="PathCollection_126">
    <g clip-path="url(#p5e12ef5f2c)">
     <use xlink:href="#m2747413501" x="239.198768" y="64.221383" style="fill: #ff0000; stroke: #ff0000"/>
    </g>
   </g>
   <g id="PathCollection_127">
    <g clip-path="url(#p5e12ef5f2c)">
     <use xlink:href="#m2747413501" x="241.109588" y="61.567607" style="fill: #ff0000; stroke: #ff0000"/>
    </g>
   </g>
   <g id="PathCollection_128">
    <g clip-path="url(#p5e12ef5f2c)">
     <use xlink:href="#m2747413501" x="243.02427" y="58.906945" style="fill: #ff0000; stroke: #ff0000"/>
    </g>
   </g>
   <g id="PathCollection_129">
    <g clip-path="url(#p5e12ef5f2c)">
     <use xlink:href="#m2747413501" x="244.942191" y="56.24009" style="fill: #ff0000; stroke: #ff0000"/>
    </g>
   </g>
   <g id="PathCollection_130">
    <g clip-path="url(#p5e12ef5f2c)">
     <use xlink:href="#m2747413501" x="246.364035" y="53.568" style="fill: #ff0000; stroke: #ff0000"/>
    </g>
   </g>
   <g id="PathCollection_131">
    <defs>
     <path id="m1fbc478da9" d="M 0 3 
C 0.795609 3 1.55874 2.683901 2.12132 2.12132 
C 2.683901 1.55874 3 0.795609 3 0 
C 3 -0.795609 2.683901 -1.55874 2.12132 -2.12132 
C 1.55874 -2.683901 0.795609 -3 0 -3 
C -0.795609 -3 -1.55874 -2.683901 -2.12132 -2.12132 
C -2.683901 -1.55874 -3 -0.795609 -3 0 
C -3 0.795609 -2.683901 1.55874 -2.12132 2.12132 
C -1.55874 2.683901 -0.795609 3 0 3 
z
" style="stroke: #0000ff"/>
    </defs>
    <g clip-path="url(#p5e12ef5f2c)">
     <use xlink:href="#m1fbc478da9" x="112.172569" y="276.122761" style="fill: #0000ff; stroke: #0000ff"/>
    </g>
   </g>
   <g id="PathCollection_132">
    <g clip-path="url(#p5e12ef5f2c)">
     <use xlink:href="#m1fbc478da9" x="95.915221" y="272.055817" style="fill: #0000ff; stroke: #0000ff"/>
    </g>
   </g>
   <g id="PathCollection_133">
    <g clip-path="url(#p5e12ef5f2c)">
     <use xlink:href="#m1fbc478da9" x="113.502206" y="272.055817" style="fill: #0000ff; stroke: #0000ff"/>
    </g>
   </g>
   <g id="PathCollection_134">
    <g clip-path="url(#p5e12ef5f2c)">
     <use xlink:href="#m1fbc478da9" x="115.067029" y="267.134815" style="fill: #0000ff; stroke: #0000ff"/>
    </g>
   </g>
   <g id="PathCollection_135">
    <g clip-path="url(#p5e12ef5f2c)">
     <use xlink:href="#m1fbc478da9" x="116.796211" y="262.379592" style="fill: #0000ff; stroke: #0000ff"/>
    </g>
   </g>
   <g id="PathCollection_136">
    <g clip-path="url(#p5e12ef5f2c)">
     <use xlink:href="#m1fbc478da9" x="118.630461" y="257.913984" style="fill: #0000ff; stroke: #0000ff"/>
    </g>
   </g>
   <g id="PathCollection_137">
    <g clip-path="url(#p5e12ef5f2c)">
     <use xlink:href="#m1fbc478da9" x="135.495866" y="257.913984" style="fill: #0000ff; stroke: #0000ff"/>
    </g>
   </g>
   <g id="PathCollection_138">
    <g clip-path="url(#p5e12ef5f2c)">
     <use xlink:href="#m1fbc478da9" x="120.509135" y="253.762379" style="fill: #0000ff; stroke: #0000ff"/>
    </g>
   </g>
   <g id="PathCollection_139">
    <g clip-path="url(#p5e12ef5f2c)">
     <use xlink:href="#m1fbc478da9" x="136.441671" y="253.762379" style="fill: #0000ff; stroke: #0000ff"/>
    </g>
   </g>
   <g id="PathCollection_140">
    <g clip-path="url(#p5e12ef5f2c)">
     <use xlink:href="#m1fbc478da9" x="137.514598" y="249.940479" style="fill: #0000ff; stroke: #0000ff"/>
    </g>
   </g>
   <g id="PathCollection_141">
    <g clip-path="url(#p5e12ef5f2c)">
     <use xlink:href="#m1fbc478da9" x="138.701517" y="246.368061" style="fill: #0000ff; stroke: #0000ff"/>
    </g>
   </g>
   <g id="PathCollection_142">
    <g clip-path="url(#p5e12ef5f2c)">
     <use xlink:href="#m1fbc478da9" x="139.993262" y="242.981808" style="fill: #0000ff; stroke: #0000ff"/>
    </g>
   </g>
   <g id="PathCollection_143">
    <g clip-path="url(#p5e12ef5f2c)">
     <use xlink:href="#m1fbc478da9" x="142.570329" y="239.736535" style="fill: #0000ff; stroke: #0000ff"/>
    </g>
   </g>
   <g id="PathCollection_144">
    <g clip-path="url(#p5e12ef5f2c)">
     <use xlink:href="#m1fbc478da9" x="144.141844" y="236.255858" style="fill: #0000ff; stroke: #0000ff"/>
    </g>
   </g>
   <g id="PathCollection_145">
    <g clip-path="url(#p5e12ef5f2c)">
     <use xlink:href="#m1fbc478da9" x="145.814927" y="232.929903" style="fill: #0000ff; stroke: #0000ff"/>
    </g>
   </g>
   <g id="PathCollection_146">
    <g clip-path="url(#p5e12ef5f2c)">
     <use xlink:href="#m1fbc478da9" x="161.2617" y="232.929903" style="fill: #0000ff; stroke: #0000ff"/>
    </g>
   </g>
   <g id="PathCollection_147">
    <g clip-path="url(#p5e12ef5f2c)">
     <use xlink:href="#m1fbc478da9" x="162.212219" y="229.722665" style="fill: #0000ff; stroke: #0000ff"/>
    </g>
   </g>
   <g id="PathCollection_148">
    <g clip-path="url(#p5e12ef5f2c)">
     <use xlink:href="#m1fbc478da9" x="163.300192" y="226.602108" style="fill: #0000ff; stroke: #0000ff"/>
    </g>
   </g>
   <g id="PathCollection_149">
    <g clip-path="url(#p5e12ef5f2c)">
     <use xlink:href="#m1fbc478da9" x="164.529485" y="223.543325" style="fill: #0000ff; stroke: #0000ff"/>
    </g>
   </g>
   <g id="PathCollection_150">
    <g clip-path="url(#p5e12ef5f2c)">
     <use xlink:href="#m1fbc478da9" x="165.900964" y="220.525702" style="fill: #0000ff; stroke: #0000ff"/>
    </g>
   </g>
   <g id="PathCollection_151">
    <g clip-path="url(#p5e12ef5f2c)">
     <use xlink:href="#m1fbc478da9" x="167.412393" y="217.53519" style="fill: #0000ff; stroke: #0000ff"/>
    </g>
   </g>
   <g id="PathCollection_152">
    <g clip-path="url(#p5e12ef5f2c)">
     <use xlink:href="#m1fbc478da9" x="169.029664" y="214.562801" style="fill: #0000ff; stroke: #0000ff"/>
    </g>
   </g>
   <g id="PathCollection_153">
    <g clip-path="url(#p5e12ef5f2c)">
     <use xlink:href="#m1fbc478da9" x="183.969267" y="214.562801" style="fill: #0000ff; stroke: #0000ff"/>
    </g>
   </g>
   <g id="PathCollection_154">
    <g clip-path="url(#p5e12ef5f2c)">
     <use xlink:href="#m1fbc478da9" x="184.886054" y="211.654006" style="fill: #0000ff; stroke: #0000ff"/>
    </g>
   </g>
   <g id="PathCollection_155">
    <g clip-path="url(#p5e12ef5f2c)">
     <use xlink:href="#m1fbc478da9" x="185.9432" y="208.794242" style="fill: #0000ff; stroke: #0000ff"/>
    </g>
   </g>
   <g id="PathCollection_156">
    <g clip-path="url(#p5e12ef5f2c)">
     <use xlink:href="#m1fbc478da9" x="187.139341" y="205.969033" style="fill: #0000ff; stroke: #0000ff"/>
    </g>
   </g>
   <g id="PathCollection_157">
    <g clip-path="url(#p5e12ef5f2c)">
     <use xlink:href="#m1fbc478da9" x="188.458971" y="203.169" style="fill: #0000ff; stroke: #0000ff"/>
    </g>
   </g>
   <g id="PathCollection_158">
    <g clip-path="url(#p5e12ef5f2c)">
     <use xlink:href="#m1fbc478da9" x="189.87494" y="200.410041" style="fill: #0000ff; stroke: #0000ff"/>
    </g>
   </g>
   <g id="PathCollection_159">
    <g clip-path="url(#p5e12ef5f2c)">
     <use xlink:href="#m1fbc478da9" x="191.384789" y="197.718415" style="fill: #0000ff; stroke: #0000ff"/>
    </g>
   </g>
   <g id="PathCollection_160">
    <g clip-path="url(#p5e12ef5f2c)">
     <use xlink:href="#m1fbc478da9" x="207.711003" y="195.071237" style="fill: #0000ff; stroke: #0000ff"/>
    </g>
   </g>
   <g id="PathCollection_161">
    <g clip-path="url(#p5e12ef5f2c)">
     <use xlink:href="#m1fbc478da9" x="208.661363" y="192.452614" style="fill: #0000ff; stroke: #0000ff"/>
    </g>
   </g>
   <g id="PathCollection_162">
    <g clip-path="url(#p5e12ef5f2c)">
     <use xlink:href="#m1fbc478da9" x="209.740217" y="189.852848" style="fill: #0000ff; stroke: #0000ff"/>
    </g>
   </g>
   <g id="PathCollection_163">
    <g clip-path="url(#p5e12ef5f2c)">
     <use xlink:href="#m1fbc478da9" x="210.942689" y="187.266086" style="fill: #0000ff; stroke: #0000ff"/>
    </g>
   </g>
   <g id="PathCollection_164">
    <g clip-path="url(#p5e12ef5f2c)">
     <use xlink:href="#m1fbc478da9" x="212.261915" y="184.688226" style="fill: #0000ff; stroke: #0000ff"/>
    </g>
   </g>
   <g id="PathCollection_165">
    <g clip-path="url(#p5e12ef5f2c)">
     <use xlink:href="#m1fbc478da9" x="214.880906" y="182.116448" style="fill: #0000ff; stroke: #0000ff"/>
    </g>
   </g>
   <g id="PathCollection_166">
    <g clip-path="url(#p5e12ef5f2c)">
     <use xlink:href="#m1fbc478da9" x="216.407151" y="179.475466" style="fill: #0000ff; stroke: #0000ff"/>
    </g>
   </g>
   <g id="PathCollection_167">
    <g clip-path="url(#p5e12ef5f2c)">
     <use xlink:href="#m1fbc478da9" x="232.622691" y="176.836841" style="fill: #0000ff; stroke: #0000ff"/>
    </g>
   </g>
   <g id="PathCollection_168">
    <g clip-path="url(#p5e12ef5f2c)">
     <use xlink:href="#m1fbc478da9" x="233.598184" y="174.198656" style="fill: #0000ff; stroke: #0000ff"/>
    </g>
   </g>
   <g id="PathCollection_169">
    <g clip-path="url(#p5e12ef5f2c)">
     <use xlink:href="#m1fbc478da9" x="234.715243" y="171.558646" style="fill: #0000ff; stroke: #0000ff"/>
    </g>
   </g>
   <g id="PathCollection_170">
    <g clip-path="url(#p5e12ef5f2c)">
     <use xlink:href="#m1fbc478da9" x="235.969729" y="168.915449" style="fill: #0000ff; stroke: #0000ff"/>
    </g>
   </g>
   <g id="PathCollection_171">
    <g clip-path="url(#p5e12ef5f2c)">
     <use xlink:href="#m1fbc478da9" x="237.354701" y="166.268785" style="fill: #0000ff; stroke: #0000ff"/>
    </g>
   </g>
   <g id="PathCollection_172">
    <g clip-path="url(#p5e12ef5f2c)">
     <use xlink:href="#m1fbc478da9" x="238.86347" y="163.618018" style="fill: #0000ff; stroke: #0000ff"/>
    </g>
   </g>
   <g id="PathCollection_173">
    <g clip-path="url(#p5e12ef5f2c)">
     <use xlink:href="#m1fbc478da9" x="240.485697" y="160.962973" style="fill: #0000ff; stroke: #0000ff"/>
    </g>
   </g>
   <g id="PathCollection_174">
    <g clip-path="url(#p5e12ef5f2c)">
     <use xlink:href="#m1fbc478da9" x="254.966364" y="160.962973" style="fill: #0000ff; stroke: #0000ff"/>
    </g>
   </g>
   <g id="PathCollection_175">
    <g clip-path="url(#p5e12ef5f2c)">
     <use xlink:href="#m1fbc478da9" x="255.922476" y="158.30448" style="fill: #0000ff; stroke: #0000ff"/>
    </g>
   </g>
   <g id="PathCollection_176">
    <g clip-path="url(#p5e12ef5f2c)">
     <use xlink:href="#m1fbc478da9" x="257.026582" y="155.644133" style="fill: #0000ff; stroke: #0000ff"/>
    </g>
   </g>
   <g id="PathCollection_177">
    <g clip-path="url(#p5e12ef5f2c)">
     <use xlink:href="#m1fbc478da9" x="258.271454" y="152.983145" style="fill: #0000ff; stroke: #0000ff"/>
    </g>
   </g>
   <g id="PathCollection_178">
    <g clip-path="url(#p5e12ef5f2c)">
     <use xlink:href="#m1fbc478da9" x="259.647573" y="150.322164" style="fill: #0000ff; stroke: #0000ff"/>
    </g>
   </g>
   <g id="PathCollection_179">
    <g clip-path="url(#p5e12ef5f2c)">
     <use xlink:href="#m1fbc478da9" x="261.126059" y="147.662149" style="fill: #0000ff; stroke: #0000ff"/>
    </g>
   </g>
   <g id="PathCollection_180">
    <g clip-path="url(#p5e12ef5f2c)">
     <use xlink:href="#m1fbc478da9" x="262.702912" y="145.038456" style="fill: #0000ff; stroke: #0000ff"/>
    </g>
   </g>
   <g id="PathCollection_181">
    <g clip-path="url(#p5e12ef5f2c)">
     <use xlink:href="#m1fbc478da9" x="277.901207" y="145.038456" style="fill: #0000ff; stroke: #0000ff"/>
    </g>
   </g>
   <g id="PathCollection_182">
    <g clip-path="url(#p5e12ef5f2c)">
     <use xlink:href="#m1fbc478da9" x="278.787337" y="142.434976" style="fill: #0000ff; stroke: #0000ff"/>
    </g>
   </g>
   <g id="PathCollection_183">
    <g clip-path="url(#p5e12ef5f2c)">
     <use xlink:href="#m1fbc478da9" x="279.813535" y="139.842042" style="fill: #0000ff; stroke: #0000ff"/>
    </g>
   </g>
   <g id="PathCollection_184">
    <g clip-path="url(#p5e12ef5f2c)">
     <use xlink:href="#m1fbc478da9" x="280.972398" y="137.255339" style="fill: #0000ff; stroke: #0000ff"/>
    </g>
   </g>
   <g id="PathCollection_185">
    <g clip-path="url(#p5e12ef5f2c)">
     <use xlink:href="#m1fbc478da9" x="282.255858" y="134.673941" style="fill: #0000ff; stroke: #0000ff"/>
    </g>
   </g>
   <g id="PathCollection_186">
    <g clip-path="url(#p5e12ef5f2c)">
     <use xlink:href="#m1fbc478da9" x="283.654794" y="132.09686" style="fill: #0000ff; stroke: #0000ff"/>
    </g>
   </g>
   <g id="PathCollection_187">
    <g clip-path="url(#p5e12ef5f2c)">
     <use xlink:href="#m1fbc478da9" x="286.336911" y="129.523452" style="fill: #0000ff; stroke: #0000ff"/>
    </g>
   </g>
   <g id="PathCollection_188">
    <g clip-path="url(#p5e12ef5f2c)">
     <use xlink:href="#m1fbc478da9" x="287.938835" y="126.878794" style="fill: #0000ff; stroke: #0000ff"/>
    </g>
   </g>
   <g id="PathCollection_189">
    <g clip-path="url(#p5e12ef5f2c)">
     <use xlink:href="#m1fbc478da9" x="303.026966" y="126.878794" style="fill: #0000ff; stroke: #0000ff"/>
    </g>
   </g>
   <g id="PathCollection_190">
    <g clip-path="url(#p5e12ef5f2c)">
     <use xlink:href="#m1fbc478da9" x="303.935911" y="124.237135" style="fill: #0000ff; stroke: #0000ff"/>
    </g>
   </g>
   <g id="PathCollection_191">
    <g clip-path="url(#p5e12ef5f2c)">
     <use xlink:href="#m1fbc478da9" x="304.98901" y="121.597883" style="fill: #0000ff; stroke: #0000ff"/>
    </g>
   </g>
   <g id="PathCollection_192">
    <g clip-path="url(#p5e12ef5f2c)">
     <use xlink:href="#m1fbc478da9" x="306.182887" y="118.960492" style="fill: #0000ff; stroke: #0000ff"/>
    </g>
   </g>
   <g id="PathCollection_193">
    <g clip-path="url(#p5e12ef5f2c)">
     <use xlink:href="#m1fbc478da9" x="307.510581" y="116.324546" style="fill: #0000ff; stroke: #0000ff"/>
    </g>
   </g>
   <g id="PathCollection_194">
    <g clip-path="url(#p5e12ef5f2c)">
     <use xlink:href="#m1fbc478da9" x="308.963434" y="113.690116" style="fill: #0000ff; stroke: #0000ff"/>
    </g>
   </g>
   <g id="PathCollection_195">
    <g clip-path="url(#p5e12ef5f2c)">
     <use xlink:href="#m1fbc478da9" x="310.532853" y="111.057136" style="fill: #0000ff; stroke: #0000ff"/>
    </g>
   </g>
   <g id="PathCollection_196">
    <g clip-path="url(#p5e12ef5f2c)">
     <use xlink:href="#m1fbc478da9" x="325.410208" y="111.057136" style="fill: #0000ff; stroke: #0000ff"/>
    </g>
   </g>
   <g id="PathCollection_197">
    <g clip-path="url(#p5e12ef5f2c)">
     <use xlink:href="#m1fbc478da9" x="326.283995" y="108.425483" style="fill: #0000ff; stroke: #0000ff"/>
    </g>
   </g>
   <g id="PathCollection_198">
    <g clip-path="url(#p5e12ef5f2c)">
     <use xlink:href="#m1fbc478da9" x="327.307137" y="105.794878" style="fill: #0000ff; stroke: #0000ff"/>
    </g>
   </g>
   <g id="PathCollection_199">
    <g clip-path="url(#p5e12ef5f2c)">
     <use xlink:href="#m1fbc478da9" x="328.47409" y="103.164962" style="fill: #0000ff; stroke: #0000ff"/>
    </g>
   </g>
   <g id="PathCollection_200">
    <g clip-path="url(#p5e12ef5f2c)">
     <use xlink:href="#m1fbc478da9" x="329.777104" y="100.535229" style="fill: #0000ff; stroke: #0000ff"/>
    </g>
   </g>
   <g id="PathCollection_201">
    <g clip-path="url(#p5e12ef5f2c)">
     <use xlink:href="#m1fbc478da9" x="331.198044" y="97.905441" style="fill: #0000ff; stroke: #0000ff"/>
    </g>
   </g>
   <g id="PathCollection_202">
    <g clip-path="url(#p5e12ef5f2c)">
     <use xlink:href="#m1fbc478da9" x="332.717383" y="95.291129" style="fill: #0000ff; stroke: #0000ff"/>
    </g>
   </g>
   <g id="PathCollection_203">
    <g clip-path="url(#p5e12ef5f2c)">
     <use xlink:href="#m1fbc478da9" x="349.146878" y="92.708045" style="fill: #0000ff; stroke: #0000ff"/>
    </g>
   </g>
   <g id="PathCollection_204">
    <g clip-path="url(#p5e12ef5f2c)">
     <use xlink:href="#m1fbc478da9" x="350.090418" y="90.142303" style="fill: #0000ff; stroke: #0000ff"/>
    </g>
   </g>
   <g id="PathCollection_205">
    <g clip-path="url(#p5e12ef5f2c)">
     <use xlink:href="#m1fbc478da9" x="351.169944" y="87.586519" style="fill: #0000ff; stroke: #0000ff"/>
    </g>
   </g>
   <g id="PathCollection_206">
    <g clip-path="url(#p5e12ef5f2c)">
     <use xlink:href="#m1fbc478da9" x="352.377693" y="85.036627" style="fill: #0000ff; stroke: #0000ff"/>
    </g>
   </g>
   <g id="PathCollection_207">
    <g clip-path="url(#p5e12ef5f2c)">
     <use xlink:href="#m1fbc478da9" x="353.705102" y="82.490848" style="fill: #0000ff; stroke: #0000ff"/>
    </g>
   </g>
   <g id="PathCollection_208">
    <g clip-path="url(#p5e12ef5f2c)">
     <use xlink:href="#m1fbc478da9" x="355.14399" y="79.94793" style="fill: #0000ff; stroke: #0000ff"/>
    </g>
   </g>
   <g id="PathCollection_209">
    <g clip-path="url(#p5e12ef5f2c)">
     <use xlink:href="#m1fbc478da9" x="357.831612" y="77.406611" style="fill: #0000ff; stroke: #0000ff"/>
    </g>
   </g>
   <g id="PathCollection_210">
    <g clip-path="url(#p5e12ef5f2c)">
     <use xlink:href="#m1fbc478da9" x="374.298284" y="74.775308" style="fill: #0000ff; stroke: #0000ff"/>
    </g>
   </g>
   <g id="PathCollection_211">
    <g clip-path="url(#p5e12ef5f2c)">
     <use xlink:href="#m1fbc478da9" x="375.26675" y="72.142871" style="fill: #0000ff; stroke: #0000ff"/>
    </g>
   </g>
   <g id="PathCollection_212">
    <g clip-path="url(#p5e12ef5f2c)">
     <use xlink:href="#m1fbc478da9" x="376.3828" y="69.507948" style="fill: #0000ff; stroke: #0000ff"/>
    </g>
   </g>
   <g id="PathCollection_213">
    <g clip-path="url(#p5e12ef5f2c)">
     <use xlink:href="#m1fbc478da9" x="377.64202" y="66.868035" style="fill: #0000ff; stroke: #0000ff"/>
    </g>
   </g>
   <g id="PathCollection_214">
    <g clip-path="url(#p5e12ef5f2c)">
     <use xlink:href="#m1fbc478da9" x="379.037419" y="64.221383" style="fill: #0000ff; stroke: #0000ff"/>
    </g>
   </g>
   <g id="PathCollection_215">
    <g clip-path="url(#p5e12ef5f2c)">
     <use xlink:href="#m1fbc478da9" x="380.561596" y="61.567607" style="fill: #0000ff; stroke: #0000ff"/>
    </g>
   </g>
   <g id="PathCollection_216">
    <g clip-path="url(#p5e12ef5f2c)">
     <use xlink:href="#m1fbc478da9" x="382.204642" y="58.906945" style="fill: #0000ff; stroke: #0000ff"/>
    </g>
   </g>
   <g id="PathCollection_217">
    <g clip-path="url(#p5e12ef5f2c)">
     <use xlink:href="#m1fbc478da9" x="396.704804" y="58.906945" style="fill: #0000ff; stroke: #0000ff"/>
    </g>
   </g>
   <g id="PathCollection_218">
    <g clip-path="url(#p5e12ef5f2c)">
     <use xlink:href="#m1fbc478da9" x="397.66337" y="56.24009" style="fill: #0000ff; stroke: #0000ff"/>
    </g>
   </g>
   <g id="PathCollection_219">
    <g clip-path="url(#p5e12ef5f2c)">
     <use xlink:href="#m1fbc478da9" x="398.487273" y="53.568" style="fill: #0000ff; stroke: #0000ff"/>
    </g>
   </g>
   <g id="matplotlib.axis_1">
    <g id="xtick_1">
     <g id="line2d_1">
      <defs>
       <path id="m0de5e79d06" d="M 0 0 
L 0 3.5 
" style="stroke: #000000; stroke-width: 0.8"/>
      </defs>
      <g>
       <use xlink:href="#m0de5e79d06" x="73.83267" y="307.584" style="stroke: #000000; stroke-width: 0.8"/>
      </g>
     </g>
     <g id="text_1">
      <!-- 0.50 -->
      <g transform="translate(62.699857 322.182437)scale(0.1 -0.1)">
       <defs>
        <path id="DejaVuSans-30" d="M 2034 4250 
Q 1547 4250 1301 3770 
Q 1056 3291 1056 2328 
Q 1056 1369 1301 889 
Q 1547 409 2034 409 
Q 2525 409 2770 889 
Q 3016 1369 3016 2328 
Q 3016 3291 2770 3770 
Q 2525 4250 2034 4250 
z
M 2034 4750 
Q 2819 4750 3233 4129 
Q 3647 3509 3647 2328 
Q 3647 1150 3233 529 
Q 2819 -91 2034 -91 
Q 1250 -91 836 529 
Q 422 1150 422 2328 
Q 422 3509 836 4129 
Q 1250 4750 2034 4750 
z
" transform="scale(0.015625)"/>
        <path id="DejaVuSans-2e" d="M 684 794 
L 1344 794 
L 1344 0 
L 684 0 
L 684 794 
z
" transform="scale(0.015625)"/>
        <path id="DejaVuSans-35" d="M 691 4666 
L 3169 4666 
L 3169 4134 
L 1269 4134 
L 1269 2991 
Q 1406 3038 1543 3061 
Q 1681 3084 1819 3084 
Q 2600 3084 3056 2656 
Q 3513 2228 3513 1497 
Q 3513 744 3044 326 
Q 2575 -91 1722 -91 
Q 1428 -91 1123 -41 
Q 819 9 494 109 
L 494 744 
Q 775 591 1075 516 
Q 1375 441 1709 441 
Q 2250 441 2565 725 
Q 2881 1009 2881 1497 
Q 2881 1984 2565 2268 
Q 2250 2553 1709 2553 
Q 1456 2553 1204 2497 
Q 953 2441 691 2322 
L 691 4666 
z
" transform="scale(0.015625)"/>
       </defs>
       <use xlink:href="#DejaVuSans-30"/>
       <use xlink:href="#DejaVuSans-2e" x="63.623047"/>
       <use xlink:href="#DejaVuSans-35" x="95.410156"/>
       <use xlink:href="#DejaVuSans-30" x="159.033203"/>
      </g>
     </g>
    </g>
    <g id="xtick_2">
     <g id="line2d_2">
      <g>
       <use xlink:href="#m0de5e79d06" x="121.089277" y="307.584" style="stroke: #000000; stroke-width: 0.8"/>
      </g>
     </g>
     <g id="text_2">
      <!-- 0.55 -->
      <g transform="translate(109.956465 322.182437)scale(0.1 -0.1)">
       <use xlink:href="#DejaVuSans-30"/>
       <use xlink:href="#DejaVuSans-2e" x="63.623047"/>
       <use xlink:href="#DejaVuSans-35" x="95.410156"/>
       <use xlink:href="#DejaVuSans-35" x="159.033203"/>
      </g>
     </g>
    </g>
    <g id="xtick_3">
     <g id="line2d_3">
      <g>
       <use xlink:href="#m0de5e79d06" x="168.345885" y="307.584" style="stroke: #000000; stroke-width: 0.8"/>
      </g>
     </g>
     <g id="text_3">
      <!-- 0.60 -->
      <g transform="translate(157.213072 322.182437)scale(0.1 -0.1)">
       <defs>
        <path id="DejaVuSans-36" d="M 2113 2584 
Q 1688 2584 1439 2293 
Q 1191 2003 1191 1497 
Q 1191 994 1439 701 
Q 1688 409 2113 409 
Q 2538 409 2786 701 
Q 3034 994 3034 1497 
Q 3034 2003 2786 2293 
Q 2538 2584 2113 2584 
z
M 3366 4563 
L 3366 3988 
Q 3128 4100 2886 4159 
Q 2644 4219 2406 4219 
Q 1781 4219 1451 3797 
Q 1122 3375 1075 2522 
Q 1259 2794 1537 2939 
Q 1816 3084 2150 3084 
Q 2853 3084 3261 2657 
Q 3669 2231 3669 1497 
Q 3669 778 3244 343 
Q 2819 -91 2113 -91 
Q 1303 -91 875 529 
Q 447 1150 447 2328 
Q 447 3434 972 4092 
Q 1497 4750 2381 4750 
Q 2619 4750 2861 4703 
Q 3103 4656 3366 4563 
z
" transform="scale(0.015625)"/>
       </defs>
       <use xlink:href="#DejaVuSans-30"/>
       <use xlink:href="#DejaVuSans-2e" x="63.623047"/>
       <use xlink:href="#DejaVuSans-36" x="95.410156"/>
       <use xlink:href="#DejaVuSans-30" x="159.033203"/>
      </g>
     </g>
    </g>
    <g id="xtick_4">
     <g id="line2d_4">
      <g>
       <use xlink:href="#m0de5e79d06" x="215.602492" y="307.584" style="stroke: #000000; stroke-width: 0.8"/>
      </g>
     </g>
     <g id="text_4">
      <!-- 0.65 -->
      <g transform="translate(204.46968 322.182437)scale(0.1 -0.1)">
       <use xlink:href="#DejaVuSans-30"/>
       <use xlink:href="#DejaVuSans-2e" x="63.623047"/>
       <use xlink:href="#DejaVuSans-36" x="95.410156"/>
       <use xlink:href="#DejaVuSans-35" x="159.033203"/>
      </g>
     </g>
    </g>
    <g id="xtick_5">
     <g id="line2d_5">
      <g>
       <use xlink:href="#m0de5e79d06" x="262.859099" y="307.584" style="stroke: #000000; stroke-width: 0.8"/>
      </g>
     </g>
     <g id="text_5">
      <!-- 0.70 -->
      <g transform="translate(251.726287 322.182437)scale(0.1 -0.1)">
       <defs>
        <path id="DejaVuSans-37" d="M 525 4666 
L 3525 4666 
L 3525 4397 
L 1831 0 
L 1172 0 
L 2766 4134 
L 525 4134 
L 525 4666 
z
" transform="scale(0.015625)"/>
       </defs>
       <use xlink:href="#DejaVuSans-30"/>
       <use xlink:href="#DejaVuSans-2e" x="63.623047"/>
       <use xlink:href="#DejaVuSans-37" x="95.410156"/>
       <use xlink:href="#DejaVuSans-30" x="159.033203"/>
      </g>
     </g>
    </g>
    <g id="xtick_6">
     <g id="line2d_6">
      <g>
       <use xlink:href="#m0de5e79d06" x="310.115707" y="307.584" style="stroke: #000000; stroke-width: 0.8"/>
      </g>
     </g>
     <g id="text_6">
      <!-- 0.75 -->
      <g transform="translate(298.982894 322.182437)scale(0.1 -0.1)">
       <use xlink:href="#DejaVuSans-30"/>
       <use xlink:href="#DejaVuSans-2e" x="63.623047"/>
       <use xlink:href="#DejaVuSans-37" x="95.410156"/>
       <use xlink:href="#DejaVuSans-35" x="159.033203"/>
      </g>
     </g>
    </g>
    <g id="xtick_7">
     <g id="line2d_7">
      <g>
       <use xlink:href="#m0de5e79d06" x="357.372314" y="307.584" style="stroke: #000000; stroke-width: 0.8"/>
      </g>
     </g>
     <g id="text_7">
      <!-- 0.80 -->
      <g transform="translate(346.239502 322.182437)scale(0.1 -0.1)">
       <defs>
        <path id="DejaVuSans-38" d="M 2034 2216 
Q 1584 2216 1326 1975 
Q 1069 1734 1069 1313 
Q 1069 891 1326 650 
Q 1584 409 2034 409 
Q 2484 409 2743 651 
Q 3003 894 3003 1313 
Q 3003 1734 2745 1975 
Q 2488 2216 2034 2216 
z
M 1403 2484 
Q 997 2584 770 2862 
Q 544 3141 544 3541 
Q 544 4100 942 4425 
Q 1341 4750 2034 4750 
Q 2731 4750 3128 4425 
Q 3525 4100 3525 3541 
Q 3525 3141 3298 2862 
Q 3072 2584 2669 2484 
Q 3125 2378 3379 2068 
Q 3634 1759 3634 1313 
Q 3634 634 3220 271 
Q 2806 -91 2034 -91 
Q 1263 -91 848 271 
Q 434 634 434 1313 
Q 434 1759 690 2068 
Q 947 2378 1403 2484 
z
M 1172 3481 
Q 1172 3119 1398 2916 
Q 1625 2713 2034 2713 
Q 2441 2713 2670 2916 
Q 2900 3119 2900 3481 
Q 2900 3844 2670 4047 
Q 2441 4250 2034 4250 
Q 1625 4250 1398 4047 
Q 1172 3844 1172 3481 
z
" transform="scale(0.015625)"/>
       </defs>
       <use xlink:href="#DejaVuSans-30"/>
       <use xlink:href="#DejaVuSans-2e" x="63.623047"/>
       <use xlink:href="#DejaVuSans-38" x="95.410156"/>
       <use xlink:href="#DejaVuSans-30" x="159.033203"/>
      </g>
     </g>
    </g>
    <g id="xtick_8">
     <g id="line2d_8">
      <g>
       <use xlink:href="#m0de5e79d06" x="404.628922" y="307.584" style="stroke: #000000; stroke-width: 0.8"/>
      </g>
     </g>
     <g id="text_8">
      <!-- 0.85 -->
      <g transform="translate(393.496109 322.182437)scale(0.1 -0.1)">
       <use xlink:href="#DejaVuSans-30"/>
       <use xlink:href="#DejaVuSans-2e" x="63.623047"/>
       <use xlink:href="#DejaVuSans-38" x="95.410156"/>
       <use xlink:href="#DejaVuSans-35" x="159.033203"/>
      </g>
     </g>
    </g>
   </g>
   <g id="matplotlib.axis_2">
    <g id="ytick_1">
     <g id="line2d_9">
      <defs>
       <path id="md08d754d1e" d="M 0 0 
L -3.5 0 
" style="stroke: #000000; stroke-width: 0.8"/>
      </defs>
      <g>
       <use xlink:href="#md08d754d1e" x="57.6" y="295.488" style="stroke: #000000; stroke-width: 0.8"/>
      </g>
     </g>
     <g id="text_9">
      <!-- 0.000 -->
      <g transform="translate(21.971875 299.287219)scale(0.1 -0.1)">
       <use xlink:href="#DejaVuSans-30"/>
       <use xlink:href="#DejaVuSans-2e" x="63.623047"/>
       <use xlink:href="#DejaVuSans-30" x="95.410156"/>
       <use xlink:href="#DejaVuSans-30" x="159.033203"/>
       <use xlink:href="#DejaVuSans-30" x="222.65625"/>
      </g>
     </g>
    </g>
    <g id="ytick_2">
     <g id="line2d_10">
      <g>
       <use xlink:href="#md08d754d1e" x="57.6" y="265.000323" style="stroke: #000000; stroke-width: 0.8"/>
      </g>
     </g>
     <g id="text_10">
      <!-- 0.025 -->
      <g transform="translate(21.971875 268.799542)scale(0.1 -0.1)">
       <defs>
        <path id="DejaVuSans-32" d="M 1228 531 
L 3431 531 
L 3431 0 
L 469 0 
L 469 531 
Q 828 903 1448 1529 
Q 2069 2156 2228 2338 
Q 2531 2678 2651 2914 
Q 2772 3150 2772 3378 
Q 2772 3750 2511 3984 
Q 2250 4219 1831 4219 
Q 1534 4219 1204 4116 
Q 875 4013 500 3803 
L 500 4441 
Q 881 4594 1212 4672 
Q 1544 4750 1819 4750 
Q 2544 4750 2975 4387 
Q 3406 4025 3406 3419 
Q 3406 3131 3298 2873 
Q 3191 2616 2906 2266 
Q 2828 2175 2409 1742 
Q 1991 1309 1228 531 
z
" transform="scale(0.015625)"/>
       </defs>
       <use xlink:href="#DejaVuSans-30"/>
       <use xlink:href="#DejaVuSans-2e" x="63.623047"/>
       <use xlink:href="#DejaVuSans-30" x="95.410156"/>
       <use xlink:href="#DejaVuSans-32" x="159.033203"/>
       <use xlink:href="#DejaVuSans-35" x="222.65625"/>
      </g>
     </g>
    </g>
    <g id="ytick_3">
     <g id="line2d_11">
      <g>
       <use xlink:href="#md08d754d1e" x="57.6" y="234.512647" style="stroke: #000000; stroke-width: 0.8"/>
      </g>
     </g>
     <g id="text_11">
      <!-- 0.050 -->
      <g transform="translate(21.971875 238.311866)scale(0.1 -0.1)">
       <use xlink:href="#DejaVuSans-30"/>
       <use xlink:href="#DejaVuSans-2e" x="63.623047"/>
       <use xlink:href="#DejaVuSans-30" x="95.410156"/>
       <use xlink:href="#DejaVuSans-35" x="159.033203"/>
       <use xlink:href="#DejaVuSans-30" x="222.65625"/>
      </g>
     </g>
    </g>
    <g id="ytick_4">
     <g id="line2d_12">
      <g>
       <use xlink:href="#md08d754d1e" x="57.6" y="204.02497" style="stroke: #000000; stroke-width: 0.8"/>
      </g>
     </g>
     <g id="text_12">
      <!-- 0.075 -->
      <g transform="translate(21.971875 207.824189)scale(0.1 -0.1)">
       <use xlink:href="#DejaVuSans-30"/>
       <use xlink:href="#DejaVuSans-2e" x="63.623047"/>
       <use xlink:href="#DejaVuSans-30" x="95.410156"/>
       <use xlink:href="#DejaVuSans-37" x="159.033203"/>
       <use xlink:href="#DejaVuSans-35" x="222.65625"/>
      </g>
     </g>
    </g>
    <g id="ytick_5">
     <g id="line2d_13">
      <g>
       <use xlink:href="#md08d754d1e" x="57.6" y="173.537294" style="stroke: #000000; stroke-width: 0.8"/>
      </g>
     </g>
     <g id="text_13">
      <!-- 0.100 -->
      <g transform="translate(21.971875 177.336513)scale(0.1 -0.1)">
       <defs>
        <path id="DejaVuSans-31" d="M 794 531 
L 1825 531 
L 1825 4091 
L 703 3866 
L 703 4441 
L 1819 4666 
L 2450 4666 
L 2450 531 
L 3481 531 
L 3481 0 
L 794 0 
L 794 531 
z
" transform="scale(0.015625)"/>
       </defs>
       <use xlink:href="#DejaVuSans-30"/>
       <use xlink:href="#DejaVuSans-2e" x="63.623047"/>
       <use xlink:href="#DejaVuSans-31" x="95.410156"/>
       <use xlink:href="#DejaVuSans-30" x="159.033203"/>
       <use xlink:href="#DejaVuSans-30" x="222.65625"/>
      </g>
     </g>
    </g>
    <g id="ytick_6">
     <g id="line2d_14">
      <g>
       <use xlink:href="#md08d754d1e" x="57.6" y="143.049617" style="stroke: #000000; stroke-width: 0.8"/>
      </g>
     </g>
     <g id="text_14">
      <!-- 0.125 -->
      <g transform="translate(21.971875 146.848836)scale(0.1 -0.1)">
       <use xlink:href="#DejaVuSans-30"/>
       <use xlink:href="#DejaVuSans-2e" x="63.623047"/>
       <use xlink:href="#DejaVuSans-31" x="95.410156"/>
       <use xlink:href="#DejaVuSans-32" x="159.033203"/>
       <use xlink:href="#DejaVuSans-35" x="222.65625"/>
      </g>
     </g>
    </g>
    <g id="ytick_7">
     <g id="line2d_15">
      <g>
       <use xlink:href="#md08d754d1e" x="57.6" y="112.561941" style="stroke: #000000; stroke-width: 0.8"/>
      </g>
     </g>
     <g id="text_15">
      <!-- 0.150 -->
      <g transform="translate(21.971875 116.361159)scale(0.1 -0.1)">
       <use xlink:href="#DejaVuSans-30"/>
       <use xlink:href="#DejaVuSans-2e" x="63.623047"/>
       <use xlink:href="#DejaVuSans-31" x="95.410156"/>
       <use xlink:href="#DejaVuSans-35" x="159.033203"/>
       <use xlink:href="#DejaVuSans-30" x="222.65625"/>
      </g>
     </g>
    </g>
    <g id="ytick_8">
     <g id="line2d_16">
      <g>
       <use xlink:href="#md08d754d1e" x="57.6" y="82.074264" style="stroke: #000000; stroke-width: 0.8"/>
      </g>
     </g>
     <g id="text_16">
      <!-- 0.175 -->
      <g transform="translate(21.971875 85.873483)scale(0.1 -0.1)">
       <use xlink:href="#DejaVuSans-30"/>
       <use xlink:href="#DejaVuSans-2e" x="63.623047"/>
       <use xlink:href="#DejaVuSans-31" x="95.410156"/>
       <use xlink:href="#DejaVuSans-37" x="159.033203"/>
       <use xlink:href="#DejaVuSans-35" x="222.65625"/>
      </g>
     </g>
    </g>
    <g id="ytick_9">
     <g id="line2d_17">
      <g>
       <use xlink:href="#md08d754d1e" x="57.6" y="51.586588" style="stroke: #000000; stroke-width: 0.8"/>
      </g>
     </g>
     <g id="text_17">
      <!-- 0.200 -->
      <g transform="translate(21.971875 55.385806)scale(0.1 -0.1)">
       <use xlink:href="#DejaVuSans-30"/>
       <use xlink:href="#DejaVuSans-2e" x="63.623047"/>
       <use xlink:href="#DejaVuSans-32" x="95.410156"/>
       <use xlink:href="#DejaVuSans-30" x="159.033203"/>
       <use xlink:href="#DejaVuSans-30" x="222.65625"/>
      </g>
     </g>
    </g>
   </g>
   <g id="patch_3">
    <path d="M 57.6 307.584 
L 57.6 41.472 
" style="fill: none; stroke: #000000; stroke-width: 0.8; stroke-linejoin: miter; stroke-linecap: square"/>
   </g>
   <g id="patch_4">
    <path d="M 414.72 307.584 
L 414.72 41.472 
" style="fill: none; stroke: #000000; stroke-width: 0.8; stroke-linejoin: miter; stroke-linecap: square"/>
   </g>
   <g id="patch_5">
    <path d="M 57.6 307.584 
L 414.72 307.584 
" style="fill: none; stroke: #000000; stroke-width: 0.8; stroke-linejoin: miter; stroke-linecap: square"/>
   </g>
   <g id="patch_6">
    <path d="M 57.6 41.472 
L 414.72 41.472 
" style="fill: none; stroke: #000000; stroke-width: 0.8; stroke-linejoin: miter; stroke-linecap: square"/>
   </g>
  </g>
 </g>
 <defs>
  <clipPath id="p5e12ef5f2c">
   <rect x="57.6" y="41.472" width="357.12" height="266.112"/>
  </clipPath>
 </defs>
</svg>
