<?xml version="1.0" encoding="utf-8" standalone="no"?>
<!DOCTYPE svg PUBLIC "-//W3C//DTD SVG 1.1//EN"
  "http://www.w3.org/Graphics/SVG/1.1/DTD/svg11.dtd">
<svg xmlns:xlink="http://www.w3.org/1999/xlink" width="460.8pt" height="345.6pt" viewBox="0 0 460.8 345.6" xmlns="http://www.w3.org/2000/svg" version="1.1">
 <metadata>
  <rdf:RDF xmlns:dc="http://purl.org/dc/elements/1.1/" xmlns:cc="http://creativecommons.org/ns#" xmlns:rdf="http://www.w3.org/1999/02/22-rdf-syntax-ns#">
   <cc:Work>
    <dc:type rdf:resource="http://purl.org/dc/dcmitype/StillImage"/>
    <dc:date>2023-07-31T06:48:18.421846</dc:date>
    <dc:format>image/svg+xml</dc:format>
    <dc:creator>
     <cc:Agent>
      <dc:title>Matplotlib v3.5.2, https://matplotlib.org/</dc:title>
     </cc:Agent>
    </dc:creator>
   </cc:Work>
  </rdf:RDF>
 </metadata>
 <defs>
  <style type="text/css">*{stroke-linejoin: round; stroke-linecap: butt}</style>
 </defs>
 <g id="figure_1">
  <g id="patch_1">
   <path d="M 0 345.6 
L 460.8 345.6 
L 460.8 0 
L 0 0 
z
" style="fill: #ffffff"/>
  </g>
  <g id="axes_1">
   <g id="patch_2">
    <path d="M 57.6 307.584 
L 414.72 307.584 
L 414.72 41.472 
L 57.6 41.472 
z
" style="fill: #ffffff"/>
   </g>
   <g id="PathCollection_1">
    <defs>
     <path id="m53b9506e86" d="M 0 3 
C 0.795609 3 1.55874 2.683901 2.12132 2.12132 
C 2.683901 1.55874 3 0.795609 3 0 
C 3 -0.795609 2.683901 -1.55874 2.12132 -2.12132 
C 1.55874 -2.683901 0.795609 -3 0 -3 
C -0.795609 -3 -1.55874 -2.683901 -2.12132 -2.12132 
C -2.683901 -1.55874 -3 -0.795609 -3 0 
C -3 0.795609 -2.683901 1.55874 -2.12132 2.12132 
C -1.55874 2.683901 -0.795609 3 0 3 
z
" style="stroke: #0000ff"/>
    </defs>
    <g clip-path="url(#p9ccd161592)">
     <use xlink:href="#m53b9506e86" x="75.887503" y="285.196055" style="fill: #0000ff; stroke: #0000ff"/>
    </g>
   </g>
   <g id="PathCollection_2">
    <g clip-path="url(#p9ccd161592)">
     <use xlink:href="#m53b9506e86" x="79.997054" y="288.14885" style="fill: #0000ff; stroke: #0000ff"/>
    </g>
   </g>
   <g id="PathCollection_3">
    <g clip-path="url(#p9ccd161592)">
     <use xlink:href="#m53b9506e86" x="84.106605" y="290.225892" style="fill: #0000ff; stroke: #0000ff"/>
    </g>
   </g>
   <g id="PathCollection_4">
    <g clip-path="url(#p9ccd161592)">
     <use xlink:href="#m53b9506e86" x="88.216157" y="291.807584" style="fill: #0000ff; stroke: #0000ff"/>
    </g>
   </g>
   <g id="PathCollection_5">
    <g clip-path="url(#p9ccd161592)">
     <use xlink:href="#m53b9506e86" x="92.325708" y="293.081981" style="fill: #0000ff; stroke: #0000ff"/>
    </g>
   </g>
   <g id="PathCollection_6">
    <g clip-path="url(#p9ccd161592)">
     <use xlink:href="#m53b9506e86" x="96.435259" y="294.101058" style="fill: #0000ff; stroke: #0000ff"/>
    </g>
   </g>
   <g id="PathCollection_7">
    <g clip-path="url(#p9ccd161592)">
     <use xlink:href="#m53b9506e86" x="100.54481" y="294.854199" style="fill: #0000ff; stroke: #0000ff"/>
    </g>
   </g>
   <g id="PathCollection_8">
    <g clip-path="url(#p9ccd161592)">
     <use xlink:href="#m53b9506e86" x="104.654361" y="295.317007" style="fill: #0000ff; stroke: #0000ff"/>
    </g>
   </g>
   <g id="PathCollection_9">
    <g clip-path="url(#p9ccd161592)">
     <use xlink:href="#m53b9506e86" x="108.763913" y="295.472508" style="fill: #0000ff; stroke: #0000ff"/>
    </g>
   </g>
   <g id="PathCollection_10">
    <g clip-path="url(#p9ccd161592)">
     <use xlink:href="#m53b9506e86" x="112.873464" y="295.314456" style="fill: #0000ff; stroke: #0000ff"/>
    </g>
   </g>
   <g id="PathCollection_11">
    <g clip-path="url(#p9ccd161592)">
     <use xlink:href="#m53b9506e86" x="116.983015" y="294.843433" style="fill: #0000ff; stroke: #0000ff"/>
    </g>
   </g>
   <g id="PathCollection_12">
    <g clip-path="url(#p9ccd161592)">
     <use xlink:href="#m53b9506e86" x="121.092566" y="294.062536" style="fill: #0000ff; stroke: #0000ff"/>
    </g>
   </g>
   <g id="PathCollection_13">
    <g clip-path="url(#p9ccd161592)">
     <use xlink:href="#m53b9506e86" x="125.202117" y="292.975138" style="fill: #0000ff; stroke: #0000ff"/>
    </g>
   </g>
   <g id="PathCollection_14">
    <g clip-path="url(#p9ccd161592)">
     <use xlink:href="#m53b9506e86" x="129.311669" y="291.584487" style="fill: #0000ff; stroke: #0000ff"/>
    </g>
   </g>
   <g id="PathCollection_15">
    <g clip-path="url(#p9ccd161592)">
     <use xlink:href="#m53b9506e86" x="133.42122" y="289.89409" style="fill: #0000ff; stroke: #0000ff"/>
    </g>
   </g>
   <g id="PathCollection_16">
    <g clip-path="url(#p9ccd161592)">
     <use xlink:href="#m53b9506e86" x="137.530771" y="287.908113" style="fill: #0000ff; stroke: #0000ff"/>
    </g>
   </g>
   <g id="PathCollection_17">
    <g clip-path="url(#p9ccd161592)">
     <use xlink:href="#m53b9506e86" x="141.640322" y="285.631553" style="fill: #0000ff; stroke: #0000ff"/>
    </g>
   </g>
   <g id="PathCollection_18">
    <g clip-path="url(#p9ccd161592)">
     <use xlink:href="#m53b9506e86" x="145.749873" y="283.070234" style="fill: #0000ff; stroke: #0000ff"/>
    </g>
   </g>
   <g id="PathCollection_19">
    <g clip-path="url(#p9ccd161592)">
     <use xlink:href="#m53b9506e86" x="149.859425" y="280.230738" style="fill: #0000ff; stroke: #0000ff"/>
    </g>
   </g>
   <g id="PathCollection_20">
    <g clip-path="url(#p9ccd161592)">
     <use xlink:href="#m53b9506e86" x="153.968976" y="277.120352" style="fill: #0000ff; stroke: #0000ff"/>
    </g>
   </g>
   <g id="PathCollection_21">
    <g clip-path="url(#p9ccd161592)">
     <use xlink:href="#m53b9506e86" x="158.078527" y="273.747043" style="fill: #0000ff; stroke: #0000ff"/>
    </g>
   </g>
   <g id="PathCollection_22">
    <g clip-path="url(#p9ccd161592)">
     <use xlink:href="#m53b9506e86" x="162.188078" y="270.119437" style="fill: #0000ff; stroke: #0000ff"/>
    </g>
   </g>
   <g id="PathCollection_23">
    <g clip-path="url(#p9ccd161592)">
     <use xlink:href="#m53b9506e86" x="166.297629" y="266.246814" style="fill: #0000ff; stroke: #0000ff"/>
    </g>
   </g>
   <g id="PathCollection_24">
    <g clip-path="url(#p9ccd161592)">
     <use xlink:href="#m53b9506e86" x="170.407181" y="262.139085" style="fill: #0000ff; stroke: #0000ff"/>
    </g>
   </g>
   <g id="PathCollection_25">
    <g clip-path="url(#p9ccd161592)">
     <use xlink:href="#m53b9506e86" x="174.516732" y="257.806776" style="fill: #0000ff; stroke: #0000ff"/>
    </g>
   </g>
   <g id="PathCollection_26">
    <g clip-path="url(#p9ccd161592)">
     <use xlink:href="#m53b9506e86" x="178.626283" y="253.260992" style="fill: #0000ff; stroke: #0000ff"/>
    </g>
   </g>
   <g id="PathCollection_27">
    <g clip-path="url(#p9ccd161592)">
     <use xlink:href="#m53b9506e86" x="182.735834" y="248.513392" style="fill: #0000ff; stroke: #0000ff"/>
    </g>
   </g>
   <g id="PathCollection_28">
    <g clip-path="url(#p9ccd161592)">
     <use xlink:href="#m53b9506e86" x="186.845386" y="243.576147" style="fill: #0000ff; stroke: #0000ff"/>
    </g>
   </g>
   <g id="PathCollection_29">
    <g clip-path="url(#p9ccd161592)">
     <use xlink:href="#m53b9506e86" x="190.954937" y="238.461914" style="fill: #0000ff; stroke: #0000ff"/>
    </g>
   </g>
   <g id="PathCollection_30">
    <g clip-path="url(#p9ccd161592)">
     <use xlink:href="#m53b9506e86" x="195.064488" y="233.1838" style="fill: #0000ff; stroke: #0000ff"/>
    </g>
   </g>
   <g id="PathCollection_31">
    <g clip-path="url(#p9ccd161592)">
     <use xlink:href="#m53b9506e86" x="199.174039" y="227.755309" style="fill: #0000ff; stroke: #0000ff"/>
    </g>
   </g>
   <g id="PathCollection_32">
    <g clip-path="url(#p9ccd161592)">
     <use xlink:href="#m53b9506e86" x="203.28359" y="222.190388" style="fill: #0000ff; stroke: #0000ff"/>
    </g>
   </g>
   <g id="PathCollection_33">
    <g clip-path="url(#p9ccd161592)">
     <use xlink:href="#m53b9506e86" x="207.393142" y="216.503337" style="fill: #0000ff; stroke: #0000ff"/>
    </g>
   </g>
   <g id="PathCollection_34">
    <g clip-path="url(#p9ccd161592)">
     <use xlink:href="#m53b9506e86" x="211.502693" y="210.708616" style="fill: #0000ff; stroke: #0000ff"/>
    </g>
   </g>
   <g id="PathCollection_35">
    <g clip-path="url(#p9ccd161592)">
     <use xlink:href="#m53b9506e86" x="215.612244" y="204.821219" style="fill: #0000ff; stroke: #0000ff"/>
    </g>
   </g>
   <g id="PathCollection_36">
    <g clip-path="url(#p9ccd161592)">
     <use xlink:href="#m53b9506e86" x="219.721795" y="198.856102" style="fill: #0000ff; stroke: #0000ff"/>
    </g>
   </g>
   <g id="PathCollection_37">
    <g clip-path="url(#p9ccd161592)">
     <use xlink:href="#m53b9506e86" x="223.831346" y="192.828629" style="fill: #0000ff; stroke: #0000ff"/>
    </g>
   </g>
   <g id="PathCollection_38">
    <g clip-path="url(#p9ccd161592)">
     <use xlink:href="#m53b9506e86" x="227.940898" y="186.754272" style="fill: #0000ff; stroke: #0000ff"/>
    </g>
   </g>
   <g id="PathCollection_39">
    <g clip-path="url(#p9ccd161592)">
     <use xlink:href="#m53b9506e86" x="232.050449" y="180.648508" style="fill: #0000ff; stroke: #0000ff"/>
    </g>
   </g>
   <g id="PathCollection_40">
    <g clip-path="url(#p9ccd161592)">
     <use xlink:href="#m53b9506e86" x="236.16" y="174.527074" style="fill: #0000ff; stroke: #0000ff"/>
    </g>
   </g>
   <g id="PathCollection_41">
    <g clip-path="url(#p9ccd161592)">
     <use xlink:href="#m53b9506e86" x="240.269551" y="168.405668" style="fill: #0000ff; stroke: #0000ff"/>
    </g>
   </g>
   <g id="PathCollection_42">
    <g clip-path="url(#p9ccd161592)">
     <use xlink:href="#m53b9506e86" x="244.379102" y="162.299908" style="fill: #0000ff; stroke: #0000ff"/>
    </g>
   </g>
   <g id="PathCollection_43">
    <g clip-path="url(#p9ccd161592)">
     <use xlink:href="#m53b9506e86" x="248.488654" y="156.225481" style="fill: #0000ff; stroke: #0000ff"/>
    </g>
   </g>
   <g id="PathCollection_44">
    <g clip-path="url(#p9ccd161592)">
     <use xlink:href="#m53b9506e86" x="252.598205" y="150.197989" style="fill: #0000ff; stroke: #0000ff"/>
    </g>
   </g>
   <g id="PathCollection_45">
    <g clip-path="url(#p9ccd161592)">
     <use xlink:href="#m53b9506e86" x="256.707756" y="144.232865" style="fill: #0000ff; stroke: #0000ff"/>
    </g>
   </g>
   <g id="PathCollection_46">
    <g clip-path="url(#p9ccd161592)">
     <use xlink:href="#m53b9506e86" x="260.817307" y="138.34536" style="fill: #0000ff; stroke: #0000ff"/>
    </g>
   </g>
   <g id="PathCollection_47">
    <g clip-path="url(#p9ccd161592)">
     <use xlink:href="#m53b9506e86" x="264.926858" y="132.550597" style="fill: #0000ff; stroke: #0000ff"/>
    </g>
   </g>
   <g id="PathCollection_48">
    <g clip-path="url(#p9ccd161592)">
     <use xlink:href="#m53b9506e86" x="269.03641" y="126.863453" style="fill: #0000ff; stroke: #0000ff"/>
    </g>
   </g>
   <g id="PathCollection_49">
    <g clip-path="url(#p9ccd161592)">
     <use xlink:href="#m53b9506e86" x="273.145961" y="121.298496" style="fill: #0000ff; stroke: #0000ff"/>
    </g>
   </g>
   <g id="PathCollection_50">
    <g clip-path="url(#p9ccd161592)">
     <use xlink:href="#m53b9506e86" x="277.255512" y="115.869964" style="fill: #0000ff; stroke: #0000ff"/>
    </g>
   </g>
   <g id="PathCollection_51">
    <g clip-path="url(#p9ccd161592)">
     <use xlink:href="#m53b9506e86" x="281.365063" y="110.591781" style="fill: #0000ff; stroke: #0000ff"/>
    </g>
   </g>
   <g id="PathCollection_52">
    <g clip-path="url(#p9ccd161592)">
     <use xlink:href="#m53b9506e86" x="285.474614" y="105.477498" style="fill: #0000ff; stroke: #0000ff"/>
    </g>
   </g>
   <g id="PathCollection_53">
    <g clip-path="url(#p9ccd161592)">
     <use xlink:href="#m53b9506e86" x="289.584166" y="100.540227" style="fill: #0000ff; stroke: #0000ff"/>
    </g>
   </g>
   <g id="PathCollection_54">
    <g clip-path="url(#p9ccd161592)">
     <use xlink:href="#m53b9506e86" x="293.693717" y="95.792621" style="fill: #0000ff; stroke: #0000ff"/>
    </g>
   </g>
   <g id="PathCollection_55">
    <g clip-path="url(#p9ccd161592)">
     <use xlink:href="#m53b9506e86" x="297.803268" y="91.246846" style="fill: #0000ff; stroke: #0000ff"/>
    </g>
   </g>
   <g id="PathCollection_56">
    <g clip-path="url(#p9ccd161592)">
     <use xlink:href="#m53b9506e86" x="301.912819" y="86.914558" style="fill: #0000ff; stroke: #0000ff"/>
    </g>
   </g>
   <g id="PathCollection_57">
    <g clip-path="url(#p9ccd161592)">
     <use xlink:href="#m53b9506e86" x="306.022371" y="82.806874" style="fill: #0000ff; stroke: #0000ff"/>
    </g>
   </g>
   <g id="PathCollection_58">
    <g clip-path="url(#p9ccd161592)">
     <use xlink:href="#m53b9506e86" x="310.131922" y="78.934322" style="fill: #0000ff; stroke: #0000ff"/>
    </g>
   </g>
   <g id="PathCollection_59">
    <g clip-path="url(#p9ccd161592)">
     <use xlink:href="#m53b9506e86" x="314.241473" y="75.30682" style="fill: #0000ff; stroke: #0000ff"/>
    </g>
   </g>
   <g id="PathCollection_60">
    <g clip-path="url(#p9ccd161592)">
     <use xlink:href="#m53b9506e86" x="318.351024" y="71.933655" style="fill: #0000ff; stroke: #0000ff"/>
    </g>
   </g>
   <g id="PathCollection_61">
    <g clip-path="url(#p9ccd161592)">
     <use xlink:href="#m53b9506e86" x="322.460575" y="68.823452" style="fill: #0000ff; stroke: #0000ff"/>
    </g>
   </g>
   <g id="PathCollection_62">
    <g clip-path="url(#p9ccd161592)">
     <use xlink:href="#m53b9506e86" x="326.570127" y="65.984252" style="fill: #0000ff; stroke: #0000ff"/>
    </g>
   </g>
   <g id="PathCollection_63">
    <g clip-path="url(#p9ccd161592)">
     <use xlink:href="#m53b9506e86" x="330.679678" y="63.423268" style="fill: #0000ff; stroke: #0000ff"/>
    </g>
   </g>
   <g id="PathCollection_64">
    <g clip-path="url(#p9ccd161592)">
     <use xlink:href="#m53b9506e86" x="334.789229" y="61.146949" style="fill: #0000ff; stroke: #0000ff"/>
    </g>
   </g>
   <g id="PathCollection_65">
    <g clip-path="url(#p9ccd161592)">
     <use xlink:href="#m53b9506e86" x="338.89878" y="59.160971" style="fill: #0000ff; stroke: #0000ff"/>
    </g>
   </g>
   <g id="PathCollection_66">
    <g clip-path="url(#p9ccd161592)">
     <use xlink:href="#m53b9506e86" x="343.008331" y="57.470556" style="fill: #0000ff; stroke: #0000ff"/>
    </g>
   </g>
   <g id="PathCollection_67">
    <g clip-path="url(#p9ccd161592)">
     <use xlink:href="#m53b9506e86" x="347.117883" y="56.080601" style="fill: #0000ff; stroke: #0000ff"/>
    </g>
   </g>
   <g id="PathCollection_68">
    <g clip-path="url(#p9ccd161592)">
     <use xlink:href="#m53b9506e86" x="351.227434" y="54.995967" style="fill: #0000ff; stroke: #0000ff"/>
    </g>
   </g>
   <g id="PathCollection_69">
    <g clip-path="url(#p9ccd161592)">
     <use xlink:href="#m53b9506e86" x="355.336985" y="54.22099" style="fill: #0000ff; stroke: #0000ff"/>
    </g>
   </g>
   <g id="PathCollection_70">
    <g clip-path="url(#p9ccd161592)">
     <use xlink:href="#m53b9506e86" x="359.446536" y="53.757868" style="fill: #0000ff; stroke: #0000ff"/>
    </g>
   </g>
   <g id="PathCollection_71">
    <g clip-path="url(#p9ccd161592)">
     <use xlink:href="#m53b9506e86" x="363.556087" y="53.603968" style="fill: #0000ff; stroke: #0000ff"/>
    </g>
   </g>
   <g id="PathCollection_72">
    <g clip-path="url(#p9ccd161592)">
     <use xlink:href="#m53b9506e86" x="367.665639" y="53.749547" style="fill: #0000ff; stroke: #0000ff"/>
    </g>
   </g>
   <g id="PathCollection_73">
    <g clip-path="url(#p9ccd161592)">
     <use xlink:href="#m53b9506e86" x="371.77519" y="54.178018" style="fill: #0000ff; stroke: #0000ff"/>
    </g>
   </g>
   <g id="PathCollection_74">
    <g clip-path="url(#p9ccd161592)">
     <use xlink:href="#m53b9506e86" x="375.884741" y="54.872157" style="fill: #0000ff; stroke: #0000ff"/>
    </g>
   </g>
   <g id="PathCollection_75">
    <g clip-path="url(#p9ccd161592)">
     <use xlink:href="#m53b9506e86" x="379.994292" y="55.830081" style="fill: #0000ff; stroke: #0000ff"/>
    </g>
   </g>
   <g id="PathCollection_76">
    <g clip-path="url(#p9ccd161592)">
     <use xlink:href="#m53b9506e86" x="384.103843" y="57.091816" style="fill: #0000ff; stroke: #0000ff"/>
    </g>
   </g>
   <g id="PathCollection_77">
    <g clip-path="url(#p9ccd161592)">
     <use xlink:href="#m53b9506e86" x="388.213395" y="58.770741" style="fill: #0000ff; stroke: #0000ff"/>
    </g>
   </g>
   <g id="PathCollection_78">
    <g clip-path="url(#p9ccd161592)">
     <use xlink:href="#m53b9506e86" x="392.322946" y="61.066355" style="fill: #0000ff; stroke: #0000ff"/>
    </g>
   </g>
   <g id="PathCollection_79">
    <g clip-path="url(#p9ccd161592)">
     <use xlink:href="#m53b9506e86" x="396.432497" y="64.160342" style="fill: #0000ff; stroke: #0000ff"/>
    </g>
   </g>
   <g id="PathCollection_80">
    <g clip-path="url(#p9ccd161592)">
     <use xlink:href="#m53b9506e86" x="75.887503" y="285.196055" style="fill: #0000ff; stroke: #0000ff"/>
    </g>
   </g>
   <g id="PathCollection_81">
    <g clip-path="url(#p9ccd161592)">
     <use xlink:href="#m53b9506e86" x="79.997054" y="288.14885" style="fill: #0000ff; stroke: #0000ff"/>
    </g>
   </g>
   <g id="PathCollection_82">
    <g clip-path="url(#p9ccd161592)">
     <use xlink:href="#m53b9506e86" x="84.106605" y="290.225892" style="fill: #0000ff; stroke: #0000ff"/>
    </g>
   </g>
   <g id="PathCollection_83">
    <g clip-path="url(#p9ccd161592)">
     <use xlink:href="#m53b9506e86" x="88.216157" y="291.807584" style="fill: #0000ff; stroke: #0000ff"/>
    </g>
   </g>
   <g id="PathCollection_84">
    <g clip-path="url(#p9ccd161592)">
     <use xlink:href="#m53b9506e86" x="92.325708" y="293.081981" style="fill: #0000ff; stroke: #0000ff"/>
    </g>
   </g>
   <g id="PathCollection_85">
    <g clip-path="url(#p9ccd161592)">
     <use xlink:href="#m53b9506e86" x="96.435259" y="294.101058" style="fill: #0000ff; stroke: #0000ff"/>
    </g>
   </g>
   <g id="PathCollection_86">
    <g clip-path="url(#p9ccd161592)">
     <use xlink:href="#m53b9506e86" x="100.54481" y="294.854199" style="fill: #0000ff; stroke: #0000ff"/>
    </g>
   </g>
   <g id="PathCollection_87">
    <g clip-path="url(#p9ccd161592)">
     <use xlink:href="#m53b9506e86" x="104.654361" y="295.317007" style="fill: #0000ff; stroke: #0000ff"/>
    </g>
   </g>
   <g id="PathCollection_88">
    <g clip-path="url(#p9ccd161592)">
     <use xlink:href="#m53b9506e86" x="108.763913" y="295.472508" style="fill: #0000ff; stroke: #0000ff"/>
    </g>
   </g>
   <g id="PathCollection_89">
    <g clip-path="url(#p9ccd161592)">
     <use xlink:href="#m53b9506e86" x="112.873464" y="295.314456" style="fill: #0000ff; stroke: #0000ff"/>
    </g>
   </g>
   <g id="PathCollection_90">
    <g clip-path="url(#p9ccd161592)">
     <use xlink:href="#m53b9506e86" x="116.983015" y="294.843433" style="fill: #0000ff; stroke: #0000ff"/>
    </g>
   </g>
   <g id="PathCollection_91">
    <g clip-path="url(#p9ccd161592)">
     <use xlink:href="#m53b9506e86" x="121.092566" y="294.062536" style="fill: #0000ff; stroke: #0000ff"/>
    </g>
   </g>
   <g id="PathCollection_92">
    <g clip-path="url(#p9ccd161592)">
     <use xlink:href="#m53b9506e86" x="125.202117" y="292.975138" style="fill: #0000ff; stroke: #0000ff"/>
    </g>
   </g>
   <g id="PathCollection_93">
    <g clip-path="url(#p9ccd161592)">
     <use xlink:href="#m53b9506e86" x="129.311669" y="291.584487" style="fill: #0000ff; stroke: #0000ff"/>
    </g>
   </g>
   <g id="PathCollection_94">
    <g clip-path="url(#p9ccd161592)">
     <use xlink:href="#m53b9506e86" x="133.42122" y="289.89409" style="fill: #0000ff; stroke: #0000ff"/>
    </g>
   </g>
   <g id="PathCollection_95">
    <g clip-path="url(#p9ccd161592)">
     <use xlink:href="#m53b9506e86" x="137.530771" y="287.908113" style="fill: #0000ff; stroke: #0000ff"/>
    </g>
   </g>
   <g id="PathCollection_96">
    <g clip-path="url(#p9ccd161592)">
     <use xlink:href="#m53b9506e86" x="141.640322" y="285.631553" style="fill: #0000ff; stroke: #0000ff"/>
    </g>
   </g>
   <g id="PathCollection_97">
    <g clip-path="url(#p9ccd161592)">
     <use xlink:href="#m53b9506e86" x="145.749873" y="283.070234" style="fill: #0000ff; stroke: #0000ff"/>
    </g>
   </g>
   <g id="PathCollection_98">
    <g clip-path="url(#p9ccd161592)">
     <use xlink:href="#m53b9506e86" x="149.859425" y="280.230738" style="fill: #0000ff; stroke: #0000ff"/>
    </g>
   </g>
   <g id="PathCollection_99">
    <g clip-path="url(#p9ccd161592)">
     <use xlink:href="#m53b9506e86" x="153.968976" y="277.120352" style="fill: #0000ff; stroke: #0000ff"/>
    </g>
   </g>
   <g id="PathCollection_100">
    <g clip-path="url(#p9ccd161592)">
     <use xlink:href="#m53b9506e86" x="158.078527" y="273.747043" style="fill: #0000ff; stroke: #0000ff"/>
    </g>
   </g>
   <g id="PathCollection_101">
    <g clip-path="url(#p9ccd161592)">
     <use xlink:href="#m53b9506e86" x="162.188078" y="270.119437" style="fill: #0000ff; stroke: #0000ff"/>
    </g>
   </g>
   <g id="PathCollection_102">
    <g clip-path="url(#p9ccd161592)">
     <use xlink:href="#m53b9506e86" x="166.297629" y="266.246814" style="fill: #0000ff; stroke: #0000ff"/>
    </g>
   </g>
   <g id="PathCollection_103">
    <g clip-path="url(#p9ccd161592)">
     <use xlink:href="#m53b9506e86" x="170.407181" y="262.139085" style="fill: #0000ff; stroke: #0000ff"/>
    </g>
   </g>
   <g id="PathCollection_104">
    <g clip-path="url(#p9ccd161592)">
     <use xlink:href="#m53b9506e86" x="174.516732" y="257.806776" style="fill: #0000ff; stroke: #0000ff"/>
    </g>
   </g>
   <g id="PathCollection_105">
    <g clip-path="url(#p9ccd161592)">
     <use xlink:href="#m53b9506e86" x="178.626283" y="253.260992" style="fill: #0000ff; stroke: #0000ff"/>
    </g>
   </g>
   <g id="PathCollection_106">
    <g clip-path="url(#p9ccd161592)">
     <use xlink:href="#m53b9506e86" x="182.735834" y="248.513392" style="fill: #0000ff; stroke: #0000ff"/>
    </g>
   </g>
   <g id="PathCollection_107">
    <g clip-path="url(#p9ccd161592)">
     <use xlink:href="#m53b9506e86" x="186.845386" y="243.576147" style="fill: #0000ff; stroke: #0000ff"/>
    </g>
   </g>
   <g id="PathCollection_108">
    <g clip-path="url(#p9ccd161592)">
     <use xlink:href="#m53b9506e86" x="190.954937" y="238.461914" style="fill: #0000ff; stroke: #0000ff"/>
    </g>
   </g>
   <g id="PathCollection_109">
    <g clip-path="url(#p9ccd161592)">
     <use xlink:href="#m53b9506e86" x="195.064488" y="233.1838" style="fill: #0000ff; stroke: #0000ff"/>
    </g>
   </g>
   <g id="PathCollection_110">
    <g clip-path="url(#p9ccd161592)">
     <use xlink:href="#m53b9506e86" x="199.174039" y="227.755309" style="fill: #0000ff; stroke: #0000ff"/>
    </g>
   </g>
   <g id="PathCollection_111">
    <g clip-path="url(#p9ccd161592)">
     <use xlink:href="#m53b9506e86" x="203.28359" y="222.190388" style="fill: #0000ff; stroke: #0000ff"/>
    </g>
   </g>
   <g id="PathCollection_112">
    <g clip-path="url(#p9ccd161592)">
     <use xlink:href="#m53b9506e86" x="207.393142" y="216.503337" style="fill: #0000ff; stroke: #0000ff"/>
    </g>
   </g>
   <g id="PathCollection_113">
    <g clip-path="url(#p9ccd161592)">
     <use xlink:href="#m53b9506e86" x="211.502693" y="210.708616" style="fill: #0000ff; stroke: #0000ff"/>
    </g>
   </g>
   <g id="PathCollection_114">
    <g clip-path="url(#p9ccd161592)">
     <use xlink:href="#m53b9506e86" x="215.612244" y="204.821219" style="fill: #0000ff; stroke: #0000ff"/>
    </g>
   </g>
   <g id="PathCollection_115">
    <g clip-path="url(#p9ccd161592)">
     <use xlink:href="#m53b9506e86" x="219.721795" y="198.856102" style="fill: #0000ff; stroke: #0000ff"/>
    </g>
   </g>
   <g id="PathCollection_116">
    <g clip-path="url(#p9ccd161592)">
     <use xlink:href="#m53b9506e86" x="223.831346" y="192.828629" style="fill: #0000ff; stroke: #0000ff"/>
    </g>
   </g>
   <g id="PathCollection_117">
    <g clip-path="url(#p9ccd161592)">
     <use xlink:href="#m53b9506e86" x="227.940898" y="186.754272" style="fill: #0000ff; stroke: #0000ff"/>
    </g>
   </g>
   <g id="PathCollection_118">
    <g clip-path="url(#p9ccd161592)">
     <use xlink:href="#m53b9506e86" x="232.050449" y="180.648508" style="fill: #0000ff; stroke: #0000ff"/>
    </g>
   </g>
   <g id="PathCollection_119">
    <g clip-path="url(#p9ccd161592)">
     <use xlink:href="#m53b9506e86" x="236.16" y="174.527074" style="fill: #0000ff; stroke: #0000ff"/>
    </g>
   </g>
   <g id="PathCollection_120">
    <g clip-path="url(#p9ccd161592)">
     <use xlink:href="#m53b9506e86" x="240.269551" y="168.405668" style="fill: #0000ff; stroke: #0000ff"/>
    </g>
   </g>
   <g id="PathCollection_121">
    <g clip-path="url(#p9ccd161592)">
     <use xlink:href="#m53b9506e86" x="244.379102" y="162.299908" style="fill: #0000ff; stroke: #0000ff"/>
    </g>
   </g>
   <g id="PathCollection_122">
    <g clip-path="url(#p9ccd161592)">
     <use xlink:href="#m53b9506e86" x="248.488654" y="156.225481" style="fill: #0000ff; stroke: #0000ff"/>
    </g>
   </g>
   <g id="PathCollection_123">
    <g clip-path="url(#p9ccd161592)">
     <use xlink:href="#m53b9506e86" x="252.598205" y="150.197989" style="fill: #0000ff; stroke: #0000ff"/>
    </g>
   </g>
   <g id="PathCollection_124">
    <g clip-path="url(#p9ccd161592)">
     <use xlink:href="#m53b9506e86" x="256.707756" y="144.232865" style="fill: #0000ff; stroke: #0000ff"/>
    </g>
   </g>
   <g id="PathCollection_125">
    <g clip-path="url(#p9ccd161592)">
     <use xlink:href="#m53b9506e86" x="260.817307" y="138.34536" style="fill: #0000ff; stroke: #0000ff"/>
    </g>
   </g>
   <g id="PathCollection_126">
    <g clip-path="url(#p9ccd161592)">
     <use xlink:href="#m53b9506e86" x="264.926858" y="132.550597" style="fill: #0000ff; stroke: #0000ff"/>
    </g>
   </g>
   <g id="PathCollection_127">
    <g clip-path="url(#p9ccd161592)">
     <use xlink:href="#m53b9506e86" x="269.03641" y="126.863453" style="fill: #0000ff; stroke: #0000ff"/>
    </g>
   </g>
   <g id="PathCollection_128">
    <g clip-path="url(#p9ccd161592)">
     <use xlink:href="#m53b9506e86" x="273.145961" y="121.298496" style="fill: #0000ff; stroke: #0000ff"/>
    </g>
   </g>
   <g id="PathCollection_129">
    <g clip-path="url(#p9ccd161592)">
     <use xlink:href="#m53b9506e86" x="277.255512" y="115.869964" style="fill: #0000ff; stroke: #0000ff"/>
    </g>
   </g>
   <g id="PathCollection_130">
    <g clip-path="url(#p9ccd161592)">
     <use xlink:href="#m53b9506e86" x="281.365063" y="110.591781" style="fill: #0000ff; stroke: #0000ff"/>
    </g>
   </g>
   <g id="PathCollection_131">
    <g clip-path="url(#p9ccd161592)">
     <use xlink:href="#m53b9506e86" x="285.474614" y="105.477498" style="fill: #0000ff; stroke: #0000ff"/>
    </g>
   </g>
   <g id="PathCollection_132">
    <g clip-path="url(#p9ccd161592)">
     <use xlink:href="#m53b9506e86" x="289.584166" y="100.540227" style="fill: #0000ff; stroke: #0000ff"/>
    </g>
   </g>
   <g id="PathCollection_133">
    <g clip-path="url(#p9ccd161592)">
     <use xlink:href="#m53b9506e86" x="293.693717" y="95.792621" style="fill: #0000ff; stroke: #0000ff"/>
    </g>
   </g>
   <g id="PathCollection_134">
    <g clip-path="url(#p9ccd161592)">
     <use xlink:href="#m53b9506e86" x="297.803268" y="91.246846" style="fill: #0000ff; stroke: #0000ff"/>
    </g>
   </g>
   <g id="PathCollection_135">
    <g clip-path="url(#p9ccd161592)">
     <use xlink:href="#m53b9506e86" x="301.912819" y="86.914558" style="fill: #0000ff; stroke: #0000ff"/>
    </g>
   </g>
   <g id="PathCollection_136">
    <g clip-path="url(#p9ccd161592)">
     <use xlink:href="#m53b9506e86" x="306.022371" y="82.806874" style="fill: #0000ff; stroke: #0000ff"/>
    </g>
   </g>
   <g id="PathCollection_137">
    <g clip-path="url(#p9ccd161592)">
     <use xlink:href="#m53b9506e86" x="310.131922" y="78.934322" style="fill: #0000ff; stroke: #0000ff"/>
    </g>
   </g>
   <g id="PathCollection_138">
    <g clip-path="url(#p9ccd161592)">
     <use xlink:href="#m53b9506e86" x="314.241473" y="75.30682" style="fill: #0000ff; stroke: #0000ff"/>
    </g>
   </g>
   <g id="PathCollection_139">
    <g clip-path="url(#p9ccd161592)">
     <use xlink:href="#m53b9506e86" x="318.351024" y="71.933655" style="fill: #0000ff; stroke: #0000ff"/>
    </g>
   </g>
   <g id="PathCollection_140">
    <g clip-path="url(#p9ccd161592)">
     <use xlink:href="#m53b9506e86" x="322.460575" y="68.823452" style="fill: #0000ff; stroke: #0000ff"/>
    </g>
   </g>
   <g id="PathCollection_141">
    <g clip-path="url(#p9ccd161592)">
     <use xlink:href="#m53b9506e86" x="326.570127" y="65.984252" style="fill: #0000ff; stroke: #0000ff"/>
    </g>
   </g>
   <g id="PathCollection_142">
    <g clip-path="url(#p9ccd161592)">
     <use xlink:href="#m53b9506e86" x="330.679678" y="63.423268" style="fill: #0000ff; stroke: #0000ff"/>
    </g>
   </g>
   <g id="PathCollection_143">
    <g clip-path="url(#p9ccd161592)">
     <use xlink:href="#m53b9506e86" x="334.789229" y="61.146949" style="fill: #0000ff; stroke: #0000ff"/>
    </g>
   </g>
   <g id="PathCollection_144">
    <g clip-path="url(#p9ccd161592)">
     <use xlink:href="#m53b9506e86" x="338.89878" y="59.160971" style="fill: #0000ff; stroke: #0000ff"/>
    </g>
   </g>
   <g id="PathCollection_145">
    <g clip-path="url(#p9ccd161592)">
     <use xlink:href="#m53b9506e86" x="343.008331" y="57.470556" style="fill: #0000ff; stroke: #0000ff"/>
    </g>
   </g>
   <g id="PathCollection_146">
    <g clip-path="url(#p9ccd161592)">
     <use xlink:href="#m53b9506e86" x="347.117883" y="56.080601" style="fill: #0000ff; stroke: #0000ff"/>
    </g>
   </g>
   <g id="PathCollection_147">
    <g clip-path="url(#p9ccd161592)">
     <use xlink:href="#m53b9506e86" x="351.227434" y="54.995967" style="fill: #0000ff; stroke: #0000ff"/>
    </g>
   </g>
   <g id="PathCollection_148">
    <g clip-path="url(#p9ccd161592)">
     <use xlink:href="#m53b9506e86" x="355.336985" y="54.22099" style="fill: #0000ff; stroke: #0000ff"/>
    </g>
   </g>
   <g id="PathCollection_149">
    <g clip-path="url(#p9ccd161592)">
     <use xlink:href="#m53b9506e86" x="359.446536" y="53.757868" style="fill: #0000ff; stroke: #0000ff"/>
    </g>
   </g>
   <g id="PathCollection_150">
    <g clip-path="url(#p9ccd161592)">
     <use xlink:href="#m53b9506e86" x="363.556087" y="53.603968" style="fill: #0000ff; stroke: #0000ff"/>
    </g>
   </g>
   <g id="PathCollection_151">
    <g clip-path="url(#p9ccd161592)">
     <use xlink:href="#m53b9506e86" x="367.665639" y="53.749547" style="fill: #0000ff; stroke: #0000ff"/>
    </g>
   </g>
   <g id="PathCollection_152">
    <g clip-path="url(#p9ccd161592)">
     <use xlink:href="#m53b9506e86" x="371.77519" y="54.178018" style="fill: #0000ff; stroke: #0000ff"/>
    </g>
   </g>
   <g id="PathCollection_153">
    <g clip-path="url(#p9ccd161592)">
     <use xlink:href="#m53b9506e86" x="375.884741" y="54.872157" style="fill: #0000ff; stroke: #0000ff"/>
    </g>
   </g>
   <g id="PathCollection_154">
    <g clip-path="url(#p9ccd161592)">
     <use xlink:href="#m53b9506e86" x="379.994292" y="55.830081" style="fill: #0000ff; stroke: #0000ff"/>
    </g>
   </g>
   <g id="PathCollection_155">
    <g clip-path="url(#p9ccd161592)">
     <use xlink:href="#m53b9506e86" x="384.103843" y="57.091816" style="fill: #0000ff; stroke: #0000ff"/>
    </g>
   </g>
   <g id="PathCollection_156">
    <g clip-path="url(#p9ccd161592)">
     <use xlink:href="#m53b9506e86" x="388.213395" y="58.770741" style="fill: #0000ff; stroke: #0000ff"/>
    </g>
   </g>
   <g id="PathCollection_157">
    <g clip-path="url(#p9ccd161592)">
     <use xlink:href="#m53b9506e86" x="392.322946" y="61.066355" style="fill: #0000ff; stroke: #0000ff"/>
    </g>
   </g>
   <g id="PathCollection_158">
    <g clip-path="url(#p9ccd161592)">
     <use xlink:href="#m53b9506e86" x="396.432497" y="64.160342" style="fill: #0000ff; stroke: #0000ff"/>
    </g>
   </g>
   <g id="PathCollection_159">
    <defs>
     <path id="m368685af2d" d="M 0 1.5 
C 0.397805 1.5 0.77937 1.341951 1.06066 1.06066 
C 1.341951 0.77937 1.5 0.397805 1.5 0 
C 1.5 -0.397805 1.341951 -0.77937 1.06066 -1.06066 
C 0.77937 -1.341951 0.397805 -1.5 0 -1.5 
C -0.397805 -1.5 -0.77937 -1.341951 -1.06066 -1.06066 
C -1.341951 -0.77937 -1.5 -0.397805 -1.5 0 
C -1.5 0.397805 -1.341951 0.77937 -1.06066 1.06066 
C -0.77937 1.341951 -0.397805 1.5 0 1.5 
z
" style="stroke: #0000ff"/>
    </defs>
    <g clip-path="url(#p9ccd161592)">
     <use xlink:href="#m368685af2d" x="73.832727" y="283.383489" style="fill: #0000ff; stroke: #0000ff"/>
     <use xlink:href="#m368685af2d" x="77.942278" y="287.00862" style="fill: #0000ff; stroke: #0000ff"/>
    </g>
   </g>
   <g id="PathCollection_160">
    <g clip-path="url(#p9ccd161592)">
     <use xlink:href="#m368685af2d" x="77.942278" y="286.891391" style="fill: #0000ff; stroke: #0000ff"/>
     <use xlink:href="#m368685af2d" x="82.05183" y="289.406309" style="fill: #0000ff; stroke: #0000ff"/>
    </g>
   </g>
   <g id="PathCollection_161">
    <g clip-path="url(#p9ccd161592)">
     <use xlink:href="#m368685af2d" x="82.05183" y="289.311208" style="fill: #0000ff; stroke: #0000ff"/>
     <use xlink:href="#m368685af2d" x="86.161381" y="291.140575" style="fill: #0000ff; stroke: #0000ff"/>
    </g>
   </g>
   <g id="PathCollection_162">
    <g clip-path="url(#p9ccd161592)">
     <use xlink:href="#m368685af2d" x="86.161381" y="291.093562" style="fill: #0000ff; stroke: #0000ff"/>
     <use xlink:href="#m368685af2d" x="90.270932" y="292.521606" style="fill: #0000ff; stroke: #0000ff"/>
    </g>
   </g>
   <g id="PathCollection_163">
    <g clip-path="url(#p9ccd161592)">
     <use xlink:href="#m368685af2d" x="90.270932" y="292.508612" style="fill: #0000ff; stroke: #0000ff"/>
     <use xlink:href="#m368685af2d" x="94.380483" y="293.655349" style="fill: #0000ff; stroke: #0000ff"/>
    </g>
   </g>
   <g id="PathCollection_164">
    <g clip-path="url(#p9ccd161592)">
     <use xlink:href="#m368685af2d" x="94.380483" y="293.658003" style="fill: #0000ff; stroke: #0000ff"/>
     <use xlink:href="#m368685af2d" x="98.490035" y="294.544113" style="fill: #0000ff; stroke: #0000ff"/>
    </g>
   </g>
   <g id="PathCollection_165">
    <g clip-path="url(#p9ccd161592)">
     <use xlink:href="#m368685af2d" x="98.490035" y="294.550212" style="fill: #0000ff; stroke: #0000ff"/>
     <use xlink:href="#m368685af2d" x="102.599586" y="295.158186" style="fill: #0000ff; stroke: #0000ff"/>
    </g>
   </g>
   <g id="PathCollection_166">
    <g clip-path="url(#p9ccd161592)">
     <use xlink:href="#m368685af2d" x="102.599586" y="295.16243" style="fill: #0000ff; stroke: #0000ff"/>
     <use xlink:href="#m368685af2d" x="106.709137" y="295.471585" style="fill: #0000ff; stroke: #0000ff"/>
    </g>
   </g>
   <g id="PathCollection_167">
    <g clip-path="url(#p9ccd161592)">
     <use xlink:href="#m368685af2d" x="106.709137" y="295.473145" style="fill: #0000ff; stroke: #0000ff"/>
     <use xlink:href="#m368685af2d" x="110.818688" y="295.47187" style="fill: #0000ff; stroke: #0000ff"/>
    </g>
   </g>
   <g id="PathCollection_168">
    <g clip-path="url(#p9ccd161592)">
     <use xlink:href="#m368685af2d" x="110.818688" y="295.471724" style="fill: #0000ff; stroke: #0000ff"/>
     <use xlink:href="#m368685af2d" x="114.928239" y="295.157187" style="fill: #0000ff; stroke: #0000ff"/>
    </g>
   </g>
   <g id="PathCollection_169">
    <g clip-path="url(#p9ccd161592)">
     <use xlink:href="#m368685af2d" x="114.928239" y="295.156413" style="fill: #0000ff; stroke: #0000ff"/>
     <use xlink:href="#m368685af2d" x="119.037791" y="294.530453" style="fill: #0000ff; stroke: #0000ff"/>
    </g>
   </g>
   <g id="PathCollection_170">
    <g clip-path="url(#p9ccd161592)">
     <use xlink:href="#m368685af2d" x="119.037791" y="294.52961" style="fill: #0000ff; stroke: #0000ff"/>
     <use xlink:href="#m368685af2d" x="123.147342" y="293.595462" style="fill: #0000ff; stroke: #0000ff"/>
    </g>
   </g>
   <g id="PathCollection_171">
    <g clip-path="url(#p9ccd161592)">
     <use xlink:href="#m368685af2d" x="123.147342" y="293.59465" style="fill: #0000ff; stroke: #0000ff"/>
     <use xlink:href="#m368685af2d" x="127.256893" y="292.355626" style="fill: #0000ff; stroke: #0000ff"/>
    </g>
   </g>
   <g id="PathCollection_172">
    <g clip-path="url(#p9ccd161592)">
     <use xlink:href="#m368685af2d" x="127.256893" y="292.354749" style="fill: #0000ff; stroke: #0000ff"/>
     <use xlink:href="#m368685af2d" x="131.366444" y="290.814225" style="fill: #0000ff; stroke: #0000ff"/>
    </g>
   </g>
   <g id="PathCollection_173">
    <g clip-path="url(#p9ccd161592)">
     <use xlink:href="#m368685af2d" x="131.366444" y="290.813184" style="fill: #0000ff; stroke: #0000ff"/>
     <use xlink:href="#m368685af2d" x="135.475995" y="288.974996" style="fill: #0000ff; stroke: #0000ff"/>
    </g>
   </g>
   <g id="PathCollection_174">
    <g clip-path="url(#p9ccd161592)">
     <use xlink:href="#m368685af2d" x="135.475995" y="288.973747" style="fill: #0000ff; stroke: #0000ff"/>
     <use xlink:href="#m368685af2d" x="139.585547" y="286.842478" style="fill: #0000ff; stroke: #0000ff"/>
    </g>
   </g>
   <g id="PathCollection_175">
    <g clip-path="url(#p9ccd161592)">
     <use xlink:href="#m368685af2d" x="139.585547" y="286.841023" style="fill: #0000ff; stroke: #0000ff"/>
     <use xlink:href="#m368685af2d" x="143.695098" y="284.422084" style="fill: #0000ff; stroke: #0000ff"/>
    </g>
   </g>
   <g id="PathCollection_176">
    <g clip-path="url(#p9ccd161592)">
     <use xlink:href="#m368685af2d" x="143.695098" y="284.420438" style="fill: #0000ff; stroke: #0000ff"/>
     <use xlink:href="#m368685af2d" x="147.804649" y="281.720031" style="fill: #0000ff; stroke: #0000ff"/>
    </g>
   </g>
   <g id="PathCollection_177">
    <g clip-path="url(#p9ccd161592)">
     <use xlink:href="#m368685af2d" x="147.804649" y="281.718209" style="fill: #0000ff; stroke: #0000ff"/>
     <use xlink:href="#m368685af2d" x="151.9142" y="278.743268" style="fill: #0000ff; stroke: #0000ff"/>
    </g>
   </g>
   <g id="PathCollection_178">
    <g clip-path="url(#p9ccd161592)">
     <use xlink:href="#m368685af2d" x="151.9142" y="278.741276" style="fill: #0000ff; stroke: #0000ff"/>
     <use xlink:href="#m368685af2d" x="156.023751" y="275.499429" style="fill: #0000ff; stroke: #0000ff"/>
    </g>
   </g>
   <g id="PathCollection_179">
    <g clip-path="url(#p9ccd161592)">
     <use xlink:href="#m368685af2d" x="156.023751" y="275.497271" style="fill: #0000ff; stroke: #0000ff"/>
     <use xlink:href="#m368685af2d" x="160.133303" y="271.996814" style="fill: #0000ff; stroke: #0000ff"/>
    </g>
   </g>
   <g id="PathCollection_180">
    <g clip-path="url(#p9ccd161592)">
     <use xlink:href="#m368685af2d" x="160.133303" y="271.994494" style="fill: #0000ff; stroke: #0000ff"/>
     <use xlink:href="#m368685af2d" x="164.242854" y="268.24438" style="fill: #0000ff; stroke: #0000ff"/>
    </g>
   </g>
   <g id="PathCollection_181">
    <g clip-path="url(#p9ccd161592)">
     <use xlink:href="#m368685af2d" x="164.242854" y="268.241901" style="fill: #0000ff; stroke: #0000ff"/>
     <use xlink:href="#m368685af2d" x="168.352405" y="264.251726" style="fill: #0000ff; stroke: #0000ff"/>
    </g>
   </g>
   <g id="PathCollection_182">
    <g clip-path="url(#p9ccd161592)">
     <use xlink:href="#m368685af2d" x="168.352405" y="264.249095" style="fill: #0000ff; stroke: #0000ff"/>
     <use xlink:href="#m368685af2d" x="172.461956" y="260.029076" style="fill: #0000ff; stroke: #0000ff"/>
    </g>
   </g>
   <g id="PathCollection_183">
    <g clip-path="url(#p9ccd161592)">
     <use xlink:href="#m368685af2d" x="172.461956" y="260.026299" style="fill: #0000ff; stroke: #0000ff"/>
     <use xlink:href="#m368685af2d" x="176.571507" y="255.587253" style="fill: #0000ff; stroke: #0000ff"/>
    </g>
   </g>
   <g id="PathCollection_184">
    <g clip-path="url(#p9ccd161592)">
     <use xlink:href="#m368685af2d" x="176.571507" y="255.584338" style="fill: #0000ff; stroke: #0000ff"/>
     <use xlink:href="#m368685af2d" x="180.681059" y="250.937646" style="fill: #0000ff; stroke: #0000ff"/>
    </g>
   </g>
   <g id="PathCollection_185">
    <g clip-path="url(#p9ccd161592)">
     <use xlink:href="#m368685af2d" x="180.681059" y="250.934603" style="fill: #0000ff; stroke: #0000ff"/>
     <use xlink:href="#m368685af2d" x="184.79061" y="246.09218" style="fill: #0000ff; stroke: #0000ff"/>
    </g>
   </g>
   <g id="PathCollection_186">
    <g clip-path="url(#p9ccd161592)">
     <use xlink:href="#m368685af2d" x="184.79061" y="246.089016" style="fill: #0000ff; stroke: #0000ff"/>
     <use xlink:href="#m368685af2d" x="188.900161" y="241.063277" style="fill: #0000ff; stroke: #0000ff"/>
    </g>
   </g>
   <g id="PathCollection_187">
    <g clip-path="url(#p9ccd161592)">
     <use xlink:href="#m368685af2d" x="188.900161" y="241.06" style="fill: #0000ff; stroke: #0000ff"/>
     <use xlink:href="#m368685af2d" x="193.009712" y="235.863827" style="fill: #0000ff; stroke: #0000ff"/>
    </g>
   </g>
   <g id="PathCollection_188">
    <g clip-path="url(#p9ccd161592)">
     <use xlink:href="#m368685af2d" x="193.009712" y="235.860451" style="fill: #0000ff; stroke: #0000ff"/>
     <use xlink:href="#m368685af2d" x="197.119264" y="230.507149" style="fill: #0000ff; stroke: #0000ff"/>
    </g>
   </g>
   <g id="PathCollection_189">
    <g clip-path="url(#p9ccd161592)">
     <use xlink:href="#m368685af2d" x="197.119264" y="230.503662" style="fill: #0000ff; stroke: #0000ff"/>
     <use xlink:href="#m368685af2d" x="201.228815" y="225.006956" style="fill: #0000ff; stroke: #0000ff"/>
    </g>
   </g>
   <g id="PathCollection_190">
    <g clip-path="url(#p9ccd161592)">
     <use xlink:href="#m368685af2d" x="201.228815" y="225.003382" style="fill: #0000ff; stroke: #0000ff"/>
     <use xlink:href="#m368685af2d" x="205.338366" y="219.377395" style="fill: #0000ff; stroke: #0000ff"/>
    </g>
   </g>
   <g id="PathCollection_191">
    <g clip-path="url(#p9ccd161592)">
     <use xlink:href="#m368685af2d" x="205.338366" y="219.37378" style="fill: #0000ff; stroke: #0000ff"/>
     <use xlink:href="#m368685af2d" x="209.447917" y="213.632894" style="fill: #0000ff; stroke: #0000ff"/>
    </g>
   </g>
   <g id="PathCollection_192">
    <g clip-path="url(#p9ccd161592)">
     <use xlink:href="#m368685af2d" x="209.447917" y="213.629145" style="fill: #0000ff; stroke: #0000ff"/>
     <use xlink:href="#m368685af2d" x="213.557468" y="207.788086" style="fill: #0000ff; stroke: #0000ff"/>
    </g>
   </g>
   <g id="PathCollection_193">
    <g clip-path="url(#p9ccd161592)">
     <use xlink:href="#m368685af2d" x="213.557468" y="207.784347" style="fill: #0000ff; stroke: #0000ff"/>
     <use xlink:href="#m368685af2d" x="217.66702" y="201.858091" style="fill: #0000ff; stroke: #0000ff"/>
    </g>
   </g>
   <g id="PathCollection_194">
    <g clip-path="url(#p9ccd161592)">
     <use xlink:href="#m368685af2d" x="217.66702" y="201.85425" style="fill: #0000ff; stroke: #0000ff"/>
     <use xlink:href="#m368685af2d" x="221.776571" y="195.857955" style="fill: #0000ff; stroke: #0000ff"/>
    </g>
   </g>
   <g id="PathCollection_195">
    <g clip-path="url(#p9ccd161592)">
     <use xlink:href="#m368685af2d" x="221.776571" y="195.854087" style="fill: #0000ff; stroke: #0000ff"/>
     <use xlink:href="#m368685af2d" x="225.886122" y="189.803172" style="fill: #0000ff; stroke: #0000ff"/>
    </g>
   </g>
   <g id="PathCollection_196">
    <g clip-path="url(#p9ccd161592)">
     <use xlink:href="#m368685af2d" x="225.886122" y="189.799302" style="fill: #0000ff; stroke: #0000ff"/>
     <use xlink:href="#m368685af2d" x="229.995673" y="183.709242" style="fill: #0000ff; stroke: #0000ff"/>
    </g>
   </g>
   <g id="PathCollection_197">
    <g clip-path="url(#p9ccd161592)">
     <use xlink:href="#m368685af2d" x="229.995673" y="183.705307" style="fill: #0000ff; stroke: #0000ff"/>
     <use xlink:href="#m368685af2d" x="234.105224" y="177.591709" style="fill: #0000ff; stroke: #0000ff"/>
    </g>
   </g>
   <g id="PathCollection_198">
    <g clip-path="url(#p9ccd161592)">
     <use xlink:href="#m368685af2d" x="234.105224" y="177.587784" style="fill: #0000ff; stroke: #0000ff"/>
     <use xlink:href="#m368685af2d" x="238.214776" y="171.466364" style="fill: #0000ff; stroke: #0000ff"/>
    </g>
   </g>
   <g id="PathCollection_199">
    <g clip-path="url(#p9ccd161592)">
     <use xlink:href="#m368685af2d" x="238.214776" y="171.46246" style="fill: #0000ff; stroke: #0000ff"/>
     <use xlink:href="#m368685af2d" x="242.324327" y="165.348877" style="fill: #0000ff; stroke: #0000ff"/>
    </g>
   </g>
   <g id="PathCollection_200">
    <g clip-path="url(#p9ccd161592)">
     <use xlink:href="#m368685af2d" x="242.324327" y="165.344955" style="fill: #0000ff; stroke: #0000ff"/>
     <use xlink:href="#m368685af2d" x="246.433878" y="159.254861" style="fill: #0000ff; stroke: #0000ff"/>
    </g>
   </g>
   <g id="PathCollection_201">
    <g clip-path="url(#p9ccd161592)">
     <use xlink:href="#m368685af2d" x="246.433878" y="159.250961" style="fill: #0000ff; stroke: #0000ff"/>
     <use xlink:href="#m368685af2d" x="250.543429" y="153.200001" style="fill: #0000ff; stroke: #0000ff"/>
    </g>
   </g>
   <g id="PathCollection_202">
    <g clip-path="url(#p9ccd161592)">
     <use xlink:href="#m368685af2d" x="250.543429" y="153.196143" style="fill: #0000ff; stroke: #0000ff"/>
     <use xlink:href="#m368685af2d" x="254.65298" y="147.199835" style="fill: #0000ff; stroke: #0000ff"/>
    </g>
   </g>
   <g id="PathCollection_203">
    <g clip-path="url(#p9ccd161592)">
     <use xlink:href="#m368685af2d" x="254.65298" y="147.196022" style="fill: #0000ff; stroke: #0000ff"/>
     <use xlink:href="#m368685af2d" x="258.762532" y="141.269708" style="fill: #0000ff; stroke: #0000ff"/>
    </g>
   </g>
   <g id="PathCollection_204">
    <g clip-path="url(#p9ccd161592)">
     <use xlink:href="#m368685af2d" x="258.762532" y="141.265927" style="fill: #0000ff; stroke: #0000ff"/>
     <use xlink:href="#m368685af2d" x="262.872083" y="135.424794" style="fill: #0000ff; stroke: #0000ff"/>
    </g>
   </g>
   <g id="PathCollection_205">
    <g clip-path="url(#p9ccd161592)">
     <use xlink:href="#m368685af2d" x="262.872083" y="135.421074" style="fill: #0000ff; stroke: #0000ff"/>
     <use xlink:href="#m368685af2d" x="266.981634" y="129.68012" style="fill: #0000ff; stroke: #0000ff"/>
    </g>
   </g>
   <g id="PathCollection_206">
    <g clip-path="url(#p9ccd161592)">
     <use xlink:href="#m368685af2d" x="266.981634" y="129.676478" style="fill: #0000ff; stroke: #0000ff"/>
     <use xlink:href="#m368685af2d" x="271.091185" y="124.050428" style="fill: #0000ff; stroke: #0000ff"/>
    </g>
   </g>
   <g id="PathCollection_207">
    <g clip-path="url(#p9ccd161592)">
     <use xlink:href="#m368685af2d" x="271.091185" y="124.046869" style="fill: #0000ff; stroke: #0000ff"/>
     <use xlink:href="#m368685af2d" x="275.200736" y="118.550124" style="fill: #0000ff; stroke: #0000ff"/>
    </g>
   </g>
   <g id="PathCollection_208">
    <g clip-path="url(#p9ccd161592)">
     <use xlink:href="#m368685af2d" x="275.200736" y="118.546643" style="fill: #0000ff; stroke: #0000ff"/>
     <use xlink:href="#m368685af2d" x="279.310288" y="113.193285" style="fill: #0000ff; stroke: #0000ff"/>
    </g>
   </g>
   <g id="PathCollection_209">
    <g clip-path="url(#p9ccd161592)">
     <use xlink:href="#m368685af2d" x="279.310288" y="113.189897" style="fill: #0000ff; stroke: #0000ff"/>
     <use xlink:href="#m368685af2d" x="283.419839" y="107.993664" style="fill: #0000ff; stroke: #0000ff"/>
    </g>
   </g>
   <g id="PathCollection_210">
    <g clip-path="url(#p9ccd161592)">
     <use xlink:href="#m368685af2d" x="283.419839" y="107.990386" style="fill: #0000ff; stroke: #0000ff"/>
     <use xlink:href="#m368685af2d" x="287.52939" y="102.964609" style="fill: #0000ff; stroke: #0000ff"/>
    </g>
   </g>
   <g id="PathCollection_211">
    <g clip-path="url(#p9ccd161592)">
     <use xlink:href="#m368685af2d" x="287.52939" y="102.961446" style="fill: #0000ff; stroke: #0000ff"/>
     <use xlink:href="#m368685af2d" x="291.638941" y="98.119008" style="fill: #0000ff; stroke: #0000ff"/>
    </g>
   </g>
   <g id="PathCollection_212">
    <g clip-path="url(#p9ccd161592)">
     <use xlink:href="#m368685af2d" x="291.638941" y="98.115966" style="fill: #0000ff; stroke: #0000ff"/>
     <use xlink:href="#m368685af2d" x="295.748493" y="93.469276" style="fill: #0000ff; stroke: #0000ff"/>
    </g>
   </g>
   <g id="PathCollection_213">
    <g clip-path="url(#p9ccd161592)">
     <use xlink:href="#m368685af2d" x="295.748493" y="93.466361" style="fill: #0000ff; stroke: #0000ff"/>
     <use xlink:href="#m368685af2d" x="299.858044" y="89.02733" style="fill: #0000ff; stroke: #0000ff"/>
    </g>
   </g>
   <g id="PathCollection_214">
    <g clip-path="url(#p9ccd161592)">
     <use xlink:href="#m368685af2d" x="299.858044" y="89.024551" style="fill: #0000ff; stroke: #0000ff"/>
     <use xlink:href="#m368685af2d" x="303.967595" y="84.804566" style="fill: #0000ff; stroke: #0000ff"/>
    </g>
   </g>
   <g id="PathCollection_215">
    <g clip-path="url(#p9ccd161592)">
     <use xlink:href="#m368685af2d" x="303.967595" y="84.801933" style="fill: #0000ff; stroke: #0000ff"/>
     <use xlink:href="#m368685af2d" x="308.077146" y="80.811815" style="fill: #0000ff; stroke: #0000ff"/>
    </g>
   </g>
   <g id="PathCollection_216">
    <g clip-path="url(#p9ccd161592)">
     <use xlink:href="#m368685af2d" x="308.077146" y="80.809335" style="fill: #0000ff; stroke: #0000ff"/>
     <use xlink:href="#m368685af2d" x="312.186697" y="77.059308" style="fill: #0000ff; stroke: #0000ff"/>
    </g>
   </g>
   <g id="PathCollection_217">
    <g clip-path="url(#p9ccd161592)">
     <use xlink:href="#m368685af2d" x="312.186697" y="77.056987" style="fill: #0000ff; stroke: #0000ff"/>
     <use xlink:href="#m368685af2d" x="316.296249" y="73.556653" style="fill: #0000ff; stroke: #0000ff"/>
    </g>
   </g>
   <g id="PathCollection_218">
    <g clip-path="url(#p9ccd161592)">
     <use xlink:href="#m368685af2d" x="316.296249" y="73.554497" style="fill: #0000ff; stroke: #0000ff"/>
     <use xlink:href="#m368685af2d" x="320.4058" y="70.312813" style="fill: #0000ff; stroke: #0000ff"/>
    </g>
   </g>
   <g id="PathCollection_219">
    <g clip-path="url(#p9ccd161592)">
     <use xlink:href="#m368685af2d" x="320.4058" y="70.310803" style="fill: #0000ff; stroke: #0000ff"/>
     <use xlink:href="#m368685af2d" x="324.515351" y="67.336101" style="fill: #0000ff; stroke: #0000ff"/>
    </g>
   </g>
   <g id="PathCollection_220">
    <g clip-path="url(#p9ccd161592)">
     <use xlink:href="#m368685af2d" x="324.515351" y="67.334298" style="fill: #0000ff; stroke: #0000ff"/>
     <use xlink:href="#m368685af2d" x="328.624902" y="64.634206" style="fill: #0000ff; stroke: #0000ff"/>
    </g>
   </g>
   <g id="PathCollection_221">
    <g clip-path="url(#p9ccd161592)">
     <use xlink:href="#m368685af2d" x="328.624902" y="64.632594" style="fill: #0000ff; stroke: #0000ff"/>
     <use xlink:href="#m368685af2d" x="332.734453" y="62.213942" style="fill: #0000ff; stroke: #0000ff"/>
    </g>
   </g>
   <g id="PathCollection_222">
    <g clip-path="url(#p9ccd161592)">
     <use xlink:href="#m368685af2d" x="332.734453" y="62.212523" style="fill: #0000ff; stroke: #0000ff"/>
     <use xlink:href="#m368685af2d" x="336.844005" y="60.081375" style="fill: #0000ff; stroke: #0000ff"/>
    </g>
   </g>
   <g id="PathCollection_223">
    <g clip-path="url(#p9ccd161592)">
     <use xlink:href="#m368685af2d" x="336.844005" y="60.08007" style="fill: #0000ff; stroke: #0000ff"/>
     <use xlink:href="#m368685af2d" x="340.953556" y="58.241873" style="fill: #0000ff; stroke: #0000ff"/>
    </g>
   </g>
   <g id="PathCollection_224">
    <g clip-path="url(#p9ccd161592)">
     <use xlink:href="#m368685af2d" x="340.953556" y="58.240648" style="fill: #0000ff; stroke: #0000ff"/>
     <use xlink:href="#m368685af2d" x="345.063107" y="56.700463" style="fill: #0000ff; stroke: #0000ff"/>
    </g>
   </g>
   <g id="PathCollection_225">
    <g clip-path="url(#p9ccd161592)">
     <use xlink:href="#m368685af2d" x="345.063107" y="56.699249" style="fill: #0000ff; stroke: #0000ff"/>
     <use xlink:href="#m368685af2d" x="349.172658" y="55.461954" style="fill: #0000ff; stroke: #0000ff"/>
    </g>
   </g>
   <g id="PathCollection_226">
    <g clip-path="url(#p9ccd161592)">
     <use xlink:href="#m368685af2d" x="349.172658" y="55.46087" style="fill: #0000ff; stroke: #0000ff"/>
     <use xlink:href="#m368685af2d" x="353.282209" y="54.531064" style="fill: #0000ff; stroke: #0000ff"/>
    </g>
   </g>
   <g id="PathCollection_227">
    <g clip-path="url(#p9ccd161592)">
     <use xlink:href="#m368685af2d" x="353.282209" y="54.530515" style="fill: #0000ff; stroke: #0000ff"/>
     <use xlink:href="#m368685af2d" x="357.391761" y="53.911466" style="fill: #0000ff; stroke: #0000ff"/>
    </g>
   </g>
   <g id="PathCollection_228">
    <g clip-path="url(#p9ccd161592)">
     <use xlink:href="#m368685af2d" x="357.391761" y="53.912124" style="fill: #0000ff; stroke: #0000ff"/>
     <use xlink:href="#m368685af2d" x="361.501312" y="53.603612" style="fill: #0000ff; stroke: #0000ff"/>
    </g>
   </g>
   <g id="PathCollection_229">
    <g clip-path="url(#p9ccd161592)">
     <use xlink:href="#m368685af2d" x="361.501312" y="53.606048" style="fill: #0000ff; stroke: #0000ff"/>
     <use xlink:href="#m368685af2d" x="365.610863" y="53.601888" style="fill: #0000ff; stroke: #0000ff"/>
    </g>
   </g>
   <g id="PathCollection_230">
    <g clip-path="url(#p9ccd161592)">
     <use xlink:href="#m368685af2d" x="365.610863" y="53.606035" style="fill: #0000ff; stroke: #0000ff"/>
     <use xlink:href="#m368685af2d" x="369.720414" y="53.89306" style="fill: #0000ff; stroke: #0000ff"/>
    </g>
   </g>
   <g id="PathCollection_231">
    <g clip-path="url(#p9ccd161592)">
     <use xlink:href="#m368685af2d" x="369.720414" y="53.897366" style="fill: #0000ff; stroke: #0000ff"/>
     <use xlink:href="#m368685af2d" x="373.829965" y="54.458671" style="fill: #0000ff; stroke: #0000ff"/>
    </g>
   </g>
   <g id="PathCollection_232">
    <g clip-path="url(#p9ccd161592)">
     <use xlink:href="#m368685af2d" x="373.829965" y="54.459141" style="fill: #0000ff; stroke: #0000ff"/>
     <use xlink:href="#m368685af2d" x="377.939517" y="55.285173" style="fill: #0000ff; stroke: #0000ff"/>
    </g>
   </g>
   <g id="PathCollection_233">
    <g clip-path="url(#p9ccd161592)">
     <use xlink:href="#m368685af2d" x="377.939517" y="55.275167" style="fill: #0000ff; stroke: #0000ff"/>
     <use xlink:href="#m368685af2d" x="382.049068" y="56.384996" style="fill: #0000ff; stroke: #0000ff"/>
    </g>
   </g>
   <g id="PathCollection_234">
    <g clip-path="url(#p9ccd161592)">
     <use xlink:href="#m368685af2d" x="382.049068" y="56.356651" style="fill: #0000ff; stroke: #0000ff"/>
     <use xlink:href="#m368685af2d" x="386.158619" y="57.826981" style="fill: #0000ff; stroke: #0000ff"/>
    </g>
   </g>
   <g id="PathCollection_235">
    <g clip-path="url(#p9ccd161592)">
     <use xlink:href="#m368685af2d" x="386.158619" y="57.777106" style="fill: #0000ff; stroke: #0000ff"/>
     <use xlink:href="#m368685af2d" x="390.26817" y="59.764376" style="fill: #0000ff; stroke: #0000ff"/>
    </g>
   </g>
   <g id="PathCollection_236">
    <g clip-path="url(#p9ccd161592)">
     <use xlink:href="#m368685af2d" x="390.26817" y="59.718954" style="fill: #0000ff; stroke: #0000ff"/>
     <use xlink:href="#m368685af2d" x="394.377722" y="62.413755" style="fill: #0000ff; stroke: #0000ff"/>
    </g>
   </g>
   <g id="PathCollection_237">
    <g clip-path="url(#p9ccd161592)">
     <use xlink:href="#m368685af2d" x="394.377722" y="62.356245" style="fill: #0000ff; stroke: #0000ff"/>
     <use xlink:href="#m368685af2d" x="398.487273" y="65.96444" style="fill: #0000ff; stroke: #0000ff"/>
    </g>
   </g>
   <g id="matplotlib.axis_1">
    <g id="xtick_1">
     <g id="line2d_1">
      <defs>
       <path id="mcd9871b400" d="M 0 0 
L 0 3.5 
" style="stroke: #000000; stroke-width: 0.8"/>
      </defs>
      <g>
       <use xlink:href="#mcd9871b400" x="73.832727" y="307.584" style="stroke: #000000; stroke-width: 0.8"/>
      </g>
     </g>
     <g id="text_1">
      <!-- −1.00 -->
      <g transform="translate(58.510071 322.182437)scale(0.1 -0.1)">
       <defs>
        <path id="DejaVuSans-2212" d="M 678 2272 
L 4684 2272 
L 4684 1741 
L 678 1741 
L 678 2272 
z
" transform="scale(0.015625)"/>
        <path id="DejaVuSans-31" d="M 794 531 
L 1825 531 
L 1825 4091 
L 703 3866 
L 703 4441 
L 1819 4666 
L 2450 4666 
L 2450 531 
L 3481 531 
L 3481 0 
L 794 0 
L 794 531 
z
" transform="scale(0.015625)"/>
        <path id="DejaVuSans-2e" d="M 684 794 
L 1344 794 
L 1344 0 
L 684 0 
L 684 794 
z
" transform="scale(0.015625)"/>
        <path id="DejaVuSans-30" d="M 2034 4250 
Q 1547 4250 1301 3770 
Q 1056 3291 1056 2328 
Q 1056 1369 1301 889 
Q 1547 409 2034 409 
Q 2525 409 2770 889 
Q 3016 1369 3016 2328 
Q 3016 3291 2770 3770 
Q 2525 4250 2034 4250 
z
M 2034 4750 
Q 2819 4750 3233 4129 
Q 3647 3509 3647 2328 
Q 3647 1150 3233 529 
Q 2819 -91 2034 -91 
Q 1250 -91 836 529 
Q 422 1150 422 2328 
Q 422 3509 836 4129 
Q 1250 4750 2034 4750 
z
" transform="scale(0.015625)"/>
       </defs>
       <use xlink:href="#DejaVuSans-2212"/>
       <use xlink:href="#DejaVuSans-31" x="83.789062"/>
       <use xlink:href="#DejaVuSans-2e" x="147.412109"/>
       <use xlink:href="#DejaVuSans-30" x="179.199219"/>
       <use xlink:href="#DejaVuSans-30" x="242.822266"/>
      </g>
     </g>
    </g>
    <g id="xtick_2">
     <g id="line2d_2">
      <g>
       <use xlink:href="#mcd9871b400" x="114.414545" y="307.584" style="stroke: #000000; stroke-width: 0.8"/>
      </g>
     </g>
     <g id="text_2">
      <!-- −0.75 -->
      <g transform="translate(99.091889 322.182437)scale(0.1 -0.1)">
       <defs>
        <path id="DejaVuSans-37" d="M 525 4666 
L 3525 4666 
L 3525 4397 
L 1831 0 
L 1172 0 
L 2766 4134 
L 525 4134 
L 525 4666 
z
" transform="scale(0.015625)"/>
        <path id="DejaVuSans-35" d="M 691 4666 
L 3169 4666 
L 3169 4134 
L 1269 4134 
L 1269 2991 
Q 1406 3038 1543 3061 
Q 1681 3084 1819 3084 
Q 2600 3084 3056 2656 
Q 3513 2228 3513 1497 
Q 3513 744 3044 326 
Q 2575 -91 1722 -91 
Q 1428 -91 1123 -41 
Q 819 9 494 109 
L 494 744 
Q 775 591 1075 516 
Q 1375 441 1709 441 
Q 2250 441 2565 725 
Q 2881 1009 2881 1497 
Q 2881 1984 2565 2268 
Q 2250 2553 1709 2553 
Q 1456 2553 1204 2497 
Q 953 2441 691 2322 
L 691 4666 
z
" transform="scale(0.015625)"/>
       </defs>
       <use xlink:href="#DejaVuSans-2212"/>
       <use xlink:href="#DejaVuSans-30" x="83.789062"/>
       <use xlink:href="#DejaVuSans-2e" x="147.412109"/>
       <use xlink:href="#DejaVuSans-37" x="179.199219"/>
       <use xlink:href="#DejaVuSans-35" x="242.822266"/>
      </g>
     </g>
    </g>
    <g id="xtick_3">
     <g id="line2d_3">
      <g>
       <use xlink:href="#mcd9871b400" x="154.996364" y="307.584" style="stroke: #000000; stroke-width: 0.8"/>
      </g>
     </g>
     <g id="text_3">
      <!-- −0.50 -->
      <g transform="translate(139.673707 322.182437)scale(0.1 -0.1)">
       <use xlink:href="#DejaVuSans-2212"/>
       <use xlink:href="#DejaVuSans-30" x="83.789062"/>
       <use xlink:href="#DejaVuSans-2e" x="147.412109"/>
       <use xlink:href="#DejaVuSans-35" x="179.199219"/>
       <use xlink:href="#DejaVuSans-30" x="242.822266"/>
      </g>
     </g>
    </g>
    <g id="xtick_4">
     <g id="line2d_4">
      <g>
       <use xlink:href="#mcd9871b400" x="195.578182" y="307.584" style="stroke: #000000; stroke-width: 0.8"/>
      </g>
     </g>
     <g id="text_4">
      <!-- −0.25 -->
      <g transform="translate(180.255526 322.182437)scale(0.1 -0.1)">
       <defs>
        <path id="DejaVuSans-32" d="M 1228 531 
L 3431 531 
L 3431 0 
L 469 0 
L 469 531 
Q 828 903 1448 1529 
Q 2069 2156 2228 2338 
Q 2531 2678 2651 2914 
Q 2772 3150 2772 3378 
Q 2772 3750 2511 3984 
Q 2250 4219 1831 4219 
Q 1534 4219 1204 4116 
Q 875 4013 500 3803 
L 500 4441 
Q 881 4594 1212 4672 
Q 1544 4750 1819 4750 
Q 2544 4750 2975 4387 
Q 3406 4025 3406 3419 
Q 3406 3131 3298 2873 
Q 3191 2616 2906 2266 
Q 2828 2175 2409 1742 
Q 1991 1309 1228 531 
z
" transform="scale(0.015625)"/>
       </defs>
       <use xlink:href="#DejaVuSans-2212"/>
       <use xlink:href="#DejaVuSans-30" x="83.789062"/>
       <use xlink:href="#DejaVuSans-2e" x="147.412109"/>
       <use xlink:href="#DejaVuSans-32" x="179.199219"/>
       <use xlink:href="#DejaVuSans-35" x="242.822266"/>
      </g>
     </g>
    </g>
    <g id="xtick_5">
     <g id="line2d_5">
      <g>
       <use xlink:href="#mcd9871b400" x="236.16" y="307.584" style="stroke: #000000; stroke-width: 0.8"/>
      </g>
     </g>
     <g id="text_5">
      <!-- 0.00 -->
      <g transform="translate(225.027187 322.182437)scale(0.1 -0.1)">
       <use xlink:href="#DejaVuSans-30"/>
       <use xlink:href="#DejaVuSans-2e" x="63.623047"/>
       <use xlink:href="#DejaVuSans-30" x="95.410156"/>
       <use xlink:href="#DejaVuSans-30" x="159.033203"/>
      </g>
     </g>
    </g>
    <g id="xtick_6">
     <g id="line2d_6">
      <g>
       <use xlink:href="#mcd9871b400" x="276.741818" y="307.584" style="stroke: #000000; stroke-width: 0.8"/>
      </g>
     </g>
     <g id="text_6">
      <!-- 0.25 -->
      <g transform="translate(265.609006 322.182437)scale(0.1 -0.1)">
       <use xlink:href="#DejaVuSans-30"/>
       <use xlink:href="#DejaVuSans-2e" x="63.623047"/>
       <use xlink:href="#DejaVuSans-32" x="95.410156"/>
       <use xlink:href="#DejaVuSans-35" x="159.033203"/>
      </g>
     </g>
    </g>
    <g id="xtick_7">
     <g id="line2d_7">
      <g>
       <use xlink:href="#mcd9871b400" x="317.323636" y="307.584" style="stroke: #000000; stroke-width: 0.8"/>
      </g>
     </g>
     <g id="text_7">
      <!-- 0.50 -->
      <g transform="translate(306.190824 322.182437)scale(0.1 -0.1)">
       <use xlink:href="#DejaVuSans-30"/>
       <use xlink:href="#DejaVuSans-2e" x="63.623047"/>
       <use xlink:href="#DejaVuSans-35" x="95.410156"/>
       <use xlink:href="#DejaVuSans-30" x="159.033203"/>
      </g>
     </g>
    </g>
    <g id="xtick_8">
     <g id="line2d_8">
      <g>
       <use xlink:href="#mcd9871b400" x="357.905455" y="307.584" style="stroke: #000000; stroke-width: 0.8"/>
      </g>
     </g>
     <g id="text_8">
      <!-- 0.75 -->
      <g transform="translate(346.772642 322.182437)scale(0.1 -0.1)">
       <use xlink:href="#DejaVuSans-30"/>
       <use xlink:href="#DejaVuSans-2e" x="63.623047"/>
       <use xlink:href="#DejaVuSans-37" x="95.410156"/>
       <use xlink:href="#DejaVuSans-35" x="159.033203"/>
      </g>
     </g>
    </g>
    <g id="xtick_9">
     <g id="line2d_9">
      <g>
       <use xlink:href="#mcd9871b400" x="398.487273" y="307.584" style="stroke: #000000; stroke-width: 0.8"/>
      </g>
     </g>
     <g id="text_9">
      <!-- 1.00 -->
      <g transform="translate(387.35446 322.182437)scale(0.1 -0.1)">
       <use xlink:href="#DejaVuSans-31"/>
       <use xlink:href="#DejaVuSans-2e" x="63.623047"/>
       <use xlink:href="#DejaVuSans-30" x="95.410156"/>
       <use xlink:href="#DejaVuSans-30" x="159.033203"/>
      </g>
     </g>
    </g>
   </g>
   <g id="matplotlib.axis_2">
    <g id="ytick_1">
     <g id="line2d_10">
      <defs>
       <path id="m00f41aefd3" d="M 0 0 
L -3.5 0 
" style="stroke: #000000; stroke-width: 0.8"/>
      </defs>
      <g>
       <use xlink:href="#m00f41aefd3" x="57.6" y="295.491043" style="stroke: #000000; stroke-width: 0.8"/>
      </g>
     </g>
     <g id="text_10">
      <!-- 1.00 -->
      <g transform="translate(28.334375 299.290262)scale(0.1 -0.1)">
       <use xlink:href="#DejaVuSans-31"/>
       <use xlink:href="#DejaVuSans-2e" x="63.623047"/>
       <use xlink:href="#DejaVuSans-30" x="95.410156"/>
       <use xlink:href="#DejaVuSans-30" x="159.033203"/>
      </g>
     </g>
    </g>
    <g id="ytick_2">
     <g id="line2d_11">
      <g>
       <use xlink:href="#m00f41aefd3" x="57.6" y="265.250282" style="stroke: #000000; stroke-width: 0.8"/>
      </g>
     </g>
     <g id="text_11">
      <!-- 1.25 -->
      <g transform="translate(28.334375 269.049501)scale(0.1 -0.1)">
       <use xlink:href="#DejaVuSans-31"/>
       <use xlink:href="#DejaVuSans-2e" x="63.623047"/>
       <use xlink:href="#DejaVuSans-32" x="95.410156"/>
       <use xlink:href="#DejaVuSans-35" x="159.033203"/>
      </g>
     </g>
    </g>
    <g id="ytick_3">
     <g id="line2d_12">
      <g>
       <use xlink:href="#m00f41aefd3" x="57.6" y="235.009521" style="stroke: #000000; stroke-width: 0.8"/>
      </g>
     </g>
     <g id="text_12">
      <!-- 1.50 -->
      <g transform="translate(28.334375 238.80874)scale(0.1 -0.1)">
       <use xlink:href="#DejaVuSans-31"/>
       <use xlink:href="#DejaVuSans-2e" x="63.623047"/>
       <use xlink:href="#DejaVuSans-35" x="95.410156"/>
       <use xlink:href="#DejaVuSans-30" x="159.033203"/>
      </g>
     </g>
    </g>
    <g id="ytick_4">
     <g id="line2d_13">
      <g>
       <use xlink:href="#m00f41aefd3" x="57.6" y="204.768761" style="stroke: #000000; stroke-width: 0.8"/>
      </g>
     </g>
     <g id="text_13">
      <!-- 1.75 -->
      <g transform="translate(28.334375 208.567979)scale(0.1 -0.1)">
       <use xlink:href="#DejaVuSans-31"/>
       <use xlink:href="#DejaVuSans-2e" x="63.623047"/>
       <use xlink:href="#DejaVuSans-37" x="95.410156"/>
       <use xlink:href="#DejaVuSans-35" x="159.033203"/>
      </g>
     </g>
    </g>
    <g id="ytick_5">
     <g id="line2d_14">
      <g>
       <use xlink:href="#m00f41aefd3" x="57.6" y="174.528" style="stroke: #000000; stroke-width: 0.8"/>
      </g>
     </g>
     <g id="text_14">
      <!-- 2.00 -->
      <g transform="translate(28.334375 178.327219)scale(0.1 -0.1)">
       <use xlink:href="#DejaVuSans-32"/>
       <use xlink:href="#DejaVuSans-2e" x="63.623047"/>
       <use xlink:href="#DejaVuSans-30" x="95.410156"/>
       <use xlink:href="#DejaVuSans-30" x="159.033203"/>
      </g>
     </g>
    </g>
    <g id="ytick_6">
     <g id="line2d_15">
      <g>
       <use xlink:href="#m00f41aefd3" x="57.6" y="144.287239" style="stroke: #000000; stroke-width: 0.8"/>
      </g>
     </g>
     <g id="text_15">
      <!-- 2.25 -->
      <g transform="translate(28.334375 148.086458)scale(0.1 -0.1)">
       <use xlink:href="#DejaVuSans-32"/>
       <use xlink:href="#DejaVuSans-2e" x="63.623047"/>
       <use xlink:href="#DejaVuSans-32" x="95.410156"/>
       <use xlink:href="#DejaVuSans-35" x="159.033203"/>
      </g>
     </g>
    </g>
    <g id="ytick_7">
     <g id="line2d_16">
      <g>
       <use xlink:href="#m00f41aefd3" x="57.6" y="114.046479" style="stroke: #000000; stroke-width: 0.8"/>
      </g>
     </g>
     <g id="text_16">
      <!-- 2.50 -->
      <g transform="translate(28.334375 117.845697)scale(0.1 -0.1)">
       <use xlink:href="#DejaVuSans-32"/>
       <use xlink:href="#DejaVuSans-2e" x="63.623047"/>
       <use xlink:href="#DejaVuSans-35" x="95.410156"/>
       <use xlink:href="#DejaVuSans-30" x="159.033203"/>
      </g>
     </g>
    </g>
    <g id="ytick_8">
     <g id="line2d_17">
      <g>
       <use xlink:href="#m00f41aefd3" x="57.6" y="83.805718" style="stroke: #000000; stroke-width: 0.8"/>
      </g>
     </g>
     <g id="text_17">
      <!-- 2.75 -->
      <g transform="translate(28.334375 87.604937)scale(0.1 -0.1)">
       <use xlink:href="#DejaVuSans-32"/>
       <use xlink:href="#DejaVuSans-2e" x="63.623047"/>
       <use xlink:href="#DejaVuSans-37" x="95.410156"/>
       <use xlink:href="#DejaVuSans-35" x="159.033203"/>
      </g>
     </g>
    </g>
    <g id="ytick_9">
     <g id="line2d_18">
      <g>
       <use xlink:href="#m00f41aefd3" x="57.6" y="53.564957" style="stroke: #000000; stroke-width: 0.8"/>
      </g>
     </g>
     <g id="text_18">
      <!-- 3.00 -->
      <g transform="translate(28.334375 57.364176)scale(0.1 -0.1)">
       <defs>
        <path id="DejaVuSans-33" d="M 2597 2516 
Q 3050 2419 3304 2112 
Q 3559 1806 3559 1356 
Q 3559 666 3084 287 
Q 2609 -91 1734 -91 
Q 1441 -91 1130 -33 
Q 819 25 488 141 
L 488 750 
Q 750 597 1062 519 
Q 1375 441 1716 441 
Q 2309 441 2620 675 
Q 2931 909 2931 1356 
Q 2931 1769 2642 2001 
Q 2353 2234 1838 2234 
L 1294 2234 
L 1294 2753 
L 1863 2753 
Q 2328 2753 2575 2939 
Q 2822 3125 2822 3475 
Q 2822 3834 2567 4026 
Q 2313 4219 1838 4219 
Q 1578 4219 1281 4162 
Q 984 4106 628 3988 
L 628 4550 
Q 988 4650 1302 4700 
Q 1616 4750 1894 4750 
Q 2613 4750 3031 4423 
Q 3450 4097 3450 3541 
Q 3450 3153 3228 2886 
Q 3006 2619 2597 2516 
z
" transform="scale(0.015625)"/>
       </defs>
       <use xlink:href="#DejaVuSans-33"/>
       <use xlink:href="#DejaVuSans-2e" x="63.623047"/>
       <use xlink:href="#DejaVuSans-30" x="95.410156"/>
       <use xlink:href="#DejaVuSans-30" x="159.033203"/>
      </g>
     </g>
    </g>
   </g>
   <g id="line2d_19">
    <path d="M 73.832727 284.519384 
L 77.095587 286.453625 
L 80.358447 288.207005 
L 83.621307 289.776691 
L 86.884166 291.160146 
L 90.147026 292.355134 
L 93.409886 293.359726 
L 96.672746 294.172297 
L 99.935605 294.791534 
L 103.198465 295.216438 
L 106.461325 295.44632 
L 109.724185 295.48081 
L 112.987044 295.319852 
L 116.249904 294.963706 
L 119.512764 294.412948 
L 122.775624 293.668467 
L 126.038483 292.731467 
L 129.301343 291.603461 
L 132.564203 290.286273 
L 135.827063 288.782031 
L 139.089922 287.093165 
L 142.352782 285.222405 
L 145.615642 283.172773 
L 150.509931 279.770264 
L 155.404221 275.985182 
L 160.298511 271.831286 
L 165.1928 267.323675 
L 170.08709 262.478737 
L 174.98138 257.314083 
L 179.875669 251.848487 
L 184.769959 246.101818 
L 191.295678 238.038612 
L 197.821398 229.565064 
L 204.347117 220.735921 
L 212.504267 209.286532 
L 222.292846 195.09465 
L 236.975715 173.312311 
L 253.290014 149.187225 
L 263.078593 135.141055 
L 271.235742 123.864574 
L 277.761462 115.206233 
L 284.287181 106.93117 
L 290.812901 99.092851 
L 295.70719 93.531304 
L 300.60148 88.264194 
L 305.49577 83.310668 
L 310.390059 78.688733 
L 315.284349 74.415189 
L 320.178639 70.505573 
L 325.072928 66.974096 
L 329.967218 63.833595 
L 333.230078 61.962835 
L 336.492937 60.273969 
L 339.755797 58.769727 
L 343.018657 57.452539 
L 346.281517 56.324533 
L 349.544376 55.387533 
L 352.807236 54.643052 
L 356.070096 54.092294 
L 359.332956 53.736148 
L 362.595815 53.57519 
L 365.858675 53.60968 
L 369.121535 53.839562 
L 372.384395 54.264466 
L 375.647254 54.883703 
L 378.910114 55.696274 
L 382.172974 56.700866 
L 385.435834 57.895854 
L 388.698693 59.279309 
L 391.961553 60.848995 
L 395.224413 62.602375 
L 398.487273 64.536616 
L 398.487273 64.536616 
" clip-path="url(#p9ccd161592)" style="fill: none; stroke: #ffc0cb; stroke-width: 1.5; stroke-linecap: square"/>
   </g>
   <g id="patch_3">
    <path d="M 57.6 307.584 
L 57.6 41.472 
" style="fill: none; stroke: #000000; stroke-width: 0.8; stroke-linejoin: miter; stroke-linecap: square"/>
   </g>
   <g id="patch_4">
    <path d="M 414.72 307.584 
L 414.72 41.472 
" style="fill: none; stroke: #000000; stroke-width: 0.8; stroke-linejoin: miter; stroke-linecap: square"/>
   </g>
   <g id="patch_5">
    <path d="M 57.6 307.584 
L 414.72 307.584 
" style="fill: none; stroke: #000000; stroke-width: 0.8; stroke-linejoin: miter; stroke-linecap: square"/>
   </g>
   <g id="patch_6">
    <path d="M 57.6 41.472 
L 414.72 41.472 
" style="fill: none; stroke: #000000; stroke-width: 0.8; stroke-linejoin: miter; stroke-linecap: square"/>
   </g>
  </g>
 </g>
 <defs>
  <clipPath id="p9ccd161592">
   <rect x="57.6" y="41.472" width="357.12" height="266.112"/>
  </clipPath>
 </defs>
</svg>
