PWD c:/Users/matej/PycharmProjects/bthesis/Latex
INPUT c:/texlive/2021/texmf.cnf
INPUT c:/texlive/2021/texmf-dist/web2c/texmf.cnf
INPUT c:/texlive/2021/texmf-var/web2c/pdftex/pdflatex.fmt
INPUT c:/Users/matej/PycharmProjects/bthesis/Latex/sections/hlavnitext/implementace.tex
OUTPUT sections/hlavnitext/temp/implementace.log
INPUT c:/texlive/2021/texmf-dist/tex/latex/subfiles/subfiles.cls
INPUT c:/texlive/2021/texmf-dist/tex/latex/subfiles/subfiles.cls
INPUT c:/texlive/2021/texmf-dist/tex/latex/subfiles/subfiles.cls
INPUT c:/texlive/2021/texmf-dist/tex/latex/subfiles/subfiles.cls
INPUT c:/texlive/2021/texmf-dist/tex/latex/subfiles/subfiles.cls
INPUT c:/texlive/2021/texmf-dist/tex/latex/subfiles/subfiles.cls
INPUT c:/texlive/2021/texmf-dist/tex/latex/subfiles/subfiles.cls
INPUT c:/texlive/2021/texmf-dist/tex/latex/subfiles/subfiles.cls
INPUT c:/texlive/2021/texmf-dist/tex/latex/subfiles/subfiles.cls
INPUT c:/texlive/2021/texmf-dist/tex/latex/subfiles/subfiles.cls
INPUT c:/texlive/2021/texmf-dist/tex/latex/subfiles/subfiles.cls
INPUT c:/texlive/2021/texmf-dist/tex/latex/import/import.sty
INPUT c:/texlive/2021/texmf-dist/tex/latex/import/import.sty
INPUT c:/texlive/2021/texmf-dist/tex/latex/import/import.sty
INPUT c:/texlive/2021/texmf-dist/tex/latex/import/import.sty
INPUT c:/texlive/2021/texmf-dist/tex/latex/import/import.sty
INPUT c:/texlive/2021/texmf-dist/tex/latex/import/import.sty
INPUT c:/texlive/2021/texmf-dist/tex/latex/import/import.sty
INPUT c:/texlive/2021/texmf-dist/tex/latex/import/import.sty
INPUT c:/texlive/2021/texmf-dist/tex/latex/import/import.sty
INPUT c:/texlive/2021/texmf-dist/tex/latex/import/import.sty
INPUT c:/texlive/2021/texmf-dist/tex/latex/import/import.sty
