\relax 
\providecommand\hyper@newdestlabel[2]{}
\providecommand\HyperFirstAtBeginDocument{\AtBeginDocument}
\HyperFirstAtBeginDocument{\ifx\hyper@anchor\@undefined
\global\let\oldnewlabel\newlabel
\gdef\newlabel#1#2{\newlabelxx{#1}#2}
\gdef\newlabelxx#1#2#3#4#5#6{\oldnewlabel{#1}{{#2}{#3}}}
\AtEndDocument{\ifx\hyper@anchor\@undefined
\let\newlabel\oldnewlabel
\fi}
\fi}
\global\let\hyper@last\relax 
\gdef\HyperFirstAtBeginDocument#1{#1}
\providecommand\HyField@AuxAddToFields[1]{}
\providecommand\HyField@AuxAddToCoFields[2]{}
\citation{maire_cell-centered_2007}
\@writefile{toc}{\contentsline {section}{\numberline {1}Lagrangeovský krok}{1}{section.1}\protected@file@percent }
\@writefile{toc}{\contentsline {subsection}{\numberline {1.1}Fyzikální model}{1}{subsection.1.1}\protected@file@percent }
\newlabel{eq:eulerian:1}{{1}{1}{Fyzikální model}{equation.1.1}{}}
\newlabel{eq:eulerian:2}{{2}{1}{Fyzikální model}{equation.1.2}{}}
\newlabel{eq:eulerian:3}{{3}{1}{Fyzikální model}{equation.1.3}{}}
\newlabel{eq:ofState}{{4}{1}{Fyzikální model}{equation.1.4}{}}
\newlabel{eq:eulerian:3b}{{5}{1}{Fyzikální model}{equation.1.5}{}}
\newlabel{eq:eulerian1:1}{{6}{1}{Fyzikální model}{equation.1.6}{}}
\newlabel{eq:eulerian1:2}{{7}{1}{Fyzikální model}{equation.1.7}{}}
\newlabel{eq:eulerian1:3}{{8}{1}{Fyzikální model}{equation.1.8}{}}
\newlabel{eq:eulerianlagrangiag:1}{{10}{1}{Fyzikální model}{equation.1.10}{}}
\newlabel{eq:eulerianlagrangiag:2}{{11}{1}{Fyzikální model}{equation.1.11}{}}
\newlabel{eq:eulerianlagrangiag:3}{{12}{1}{Fyzikální model}{equation.1.12}{}}
\@writefile{tdo}{\contentsline {todo}{chybi zacatek}{2}{section*.1}\protected@file@percent }
\pgfsyspdfmark {pgfid1}{8799518}{43895270}
\pgfsyspdfmark {pgfid4}{34243870}{43907558}
\pgfsyspdfmark {pgfid5}{36357406}{43683644}
\newlabel{eq:lagrSys1:1}{{13}{2}{Fyzikální model}{equation.1.13}{}}
\newlabel{eq:lagrSys1:2}{{14}{2}{Fyzikální model}{equation.1.14}{}}
\newlabel{eq:lagrSys1:3}{{15}{2}{Fyzikální model}{equation.1.15}{}}
\@writefile{tdo}{\contentsline {todo}{přepsat}{2}{section*.2}\protected@file@percent }
\pgfsyspdfmark {pgfid6}{20681951}{31562429}
\pgfsyspdfmark {pgfid9}{34243870}{31574717}
\pgfsyspdfmark {pgfid10}{36357406}{31350803}
\gdef \@abspage@last{2}
