# Fdb version 3
["pdflatex"] 1690993809 "c:/Users/matej/PycharmProjects/bthesis/Latex/sections/hlavnitext/testy.tex" "sections/hlavnitext/temp/testy.pdf" "testy" 1690993809
  "../../main.tex" 0 -1 0 ""
  "c:/Users/matej/PycharmProjects/bthesis/Latex/sections/hlavnitext/testy.tex" 1690993806 13634 96091fa92ebe2d04c45db8c7828e39a5 ""
  "c:/texlive/2022/texmf-dist/tex/latex/import/import.sty" 1662920081 6201 0ad8b5da8e12f60a88d546b2198a56f2 ""
  "c:/texlive/2022/texmf-dist/tex/latex/subfiles/subfiles.cls" 1662922150 1507 57de335d88fde4e5c924dfed577fdb74 ""
  "c:/texlive/2022/texmf-dist/web2c/texmf.cnf" 1662918033 40171 cdab547de63d26590bebb3baff566530 ""
  "c:/texlive/2022/texmf-var/web2c/pdftex/pdflatex.fmt" 1662923288 3059210 69968d4015260d199dd9917e13030b3f ""
  "c:/texlive/2022/texmf.cnf" 1662923135 713 e69b156964470283e0530f5060668171 ""
  "sections/hlavnitext/temp/../../main.tex" 0 -1 0 ""
  "sections/hlavnitext/temp/testy.aux" 1690958619 34 3985256e7290058c681f74d7a3565a19 ""
  "sections/hlavnitext/testy.tex" 1690993806 13634 96091fa92ebe2d04c45db8c7828e39a5 ""
  (generated)
  "sections/hlavnitext/temp/testy.log"
  "sections/hlavnitext/temp/testy.pdf"
