<?xml version="1.0" encoding="utf-8" standalone="no"?>
<!DOCTYPE svg PUBLIC "-//W3C//DTD SVG 1.1//EN"
  "http://www.w3.org/Graphics/SVG/1.1/DTD/svg11.dtd">
<svg xmlns:xlink="http://www.w3.org/1999/xlink" width="460.8pt" height="345.6pt" viewBox="0 0 460.8 345.6" xmlns="http://www.w3.org/2000/svg" version="1.1">
 <metadata>
  <rdf:RDF xmlns:dc="http://purl.org/dc/elements/1.1/" xmlns:cc="http://creativecommons.org/ns#" xmlns:rdf="http://www.w3.org/1999/02/22-rdf-syntax-ns#">
   <cc:Work>
    <dc:type rdf:resource="http://purl.org/dc/dcmitype/StillImage"/>
    <dc:date>2023-08-02T04:51:38.620280</dc:date>
    <dc:format>image/svg+xml</dc:format>
    <dc:creator>
     <cc:Agent>
      <dc:title>Matplotlib v3.5.3, https://matplotlib.org/</dc:title>
     </cc:Agent>
    </dc:creator>
   </cc:Work>
  </rdf:RDF>
 </metadata>
 <defs>
  <style type="text/css">*{stroke-linejoin: round; stroke-linecap: butt}</style>
 </defs>
 <g id="figure_1">
  <g id="patch_1">
   <path d="M 0 345.6 
L 460.8 345.6 
L 460.8 0 
L 0 0 
z
" style="fill: #ffffff"/>
  </g>
  <g id="axes_1">
   <g id="patch_2">
    <path d="M 57.6 307.584 
L 414.72 307.584 
L 414.72 41.472 
L 57.6 41.472 
z
" style="fill: #ffffff"/>
   </g>
   <g id="PathCollection_1">
    <defs>
     <path id="m2032624c2b" d="M 0 3 
C 0.795609 3 1.55874 2.683901 2.12132 2.12132 
C 2.683901 1.55874 3 0.795609 3 0 
C 3 -0.795609 2.683901 -1.55874 2.12132 -2.12132 
C 1.55874 -2.683901 0.795609 -3 0 -3 
C -0.795609 -3 -1.55874 -2.683901 -2.12132 -2.12132 
C -2.683901 -1.55874 -3 -0.795609 -3 0 
C -3 0.795609 -2.683901 1.55874 -2.12132 2.12132 
C -1.55874 2.683901 -0.795609 3 0 3 
z
" style="stroke: #ff0000"/>
    </defs>
    <g clip-path="url(#p49acc01fd6)">
     <use xlink:href="#m2032624c2b" x="73.832727" y="295.488" style="fill: #ff0000; stroke: #ff0000"/>
    </g>
   </g>
   <g id="PathCollection_2">
    <g clip-path="url(#p49acc01fd6)">
     <use xlink:href="#m2032624c2b" x="73.832798" y="295.487757" style="fill: #ff0000; stroke: #ff0000"/>
    </g>
   </g>
   <g id="PathCollection_3">
    <g clip-path="url(#p49acc01fd6)">
     <use xlink:href="#m2032624c2b" x="73.832883" y="295.487462" style="fill: #ff0000; stroke: #ff0000"/>
    </g>
   </g>
   <g id="PathCollection_4">
    <g clip-path="url(#p49acc01fd6)">
     <use xlink:href="#m2032624c2b" x="73.832987" y="295.487106" style="fill: #ff0000; stroke: #ff0000"/>
    </g>
   </g>
   <g id="PathCollection_5">
    <g clip-path="url(#p49acc01fd6)">
     <use xlink:href="#m2032624c2b" x="73.833112" y="295.486675" style="fill: #ff0000; stroke: #ff0000"/>
    </g>
   </g>
   <g id="PathCollection_6">
    <g clip-path="url(#p49acc01fd6)">
     <use xlink:href="#m2032624c2b" x="73.833263" y="295.486154" style="fill: #ff0000; stroke: #ff0000"/>
    </g>
   </g>
   <g id="PathCollection_7">
    <g clip-path="url(#p49acc01fd6)">
     <use xlink:href="#m2032624c2b" x="73.833446" y="295.485523" style="fill: #ff0000; stroke: #ff0000"/>
    </g>
   </g>
   <g id="PathCollection_8">
    <g clip-path="url(#p49acc01fd6)">
     <use xlink:href="#m2032624c2b" x="73.833668" y="295.484759" style="fill: #ff0000; stroke: #ff0000"/>
    </g>
   </g>
   <g id="PathCollection_9">
    <g clip-path="url(#p49acc01fd6)">
     <use xlink:href="#m2032624c2b" x="73.833937" y="295.483836" style="fill: #ff0000; stroke: #ff0000"/>
    </g>
   </g>
   <g id="PathCollection_10">
    <g clip-path="url(#p49acc01fd6)">
     <use xlink:href="#m2032624c2b" x="73.834261" y="295.482718" style="fill: #ff0000; stroke: #ff0000"/>
    </g>
   </g>
   <g id="PathCollection_11">
    <g clip-path="url(#p49acc01fd6)">
     <use xlink:href="#m2032624c2b" x="73.834654" y="295.481366" style="fill: #ff0000; stroke: #ff0000"/>
    </g>
   </g>
   <g id="PathCollection_12">
    <g clip-path="url(#p49acc01fd6)">
     <use xlink:href="#m2032624c2b" x="73.83513" y="295.479729" style="fill: #ff0000; stroke: #ff0000"/>
    </g>
   </g>
   <g id="PathCollection_13">
    <g clip-path="url(#p49acc01fd6)">
     <use xlink:href="#m2032624c2b" x="73.835706" y="295.477749" style="fill: #ff0000; stroke: #ff0000"/>
    </g>
   </g>
   <g id="PathCollection_14">
    <g clip-path="url(#p49acc01fd6)">
     <use xlink:href="#m2032624c2b" x="73.836403" y="295.475353" style="fill: #ff0000; stroke: #ff0000"/>
    </g>
   </g>
   <g id="PathCollection_15">
    <g clip-path="url(#p49acc01fd6)">
     <use xlink:href="#m2032624c2b" x="73.837247" y="295.472454" style="fill: #ff0000; stroke: #ff0000"/>
    </g>
   </g>
   <g id="PathCollection_16">
    <g clip-path="url(#p49acc01fd6)">
     <use xlink:href="#m2032624c2b" x="73.838269" y="295.468946" style="fill: #ff0000; stroke: #ff0000"/>
    </g>
   </g>
   <g id="PathCollection_17">
    <g clip-path="url(#p49acc01fd6)">
     <use xlink:href="#m2032624c2b" x="73.839506" y="295.464701" style="fill: #ff0000; stroke: #ff0000"/>
    </g>
   </g>
   <g id="PathCollection_18">
    <g clip-path="url(#p49acc01fd6)">
     <use xlink:href="#m2032624c2b" x="73.841005" y="295.459565" style="fill: #ff0000; stroke: #ff0000"/>
    </g>
   </g>
   <g id="PathCollection_19">
    <g clip-path="url(#p49acc01fd6)">
     <use xlink:href="#m2032624c2b" x="73.842821" y="295.45335" style="fill: #ff0000; stroke: #ff0000"/>
    </g>
   </g>
   <g id="PathCollection_20">
    <g clip-path="url(#p49acc01fd6)">
     <use xlink:href="#m2032624c2b" x="73.84502" y="295.445831" style="fill: #ff0000; stroke: #ff0000"/>
    </g>
   </g>
   <g id="PathCollection_21">
    <g clip-path="url(#p49acc01fd6)">
     <use xlink:href="#m2032624c2b" x="73.847685" y="295.436732" style="fill: #ff0000; stroke: #ff0000"/>
    </g>
   </g>
   <g id="PathCollection_22">
    <g clip-path="url(#p49acc01fd6)">
     <use xlink:href="#m2032624c2b" x="73.850916" y="295.425722" style="fill: #ff0000; stroke: #ff0000"/>
    </g>
   </g>
   <g id="PathCollection_23">
    <g clip-path="url(#p49acc01fd6)">
     <use xlink:href="#m2032624c2b" x="73.854835" y="295.412401" style="fill: #ff0000; stroke: #ff0000"/>
    </g>
   </g>
   <g id="PathCollection_24">
    <g clip-path="url(#p49acc01fd6)">
     <use xlink:href="#m2032624c2b" x="73.859592" y="295.396282" style="fill: #ff0000; stroke: #ff0000"/>
    </g>
   </g>
   <g id="PathCollection_25">
    <g clip-path="url(#p49acc01fd6)">
     <use xlink:href="#m2032624c2b" x="73.865367" y="295.376778" style="fill: #ff0000; stroke: #ff0000"/>
    </g>
   </g>
   <g id="PathCollection_26">
    <g clip-path="url(#p49acc01fd6)">
     <use xlink:href="#m2032624c2b" x="73.872385" y="295.353178" style="fill: #ff0000; stroke: #ff0000"/>
    </g>
   </g>
   <g id="PathCollection_27">
    <g clip-path="url(#p49acc01fd6)">
     <use xlink:href="#m2032624c2b" x="73.880921" y="295.324622" style="fill: #ff0000; stroke: #ff0000"/>
    </g>
   </g>
   <g id="PathCollection_28">
    <g clip-path="url(#p49acc01fd6)">
     <use xlink:href="#m2032624c2b" x="73.891312" y="295.290069" style="fill: #ff0000; stroke: #ff0000"/>
    </g>
   </g>
   <g id="PathCollection_29">
    <g clip-path="url(#p49acc01fd6)">
     <use xlink:href="#m2032624c2b" x="73.903978" y="295.248261" style="fill: #ff0000; stroke: #ff0000"/>
    </g>
   </g>
   <g id="PathCollection_30">
    <g clip-path="url(#p49acc01fd6)">
     <use xlink:href="#m2032624c2b" x="73.919439" y="295.197672" style="fill: #ff0000; stroke: #ff0000"/>
    </g>
   </g>
   <g id="PathCollection_31">
    <g clip-path="url(#p49acc01fd6)">
     <use xlink:href="#m2032624c2b" x="73.93834" y="295.13646" style="fill: #ff0000; stroke: #ff0000"/>
    </g>
   </g>
   <g id="PathCollection_32">
    <g clip-path="url(#p49acc01fd6)">
     <use xlink:href="#m2032624c2b" x="73.961494" y="295.062393" style="fill: #ff0000; stroke: #ff0000"/>
    </g>
   </g>
   <g id="PathCollection_33">
    <g clip-path="url(#p49acc01fd6)">
     <use xlink:href="#m2032624c2b" x="73.989918" y="294.972773" style="fill: #ff0000; stroke: #ff0000"/>
    </g>
   </g>
   <g id="PathCollection_34">
    <g clip-path="url(#p49acc01fd6)">
     <use xlink:href="#m2032624c2b" x="74.024901" y="294.864331" style="fill: #ff0000; stroke: #ff0000"/>
    </g>
   </g>
   <g id="PathCollection_35">
    <g clip-path="url(#p49acc01fd6)">
     <use xlink:href="#m2032624c2b" x="74.068078" y="294.733118" style="fill: #ff0000; stroke: #ff0000"/>
    </g>
   </g>
   <g id="PathCollection_36">
    <g clip-path="url(#p49acc01fd6)">
     <use xlink:href="#m2032624c2b" x="74.121537" y="294.574349" style="fill: #ff0000; stroke: #ff0000"/>
    </g>
   </g>
   <g id="PathCollection_37">
    <g clip-path="url(#p49acc01fd6)">
     <use xlink:href="#m2032624c2b" x="74.187957" y="294.382239" style="fill: #ff0000; stroke: #ff0000"/>
    </g>
   </g>
   <g id="PathCollection_38">
    <g clip-path="url(#p49acc01fd6)">
     <use xlink:href="#m2032624c2b" x="74.270793" y="294.149786" style="fill: #ff0000; stroke: #ff0000"/>
    </g>
   </g>
   <g id="PathCollection_39">
    <g clip-path="url(#p49acc01fd6)">
     <use xlink:href="#m2032624c2b" x="74.374513" y="293.868518" style="fill: #ff0000; stroke: #ff0000"/>
    </g>
   </g>
   <g id="PathCollection_40">
    <g clip-path="url(#p49acc01fd6)">
     <use xlink:href="#m2032624c2b" x="74.504923" y="293.528184" style="fill: #ff0000; stroke: #ff0000"/>
    </g>
   </g>
   <g id="PathCollection_41">
    <g clip-path="url(#p49acc01fd6)">
     <use xlink:href="#m2032624c2b" x="74.663461" y="293.116379" style="fill: #ff0000; stroke: #ff0000"/>
    </g>
   </g>
   <g id="PathCollection_42">
    <g clip-path="url(#p49acc01fd6)">
     <use xlink:href="#m2032624c2b" x="74.8648" y="292.618096" style="fill: #ff0000; stroke: #ff0000"/>
    </g>
   </g>
   <g id="PathCollection_43">
    <g clip-path="url(#p49acc01fd6)">
     <use xlink:href="#m2032624c2b" x="75.121574" y="292.015173" style="fill: #ff0000; stroke: #ff0000"/>
    </g>
   </g>
   <g id="PathCollection_44">
    <g clip-path="url(#p49acc01fd6)">
     <use xlink:href="#m2032624c2b" x="75.450354" y="291.285636" style="fill: #ff0000; stroke: #ff0000"/>
    </g>
   </g>
   <g id="PathCollection_45">
    <g clip-path="url(#p49acc01fd6)">
     <use xlink:href="#m2032624c2b" x="75.872899" y="290.402896" style="fill: #ff0000; stroke: #ff0000"/>
    </g>
   </g>
   <g id="PathCollection_46">
    <g clip-path="url(#p49acc01fd6)">
     <use xlink:href="#m2032624c2b" x="76.417829" y="289.334781" style="fill: #ff0000; stroke: #ff0000"/>
    </g>
   </g>
   <g id="PathCollection_47">
    <g clip-path="url(#p49acc01fd6)">
     <use xlink:href="#m2032624c2b" x="77.122861" y="288.042361" style="fill: #ff0000; stroke: #ff0000"/>
    </g>
   </g>
   <g id="PathCollection_48">
    <g clip-path="url(#p49acc01fd6)">
     <use xlink:href="#m2032624c2b" x="78.035616" y="286.478534" style="fill: #ff0000; stroke: #ff0000"/>
    </g>
   </g>
   <g id="PathCollection_49">
    <g clip-path="url(#p49acc01fd6)">
     <use xlink:href="#m2032624c2b" x="79.217772" y="284.586303" style="fill: #ff0000; stroke: #ff0000"/>
    </g>
   </g>
   <g id="PathCollection_50">
    <g clip-path="url(#p49acc01fd6)">
     <use xlink:href="#m2032624c2b" x="80.749854" y="282.296703" style="fill: #ff0000; stroke: #ff0000"/>
    </g>
   </g>
   <g id="PathCollection_51">
    <g clip-path="url(#p49acc01fd6)">
     <use xlink:href="#m2032624c2b" x="82.734772" y="279.526287" style="fill: #ff0000; stroke: #ff0000"/>
    </g>
   </g>
   <g id="PathCollection_52">
    <g clip-path="url(#p49acc01fd6)">
     <use xlink:href="#m2032624c2b" x="85.29771" y="276.174085" style="fill: #ff0000; stroke: #ff0000"/>
    </g>
   </g>
   <g id="PathCollection_53">
    <g clip-path="url(#p49acc01fd6)">
     <use xlink:href="#m2032624c2b" x="87.8374" y="272.122736" style="fill: #ff0000; stroke: #ff0000"/>
    </g>
   </g>
   <g id="PathCollection_54">
    <g clip-path="url(#p49acc01fd6)">
     <use xlink:href="#m2032624c2b" x="90.332439" y="268.341145" style="fill: #ff0000; stroke: #ff0000"/>
    </g>
   </g>
   <g id="PathCollection_55">
    <g clip-path="url(#p49acc01fd6)">
     <use xlink:href="#m2032624c2b" x="92.668401" y="264.78073" style="fill: #ff0000; stroke: #ff0000"/>
    </g>
   </g>
   <g id="PathCollection_56">
    <g clip-path="url(#p49acc01fd6)">
     <use xlink:href="#m2032624c2b" x="94.864626" y="261.541323" style="fill: #ff0000; stroke: #ff0000"/>
    </g>
   </g>
   <g id="PathCollection_57">
    <g clip-path="url(#p49acc01fd6)">
     <use xlink:href="#m2032624c2b" x="96.946506" y="258.550245" style="fill: #ff0000; stroke: #ff0000"/>
    </g>
   </g>
   <g id="PathCollection_58">
    <g clip-path="url(#p49acc01fd6)">
     <use xlink:href="#m2032624c2b" x="98.937762" y="255.745829" style="fill: #ff0000; stroke: #ff0000"/>
    </g>
   </g>
   <g id="PathCollection_59">
    <g clip-path="url(#p49acc01fd6)">
     <use xlink:href="#m2032624c2b" x="100.858887" y="253.080719" style="fill: #ff0000; stroke: #ff0000"/>
    </g>
   </g>
   <g id="PathCollection_60">
    <g clip-path="url(#p49acc01fd6)">
     <use xlink:href="#m2032624c2b" x="102.722059" y="250.520743" style="fill: #ff0000; stroke: #ff0000"/>
    </g>
   </g>
   <g id="PathCollection_61">
    <g clip-path="url(#p49acc01fd6)">
     <use xlink:href="#m2032624c2b" x="104.774116" y="248.040247" style="fill: #ff0000; stroke: #ff0000"/>
    </g>
   </g>
   <g id="PathCollection_62">
    <g clip-path="url(#p49acc01fd6)">
     <use xlink:href="#m2032624c2b" x="106.76914" y="245.37141" style="fill: #ff0000; stroke: #ff0000"/>
    </g>
   </g>
   <g id="PathCollection_63">
    <g clip-path="url(#p49acc01fd6)">
     <use xlink:href="#m2032624c2b" x="108.7175" y="242.804317" style="fill: #ff0000; stroke: #ff0000"/>
    </g>
   </g>
   <g id="PathCollection_64">
    <g clip-path="url(#p49acc01fd6)">
     <use xlink:href="#m2032624c2b" x="110.619387" y="240.314641" style="fill: #ff0000; stroke: #ff0000"/>
    </g>
   </g>
   <g id="PathCollection_65">
    <g clip-path="url(#p49acc01fd6)">
     <use xlink:href="#m2032624c2b" x="112.487916" y="237.880858" style="fill: #ff0000; stroke: #ff0000"/>
    </g>
   </g>
   <g id="PathCollection_66">
    <g clip-path="url(#p49acc01fd6)">
     <use xlink:href="#m2032624c2b" x="114.333451" y="235.484026" style="fill: #ff0000; stroke: #ff0000"/>
    </g>
   </g>
   <g id="PathCollection_67">
    <g clip-path="url(#p49acc01fd6)">
     <use xlink:href="#m2032624c2b" x="116.162847" y="233.111151" style="fill: #ff0000; stroke: #ff0000"/>
    </g>
   </g>
   <g id="PathCollection_68">
    <g clip-path="url(#p49acc01fd6)">
     <use xlink:href="#m2032624c2b" x="117.980992" y="230.753745" style="fill: #ff0000; stroke: #ff0000"/>
    </g>
   </g>
   <g id="PathCollection_69">
    <g clip-path="url(#p49acc01fd6)">
     <use xlink:href="#m2032624c2b" x="119.773181" y="228.406039" style="fill: #ff0000; stroke: #ff0000"/>
    </g>
   </g>
   <g id="PathCollection_70">
    <g clip-path="url(#p49acc01fd6)">
     <use xlink:href="#m2032624c2b" x="121.539223" y="226.087659" style="fill: #ff0000; stroke: #ff0000"/>
    </g>
   </g>
   <g id="PathCollection_71">
    <g clip-path="url(#p49acc01fd6)">
     <use xlink:href="#m2032624c2b" x="123.286086" y="223.79959" style="fill: #ff0000; stroke: #ff0000"/>
    </g>
   </g>
   <g id="PathCollection_72">
    <g clip-path="url(#p49acc01fd6)">
     <use xlink:href="#m2032624c2b" x="124.985806" y="221.533508" style="fill: #ff0000; stroke: #ff0000"/>
    </g>
   </g>
   <g id="PathCollection_73">
    <g clip-path="url(#p49acc01fd6)">
     <use xlink:href="#m2032624c2b" x="126.642311" y="219.326441" style="fill: #ff0000; stroke: #ff0000"/>
    </g>
   </g>
   <g id="PathCollection_74">
    <g clip-path="url(#p49acc01fd6)">
     <use xlink:href="#m2032624c2b" x="128.270027" y="217.174231" style="fill: #ff0000; stroke: #ff0000"/>
    </g>
   </g>
   <g id="PathCollection_75">
    <g clip-path="url(#p49acc01fd6)">
     <use xlink:href="#m2032624c2b" x="129.879069" y="215.058586" style="fill: #ff0000; stroke: #ff0000"/>
    </g>
   </g>
   <g id="PathCollection_76">
    <g clip-path="url(#p49acc01fd6)">
     <use xlink:href="#m2032624c2b" x="131.47554" y="212.966767" style="fill: #ff0000; stroke: #ff0000"/>
    </g>
   </g>
   <g id="PathCollection_77">
    <g clip-path="url(#p49acc01fd6)">
     <use xlink:href="#m2032624c2b" x="133.063103" y="210.890925" style="fill: #ff0000; stroke: #ff0000"/>
    </g>
   </g>
   <g id="PathCollection_78">
    <g clip-path="url(#p49acc01fd6)">
     <use xlink:href="#m2032624c2b" x="134.644437" y="208.826238" style="fill: #ff0000; stroke: #ff0000"/>
    </g>
   </g>
   <g id="PathCollection_79">
    <g clip-path="url(#p49acc01fd6)">
     <use xlink:href="#m2032624c2b" x="136.221162" y="206.768927" style="fill: #ff0000; stroke: #ff0000"/>
    </g>
   </g>
   <g id="PathCollection_80">
    <g clip-path="url(#p49acc01fd6)">
     <use xlink:href="#m2032624c2b" x="137.794666" y="204.716574" style="fill: #ff0000; stroke: #ff0000"/>
    </g>
   </g>
   <g id="PathCollection_81">
    <g clip-path="url(#p49acc01fd6)">
     <use xlink:href="#m2032624c2b" x="139.425546" y="202.66733" style="fill: #ff0000; stroke: #ff0000"/>
    </g>
   </g>
   <g id="PathCollection_82">
    <g clip-path="url(#p49acc01fd6)">
     <use xlink:href="#m2032624c2b" x="141.052514" y="200.564654" style="fill: #ff0000; stroke: #ff0000"/>
    </g>
   </g>
   <g id="PathCollection_83">
    <g clip-path="url(#p49acc01fd6)">
     <use xlink:href="#m2032624c2b" x="142.677125" y="198.462235" style="fill: #ff0000; stroke: #ff0000"/>
    </g>
   </g>
   <g id="PathCollection_84">
    <g clip-path="url(#p49acc01fd6)">
     <use xlink:href="#m2032624c2b" x="144.300024" y="196.357945" style="fill: #ff0000; stroke: #ff0000"/>
    </g>
   </g>
   <g id="PathCollection_85">
    <g clip-path="url(#p49acc01fd6)">
     <use xlink:href="#m2032624c2b" x="145.921375" y="194.250776" style="fill: #ff0000; stroke: #ff0000"/>
    </g>
   </g>
   <g id="PathCollection_86">
    <g clip-path="url(#p49acc01fd6)">
     <use xlink:href="#m2032624c2b" x="147.542569" y="192.140634" style="fill: #ff0000; stroke: #ff0000"/>
    </g>
   </g>
   <g id="PathCollection_87">
    <g clip-path="url(#p49acc01fd6)">
     <use xlink:href="#m2032624c2b" x="149.164631" y="190.026357" style="fill: #ff0000; stroke: #ff0000"/>
    </g>
   </g>
   <g id="PathCollection_88">
    <g clip-path="url(#p49acc01fd6)">
     <use xlink:href="#m2032624c2b" x="150.7865" y="187.907903" style="fill: #ff0000; stroke: #ff0000"/>
    </g>
   </g>
   <g id="PathCollection_89">
    <g clip-path="url(#p49acc01fd6)">
     <use xlink:href="#m2032624c2b" x="152.406897" y="185.786046" style="fill: #ff0000; stroke: #ff0000"/>
    </g>
   </g>
   <g id="PathCollection_90">
    <g clip-path="url(#p49acc01fd6)">
     <use xlink:href="#m2032624c2b" x="154.024594" y="183.662127" style="fill: #ff0000; stroke: #ff0000"/>
    </g>
   </g>
   <g id="PathCollection_91">
    <g clip-path="url(#p49acc01fd6)">
     <use xlink:href="#m2032624c2b" x="155.638936" y="181.53755" style="fill: #ff0000; stroke: #ff0000"/>
    </g>
   </g>
   <g id="PathCollection_92">
    <g clip-path="url(#p49acc01fd6)">
     <use xlink:href="#m2032624c2b" x="157.249446" y="179.412947" style="fill: #ff0000; stroke: #ff0000"/>
    </g>
   </g>
   <g id="PathCollection_93">
    <g clip-path="url(#p49acc01fd6)">
     <use xlink:href="#m2032624c2b" x="158.83668" y="177.288833" style="fill: #ff0000; stroke: #ff0000"/>
    </g>
   </g>
   <g id="PathCollection_94">
    <g clip-path="url(#p49acc01fd6)">
     <use xlink:href="#m2032624c2b" x="160.409128" y="175.19149" style="fill: #ff0000; stroke: #ff0000"/>
    </g>
   </g>
   <g id="PathCollection_95">
    <g clip-path="url(#p49acc01fd6)">
     <use xlink:href="#m2032624c2b" x="161.972856" y="173.110365" style="fill: #ff0000; stroke: #ff0000"/>
    </g>
   </g>
   <g id="PathCollection_96">
    <g clip-path="url(#p49acc01fd6)">
     <use xlink:href="#m2032624c2b" x="163.530677" y="171.037909" style="fill: #ff0000; stroke: #ff0000"/>
    </g>
   </g>
   <g id="PathCollection_97">
    <g clip-path="url(#p49acc01fd6)">
     <use xlink:href="#m2032624c2b" x="165.083817" y="168.970758" style="fill: #ff0000; stroke: #ff0000"/>
    </g>
   </g>
   <g id="PathCollection_98">
    <g clip-path="url(#p49acc01fd6)">
     <use xlink:href="#m2032624c2b" x="166.632876" y="166.908029" style="fill: #ff0000; stroke: #ff0000"/>
    </g>
   </g>
   <g id="PathCollection_99">
    <g clip-path="url(#p49acc01fd6)">
     <use xlink:href="#m2032624c2b" x="168.178332" y="164.848936" style="fill: #ff0000; stroke: #ff0000"/>
    </g>
   </g>
   <g id="PathCollection_100">
    <g clip-path="url(#p49acc01fd6)">
     <use xlink:href="#m2032624c2b" x="169.720452" y="162.792708" style="fill: #ff0000; stroke: #ff0000"/>
    </g>
   </g>
   <g id="PathCollection_101">
    <g clip-path="url(#p49acc01fd6)">
     <use xlink:href="#m2032624c2b" x="171.309275" y="160.738942" style="fill: #ff0000; stroke: #ff0000"/>
    </g>
   </g>
   <g id="PathCollection_102">
    <g clip-path="url(#p49acc01fd6)">
     <use xlink:href="#m2032624c2b" x="172.894907" y="158.628741" style="fill: #ff0000; stroke: #ff0000"/>
    </g>
   </g>
   <g id="PathCollection_103">
    <g clip-path="url(#p49acc01fd6)">
     <use xlink:href="#m2032624c2b" x="174.477134" y="156.520137" style="fill: #ff0000; stroke: #ff0000"/>
    </g>
   </g>
   <g id="PathCollection_104">
    <g clip-path="url(#p49acc01fd6)">
     <use xlink:href="#m2032624c2b" x="176.055802" y="154.412736" style="fill: #ff0000; stroke: #ff0000"/>
    </g>
   </g>
   <g id="PathCollection_105">
    <g clip-path="url(#p49acc01fd6)">
     <use xlink:href="#m2032624c2b" x="177.630645" y="152.306287" style="fill: #ff0000; stroke: #ff0000"/>
    </g>
   </g>
   <g id="PathCollection_106">
    <g clip-path="url(#p49acc01fd6)">
     <use xlink:href="#m2032624c2b" x="179.201618" y="150.200863" style="fill: #ff0000; stroke: #ff0000"/>
    </g>
   </g>
   <g id="PathCollection_107">
    <g clip-path="url(#p49acc01fd6)">
     <use xlink:href="#m2032624c2b" x="180.768845" y="148.096396" style="fill: #ff0000; stroke: #ff0000"/>
    </g>
   </g>
   <g id="PathCollection_108">
    <g clip-path="url(#p49acc01fd6)">
     <use xlink:href="#m2032624c2b" x="182.332595" y="145.992723" style="fill: #ff0000; stroke: #ff0000"/>
    </g>
   </g>
   <g id="PathCollection_109">
    <g clip-path="url(#p49acc01fd6)">
     <use xlink:href="#m2032624c2b" x="183.893225" y="143.889553" style="fill: #ff0000; stroke: #ff0000"/>
    </g>
   </g>
   <g id="PathCollection_110">
    <g clip-path="url(#p49acc01fd6)">
     <use xlink:href="#m2032624c2b" x="185.451005" y="141.78655" style="fill: #ff0000; stroke: #ff0000"/>
    </g>
   </g>
   <g id="PathCollection_111">
    <g clip-path="url(#p49acc01fd6)">
     <use xlink:href="#m2032624c2b" x="187.006399" y="139.683546" style="fill: #ff0000; stroke: #ff0000"/>
    </g>
   </g>
   <g id="PathCollection_112">
    <g clip-path="url(#p49acc01fd6)">
     <use xlink:href="#m2032624c2b" x="188.554918" y="137.580139" style="fill: #ff0000; stroke: #ff0000"/>
    </g>
   </g>
   <g id="PathCollection_113">
    <g clip-path="url(#p49acc01fd6)">
     <use xlink:href="#m2032624c2b" x="190.082703" y="135.482652" style="fill: #ff0000; stroke: #ff0000"/>
    </g>
   </g>
   <g id="PathCollection_114">
    <g clip-path="url(#p49acc01fd6)">
     <use xlink:href="#m2032624c2b" x="191.597922" y="133.410176" style="fill: #ff0000; stroke: #ff0000"/>
    </g>
   </g>
   <g id="PathCollection_115">
    <g clip-path="url(#p49acc01fd6)">
     <use xlink:href="#m2032624c2b" x="193.104859" y="131.351962" style="fill: #ff0000; stroke: #ff0000"/>
    </g>
   </g>
   <g id="PathCollection_116">
    <g clip-path="url(#p49acc01fd6)">
     <use xlink:href="#m2032624c2b" x="194.606081" y="129.302417" style="fill: #ff0000; stroke: #ff0000"/>
    </g>
   </g>
   <g id="PathCollection_117">
    <g clip-path="url(#p49acc01fd6)">
     <use xlink:href="#m2032624c2b" x="196.102901" y="127.258273" style="fill: #ff0000; stroke: #ff0000"/>
    </g>
   </g>
   <g id="PathCollection_118">
    <g clip-path="url(#p49acc01fd6)">
     <use xlink:href="#m2032624c2b" x="197.596404" y="125.218006" style="fill: #ff0000; stroke: #ff0000"/>
    </g>
   </g>
   <g id="PathCollection_119">
    <g clip-path="url(#p49acc01fd6)">
     <use xlink:href="#m2032624c2b" x="199.087612" y="123.18034" style="fill: #ff0000; stroke: #ff0000"/>
    </g>
   </g>
   <g id="PathCollection_120">
    <g clip-path="url(#p49acc01fd6)">
     <use xlink:href="#m2032624c2b" x="200.577498" y="121.144018" style="fill: #ff0000; stroke: #ff0000"/>
    </g>
   </g>
   <g id="PathCollection_121">
    <g clip-path="url(#p49acc01fd6)">
     <use xlink:href="#m2032624c2b" x="202.118986" y="119.107808" style="fill: #ff0000; stroke: #ff0000"/>
    </g>
   </g>
   <g id="PathCollection_122">
    <g clip-path="url(#p49acc01fd6)">
     <use xlink:href="#m2032624c2b" x="203.661365" y="117.002324" style="fill: #ff0000; stroke: #ff0000"/>
    </g>
   </g>
   <g id="PathCollection_123">
    <g clip-path="url(#p49acc01fd6)">
     <use xlink:href="#m2032624c2b" x="205.205926" y="114.894316" style="fill: #ff0000; stroke: #ff0000"/>
    </g>
   </g>
   <g id="PathCollection_124">
    <g clip-path="url(#p49acc01fd6)">
     <use xlink:href="#m2032624c2b" x="206.753733" y="112.78197" style="fill: #ff0000; stroke: #ff0000"/>
    </g>
   </g>
   <g id="PathCollection_125">
    <g clip-path="url(#p49acc01fd6)">
     <use xlink:href="#m2032624c2b" x="208.305078" y="110.663966" style="fill: #ff0000; stroke: #ff0000"/>
    </g>
   </g>
   <g id="PathCollection_126">
    <g clip-path="url(#p49acc01fd6)">
     <use xlink:href="#m2032624c2b" x="209.859782" y="108.540249" style="fill: #ff0000; stroke: #ff0000"/>
    </g>
   </g>
   <g id="PathCollection_127">
    <g clip-path="url(#p49acc01fd6)">
     <use xlink:href="#m2032624c2b" x="211.417463" y="106.411133" style="fill: #ff0000; stroke: #ff0000"/>
    </g>
   </g>
   <g id="PathCollection_128">
    <g clip-path="url(#p49acc01fd6)">
     <use xlink:href="#m2032624c2b" x="212.977685" y="104.277208" style="fill: #ff0000; stroke: #ff0000"/>
    </g>
   </g>
   <g id="PathCollection_129">
    <g clip-path="url(#p49acc01fd6)">
     <use xlink:href="#m2032624c2b" x="214.53989" y="102.139158" style="fill: #ff0000; stroke: #ff0000"/>
    </g>
   </g>
   <g id="PathCollection_130">
    <g clip-path="url(#p49acc01fd6)">
     <use xlink:href="#m2032624c2b" x="216.104004" y="99.997839" style="fill: #ff0000; stroke: #ff0000"/>
    </g>
   </g>
   <g id="PathCollection_131">
    <g clip-path="url(#p49acc01fd6)">
     <use xlink:href="#m2032624c2b" x="217.654884" y="97.853451" style="fill: #ff0000; stroke: #ff0000"/>
    </g>
   </g>
   <g id="PathCollection_132">
    <g clip-path="url(#p49acc01fd6)">
     <use xlink:href="#m2032624c2b" x="219.184179" y="95.726865" style="fill: #ff0000; stroke: #ff0000"/>
    </g>
   </g>
   <g id="PathCollection_133">
    <g clip-path="url(#p49acc01fd6)">
     <use xlink:href="#m2032624c2b" x="220.701918" y="93.629628" style="fill: #ff0000; stroke: #ff0000"/>
    </g>
   </g>
   <g id="PathCollection_134">
    <g clip-path="url(#p49acc01fd6)">
     <use xlink:href="#m2032624c2b" x="222.213703" y="91.548041" style="fill: #ff0000; stroke: #ff0000"/>
    </g>
   </g>
   <g id="PathCollection_135">
    <g clip-path="url(#p49acc01fd6)">
     <use xlink:href="#m2032624c2b" x="223.722778" y="89.474444" style="fill: #ff0000; stroke: #ff0000"/>
    </g>
   </g>
   <g id="PathCollection_136">
    <g clip-path="url(#p49acc01fd6)">
     <use xlink:href="#m2032624c2b" x="225.230471" y="87.405024" style="fill: #ff0000; stroke: #ff0000"/>
    </g>
   </g>
   <g id="PathCollection_137">
    <g clip-path="url(#p49acc01fd6)">
     <use xlink:href="#m2032624c2b" x="226.736959" y="85.337985" style="fill: #ff0000; stroke: #ff0000"/>
    </g>
   </g>
   <g id="PathCollection_138">
    <g clip-path="url(#p49acc01fd6)">
     <use xlink:href="#m2032624c2b" x="228.242798" y="83.273137" style="fill: #ff0000; stroke: #ff0000"/>
    </g>
   </g>
   <g id="PathCollection_139">
    <g clip-path="url(#p49acc01fd6)">
     <use xlink:href="#m2032624c2b" x="229.748527" y="81.209761" style="fill: #ff0000; stroke: #ff0000"/>
    </g>
   </g>
   <g id="PathCollection_140">
    <g clip-path="url(#p49acc01fd6)">
     <use xlink:href="#m2032624c2b" x="231.254624" y="79.147069" style="fill: #ff0000; stroke: #ff0000"/>
    </g>
   </g>
   <g id="PathCollection_141">
    <g clip-path="url(#p49acc01fd6)">
     <use xlink:href="#m2032624c2b" x="232.806664" y="77.084441" style="fill: #ff0000; stroke: #ff0000"/>
    </g>
   </g>
   <g id="PathCollection_142">
    <g clip-path="url(#p49acc01fd6)">
     <use xlink:href="#m2032624c2b" x="234.359539" y="74.958968" style="fill: #ff0000; stroke: #ff0000"/>
    </g>
   </g>
   <g id="PathCollection_143">
    <g clip-path="url(#p49acc01fd6)">
     <use xlink:href="#m2032624c2b" x="235.913355" y="72.832248" style="fill: #ff0000; stroke: #ff0000"/>
    </g>
   </g>
   <g id="PathCollection_144">
    <g clip-path="url(#p49acc01fd6)">
     <use xlink:href="#m2032624c2b" x="237.469066" y="70.703777" style="fill: #ff0000; stroke: #ff0000"/>
    </g>
   </g>
   <g id="PathCollection_145">
    <g clip-path="url(#p49acc01fd6)">
     <use xlink:href="#m2032624c2b" x="239.027291" y="68.572216" style="fill: #ff0000; stroke: #ff0000"/>
    </g>
   </g>
   <g id="PathCollection_146">
    <g clip-path="url(#p49acc01fd6)">
     <use xlink:href="#m2032624c2b" x="240.588256" y="66.436698" style="fill: #ff0000; stroke: #ff0000"/>
    </g>
   </g>
   <g id="PathCollection_147">
    <g clip-path="url(#p49acc01fd6)">
     <use xlink:href="#m2032624c2b" x="242.152083" y="64.296947" style="fill: #ff0000; stroke: #ff0000"/>
    </g>
   </g>
   <g id="PathCollection_148">
    <g clip-path="url(#p49acc01fd6)">
     <use xlink:href="#m2032624c2b" x="243.718744" y="62.152859" style="fill: #ff0000; stroke: #ff0000"/>
    </g>
   </g>
   <g id="PathCollection_149">
    <g clip-path="url(#p49acc01fd6)">
     <use xlink:href="#m2032624c2b" x="245.288047" y="60.00434" style="fill: #ff0000; stroke: #ff0000"/>
    </g>
   </g>
   <g id="PathCollection_150">
    <g clip-path="url(#p49acc01fd6)">
     <use xlink:href="#m2032624c2b" x="246.859862" y="57.851447" style="fill: #ff0000; stroke: #ff0000"/>
    </g>
   </g>
   <g id="PathCollection_151">
    <g clip-path="url(#p49acc01fd6)">
     <use xlink:href="#m2032624c2b" x="248.408646" y="55.69432" style="fill: #ff0000; stroke: #ff0000"/>
    </g>
   </g>
   <g id="PathCollection_152">
    <g clip-path="url(#p49acc01fd6)">
     <use xlink:href="#m2032624c2b" x="249.380681" y="53.568" style="fill: #ff0000; stroke: #ff0000"/>
    </g>
   </g>
   <g id="PathCollection_153">
    <defs>
     <path id="m0f9cb13fc2" d="M 0 3 
C 0.795609 3 1.55874 2.683901 2.12132 2.12132 
C 2.683901 1.55874 3 0.795609 3 0 
C 3 -0.795609 2.683901 -1.55874 2.12132 -2.12132 
C 1.55874 -2.683901 0.795609 -3 0 -3 
C -0.795609 -3 -1.55874 -2.683901 -2.12132 -2.12132 
C -2.683901 -1.55874 -3 -0.795609 -3 0 
C -3 0.795609 -2.683901 1.55874 -2.12132 2.12132 
C -1.55874 2.683901 -0.795609 3 0 3 
z
" style="stroke: #0000ff"/>
    </defs>
    <g clip-path="url(#p49acc01fd6)">
     <use xlink:href="#m0f9cb13fc2" x="105.115513" y="279.526287" style="fill: #0000ff; stroke: #0000ff"/>
    </g>
   </g>
   <g id="PathCollection_154">
    <g clip-path="url(#p49acc01fd6)">
     <use xlink:href="#m0f9cb13fc2" x="92.133372" y="276.174085" style="fill: #0000ff; stroke: #0000ff"/>
    </g>
   </g>
   <g id="PathCollection_155">
    <g clip-path="url(#p49acc01fd6)">
     <use xlink:href="#m0f9cb13fc2" x="106.272555" y="276.174085" style="fill: #0000ff; stroke: #0000ff"/>
    </g>
   </g>
   <g id="PathCollection_156">
    <g clip-path="url(#p49acc01fd6)">
     <use xlink:href="#m0f9cb13fc2" x="107.588762" y="272.122736" style="fill: #0000ff; stroke: #0000ff"/>
    </g>
   </g>
   <g id="PathCollection_157">
    <g clip-path="url(#p49acc01fd6)">
     <use xlink:href="#m0f9cb13fc2" x="109.039723" y="268.341145" style="fill: #0000ff; stroke: #0000ff"/>
    </g>
   </g>
   <g id="PathCollection_158">
    <g clip-path="url(#p49acc01fd6)">
     <use xlink:href="#m0f9cb13fc2" x="110.540615" y="264.78073" style="fill: #0000ff; stroke: #0000ff"/>
    </g>
   </g>
   <g id="PathCollection_159">
    <g clip-path="url(#p49acc01fd6)">
     <use xlink:href="#m0f9cb13fc2" x="124.034088" y="264.78073" style="fill: #0000ff; stroke: #0000ff"/>
    </g>
   </g>
   <g id="PathCollection_160">
    <g clip-path="url(#p49acc01fd6)">
     <use xlink:href="#m0f9cb13fc2" x="112.073938" y="261.541323" style="fill: #0000ff; stroke: #0000ff"/>
    </g>
   </g>
   <g id="PathCollection_161">
    <g clip-path="url(#p49acc01fd6)">
     <use xlink:href="#m0f9cb13fc2" x="124.825943" y="261.541323" style="fill: #0000ff; stroke: #0000ff"/>
    </g>
   </g>
   <g id="PathCollection_162">
    <g clip-path="url(#p49acc01fd6)">
     <use xlink:href="#m0f9cb13fc2" x="125.71852" y="258.550245" style="fill: #0000ff; stroke: #0000ff"/>
    </g>
   </g>
   <g id="PathCollection_163">
    <g clip-path="url(#p49acc01fd6)">
     <use xlink:href="#m0f9cb13fc2" x="126.702017" y="255.745829" style="fill: #0000ff; stroke: #0000ff"/>
    </g>
   </g>
   <g id="PathCollection_164">
    <g clip-path="url(#p49acc01fd6)">
     <use xlink:href="#m0f9cb13fc2" x="127.769428" y="253.080719" style="fill: #0000ff; stroke: #0000ff"/>
    </g>
   </g>
   <g id="PathCollection_165">
    <g clip-path="url(#p49acc01fd6)">
     <use xlink:href="#m0f9cb13fc2" x="128.913606" y="250.520743" style="fill: #0000ff; stroke: #0000ff"/>
    </g>
   </g>
   <g id="PathCollection_166">
    <g clip-path="url(#p49acc01fd6)">
     <use xlink:href="#m0f9cb13fc2" x="131.036385" y="248.040247" style="fill: #0000ff; stroke: #0000ff"/>
    </g>
   </g>
   <g id="PathCollection_167">
    <g clip-path="url(#p49acc01fd6)">
     <use xlink:href="#m0f9cb13fc2" x="144.997989" y="245.37141" style="fill: #0000ff; stroke: #0000ff"/>
    </g>
   </g>
   <g id="PathCollection_168">
    <g clip-path="url(#p49acc01fd6)">
     <use xlink:href="#m0f9cb13fc2" x="145.783415" y="242.804317" style="fill: #0000ff; stroke: #0000ff"/>
    </g>
   </g>
   <g id="PathCollection_169">
    <g clip-path="url(#p49acc01fd6)">
     <use xlink:href="#m0f9cb13fc2" x="146.673652" y="240.314641" style="fill: #0000ff; stroke: #0000ff"/>
    </g>
   </g>
   <g id="PathCollection_170">
    <g clip-path="url(#p49acc01fd6)">
     <use xlink:href="#m0f9cb13fc2" x="147.672891" y="237.880858" style="fill: #0000ff; stroke: #0000ff"/>
    </g>
   </g>
   <g id="PathCollection_171">
    <g clip-path="url(#p49acc01fd6)">
     <use xlink:href="#m0f9cb13fc2" x="148.782994" y="235.484026" style="fill: #0000ff; stroke: #0000ff"/>
    </g>
   </g>
   <g id="PathCollection_172">
    <g clip-path="url(#p49acc01fd6)">
     <use xlink:href="#m0f9cb13fc2" x="150.003431" y="233.111151" style="fill: #0000ff; stroke: #0000ff"/>
    </g>
   </g>
   <g id="PathCollection_173">
    <g clip-path="url(#p49acc01fd6)">
     <use xlink:href="#m0f9cb13fc2" x="151.330724" y="230.753745" style="fill: #0000ff; stroke: #0000ff"/>
    </g>
   </g>
   <g id="PathCollection_174">
    <g clip-path="url(#p49acc01fd6)">
     <use xlink:href="#m0f9cb13fc2" x="163.381933" y="230.753745" style="fill: #0000ff; stroke: #0000ff"/>
    </g>
   </g>
   <g id="PathCollection_175">
    <g clip-path="url(#p49acc01fd6)">
     <use xlink:href="#m0f9cb13fc2" x="164.143536" y="228.406039" style="fill: #0000ff; stroke: #0000ff"/>
    </g>
   </g>
   <g id="PathCollection_176">
    <g clip-path="url(#p49acc01fd6)">
     <use xlink:href="#m0f9cb13fc2" x="165.020755" y="226.087659" style="fill: #0000ff; stroke: #0000ff"/>
    </g>
   </g>
   <g id="PathCollection_177">
    <g clip-path="url(#p49acc01fd6)">
     <use xlink:href="#m0f9cb13fc2" x="166.012756" y="223.79959" style="fill: #0000ff; stroke: #0000ff"/>
    </g>
   </g>
   <g id="PathCollection_178">
    <g clip-path="url(#p49acc01fd6)">
     <use xlink:href="#m0f9cb13fc2" x="167.094986" y="221.533508" style="fill: #0000ff; stroke: #0000ff"/>
    </g>
   </g>
   <g id="PathCollection_179">
    <g clip-path="url(#p49acc01fd6)">
     <use xlink:href="#m0f9cb13fc2" x="168.255243" y="219.326441" style="fill: #0000ff; stroke: #0000ff"/>
    </g>
   </g>
   <g id="PathCollection_180">
    <g clip-path="url(#p49acc01fd6)">
     <use xlink:href="#m0f9cb13fc2" x="169.491283" y="217.174231" style="fill: #0000ff; stroke: #0000ff"/>
    </g>
   </g>
   <g id="PathCollection_181">
    <g clip-path="url(#p49acc01fd6)">
     <use xlink:href="#m0f9cb13fc2" x="182.606061" y="215.058586" style="fill: #0000ff; stroke: #0000ff"/>
    </g>
   </g>
   <g id="PathCollection_182">
    <g clip-path="url(#p49acc01fd6)">
     <use xlink:href="#m0f9cb13fc2" x="183.392542" y="212.966767" style="fill: #0000ff; stroke: #0000ff"/>
    </g>
   </g>
   <g id="PathCollection_183">
    <g clip-path="url(#p49acc01fd6)">
     <use xlink:href="#m0f9cb13fc2" x="184.282744" y="210.890925" style="fill: #0000ff; stroke: #0000ff"/>
    </g>
   </g>
   <g id="PathCollection_184">
    <g clip-path="url(#p49acc01fd6)">
     <use xlink:href="#m0f9cb13fc2" x="185.272904" y="208.826238" style="fill: #0000ff; stroke: #0000ff"/>
    </g>
   </g>
   <g id="PathCollection_185">
    <g clip-path="url(#p49acc01fd6)">
     <use xlink:href="#m0f9cb13fc2" x="186.357394" y="206.768927" style="fill: #0000ff; stroke: #0000ff"/>
    </g>
   </g>
   <g id="PathCollection_186">
    <g clip-path="url(#p49acc01fd6)">
     <use xlink:href="#m0f9cb13fc2" x="187.531193" y="204.716574" style="fill: #0000ff; stroke: #0000ff"/>
    </g>
   </g>
   <g id="PathCollection_187">
    <g clip-path="url(#p49acc01fd6)">
     <use xlink:href="#m0f9cb13fc2" x="189.674143" y="202.66733" style="fill: #0000ff; stroke: #0000ff"/>
    </g>
   </g>
   <g id="PathCollection_188">
    <g clip-path="url(#p49acc01fd6)">
     <use xlink:href="#m0f9cb13fc2" x="202.893835" y="200.564654" style="fill: #0000ff; stroke: #0000ff"/>
    </g>
   </g>
   <g id="PathCollection_189">
    <g clip-path="url(#p49acc01fd6)">
     <use xlink:href="#m0f9cb13fc2" x="203.694816" y="198.462235" style="fill: #0000ff; stroke: #0000ff"/>
    </g>
   </g>
   <g id="PathCollection_190">
    <g clip-path="url(#p49acc01fd6)">
     <use xlink:href="#m0f9cb13fc2" x="204.611021" y="196.357945" style="fill: #0000ff; stroke: #0000ff"/>
    </g>
   </g>
   <g id="PathCollection_191">
    <g clip-path="url(#p49acc01fd6)">
     <use xlink:href="#m0f9cb13fc2" x="205.638648" y="194.250776" style="fill: #0000ff; stroke: #0000ff"/>
    </g>
   </g>
   <g id="PathCollection_192">
    <g clip-path="url(#p49acc01fd6)">
     <use xlink:href="#m0f9cb13fc2" x="206.772213" y="192.140634" style="fill: #0000ff; stroke: #0000ff"/>
    </g>
   </g>
   <g id="PathCollection_193">
    <g clip-path="url(#p49acc01fd6)">
     <use xlink:href="#m0f9cb13fc2" x="208.006288" y="190.026357" style="fill: #0000ff; stroke: #0000ff"/>
    </g>
   </g>
   <g id="PathCollection_194">
    <g clip-path="url(#p49acc01fd6)">
     <use xlink:href="#m0f9cb13fc2" x="209.332398" y="187.907903" style="fill: #0000ff; stroke: #0000ff"/>
    </g>
   </g>
   <g id="PathCollection_195">
    <g clip-path="url(#p49acc01fd6)">
     <use xlink:href="#m0f9cb13fc2" x="220.994652" y="187.907903" style="fill: #0000ff; stroke: #0000ff"/>
    </g>
   </g>
   <g id="PathCollection_196">
    <g clip-path="url(#p49acc01fd6)">
     <use xlink:href="#m0f9cb13fc2" x="221.781097" y="185.786046" style="fill: #0000ff; stroke: #0000ff"/>
    </g>
   </g>
   <g id="PathCollection_197">
    <g clip-path="url(#p49acc01fd6)">
     <use xlink:href="#m0f9cb13fc2" x="222.687912" y="183.662127" style="fill: #0000ff; stroke: #0000ff"/>
    </g>
   </g>
   <g id="PathCollection_198">
    <g clip-path="url(#p49acc01fd6)">
     <use xlink:href="#m0f9cb13fc2" x="223.709398" y="181.53755" style="fill: #0000ff; stroke: #0000ff"/>
    </g>
   </g>
   <g id="PathCollection_199">
    <g clip-path="url(#p49acc01fd6)">
     <use xlink:href="#m0f9cb13fc2" x="224.837927" y="179.412947" style="fill: #0000ff; stroke: #0000ff"/>
    </g>
   </g>
   <g id="PathCollection_200">
    <g clip-path="url(#p49acc01fd6)">
     <use xlink:href="#m0f9cb13fc2" x="226.051249" y="177.288833" style="fill: #0000ff; stroke: #0000ff"/>
    </g>
   </g>
   <g id="PathCollection_201">
    <g clip-path="url(#p49acc01fd6)">
     <use xlink:href="#m0f9cb13fc2" x="227.344392" y="175.19149" style="fill: #0000ff; stroke: #0000ff"/>
    </g>
   </g>
   <g id="PathCollection_202">
    <g clip-path="url(#p49acc01fd6)">
     <use xlink:href="#m0f9cb13fc2" x="239.533784" y="175.19149" style="fill: #0000ff; stroke: #0000ff"/>
    </g>
   </g>
   <g id="PathCollection_203">
    <g clip-path="url(#p49acc01fd6)">
     <use xlink:href="#m0f9cb13fc2" x="240.270037" y="173.110365" style="fill: #0000ff; stroke: #0000ff"/>
    </g>
   </g>
   <g id="PathCollection_204">
    <g clip-path="url(#p49acc01fd6)">
     <use xlink:href="#m0f9cb13fc2" x="241.120561" y="171.037909" style="fill: #0000ff; stroke: #0000ff"/>
    </g>
   </g>
   <g id="PathCollection_205">
    <g clip-path="url(#p49acc01fd6)">
     <use xlink:href="#m0f9cb13fc2" x="242.07895" y="168.970758" style="fill: #0000ff; stroke: #0000ff"/>
    </g>
   </g>
   <g id="PathCollection_206">
    <g clip-path="url(#p49acc01fd6)">
     <use xlink:href="#m0f9cb13fc2" x="243.138246" y="166.908029" style="fill: #0000ff; stroke: #0000ff"/>
    </g>
   </g>
   <g id="PathCollection_207">
    <g clip-path="url(#p49acc01fd6)">
     <use xlink:href="#m0f9cb13fc2" x="244.290898" y="164.848936" style="fill: #0000ff; stroke: #0000ff"/>
    </g>
   </g>
   <g id="PathCollection_208">
    <g clip-path="url(#p49acc01fd6)">
     <use xlink:href="#m0f9cb13fc2" x="245.530926" y="162.792708" style="fill: #0000ff; stroke: #0000ff"/>
    </g>
   </g>
   <g id="PathCollection_209">
    <g clip-path="url(#p49acc01fd6)">
     <use xlink:href="#m0f9cb13fc2" x="247.715997" y="160.738942" style="fill: #0000ff; stroke: #0000ff"/>
    </g>
   </g>
   <g id="PathCollection_210">
    <g clip-path="url(#p49acc01fd6)">
     <use xlink:href="#m0f9cb13fc2" x="260.02107" y="160.738942" style="fill: #0000ff; stroke: #0000ff"/>
    </g>
   </g>
   <g id="PathCollection_211">
    <g clip-path="url(#p49acc01fd6)">
     <use xlink:href="#m0f9cb13fc2" x="260.771708" y="158.628741" style="fill: #0000ff; stroke: #0000ff"/>
    </g>
   </g>
   <g id="PathCollection_212">
    <g clip-path="url(#p49acc01fd6)">
     <use xlink:href="#m0f9cb13fc2" x="261.641138" y="156.520137" style="fill: #0000ff; stroke: #0000ff"/>
    </g>
   </g>
   <g id="PathCollection_213">
    <g clip-path="url(#p49acc01fd6)">
     <use xlink:href="#m0f9cb13fc2" x="262.625368" y="154.412736" style="fill: #0000ff; stroke: #0000ff"/>
    </g>
   </g>
   <g id="PathCollection_214">
    <g clip-path="url(#p49acc01fd6)">
     <use xlink:href="#m0f9cb13fc2" x="263.718058" y="152.306287" style="fill: #0000ff; stroke: #0000ff"/>
    </g>
   </g>
   <g id="PathCollection_215">
    <g clip-path="url(#p49acc01fd6)">
     <use xlink:href="#m0f9cb13fc2" x="264.911858" y="150.200863" style="fill: #0000ff; stroke: #0000ff"/>
    </g>
   </g>
   <g id="PathCollection_216">
    <g clip-path="url(#p49acc01fd6)">
     <use xlink:href="#m0f9cb13fc2" x="266.199575" y="148.096396" style="fill: #0000ff; stroke: #0000ff"/>
    </g>
   </g>
   <g id="PathCollection_217">
    <g clip-path="url(#p49acc01fd6)">
     <use xlink:href="#m0f9cb13fc2" x="278.179654" y="148.096396" style="fill: #0000ff; stroke: #0000ff"/>
    </g>
   </g>
   <g id="PathCollection_218">
    <g clip-path="url(#p49acc01fd6)">
     <use xlink:href="#m0f9cb13fc2" x="278.903164" y="145.992723" style="fill: #0000ff; stroke: #0000ff"/>
    </g>
   </g>
   <g id="PathCollection_219">
    <g clip-path="url(#p49acc01fd6)">
     <use xlink:href="#m0f9cb13fc2" x="279.74822" y="143.889553" style="fill: #0000ff; stroke: #0000ff"/>
    </g>
   </g>
   <g id="PathCollection_220">
    <g clip-path="url(#p49acc01fd6)">
     <use xlink:href="#m0f9cb13fc2" x="280.710333" y="141.78655" style="fill: #0000ff; stroke: #0000ff"/>
    </g>
   </g>
   <g id="PathCollection_221">
    <g clip-path="url(#p49acc01fd6)">
     <use xlink:href="#m0f9cb13fc2" x="281.783025" y="139.683546" style="fill: #0000ff; stroke: #0000ff"/>
    </g>
   </g>
   <g id="PathCollection_222">
    <g clip-path="url(#p49acc01fd6)">
     <use xlink:href="#m0f9cb13fc2" x="282.954733" y="137.580139" style="fill: #0000ff; stroke: #0000ff"/>
    </g>
   </g>
   <g id="PathCollection_223">
    <g clip-path="url(#p49acc01fd6)">
     <use xlink:href="#m0f9cb13fc2" x="284.206814" y="135.482652" style="fill: #0000ff; stroke: #0000ff"/>
    </g>
   </g>
   <g id="PathCollection_224">
    <g clip-path="url(#p49acc01fd6)">
     <use xlink:href="#m0f9cb13fc2" x="297.3908" y="133.410176" style="fill: #0000ff; stroke: #0000ff"/>
    </g>
   </g>
   <g id="PathCollection_225">
    <g clip-path="url(#p49acc01fd6)">
     <use xlink:href="#m0f9cb13fc2" x="298.180524" y="131.351962" style="fill: #0000ff; stroke: #0000ff"/>
    </g>
   </g>
   <g id="PathCollection_226">
    <g clip-path="url(#p49acc01fd6)">
     <use xlink:href="#m0f9cb13fc2" x="299.080424" y="129.302417" style="fill: #0000ff; stroke: #0000ff"/>
    </g>
   </g>
   <g id="PathCollection_227">
    <g clip-path="url(#p49acc01fd6)">
     <use xlink:href="#m0f9cb13fc2" x="300.083986" y="127.258273" style="fill: #0000ff; stroke: #0000ff"/>
    </g>
   </g>
   <g id="PathCollection_228">
    <g clip-path="url(#p49acc01fd6)">
     <use xlink:href="#m0f9cb13fc2" x="301.18411" y="125.218006" style="fill: #0000ff; stroke: #0000ff"/>
    </g>
   </g>
   <g id="PathCollection_229">
    <g clip-path="url(#p49acc01fd6)">
     <use xlink:href="#m0f9cb13fc2" x="302.374581" y="123.18034" style="fill: #0000ff; stroke: #0000ff"/>
    </g>
   </g>
   <g id="PathCollection_230">
    <g clip-path="url(#p49acc01fd6)">
     <use xlink:href="#m0f9cb13fc2" x="303.649214" y="121.144018" style="fill: #0000ff; stroke: #0000ff"/>
    </g>
   </g>
   <g id="PathCollection_231">
    <g clip-path="url(#p49acc01fd6)">
     <use xlink:href="#m0f9cb13fc2" x="316.120287" y="121.144018" style="fill: #0000ff; stroke: #0000ff"/>
    </g>
   </g>
   <g id="PathCollection_232">
    <g clip-path="url(#p49acc01fd6)">
     <use xlink:href="#m0f9cb13fc2" x="317.896986" y="119.107808" style="fill: #0000ff; stroke: #0000ff"/>
    </g>
   </g>
   <g id="PathCollection_233">
    <g clip-path="url(#p49acc01fd6)">
     <use xlink:href="#m0f9cb13fc2" x="318.702248" y="117.002324" style="fill: #0000ff; stroke: #0000ff"/>
    </g>
   </g>
   <g id="PathCollection_234">
    <g clip-path="url(#p49acc01fd6)">
     <use xlink:href="#m0f9cb13fc2" x="319.628301" y="114.894316" style="fill: #0000ff; stroke: #0000ff"/>
    </g>
   </g>
   <g id="PathCollection_235">
    <g clip-path="url(#p49acc01fd6)">
     <use xlink:href="#m0f9cb13fc2" x="320.670597" y="112.78197" style="fill: #0000ff; stroke: #0000ff"/>
    </g>
   </g>
   <g id="PathCollection_236">
    <g clip-path="url(#p49acc01fd6)">
     <use xlink:href="#m0f9cb13fc2" x="321.82284" y="110.663966" style="fill: #0000ff; stroke: #0000ff"/>
    </g>
   </g>
   <g id="PathCollection_237">
    <g clip-path="url(#p49acc01fd6)">
     <use xlink:href="#m0f9cb13fc2" x="323.078689" y="108.540249" style="fill: #0000ff; stroke: #0000ff"/>
    </g>
   </g>
   <g id="PathCollection_238">
    <g clip-path="url(#p49acc01fd6)">
     <use xlink:href="#m0f9cb13fc2" x="324.429654" y="106.411133" style="fill: #0000ff; stroke: #0000ff"/>
    </g>
   </g>
   <g id="PathCollection_239">
    <g clip-path="url(#p49acc01fd6)">
     <use xlink:href="#m0f9cb13fc2" x="336.08717" y="106.411133" style="fill: #0000ff; stroke: #0000ff"/>
    </g>
   </g>
   <g id="PathCollection_240">
    <g clip-path="url(#p49acc01fd6)">
     <use xlink:href="#m0f9cb13fc2" x="336.88435" y="104.277208" style="fill: #0000ff; stroke: #0000ff"/>
    </g>
   </g>
   <g id="PathCollection_241">
    <g clip-path="url(#p49acc01fd6)">
     <use xlink:href="#m0f9cb13fc2" x="337.807712" y="102.139158" style="fill: #0000ff; stroke: #0000ff"/>
    </g>
   </g>
   <g id="PathCollection_242">
    <g clip-path="url(#p49acc01fd6)">
     <use xlink:href="#m0f9cb13fc2" x="338.851457" y="99.997839" style="fill: #0000ff; stroke: #0000ff"/>
    </g>
   </g>
   <g id="PathCollection_243">
    <g clip-path="url(#p49acc01fd6)">
     <use xlink:href="#m0f9cb13fc2" x="339.996638" y="97.853451" style="fill: #0000ff; stroke: #0000ff"/>
    </g>
   </g>
   <g id="PathCollection_244">
    <g clip-path="url(#p49acc01fd6)">
     <use xlink:href="#m0f9cb13fc2" x="341.226406" y="95.726865" style="fill: #0000ff; stroke: #0000ff"/>
    </g>
   </g>
   <g id="PathCollection_245">
    <g clip-path="url(#p49acc01fd6)">
     <use xlink:href="#m0f9cb13fc2" x="342.536914" y="93.629628" style="fill: #0000ff; stroke: #0000ff"/>
    </g>
   </g>
   <g id="PathCollection_246">
    <g clip-path="url(#p49acc01fd6)">
     <use xlink:href="#m0f9cb13fc2" x="354.626317" y="93.629628" style="fill: #0000ff; stroke: #0000ff"/>
    </g>
   </g>
   <g id="PathCollection_247">
    <g clip-path="url(#p49acc01fd6)">
     <use xlink:href="#m0f9cb13fc2" x="355.37796" y="91.548041" style="fill: #0000ff; stroke: #0000ff"/>
    </g>
   </g>
   <g id="PathCollection_248">
    <g clip-path="url(#p49acc01fd6)">
     <use xlink:href="#m0f9cb13fc2" x="356.24656" y="89.474444" style="fill: #0000ff; stroke: #0000ff"/>
    </g>
   </g>
   <g id="PathCollection_249">
    <g clip-path="url(#p49acc01fd6)">
     <use xlink:href="#m0f9cb13fc2" x="357.225783" y="87.405024" style="fill: #0000ff; stroke: #0000ff"/>
    </g>
   </g>
   <g id="PathCollection_250">
    <g clip-path="url(#p49acc01fd6)">
     <use xlink:href="#m0f9cb13fc2" x="358.307755" y="85.337985" style="fill: #0000ff; stroke: #0000ff"/>
    </g>
   </g>
   <g id="PathCollection_251">
    <g clip-path="url(#p49acc01fd6)">
     <use xlink:href="#m0f9cb13fc2" x="359.484439" y="83.273137" style="fill: #0000ff; stroke: #0000ff"/>
    </g>
   </g>
   <g id="PathCollection_252">
    <g clip-path="url(#p49acc01fd6)">
     <use xlink:href="#m0f9cb13fc2" x="360.749926" y="81.209761" style="fill: #0000ff; stroke: #0000ff"/>
    </g>
   </g>
   <g id="PathCollection_253">
    <g clip-path="url(#p49acc01fd6)">
     <use xlink:href="#m0f9cb13fc2" x="374.122472" y="79.147069" style="fill: #0000ff; stroke: #0000ff"/>
    </g>
   </g>
   <g id="PathCollection_254">
    <g clip-path="url(#p49acc01fd6)">
     <use xlink:href="#m0f9cb13fc2" x="376.002471" y="77.084441" style="fill: #0000ff; stroke: #0000ff"/>
    </g>
   </g>
   <g id="PathCollection_255">
    <g clip-path="url(#p49acc01fd6)">
     <use xlink:href="#m0f9cb13fc2" x="376.898987" y="74.958968" style="fill: #0000ff; stroke: #0000ff"/>
    </g>
   </g>
   <g id="PathCollection_256">
    <g clip-path="url(#p49acc01fd6)">
     <use xlink:href="#m0f9cb13fc2" x="377.914478" y="72.832248" style="fill: #0000ff; stroke: #0000ff"/>
    </g>
   </g>
   <g id="PathCollection_257">
    <g clip-path="url(#p49acc01fd6)">
     <use xlink:href="#m0f9cb13fc2" x="379.041952" y="70.703777" style="fill: #0000ff; stroke: #0000ff"/>
    </g>
   </g>
   <g id="PathCollection_258">
    <g clip-path="url(#p49acc01fd6)">
     <use xlink:href="#m0f9cb13fc2" x="380.274097" y="68.572216" style="fill: #0000ff; stroke: #0000ff"/>
    </g>
   </g>
   <g id="PathCollection_259">
    <g clip-path="url(#p49acc01fd6)">
     <use xlink:href="#m0f9cb13fc2" x="381.60343" y="66.436698" style="fill: #0000ff; stroke: #0000ff"/>
    </g>
   </g>
   <g id="PathCollection_260">
    <g clip-path="url(#p49acc01fd6)">
     <use xlink:href="#m0f9cb13fc2" x="393.47711" y="66.436698" style="fill: #0000ff; stroke: #0000ff"/>
    </g>
   </g>
   <g id="PathCollection_261">
    <g clip-path="url(#p49acc01fd6)">
     <use xlink:href="#m0f9cb13fc2" x="394.238859" y="64.296947" style="fill: #0000ff; stroke: #0000ff"/>
    </g>
   </g>
   <g id="PathCollection_262">
    <g clip-path="url(#p49acc01fd6)">
     <use xlink:href="#m0f9cb13fc2" x="395.128549" y="62.152859" style="fill: #0000ff; stroke: #0000ff"/>
    </g>
   </g>
   <g id="PathCollection_263">
    <g clip-path="url(#p49acc01fd6)">
     <use xlink:href="#m0f9cb13fc2" x="396.141424" y="60.00434" style="fill: #0000ff; stroke: #0000ff"/>
    </g>
   </g>
   <g id="PathCollection_264">
    <g clip-path="url(#p49acc01fd6)">
     <use xlink:href="#m0f9cb13fc2" x="397.270196" y="57.851447" style="fill: #0000ff; stroke: #0000ff"/>
    </g>
   </g>
   <g id="PathCollection_265">
    <g clip-path="url(#p49acc01fd6)">
     <use xlink:href="#m0f9cb13fc2" x="398.487273" y="55.69432" style="fill: #0000ff; stroke: #0000ff"/>
    </g>
   </g>
   <g id="matplotlib.axis_1">
    <g id="xtick_1">
     <g id="line2d_1">
      <defs>
       <path id="m7e08c2ed67" d="M 0 0 
L 0 3.5 
" style="stroke: #000000; stroke-width: 0.8"/>
      </defs>
      <g>
       <use xlink:href="#m7e08c2ed67" x="73.832669" y="307.584" style="stroke: #000000; stroke-width: 0.8"/>
      </g>
     </g>
     <g id="text_1">
      <!-- 0.50 -->
      <g transform="translate(62.699856 322.182437)scale(0.1 -0.1)">
       <defs>
        <path id="DejaVuSans-30" d="M 2034 4250 
Q 1547 4250 1301 3770 
Q 1056 3291 1056 2328 
Q 1056 1369 1301 889 
Q 1547 409 2034 409 
Q 2525 409 2770 889 
Q 3016 1369 3016 2328 
Q 3016 3291 2770 3770 
Q 2525 4250 2034 4250 
z
M 2034 4750 
Q 2819 4750 3233 4129 
Q 3647 3509 3647 2328 
Q 3647 1150 3233 529 
Q 2819 -91 2034 -91 
Q 1250 -91 836 529 
Q 422 1150 422 2328 
Q 422 3509 836 4129 
Q 1250 4750 2034 4750 
z
" transform="scale(0.015625)"/>
        <path id="DejaVuSans-2e" d="M 684 794 
L 1344 794 
L 1344 0 
L 684 0 
L 684 794 
z
" transform="scale(0.015625)"/>
        <path id="DejaVuSans-35" d="M 691 4666 
L 3169 4666 
L 3169 4134 
L 1269 4134 
L 1269 2991 
Q 1406 3038 1543 3061 
Q 1681 3084 1819 3084 
Q 2600 3084 3056 2656 
Q 3513 2228 3513 1497 
Q 3513 744 3044 326 
Q 2575 -91 1722 -91 
Q 1428 -91 1123 -41 
Q 819 9 494 109 
L 494 744 
Q 775 591 1075 516 
Q 1375 441 1709 441 
Q 2250 441 2565 725 
Q 2881 1009 2881 1497 
Q 2881 1984 2565 2268 
Q 2250 2553 1709 2553 
Q 1456 2553 1204 2497 
Q 953 2441 691 2322 
L 691 4666 
z
" transform="scale(0.015625)"/>
       </defs>
       <use xlink:href="#DejaVuSans-30"/>
       <use xlink:href="#DejaVuSans-2e" x="63.623047"/>
       <use xlink:href="#DejaVuSans-35" x="95.410156"/>
       <use xlink:href="#DejaVuSans-30" x="159.033203"/>
      </g>
     </g>
    </g>
    <g id="xtick_2">
     <g id="line2d_2">
      <g>
       <use xlink:href="#m7e08c2ed67" x="121.769462" y="307.584" style="stroke: #000000; stroke-width: 0.8"/>
      </g>
     </g>
     <g id="text_2">
      <!-- 0.55 -->
      <g transform="translate(110.636649 322.182437)scale(0.1 -0.1)">
       <use xlink:href="#DejaVuSans-30"/>
       <use xlink:href="#DejaVuSans-2e" x="63.623047"/>
       <use xlink:href="#DejaVuSans-35" x="95.410156"/>
       <use xlink:href="#DejaVuSans-35" x="159.033203"/>
      </g>
     </g>
    </g>
    <g id="xtick_3">
     <g id="line2d_3">
      <g>
       <use xlink:href="#m7e08c2ed67" x="169.706255" y="307.584" style="stroke: #000000; stroke-width: 0.8"/>
      </g>
     </g>
     <g id="text_3">
      <!-- 0.60 -->
      <g transform="translate(158.573442 322.182437)scale(0.1 -0.1)">
       <defs>
        <path id="DejaVuSans-36" d="M 2113 2584 
Q 1688 2584 1439 2293 
Q 1191 2003 1191 1497 
Q 1191 994 1439 701 
Q 1688 409 2113 409 
Q 2538 409 2786 701 
Q 3034 994 3034 1497 
Q 3034 2003 2786 2293 
Q 2538 2584 2113 2584 
z
M 3366 4563 
L 3366 3988 
Q 3128 4100 2886 4159 
Q 2644 4219 2406 4219 
Q 1781 4219 1451 3797 
Q 1122 3375 1075 2522 
Q 1259 2794 1537 2939 
Q 1816 3084 2150 3084 
Q 2853 3084 3261 2657 
Q 3669 2231 3669 1497 
Q 3669 778 3244 343 
Q 2819 -91 2113 -91 
Q 1303 -91 875 529 
Q 447 1150 447 2328 
Q 447 3434 972 4092 
Q 1497 4750 2381 4750 
Q 2619 4750 2861 4703 
Q 3103 4656 3366 4563 
z
" transform="scale(0.015625)"/>
       </defs>
       <use xlink:href="#DejaVuSans-30"/>
       <use xlink:href="#DejaVuSans-2e" x="63.623047"/>
       <use xlink:href="#DejaVuSans-36" x="95.410156"/>
       <use xlink:href="#DejaVuSans-30" x="159.033203"/>
      </g>
     </g>
    </g>
    <g id="xtick_4">
     <g id="line2d_4">
      <g>
       <use xlink:href="#m7e08c2ed67" x="217.643048" y="307.584" style="stroke: #000000; stroke-width: 0.8"/>
      </g>
     </g>
     <g id="text_4">
      <!-- 0.65 -->
      <g transform="translate(206.510235 322.182437)scale(0.1 -0.1)">
       <use xlink:href="#DejaVuSans-30"/>
       <use xlink:href="#DejaVuSans-2e" x="63.623047"/>
       <use xlink:href="#DejaVuSans-36" x="95.410156"/>
       <use xlink:href="#DejaVuSans-35" x="159.033203"/>
      </g>
     </g>
    </g>
    <g id="xtick_5">
     <g id="line2d_5">
      <g>
       <use xlink:href="#m7e08c2ed67" x="265.579841" y="307.584" style="stroke: #000000; stroke-width: 0.8"/>
      </g>
     </g>
     <g id="text_5">
      <!-- 0.70 -->
      <g transform="translate(254.447028 322.182437)scale(0.1 -0.1)">
       <defs>
        <path id="DejaVuSans-37" d="M 525 4666 
L 3525 4666 
L 3525 4397 
L 1831 0 
L 1172 0 
L 2766 4134 
L 525 4134 
L 525 4666 
z
" transform="scale(0.015625)"/>
       </defs>
       <use xlink:href="#DejaVuSans-30"/>
       <use xlink:href="#DejaVuSans-2e" x="63.623047"/>
       <use xlink:href="#DejaVuSans-37" x="95.410156"/>
       <use xlink:href="#DejaVuSans-30" x="159.033203"/>
      </g>
     </g>
    </g>
    <g id="xtick_6">
     <g id="line2d_6">
      <g>
       <use xlink:href="#m7e08c2ed67" x="313.516634" y="307.584" style="stroke: #000000; stroke-width: 0.8"/>
      </g>
     </g>
     <g id="text_6">
      <!-- 0.75 -->
      <g transform="translate(302.383821 322.182437)scale(0.1 -0.1)">
       <use xlink:href="#DejaVuSans-30"/>
       <use xlink:href="#DejaVuSans-2e" x="63.623047"/>
       <use xlink:href="#DejaVuSans-37" x="95.410156"/>
       <use xlink:href="#DejaVuSans-35" x="159.033203"/>
      </g>
     </g>
    </g>
    <g id="xtick_7">
     <g id="line2d_7">
      <g>
       <use xlink:href="#m7e08c2ed67" x="361.453427" y="307.584" style="stroke: #000000; stroke-width: 0.8"/>
      </g>
     </g>
     <g id="text_7">
      <!-- 0.80 -->
      <g transform="translate(350.320614 322.182437)scale(0.1 -0.1)">
       <defs>
        <path id="DejaVuSans-38" d="M 2034 2216 
Q 1584 2216 1326 1975 
Q 1069 1734 1069 1313 
Q 1069 891 1326 650 
Q 1584 409 2034 409 
Q 2484 409 2743 651 
Q 3003 894 3003 1313 
Q 3003 1734 2745 1975 
Q 2488 2216 2034 2216 
z
M 1403 2484 
Q 997 2584 770 2862 
Q 544 3141 544 3541 
Q 544 4100 942 4425 
Q 1341 4750 2034 4750 
Q 2731 4750 3128 4425 
Q 3525 4100 3525 3541 
Q 3525 3141 3298 2862 
Q 3072 2584 2669 2484 
Q 3125 2378 3379 2068 
Q 3634 1759 3634 1313 
Q 3634 634 3220 271 
Q 2806 -91 2034 -91 
Q 1263 -91 848 271 
Q 434 634 434 1313 
Q 434 1759 690 2068 
Q 947 2378 1403 2484 
z
M 1172 3481 
Q 1172 3119 1398 2916 
Q 1625 2713 2034 2713 
Q 2441 2713 2670 2916 
Q 2900 3119 2900 3481 
Q 2900 3844 2670 4047 
Q 2441 4250 2034 4250 
Q 1625 4250 1398 4047 
Q 1172 3844 1172 3481 
z
" transform="scale(0.015625)"/>
       </defs>
       <use xlink:href="#DejaVuSans-30"/>
       <use xlink:href="#DejaVuSans-2e" x="63.623047"/>
       <use xlink:href="#DejaVuSans-38" x="95.410156"/>
       <use xlink:href="#DejaVuSans-30" x="159.033203"/>
      </g>
     </g>
    </g>
    <g id="xtick_8">
     <g id="line2d_8">
      <g>
       <use xlink:href="#m7e08c2ed67" x="409.39022" y="307.584" style="stroke: #000000; stroke-width: 0.8"/>
      </g>
     </g>
     <g id="text_8">
      <!-- 0.85 -->
      <g transform="translate(398.257407 322.182437)scale(0.1 -0.1)">
       <use xlink:href="#DejaVuSans-30"/>
       <use xlink:href="#DejaVuSans-2e" x="63.623047"/>
       <use xlink:href="#DejaVuSans-38" x="95.410156"/>
       <use xlink:href="#DejaVuSans-35" x="159.033203"/>
      </g>
     </g>
    </g>
   </g>
   <g id="matplotlib.axis_2">
    <g id="ytick_1">
     <g id="line2d_9">
      <defs>
       <path id="m7348a3f409" d="M 0 0 
L -3.5 0 
" style="stroke: #000000; stroke-width: 0.8"/>
      </defs>
      <g>
       <use xlink:href="#m7348a3f409" x="57.6" y="295.488" style="stroke: #000000; stroke-width: 0.8"/>
      </g>
     </g>
     <g id="text_9">
      <!-- 0.000 -->
      <g transform="translate(21.971875 299.287219)scale(0.1 -0.1)">
       <use xlink:href="#DejaVuSans-30"/>
       <use xlink:href="#DejaVuSans-2e" x="63.623047"/>
       <use xlink:href="#DejaVuSans-30" x="95.410156"/>
       <use xlink:href="#DejaVuSans-30" x="159.033203"/>
       <use xlink:href="#DejaVuSans-30" x="222.65625"/>
      </g>
     </g>
    </g>
    <g id="ytick_2">
     <g id="line2d_10">
      <g>
       <use xlink:href="#m7348a3f409" x="57.6" y="265.081125" style="stroke: #000000; stroke-width: 0.8"/>
      </g>
     </g>
     <g id="text_10">
      <!-- 0.025 -->
      <g transform="translate(21.971875 268.880343)scale(0.1 -0.1)">
       <defs>
        <path id="DejaVuSans-32" d="M 1228 531 
L 3431 531 
L 3431 0 
L 469 0 
L 469 531 
Q 828 903 1448 1529 
Q 2069 2156 2228 2338 
Q 2531 2678 2651 2914 
Q 2772 3150 2772 3378 
Q 2772 3750 2511 3984 
Q 2250 4219 1831 4219 
Q 1534 4219 1204 4116 
Q 875 4013 500 3803 
L 500 4441 
Q 881 4594 1212 4672 
Q 1544 4750 1819 4750 
Q 2544 4750 2975 4387 
Q 3406 4025 3406 3419 
Q 3406 3131 3298 2873 
Q 3191 2616 2906 2266 
Q 2828 2175 2409 1742 
Q 1991 1309 1228 531 
z
" transform="scale(0.015625)"/>
       </defs>
       <use xlink:href="#DejaVuSans-30"/>
       <use xlink:href="#DejaVuSans-2e" x="63.623047"/>
       <use xlink:href="#DejaVuSans-30" x="95.410156"/>
       <use xlink:href="#DejaVuSans-32" x="159.033203"/>
       <use xlink:href="#DejaVuSans-35" x="222.65625"/>
      </g>
     </g>
    </g>
    <g id="ytick_3">
     <g id="line2d_11">
      <g>
       <use xlink:href="#m7348a3f409" x="57.6" y="234.674249" style="stroke: #000000; stroke-width: 0.8"/>
      </g>
     </g>
     <g id="text_11">
      <!-- 0.050 -->
      <g transform="translate(21.971875 238.473468)scale(0.1 -0.1)">
       <use xlink:href="#DejaVuSans-30"/>
       <use xlink:href="#DejaVuSans-2e" x="63.623047"/>
       <use xlink:href="#DejaVuSans-30" x="95.410156"/>
       <use xlink:href="#DejaVuSans-35" x="159.033203"/>
       <use xlink:href="#DejaVuSans-30" x="222.65625"/>
      </g>
     </g>
    </g>
    <g id="ytick_4">
     <g id="line2d_12">
      <g>
       <use xlink:href="#m7348a3f409" x="57.6" y="204.267374" style="stroke: #000000; stroke-width: 0.8"/>
      </g>
     </g>
     <g id="text_12">
      <!-- 0.075 -->
      <g transform="translate(21.971875 208.066593)scale(0.1 -0.1)">
       <use xlink:href="#DejaVuSans-30"/>
       <use xlink:href="#DejaVuSans-2e" x="63.623047"/>
       <use xlink:href="#DejaVuSans-30" x="95.410156"/>
       <use xlink:href="#DejaVuSans-37" x="159.033203"/>
       <use xlink:href="#DejaVuSans-35" x="222.65625"/>
      </g>
     </g>
    </g>
    <g id="ytick_5">
     <g id="line2d_13">
      <g>
       <use xlink:href="#m7348a3f409" x="57.6" y="173.860498" style="stroke: #000000; stroke-width: 0.8"/>
      </g>
     </g>
     <g id="text_13">
      <!-- 0.100 -->
      <g transform="translate(21.971875 177.659717)scale(0.1 -0.1)">
       <defs>
        <path id="DejaVuSans-31" d="M 794 531 
L 1825 531 
L 1825 4091 
L 703 3866 
L 703 4441 
L 1819 4666 
L 2450 4666 
L 2450 531 
L 3481 531 
L 3481 0 
L 794 0 
L 794 531 
z
" transform="scale(0.015625)"/>
       </defs>
       <use xlink:href="#DejaVuSans-30"/>
       <use xlink:href="#DejaVuSans-2e" x="63.623047"/>
       <use xlink:href="#DejaVuSans-31" x="95.410156"/>
       <use xlink:href="#DejaVuSans-30" x="159.033203"/>
       <use xlink:href="#DejaVuSans-30" x="222.65625"/>
      </g>
     </g>
    </g>
    <g id="ytick_6">
     <g id="line2d_14">
      <g>
       <use xlink:href="#m7348a3f409" x="57.6" y="143.453623" style="stroke: #000000; stroke-width: 0.8"/>
      </g>
     </g>
     <g id="text_14">
      <!-- 0.125 -->
      <g transform="translate(21.971875 147.252842)scale(0.1 -0.1)">
       <use xlink:href="#DejaVuSans-30"/>
       <use xlink:href="#DejaVuSans-2e" x="63.623047"/>
       <use xlink:href="#DejaVuSans-31" x="95.410156"/>
       <use xlink:href="#DejaVuSans-32" x="159.033203"/>
       <use xlink:href="#DejaVuSans-35" x="222.65625"/>
      </g>
     </g>
    </g>
    <g id="ytick_7">
     <g id="line2d_15">
      <g>
       <use xlink:href="#m7348a3f409" x="57.6" y="113.046748" style="stroke: #000000; stroke-width: 0.8"/>
      </g>
     </g>
     <g id="text_15">
      <!-- 0.150 -->
      <g transform="translate(21.971875 116.845966)scale(0.1 -0.1)">
       <use xlink:href="#DejaVuSans-30"/>
       <use xlink:href="#DejaVuSans-2e" x="63.623047"/>
       <use xlink:href="#DejaVuSans-31" x="95.410156"/>
       <use xlink:href="#DejaVuSans-35" x="159.033203"/>
       <use xlink:href="#DejaVuSans-30" x="222.65625"/>
      </g>
     </g>
    </g>
    <g id="ytick_8">
     <g id="line2d_16">
      <g>
       <use xlink:href="#m7348a3f409" x="57.6" y="82.639872" style="stroke: #000000; stroke-width: 0.8"/>
      </g>
     </g>
     <g id="text_16">
      <!-- 0.175 -->
      <g transform="translate(21.971875 86.439091)scale(0.1 -0.1)">
       <use xlink:href="#DejaVuSans-30"/>
       <use xlink:href="#DejaVuSans-2e" x="63.623047"/>
       <use xlink:href="#DejaVuSans-31" x="95.410156"/>
       <use xlink:href="#DejaVuSans-37" x="159.033203"/>
       <use xlink:href="#DejaVuSans-35" x="222.65625"/>
      </g>
     </g>
    </g>
    <g id="ytick_9">
     <g id="line2d_17">
      <g>
       <use xlink:href="#m7348a3f409" x="57.6" y="52.232997" style="stroke: #000000; stroke-width: 0.8"/>
      </g>
     </g>
     <g id="text_17">
      <!-- 0.200 -->
      <g transform="translate(21.971875 56.032216)scale(0.1 -0.1)">
       <use xlink:href="#DejaVuSans-30"/>
       <use xlink:href="#DejaVuSans-2e" x="63.623047"/>
       <use xlink:href="#DejaVuSans-32" x="95.410156"/>
       <use xlink:href="#DejaVuSans-30" x="159.033203"/>
       <use xlink:href="#DejaVuSans-30" x="222.65625"/>
      </g>
     </g>
    </g>
   </g>
   <g id="patch_3">
    <path d="M 57.6 307.584 
L 57.6 41.472 
" style="fill: none; stroke: #000000; stroke-width: 0.8; stroke-linejoin: miter; stroke-linecap: square"/>
   </g>
   <g id="patch_4">
    <path d="M 414.72 307.584 
L 414.72 41.472 
" style="fill: none; stroke: #000000; stroke-width: 0.8; stroke-linejoin: miter; stroke-linecap: square"/>
   </g>
   <g id="patch_5">
    <path d="M 57.6 307.584 
L 414.72 307.584 
" style="fill: none; stroke: #000000; stroke-width: 0.8; stroke-linejoin: miter; stroke-linecap: square"/>
   </g>
   <g id="patch_6">
    <path d="M 57.6 41.472 
L 414.72 41.472 
" style="fill: none; stroke: #000000; stroke-width: 0.8; stroke-linejoin: miter; stroke-linecap: square"/>
   </g>
  </g>
 </g>
 <defs>
  <clipPath id="p49acc01fd6">
   <rect x="57.6" y="41.472" width="357.12" height="266.112"/>
  </clipPath>
 </defs>
</svg>
