{
  "left_boundary": 0,
  "right_boundary": 1,
  "problem_type": "piston",
  "final_time": 0.6,
  "boundary_condition": "left_constant_piston",
  "boundary_parameters": {
    "left_piston_speed": 1
  },
  "initial_dt_increase": 1.1,
  "gamma": 1.666666666666
}