{
  "left_boundary": 0,
  "right_boundary": 1.2,
  "problem_type": "sedov",
  "final_time": 1,
  "boundary_condition": "walls",
  "boundary_parameters": {
    "left_piston_speed": null
  },
  "initial_dt_increase": 1.1,
  "gamma": 1.4
}