<?xml version="1.0" encoding="utf-8" standalone="no"?>
<!DOCTYPE svg PUBLIC "-//W3C//DTD SVG 1.1//EN"
  "http://www.w3.org/Graphics/SVG/1.1/DTD/svg11.dtd">
<svg xmlns:xlink="http://www.w3.org/1999/xlink" width="460.8pt" height="345.6pt" viewBox="0 0 460.8 345.6" xmlns="http://www.w3.org/2000/svg" version="1.1">
 <metadata>
  <rdf:RDF xmlns:dc="http://purl.org/dc/elements/1.1/" xmlns:cc="http://creativecommons.org/ns#" xmlns:rdf="http://www.w3.org/1999/02/22-rdf-syntax-ns#">
   <cc:Work>
    <dc:type rdf:resource="http://purl.org/dc/dcmitype/StillImage"/>
    <dc:date>2023-08-02T18:10:44.865547</dc:date>
    <dc:format>image/svg+xml</dc:format>
    <dc:creator>
     <cc:Agent>
      <dc:title>Matplotlib v3.5.2, https://matplotlib.org/</dc:title>
     </cc:Agent>
    </dc:creator>
   </cc:Work>
  </rdf:RDF>
 </metadata>
 <defs>
  <style type="text/css">*{stroke-linejoin: round; stroke-linecap: butt}</style>
 </defs>
 <g id="figure_1">
  <g id="patch_1">
   <path d="M 0 345.6 
L 460.8 345.6 
L 460.8 0 
L 0 0 
z
" style="fill: #ffffff"/>
  </g>
  <g id="axes_1">
   <g id="patch_2">
    <path d="M 57.6 307.584 
L 414.72 307.584 
L 414.72 41.472 
L 57.6 41.472 
z
" style="fill: #ffffff"/>
   </g>
   <g id="PathCollection_1">
    <defs>
     <path id="me9eac8b11d" d="M 0 3 
C 0.795609 3 1.55874 2.683901 2.12132 2.12132 
C 2.683901 1.55874 3 0.795609 3 0 
C 3 -0.795609 2.683901 -1.55874 2.12132 -2.12132 
C 1.55874 -2.683901 0.795609 -3 0 -3 
C -0.795609 -3 -1.55874 -2.683901 -2.12132 -2.12132 
C -2.683901 -1.55874 -3 -0.795609 -3 0 
C -3 0.795609 -2.683901 1.55874 -2.12132 2.12132 
C -1.55874 2.683901 -0.795609 3 0 3 
z
" style="stroke: #228b22"/>
    </defs>
    <g clip-path="url(#p7e075a6f62)">
     <use xlink:href="#me9eac8b11d" x="77.994965" y="295.469642" style="fill: #228b22; stroke: #228b22"/>
     <use xlink:href="#me9eac8b11d" x="86.319441" y="295.393094" style="fill: #228b22; stroke: #228b22"/>
     <use xlink:href="#me9eac8b11d" x="94.643916" y="295.190316" style="fill: #228b22; stroke: #228b22"/>
     <use xlink:href="#me9eac8b11d" x="102.968392" y="294.763029" style="fill: #228b22; stroke: #228b22"/>
     <use xlink:href="#me9eac8b11d" x="111.292867" y="293.984625" style="fill: #228b22; stroke: #228b22"/>
     <use xlink:href="#me9eac8b11d" x="119.617343" y="292.706062" style="fill: #228b22; stroke: #228b22"/>
     <use xlink:href="#me9eac8b11d" x="127.941818" y="290.76512" style="fill: #228b22; stroke: #228b22"/>
     <use xlink:href="#me9eac8b11d" x="136.266294" y="287.997978" style="fill: #228b22; stroke: #228b22"/>
     <use xlink:href="#me9eac8b11d" x="144.590769" y="284.251887" style="fill: #228b22; stroke: #228b22"/>
     <use xlink:href="#me9eac8b11d" x="152.915245" y="279.397648" style="fill: #228b22; stroke: #228b22"/>
     <use xlink:href="#me9eac8b11d" x="161.23972" y="273.340717" style="fill: #228b22; stroke: #228b22"/>
     <use xlink:href="#me9eac8b11d" x="169.564196" y="266.029977" style="fill: #228b22; stroke: #228b22"/>
     <use xlink:href="#me9eac8b11d" x="177.888671" y="257.463482" style="fill: #228b22; stroke: #228b22"/>
     <use xlink:href="#me9eac8b11d" x="186.213147" y="247.690805" style="fill: #228b22; stroke: #228b22"/>
     <use xlink:href="#me9eac8b11d" x="194.537622" y="236.811932" style="fill: #228b22; stroke: #228b22"/>
     <use xlink:href="#me9eac8b11d" x="202.862098" y="224.972935" style="fill: #228b22; stroke: #228b22"/>
     <use xlink:href="#me9eac8b11d" x="211.186573" y="212.358866" style="fill: #228b22; stroke: #228b22"/>
     <use xlink:href="#me9eac8b11d" x="219.511049" y="199.184519" style="fill: #228b22; stroke: #228b22"/>
     <use xlink:href="#me9eac8b11d" x="227.835524" y="185.683788" style="fill: #228b22; stroke: #228b22"/>
     <use xlink:href="#me9eac8b11d" x="236.16" y="172.098411" style="fill: #228b22; stroke: #228b22"/>
     <use xlink:href="#me9eac8b11d" x="244.484476" y="158.666839" style="fill: #228b22; stroke: #228b22"/>
     <use xlink:href="#me9eac8b11d" x="252.808951" y="145.613922" style="fill: #228b22; stroke: #228b22"/>
     <use xlink:href="#me9eac8b11d" x="261.133427" y="133.141975" style="fill: #228b22; stroke: #228b22"/>
     <use xlink:href="#me9eac8b11d" x="269.457902" y="121.423651" style="fill: #228b22; stroke: #228b22"/>
     <use xlink:href="#me9eac8b11d" x="277.782378" y="110.596879" style="fill: #228b22; stroke: #228b22"/>
     <use xlink:href="#me9eac8b11d" x="286.106853" y="100.761988" style="fill: #228b22; stroke: #228b22"/>
     <use xlink:href="#me9eac8b11d" x="294.431329" y="91.980968" style="fill: #228b22; stroke: #228b22"/>
     <use xlink:href="#me9eac8b11d" x="302.755804" y="84.278705" style="fill: #228b22; stroke: #228b22"/>
     <use xlink:href="#me9eac8b11d" x="311.08028" y="77.645904" style="fill: #228b22; stroke: #228b22"/>
     <use xlink:href="#me9eac8b11d" x="319.404755" y="72.043368" style="fill: #228b22; stroke: #228b22"/>
     <use xlink:href="#me9eac8b11d" x="327.729231" y="67.40722" style="fill: #228b22; stroke: #228b22"/>
     <use xlink:href="#me9eac8b11d" x="336.053706" y="63.65468" style="fill: #228b22; stroke: #228b22"/>
     <use xlink:href="#me9eac8b11d" x="344.378182" y="60.690002" style="fill: #228b22; stroke: #228b22"/>
     <use xlink:href="#me9eac8b11d" x="352.702657" y="58.410213" style="fill: #228b22; stroke: #228b22"/>
     <use xlink:href="#me9eac8b11d" x="361.027133" y="56.710378" style="fill: #228b22; stroke: #228b22"/>
     <use xlink:href="#me9eac8b11d" x="369.351608" y="55.488151" style="fill: #228b22; stroke: #228b22"/>
     <use xlink:href="#me9eac8b11d" x="377.676084" y="54.647474" style="fill: #228b22; stroke: #228b22"/>
     <use xlink:href="#me9eac8b11d" x="386.000559" y="54.101334" style="fill: #228b22; stroke: #228b22"/>
     <use xlink:href="#me9eac8b11d" x="394.325035" y="53.773518" style="fill: #228b22; stroke: #228b22"/>
    </g>
   </g>
   <g id="matplotlib.axis_1">
    <g id="xtick_1">
     <g id="line2d_1">
      <defs>
       <path id="m853756d4d3" d="M 0 0 
L 0 3.5 
" style="stroke: #000000; stroke-width: 0.8"/>
      </defs>
      <g>
       <use xlink:href="#m853756d4d3" x="73.832727" y="307.584" style="stroke: #000000; stroke-width: 0.8"/>
      </g>
     </g>
     <g id="text_1">
      <!-- −1.00 -->
      <g transform="translate(58.510071 322.182437)scale(0.1 -0.1)">
       <defs>
        <path id="DejaVuSans-2212" d="M 678 2272 
L 4684 2272 
L 4684 1741 
L 678 1741 
L 678 2272 
z
" transform="scale(0.015625)"/>
        <path id="DejaVuSans-31" d="M 794 531 
L 1825 531 
L 1825 4091 
L 703 3866 
L 703 4441 
L 1819 4666 
L 2450 4666 
L 2450 531 
L 3481 531 
L 3481 0 
L 794 0 
L 794 531 
z
" transform="scale(0.015625)"/>
        <path id="DejaVuSans-2e" d="M 684 794 
L 1344 794 
L 1344 0 
L 684 0 
L 684 794 
z
" transform="scale(0.015625)"/>
        <path id="DejaVuSans-30" d="M 2034 4250 
Q 1547 4250 1301 3770 
Q 1056 3291 1056 2328 
Q 1056 1369 1301 889 
Q 1547 409 2034 409 
Q 2525 409 2770 889 
Q 3016 1369 3016 2328 
Q 3016 3291 2770 3770 
Q 2525 4250 2034 4250 
z
M 2034 4750 
Q 2819 4750 3233 4129 
Q 3647 3509 3647 2328 
Q 3647 1150 3233 529 
Q 2819 -91 2034 -91 
Q 1250 -91 836 529 
Q 422 1150 422 2328 
Q 422 3509 836 4129 
Q 1250 4750 2034 4750 
z
" transform="scale(0.015625)"/>
       </defs>
       <use xlink:href="#DejaVuSans-2212"/>
       <use xlink:href="#DejaVuSans-31" x="83.789062"/>
       <use xlink:href="#DejaVuSans-2e" x="147.412109"/>
       <use xlink:href="#DejaVuSans-30" x="179.199219"/>
       <use xlink:href="#DejaVuSans-30" x="242.822266"/>
      </g>
     </g>
    </g>
    <g id="xtick_2">
     <g id="line2d_2">
      <g>
       <use xlink:href="#m853756d4d3" x="114.414545" y="307.584" style="stroke: #000000; stroke-width: 0.8"/>
      </g>
     </g>
     <g id="text_2">
      <!-- −0.75 -->
      <g transform="translate(99.091889 322.182437)scale(0.1 -0.1)">
       <defs>
        <path id="DejaVuSans-37" d="M 525 4666 
L 3525 4666 
L 3525 4397 
L 1831 0 
L 1172 0 
L 2766 4134 
L 525 4134 
L 525 4666 
z
" transform="scale(0.015625)"/>
        <path id="DejaVuSans-35" d="M 691 4666 
L 3169 4666 
L 3169 4134 
L 1269 4134 
L 1269 2991 
Q 1406 3038 1543 3061 
Q 1681 3084 1819 3084 
Q 2600 3084 3056 2656 
Q 3513 2228 3513 1497 
Q 3513 744 3044 326 
Q 2575 -91 1722 -91 
Q 1428 -91 1123 -41 
Q 819 9 494 109 
L 494 744 
Q 775 591 1075 516 
Q 1375 441 1709 441 
Q 2250 441 2565 725 
Q 2881 1009 2881 1497 
Q 2881 1984 2565 2268 
Q 2250 2553 1709 2553 
Q 1456 2553 1204 2497 
Q 953 2441 691 2322 
L 691 4666 
z
" transform="scale(0.015625)"/>
       </defs>
       <use xlink:href="#DejaVuSans-2212"/>
       <use xlink:href="#DejaVuSans-30" x="83.789062"/>
       <use xlink:href="#DejaVuSans-2e" x="147.412109"/>
       <use xlink:href="#DejaVuSans-37" x="179.199219"/>
       <use xlink:href="#DejaVuSans-35" x="242.822266"/>
      </g>
     </g>
    </g>
    <g id="xtick_3">
     <g id="line2d_3">
      <g>
       <use xlink:href="#m853756d4d3" x="154.996364" y="307.584" style="stroke: #000000; stroke-width: 0.8"/>
      </g>
     </g>
     <g id="text_3">
      <!-- −0.50 -->
      <g transform="translate(139.673707 322.182437)scale(0.1 -0.1)">
       <use xlink:href="#DejaVuSans-2212"/>
       <use xlink:href="#DejaVuSans-30" x="83.789062"/>
       <use xlink:href="#DejaVuSans-2e" x="147.412109"/>
       <use xlink:href="#DejaVuSans-35" x="179.199219"/>
       <use xlink:href="#DejaVuSans-30" x="242.822266"/>
      </g>
     </g>
    </g>
    <g id="xtick_4">
     <g id="line2d_4">
      <g>
       <use xlink:href="#m853756d4d3" x="195.578182" y="307.584" style="stroke: #000000; stroke-width: 0.8"/>
      </g>
     </g>
     <g id="text_4">
      <!-- −0.25 -->
      <g transform="translate(180.255526 322.182437)scale(0.1 -0.1)">
       <defs>
        <path id="DejaVuSans-32" d="M 1228 531 
L 3431 531 
L 3431 0 
L 469 0 
L 469 531 
Q 828 903 1448 1529 
Q 2069 2156 2228 2338 
Q 2531 2678 2651 2914 
Q 2772 3150 2772 3378 
Q 2772 3750 2511 3984 
Q 2250 4219 1831 4219 
Q 1534 4219 1204 4116 
Q 875 4013 500 3803 
L 500 4441 
Q 881 4594 1212 4672 
Q 1544 4750 1819 4750 
Q 2544 4750 2975 4387 
Q 3406 4025 3406 3419 
Q 3406 3131 3298 2873 
Q 3191 2616 2906 2266 
Q 2828 2175 2409 1742 
Q 1991 1309 1228 531 
z
" transform="scale(0.015625)"/>
       </defs>
       <use xlink:href="#DejaVuSans-2212"/>
       <use xlink:href="#DejaVuSans-30" x="83.789062"/>
       <use xlink:href="#DejaVuSans-2e" x="147.412109"/>
       <use xlink:href="#DejaVuSans-32" x="179.199219"/>
       <use xlink:href="#DejaVuSans-35" x="242.822266"/>
      </g>
     </g>
    </g>
    <g id="xtick_5">
     <g id="line2d_5">
      <g>
       <use xlink:href="#m853756d4d3" x="236.16" y="307.584" style="stroke: #000000; stroke-width: 0.8"/>
      </g>
     </g>
     <g id="text_5">
      <!-- 0.00 -->
      <g transform="translate(225.027187 322.182437)scale(0.1 -0.1)">
       <use xlink:href="#DejaVuSans-30"/>
       <use xlink:href="#DejaVuSans-2e" x="63.623047"/>
       <use xlink:href="#DejaVuSans-30" x="95.410156"/>
       <use xlink:href="#DejaVuSans-30" x="159.033203"/>
      </g>
     </g>
    </g>
    <g id="xtick_6">
     <g id="line2d_6">
      <g>
       <use xlink:href="#m853756d4d3" x="276.741818" y="307.584" style="stroke: #000000; stroke-width: 0.8"/>
      </g>
     </g>
     <g id="text_6">
      <!-- 0.25 -->
      <g transform="translate(265.609006 322.182437)scale(0.1 -0.1)">
       <use xlink:href="#DejaVuSans-30"/>
       <use xlink:href="#DejaVuSans-2e" x="63.623047"/>
       <use xlink:href="#DejaVuSans-32" x="95.410156"/>
       <use xlink:href="#DejaVuSans-35" x="159.033203"/>
      </g>
     </g>
    </g>
    <g id="xtick_7">
     <g id="line2d_7">
      <g>
       <use xlink:href="#m853756d4d3" x="317.323636" y="307.584" style="stroke: #000000; stroke-width: 0.8"/>
      </g>
     </g>
     <g id="text_7">
      <!-- 0.50 -->
      <g transform="translate(306.190824 322.182437)scale(0.1 -0.1)">
       <use xlink:href="#DejaVuSans-30"/>
       <use xlink:href="#DejaVuSans-2e" x="63.623047"/>
       <use xlink:href="#DejaVuSans-35" x="95.410156"/>
       <use xlink:href="#DejaVuSans-30" x="159.033203"/>
      </g>
     </g>
    </g>
    <g id="xtick_8">
     <g id="line2d_8">
      <g>
       <use xlink:href="#m853756d4d3" x="357.905455" y="307.584" style="stroke: #000000; stroke-width: 0.8"/>
      </g>
     </g>
     <g id="text_8">
      <!-- 0.75 -->
      <g transform="translate(346.772642 322.182437)scale(0.1 -0.1)">
       <use xlink:href="#DejaVuSans-30"/>
       <use xlink:href="#DejaVuSans-2e" x="63.623047"/>
       <use xlink:href="#DejaVuSans-37" x="95.410156"/>
       <use xlink:href="#DejaVuSans-35" x="159.033203"/>
      </g>
     </g>
    </g>
    <g id="xtick_9">
     <g id="line2d_9">
      <g>
       <use xlink:href="#m853756d4d3" x="398.487273" y="307.584" style="stroke: #000000; stroke-width: 0.8"/>
      </g>
     </g>
     <g id="text_9">
      <!-- 1.00 -->
      <g transform="translate(387.35446 322.182437)scale(0.1 -0.1)">
       <use xlink:href="#DejaVuSans-31"/>
       <use xlink:href="#DejaVuSans-2e" x="63.623047"/>
       <use xlink:href="#DejaVuSans-30" x="95.410156"/>
       <use xlink:href="#DejaVuSans-30" x="159.033203"/>
      </g>
     </g>
    </g>
    <g id="text_10">
     <!-- x -->
     <g transform="translate(233.200625 335.860562)scale(0.1 -0.1)">
      <defs>
       <path id="DejaVuSans-78" d="M 3513 3500 
L 2247 1797 
L 3578 0 
L 2900 0 
L 1881 1375 
L 863 0 
L 184 0 
L 1544 1831 
L 300 3500 
L 978 3500 
L 1906 2253 
L 2834 3500 
L 3513 3500 
z
" transform="scale(0.015625)"/>
      </defs>
      <use xlink:href="#DejaVuSans-78"/>
     </g>
    </g>
   </g>
   <g id="matplotlib.axis_2">
    <g id="ytick_1">
     <g id="line2d_10">
      <defs>
       <path id="m88822f043c" d="M 0 0 
L -3.5 0 
" style="stroke: #000000; stroke-width: 0.8"/>
      </defs>
      <g>
       <use xlink:href="#m88822f043c" x="57.6" y="295.488" style="stroke: #000000; stroke-width: 0.8"/>
      </g>
     </g>
     <g id="text_11">
      <!-- 1.0 -->
      <g transform="translate(34.696875 299.287219)scale(0.1 -0.1)">
       <use xlink:href="#DejaVuSans-31"/>
       <use xlink:href="#DejaVuSans-2e" x="63.623047"/>
       <use xlink:href="#DejaVuSans-30" x="95.410156"/>
      </g>
     </g>
    </g>
    <g id="ytick_2">
     <g id="line2d_11">
      <g>
       <use xlink:href="#m88822f043c" x="57.6" y="247.104" style="stroke: #000000; stroke-width: 0.8"/>
      </g>
     </g>
     <g id="text_12">
      <!-- 1.2 -->
      <g transform="translate(34.696875 250.903219)scale(0.1 -0.1)">
       <use xlink:href="#DejaVuSans-31"/>
       <use xlink:href="#DejaVuSans-2e" x="63.623047"/>
       <use xlink:href="#DejaVuSans-32" x="95.410156"/>
      </g>
     </g>
    </g>
    <g id="ytick_3">
     <g id="line2d_12">
      <g>
       <use xlink:href="#m88822f043c" x="57.6" y="198.72" style="stroke: #000000; stroke-width: 0.8"/>
      </g>
     </g>
     <g id="text_13">
      <!-- 1.4 -->
      <g transform="translate(34.696875 202.519219)scale(0.1 -0.1)">
       <defs>
        <path id="DejaVuSans-34" d="M 2419 4116 
L 825 1625 
L 2419 1625 
L 2419 4116 
z
M 2253 4666 
L 3047 4666 
L 3047 1625 
L 3713 1625 
L 3713 1100 
L 3047 1100 
L 3047 0 
L 2419 0 
L 2419 1100 
L 313 1100 
L 313 1709 
L 2253 4666 
z
" transform="scale(0.015625)"/>
       </defs>
       <use xlink:href="#DejaVuSans-31"/>
       <use xlink:href="#DejaVuSans-2e" x="63.623047"/>
       <use xlink:href="#DejaVuSans-34" x="95.410156"/>
      </g>
     </g>
    </g>
    <g id="ytick_4">
     <g id="line2d_13">
      <g>
       <use xlink:href="#m88822f043c" x="57.6" y="150.336" style="stroke: #000000; stroke-width: 0.8"/>
      </g>
     </g>
     <g id="text_14">
      <!-- 1.6 -->
      <g transform="translate(34.696875 154.135219)scale(0.1 -0.1)">
       <defs>
        <path id="DejaVuSans-36" d="M 2113 2584 
Q 1688 2584 1439 2293 
Q 1191 2003 1191 1497 
Q 1191 994 1439 701 
Q 1688 409 2113 409 
Q 2538 409 2786 701 
Q 3034 994 3034 1497 
Q 3034 2003 2786 2293 
Q 2538 2584 2113 2584 
z
M 3366 4563 
L 3366 3988 
Q 3128 4100 2886 4159 
Q 2644 4219 2406 4219 
Q 1781 4219 1451 3797 
Q 1122 3375 1075 2522 
Q 1259 2794 1537 2939 
Q 1816 3084 2150 3084 
Q 2853 3084 3261 2657 
Q 3669 2231 3669 1497 
Q 3669 778 3244 343 
Q 2819 -91 2113 -91 
Q 1303 -91 875 529 
Q 447 1150 447 2328 
Q 447 3434 972 4092 
Q 1497 4750 2381 4750 
Q 2619 4750 2861 4703 
Q 3103 4656 3366 4563 
z
" transform="scale(0.015625)"/>
       </defs>
       <use xlink:href="#DejaVuSans-31"/>
       <use xlink:href="#DejaVuSans-2e" x="63.623047"/>
       <use xlink:href="#DejaVuSans-36" x="95.410156"/>
      </g>
     </g>
    </g>
    <g id="ytick_5">
     <g id="line2d_14">
      <g>
       <use xlink:href="#m88822f043c" x="57.6" y="101.952" style="stroke: #000000; stroke-width: 0.8"/>
      </g>
     </g>
     <g id="text_15">
      <!-- 1.8 -->
      <g transform="translate(34.696875 105.751219)scale(0.1 -0.1)">
       <defs>
        <path id="DejaVuSans-38" d="M 2034 2216 
Q 1584 2216 1326 1975 
Q 1069 1734 1069 1313 
Q 1069 891 1326 650 
Q 1584 409 2034 409 
Q 2484 409 2743 651 
Q 3003 894 3003 1313 
Q 3003 1734 2745 1975 
Q 2488 2216 2034 2216 
z
M 1403 2484 
Q 997 2584 770 2862 
Q 544 3141 544 3541 
Q 544 4100 942 4425 
Q 1341 4750 2034 4750 
Q 2731 4750 3128 4425 
Q 3525 4100 3525 3541 
Q 3525 3141 3298 2862 
Q 3072 2584 2669 2484 
Q 3125 2378 3379 2068 
Q 3634 1759 3634 1313 
Q 3634 634 3220 271 
Q 2806 -91 2034 -91 
Q 1263 -91 848 271 
Q 434 634 434 1313 
Q 434 1759 690 2068 
Q 947 2378 1403 2484 
z
M 1172 3481 
Q 1172 3119 1398 2916 
Q 1625 2713 2034 2713 
Q 2441 2713 2670 2916 
Q 2900 3119 2900 3481 
Q 2900 3844 2670 4047 
Q 2441 4250 2034 4250 
Q 1625 4250 1398 4047 
Q 1172 3844 1172 3481 
z
" transform="scale(0.015625)"/>
       </defs>
       <use xlink:href="#DejaVuSans-31"/>
       <use xlink:href="#DejaVuSans-2e" x="63.623047"/>
       <use xlink:href="#DejaVuSans-38" x="95.410156"/>
      </g>
     </g>
    </g>
    <g id="ytick_6">
     <g id="line2d_15">
      <g>
       <use xlink:href="#m88822f043c" x="57.6" y="53.568" style="stroke: #000000; stroke-width: 0.8"/>
      </g>
     </g>
     <g id="text_16">
      <!-- 2.0 -->
      <g transform="translate(34.696875 57.367219)scale(0.1 -0.1)">
       <use xlink:href="#DejaVuSans-32"/>
       <use xlink:href="#DejaVuSans-2e" x="63.623047"/>
       <use xlink:href="#DejaVuSans-30" x="95.410156"/>
      </g>
     </g>
    </g>
    <g id="text_17">
     <!-- $f_i$ -->
     <g transform="translate(28.617188 177.428)rotate(-90)scale(0.1 -0.1)">
      <defs>
       <path id="DejaVuSans-Oblique-66" d="M 3059 4863 
L 2969 4384 
L 2419 4384 
Q 2106 4384 1964 4261 
Q 1822 4138 1753 3809 
L 1691 3500 
L 2638 3500 
L 2553 3053 
L 1606 3053 
L 1013 0 
L 434 0 
L 1031 3053 
L 481 3053 
L 563 3500 
L 1113 3500 
L 1159 3744 
Q 1278 4363 1576 4613 
Q 1875 4863 2516 4863 
L 3059 4863 
z
" transform="scale(0.015625)"/>
       <path id="DejaVuSans-Oblique-69" d="M 1172 4863 
L 1747 4863 
L 1606 4134 
L 1031 4134 
L 1172 4863 
z
M 909 3500 
L 1484 3500 
L 800 0 
L 225 0 
L 909 3500 
z
" transform="scale(0.015625)"/>
      </defs>
      <use xlink:href="#DejaVuSans-Oblique-66" transform="translate(0 0.015625)"/>
      <use xlink:href="#DejaVuSans-Oblique-69" transform="translate(35.205078 -16.390625)scale(0.7)"/>
     </g>
    </g>
   </g>
   <g id="line2d_16">
    <path d="M 73.832727 295.488 
L 235.99751 295.488 
L 236.32249 53.568 
L 398.487273 53.568 
L 398.487273 53.568 
" clip-path="url(#p7e075a6f62)" style="fill: none; stroke: #0000ff; stroke-width: 1.5; stroke-linecap: square"/>
   </g>
   <g id="line2d_17">
    <path d="M 73.840844 295.469642 
L 74.18702 295.469642 
L 74.533197 295.469642 
L 74.879374 295.469642 
L 75.225551 295.469642 
L 75.571728 295.469642 
L 75.917904 295.469642 
L 76.264081 295.469642 
L 76.610258 295.469642 
L 76.956435 295.469642 
L 77.302611 295.469642 
L 77.648788 295.469642 
L 77.994965 295.469642 
L 78.341142 295.469642 
L 78.687319 295.469642 
L 79.033495 295.469642 
L 79.379672 295.469642 
L 79.725849 295.469642 
L 80.072026 295.469642 
L 80.418203 295.469642 
L 80.764379 295.469642 
L 81.110556 295.469642 
L 81.456733 295.469642 
L 81.80291 295.469642 
L 82.149086 295.469642 
" clip-path="url(#p7e075a6f62)" style="fill: none; stroke: #008000; stroke-width: 1.5; stroke-linecap: square"/>
   </g>
   <g id="line2d_18">
    <path d="M 82.165319 295.393094 
L 82.511496 295.393094 
L 82.857673 295.393094 
L 83.20385 295.393094 
L 83.550026 295.393094 
L 83.896203 295.393094 
L 84.24238 295.393094 
L 84.588557 295.393094 
L 84.934733 295.393094 
L 85.28091 295.393094 
L 85.627087 295.393094 
L 85.973264 295.393094 
L 86.319441 295.393094 
L 86.665617 295.393094 
L 87.011794 295.393094 
L 87.357971 295.393094 
L 87.704148 295.393094 
L 88.050324 295.393094 
L 88.396501 295.393094 
L 88.742678 295.393094 
L 89.088855 295.393094 
L 89.435032 295.393094 
L 89.781208 295.393094 
L 90.127385 295.393094 
L 90.473562 295.393094 
" clip-path="url(#p7e075a6f62)" style="fill: none; stroke: #008000; stroke-width: 1.5; stroke-linecap: square"/>
   </g>
   <g id="line2d_19">
    <path d="M 90.489795 295.190316 
L 90.835971 295.190316 
L 91.182148 295.190316 
L 91.528325 295.190316 
L 91.874502 295.190316 
L 92.220679 295.190316 
L 92.566855 295.190316 
L 92.913032 295.190316 
L 93.259209 295.190316 
L 93.605386 295.190316 
L 93.951563 295.190316 
L 94.297739 295.190316 
L 94.643916 295.190316 
L 94.990093 295.190316 
L 95.33627 295.190316 
L 95.682446 295.190316 
L 96.028623 295.190316 
L 96.3748 295.190316 
L 96.720977 295.190316 
L 97.067154 295.190316 
L 97.41333 295.190316 
L 97.759507 295.190316 
L 98.105684 295.190316 
L 98.451861 295.190316 
L 98.798037 295.190316 
" clip-path="url(#p7e075a6f62)" style="fill: none; stroke: #008000; stroke-width: 1.5; stroke-linecap: square"/>
   </g>
   <g id="line2d_20">
    <path d="M 98.81427 294.763029 
L 99.160447 294.763029 
L 99.506624 294.763029 
L 99.852801 294.763029 
L 100.198977 294.763029 
L 100.545154 294.763029 
L 100.891331 294.763029 
L 101.237508 294.763029 
L 101.583684 294.763029 
L 101.929861 294.763029 
L 102.276038 294.763029 
L 102.622215 294.763029 
L 102.968392 294.763029 
L 103.314568 294.763029 
L 103.660745 294.763029 
L 104.006922 294.763029 
L 104.353099 294.763029 
L 104.699276 294.763029 
L 105.045452 294.763029 
L 105.391629 294.763029 
L 105.737806 294.763029 
L 106.083983 294.763029 
L 106.430159 294.763029 
L 106.776336 294.763029 
L 107.122513 294.763029 
" clip-path="url(#p7e075a6f62)" style="fill: none; stroke: #008000; stroke-width: 1.5; stroke-linecap: square"/>
   </g>
   <g id="line2d_21">
    <path d="M 107.138746 293.984625 
L 107.484923 293.984625 
L 107.831099 293.984625 
L 108.177276 293.984625 
L 108.523453 293.984625 
L 108.86963 293.984625 
L 109.215806 293.984625 
L 109.561983 293.984625 
L 109.90816 293.984625 
L 110.254337 293.984625 
L 110.600514 293.984625 
L 110.94669 293.984625 
L 111.292867 293.984625 
L 111.639044 293.984625 
L 111.985221 293.984625 
L 112.331397 293.984625 
L 112.677574 293.984625 
L 113.023751 293.984625 
L 113.369928 293.984625 
L 113.716105 293.984625 
L 114.062281 293.984625 
L 114.408458 293.984625 
L 114.754635 293.984625 
L 115.100812 293.984625 
L 115.446989 293.984625 
" clip-path="url(#p7e075a6f62)" style="fill: none; stroke: #008000; stroke-width: 1.5; stroke-linecap: square"/>
   </g>
   <g id="line2d_22">
    <path d="M 115.463221 292.706062 
L 115.809398 292.706062 
L 116.155575 292.706062 
L 116.501752 292.706062 
L 116.847928 292.706062 
L 117.194105 292.706062 
L 117.540282 292.706062 
L 117.886459 292.706062 
L 118.232636 292.706062 
L 118.578812 292.706062 
L 118.924989 292.706062 
L 119.271166 292.706062 
L 119.617343 292.706062 
L 119.963519 292.706062 
L 120.309696 292.706062 
L 120.655873 292.706062 
L 121.00205 292.706062 
L 121.348227 292.706062 
L 121.694403 292.706062 
L 122.04058 292.706062 
L 122.386757 292.706062 
L 122.732934 292.706062 
L 123.07911 292.706062 
L 123.425287 292.706062 
L 123.771464 292.706062 
" clip-path="url(#p7e075a6f62)" style="fill: none; stroke: #008000; stroke-width: 1.5; stroke-linecap: square"/>
   </g>
   <g id="line2d_23">
    <path d="M 123.787697 290.76512 
L 124.133874 290.76512 
L 124.48005 290.76512 
L 124.826227 290.76512 
L 125.172404 290.76512 
L 125.518581 290.76512 
L 125.864757 290.76512 
L 126.210934 290.76512 
L 126.557111 290.76512 
L 126.903288 290.76512 
L 127.249465 290.76512 
L 127.595641 290.76512 
L 127.941818 290.76512 
L 128.287995 290.76512 
L 128.634172 290.76512 
L 128.980349 290.76512 
L 129.326525 290.76512 
L 129.672702 290.76512 
L 130.018879 290.76512 
L 130.365056 290.76512 
L 130.711232 290.76512 
L 131.057409 290.76512 
L 131.403586 290.76512 
L 131.749763 290.76512 
L 132.09594 290.76512 
" clip-path="url(#p7e075a6f62)" style="fill: none; stroke: #008000; stroke-width: 1.5; stroke-linecap: square"/>
   </g>
   <g id="line2d_24">
    <path d="M 132.112172 287.997978 
L 132.458349 287.997978 
L 132.804526 287.997978 
L 133.150703 287.997978 
L 133.496879 287.997978 
L 133.843056 287.997978 
L 134.189233 287.997978 
L 134.53541 287.997978 
L 134.881587 287.997978 
L 135.227763 287.997978 
L 135.57394 287.997978 
L 135.920117 287.997978 
L 136.266294 287.997978 
L 136.61247 287.997978 
L 136.958647 287.997978 
L 137.304824 287.997978 
L 137.651001 287.997978 
L 137.997178 287.997978 
L 138.343354 287.997978 
L 138.689531 287.997978 
L 139.035708 287.997978 
L 139.381885 287.997978 
L 139.728062 287.997978 
L 140.074238 287.997978 
L 140.420415 287.997978 
" clip-path="url(#p7e075a6f62)" style="fill: none; stroke: #008000; stroke-width: 1.5; stroke-linecap: square"/>
   </g>
   <g id="line2d_25">
    <path d="M 140.436648 284.251887 
L 140.782825 284.251887 
L 141.129001 284.251887 
L 141.475178 284.251887 
L 141.821355 284.251887 
L 142.167532 284.251887 
L 142.513709 284.251887 
L 142.859885 284.251887 
L 143.206062 284.251887 
L 143.552239 284.251887 
L 143.898416 284.251887 
L 144.244592 284.251887 
L 144.590769 284.251887 
L 144.936946 284.251887 
L 145.283123 284.251887 
L 145.6293 284.251887 
L 145.975476 284.251887 
L 146.321653 284.251887 
L 146.66783 284.251887 
L 147.014007 284.251887 
L 147.360183 284.251887 
L 147.70636 284.251887 
L 148.052537 284.251887 
L 148.398714 284.251887 
L 148.744891 284.251887 
" clip-path="url(#p7e075a6f62)" style="fill: none; stroke: #008000; stroke-width: 1.5; stroke-linecap: square"/>
   </g>
   <g id="line2d_26">
    <path d="M 148.761123 279.397648 
L 149.1073 279.397648 
L 149.453477 279.397648 
L 149.799654 279.397648 
L 150.14583 279.397648 
L 150.492007 279.397648 
L 150.838184 279.397648 
L 151.184361 279.397648 
L 151.530538 279.397648 
L 151.876714 279.397648 
L 152.222891 279.397648 
L 152.569068 279.397648 
L 152.915245 279.397648 
L 153.261422 279.397648 
L 153.607598 279.397648 
L 153.953775 279.397648 
L 154.299952 279.397648 
L 154.646129 279.397648 
L 154.992305 279.397648 
L 155.338482 279.397648 
L 155.684659 279.397648 
L 156.030836 279.397648 
L 156.377013 279.397648 
L 156.723189 279.397648 
L 157.069366 279.397648 
" clip-path="url(#p7e075a6f62)" style="fill: none; stroke: #008000; stroke-width: 1.5; stroke-linecap: square"/>
   </g>
   <g id="line2d_27">
    <path d="M 157.085599 273.340717 
L 157.431776 273.340717 
L 157.777952 273.340717 
L 158.124129 273.340717 
L 158.470306 273.340717 
L 158.816483 273.340717 
L 159.16266 273.340717 
L 159.508836 273.340717 
L 159.855013 273.340717 
L 160.20119 273.340717 
L 160.547367 273.340717 
L 160.893543 273.340717 
L 161.23972 273.340717 
L 161.585897 273.340717 
L 161.932074 273.340717 
L 162.278251 273.340717 
L 162.624427 273.340717 
L 162.970604 273.340717 
L 163.316781 273.340717 
L 163.662958 273.340717 
L 164.009135 273.340717 
L 164.355311 273.340717 
L 164.701488 273.340717 
L 165.047665 273.340717 
L 165.393842 273.340717 
" clip-path="url(#p7e075a6f62)" style="fill: none; stroke: #008000; stroke-width: 1.5; stroke-linecap: square"/>
   </g>
   <g id="line2d_28">
    <path d="M 165.410074 266.029977 
L 165.756251 266.029977 
L 166.102428 266.029977 
L 166.448605 266.029977 
L 166.794782 266.029977 
L 167.140958 266.029977 
L 167.487135 266.029977 
L 167.833312 266.029977 
L 168.179489 266.029977 
L 168.525665 266.029977 
L 168.871842 266.029977 
L 169.218019 266.029977 
L 169.564196 266.029977 
L 169.910373 266.029977 
L 170.256549 266.029977 
L 170.602726 266.029977 
L 170.948903 266.029977 
L 171.29508 266.029977 
L 171.641257 266.029977 
L 171.987433 266.029977 
L 172.33361 266.029977 
L 172.679787 266.029977 
L 173.025964 266.029977 
L 173.37214 266.029977 
L 173.718317 266.029977 
" clip-path="url(#p7e075a6f62)" style="fill: none; stroke: #008000; stroke-width: 1.5; stroke-linecap: square"/>
   </g>
   <g id="line2d_29">
    <path d="M 173.73455 257.463482 
L 174.080727 257.463482 
L 174.426903 257.463482 
L 174.77308 257.463482 
L 175.119257 257.463482 
L 175.465434 257.463482 
L 175.811611 257.463482 
L 176.157787 257.463482 
L 176.503964 257.463482 
L 176.850141 257.463482 
L 177.196318 257.463482 
L 177.542495 257.463482 
L 177.888671 257.463482 
L 178.234848 257.463482 
L 178.581025 257.463482 
L 178.927202 257.463482 
L 179.273378 257.463482 
L 179.619555 257.463482 
L 179.965732 257.463482 
L 180.311909 257.463482 
L 180.658086 257.463482 
L 181.004262 257.463482 
L 181.350439 257.463482 
L 181.696616 257.463482 
L 182.042793 257.463482 
" clip-path="url(#p7e075a6f62)" style="fill: none; stroke: #008000; stroke-width: 1.5; stroke-linecap: square"/>
   </g>
   <g id="line2d_30">
    <path d="M 182.059025 247.690805 
L 182.405202 247.690805 
L 182.751379 247.690805 
L 183.097556 247.690805 
L 183.443733 247.690805 
L 183.789909 247.690805 
L 184.136086 247.690805 
L 184.482263 247.690805 
L 184.82844 247.690805 
L 185.174617 247.690805 
L 185.520793 247.690805 
L 185.86697 247.690805 
L 186.213147 247.690805 
L 186.559324 247.690805 
L 186.9055 247.690805 
L 187.251677 247.690805 
L 187.597854 247.690805 
L 187.944031 247.690805 
L 188.290208 247.690805 
L 188.636384 247.690805 
L 188.982561 247.690805 
L 189.328738 247.690805 
L 189.674915 247.690805 
L 190.021091 247.690805 
L 190.367268 247.690805 
" clip-path="url(#p7e075a6f62)" style="fill: none; stroke: #008000; stroke-width: 1.5; stroke-linecap: square"/>
   </g>
   <g id="line2d_31">
    <path d="M 190.383501 236.811932 
L 190.729678 236.811932 
L 191.075855 236.811932 
L 191.422031 236.811932 
L 191.768208 236.811932 
L 192.114385 236.811932 
L 192.460562 236.811932 
L 192.806738 236.811932 
L 193.152915 236.811932 
L 193.499092 236.811932 
L 193.845269 236.811932 
L 194.191446 236.811932 
L 194.537622 236.811932 
L 194.883799 236.811932 
L 195.229976 236.811932 
L 195.576153 236.811932 
L 195.92233 236.811932 
L 196.268506 236.811932 
L 196.614683 236.811932 
L 196.96086 236.811932 
L 197.307037 236.811932 
L 197.653213 236.811932 
L 197.99939 236.811932 
L 198.345567 236.811932 
L 198.691744 236.811932 
" clip-path="url(#p7e075a6f62)" style="fill: none; stroke: #008000; stroke-width: 1.5; stroke-linecap: square"/>
   </g>
   <g id="line2d_32">
    <path d="M 198.707977 224.972935 
L 199.054153 224.972935 
L 199.40033 224.972935 
L 199.746507 224.972935 
L 200.092684 224.972935 
L 200.43886 224.972935 
L 200.785037 224.972935 
L 201.131214 224.972935 
L 201.477391 224.972935 
L 201.823568 224.972935 
L 202.169744 224.972935 
L 202.515921 224.972935 
L 202.862098 224.972935 
L 203.208275 224.972935 
L 203.554451 224.972935 
L 203.900628 224.972935 
L 204.246805 224.972935 
L 204.592982 224.972935 
L 204.939159 224.972935 
L 205.285335 224.972935 
L 205.631512 224.972935 
L 205.977689 224.972935 
L 206.323866 224.972935 
L 206.670043 224.972935 
L 207.016219 224.972935 
" clip-path="url(#p7e075a6f62)" style="fill: none; stroke: #008000; stroke-width: 1.5; stroke-linecap: square"/>
   </g>
   <g id="line2d_33">
    <path d="M 207.032452 212.358866 
L 207.378629 212.358866 
L 207.724806 212.358866 
L 208.070982 212.358866 
L 208.417159 212.358866 
L 208.763336 212.358866 
L 209.109513 212.358866 
L 209.45569 212.358866 
L 209.801866 212.358866 
L 210.148043 212.358866 
L 210.49422 212.358866 
L 210.840397 212.358866 
L 211.186573 212.358866 
L 211.53275 212.358866 
L 211.878927 212.358866 
L 212.225104 212.358866 
L 212.571281 212.358866 
L 212.917457 212.358866 
L 213.263634 212.358866 
L 213.609811 212.358866 
L 213.955988 212.358866 
L 214.302164 212.358866 
L 214.648341 212.358866 
L 214.994518 212.358866 
L 215.340695 212.358866 
" clip-path="url(#p7e075a6f62)" style="fill: none; stroke: #008000; stroke-width: 1.5; stroke-linecap: square"/>
   </g>
   <g id="line2d_34">
    <path d="M 215.356928 199.184519 
L 215.703104 199.184519 
L 216.049281 199.184519 
L 216.395458 199.184519 
L 216.741635 199.184519 
L 217.087811 199.184519 
L 217.433988 199.184519 
L 217.780165 199.184519 
L 218.126342 199.184519 
L 218.472519 199.184519 
L 218.818695 199.184519 
L 219.164872 199.184519 
L 219.511049 199.184519 
L 219.857226 199.184519 
L 220.203403 199.184519 
L 220.549579 199.184519 
L 220.895756 199.184519 
L 221.241933 199.184519 
L 221.58811 199.184519 
L 221.934286 199.184519 
L 222.280463 199.184519 
L 222.62664 199.184519 
L 222.972817 199.184519 
L 223.318994 199.184519 
L 223.66517 199.184519 
" clip-path="url(#p7e075a6f62)" style="fill: none; stroke: #008000; stroke-width: 1.5; stroke-linecap: square"/>
   </g>
   <g id="line2d_35">
    <path d="M 223.681403 185.683788 
L 224.02758 185.683788 
L 224.373757 185.683788 
L 224.719933 185.683788 
L 225.06611 185.683788 
L 225.412287 185.683788 
L 225.758464 185.683788 
L 226.104641 185.683788 
L 226.450817 185.683788 
L 226.796994 185.683788 
L 227.143171 185.683788 
L 227.489348 185.683788 
L 227.835524 185.683788 
L 228.181701 185.683788 
L 228.527878 185.683788 
L 228.874055 185.683788 
L 229.220232 185.683788 
L 229.566408 185.683788 
L 229.912585 185.683788 
L 230.258762 185.683788 
L 230.604939 185.683788 
L 230.951116 185.683788 
L 231.297292 185.683788 
L 231.643469 185.683788 
L 231.989646 185.683788 
" clip-path="url(#p7e075a6f62)" style="fill: none; stroke: #008000; stroke-width: 1.5; stroke-linecap: square"/>
   </g>
   <g id="line2d_36">
    <path d="M 232.005879 172.098411 
L 232.352055 172.098411 
L 232.698232 172.098411 
L 233.044409 172.098411 
L 233.390586 172.098411 
L 233.736763 172.098411 
L 234.082939 172.098411 
L 234.429116 172.098411 
L 234.775293 172.098411 
L 235.12147 172.098411 
L 235.467646 172.098411 
L 235.813823 172.098411 
L 236.16 172.098411 
L 236.506177 172.098411 
L 236.852354 172.098411 
L 237.19853 172.098411 
L 237.544707 172.098411 
L 237.890884 172.098411 
L 238.237061 172.098411 
L 238.583237 172.098411 
L 238.929414 172.098411 
L 239.275591 172.098411 
L 239.621768 172.098411 
L 239.967945 172.098411 
L 240.314121 172.098411 
" clip-path="url(#p7e075a6f62)" style="fill: none; stroke: #008000; stroke-width: 1.5; stroke-linecap: square"/>
   </g>
   <g id="line2d_37">
    <path d="M 240.330354 158.666839 
L 240.676531 158.666839 
L 241.022708 158.666839 
L 241.368884 158.666839 
L 241.715061 158.666839 
L 242.061238 158.666839 
L 242.407415 158.666839 
L 242.753592 158.666839 
L 243.099768 158.666839 
L 243.445945 158.666839 
L 243.792122 158.666839 
L 244.138299 158.666839 
L 244.484476 158.666839 
L 244.830652 158.666839 
L 245.176829 158.666839 
L 245.523006 158.666839 
L 245.869183 158.666839 
L 246.215359 158.666839 
L 246.561536 158.666839 
L 246.907713 158.666839 
L 247.25389 158.666839 
L 247.600067 158.666839 
L 247.946243 158.666839 
L 248.29242 158.666839 
L 248.638597 158.666839 
" clip-path="url(#p7e075a6f62)" style="fill: none; stroke: #008000; stroke-width: 1.5; stroke-linecap: square"/>
   </g>
   <g id="line2d_38">
    <path d="M 248.65483 145.613922 
L 249.001006 145.613922 
L 249.347183 145.613922 
L 249.69336 145.613922 
L 250.039537 145.613922 
L 250.385714 145.613922 
L 250.73189 145.613922 
L 251.078067 145.613922 
L 251.424244 145.613922 
L 251.770421 145.613922 
L 252.116597 145.613922 
L 252.462774 145.613922 
L 252.808951 145.613922 
L 253.155128 145.613922 
L 253.501305 145.613922 
L 253.847481 145.613922 
L 254.193658 145.613922 
L 254.539835 145.613922 
L 254.886012 145.613922 
L 255.232189 145.613922 
L 255.578365 145.613922 
L 255.924542 145.613922 
L 256.270719 145.613922 
L 256.616896 145.613922 
L 256.963072 145.613922 
" clip-path="url(#p7e075a6f62)" style="fill: none; stroke: #008000; stroke-width: 1.5; stroke-linecap: square"/>
   </g>
   <g id="line2d_39">
    <path d="M 256.979305 133.141975 
L 257.325482 133.141975 
L 257.671659 133.141975 
L 258.017836 133.141975 
L 258.364012 133.141975 
L 258.710189 133.141975 
L 259.056366 133.141975 
L 259.402543 133.141975 
L 259.748719 133.141975 
L 260.094896 133.141975 
L 260.441073 133.141975 
L 260.78725 133.141975 
L 261.133427 133.141975 
L 261.479603 133.141975 
L 261.82578 133.141975 
L 262.171957 133.141975 
L 262.518134 133.141975 
L 262.86431 133.141975 
L 263.210487 133.141975 
L 263.556664 133.141975 
L 263.902841 133.141975 
L 264.249018 133.141975 
L 264.595194 133.141975 
L 264.941371 133.141975 
L 265.287548 133.141975 
" clip-path="url(#p7e075a6f62)" style="fill: none; stroke: #008000; stroke-width: 1.5; stroke-linecap: square"/>
   </g>
   <g id="line2d_40">
    <path d="M 265.303781 121.423651 
L 265.649957 121.423651 
L 265.996134 121.423651 
L 266.342311 121.423651 
L 266.688488 121.423651 
L 267.034665 121.423651 
L 267.380841 121.423651 
L 267.727018 121.423651 
L 268.073195 121.423651 
L 268.419372 121.423651 
L 268.765549 121.423651 
L 269.111725 121.423651 
L 269.457902 121.423651 
L 269.804079 121.423651 
L 270.150256 121.423651 
L 270.496432 121.423651 
L 270.842609 121.423651 
L 271.188786 121.423651 
L 271.534963 121.423651 
L 271.88114 121.423651 
L 272.227316 121.423651 
L 272.573493 121.423651 
L 272.91967 121.423651 
L 273.265847 121.423651 
L 273.612023 121.423651 
" clip-path="url(#p7e075a6f62)" style="fill: none; stroke: #008000; stroke-width: 1.5; stroke-linecap: square"/>
   </g>
   <g id="line2d_41">
    <path d="M 273.628256 110.596879 
L 273.974433 110.596879 
L 274.32061 110.596879 
L 274.666787 110.596879 
L 275.012963 110.596879 
L 275.35914 110.596879 
L 275.705317 110.596879 
L 276.051494 110.596879 
L 276.39767 110.596879 
L 276.743847 110.596879 
L 277.090024 110.596879 
L 277.436201 110.596879 
L 277.782378 110.596879 
L 278.128554 110.596879 
L 278.474731 110.596879 
L 278.820908 110.596879 
L 279.167085 110.596879 
L 279.513262 110.596879 
L 279.859438 110.596879 
L 280.205615 110.596879 
L 280.551792 110.596879 
L 280.897969 110.596879 
L 281.244145 110.596879 
L 281.590322 110.596879 
L 281.936499 110.596879 
" clip-path="url(#p7e075a6f62)" style="fill: none; stroke: #008000; stroke-width: 1.5; stroke-linecap: square"/>
   </g>
   <g id="line2d_42">
    <path d="M 281.952732 100.761988 
L 282.298909 100.761988 
L 282.645085 100.761988 
L 282.991262 100.761988 
L 283.337439 100.761988 
L 283.683616 100.761988 
L 284.029792 100.761988 
L 284.375969 100.761988 
L 284.722146 100.761988 
L 285.068323 100.761988 
L 285.4145 100.761988 
L 285.760676 100.761988 
L 286.106853 100.761988 
L 286.45303 100.761988 
L 286.799207 100.761988 
L 287.145383 100.761988 
L 287.49156 100.761988 
L 287.837737 100.761988 
L 288.183914 100.761988 
L 288.530091 100.761988 
L 288.876267 100.761988 
L 289.222444 100.761988 
L 289.568621 100.761988 
L 289.914798 100.761988 
L 290.260975 100.761988 
" clip-path="url(#p7e075a6f62)" style="fill: none; stroke: #008000; stroke-width: 1.5; stroke-linecap: square"/>
   </g>
   <g id="line2d_43">
    <path d="M 290.277207 91.980968 
L 290.623384 91.980968 
L 290.969561 91.980968 
L 291.315738 91.980968 
L 291.661914 91.980968 
L 292.008091 91.980968 
L 292.354268 91.980968 
L 292.700445 91.980968 
L 293.046622 91.980968 
L 293.392798 91.980968 
L 293.738975 91.980968 
L 294.085152 91.980968 
L 294.431329 91.980968 
L 294.777505 91.980968 
L 295.123682 91.980968 
L 295.469859 91.980968 
L 295.816036 91.980968 
L 296.162213 91.980968 
L 296.508389 91.980968 
L 296.854566 91.980968 
L 297.200743 91.980968 
L 297.54692 91.980968 
L 297.893097 91.980968 
L 298.239273 91.980968 
L 298.58545 91.980968 
" clip-path="url(#p7e075a6f62)" style="fill: none; stroke: #008000; stroke-width: 1.5; stroke-linecap: square"/>
   </g>
   <g id="line2d_44">
    <path d="M 298.601683 84.278705 
L 298.94786 84.278705 
L 299.294036 84.278705 
L 299.640213 84.278705 
L 299.98639 84.278705 
L 300.332567 84.278705 
L 300.678743 84.278705 
L 301.02492 84.278705 
L 301.371097 84.278705 
L 301.717274 84.278705 
L 302.063451 84.278705 
L 302.409627 84.278705 
L 302.755804 84.278705 
L 303.101981 84.278705 
L 303.448158 84.278705 
L 303.794335 84.278705 
L 304.140511 84.278705 
L 304.486688 84.278705 
L 304.832865 84.278705 
L 305.179042 84.278705 
L 305.525218 84.278705 
L 305.871395 84.278705 
L 306.217572 84.278705 
L 306.563749 84.278705 
L 306.909926 84.278705 
" clip-path="url(#p7e075a6f62)" style="fill: none; stroke: #008000; stroke-width: 1.5; stroke-linecap: square"/>
   </g>
   <g id="line2d_45">
    <path d="M 306.926158 77.645904 
L 307.272335 77.645904 
L 307.618512 77.645904 
L 307.964689 77.645904 
L 308.310865 77.645904 
L 308.657042 77.645904 
L 309.003219 77.645904 
L 309.349396 77.645904 
L 309.695573 77.645904 
L 310.041749 77.645904 
L 310.387926 77.645904 
L 310.734103 77.645904 
L 311.08028 77.645904 
L 311.426457 77.645904 
L 311.772633 77.645904 
L 312.11881 77.645904 
L 312.464987 77.645904 
L 312.811164 77.645904 
L 313.15734 77.645904 
L 313.503517 77.645904 
L 313.849694 77.645904 
L 314.195871 77.645904 
L 314.542048 77.645904 
L 314.888224 77.645904 
L 315.234401 77.645904 
" clip-path="url(#p7e075a6f62)" style="fill: none; stroke: #008000; stroke-width: 1.5; stroke-linecap: square"/>
   </g>
   <g id="line2d_46">
    <path d="M 315.250634 72.043368 
L 315.596811 72.043368 
L 315.942987 72.043368 
L 316.289164 72.043368 
L 316.635341 72.043368 
L 316.981518 72.043368 
L 317.327695 72.043368 
L 317.673871 72.043368 
L 318.020048 72.043368 
L 318.366225 72.043368 
L 318.712402 72.043368 
L 319.058578 72.043368 
L 319.404755 72.043368 
L 319.750932 72.043368 
L 320.097109 72.043368 
L 320.443286 72.043368 
L 320.789462 72.043368 
L 321.135639 72.043368 
L 321.481816 72.043368 
L 321.827993 72.043368 
L 322.17417 72.043368 
L 322.520346 72.043368 
L 322.866523 72.043368 
L 323.2127 72.043368 
L 323.558877 72.043368 
" clip-path="url(#p7e075a6f62)" style="fill: none; stroke: #008000; stroke-width: 1.5; stroke-linecap: square"/>
   </g>
   <g id="line2d_47">
    <path d="M 323.575109 67.40722 
L 323.921286 67.40722 
L 324.267463 67.40722 
L 324.61364 67.40722 
L 324.959817 67.40722 
L 325.305993 67.40722 
L 325.65217 67.40722 
L 325.998347 67.40722 
L 326.344524 67.40722 
L 326.6907 67.40722 
L 327.036877 67.40722 
L 327.383054 67.40722 
L 327.729231 67.40722 
L 328.075408 67.40722 
L 328.421584 67.40722 
L 328.767761 67.40722 
L 329.113938 67.40722 
L 329.460115 67.40722 
L 329.806291 67.40722 
L 330.152468 67.40722 
L 330.498645 67.40722 
L 330.844822 67.40722 
L 331.190999 67.40722 
L 331.537175 67.40722 
L 331.883352 67.40722 
" clip-path="url(#p7e075a6f62)" style="fill: none; stroke: #008000; stroke-width: 1.5; stroke-linecap: square"/>
   </g>
   <g id="line2d_48">
    <path d="M 331.899585 63.65468 
L 332.245762 63.65468 
L 332.591938 63.65468 
L 332.938115 63.65468 
L 333.284292 63.65468 
L 333.630469 63.65468 
L 333.976646 63.65468 
L 334.322822 63.65468 
L 334.668999 63.65468 
L 335.015176 63.65468 
L 335.361353 63.65468 
L 335.70753 63.65468 
L 336.053706 63.65468 
L 336.399883 63.65468 
L 336.74606 63.65468 
L 337.092237 63.65468 
L 337.438413 63.65468 
L 337.78459 63.65468 
L 338.130767 63.65468 
L 338.476944 63.65468 
L 338.823121 63.65468 
L 339.169297 63.65468 
L 339.515474 63.65468 
L 339.861651 63.65468 
L 340.207828 63.65468 
" clip-path="url(#p7e075a6f62)" style="fill: none; stroke: #008000; stroke-width: 1.5; stroke-linecap: square"/>
   </g>
   <g id="line2d_49">
    <path d="M 340.22406 60.690002 
L 340.570237 60.690002 
L 340.916414 60.690002 
L 341.262591 60.690002 
L 341.608768 60.690002 
L 341.954944 60.690002 
L 342.301121 60.690002 
L 342.647298 60.690002 
L 342.993475 60.690002 
L 343.339651 60.690002 
L 343.685828 60.690002 
L 344.032005 60.690002 
L 344.378182 60.690002 
L 344.724359 60.690002 
L 345.070535 60.690002 
L 345.416712 60.690002 
L 345.762889 60.690002 
L 346.109066 60.690002 
L 346.455243 60.690002 
L 346.801419 60.690002 
L 347.147596 60.690002 
L 347.493773 60.690002 
L 347.83995 60.690002 
L 348.186126 60.690002 
L 348.532303 60.690002 
" clip-path="url(#p7e075a6f62)" style="fill: none; stroke: #008000; stroke-width: 1.5; stroke-linecap: square"/>
   </g>
   <g id="line2d_50">
    <path d="M 348.548536 58.410213 
L 348.894713 58.410213 
L 349.24089 58.410213 
L 349.587066 58.410213 
L 349.933243 58.410213 
L 350.27942 58.410213 
L 350.625597 58.410213 
L 350.971773 58.410213 
L 351.31795 58.410213 
L 351.664127 58.410213 
L 352.010304 58.410213 
L 352.356481 58.410213 
L 352.702657 58.410213 
L 353.048834 58.410213 
L 353.395011 58.410213 
L 353.741188 58.410213 
L 354.087364 58.410213 
L 354.433541 58.410213 
L 354.779718 58.410213 
L 355.125895 58.410213 
L 355.472072 58.410213 
L 355.818248 58.410213 
L 356.164425 58.410213 
L 356.510602 58.410213 
L 356.856779 58.410213 
" clip-path="url(#p7e075a6f62)" style="fill: none; stroke: #008000; stroke-width: 1.5; stroke-linecap: square"/>
   </g>
   <g id="line2d_51">
    <path d="M 356.873011 56.710378 
L 357.219188 56.710378 
L 357.565365 56.710378 
L 357.911542 56.710378 
L 358.257719 56.710378 
L 358.603895 56.710378 
L 358.950072 56.710378 
L 359.296249 56.710378 
L 359.642426 56.710378 
L 359.988603 56.710378 
L 360.334779 56.710378 
L 360.680956 56.710378 
L 361.027133 56.710378 
L 361.37331 56.710378 
L 361.719486 56.710378 
L 362.065663 56.710378 
L 362.41184 56.710378 
L 362.758017 56.710378 
L 363.104194 56.710378 
L 363.45037 56.710378 
L 363.796547 56.710378 
L 364.142724 56.710378 
L 364.488901 56.710378 
L 364.835077 56.710378 
L 365.181254 56.710378 
" clip-path="url(#p7e075a6f62)" style="fill: none; stroke: #008000; stroke-width: 1.5; stroke-linecap: square"/>
   </g>
   <g id="line2d_52">
    <path d="M 365.197487 55.488151 
L 365.543664 55.488151 
L 365.889841 55.488151 
L 366.236017 55.488151 
L 366.582194 55.488151 
L 366.928371 55.488151 
L 367.274548 55.488151 
L 367.620724 55.488151 
L 367.966901 55.488151 
L 368.313078 55.488151 
L 368.659255 55.488151 
L 369.005432 55.488151 
L 369.351608 55.488151 
L 369.697785 55.488151 
L 370.043962 55.488151 
L 370.390139 55.488151 
L 370.736316 55.488151 
L 371.082492 55.488151 
L 371.428669 55.488151 
L 371.774846 55.488151 
L 372.121023 55.488151 
L 372.467199 55.488151 
L 372.813376 55.488151 
L 373.159553 55.488151 
L 373.50573 55.488151 
" clip-path="url(#p7e075a6f62)" style="fill: none; stroke: #008000; stroke-width: 1.5; stroke-linecap: square"/>
   </g>
   <g id="line2d_53">
    <path d="M 373.521963 54.647474 
L 373.868139 54.647474 
L 374.214316 54.647474 
L 374.560493 54.647474 
L 374.90667 54.647474 
L 375.252846 54.647474 
L 375.599023 54.647474 
L 375.9452 54.647474 
L 376.291377 54.647474 
L 376.637554 54.647474 
L 376.98373 54.647474 
L 377.329907 54.647474 
L 377.676084 54.647474 
L 378.022261 54.647474 
L 378.368437 54.647474 
L 378.714614 54.647474 
L 379.060791 54.647474 
L 379.406968 54.647474 
L 379.753145 54.647474 
L 380.099321 54.647474 
L 380.445498 54.647474 
L 380.791675 54.647474 
L 381.137852 54.647474 
L 381.484029 54.647474 
L 381.830205 54.647474 
" clip-path="url(#p7e075a6f62)" style="fill: none; stroke: #008000; stroke-width: 1.5; stroke-linecap: square"/>
   </g>
   <g id="line2d_54">
    <path d="M 381.846438 54.101334 
L 382.192615 54.101334 
L 382.538792 54.101334 
L 382.884968 54.101334 
L 383.231145 54.101334 
L 383.577322 54.101334 
L 383.923499 54.101334 
L 384.269676 54.101334 
L 384.615852 54.101334 
L 384.962029 54.101334 
L 385.308206 54.101334 
L 385.654383 54.101334 
L 386.000559 54.101334 
L 386.346736 54.101334 
L 386.692913 54.101334 
L 387.03909 54.101334 
L 387.385267 54.101334 
L 387.731443 54.101334 
L 388.07762 54.101334 
L 388.423797 54.101334 
L 388.769974 54.101334 
L 389.11615 54.101334 
L 389.462327 54.101334 
L 389.808504 54.101334 
L 390.154681 54.101334 
" clip-path="url(#p7e075a6f62)" style="fill: none; stroke: #008000; stroke-width: 1.5; stroke-linecap: square"/>
   </g>
   <g id="line2d_55">
    <path d="M 390.170914 53.773518 
L 390.51709 53.773518 
L 390.863267 53.773518 
L 391.209444 53.773518 
L 391.555621 53.773518 
L 391.901797 53.773518 
L 392.247974 53.773518 
L 392.594151 53.773518 
L 392.940328 53.773518 
L 393.286505 53.773518 
L 393.632681 53.773518 
L 393.978858 53.773518 
L 394.325035 53.773518 
L 394.671212 53.773518 
L 395.017389 53.773518 
L 395.363565 53.773518 
L 395.709742 53.773518 
L 396.055919 53.773518 
L 396.402096 53.773518 
L 396.748272 53.773518 
L 397.094449 53.773518 
L 397.440626 53.773518 
L 397.786803 53.773518 
L 398.13298 53.773518 
L 398.479156 53.773518 
" clip-path="url(#p7e075a6f62)" style="fill: none; stroke: #008000; stroke-width: 1.5; stroke-linecap: square"/>
   </g>
   <g id="patch_3">
    <path d="M 57.6 307.584 
L 57.6 41.472 
" style="fill: none; stroke: #000000; stroke-width: 0.8; stroke-linejoin: miter; stroke-linecap: square"/>
   </g>
   <g id="patch_4">
    <path d="M 414.72 307.584 
L 414.72 41.472 
" style="fill: none; stroke: #000000; stroke-width: 0.8; stroke-linejoin: miter; stroke-linecap: square"/>
   </g>
   <g id="patch_5">
    <path d="M 57.6 307.584 
L 414.72 307.584 
" style="fill: none; stroke: #000000; stroke-width: 0.8; stroke-linejoin: miter; stroke-linecap: square"/>
   </g>
   <g id="patch_6">
    <path d="M 57.6 41.472 
L 414.72 41.472 
" style="fill: none; stroke: #000000; stroke-width: 0.8; stroke-linejoin: miter; stroke-linecap: square"/>
   </g>
   <g id="legend_1">
    <g id="patch_7">
     <path d="M 64.6 93.906375 
L 210.795312 93.906375 
Q 212.795312 93.906375 212.795312 91.906375 
L 212.795312 48.472 
Q 212.795312 46.472 210.795312 46.472 
L 64.6 46.472 
Q 62.6 46.472 62.6 48.472 
L 62.6 91.906375 
Q 62.6 93.906375 64.6 93.906375 
z
" style="fill: #ffffff; opacity: 0.8; stroke: #cccccc; stroke-linejoin: miter"/>
    </g>
    <g id="line2d_56">
     <path d="M 66.6 54.570437 
L 76.6 54.570437 
L 86.6 54.570437 
" style="fill: none; stroke: #0000ff; stroke-width: 1.5; stroke-linecap: square"/>
    </g>
    <g id="text_18">
     <!-- Původní funkce -->
     <g transform="translate(94.6 58.070437)scale(0.1 -0.1)">
      <defs>
       <path id="DejaVuSans-50" d="M 1259 4147 
L 1259 2394 
L 2053 2394 
Q 2494 2394 2734 2622 
Q 2975 2850 2975 3272 
Q 2975 3691 2734 3919 
Q 2494 4147 2053 4147 
L 1259 4147 
z
M 628 4666 
L 2053 4666 
Q 2838 4666 3239 4311 
Q 3641 3956 3641 3272 
Q 3641 2581 3239 2228 
Q 2838 1875 2053 1875 
L 1259 1875 
L 1259 0 
L 628 0 
L 628 4666 
z
" transform="scale(0.015625)"/>
       <path id="DejaVuSans-16f" d="M 544 1381 
L 544 3500 
L 1119 3500 
L 1119 1403 
Q 1119 906 1312 657 
Q 1506 409 1894 409 
Q 2359 409 2629 706 
Q 2900 1003 2900 1516 
L 2900 3500 
L 3475 3500 
L 3475 0 
L 2900 0 
L 2900 538 
Q 2691 219 2414 64 
Q 2138 -91 1772 -91 
Q 1169 -91 856 284 
Q 544 659 544 1381 
z
M 1991 3584 
L 1991 3584 
z
M 2463 4575 
Q 2463 4771 2325 4908 
Q 2188 5046 1988 5046 
Q 1784 5046 1648 4910 
Q 1513 4775 1513 4575 
Q 1513 4371 1648 4235 
Q 1784 4100 1988 4100 
Q 2188 4100 2325 4237 
Q 2463 4375 2463 4575 
z
M 2844 4575 
Q 2844 4215 2595 3965 
Q 2347 3715 1988 3715 
Q 1628 3715 1379 3965 
Q 1131 4215 1131 4575 
Q 1131 4934 1379 5182 
Q 1628 5431 1988 5431 
Q 2347 5431 2595 5182 
Q 2844 4934 2844 4575 
z
" transform="scale(0.015625)"/>
       <path id="DejaVuSans-76" d="M 191 3500 
L 800 3500 
L 1894 563 
L 2988 3500 
L 3597 3500 
L 2284 0 
L 1503 0 
L 191 3500 
z
" transform="scale(0.015625)"/>
       <path id="DejaVuSans-6f" d="M 1959 3097 
Q 1497 3097 1228 2736 
Q 959 2375 959 1747 
Q 959 1119 1226 758 
Q 1494 397 1959 397 
Q 2419 397 2687 759 
Q 2956 1122 2956 1747 
Q 2956 2369 2687 2733 
Q 2419 3097 1959 3097 
z
M 1959 3584 
Q 2709 3584 3137 3096 
Q 3566 2609 3566 1747 
Q 3566 888 3137 398 
Q 2709 -91 1959 -91 
Q 1206 -91 779 398 
Q 353 888 353 1747 
Q 353 2609 779 3096 
Q 1206 3584 1959 3584 
z
" transform="scale(0.015625)"/>
       <path id="DejaVuSans-64" d="M 2906 2969 
L 2906 4863 
L 3481 4863 
L 3481 0 
L 2906 0 
L 2906 525 
Q 2725 213 2448 61 
Q 2172 -91 1784 -91 
Q 1150 -91 751 415 
Q 353 922 353 1747 
Q 353 2572 751 3078 
Q 1150 3584 1784 3584 
Q 2172 3584 2448 3432 
Q 2725 3281 2906 2969 
z
M 947 1747 
Q 947 1113 1208 752 
Q 1469 391 1925 391 
Q 2381 391 2643 752 
Q 2906 1113 2906 1747 
Q 2906 2381 2643 2742 
Q 2381 3103 1925 3103 
Q 1469 3103 1208 2742 
Q 947 2381 947 1747 
z
" transform="scale(0.015625)"/>
       <path id="DejaVuSans-6e" d="M 3513 2113 
L 3513 0 
L 2938 0 
L 2938 2094 
Q 2938 2591 2744 2837 
Q 2550 3084 2163 3084 
Q 1697 3084 1428 2787 
Q 1159 2491 1159 1978 
L 1159 0 
L 581 0 
L 581 3500 
L 1159 3500 
L 1159 2956 
Q 1366 3272 1645 3428 
Q 1925 3584 2291 3584 
Q 2894 3584 3203 3211 
Q 3513 2838 3513 2113 
z
" transform="scale(0.015625)"/>
       <path id="DejaVuSans-ed" d="M 1325 5119 
L 1947 5119 
L 928 3944 
L 450 3944 
L 1325 5119 
z
M 603 3500 
L 1178 3500 
L 1178 0 
L 603 0 
L 603 3500 
z
M 891 3584 
L 891 3584 
z
" transform="scale(0.015625)"/>
       <path id="DejaVuSans-20" transform="scale(0.015625)"/>
       <path id="DejaVuSans-66" d="M 2375 4863 
L 2375 4384 
L 1825 4384 
Q 1516 4384 1395 4259 
Q 1275 4134 1275 3809 
L 1275 3500 
L 2222 3500 
L 2222 3053 
L 1275 3053 
L 1275 0 
L 697 0 
L 697 3053 
L 147 3053 
L 147 3500 
L 697 3500 
L 697 3744 
Q 697 4328 969 4595 
Q 1241 4863 1831 4863 
L 2375 4863 
z
" transform="scale(0.015625)"/>
       <path id="DejaVuSans-75" d="M 544 1381 
L 544 3500 
L 1119 3500 
L 1119 1403 
Q 1119 906 1312 657 
Q 1506 409 1894 409 
Q 2359 409 2629 706 
Q 2900 1003 2900 1516 
L 2900 3500 
L 3475 3500 
L 3475 0 
L 2900 0 
L 2900 538 
Q 2691 219 2414 64 
Q 2138 -91 1772 -91 
Q 1169 -91 856 284 
Q 544 659 544 1381 
z
M 1991 3584 
L 1991 3584 
z
" transform="scale(0.015625)"/>
       <path id="DejaVuSans-6b" d="M 581 4863 
L 1159 4863 
L 1159 1991 
L 2875 3500 
L 3609 3500 
L 1753 1863 
L 3688 0 
L 2938 0 
L 1159 1709 
L 1159 0 
L 581 0 
L 581 4863 
z
" transform="scale(0.015625)"/>
       <path id="DejaVuSans-63" d="M 3122 3366 
L 3122 2828 
Q 2878 2963 2633 3030 
Q 2388 3097 2138 3097 
Q 1578 3097 1268 2742 
Q 959 2388 959 1747 
Q 959 1106 1268 751 
Q 1578 397 2138 397 
Q 2388 397 2633 464 
Q 2878 531 3122 666 
L 3122 134 
Q 2881 22 2623 -34 
Q 2366 -91 2075 -91 
Q 1284 -91 818 406 
Q 353 903 353 1747 
Q 353 2603 823 3093 
Q 1294 3584 2113 3584 
Q 2378 3584 2631 3529 
Q 2884 3475 3122 3366 
z
" transform="scale(0.015625)"/>
       <path id="DejaVuSans-65" d="M 3597 1894 
L 3597 1613 
L 953 1613 
Q 991 1019 1311 708 
Q 1631 397 2203 397 
Q 2534 397 2845 478 
Q 3156 559 3463 722 
L 3463 178 
Q 3153 47 2828 -22 
Q 2503 -91 2169 -91 
Q 1331 -91 842 396 
Q 353 884 353 1716 
Q 353 2575 817 3079 
Q 1281 3584 2069 3584 
Q 2775 3584 3186 3129 
Q 3597 2675 3597 1894 
z
M 3022 2063 
Q 3016 2534 2758 2815 
Q 2500 3097 2075 3097 
Q 1594 3097 1305 2825 
Q 1016 2553 972 2059 
L 3022 2063 
z
" transform="scale(0.015625)"/>
      </defs>
      <use xlink:href="#DejaVuSans-50"/>
      <use xlink:href="#DejaVuSans-16f" x="58.552734"/>
      <use xlink:href="#DejaVuSans-76" x="121.931641"/>
      <use xlink:href="#DejaVuSans-6f" x="181.111328"/>
      <use xlink:href="#DejaVuSans-64" x="242.292969"/>
      <use xlink:href="#DejaVuSans-6e" x="305.769531"/>
      <use xlink:href="#DejaVuSans-ed" x="369.148438"/>
      <use xlink:href="#DejaVuSans-20" x="396.931641"/>
      <use xlink:href="#DejaVuSans-66" x="428.71875"/>
      <use xlink:href="#DejaVuSans-75" x="463.923828"/>
      <use xlink:href="#DejaVuSans-6e" x="527.302734"/>
      <use xlink:href="#DejaVuSans-6b" x="590.681641"/>
      <use xlink:href="#DejaVuSans-63" x="648.591797"/>
      <use xlink:href="#DejaVuSans-65" x="703.572266"/>
     </g>
    </g>
    <g id="PathCollection_2">
     <g>
      <use xlink:href="#me9eac8b11d" x="76.6" y="70.523562" style="fill: #228b22; stroke: #228b22"/>
     </g>
    </g>
    <g id="text_19">
     <!-- Střední hodnoty buněk -->
     <g transform="translate(94.6 73.148562)scale(0.1 -0.1)">
      <defs>
       <path id="DejaVuSans-53" d="M 3425 4513 
L 3425 3897 
Q 3066 4069 2747 4153 
Q 2428 4238 2131 4238 
Q 1616 4238 1336 4038 
Q 1056 3838 1056 3469 
Q 1056 3159 1242 3001 
Q 1428 2844 1947 2747 
L 2328 2669 
Q 3034 2534 3370 2195 
Q 3706 1856 3706 1288 
Q 3706 609 3251 259 
Q 2797 -91 1919 -91 
Q 1588 -91 1214 -16 
Q 841 59 441 206 
L 441 856 
Q 825 641 1194 531 
Q 1563 422 1919 422 
Q 2459 422 2753 634 
Q 3047 847 3047 1241 
Q 3047 1584 2836 1778 
Q 2625 1972 2144 2069 
L 1759 2144 
Q 1053 2284 737 2584 
Q 422 2884 422 3419 
Q 422 4038 858 4394 
Q 1294 4750 2059 4750 
Q 2388 4750 2728 4690 
Q 3069 4631 3425 4513 
z
" transform="scale(0.015625)"/>
       <path id="DejaVuSans-74" d="M 1172 4494 
L 1172 3500 
L 2356 3500 
L 2356 3053 
L 1172 3053 
L 1172 1153 
Q 1172 725 1289 603 
Q 1406 481 1766 481 
L 2356 481 
L 2356 0 
L 1766 0 
Q 1100 0 847 248 
Q 594 497 594 1153 
L 594 3053 
L 172 3053 
L 172 3500 
L 594 3500 
L 594 4494 
L 1172 4494 
z
" transform="scale(0.015625)"/>
       <path id="DejaVuSans-159" d="M 2631 2963 
Q 2534 3019 2420 3045 
Q 2306 3072 2169 3072 
Q 1681 3072 1420 2755 
Q 1159 2438 1159 1844 
L 1159 0 
L 581 0 
L 581 3500 
L 1159 3500 
L 1159 2956 
Q 1341 3275 1631 3429 
Q 1922 3584 2338 3584 
Q 2397 3584 2469 3576 
Q 2541 3569 2628 3553 
L 2631 2963 
z
M 1453 3944 
L 688 5119 
L 1122 5119 
L 1684 4353 
L 2247 5119 
L 2681 5119 
L 1916 3944 
L 1453 3944 
z
" transform="scale(0.015625)"/>
       <path id="DejaVuSans-68" d="M 3513 2113 
L 3513 0 
L 2938 0 
L 2938 2094 
Q 2938 2591 2744 2837 
Q 2550 3084 2163 3084 
Q 1697 3084 1428 2787 
Q 1159 2491 1159 1978 
L 1159 0 
L 581 0 
L 581 4863 
L 1159 4863 
L 1159 2956 
Q 1366 3272 1645 3428 
Q 1925 3584 2291 3584 
Q 2894 3584 3203 3211 
Q 3513 2838 3513 2113 
z
" transform="scale(0.015625)"/>
       <path id="DejaVuSans-79" d="M 2059 -325 
Q 1816 -950 1584 -1140 
Q 1353 -1331 966 -1331 
L 506 -1331 
L 506 -850 
L 844 -850 
Q 1081 -850 1212 -737 
Q 1344 -625 1503 -206 
L 1606 56 
L 191 3500 
L 800 3500 
L 1894 763 
L 2988 3500 
L 3597 3500 
L 2059 -325 
z
" transform="scale(0.015625)"/>
       <path id="DejaVuSans-62" d="M 3116 1747 
Q 3116 2381 2855 2742 
Q 2594 3103 2138 3103 
Q 1681 3103 1420 2742 
Q 1159 2381 1159 1747 
Q 1159 1113 1420 752 
Q 1681 391 2138 391 
Q 2594 391 2855 752 
Q 3116 1113 3116 1747 
z
M 1159 2969 
Q 1341 3281 1617 3432 
Q 1894 3584 2278 3584 
Q 2916 3584 3314 3078 
Q 3713 2572 3713 1747 
Q 3713 922 3314 415 
Q 2916 -91 2278 -91 
Q 1894 -91 1617 61 
Q 1341 213 1159 525 
L 1159 0 
L 581 0 
L 581 4863 
L 1159 4863 
L 1159 2969 
z
" transform="scale(0.015625)"/>
       <path id="DejaVuSans-11b" d="M 3597 1894 
L 3597 1613 
L 953 1613 
Q 991 1019 1311 708 
Q 1631 397 2203 397 
Q 2534 397 2845 478 
Q 3156 559 3463 722 
L 3463 178 
Q 3153 47 2828 -22 
Q 2503 -91 2169 -91 
Q 1331 -91 842 396 
Q 353 884 353 1716 
Q 353 2575 817 3079 
Q 1281 3584 2069 3584 
Q 2775 3584 3186 3129 
Q 3597 2675 3597 1894 
z
M 3022 2063 
Q 3016 2534 2758 2815 
Q 2500 3097 2075 3097 
Q 1594 3097 1305 2825 
Q 1016 2553 972 2059 
L 3022 2063 
z
M 1831 3928 
L 1066 5103 
L 1500 5103 
L 2063 4337 
L 2625 5103 
L 3059 5103 
L 2294 3928 
L 1831 3928 
z
" transform="scale(0.015625)"/>
      </defs>
      <use xlink:href="#DejaVuSans-53"/>
      <use xlink:href="#DejaVuSans-74" x="63.476562"/>
      <use xlink:href="#DejaVuSans-159" x="102.685547"/>
      <use xlink:href="#DejaVuSans-65" x="141.548828"/>
      <use xlink:href="#DejaVuSans-64" x="203.072266"/>
      <use xlink:href="#DejaVuSans-6e" x="266.548828"/>
      <use xlink:href="#DejaVuSans-ed" x="329.927734"/>
      <use xlink:href="#DejaVuSans-20" x="357.710938"/>
      <use xlink:href="#DejaVuSans-68" x="389.498047"/>
      <use xlink:href="#DejaVuSans-6f" x="452.876953"/>
      <use xlink:href="#DejaVuSans-64" x="514.058594"/>
      <use xlink:href="#DejaVuSans-6e" x="577.535156"/>
      <use xlink:href="#DejaVuSans-6f" x="640.914062"/>
      <use xlink:href="#DejaVuSans-74" x="702.095703"/>
      <use xlink:href="#DejaVuSans-79" x="741.304688"/>
      <use xlink:href="#DejaVuSans-20" x="800.484375"/>
      <use xlink:href="#DejaVuSans-62" x="832.271484"/>
      <use xlink:href="#DejaVuSans-75" x="895.748047"/>
      <use xlink:href="#DejaVuSans-6e" x="959.126953"/>
      <use xlink:href="#DejaVuSans-11b" x="1022.505859"/>
      <use xlink:href="#DejaVuSans-6b" x="1084.029297"/>
     </g>
    </g>
    <g id="line2d_57">
     <path d="M 66.6 84.326687 
L 76.6 84.326687 
L 86.6 84.326687 
" style="fill: none; stroke: #008000; stroke-width: 1.5; stroke-linecap: square"/>
    </g>
    <g id="text_20">
     <!-- Rekonstrukce -->
     <g transform="translate(94.6 87.826687)scale(0.1 -0.1)">
      <defs>
       <path id="DejaVuSans-52" d="M 2841 2188 
Q 3044 2119 3236 1894 
Q 3428 1669 3622 1275 
L 4263 0 
L 3584 0 
L 2988 1197 
Q 2756 1666 2539 1819 
Q 2322 1972 1947 1972 
L 1259 1972 
L 1259 0 
L 628 0 
L 628 4666 
L 2053 4666 
Q 2853 4666 3247 4331 
Q 3641 3997 3641 3322 
Q 3641 2881 3436 2590 
Q 3231 2300 2841 2188 
z
M 1259 4147 
L 1259 2491 
L 2053 2491 
Q 2509 2491 2742 2702 
Q 2975 2913 2975 3322 
Q 2975 3731 2742 3939 
Q 2509 4147 2053 4147 
L 1259 4147 
z
" transform="scale(0.015625)"/>
       <path id="DejaVuSans-73" d="M 2834 3397 
L 2834 2853 
Q 2591 2978 2328 3040 
Q 2066 3103 1784 3103 
Q 1356 3103 1142 2972 
Q 928 2841 928 2578 
Q 928 2378 1081 2264 
Q 1234 2150 1697 2047 
L 1894 2003 
Q 2506 1872 2764 1633 
Q 3022 1394 3022 966 
Q 3022 478 2636 193 
Q 2250 -91 1575 -91 
Q 1294 -91 989 -36 
Q 684 19 347 128 
L 347 722 
Q 666 556 975 473 
Q 1284 391 1588 391 
Q 1994 391 2212 530 
Q 2431 669 2431 922 
Q 2431 1156 2273 1281 
Q 2116 1406 1581 1522 
L 1381 1569 
Q 847 1681 609 1914 
Q 372 2147 372 2553 
Q 372 3047 722 3315 
Q 1072 3584 1716 3584 
Q 2034 3584 2315 3537 
Q 2597 3491 2834 3397 
z
" transform="scale(0.015625)"/>
       <path id="DejaVuSans-72" d="M 2631 2963 
Q 2534 3019 2420 3045 
Q 2306 3072 2169 3072 
Q 1681 3072 1420 2755 
Q 1159 2438 1159 1844 
L 1159 0 
L 581 0 
L 581 3500 
L 1159 3500 
L 1159 2956 
Q 1341 3275 1631 3429 
Q 1922 3584 2338 3584 
Q 2397 3584 2469 3576 
Q 2541 3569 2628 3553 
L 2631 2963 
z
" transform="scale(0.015625)"/>
      </defs>
      <use xlink:href="#DejaVuSans-52"/>
      <use xlink:href="#DejaVuSans-65" x="64.982422"/>
      <use xlink:href="#DejaVuSans-6b" x="126.505859"/>
      <use xlink:href="#DejaVuSans-6f" x="180.791016"/>
      <use xlink:href="#DejaVuSans-6e" x="241.972656"/>
      <use xlink:href="#DejaVuSans-73" x="305.351562"/>
      <use xlink:href="#DejaVuSans-74" x="357.451172"/>
      <use xlink:href="#DejaVuSans-72" x="396.660156"/>
      <use xlink:href="#DejaVuSans-75" x="437.773438"/>
      <use xlink:href="#DejaVuSans-6b" x="501.152344"/>
      <use xlink:href="#DejaVuSans-63" x="559.0625"/>
      <use xlink:href="#DejaVuSans-65" x="614.042969"/>
     </g>
    </g>
   </g>
  </g>
 </g>
 <defs>
  <clipPath id="p7e075a6f62">
   <rect x="57.6" y="41.472" width="357.12" height="266.112"/>
  </clipPath>
 </defs>
</svg>
