<?xml version="1.0" encoding="utf-8" standalone="no"?>
<!DOCTYPE svg PUBLIC "-//W3C//DTD SVG 1.1//EN"
  "http://www.w3.org/Graphics/SVG/1.1/DTD/svg11.dtd">
<svg xmlns:xlink="http://www.w3.org/1999/xlink" width="460.8pt" height="345.6pt" viewBox="0 0 460.8 345.6" xmlns="http://www.w3.org/2000/svg" version="1.1">
 <metadata>
  <rdf:RDF xmlns:dc="http://purl.org/dc/elements/1.1/" xmlns:cc="http://creativecommons.org/ns#" xmlns:rdf="http://www.w3.org/1999/02/22-rdf-syntax-ns#">
   <cc:Work>
    <dc:type rdf:resource="http://purl.org/dc/dcmitype/StillImage"/>
    <dc:date>2023-08-02T16:53:03.274524</dc:date>
    <dc:format>image/svg+xml</dc:format>
    <dc:creator>
     <cc:Agent>
      <dc:title>Matplotlib v3.5.2, https://matplotlib.org/</dc:title>
     </cc:Agent>
    </dc:creator>
   </cc:Work>
  </rdf:RDF>
 </metadata>
 <defs>
  <style type="text/css">*{stroke-linejoin: round; stroke-linecap: butt}</style>
 </defs>
 <g id="figure_1">
  <g id="patch_1">
   <path d="M 0 345.6 
L 460.8 345.6 
L 460.8 0 
L 0 0 
z
" style="fill: #ffffff"/>
  </g>
  <g id="axes_1">
   <g id="patch_2">
    <path d="M 57.6 307.584 
L 414.72 307.584 
L 414.72 41.472 
L 57.6 41.472 
z
" style="fill: #ffffff"/>
   </g>
   <g id="PathCollection_1">
    <defs>
     <path id="m94f99cdcd3" d="M 0 3 
C 0.795609 3 1.55874 2.683901 2.12132 2.12132 
C 2.683901 1.55874 3 0.795609 3 0 
C 3 -0.795609 2.683901 -1.55874 2.12132 -2.12132 
C 1.55874 -2.683901 0.795609 -3 0 -3 
C -0.795609 -3 -1.55874 -2.683901 -2.12132 -2.12132 
C -2.683901 -1.55874 -3 -0.795609 -3 0 
C -3 0.795609 -2.683901 1.55874 -2.12132 2.12132 
C -1.55874 2.683901 -0.795609 3 0 3 
z
" style="stroke: #228b22"/>
    </defs>
    <g clip-path="url(#p2eff1937ee)">
     <use xlink:href="#m94f99cdcd3" x="77.994965" y="155.128277" style="fill: #228b22; stroke: #228b22"/>
     <use xlink:href="#m94f99cdcd3" x="86.319441" y="118.540164" style="fill: #228b22; stroke: #228b22"/>
     <use xlink:href="#m94f99cdcd3" x="94.643916" y="87.68698" style="fill: #228b22; stroke: #228b22"/>
     <use xlink:href="#m94f99cdcd3" x="102.968392" y="65.754042" style="fill: #228b22; stroke: #228b22"/>
     <use xlink:href="#m94f99cdcd3" x="111.292867" y="55.020928" style="fill: #228b22; stroke: #228b22"/>
     <use xlink:href="#m94f99cdcd3" x="119.617343" y="56.595706" style="fill: #228b22; stroke: #228b22"/>
     <use xlink:href="#m94f99cdcd3" x="127.941818" y="70.309827" style="fill: #228b22; stroke: #228b22"/>
     <use xlink:href="#m94f99cdcd3" x="136.266294" y="94.74611" style="fill: #228b22; stroke: #228b22"/>
     <use xlink:href="#m94f99cdcd3" x="144.590769" y="127.387354" style="fill: #228b22; stroke: #228b22"/>
     <use xlink:href="#m94f99cdcd3" x="152.915245" y="164.874024" style="fill: #228b22; stroke: #228b22"/>
     <use xlink:href="#m94f99cdcd3" x="161.23972" y="203.34858" style="fill: #228b22; stroke: #228b22"/>
     <use xlink:href="#m94f99cdcd3" x="169.564196" y="238.852043" style="fill: #228b22; stroke: #228b22"/>
     <use xlink:href="#m94f99cdcd3" x="177.888671" y="267.731471" style="fill: #228b22; stroke: #228b22"/>
     <use xlink:href="#m94f99cdcd3" x="186.213147" y="287.015899" style="fill: #228b22; stroke: #228b22"/>
     <use xlink:href="#m94f99cdcd3" x="194.537622" y="294.721959" style="fill: #228b22; stroke: #228b22"/>
     <use xlink:href="#m94f99cdcd3" x="202.862098" y="290.057835" style="fill: #228b22; stroke: #228b22"/>
     <use xlink:href="#m94f99cdcd3" x="211.186573" y="273.504665" style="fill: #228b22; stroke: #228b22"/>
     <use xlink:href="#m94f99cdcd3" x="219.511049" y="246.766982" style="fill: #228b22; stroke: #228b22"/>
     <use xlink:href="#m94f99cdcd3" x="227.835524" y="212.597274" style="fill: #228b22; stroke: #228b22"/>
     <use xlink:href="#m94f99cdcd3" x="236.16" y="174.512677" style="fill: #228b22; stroke: #228b22"/>
     <use xlink:href="#m94f99cdcd3" x="244.484476" y="136.432953" style="fill: #228b22; stroke: #228b22"/>
     <use xlink:href="#m94f99cdcd3" x="252.808951" y="102.277022" style="fill: #228b22; stroke: #228b22"/>
     <use xlink:href="#m94f99cdcd3" x="261.133427" y="75.559601" style="fill: #228b22; stroke: #228b22"/>
     <use xlink:href="#m94f99cdcd3" x="269.457902" y="59.029483" style="fill: #228b22; stroke: #228b22"/>
     <use xlink:href="#m94f99cdcd3" x="277.782378" y="54.386692" style="fill: #228b22; stroke: #228b22"/>
     <use xlink:href="#m94f99cdcd3" x="286.106853" y="62.107667" style="fill: #228b22; stroke: #228b22"/>
     <use xlink:href="#m94f99cdcd3" x="294.431329" y="81.396476" style="fill: #228b22; stroke: #228b22"/>
     <use xlink:href="#m94f99cdcd3" x="302.755804" y="110.267144" style="fill: #228b22; stroke: #228b22"/>
     <use xlink:href="#m94f99cdcd3" x="311.08028" y="145.748572" style="fill: #228b22; stroke: #228b22"/>
     <use xlink:href="#m94f99cdcd3" x="319.404755" y="184.190721" style="fill: #228b22; stroke: #228b22"/>
     <use xlink:href="#m94f99cdcd3" x="327.729231" y="221.640104" style="fill: #228b22; stroke: #228b22"/>
     <use xlink:href="#m94f99cdcd3" x="336.053706" y="254.245568" style="fill: #228b22; stroke: #228b22"/>
     <use xlink:href="#m94f99cdcd3" x="344.378182" y="278.652965" style="fill: #228b22; stroke: #228b22"/>
     <use xlink:href="#m94f99cdcd3" x="352.702657" y="292.349635" style="fill: #228b22; stroke: #228b22"/>
     <use xlink:href="#m94f99cdcd3" x="361.027133" y="293.925419" style="fill: #228b22; stroke: #228b22"/>
     <use xlink:href="#m94f99cdcd3" x="369.351608" y="283.223082" style="fill: #228b22; stroke: #228b22"/>
     <use xlink:href="#m94f99cdcd3" x="377.676084" y="261.357786" style="fill: #228b22; stroke: #228b22"/>
     <use xlink:href="#m94f99cdcd3" x="386.000559" y="230.588422" style="fill: #228b22; stroke: #228b22"/>
     <use xlink:href="#m94f99cdcd3" x="394.325035" y="194.059888" style="fill: #228b22; stroke: #228b22"/>
    </g>
   </g>
   <g id="matplotlib.axis_1">
    <g id="xtick_1">
     <g id="line2d_1">
      <defs>
       <path id="m19b0d13880" d="M 0 0 
L 0 3.5 
" style="stroke: #000000; stroke-width: 0.8"/>
      </defs>
      <g>
       <use xlink:href="#m19b0d13880" x="73.832727" y="307.584" style="stroke: #000000; stroke-width: 0.8"/>
      </g>
     </g>
     <g id="text_1">
      <!-- −1.00 -->
      <g transform="translate(58.510071 322.182437)scale(0.1 -0.1)">
       <defs>
        <path id="DejaVuSans-2212" d="M 678 2272 
L 4684 2272 
L 4684 1741 
L 678 1741 
L 678 2272 
z
" transform="scale(0.015625)"/>
        <path id="DejaVuSans-31" d="M 794 531 
L 1825 531 
L 1825 4091 
L 703 3866 
L 703 4441 
L 1819 4666 
L 2450 4666 
L 2450 531 
L 3481 531 
L 3481 0 
L 794 0 
L 794 531 
z
" transform="scale(0.015625)"/>
        <path id="DejaVuSans-2e" d="M 684 794 
L 1344 794 
L 1344 0 
L 684 0 
L 684 794 
z
" transform="scale(0.015625)"/>
        <path id="DejaVuSans-30" d="M 2034 4250 
Q 1547 4250 1301 3770 
Q 1056 3291 1056 2328 
Q 1056 1369 1301 889 
Q 1547 409 2034 409 
Q 2525 409 2770 889 
Q 3016 1369 3016 2328 
Q 3016 3291 2770 3770 
Q 2525 4250 2034 4250 
z
M 2034 4750 
Q 2819 4750 3233 4129 
Q 3647 3509 3647 2328 
Q 3647 1150 3233 529 
Q 2819 -91 2034 -91 
Q 1250 -91 836 529 
Q 422 1150 422 2328 
Q 422 3509 836 4129 
Q 1250 4750 2034 4750 
z
" transform="scale(0.015625)"/>
       </defs>
       <use xlink:href="#DejaVuSans-2212"/>
       <use xlink:href="#DejaVuSans-31" x="83.789062"/>
       <use xlink:href="#DejaVuSans-2e" x="147.412109"/>
       <use xlink:href="#DejaVuSans-30" x="179.199219"/>
       <use xlink:href="#DejaVuSans-30" x="242.822266"/>
      </g>
     </g>
    </g>
    <g id="xtick_2">
     <g id="line2d_2">
      <g>
       <use xlink:href="#m19b0d13880" x="114.414545" y="307.584" style="stroke: #000000; stroke-width: 0.8"/>
      </g>
     </g>
     <g id="text_2">
      <!-- −0.75 -->
      <g transform="translate(99.091889 322.182437)scale(0.1 -0.1)">
       <defs>
        <path id="DejaVuSans-37" d="M 525 4666 
L 3525 4666 
L 3525 4397 
L 1831 0 
L 1172 0 
L 2766 4134 
L 525 4134 
L 525 4666 
z
" transform="scale(0.015625)"/>
        <path id="DejaVuSans-35" d="M 691 4666 
L 3169 4666 
L 3169 4134 
L 1269 4134 
L 1269 2991 
Q 1406 3038 1543 3061 
Q 1681 3084 1819 3084 
Q 2600 3084 3056 2656 
Q 3513 2228 3513 1497 
Q 3513 744 3044 326 
Q 2575 -91 1722 -91 
Q 1428 -91 1123 -41 
Q 819 9 494 109 
L 494 744 
Q 775 591 1075 516 
Q 1375 441 1709 441 
Q 2250 441 2565 725 
Q 2881 1009 2881 1497 
Q 2881 1984 2565 2268 
Q 2250 2553 1709 2553 
Q 1456 2553 1204 2497 
Q 953 2441 691 2322 
L 691 4666 
z
" transform="scale(0.015625)"/>
       </defs>
       <use xlink:href="#DejaVuSans-2212"/>
       <use xlink:href="#DejaVuSans-30" x="83.789062"/>
       <use xlink:href="#DejaVuSans-2e" x="147.412109"/>
       <use xlink:href="#DejaVuSans-37" x="179.199219"/>
       <use xlink:href="#DejaVuSans-35" x="242.822266"/>
      </g>
     </g>
    </g>
    <g id="xtick_3">
     <g id="line2d_3">
      <g>
       <use xlink:href="#m19b0d13880" x="154.996364" y="307.584" style="stroke: #000000; stroke-width: 0.8"/>
      </g>
     </g>
     <g id="text_3">
      <!-- −0.50 -->
      <g transform="translate(139.673707 322.182437)scale(0.1 -0.1)">
       <use xlink:href="#DejaVuSans-2212"/>
       <use xlink:href="#DejaVuSans-30" x="83.789062"/>
       <use xlink:href="#DejaVuSans-2e" x="147.412109"/>
       <use xlink:href="#DejaVuSans-35" x="179.199219"/>
       <use xlink:href="#DejaVuSans-30" x="242.822266"/>
      </g>
     </g>
    </g>
    <g id="xtick_4">
     <g id="line2d_4">
      <g>
       <use xlink:href="#m19b0d13880" x="195.578182" y="307.584" style="stroke: #000000; stroke-width: 0.8"/>
      </g>
     </g>
     <g id="text_4">
      <!-- −0.25 -->
      <g transform="translate(180.255526 322.182437)scale(0.1 -0.1)">
       <defs>
        <path id="DejaVuSans-32" d="M 1228 531 
L 3431 531 
L 3431 0 
L 469 0 
L 469 531 
Q 828 903 1448 1529 
Q 2069 2156 2228 2338 
Q 2531 2678 2651 2914 
Q 2772 3150 2772 3378 
Q 2772 3750 2511 3984 
Q 2250 4219 1831 4219 
Q 1534 4219 1204 4116 
Q 875 4013 500 3803 
L 500 4441 
Q 881 4594 1212 4672 
Q 1544 4750 1819 4750 
Q 2544 4750 2975 4387 
Q 3406 4025 3406 3419 
Q 3406 3131 3298 2873 
Q 3191 2616 2906 2266 
Q 2828 2175 2409 1742 
Q 1991 1309 1228 531 
z
" transform="scale(0.015625)"/>
       </defs>
       <use xlink:href="#DejaVuSans-2212"/>
       <use xlink:href="#DejaVuSans-30" x="83.789062"/>
       <use xlink:href="#DejaVuSans-2e" x="147.412109"/>
       <use xlink:href="#DejaVuSans-32" x="179.199219"/>
       <use xlink:href="#DejaVuSans-35" x="242.822266"/>
      </g>
     </g>
    </g>
    <g id="xtick_5">
     <g id="line2d_5">
      <g>
       <use xlink:href="#m19b0d13880" x="236.16" y="307.584" style="stroke: #000000; stroke-width: 0.8"/>
      </g>
     </g>
     <g id="text_5">
      <!-- 0.00 -->
      <g transform="translate(225.027187 322.182437)scale(0.1 -0.1)">
       <use xlink:href="#DejaVuSans-30"/>
       <use xlink:href="#DejaVuSans-2e" x="63.623047"/>
       <use xlink:href="#DejaVuSans-30" x="95.410156"/>
       <use xlink:href="#DejaVuSans-30" x="159.033203"/>
      </g>
     </g>
    </g>
    <g id="xtick_6">
     <g id="line2d_6">
      <g>
       <use xlink:href="#m19b0d13880" x="276.741818" y="307.584" style="stroke: #000000; stroke-width: 0.8"/>
      </g>
     </g>
     <g id="text_6">
      <!-- 0.25 -->
      <g transform="translate(265.609006 322.182437)scale(0.1 -0.1)">
       <use xlink:href="#DejaVuSans-30"/>
       <use xlink:href="#DejaVuSans-2e" x="63.623047"/>
       <use xlink:href="#DejaVuSans-32" x="95.410156"/>
       <use xlink:href="#DejaVuSans-35" x="159.033203"/>
      </g>
     </g>
    </g>
    <g id="xtick_7">
     <g id="line2d_7">
      <g>
       <use xlink:href="#m19b0d13880" x="317.323636" y="307.584" style="stroke: #000000; stroke-width: 0.8"/>
      </g>
     </g>
     <g id="text_7">
      <!-- 0.50 -->
      <g transform="translate(306.190824 322.182437)scale(0.1 -0.1)">
       <use xlink:href="#DejaVuSans-30"/>
       <use xlink:href="#DejaVuSans-2e" x="63.623047"/>
       <use xlink:href="#DejaVuSans-35" x="95.410156"/>
       <use xlink:href="#DejaVuSans-30" x="159.033203"/>
      </g>
     </g>
    </g>
    <g id="xtick_8">
     <g id="line2d_8">
      <g>
       <use xlink:href="#m19b0d13880" x="357.905455" y="307.584" style="stroke: #000000; stroke-width: 0.8"/>
      </g>
     </g>
     <g id="text_8">
      <!-- 0.75 -->
      <g transform="translate(346.772642 322.182437)scale(0.1 -0.1)">
       <use xlink:href="#DejaVuSans-30"/>
       <use xlink:href="#DejaVuSans-2e" x="63.623047"/>
       <use xlink:href="#DejaVuSans-37" x="95.410156"/>
       <use xlink:href="#DejaVuSans-35" x="159.033203"/>
      </g>
     </g>
    </g>
    <g id="xtick_9">
     <g id="line2d_9">
      <g>
       <use xlink:href="#m19b0d13880" x="398.487273" y="307.584" style="stroke: #000000; stroke-width: 0.8"/>
      </g>
     </g>
     <g id="text_9">
      <!-- 1.00 -->
      <g transform="translate(387.35446 322.182437)scale(0.1 -0.1)">
       <use xlink:href="#DejaVuSans-31"/>
       <use xlink:href="#DejaVuSans-2e" x="63.623047"/>
       <use xlink:href="#DejaVuSans-30" x="95.410156"/>
       <use xlink:href="#DejaVuSans-30" x="159.033203"/>
      </g>
     </g>
    </g>
    <g id="text_10">
     <!-- x -->
     <g transform="translate(233.200625 335.860562)scale(0.1 -0.1)">
      <defs>
       <path id="DejaVuSans-78" d="M 3513 3500 
L 2247 1797 
L 3578 0 
L 2900 0 
L 1881 1375 
L 863 0 
L 184 0 
L 1544 1831 
L 300 3500 
L 978 3500 
L 1906 2253 
L 2834 3500 
L 3513 3500 
z
" transform="scale(0.015625)"/>
      </defs>
      <use xlink:href="#DejaVuSans-78"/>
     </g>
    </g>
   </g>
   <g id="matplotlib.axis_2">
    <g id="ytick_1">
     <g id="line2d_10">
      <defs>
       <path id="m73e35589e7" d="M 0 0 
L -3.5 0 
" style="stroke: #000000; stroke-width: 0.8"/>
      </defs>
      <g>
       <use xlink:href="#m73e35589e7" x="57.6" y="295.48815" style="stroke: #000000; stroke-width: 0.8"/>
      </g>
     </g>
     <g id="text_11">
      <!-- 0.00 -->
      <g transform="translate(28.334375 299.287368)scale(0.1 -0.1)">
       <use xlink:href="#DejaVuSans-30"/>
       <use xlink:href="#DejaVuSans-2e" x="63.623047"/>
       <use xlink:href="#DejaVuSans-30" x="95.410156"/>
       <use xlink:href="#DejaVuSans-30" x="159.033203"/>
      </g>
     </g>
    </g>
    <g id="ytick_2">
     <g id="line2d_11">
      <g>
       <use xlink:href="#m73e35589e7" x="57.6" y="265.248112" style="stroke: #000000; stroke-width: 0.8"/>
      </g>
     </g>
     <g id="text_12">
      <!-- 0.25 -->
      <g transform="translate(28.334375 269.047331)scale(0.1 -0.1)">
       <use xlink:href="#DejaVuSans-30"/>
       <use xlink:href="#DejaVuSans-2e" x="63.623047"/>
       <use xlink:href="#DejaVuSans-32" x="95.410156"/>
       <use xlink:href="#DejaVuSans-35" x="159.033203"/>
      </g>
     </g>
    </g>
    <g id="ytick_3">
     <g id="line2d_12">
      <g>
       <use xlink:href="#m73e35589e7" x="57.6" y="235.008075" style="stroke: #000000; stroke-width: 0.8"/>
      </g>
     </g>
     <g id="text_13">
      <!-- 0.50 -->
      <g transform="translate(28.334375 238.807294)scale(0.1 -0.1)">
       <use xlink:href="#DejaVuSans-30"/>
       <use xlink:href="#DejaVuSans-2e" x="63.623047"/>
       <use xlink:href="#DejaVuSans-35" x="95.410156"/>
       <use xlink:href="#DejaVuSans-30" x="159.033203"/>
      </g>
     </g>
    </g>
    <g id="ytick_4">
     <g id="line2d_13">
      <g>
       <use xlink:href="#m73e35589e7" x="57.6" y="204.768037" style="stroke: #000000; stroke-width: 0.8"/>
      </g>
     </g>
     <g id="text_14">
      <!-- 0.75 -->
      <g transform="translate(28.334375 208.567256)scale(0.1 -0.1)">
       <use xlink:href="#DejaVuSans-30"/>
       <use xlink:href="#DejaVuSans-2e" x="63.623047"/>
       <use xlink:href="#DejaVuSans-37" x="95.410156"/>
       <use xlink:href="#DejaVuSans-35" x="159.033203"/>
      </g>
     </g>
    </g>
    <g id="ytick_5">
     <g id="line2d_14">
      <g>
       <use xlink:href="#m73e35589e7" x="57.6" y="174.528" style="stroke: #000000; stroke-width: 0.8"/>
      </g>
     </g>
     <g id="text_15">
      <!-- 1.00 -->
      <g transform="translate(28.334375 178.327219)scale(0.1 -0.1)">
       <use xlink:href="#DejaVuSans-31"/>
       <use xlink:href="#DejaVuSans-2e" x="63.623047"/>
       <use xlink:href="#DejaVuSans-30" x="95.410156"/>
       <use xlink:href="#DejaVuSans-30" x="159.033203"/>
      </g>
     </g>
    </g>
    <g id="ytick_6">
     <g id="line2d_15">
      <g>
       <use xlink:href="#m73e35589e7" x="57.6" y="144.287963" style="stroke: #000000; stroke-width: 0.8"/>
      </g>
     </g>
     <g id="text_16">
      <!-- 1.25 -->
      <g transform="translate(28.334375 148.087181)scale(0.1 -0.1)">
       <use xlink:href="#DejaVuSans-31"/>
       <use xlink:href="#DejaVuSans-2e" x="63.623047"/>
       <use xlink:href="#DejaVuSans-32" x="95.410156"/>
       <use xlink:href="#DejaVuSans-35" x="159.033203"/>
      </g>
     </g>
    </g>
    <g id="ytick_7">
     <g id="line2d_16">
      <g>
       <use xlink:href="#m73e35589e7" x="57.6" y="114.047925" style="stroke: #000000; stroke-width: 0.8"/>
      </g>
     </g>
     <g id="text_17">
      <!-- 1.50 -->
      <g transform="translate(28.334375 117.847144)scale(0.1 -0.1)">
       <use xlink:href="#DejaVuSans-31"/>
       <use xlink:href="#DejaVuSans-2e" x="63.623047"/>
       <use xlink:href="#DejaVuSans-35" x="95.410156"/>
       <use xlink:href="#DejaVuSans-30" x="159.033203"/>
      </g>
     </g>
    </g>
    <g id="ytick_8">
     <g id="line2d_17">
      <g>
       <use xlink:href="#m73e35589e7" x="57.6" y="83.807888" style="stroke: #000000; stroke-width: 0.8"/>
      </g>
     </g>
     <g id="text_18">
      <!-- 1.75 -->
      <g transform="translate(28.334375 87.607107)scale(0.1 -0.1)">
       <use xlink:href="#DejaVuSans-31"/>
       <use xlink:href="#DejaVuSans-2e" x="63.623047"/>
       <use xlink:href="#DejaVuSans-37" x="95.410156"/>
       <use xlink:href="#DejaVuSans-35" x="159.033203"/>
      </g>
     </g>
    </g>
    <g id="ytick_9">
     <g id="line2d_18">
      <g>
       <use xlink:href="#m73e35589e7" x="57.6" y="53.56785" style="stroke: #000000; stroke-width: 0.8"/>
      </g>
     </g>
     <g id="text_19">
      <!-- 2.00 -->
      <g transform="translate(28.334375 57.367069)scale(0.1 -0.1)">
       <use xlink:href="#DejaVuSans-32"/>
       <use xlink:href="#DejaVuSans-2e" x="63.623047"/>
       <use xlink:href="#DejaVuSans-30" x="95.410156"/>
       <use xlink:href="#DejaVuSans-30" x="159.033203"/>
      </g>
     </g>
    </g>
    <g id="text_20">
     <!-- $f_i$ -->
     <g transform="translate(22.254688 177.428)rotate(-90)scale(0.1 -0.1)">
      <defs>
       <path id="DejaVuSans-Oblique-66" d="M 3059 4863 
L 2969 4384 
L 2419 4384 
Q 2106 4384 1964 4261 
Q 1822 4138 1753 3809 
L 1691 3500 
L 2638 3500 
L 2553 3053 
L 1606 3053 
L 1013 0 
L 434 0 
L 1031 3053 
L 481 3053 
L 563 3500 
L 1113 3500 
L 1159 3744 
Q 1278 4363 1576 4613 
Q 1875 4863 2516 4863 
L 3059 4863 
z
" transform="scale(0.015625)"/>
       <path id="DejaVuSans-Oblique-69" d="M 1172 4863 
L 1747 4863 
L 1606 4134 
L 1031 4134 
L 1172 4863 
z
M 909 3500 
L 1484 3500 
L 800 0 
L 225 0 
L 909 3500 
z
" transform="scale(0.015625)"/>
      </defs>
      <use xlink:href="#DejaVuSans-Oblique-66" transform="translate(0 0.015625)"/>
      <use xlink:href="#DejaVuSans-Oblique-69" transform="translate(35.205078 -16.390625)scale(0.7)"/>
     </g>
    </g>
   </g>
   <g id="line2d_19">
    <path d="M 73.832727 174.528 
L 81.307256 140.018485 
L 85.53199 121.605151 
L 88.781785 108.377449 
L 91.706601 97.360637 
L 94.306437 88.393211 
L 96.581294 81.258748 
L 98.856151 74.84696 
L 100.806028 69.964149 
L 102.755905 65.676681 
L 104.380803 62.576283 
L 106.0057 59.918591 
L 107.630598 57.714117 
L 108.930516 56.282772 
L 110.230434 55.150723 
L 111.530352 54.320836 
L 112.83027 53.795211 
L 113.805209 53.601493 
L 114.780147 53.579962 
L 115.755086 53.730649 
L 117.055004 54.199054 
L 118.354922 54.97203 
L 119.65484 56.047618 
L 120.954758 57.423098 
L 122.254676 59.094987 
L 123.879574 61.595157 
L 125.504472 64.541914 
L 127.129369 67.923605 
L 129.079247 72.5368 
L 131.029124 77.73069 
L 133.30398 84.484533 
L 135.578837 91.936057 
L 138.178673 101.232091 
L 141.103489 112.571615 
L 144.353284 126.09475 
L 148.253038 143.313076 
L 153.77769 168.824297 
L 162.552138 209.401923 
L 166.451892 226.422366 
L 169.701687 239.720225 
L 172.626503 250.813164 
L 175.226339 259.857773 
L 177.501196 267.066482 
L 179.776052 273.558178 
L 181.72593 278.513519 
L 183.675807 282.876811 
L 185.300704 286.0426 
L 186.925602 288.767411 
L 188.5505 291.040468 
L 189.850418 292.52755 
L 191.150336 293.715958 
L 192.450254 294.602683 
L 193.750172 295.185483 
L 195.05009 295.46288 
L 196.025029 295.470057 
L 196.999967 295.305025 
L 198.299885 294.817541 
L 199.599803 294.025587 
L 200.899722 292.931168 
L 202.19964 291.537053 
L 203.499558 289.84677 
L 205.124455 287.324021 
L 206.749353 284.355227 
L 208.374251 280.952126 
L 210.324128 276.314187 
L 212.274005 271.096721 
L 214.548862 264.317026 
L 216.823718 256.841623 
L 219.423554 247.520947 
L 222.34837 236.157378 
L 225.598165 222.612448 
L 229.49792 205.375267 
L 235.022572 179.85171 
L 243.797019 139.290015 
L 247.696773 122.290289 
L 250.946568 109.015684 
L 253.871384 97.948011 
L 256.47122 88.929041 
L 258.746077 81.74501 
L 261.020934 75.279886 
L 262.970811 70.348673 
L 264.920688 66.010613 
L 266.545586 62.866589 
L 268.170483 60.164125 
L 269.795381 57.913907 
L 271.095299 56.445389 
L 272.395217 55.275757 
L 273.695135 54.407968 
L 274.995053 53.844222 
L 276.294971 53.585943 
L 277.26991 53.59312 
L 278.244848 53.772496 
L 279.544767 54.279053 
L 280.844685 55.089977 
L 282.144603 56.203217 
L 283.444521 57.615954 
L 284.744439 59.324612 
L 286.369337 61.869915 
L 287.994234 64.860719 
L 289.619132 68.285195 
L 291.569009 72.947832 
L 293.518886 78.188822 
L 295.793743 84.994302 
L 298.0686 92.493512 
L 300.668436 101.838736 
L 303.593251 113.226239 
L 306.843047 126.792831 
L 310.742801 144.048696 
L 316.592432 171.104966 
L 325.0419 210.129699 
L 328.941654 227.10854 
L 332.19145 240.359759 
L 335.116265 251.402056 
L 337.716102 260.395299 
L 339.990958 267.554581 
L 342.265815 273.993069 
L 344.215692 278.900105 
L 346.165569 283.212891 
L 347.790467 286.335117 
L 349.415364 289.015208 
L 351.040262 291.242565 
L 352.34018 292.692503 
L 353.640098 293.84335 
L 354.940016 294.692192 
L 356.239934 295.236881 
L 357.539853 295.476038 
L 358.514791 295.454507 
L 359.48973 295.260789 
L 360.789648 294.735164 
L 362.089566 293.905277 
L 363.389484 292.773228 
L 364.689402 291.341883 
L 365.98932 289.614866 
L 367.614218 287.047034 
L 369.239115 284.034251 
L 370.864013 280.588433 
L 372.81389 275.901145 
L 374.763767 270.636682 
L 377.038624 263.805485 
L 379.313481 256.282543 
L 381.913317 246.912862 
L 384.838133 235.501538 
L 388.087928 221.913419 
L 391.987682 204.63904 
L 397.837314 177.570782 
L 398.487273 174.528 
L 398.487273 174.528 
" clip-path="url(#p2eff1937ee)" style="fill: none; stroke: #0000ff; stroke-width: 1.5; stroke-linecap: square"/>
   </g>
   <g id="line2d_20">
    <path d="M 73.840844 174.351433 
L 74.18702 172.735404 
L 74.533197 171.119806 
L 74.879374 169.504907 
L 75.225551 167.890976 
L 75.571728 166.278281 
L 75.917904 164.66709 
L 76.264081 163.057674 
L 76.610258 161.450299 
L 76.956435 159.845236 
L 77.302611 158.242754 
L 77.648788 156.643121 
L 77.994965 155.046608 
L 78.341142 153.453483 
L 78.687319 151.864017 
L 79.033495 150.278478 
L 79.379672 148.697138 
L 79.725849 147.120266 
L 80.072026 145.548132 
L 80.418203 143.981007 
L 80.764379 142.419161 
L 81.110556 140.862864 
L 81.456733 139.312388 
L 81.80291 137.768002 
L 82.149086 136.229978 
" clip-path="url(#p2eff1937ee)" style="fill: none; stroke: #008000; stroke-width: 1.5; stroke-linecap: square"/>
   </g>
   <g id="line2d_21">
    <path d="M 82.165319 136.129507 
L 82.511496 134.599136 
L 82.857673 133.076006 
L 83.20385 131.560377 
L 83.550026 130.052504 
L 83.896203 128.552645 
L 84.24238 127.061052 
L 84.588557 125.577979 
L 84.934733 124.103678 
L 85.28091 122.638399 
L 85.627087 121.182392 
L 85.973264 119.735904 
L 86.319441 118.299181 
L 86.665617 116.87247 
L 87.011794 115.456014 
L 87.357971 114.050055 
L 87.704148 112.654836 
L 88.050324 111.270596 
L 88.396501 109.897574 
L 88.742678 108.536008 
L 89.088855 107.186133 
L 89.435032 105.848185 
L 89.781208 104.522398 
L 90.127385 103.209003 
L 90.473562 101.908232 
" clip-path="url(#p2eff1937ee)" style="fill: none; stroke: #008000; stroke-width: 1.5; stroke-linecap: square"/>
   </g>
   <g id="line2d_22">
    <path d="M 90.489795 101.831779 
L 90.835971 100.544577 
L 91.182148 99.270671 
L 91.528325 98.010286 
L 91.874502 96.763645 
L 92.220679 95.530967 
L 92.566855 94.312469 
L 92.913032 93.108364 
L 93.259209 91.918865 
L 93.605386 90.744181 
L 93.951563 89.584516 
L 94.297739 88.440075 
L 94.643916 87.311057 
L 94.990093 86.197661 
L 95.33627 85.100082 
L 95.682446 84.018513 
L 96.028623 82.953143 
L 96.3748 81.904158 
L 96.720977 80.871745 
L 97.067154 79.856083 
L 97.41333 78.857352 
L 97.759507 77.875728 
L 98.105684 76.911385 
L 98.451861 75.964494 
L 98.798037 75.035221 
" clip-path="url(#p2eff1937ee)" style="fill: none; stroke: #008000; stroke-width: 1.5; stroke-linecap: square"/>
   </g>
   <g id="line2d_23">
    <path d="M 98.81427 74.983223 
L 99.160447 74.072633 
L 99.506624 73.180114 
L 99.852801 72.305822 
L 100.198977 71.449913 
L 100.545154 70.612539 
L 100.891331 69.793848 
L 101.237508 68.993984 
L 101.583684 68.213089 
L 101.929861 67.451299 
L 102.276038 66.70875 
L 102.622215 65.985572 
L 102.968392 65.281891 
L 103.314568 64.597832 
L 103.660745 63.933514 
L 104.006922 63.289054 
L 104.353099 62.664565 
L 104.699276 62.060156 
L 105.045452 61.475934 
L 105.391629 60.912002 
L 105.737806 60.368457 
L 106.083983 59.845396 
L 106.430159 59.342911 
L 106.776336 58.86109 
L 107.122513 58.400019 
" clip-path="url(#p2eff1937ee)" style="fill: none; stroke: #008000; stroke-width: 1.5; stroke-linecap: square"/>
   </g>
   <g id="line2d_24">
    <path d="M 107.138746 58.375406 
L 107.484923 57.936168 
L 107.831099 57.517887 
L 108.177276 57.120638 
L 108.523453 56.744491 
L 108.86963 56.389511 
L 109.215806 56.055762 
L 109.561983 55.743302 
L 109.90816 55.452185 
L 110.254337 55.182462 
L 110.600514 54.934182 
L 110.94669 54.707386 
L 111.292867 54.502115 
L 111.639044 54.318405 
L 111.985221 54.156286 
L 112.331397 54.015788 
L 112.677574 53.896934 
L 113.023751 53.799745 
L 113.369928 53.724237 
L 113.716105 53.670424 
L 114.062281 53.638314 
L 114.408458 53.627912 
L 114.754635 53.63922 
L 115.100812 53.672235 
L 115.446989 53.726951 
" clip-path="url(#p2eff1937ee)" style="fill: none; stroke: #008000; stroke-width: 1.5; stroke-linecap: square"/>
   </g>
   <g id="line2d_25">
    <path d="M 115.463221 53.730982 
L 115.809398 53.808399 
L 116.155575 53.90748 
L 116.501752 54.028208 
L 116.847928 54.17056 
L 117.194105 54.334511 
L 117.540282 54.520033 
L 117.886459 54.727093 
L 118.232636 54.955653 
L 118.578812 55.205675 
L 118.924989 55.477114 
L 119.271166 55.769922 
L 119.617343 56.084047 
L 119.963519 56.419436 
L 120.309696 56.776028 
L 120.655873 57.153762 
L 121.00205 57.552571 
L 121.348227 57.972384 
L 121.694403 58.413128 
L 122.04058 58.874726 
L 122.386757 59.357096 
L 122.732934 59.860152 
L 123.07911 60.383808 
L 123.425287 60.927969 
L 123.771464 61.492539 
" clip-path="url(#p2eff1937ee)" style="fill: none; stroke: #008000; stroke-width: 1.5; stroke-linecap: square"/>
   </g>
   <g id="line2d_26">
    <path d="M 123.787697 61.524466 
L 124.133874 62.110262 
L 124.48005 62.716196 
L 124.826227 63.342159 
L 125.172404 63.988043 
L 125.518581 64.653733 
L 125.864757 65.339112 
L 126.210934 66.044061 
L 126.557111 66.768456 
L 126.903288 67.51217 
L 127.249465 68.275074 
L 127.595641 69.057034 
L 127.941818 69.857914 
L 128.287995 70.677573 
L 128.634172 71.51587 
L 128.980349 72.372656 
L 129.326525 73.247783 
L 129.672702 74.141098 
L 130.018879 75.052445 
L 130.365056 75.981663 
L 130.711232 76.92859 
L 131.057409 77.89306 
L 131.403586 78.874903 
L 131.749763 79.873947 
L 132.09594 80.890015 
" clip-path="url(#p2eff1937ee)" style="fill: none; stroke: #008000; stroke-width: 1.5; stroke-linecap: square"/>
   </g>
   <g id="line2d_27">
    <path d="M 132.112172 80.946665 
L 132.458349 81.980306 
L 132.804526 83.03049 
L 133.150703 84.097033 
L 133.496879 85.179746 
L 133.843056 86.27844 
L 134.189233 87.392923 
L 134.53541 88.523 
L 134.881587 89.668473 
L 135.227763 90.829142 
L 135.57394 92.004804 
L 135.920117 93.195256 
L 136.266294 94.400288 
L 136.61247 95.619692 
L 136.958647 96.853254 
L 137.304824 98.10076 
L 137.651001 99.361991 
L 137.997178 100.636728 
L 138.343354 101.924748 
L 138.689531 103.225826 
L 139.035708 104.539735 
L 139.381885 105.866243 
L 139.728062 107.205118 
L 140.074238 108.556125 
L 140.420415 109.919027 
" clip-path="url(#p2eff1937ee)" style="fill: none; stroke: #008000; stroke-width: 1.5; stroke-linecap: square"/>
   </g>
   <g id="line2d_28">
    <path d="M 140.436648 109.994701 
L 140.782825 111.369719 
L 141.129001 112.755989 
L 141.475178 114.153266 
L 141.821355 115.561306 
L 142.167532 116.979861 
L 142.513709 118.408682 
L 142.859885 119.847522 
L 143.206062 121.296127 
L 143.552239 122.754245 
L 143.898416 124.221622 
L 144.244592 125.698001 
L 144.590769 127.183127 
L 144.936946 128.676739 
L 145.283123 130.178579 
L 145.6293 131.688383 
L 145.975476 133.205889 
L 146.321653 134.730832 
L 146.66783 136.262945 
L 147.014007 137.801962 
L 147.360183 139.347613 
L 147.70636 140.899627 
L 148.052537 142.457731 
L 148.398714 144.021654 
L 148.744891 145.591118 
" clip-path="url(#p2eff1937ee)" style="fill: none; stroke: #008000; stroke-width: 1.5; stroke-linecap: square"/>
   </g>
   <g id="line2d_29">
    <path d="M 148.761123 145.678063 
L 149.1073 147.252943 
L 149.453477 148.832628 
L 149.799654 150.416838 
L 150.14583 152.005295 
L 150.492007 153.597722 
L 150.838184 155.193839 
L 151.184361 156.793367 
L 151.530538 158.396027 
L 151.876714 160.001539 
L 152.222891 161.609623 
L 152.569068 163.22 
L 152.915245 164.832387 
L 153.261422 166.446505 
L 153.607598 168.062071 
L 153.953775 169.678806 
L 154.299952 171.296426 
L 154.646129 172.914649 
L 154.992305 174.533194 
L 155.338482 176.151777 
L 155.684659 177.770116 
L 156.030836 179.387927 
L 156.377013 181.004926 
L 156.723189 182.62083 
L 157.069366 184.235353 
" clip-path="url(#p2eff1937ee)" style="fill: none; stroke: #008000; stroke-width: 1.5; stroke-linecap: square"/>
   </g>
   <g id="line2d_30">
    <path d="M 157.085599 184.324605 
L 157.431776 185.937287 
L 157.777952 187.547831 
L 158.124129 189.155955 
L 158.470306 190.761374 
L 158.816483 192.363808 
L 159.16266 193.962977 
L 159.508836 195.5586 
L 159.855013 197.150399 
L 160.20119 198.738096 
L 160.547367 200.321414 
L 160.893543 201.900077 
L 161.23972 203.47381 
L 161.585897 205.042339 
L 161.932074 206.605391 
L 162.278251 208.162693 
L 162.624427 209.713974 
L 162.970604 211.258963 
L 163.316781 212.797391 
L 163.662958 214.328989 
L 164.009135 215.85349 
L 164.355311 217.370626 
L 164.701488 218.880131 
L 165.047665 220.381741 
L 165.393842 221.875192 
" clip-path="url(#p2eff1937ee)" style="fill: none; stroke: #008000; stroke-width: 1.5; stroke-linecap: square"/>
   </g>
   <g id="line2d_31">
    <path d="M 165.410074 221.957548 
L 165.756251 223.44209 
L 166.102428 224.917772 
L 166.448605 226.384335 
L 166.794782 227.841523 
L 167.140958 229.289078 
L 167.487135 230.726748 
L 167.833312 232.154282 
L 168.179489 233.571429 
L 168.525665 234.977943 
L 168.871842 236.373578 
L 169.218019 237.758091 
L 169.564196 239.131241 
L 169.910373 240.492788 
L 170.256549 241.842496 
L 170.602726 243.180128 
L 170.948903 244.505453 
L 171.29508 245.818239 
L 171.641257 247.118257 
L 171.987433 248.405281 
L 172.33361 249.679084 
L 172.679787 250.939445 
L 173.025964 252.186142 
L 173.37214 253.418957 
L 173.718317 254.637673 
" clip-path="url(#p2eff1937ee)" style="fill: none; stroke: #008000; stroke-width: 1.5; stroke-linecap: square"/>
   </g>
   <g id="line2d_32">
    <path d="M 173.73455 254.704658 
L 174.080727 255.908314 
L 174.426903 257.097302 
L 174.77308 258.271413 
L 175.119257 259.430441 
L 175.465434 260.574182 
L 175.811611 261.702437 
L 176.157787 262.815006 
L 176.503964 263.911698 
L 176.850141 264.992319 
L 177.196318 266.056681 
L 177.542495 267.1046 
L 177.888671 268.135892 
L 178.234848 269.150377 
L 178.581025 270.14788 
L 178.927202 271.128225 
L 179.273378 272.091244 
L 179.619555 273.036767 
L 179.965732 273.964629 
L 180.311909 274.87467 
L 180.658086 275.76673 
L 181.004262 276.640653 
L 181.350439 277.496286 
L 181.696616 278.333478 
L 182.042793 279.152084 
" clip-path="url(#p2eff1937ee)" style="fill: none; stroke: #008000; stroke-width: 1.5; stroke-linecap: square"/>
   </g>
   <g id="line2d_33">
    <path d="M 182.059025 279.196809 
L 182.405202 279.995755 
L 182.751379 280.775734 
L 183.097556 281.536609 
L 183.443733 282.278246 
L 183.789909 283.000515 
L 184.136086 283.703289 
L 184.482263 284.386446 
L 184.82844 285.049867 
L 185.174617 285.693434 
L 185.520793 286.317037 
L 185.86697 286.920566 
L 186.213147 287.503917 
L 186.559324 288.066987 
L 186.9055 288.609679 
L 187.251677 289.131898 
L 187.597854 289.633553 
L 187.944031 290.114558 
L 188.290208 290.574828 
L 188.636384 291.014283 
L 188.982561 291.432846 
L 189.328738 291.830445 
L 189.674915 292.20701 
L 190.021091 292.562474 
L 190.367268 292.896777 
" clip-path="url(#p2eff1937ee)" style="fill: none; stroke: #008000; stroke-width: 1.5; stroke-linecap: square"/>
   </g>
   <g id="line2d_34">
    <path d="M 190.383501 292.914645 
L 190.729678 293.226712 
L 191.075855 293.517464 
L 191.422031 293.786851 
L 191.768208 294.034826 
L 192.114385 294.261344 
L 192.460562 294.466367 
L 192.806738 294.649859 
L 193.152915 294.811786 
L 193.499092 294.952122 
L 193.845269 295.070841 
L 194.191446 295.167922 
L 194.537622 295.24335 
L 194.883799 295.29711 
L 195.229976 295.329194 
L 195.576153 295.339596 
L 195.92233 295.328315 
L 196.268506 295.295352 
L 196.614683 295.240714 
L 196.96086 295.164409 
L 197.307037 295.066453 
L 197.653213 294.946862 
L 197.99939 294.805658 
L 198.345567 294.642865 
L 198.691744 294.458512 
" clip-path="url(#p2eff1937ee)" style="fill: none; stroke: #008000; stroke-width: 1.5; stroke-linecap: square"/>
   </g>
   <g id="line2d_35">
    <path d="M 198.707977 294.447687 
L 199.054153 294.24081 
L 199.40033 294.012465 
L 199.746507 293.762692 
L 200.092684 293.491536 
L 200.43886 293.199044 
L 200.785037 292.885267 
L 201.131214 292.55026 
L 201.477391 292.194081 
L 201.823568 291.816793 
L 202.169744 291.418461 
L 202.515921 290.999154 
L 202.862098 290.558947 
L 203.208275 290.097915 
L 203.554451 289.616139 
L 203.900628 289.113703 
L 204.246805 288.590695 
L 204.592982 288.047206 
L 204.939159 287.483331 
L 205.285335 286.899169 
L 205.631512 286.294823 
L 205.977689 285.670398 
L 206.323866 285.026004 
L 206.670043 284.361754 
L 207.016219 283.677766 
" clip-path="url(#p2eff1937ee)" style="fill: none; stroke: #008000; stroke-width: 1.5; stroke-linecap: square"/>
   </g>
   <g id="line2d_36">
    <path d="M 207.032452 283.639362 
L 207.378629 282.934879 
L 207.724806 282.210984 
L 208.070982 281.467803 
L 208.417159 280.705469 
L 208.763336 279.924114 
L 209.109513 279.123875 
L 209.45569 278.304892 
L 209.801866 277.467308 
L 210.148043 276.611269 
L 210.49422 275.736925 
L 210.840397 274.844427 
L 211.186573 273.933932 
L 211.53275 273.005598 
L 211.878927 272.059588 
L 212.225104 271.096065 
L 212.571281 270.115198 
L 212.917457 269.117159 
L 213.263634 268.102121 
L 213.609811 267.070262 
L 213.955988 266.021764 
L 214.302164 264.956808 
L 214.648341 263.875584 
L 214.994518 262.778279 
L 215.340695 261.665089 
" clip-path="url(#p2eff1937ee)" style="fill: none; stroke: #008000; stroke-width: 1.5; stroke-linecap: square"/>
   </g>
   <g id="line2d_37">
    <path d="M 215.356928 261.60306 
L 215.703104 260.473512 
L 216.049281 259.328606 
L 216.395458 258.168542 
L 216.741635 256.993523 
L 217.087811 255.803757 
L 217.433988 254.599451 
L 217.780165 253.380816 
L 218.126342 252.148065 
L 218.472519 250.901412 
L 218.818695 249.641076 
L 219.164872 248.367276 
L 219.511049 247.080234 
L 219.857226 245.780174 
L 220.203403 244.467324 
L 220.549579 243.141911 
L 220.895756 241.804167 
L 221.241933 240.454325 
L 221.58811 239.092621 
L 221.934286 237.719294 
L 222.280463 236.334583 
L 222.62664 234.938732 
L 222.972817 233.531984 
L 223.318994 232.114587 
L 223.66517 230.686791 
" clip-path="url(#p2eff1937ee)" style="fill: none; stroke: #008000; stroke-width: 1.5; stroke-linecap: square"/>
   </g>
   <g id="line2d_38">
    <path d="M 223.681403 230.607521 
L 224.02758 229.169189 
L 224.373757 227.721132 
L 224.719933 226.263603 
L 225.06611 224.79686 
L 225.412287 223.321158 
L 225.758464 221.836757 
L 226.104641 220.343916 
L 226.450817 218.842896 
L 226.796994 217.333959 
L 227.143171 215.817367 
L 227.489348 214.293386 
L 227.835524 212.762282 
L 228.181701 211.22432 
L 228.527878 209.679769 
L 228.874055 208.128898 
L 229.220232 206.571977 
L 229.566408 205.009279 
L 229.912585 203.441076 
L 230.258762 201.867641 
L 230.604939 200.289251 
L 230.951116 198.706182 
L 231.297292 197.118711 
L 231.643469 195.527117 
L 231.989646 193.931681 
" clip-path="url(#p2eff1937ee)" style="fill: none; stroke: #008000; stroke-width: 1.5; stroke-linecap: square"/>
   </g>
   <g id="line2d_39">
    <path d="M 232.005879 193.84333 
L 232.352055 192.244264 
L 232.698232 190.642105 
L 233.044409 189.037136 
L 233.390586 187.429639 
L 233.736763 185.819895 
L 234.082939 184.208187 
L 234.429116 182.594797 
L 234.775293 180.980005 
L 235.12147 179.364095 
L 235.467646 177.747348 
L 235.813823 176.130046 
L 236.16 174.51247 
L 236.506177 172.894903 
L 236.852354 171.277627 
L 237.19853 169.660922 
L 237.544707 168.045072 
L 237.890884 166.430359 
L 238.237061 164.817062 
L 238.583237 163.205466 
L 238.929414 161.595851 
L 239.275591 159.9885 
L 239.621768 158.383694 
L 239.967945 156.781715 
L 240.314121 155.182845 
" clip-path="url(#p2eff1937ee)" style="fill: none; stroke: #008000; stroke-width: 1.5; stroke-linecap: square"/>
   </g>
   <g id="line2d_40">
    <path d="M 240.330354 155.094507 
L 240.676531 153.499285 
L 241.022708 151.907923 
L 241.368884 150.320699 
L 241.715061 148.737895 
L 242.061238 147.159785 
L 242.407415 145.586648 
L 242.753592 144.018759 
L 243.099768 142.456391 
L 243.445945 140.899816 
L 243.792122 139.349307 
L 244.138299 137.805135 
L 244.484476 136.267567 
L 244.830652 134.736871 
L 245.176829 133.213316 
L 245.523006 131.697166 
L 245.869183 130.188684 
L 246.215359 128.688136 
L 246.561536 127.195781 
L 246.907713 125.711882 
L 247.25389 124.236696 
L 247.600067 122.770484 
L 247.946243 121.313501 
L 248.29242 119.866003 
L 248.638597 118.428245 
" clip-path="url(#p2eff1937ee)" style="fill: none; stroke: #008000; stroke-width: 1.5; stroke-linecap: square"/>
   </g>
   <g id="line2d_41">
    <path d="M 248.65483 118.349013 
L 249.001006 116.921805 
L 249.347183 115.505011 
L 249.69336 114.098878 
L 250.039537 112.703656 
L 250.385714 111.319587 
L 250.73189 109.946915 
L 251.078067 108.585879 
L 251.424244 107.236718 
L 251.770421 105.899667 
L 252.116597 104.574959 
L 252.462774 103.262825 
L 252.808951 101.963493 
L 253.155128 100.677191 
L 253.501305 99.404142 
L 253.847481 98.144569 
L 254.193658 96.898689 
L 254.539835 95.666722 
L 254.886012 94.44888 
L 255.232189 93.245379 
L 255.578365 92.056426 
L 255.924542 90.882232 
L 256.270719 89.723001 
L 256.616896 88.578936 
L 256.963072 87.45024 
" clip-path="url(#p2eff1937ee)" style="fill: none; stroke: #008000; stroke-width: 1.5; stroke-linecap: square"/>
   </g>
   <g id="line2d_42">
    <path d="M 256.979305 87.388266 
L 257.325482 86.275936 
L 257.671659 85.179499 
L 258.017836 84.09915 
L 258.364012 83.035078 
L 258.710189 81.98747 
L 259.056366 80.956509 
L 259.402543 79.942376 
L 259.748719 78.945247 
L 260.094896 77.965297 
L 260.441073 77.002697 
L 260.78725 76.057614 
L 261.133427 75.130214 
L 261.479603 74.220658 
L 261.82578 73.329104 
L 262.171957 72.455707 
L 262.518134 71.60062 
L 262.86431 70.763992 
L 263.210487 69.945968 
L 263.556664 69.146691 
L 263.902841 68.366301 
L 264.249018 67.604935 
L 264.595194 66.862724 
L 264.941371 66.139801 
L 265.287548 65.436291 
" clip-path="url(#p2eff1937ee)" style="fill: none; stroke: #008000; stroke-width: 1.5; stroke-linecap: square"/>
   </g>
   <g id="line2d_43">
    <path d="M 265.303781 65.397954 
L 265.649957 64.71494 
L 265.996134 64.051666 
L 266.342311 63.408248 
L 266.688488 62.784798 
L 267.034665 62.181427 
L 267.380841 61.59824 
L 267.727018 61.03534 
L 268.073195 60.492823 
L 268.419372 59.970786 
L 268.765549 59.469319 
L 269.111725 58.98851 
L 269.457902 58.528442 
L 269.804079 58.089195 
L 270.150256 57.670847 
L 270.496432 57.273469 
L 270.842609 56.897131 
L 271.188786 56.541899 
L 271.534963 56.207833 
L 271.88114 55.894993 
L 272.227316 55.603432 
L 272.573493 55.333202 
L 272.91967 55.08435 
L 273.265847 54.856918 
L 273.612023 54.650948 
" clip-path="url(#p2eff1937ee)" style="fill: none; stroke: #008000; stroke-width: 1.5; stroke-linecap: square"/>
   </g>
   <g id="line2d_44">
    <path d="M 273.628256 54.640191 
L 273.974433 54.456738 
L 274.32061 54.294837 
L 274.666787 54.154516 
L 275.012963 54.035801 
L 275.35914 53.938712 
L 275.705317 53.863266 
L 276.051494 53.809476 
L 276.39767 53.777352 
L 276.743847 53.7669 
L 277.090024 53.778121 
L 277.436201 53.811013 
L 277.782378 53.865571 
L 278.128554 53.941785 
L 278.474731 54.039641 
L 278.820908 54.159123 
L 279.167085 54.300209 
L 279.513262 54.462875 
L 279.859438 54.647092 
L 280.205615 54.852827 
L 280.551792 55.080045 
L 280.897969 55.328705 
L 281.244145 55.598763 
L 281.590322 55.890172 
L 281.936499 56.202881 
" clip-path="url(#p2eff1937ee)" style="fill: none; stroke: #008000; stroke-width: 1.5; stroke-linecap: square"/>
   </g>
   <g id="line2d_45">
    <path d="M 281.952732 56.22081 
L 282.298909 56.555739 
L 282.645085 56.911815 
L 282.991262 57.288974 
L 283.337439 57.687152 
L 283.683616 58.106278 
L 284.029792 58.546278 
L 284.375969 59.007076 
L 284.722146 59.488592 
L 285.068323 59.990741 
L 285.4145 60.513436 
L 285.760676 61.056586 
L 286.106853 61.620096 
L 286.45303 62.203867 
L 286.799207 62.807799 
L 287.145383 63.431785 
L 287.49156 64.075716 
L 287.837737 64.739481 
L 288.183914 65.422963 
L 288.530091 66.126042 
L 288.876267 66.848596 
L 289.222444 67.590497 
L 289.568621 68.351616 
L 289.914798 69.131818 
L 290.260975 69.930966 
" clip-path="url(#p2eff1937ee)" style="fill: none; stroke: #008000; stroke-width: 1.5; stroke-linecap: square"/>
   </g>
   <g id="line2d_46">
    <path d="M 290.277207 69.975733 
L 290.623384 70.794518 
L 290.969561 71.631869 
L 291.315738 72.487638 
L 291.661914 73.361675 
L 292.008091 74.253827 
L 292.354268 75.163937 
L 292.700445 76.091847 
L 293.046622 77.037394 
L 293.392798 78.000414 
L 293.738975 78.980738 
L 294.085152 79.978196 
L 294.431329 80.992614 
L 294.777505 82.023815 
L 295.123682 83.071619 
L 295.469859 84.135844 
L 295.816036 85.216304 
L 296.162213 86.312811 
L 296.508389 87.425172 
L 296.854566 88.553194 
L 297.200743 89.69668 
L 297.54692 90.855428 
L 297.893097 92.029235 
L 298.239273 93.217896 
L 298.58545 94.421201 
" clip-path="url(#p2eff1937ee)" style="fill: none; stroke: #008000; stroke-width: 1.5; stroke-linecap: square"/>
   </g>
   <g id="line2d_47">
    <path d="M 298.601683 94.488188 
L 298.94786 95.706527 
L 299.294036 96.938942 
L 299.640213 98.185214 
L 299.98639 99.445126 
L 300.332567 100.718456 
L 300.678743 102.004982 
L 301.02492 103.304479 
L 301.371097 104.61672 
L 301.717274 105.941476 
L 302.063451 107.278516 
L 302.409627 108.627607 
L 302.755804 109.988513 
L 303.101981 111.360999 
L 303.448158 112.744824 
L 303.794335 114.139749 
L 304.140511 115.545528 
L 304.486688 116.961918 
L 304.832865 118.388671 
L 305.179042 119.825538 
L 305.525218 121.272268 
L 305.871395 122.728606 
L 306.217572 124.194299 
L 306.563749 125.669088 
L 306.909926 127.152715 
" clip-path="url(#p2eff1937ee)" style="fill: none; stroke: #008000; stroke-width: 1.5; stroke-linecap: square"/>
   </g>
   <g id="line2d_48">
    <path d="M 306.926158 127.235013 
L 307.272335 128.727526 
L 307.618512 130.228177 
L 307.964689 131.736702 
L 308.310865 133.252837 
L 308.657042 134.776316 
L 309.003219 136.306872 
L 309.349396 137.844238 
L 309.695573 139.388145 
L 310.041749 140.938324 
L 310.387926 142.494505 
L 310.734103 144.056416 
L 311.08028 145.623786 
L 311.426457 147.196342 
L 311.772633 148.77381 
L 312.11881 150.355914 
L 312.464987 151.94238 
L 312.811164 153.53293 
L 313.15734 155.127288 
L 313.503517 156.725175 
L 313.849694 158.326311 
L 314.195871 159.930417 
L 314.542048 161.537211 
L 314.888224 163.146411 
L 315.234401 164.757734 
" clip-path="url(#p2eff1937ee)" style="fill: none; stroke: #008000; stroke-width: 1.5; stroke-linecap: square"/>
   </g>
   <g id="line2d_49">
    <path d="M 315.250634 164.846865 
L 315.596811 166.460015 
L 315.942987 168.074531 
L 316.289164 169.690131 
L 316.635341 171.30653 
L 316.981518 172.923444 
L 317.327695 174.540592 
L 317.673871 176.15769 
L 318.020048 177.774456 
L 318.366225 179.390609 
L 318.712402 181.005865 
L 319.058578 182.619945 
L 319.404755 184.232566 
L 319.750932 185.843449 
L 320.097109 187.452312 
L 320.443286 189.058875 
L 320.789462 190.662859 
L 321.135639 192.263984 
L 321.481816 193.861971 
L 321.827993 195.456541 
L 322.17417 197.047414 
L 322.520346 198.634313 
L 322.866523 200.21696 
L 323.2127 201.795077 
L 323.558877 203.368387 
" clip-path="url(#p2eff1937ee)" style="fill: none; stroke: #008000; stroke-width: 1.5; stroke-linecap: square"/>
   </g>
   <g id="line2d_50">
    <path d="M 323.575109 203.455195 
L 323.921286 205.023085 
L 324.267463 206.585432 
L 324.61364 208.141959 
L 324.959817 209.692394 
L 325.305993 211.236465 
L 325.65217 212.773903 
L 325.998347 214.304437 
L 326.344524 215.827801 
L 326.6907 217.34373 
L 327.036877 218.851958 
L 327.383054 220.352223 
L 327.729231 221.844264 
L 328.075408 223.327821 
L 328.421584 224.802635 
L 328.767761 226.26845 
L 329.113938 227.72501 
L 329.460115 229.172062 
L 329.806291 230.609353 
L 330.152468 232.036632 
L 330.498645 233.453649 
L 330.844822 234.860157 
L 331.190999 236.25591 
L 331.537175 237.640662 
L 331.883352 239.014169 
" clip-path="url(#p2eff1937ee)" style="fill: none; stroke: #008000; stroke-width: 1.5; stroke-linecap: square"/>
   </g>
   <g id="line2d_51">
    <path d="M 331.899585 239.089778 
L 332.245762 240.451177 
L 332.591938 241.80069 
L 332.938115 243.138079 
L 333.284292 244.46311 
L 333.630469 245.77555 
L 333.976646 247.075169 
L 334.322822 248.361741 
L 334.668999 249.635039 
L 335.015176 250.894843 
L 335.361353 252.140932 
L 335.70753 253.373089 
L 336.053706 254.591099 
L 336.399883 255.79475 
L 336.74606 256.983832 
L 337.092237 258.158139 
L 337.438413 259.317465 
L 337.78459 260.461608 
L 338.130767 261.590369 
L 338.476944 262.70355 
L 338.823121 263.800958 
L 339.169297 264.882399 
L 339.515474 265.947685 
L 339.861651 266.996628 
L 340.207828 268.029043 
" clip-path="url(#p2eff1937ee)" style="fill: none; stroke: #008000; stroke-width: 1.5; stroke-linecap: square"/>
   </g>
   <g id="line2d_52">
    <path d="M 340.22406 268.085746 
L 340.570237 269.100606 
L 340.916414 270.098456 
L 341.262591 271.07912 
L 341.608768 272.042427 
L 341.954944 272.988208 
L 342.301121 273.916296 
L 342.647298 274.826529 
L 342.993475 275.718748 
L 343.339651 276.592796 
L 343.685828 277.448523 
L 344.032005 278.285777 
L 344.378182 279.104414 
L 344.724359 279.904289 
L 345.070535 280.685265 
L 345.416712 281.447205 
L 345.762889 282.189976 
L 346.109066 282.913448 
L 346.455243 283.617496 
L 346.801419 284.301996 
L 347.147596 284.966828 
L 347.493773 285.611878 
L 347.83995 286.23703 
L 348.186126 286.842177 
L 348.532303 287.42721 
" clip-path="url(#p2eff1937ee)" style="fill: none; stroke: #008000; stroke-width: 1.5; stroke-linecap: square"/>
   </g>
   <g id="line2d_53">
    <path d="M 348.548536 287.459162 
L 348.894713 288.022995 
L 349.24089 288.566443 
L 349.587066 289.089411 
L 349.933243 289.591805 
L 350.27942 290.073539 
L 350.625597 290.534527 
L 350.971773 290.974689 
L 351.31795 291.393948 
L 351.664127 291.792231 
L 352.010304 292.169468 
L 352.356481 292.525593 
L 352.702657 292.860545 
L 353.048834 293.174265 
L 353.395011 293.466699 
L 353.741188 293.737796 
L 354.087364 293.987509 
L 354.433541 294.215795 
L 354.779718 294.422614 
L 355.125895 294.60793 
L 355.472072 294.771712 
L 355.818248 294.913931 
L 356.164425 295.034564 
L 356.510602 295.133588 
L 356.856779 295.210987 
" clip-path="url(#p2eff1937ee)" style="fill: none; stroke: #008000; stroke-width: 1.5; stroke-linecap: square"/>
   </g>
   <g id="line2d_54">
    <path d="M 356.873011 295.214735 
L 357.219188 295.269476 
L 357.565365 295.302561 
L 357.911542 295.313984 
L 358.257719 295.303743 
L 358.603895 295.271841 
L 358.950072 295.218282 
L 359.296249 295.143078 
L 359.642426 295.046241 
L 359.988603 294.927789 
L 360.334779 294.787743 
L 360.680956 294.626128 
L 361.027133 294.442972 
L 361.37331 294.238309 
L 361.719486 294.012174 
L 362.065663 293.764607 
L 362.41184 293.495653 
L 362.758017 293.20536 
L 363.104194 292.893778 
L 363.45037 292.560964 
L 363.796547 292.206976 
L 364.142724 291.831878 
L 364.488901 291.435736 
L 364.835077 291.018621 
L 365.181254 290.580607 
" clip-path="url(#p2eff1937ee)" style="fill: none; stroke: #008000; stroke-width: 1.5; stroke-linecap: square"/>
   </g>
   <g id="line2d_55">
    <path d="M 365.197487 290.555267 
L 365.543664 290.095487 
L 365.889841 289.615028 
L 366.236017 289.113975 
L 366.582194 288.592418 
L 366.928371 288.050447 
L 367.274548 287.48816 
L 367.620724 286.905655 
L 367.966901 286.303034 
L 368.313078 285.680403 
L 368.659255 285.037873 
L 369.005432 284.375555 
L 369.351608 283.693566 
L 369.697785 282.992025 
L 370.043962 282.271056 
L 370.390139 281.530785 
L 370.736316 280.771341 
L 371.082492 279.992859 
L 371.428669 279.195474 
L 371.774846 278.379328 
L 372.121023 277.544563 
L 372.467199 276.691326 
L 372.813376 275.819768 
L 373.159553 274.930043 
L 373.50573 274.022308 
" clip-path="url(#p2eff1937ee)" style="fill: none; stroke: #008000; stroke-width: 1.5; stroke-linecap: square"/>
   </g>
   <g id="line2d_56">
    <path d="M 373.521963 273.970713 
L 373.868139 273.044354 
L 374.214316 272.100428 
L 374.560493 271.139101 
L 374.90667 270.160544 
L 375.252846 269.164928 
L 375.599023 268.152427 
L 375.9452 267.123218 
L 376.291377 266.077481 
L 376.637554 265.015399 
L 376.98373 263.937156 
L 377.329907 262.842941 
L 377.676084 261.732942 
L 378.022261 260.607355 
L 378.368437 259.466373 
L 378.714614 258.310196 
L 379.060791 257.139024 
L 379.406968 255.953061 
L 379.753145 254.752513 
L 380.099321 253.537589 
L 380.445498 252.308501 
L 380.791675 251.065462 
L 381.137852 249.80869 
L 381.484029 248.538404 
L 381.830205 247.254826 
" clip-path="url(#p2eff1937ee)" style="fill: none; stroke: #008000; stroke-width: 1.5; stroke-linecap: square"/>
   </g>
   <g id="line2d_57">
    <path d="M 381.846438 247.179094 
L 382.192615 245.881946 
L 382.538792 244.572165 
L 382.884968 243.249979 
L 383.231145 241.915619 
L 383.577322 240.569315 
L 383.923499 239.211299 
L 384.269676 237.841804 
L 384.615852 236.461064 
L 384.962029 235.069317 
L 385.308206 233.666797 
L 385.654383 232.253745 
L 386.000559 230.8304 
L 386.346736 229.397002 
L 386.692913 227.953794 
L 387.03909 226.50102 
L 387.385267 225.038924 
L 387.731443 223.567752 
L 388.07762 222.087752 
L 388.423797 220.599173 
L 388.769974 219.102264 
L 389.11615 217.597276 
L 389.462327 216.084463 
L 389.808504 214.564078 
L 390.154681 213.036375 
" clip-path="url(#p2eff1937ee)" style="fill: none; stroke: #008000; stroke-width: 1.5; stroke-linecap: square"/>
   </g>
   <g id="line2d_58">
    <path d="M 390.170914 212.94034 
L 390.51709 211.404956 
L 390.863267 209.863077 
L 391.209444 208.314968 
L 391.555621 206.760896 
L 391.901797 205.201128 
L 392.247974 203.63593 
L 392.594151 202.065569 
L 392.940328 200.490312 
L 393.286505 198.910427 
L 393.632681 197.326179 
L 393.978858 195.737836 
L 394.325035 194.145665 
L 394.671212 192.549934 
L 395.017389 190.950909 
L 395.363565 189.348858 
L 395.709742 187.744049 
L 396.055919 186.136749 
L 396.402096 184.527225 
L 396.748272 182.915746 
L 397.094449 181.302578 
L 397.440626 179.687991 
L 397.786803 178.072252 
L 398.13298 176.455628 
L 398.479156 174.838388 
" clip-path="url(#p2eff1937ee)" style="fill: none; stroke: #008000; stroke-width: 1.5; stroke-linecap: square"/>
   </g>
   <g id="patch_3">
    <path d="M 57.6 307.584 
L 57.6 41.472 
" style="fill: none; stroke: #000000; stroke-width: 0.8; stroke-linejoin: miter; stroke-linecap: square"/>
   </g>
   <g id="patch_4">
    <path d="M 414.72 307.584 
L 414.72 41.472 
" style="fill: none; stroke: #000000; stroke-width: 0.8; stroke-linejoin: miter; stroke-linecap: square"/>
   </g>
   <g id="patch_5">
    <path d="M 57.6 307.584 
L 414.72 307.584 
" style="fill: none; stroke: #000000; stroke-width: 0.8; stroke-linejoin: miter; stroke-linecap: square"/>
   </g>
   <g id="patch_6">
    <path d="M 57.6 41.472 
L 414.72 41.472 
" style="fill: none; stroke: #000000; stroke-width: 0.8; stroke-linejoin: miter; stroke-linecap: square"/>
   </g>
   <g id="legend_1">
    <g id="patch_7">
     <path d="M 64.6 93.906375 
L 210.795312 93.906375 
Q 212.795312 93.906375 212.795312 91.906375 
L 212.795312 48.472 
Q 212.795312 46.472 210.795312 46.472 
L 64.6 46.472 
Q 62.6 46.472 62.6 48.472 
L 62.6 91.906375 
Q 62.6 93.906375 64.6 93.906375 
z
" style="fill: #ffffff; opacity: 0.8; stroke: #cccccc; stroke-linejoin: miter"/>
    </g>
    <g id="line2d_59">
     <path d="M 66.6 54.570437 
L 76.6 54.570437 
L 86.6 54.570437 
" style="fill: none; stroke: #0000ff; stroke-width: 1.5; stroke-linecap: square"/>
    </g>
    <g id="text_21">
     <!-- Původní funkce -->
     <g transform="translate(94.6 58.070437)scale(0.1 -0.1)">
      <defs>
       <path id="DejaVuSans-50" d="M 1259 4147 
L 1259 2394 
L 2053 2394 
Q 2494 2394 2734 2622 
Q 2975 2850 2975 3272 
Q 2975 3691 2734 3919 
Q 2494 4147 2053 4147 
L 1259 4147 
z
M 628 4666 
L 2053 4666 
Q 2838 4666 3239 4311 
Q 3641 3956 3641 3272 
Q 3641 2581 3239 2228 
Q 2838 1875 2053 1875 
L 1259 1875 
L 1259 0 
L 628 0 
L 628 4666 
z
" transform="scale(0.015625)"/>
       <path id="DejaVuSans-16f" d="M 544 1381 
L 544 3500 
L 1119 3500 
L 1119 1403 
Q 1119 906 1312 657 
Q 1506 409 1894 409 
Q 2359 409 2629 706 
Q 2900 1003 2900 1516 
L 2900 3500 
L 3475 3500 
L 3475 0 
L 2900 0 
L 2900 538 
Q 2691 219 2414 64 
Q 2138 -91 1772 -91 
Q 1169 -91 856 284 
Q 544 659 544 1381 
z
M 1991 3584 
L 1991 3584 
z
M 2463 4575 
Q 2463 4771 2325 4908 
Q 2188 5046 1988 5046 
Q 1784 5046 1648 4910 
Q 1513 4775 1513 4575 
Q 1513 4371 1648 4235 
Q 1784 4100 1988 4100 
Q 2188 4100 2325 4237 
Q 2463 4375 2463 4575 
z
M 2844 4575 
Q 2844 4215 2595 3965 
Q 2347 3715 1988 3715 
Q 1628 3715 1379 3965 
Q 1131 4215 1131 4575 
Q 1131 4934 1379 5182 
Q 1628 5431 1988 5431 
Q 2347 5431 2595 5182 
Q 2844 4934 2844 4575 
z
" transform="scale(0.015625)"/>
       <path id="DejaVuSans-76" d="M 191 3500 
L 800 3500 
L 1894 563 
L 2988 3500 
L 3597 3500 
L 2284 0 
L 1503 0 
L 191 3500 
z
" transform="scale(0.015625)"/>
       <path id="DejaVuSans-6f" d="M 1959 3097 
Q 1497 3097 1228 2736 
Q 959 2375 959 1747 
Q 959 1119 1226 758 
Q 1494 397 1959 397 
Q 2419 397 2687 759 
Q 2956 1122 2956 1747 
Q 2956 2369 2687 2733 
Q 2419 3097 1959 3097 
z
M 1959 3584 
Q 2709 3584 3137 3096 
Q 3566 2609 3566 1747 
Q 3566 888 3137 398 
Q 2709 -91 1959 -91 
Q 1206 -91 779 398 
Q 353 888 353 1747 
Q 353 2609 779 3096 
Q 1206 3584 1959 3584 
z
" transform="scale(0.015625)"/>
       <path id="DejaVuSans-64" d="M 2906 2969 
L 2906 4863 
L 3481 4863 
L 3481 0 
L 2906 0 
L 2906 525 
Q 2725 213 2448 61 
Q 2172 -91 1784 -91 
Q 1150 -91 751 415 
Q 353 922 353 1747 
Q 353 2572 751 3078 
Q 1150 3584 1784 3584 
Q 2172 3584 2448 3432 
Q 2725 3281 2906 2969 
z
M 947 1747 
Q 947 1113 1208 752 
Q 1469 391 1925 391 
Q 2381 391 2643 752 
Q 2906 1113 2906 1747 
Q 2906 2381 2643 2742 
Q 2381 3103 1925 3103 
Q 1469 3103 1208 2742 
Q 947 2381 947 1747 
z
" transform="scale(0.015625)"/>
       <path id="DejaVuSans-6e" d="M 3513 2113 
L 3513 0 
L 2938 0 
L 2938 2094 
Q 2938 2591 2744 2837 
Q 2550 3084 2163 3084 
Q 1697 3084 1428 2787 
Q 1159 2491 1159 1978 
L 1159 0 
L 581 0 
L 581 3500 
L 1159 3500 
L 1159 2956 
Q 1366 3272 1645 3428 
Q 1925 3584 2291 3584 
Q 2894 3584 3203 3211 
Q 3513 2838 3513 2113 
z
" transform="scale(0.015625)"/>
       <path id="DejaVuSans-ed" d="M 1325 5119 
L 1947 5119 
L 928 3944 
L 450 3944 
L 1325 5119 
z
M 603 3500 
L 1178 3500 
L 1178 0 
L 603 0 
L 603 3500 
z
M 891 3584 
L 891 3584 
z
" transform="scale(0.015625)"/>
       <path id="DejaVuSans-20" transform="scale(0.015625)"/>
       <path id="DejaVuSans-66" d="M 2375 4863 
L 2375 4384 
L 1825 4384 
Q 1516 4384 1395 4259 
Q 1275 4134 1275 3809 
L 1275 3500 
L 2222 3500 
L 2222 3053 
L 1275 3053 
L 1275 0 
L 697 0 
L 697 3053 
L 147 3053 
L 147 3500 
L 697 3500 
L 697 3744 
Q 697 4328 969 4595 
Q 1241 4863 1831 4863 
L 2375 4863 
z
" transform="scale(0.015625)"/>
       <path id="DejaVuSans-75" d="M 544 1381 
L 544 3500 
L 1119 3500 
L 1119 1403 
Q 1119 906 1312 657 
Q 1506 409 1894 409 
Q 2359 409 2629 706 
Q 2900 1003 2900 1516 
L 2900 3500 
L 3475 3500 
L 3475 0 
L 2900 0 
L 2900 538 
Q 2691 219 2414 64 
Q 2138 -91 1772 -91 
Q 1169 -91 856 284 
Q 544 659 544 1381 
z
M 1991 3584 
L 1991 3584 
z
" transform="scale(0.015625)"/>
       <path id="DejaVuSans-6b" d="M 581 4863 
L 1159 4863 
L 1159 1991 
L 2875 3500 
L 3609 3500 
L 1753 1863 
L 3688 0 
L 2938 0 
L 1159 1709 
L 1159 0 
L 581 0 
L 581 4863 
z
" transform="scale(0.015625)"/>
       <path id="DejaVuSans-63" d="M 3122 3366 
L 3122 2828 
Q 2878 2963 2633 3030 
Q 2388 3097 2138 3097 
Q 1578 3097 1268 2742 
Q 959 2388 959 1747 
Q 959 1106 1268 751 
Q 1578 397 2138 397 
Q 2388 397 2633 464 
Q 2878 531 3122 666 
L 3122 134 
Q 2881 22 2623 -34 
Q 2366 -91 2075 -91 
Q 1284 -91 818 406 
Q 353 903 353 1747 
Q 353 2603 823 3093 
Q 1294 3584 2113 3584 
Q 2378 3584 2631 3529 
Q 2884 3475 3122 3366 
z
" transform="scale(0.015625)"/>
       <path id="DejaVuSans-65" d="M 3597 1894 
L 3597 1613 
L 953 1613 
Q 991 1019 1311 708 
Q 1631 397 2203 397 
Q 2534 397 2845 478 
Q 3156 559 3463 722 
L 3463 178 
Q 3153 47 2828 -22 
Q 2503 -91 2169 -91 
Q 1331 -91 842 396 
Q 353 884 353 1716 
Q 353 2575 817 3079 
Q 1281 3584 2069 3584 
Q 2775 3584 3186 3129 
Q 3597 2675 3597 1894 
z
M 3022 2063 
Q 3016 2534 2758 2815 
Q 2500 3097 2075 3097 
Q 1594 3097 1305 2825 
Q 1016 2553 972 2059 
L 3022 2063 
z
" transform="scale(0.015625)"/>
      </defs>
      <use xlink:href="#DejaVuSans-50"/>
      <use xlink:href="#DejaVuSans-16f" x="58.552734"/>
      <use xlink:href="#DejaVuSans-76" x="121.931641"/>
      <use xlink:href="#DejaVuSans-6f" x="181.111328"/>
      <use xlink:href="#DejaVuSans-64" x="242.292969"/>
      <use xlink:href="#DejaVuSans-6e" x="305.769531"/>
      <use xlink:href="#DejaVuSans-ed" x="369.148438"/>
      <use xlink:href="#DejaVuSans-20" x="396.931641"/>
      <use xlink:href="#DejaVuSans-66" x="428.71875"/>
      <use xlink:href="#DejaVuSans-75" x="463.923828"/>
      <use xlink:href="#DejaVuSans-6e" x="527.302734"/>
      <use xlink:href="#DejaVuSans-6b" x="590.681641"/>
      <use xlink:href="#DejaVuSans-63" x="648.591797"/>
      <use xlink:href="#DejaVuSans-65" x="703.572266"/>
     </g>
    </g>
    <g id="PathCollection_2">
     <g>
      <use xlink:href="#m94f99cdcd3" x="76.6" y="70.523562" style="fill: #228b22; stroke: #228b22"/>
     </g>
    </g>
    <g id="text_22">
     <!-- Střední hodnoty buněk -->
     <g transform="translate(94.6 73.148562)scale(0.1 -0.1)">
      <defs>
       <path id="DejaVuSans-53" d="M 3425 4513 
L 3425 3897 
Q 3066 4069 2747 4153 
Q 2428 4238 2131 4238 
Q 1616 4238 1336 4038 
Q 1056 3838 1056 3469 
Q 1056 3159 1242 3001 
Q 1428 2844 1947 2747 
L 2328 2669 
Q 3034 2534 3370 2195 
Q 3706 1856 3706 1288 
Q 3706 609 3251 259 
Q 2797 -91 1919 -91 
Q 1588 -91 1214 -16 
Q 841 59 441 206 
L 441 856 
Q 825 641 1194 531 
Q 1563 422 1919 422 
Q 2459 422 2753 634 
Q 3047 847 3047 1241 
Q 3047 1584 2836 1778 
Q 2625 1972 2144 2069 
L 1759 2144 
Q 1053 2284 737 2584 
Q 422 2884 422 3419 
Q 422 4038 858 4394 
Q 1294 4750 2059 4750 
Q 2388 4750 2728 4690 
Q 3069 4631 3425 4513 
z
" transform="scale(0.015625)"/>
       <path id="DejaVuSans-74" d="M 1172 4494 
L 1172 3500 
L 2356 3500 
L 2356 3053 
L 1172 3053 
L 1172 1153 
Q 1172 725 1289 603 
Q 1406 481 1766 481 
L 2356 481 
L 2356 0 
L 1766 0 
Q 1100 0 847 248 
Q 594 497 594 1153 
L 594 3053 
L 172 3053 
L 172 3500 
L 594 3500 
L 594 4494 
L 1172 4494 
z
" transform="scale(0.015625)"/>
       <path id="DejaVuSans-159" d="M 2631 2963 
Q 2534 3019 2420 3045 
Q 2306 3072 2169 3072 
Q 1681 3072 1420 2755 
Q 1159 2438 1159 1844 
L 1159 0 
L 581 0 
L 581 3500 
L 1159 3500 
L 1159 2956 
Q 1341 3275 1631 3429 
Q 1922 3584 2338 3584 
Q 2397 3584 2469 3576 
Q 2541 3569 2628 3553 
L 2631 2963 
z
M 1453 3944 
L 688 5119 
L 1122 5119 
L 1684 4353 
L 2247 5119 
L 2681 5119 
L 1916 3944 
L 1453 3944 
z
" transform="scale(0.015625)"/>
       <path id="DejaVuSans-68" d="M 3513 2113 
L 3513 0 
L 2938 0 
L 2938 2094 
Q 2938 2591 2744 2837 
Q 2550 3084 2163 3084 
Q 1697 3084 1428 2787 
Q 1159 2491 1159 1978 
L 1159 0 
L 581 0 
L 581 4863 
L 1159 4863 
L 1159 2956 
Q 1366 3272 1645 3428 
Q 1925 3584 2291 3584 
Q 2894 3584 3203 3211 
Q 3513 2838 3513 2113 
z
" transform="scale(0.015625)"/>
       <path id="DejaVuSans-79" d="M 2059 -325 
Q 1816 -950 1584 -1140 
Q 1353 -1331 966 -1331 
L 506 -1331 
L 506 -850 
L 844 -850 
Q 1081 -850 1212 -737 
Q 1344 -625 1503 -206 
L 1606 56 
L 191 3500 
L 800 3500 
L 1894 763 
L 2988 3500 
L 3597 3500 
L 2059 -325 
z
" transform="scale(0.015625)"/>
       <path id="DejaVuSans-62" d="M 3116 1747 
Q 3116 2381 2855 2742 
Q 2594 3103 2138 3103 
Q 1681 3103 1420 2742 
Q 1159 2381 1159 1747 
Q 1159 1113 1420 752 
Q 1681 391 2138 391 
Q 2594 391 2855 752 
Q 3116 1113 3116 1747 
z
M 1159 2969 
Q 1341 3281 1617 3432 
Q 1894 3584 2278 3584 
Q 2916 3584 3314 3078 
Q 3713 2572 3713 1747 
Q 3713 922 3314 415 
Q 2916 -91 2278 -91 
Q 1894 -91 1617 61 
Q 1341 213 1159 525 
L 1159 0 
L 581 0 
L 581 4863 
L 1159 4863 
L 1159 2969 
z
" transform="scale(0.015625)"/>
       <path id="DejaVuSans-11b" d="M 3597 1894 
L 3597 1613 
L 953 1613 
Q 991 1019 1311 708 
Q 1631 397 2203 397 
Q 2534 397 2845 478 
Q 3156 559 3463 722 
L 3463 178 
Q 3153 47 2828 -22 
Q 2503 -91 2169 -91 
Q 1331 -91 842 396 
Q 353 884 353 1716 
Q 353 2575 817 3079 
Q 1281 3584 2069 3584 
Q 2775 3584 3186 3129 
Q 3597 2675 3597 1894 
z
M 3022 2063 
Q 3016 2534 2758 2815 
Q 2500 3097 2075 3097 
Q 1594 3097 1305 2825 
Q 1016 2553 972 2059 
L 3022 2063 
z
M 1831 3928 
L 1066 5103 
L 1500 5103 
L 2063 4337 
L 2625 5103 
L 3059 5103 
L 2294 3928 
L 1831 3928 
z
" transform="scale(0.015625)"/>
      </defs>
      <use xlink:href="#DejaVuSans-53"/>
      <use xlink:href="#DejaVuSans-74" x="63.476562"/>
      <use xlink:href="#DejaVuSans-159" x="102.685547"/>
      <use xlink:href="#DejaVuSans-65" x="141.548828"/>
      <use xlink:href="#DejaVuSans-64" x="203.072266"/>
      <use xlink:href="#DejaVuSans-6e" x="266.548828"/>
      <use xlink:href="#DejaVuSans-ed" x="329.927734"/>
      <use xlink:href="#DejaVuSans-20" x="357.710938"/>
      <use xlink:href="#DejaVuSans-68" x="389.498047"/>
      <use xlink:href="#DejaVuSans-6f" x="452.876953"/>
      <use xlink:href="#DejaVuSans-64" x="514.058594"/>
      <use xlink:href="#DejaVuSans-6e" x="577.535156"/>
      <use xlink:href="#DejaVuSans-6f" x="640.914062"/>
      <use xlink:href="#DejaVuSans-74" x="702.095703"/>
      <use xlink:href="#DejaVuSans-79" x="741.304688"/>
      <use xlink:href="#DejaVuSans-20" x="800.484375"/>
      <use xlink:href="#DejaVuSans-62" x="832.271484"/>
      <use xlink:href="#DejaVuSans-75" x="895.748047"/>
      <use xlink:href="#DejaVuSans-6e" x="959.126953"/>
      <use xlink:href="#DejaVuSans-11b" x="1022.505859"/>
      <use xlink:href="#DejaVuSans-6b" x="1084.029297"/>
     </g>
    </g>
    <g id="line2d_60">
     <path d="M 66.6 84.326687 
L 76.6 84.326687 
L 86.6 84.326687 
" style="fill: none; stroke: #008000; stroke-width: 1.5; stroke-linecap: square"/>
    </g>
    <g id="text_23">
     <!-- Rekonstrukce -->
     <g transform="translate(94.6 87.826687)scale(0.1 -0.1)">
      <defs>
       <path id="DejaVuSans-52" d="M 2841 2188 
Q 3044 2119 3236 1894 
Q 3428 1669 3622 1275 
L 4263 0 
L 3584 0 
L 2988 1197 
Q 2756 1666 2539 1819 
Q 2322 1972 1947 1972 
L 1259 1972 
L 1259 0 
L 628 0 
L 628 4666 
L 2053 4666 
Q 2853 4666 3247 4331 
Q 3641 3997 3641 3322 
Q 3641 2881 3436 2590 
Q 3231 2300 2841 2188 
z
M 1259 4147 
L 1259 2491 
L 2053 2491 
Q 2509 2491 2742 2702 
Q 2975 2913 2975 3322 
Q 2975 3731 2742 3939 
Q 2509 4147 2053 4147 
L 1259 4147 
z
" transform="scale(0.015625)"/>
       <path id="DejaVuSans-73" d="M 2834 3397 
L 2834 2853 
Q 2591 2978 2328 3040 
Q 2066 3103 1784 3103 
Q 1356 3103 1142 2972 
Q 928 2841 928 2578 
Q 928 2378 1081 2264 
Q 1234 2150 1697 2047 
L 1894 2003 
Q 2506 1872 2764 1633 
Q 3022 1394 3022 966 
Q 3022 478 2636 193 
Q 2250 -91 1575 -91 
Q 1294 -91 989 -36 
Q 684 19 347 128 
L 347 722 
Q 666 556 975 473 
Q 1284 391 1588 391 
Q 1994 391 2212 530 
Q 2431 669 2431 922 
Q 2431 1156 2273 1281 
Q 2116 1406 1581 1522 
L 1381 1569 
Q 847 1681 609 1914 
Q 372 2147 372 2553 
Q 372 3047 722 3315 
Q 1072 3584 1716 3584 
Q 2034 3584 2315 3537 
Q 2597 3491 2834 3397 
z
" transform="scale(0.015625)"/>
       <path id="DejaVuSans-72" d="M 2631 2963 
Q 2534 3019 2420 3045 
Q 2306 3072 2169 3072 
Q 1681 3072 1420 2755 
Q 1159 2438 1159 1844 
L 1159 0 
L 581 0 
L 581 3500 
L 1159 3500 
L 1159 2956 
Q 1341 3275 1631 3429 
Q 1922 3584 2338 3584 
Q 2397 3584 2469 3576 
Q 2541 3569 2628 3553 
L 2631 2963 
z
" transform="scale(0.015625)"/>
      </defs>
      <use xlink:href="#DejaVuSans-52"/>
      <use xlink:href="#DejaVuSans-65" x="64.982422"/>
      <use xlink:href="#DejaVuSans-6b" x="126.505859"/>
      <use xlink:href="#DejaVuSans-6f" x="180.791016"/>
      <use xlink:href="#DejaVuSans-6e" x="241.972656"/>
      <use xlink:href="#DejaVuSans-73" x="305.351562"/>
      <use xlink:href="#DejaVuSans-74" x="357.451172"/>
      <use xlink:href="#DejaVuSans-72" x="396.660156"/>
      <use xlink:href="#DejaVuSans-75" x="437.773438"/>
      <use xlink:href="#DejaVuSans-6b" x="501.152344"/>
      <use xlink:href="#DejaVuSans-63" x="559.0625"/>
      <use xlink:href="#DejaVuSans-65" x="614.042969"/>
     </g>
    </g>
   </g>
  </g>
 </g>
 <defs>
  <clipPath id="p2eff1937ee">
   <rect x="57.6" y="41.472" width="357.12" height="266.112"/>
  </clipPath>
 </defs>
</svg>
