\BOOKMARK [1][-]{section.1}{\376\377\000A\000L\000E\000\040\000m\000e\000t\000o\000d\000y}{}% 1
\BOOKMARK [2][-]{subsection.1.1}{\376\377\000S\000\355\001\145\000k\000a}{section.1}% 2
\BOOKMARK [1][-]{section.2}{\376\377\000L\000a\000g\000r\000a\000n\000g\000e\000o\000v\000s\000k\000\375\000\040\000k\000r\000o\000k}{}% 3
\BOOKMARK [1][-]{section.3}{\376\377\000E\000u\000l\000e\000r\000o\000v\000s\000k\000\375\000\040\000k\000r\000o\000k}{}% 4
\BOOKMARK [2][-]{subsection.3.1}{\376\377\000R\000e\000m\000a\000p}{section.3}% 5
\BOOKMARK [3][-]{subsubsection.3.1.1}{\376\377\000M\000u\000l\000t\000i\000m\000a\000t\000e\000r\000i\000\341\000l\000o\000v\000\375\000\040\000r\000e\000m\000a\000p}{subsection.3.1}% 6
\BOOKMARK [2][-]{subsection.3.2}{\376\377\000R\000e\000k\000o\000n\000s\000t\000r\000u\000k\000c\000e}{section.3}% 7
\BOOKMARK [3][-]{subsubsection.3.2.1}{\376\377\000K\000o\000n\000s\000t\000a\000n\000t\000n\000\355\000\040\000r\000e\000k\000o\000n\000s\000t\000r\000u\000k\000c\000e}{subsection.3.2}% 8
\BOOKMARK [3][-]{subsubsection.3.2.2}{\376\377\000L\000i\000n\000e\000\341\000r\000n\000\355\000\040\000r\000e\000k\000o\000n\000s\000t\000r\000u\000k\000c\000e}{subsection.3.2}% 9
\BOOKMARK [3][-]{subsubsection.3.2.3}{\376\377\000L\000i\000n\000e\000\341\000r\000n\000\355\000\040\000r\000e\000k\000o\000n\000s\000t\000r\000u\000k\000c\000e\000\040\000s\000\040\000l\000i\000m\000i\000t\000e\000r\000e\000m}{subsection.3.2}% 10
\BOOKMARK [3][-]{subsubsection.3.2.4}{\376\377\000P\000o\000l\000y\000n\000o\000m\000i\000\341\000l\000n\000\355\000\040\000r\000e\000k\000o\000n\000s\000t\000r\000u\000k\000c\000e}{subsection.3.2}% 11
\BOOKMARK [3][-]{subsubsection.3.2.5}{\376\377\000T\000H\000I\000N\000C\000\040\000r\000e\000k\000o\000n\000s\000t\000r\000u\000k\000c\000e}{subsection.3.2}% 12
\BOOKMARK [3][-]{subsubsection.3.2.6}{\376\377\000S\000k\000o\000k\000o\000v\000\341\000\040\000r\000e\000k\000o\000n\000s\000t\000r\000u\000k\000c\000e}{subsection.3.2}% 13
\BOOKMARK [3][-]{subsubsection.3.2.7}{\376\377\000R\000e\000k\000o\000n\000s\000t\000r\000u\000k\000c\000e\000\040\000v\000\040\000o\000k\000o\000l\000\355\000\040\000n\000e\000s\000p\000o\000j\000i\000t\000o\000s\000t\000i}{subsection.3.2}% 14
\BOOKMARK [2][-]{subsection.3.3}{\376\377\000R\000e\000z\000o\000n\000e}{section.3}% 15
\BOOKMARK [1][-]{section.4}{\376\377\000I\000m\000p\000l\000e\000m\000e\000n\000t\000a\000c\000e}{}% 16
\BOOKMARK [2][-]{subsection.4.1}{\376\377\000P\000y\000t\000h\000o\000n}{section.4}% 17
\BOOKMARK [3][-]{subsubsection.4.1.1}{\376\377\000P\000r\000o\000b\000l\000\351\000m\000y}{subsection.4.1}% 18
\BOOKMARK [2][-]{subsection.4.2}{\376\377\000T\000e\000s\000t\000y}{section.4}% 19
\BOOKMARK [1][-]{section.5}{\376\377\000V\000\375\000s\000l\000e\000d\000k\000y}{}% 20
\BOOKMARK [2][-]{subsection.5.1}{\376\377\000J\000e\000d\000n\000o\000-\000m\000a\000t\000e\000r\000i\000\341\000l\000o\000v\000\375\000\040\000r\000e\000m\000a\000p}{section.5}% 21
\BOOKMARK [2][-]{subsection.5.2}{\376\377\000M\000u\000l\000t\000i\000-\000m\000a\000t\000e\000r\000i\000\341\000l\000o\000v\000\375\000\040\000r\000e\000m\000a\000p}{section.5}% 22
\BOOKMARK [2][-]{subsection.5.3}{\376\377\000P\000o\000u\001\176\000i\000t\000\355\000\040\000v\000\040\000A\000L\000E\000\040\000k\000\363\000d\000u}{section.5}% 23
