\relax 
\providecommand\hyper@newdestlabel[2]{}
\providecommand\HyperFirstAtBeginDocument{\AtBeginDocument}
\HyperFirstAtBeginDocument{\ifx\hyper@anchor\@undefined
\global\let\oldnewlabel\newlabel
\gdef\newlabel#1#2{\newlabelxx{#1}#2}
\gdef\newlabelxx#1#2#3#4#5#6{\oldnewlabel{#1}{{#2}{#3}}}
\AtEndDocument{\ifx\hyper@anchor\@undefined
\let\newlabel\oldnewlabel
\fi}
\fi}
\global\let\hyper@last\relax 
\gdef\HyperFirstAtBeginDocument#1{#1}
\providecommand\HyField@AuxAddToFields[1]{}
\providecommand\HyField@AuxAddToCoFields[2]{}
\@writefile{toc}{\contentsline {section}{\numberline {1}ALE metody}{1}{section.1}\protected@file@percent }
\@writefile{toc}{\contentsline {subsection}{\numberline {1.1}Síťka}{1}{subsection.1.1}\protected@file@percent }
\newlabel{eq:center_of_cell}{{1}{1}{Síťka}{equation.1.1}{}}
\newlabel{eq:volume_of_cell}{{2}{1}{Síťka}{equation.1.2}{}}
\@writefile{lof}{\contentsline {figure}{\numberline {1}{\ignorespaces Ilustrace značení v buňce $i$\relax }}{1}{figure.caption.1}\protected@file@percent }
\providecommand*\caption@xref[2]{\@setref\relax\@undefined{#1}}
\newlabel{bun:ilustrace}{{1}{1}{Ilustrace značení v buňce $i$\relax }{figure.caption.1}{}}
\@writefile{toc}{\contentsline {section}{\numberline {2}Lagrangeovský krok}{1}{section.2}\protected@file@percent }
\@writefile{toc}{\contentsline {section}{\numberline {3}Eulerovský krok}{1}{section.3}\protected@file@percent }
\@writefile{toc}{\contentsline {subsection}{\numberline {3.1}Remap}{1}{subsection.3.1}\protected@file@percent }
\newlabel{eq:konzervativita-bunka}{{3}{2}{Remap}{equation.3.3}{}}
\@writefile{tdo}{\contentsline {todo}{co za veliciny remapujeme}{2}{section*.2}\protected@file@percent }
\pgfsyspdfmark {pgfid1}{16523185}{32283956}
\pgfsyspdfmark {pgfid4}{34243870}{32296244}
\pgfsyspdfmark {pgfid5}{36357406}{32072330}
\@writefile{toc}{\contentsline {subsubsection}{\numberline {3.1.1}Multimateriálový remap}{2}{subsubsection.3.1.1}\protected@file@percent }
\@writefile{tdo}{\contentsline {todo}{dodelat}{2}{section*.3}\protected@file@percent }
\pgfsyspdfmark {pgfid6}{8799518}{14044918}
\pgfsyspdfmark {pgfid9}{34243870}{14057206}
\pgfsyspdfmark {pgfid10}{36357406}{13833292}
\@writefile{toc}{\contentsline {subsection}{\numberline {3.2}Rekonstrukce}{2}{subsection.3.2}\protected@file@percent }
\@writefile{tdo}{\contentsline {todo}{u každé obrázek jak vypadá}{2}{section*.4}\protected@file@percent }
\pgfsyspdfmark {pgfid11}{8799518}{11787116}
\pgfsyspdfmark {pgfid14}{34243870}{11799404}
\pgfsyspdfmark {pgfid15}{36357406}{11575490}
\@writefile{tdo}{\contentsline {todo}{zdroj + mozna zmin jine zpusoby}{2}{section*.5}\protected@file@percent }
\pgfsyspdfmark {pgfid16}{10609422}{8641388}
\pgfsyspdfmark {pgfid19}{34243870}{8653676}
\pgfsyspdfmark {pgfid20}{36357406}{8429762}
\citation{Diot_Clain_Loubere_2012}
\@writefile{tdo}{\contentsline {todo}{Zmin zdi}{3}{section*.6}\protected@file@percent }
\pgfsyspdfmark {pgfid21}{8799518}{41086429}
\pgfsyspdfmark {pgfid24}{34243870}{41098717}
\pgfsyspdfmark {pgfid25}{36357406}{40874803}
\@writefile{toc}{\contentsline {subsubsection}{\numberline {3.2.1}Konstantní rekonstrukce}{3}{subsubsection.3.2.1}\protected@file@percent }
\@writefile{lof}{\contentsline {figure}{\numberline {2}{\ignorespaces Konstantní rekonstrukce\relax }}{3}{figure.caption.7}\protected@file@percent }
\newlabel{rek:konstantní}{{2}{3}{Konstantní rekonstrukce\relax }{figure.caption.7}{}}
\@writefile{toc}{\contentsline {subsubsection}{\numberline {3.2.2}Lineární rekonstrukce}{3}{subsubsection.3.2.2}\protected@file@percent }
\newlabel{eq:linearrec}{{6}{3}{Lineární rekonstrukce}{equation.3.6}{}}
\citation{vilar_high-order_2012}
\citation{Michalak_Gooch_2008}
\citation{Barth_Jespersen_1989}
\citation{Venkatakrishnan_1993}
\newlabel{eq:linearfunccionalminimized}{{9}{4}{Lineární rekonstrukce}{equation.3.9}{}}
\@writefile{tdo}{\contentsline {todo}{najít důkaz že je to přesné pro lin funkce, pokud nenajdu tak se o tom zmínit}{4}{section*.8}\protected@file@percent }
\pgfsyspdfmark {pgfid26}{8799518}{11276716}
\pgfsyspdfmark {pgfid29}{34243870}{11289004}
\pgfsyspdfmark {pgfid30}{36357406}{11065090}
\citation{Diot_Clain_Loubere_2012}
\newlabel{rek:linA}{{3a}{5}{Lineární rekonstrukce\relax }{figure.caption.9}{}}
\newlabel{sub@rek:linA}{{a}{5}{Lineární rekonstrukce\relax }{figure.caption.9}{}}
\newlabel{rek:linextrem}{{3b}{5}{Vznikání nových extrémů\relax }{figure.caption.9}{}}
\newlabel{sub@rek:linextrem}{{b}{5}{Vznikání nových extrémů\relax }{figure.caption.9}{}}
\@writefile{lof}{\contentsline {figure}{\numberline {3}{\ignorespaces Lineární rekonstrukce\relax }}{5}{figure.caption.9}\protected@file@percent }
\newlabel{rek:Lineární}{{3}{5}{Lineární rekonstrukce\relax }{figure.caption.9}{}}
\@writefile{toc}{\contentsline {subsubsection}{\numberline {3.2.3}Lineární rekonstrukce s limiterem}{5}{subsubsection.3.2.3}\protected@file@percent }
\@writefile{tdo}{\contentsline {todo}{dodelat}{5}{section*.10}\protected@file@percent }
\pgfsyspdfmark {pgfid31}{11422784}{35223689}
\pgfsyspdfmark {pgfid34}{34243870}{35235977}
\pgfsyspdfmark {pgfid35}{36357406}{35012063}
\newlabel{rek:limitedrek}{{4a}{5}{Lineární rekonstrukce s BJ limiterem\relax }{figure.caption.11}{}}
\newlabel{sub@rek:limitedrek}{{a}{5}{Lineární rekonstrukce s BJ limiterem\relax }{figure.caption.11}{}}
\newlabel{rek:Barth_Jespersen_1989}{{4b}{5}{Barth Jespersenový \\limiter\relax }{figure.caption.11}{}}
\newlabel{sub@rek:Barth_Jespersen_1989}{{b}{5}{Barth Jespersenový \\limiter\relax }{figure.caption.11}{}}
\newlabel{rek:Venkatakrishnanův}{{4c}{5}{Venkatakrishnanův \\ limiter\relax }{figure.caption.11}{}}
\newlabel{sub@rek:Venkatakrishnanův}{{c}{5}{Venkatakrishnanův \\ limiter\relax }{figure.caption.11}{}}
\@writefile{lof}{\contentsline {figure}{\numberline {4}{\ignorespaces \relax }}{5}{figure.caption.11}\protected@file@percent }
\newlabel{rek:porovnanilimiter}{{4}{5}{\relax }{figure.caption.11}{}}
\@writefile{toc}{\contentsline {subsubsection}{\numberline {3.2.4}Polynomiální rekonstrukce}{5}{subsubsection.3.2.4}\protected@file@percent }
\newlabel{eg:polynomial_reconstruction}{{10}{5}{Polynomiální rekonstrukce}{equation.3.10}{}}
\citation{abgrall_essentially_1994}
\citation{friedrich_weighted_1998}
\citation{barth_higher_1990}
\citation{gooch__quasi_eno_1997}
\citation{kucharik_high-accurate_2020}
\citation{shyue_eulerian_2014}
\@writefile{tdo}{\contentsline {todo}{odvodit?, doplnit}{6}{section*.12}\protected@file@percent }
\pgfsyspdfmark {pgfid36}{24558226}{28694654}
\pgfsyspdfmark {pgfid39}{34243870}{28706942}
\pgfsyspdfmark {pgfid40}{36357406}{28483028}
\newlabel{rek:polynomialexample}{{5a}{6}{Ukázka rekonstrukce\relax }{figure.caption.13}{}}
\newlabel{sub@rek:polynomialexample}{{a}{6}{Ukázka rekonstrukce\relax }{figure.caption.13}{}}
\newlabel{rek:polynomialnespojitost}{{5b}{6}{Problém na nespojitosti\relax }{figure.caption.13}{}}
\newlabel{sub@rek:polynomialnespojitost}{{b}{6}{Problém na nespojitosti\relax }{figure.caption.13}{}}
\@writefile{lof}{\contentsline {figure}{\numberline {5}{\ignorespaces Polynomiální rekonstrukce\relax }}{6}{figure.caption.13}\protected@file@percent }
\newlabel{rek:polynomial}{{5}{6}{Polynomiální rekonstrukce\relax }{figure.caption.13}{}}
\@writefile{toc}{\contentsline {subsubsection}{\numberline {3.2.5}THINC rekonstrukce}{6}{subsubsection.3.2.5}\protected@file@percent }
\newlabel{eq:THINCdefinition}{{14}{6}{THINC rekonstrukce}{equation.3.14}{}}
\citation{shyue_eulerian_2014}
\@writefile{tdo}{\contentsline {todo}{srovnání ve výsledcích}{7}{section*.14}\protected@file@percent }
\pgfsyspdfmark {pgfid41}{11678306}{33238698}
\pgfsyspdfmark {pgfid44}{34243870}{33250986}
\pgfsyspdfmark {pgfid45}{36357406}{33027072}
\@writefile{tdo}{\contentsline {todo}{rewrite}{7}{section*.15}\protected@file@percent }
\pgfsyspdfmark {pgfid46}{11260764}{20161066}
\pgfsyspdfmark {pgfid49}{34243870}{20173354}
\pgfsyspdfmark {pgfid50}{36357406}{19949440}
\newlabel{rek:THINC_B1}{{6a}{7}{$\beta =1$\relax }{figure.caption.16}{}}
\newlabel{sub@rek:THINC_B1}{{a}{7}{$\beta =1$\relax }{figure.caption.16}{}}
\newlabel{rek:THINC_B5}{{6b}{7}{$\beta =5$\relax }{figure.caption.16}{}}
\newlabel{sub@rek:THINC_B5}{{b}{7}{$\beta =5$\relax }{figure.caption.16}{}}
\newlabel{rek:THINC_B10}{{6c}{7}{$\beta =10$\relax }{figure.caption.16}{}}
\newlabel{sub@rek:THINC_B10}{{c}{7}{$\beta =10$\relax }{figure.caption.16}{}}
\@writefile{lof}{\contentsline {figure}{\numberline {6}{\ignorespaces Porovnání THINC rekonstrukce pro různá $\beta $\relax }}{7}{figure.caption.16}\protected@file@percent }
\newlabel{rek:porovnaniTHINC}{{6}{7}{Porovnání THINC rekonstrukce pro různá $\beta $\relax }{figure.caption.16}{}}
\@writefile{toc}{\contentsline {subsubsection}{\numberline {3.2.6}Skoková rekonstrukce}{7}{subsubsection.3.2.6}\protected@file@percent }
\newlabel{eq:JUMP-reconstruction}{{18}{8}{Skoková rekonstrukce}{equation.3.18}{}}
\@writefile{tdo}{\contentsline {todo}{přepočítat}{8}{section*.17}\protected@file@percent }
\pgfsyspdfmark {pgfid51}{8799518}{12356327}
\pgfsyspdfmark {pgfid54}{34243870}{12368615}
\pgfsyspdfmark {pgfid55}{36357406}{12144701}
\@writefile{toc}{\contentsline {subsubsection}{\numberline {3.2.7}Rekonstrukce v okolí nespojitosti}{9}{subsubsection.3.2.7}\protected@file@percent }
\@writefile{tdo}{\contentsline {todo}{obrazek}{9}{section*.18}\protected@file@percent }
\pgfsyspdfmark {pgfid56}{21676226}{33228055}
\pgfsyspdfmark {pgfid59}{34243870}{33240343}
\pgfsyspdfmark {pgfid60}{36357406}{33016429}
\@writefile{tdo}{\contentsline {todo}{zdroj}{9}{section*.19}\protected@file@percent }
\pgfsyspdfmark {pgfid61}{21168795}{21431575}
\pgfsyspdfmark {pgfid64}{34243870}{21443863}
\pgfsyspdfmark {pgfid65}{36357406}{21219949}
\@writefile{toc}{\contentsline {subsection}{\numberline {3.3}Rezone}{9}{subsection.3.3}\protected@file@percent }
\@writefile{toc}{\contentsline {section}{\numberline {4}Implementace}{9}{section.4}\protected@file@percent }
\@writefile{toc}{\contentsline {subsection}{\numberline {4.1}Python}{9}{subsection.4.1}\protected@file@percent }
\@writefile{toc}{\contentsline {subsubsection}{\numberline {4.1.1}Problémy}{9}{subsubsection.4.1.1}\protected@file@percent }
\@writefile{tdo}{\contentsline {todo}{Možná cython}{9}{section*.20}\protected@file@percent }
\pgfsyspdfmark {pgfid66}{8799518}{14008266}
\pgfsyspdfmark {pgfid69}{34243870}{14020554}
\pgfsyspdfmark {pgfid70}{36357406}{13796640}
\@writefile{toc}{\contentsline {subsection}{\numberline {4.2}Testy}{10}{subsection.4.2}\protected@file@percent }
\@writefile{toc}{\contentsline {section}{\numberline {5}Výsledky}{10}{section.5}\protected@file@percent }
\@writefile{toc}{\contentsline {subsection}{\numberline {5.1}Jedno-materiálový remap}{10}{subsection.5.1}\protected@file@percent }
\@writefile{toc}{\contentsline {subsection}{\numberline {5.2}Multi-materiálový remap}{10}{subsection.5.2}\protected@file@percent }
\@writefile{toc}{\contentsline {subsection}{\numberline {5.3}Použití v ALE kódu}{10}{subsection.5.3}\protected@file@percent }
\@writefile{tdo}{\contentsline {todo}{Je polynomialni rekonstrukce spojita na okrajich bunek? tj proto je presna?}{10}{section*.21}\protected@file@percent }
\pgfsyspdfmark {pgfid71}{8799518}{37171570}
\pgfsyspdfmark {pgfid74}{34243870}{37183858}
\pgfsyspdfmark {pgfid75}{36357406}{36959944}
\@writefile{tdo}{\contentsline {todo}{Použij všechny zdroje ze zadání}{10}{section*.22}\protected@file@percent }
\pgfsyspdfmark {pgfid76}{8799518}{37171570}
\pgfsyspdfmark {pgfid79}{34243870}{31070806}
\pgfsyspdfmark {pgfid80}{36357406}{30846892}
\gdef \@abspage@last{10}
