# Fdb version 3
["pdflatex"] 1690906635 "c:/Users/matej/PycharmProjects/bthesis/Latex/sections/zaver.tex" "sections/temp/zaver.pdf" "zaver" 1690906637
  "c:/Users/matej/PycharmProjects/bthesis/Latex/sections/zaver.tex" 1690906634 2241 bf4696b0f93cd9d0e3f29d41eb976cae ""
  "c:/texlive/2021/texmf-dist/fonts/map/fontname/texfonts.map" 1640628523 3524 cb3e574dea2d1052e39280babc910dc8 ""
  "c:/texlive/2021/texmf-dist/fonts/tfm/public/cm/cmbx12.tfm" 1640627445 1324 c910af8c371558dc20f2d7822f66fe64 ""
  "c:/texlive/2021/texmf-dist/fonts/tfm/public/cm/cmr12.tfm" 1640627445 1288 655e228510b4c2a1abe905c368440826 ""
  "c:/texlive/2021/texmf-dist/fonts/type1/public/amsfonts/cm/cmbx12.pfb" 1640626263 32080 340ef9bf63678554ee606688e7b5339d ""
  "c:/texlive/2021/texmf-dist/fonts/type1/public/amsfonts/cm/cmr10.pfb" 1640626263 35752 024fb6c41858982481f6968b5fc26508 ""
  "c:/texlive/2021/texmf-dist/tex/context/base/mkii/supp-pdf.mkii" 1640630090 71627 94eb9990bed73c364d7f53f960cc8c5b ""
  "c:/texlive/2021/texmf-dist/tex/generic/atbegshi/atbegshi.sty" 1640626699 24708 5584a51a7101caf7e6bbf1fc27d8f7b1 ""
  "c:/texlive/2021/texmf-dist/tex/generic/babel-czech/czech.ldf" 1640626765 15910 20b36fee6c6cdcfa90232891da7a9f34 ""
  "c:/texlive/2021/texmf-dist/tex/generic/babel/babel.sty" 1640626753 147900 18d47b4bbea226e862cd49f17ede0392 ""
  "c:/texlive/2021/texmf-dist/tex/generic/babel/txtbabel.def" 1640626753 5233 a89961f969f72563cb59411e9dc4ae8e ""
  "c:/texlive/2021/texmf-dist/tex/generic/bigintcalc/bigintcalc.sty" 1640627067 40635 c40361e206be584d448876bba8a64a3b ""
  "c:/texlive/2021/texmf-dist/tex/generic/bitset/bitset.sty" 1640627079 33961 6b5c75130e435b2bfdb9f480a09a39f9 ""
  "c:/texlive/2021/texmf-dist/tex/generic/etexcmds/etexcmds.sty" 1640628283 7734 b98cbb34c81f667027c1e3ebdbfce34b ""
  "c:/texlive/2021/texmf-dist/tex/generic/gettitlestring/gettitlestring.sty" 1640628650 8371 9d55b8bd010bc717624922fb3477d92e ""
  "c:/texlive/2021/texmf-dist/tex/generic/iftex/iftex.sty" 1640629074 6501 4011d89d9621e0b0901138815ba5ff29 ""
  "c:/texlive/2021/texmf-dist/tex/generic/infwarerr/infwarerr.sty" 1640629103 8356 7bbb2c2373aa810be568c29e333da8ed ""
  "c:/texlive/2021/texmf-dist/tex/generic/intcalc/intcalc.sty" 1640629121 31769 002a487f55041f8e805cfbf6385ffd97 ""
  "c:/texlive/2021/texmf-dist/tex/generic/kvdefinekeys/kvdefinekeys.sty" 1640629337 5412 d5a2436094cd7be85769db90f29250a6 ""
  "c:/texlive/2021/texmf-dist/tex/generic/kvsetkeys/kvsetkeys.sty" 1640629341 13807 952b0226d4efca026f0e19dd266dcc22 ""
  "c:/texlive/2021/texmf-dist/tex/generic/ltxcmds/ltxcmds.sty" 1640629702 17859 4409f8f50cd365c68e684407e5350b1b ""
  "c:/texlive/2021/texmf-dist/tex/generic/pdfescape/pdfescape.sty" 1640630485 19007 15924f7228aca6c6d184b115f4baa231 ""
  "c:/texlive/2021/texmf-dist/tex/generic/pdftexcmds/pdftexcmds.sty" 1640630513 20089 80423eac55aa175305d35b49e04fe23b ""
  "c:/texlive/2021/texmf-dist/tex/generic/pgf/basiclayer/pgfcore.code.tex" 1640630540 992 855ff26741653ab54814101ca36e153c ""
  "c:/texlive/2021/texmf-dist/tex/generic/pgf/basiclayer/pgfcorearrows.code.tex" 1640630540 43820 1fef971b75380574ab35a0d37fd92608 ""
  "c:/texlive/2021/texmf-dist/tex/generic/pgf/basiclayer/pgfcoreexternal.code.tex" 1640630540 19324 f4e4c6403dd0f1605fd20ed22fa79dea ""
  "c:/texlive/2021/texmf-dist/tex/generic/pgf/basiclayer/pgfcoregraphicstate.code.tex" 1640630540 6038 ccb406740cc3f03bbfb58ad504fe8c27 ""
  "c:/texlive/2021/texmf-dist/tex/generic/pgf/basiclayer/pgfcoreimage.code.tex" 1640630540 6944 e12f8f7a7364ddf66f93ba30fb3a3742 ""
  "c:/texlive/2021/texmf-dist/tex/generic/pgf/basiclayer/pgfcorelayers.code.tex" 1640630540 4883 42daaf41e27c3735286e23e48d2d7af9 ""
  "c:/texlive/2021/texmf-dist/tex/generic/pgf/basiclayer/pgfcoreobjects.code.tex" 1640630540 2544 8c06d2a7f0f469616ac9e13db6d2f842 ""
  "c:/texlive/2021/texmf-dist/tex/generic/pgf/basiclayer/pgfcorepathconstruct.code.tex" 1640630540 44195 5e390c414de027626ca5e2df888fa68d ""
  "c:/texlive/2021/texmf-dist/tex/generic/pgf/basiclayer/pgfcorepathprocessing.code.tex" 1640630540 17311 2ef6b2e29e2fc6a2fc8d6d652176e257 ""
  "c:/texlive/2021/texmf-dist/tex/generic/pgf/basiclayer/pgfcorepathusage.code.tex" 1640630540 21302 788a79944eb22192a4929e46963a3067 ""
  "c:/texlive/2021/texmf-dist/tex/generic/pgf/basiclayer/pgfcorepatterns.code.tex" 1640630540 9690 01feb7cde25d4293ef36eef45123eb80 ""
  "c:/texlive/2021/texmf-dist/tex/generic/pgf/basiclayer/pgfcorepoints.code.tex" 1640630540 33335 dd1fa4814d4e51f18be97d88bf0da60c ""
  "c:/texlive/2021/texmf-dist/tex/generic/pgf/basiclayer/pgfcorequick.code.tex" 1640630540 2965 4c2b1f4e0826925746439038172e5d6f ""
  "c:/texlive/2021/texmf-dist/tex/generic/pgf/basiclayer/pgfcorerdf.code.tex" 1640630540 5196 2cc249e0ee7e03da5f5f6589257b1e5b ""
  "c:/texlive/2021/texmf-dist/tex/generic/pgf/basiclayer/pgfcorescopes.code.tex" 1640630540 20726 d4c8db1e2e53b72721d29916314a22ea ""
  "c:/texlive/2021/texmf-dist/tex/generic/pgf/basiclayer/pgfcoreshade.code.tex" 1640630540 35249 abd4adf948f960299a4b3d27c5dddf46 ""
  "c:/texlive/2021/texmf-dist/tex/generic/pgf/basiclayer/pgfcoretransformations.code.tex" 1640630540 21989 fdc867d05d228316de137a9fc5ec3bbe ""
  "c:/texlive/2021/texmf-dist/tex/generic/pgf/basiclayer/pgfcoretransparency.code.tex" 1640630540 8893 e851de2175338fdf7c17f3e091d94618 ""
  "c:/texlive/2021/texmf-dist/tex/generic/pgf/frontendlayer/tikz/libraries/tikzlibraryarrows.code.tex" 1640630541 319 225dfe354ba678ff3c194968db39d447 ""
  "c:/texlive/2021/texmf-dist/tex/generic/pgf/frontendlayer/tikz/libraries/tikzlibrarydecorations.code.tex" 1640630541 5493 23e371e6fe3e7e42533d6d6c15662e0d ""
  "c:/texlive/2021/texmf-dist/tex/generic/pgf/frontendlayer/tikz/libraries/tikzlibrarydecorations.pathmorphing.code.tex" 1640630541 321 cdd11262840e01e25374a2d458f15e99 ""
  "c:/texlive/2021/texmf-dist/tex/generic/pgf/frontendlayer/tikz/libraries/tikzlibrarypositioning.code.tex" 1640630541 3937 3f208572dd82c71103831da976d74f1a ""
  "c:/texlive/2021/texmf-dist/tex/generic/pgf/frontendlayer/tikz/libraries/tikzlibrarytopaths.code.tex" 1640630541 11518 738408f795261b70ce8dd47459171309 ""
  "c:/texlive/2021/texmf-dist/tex/generic/pgf/frontendlayer/tikz/libraries/tikzlibrarytrees.code.tex" 1640630541 3360 d7547ac810d5d8570c7b6f7c224d69da ""
  "c:/texlive/2021/texmf-dist/tex/generic/pgf/frontendlayer/tikz/tikz.code.tex" 1640630541 186007 6e7dfe0bd57520fd5f91641aa72dcac8 ""
  "c:/texlive/2021/texmf-dist/tex/generic/pgf/libraries/decorations/pgflibrarydecorations.pathmorphing.code.tex" 1640630541 8843 5533436db3e30fbad1e0440db6027dac ""
  "c:/texlive/2021/texmf-dist/tex/generic/pgf/libraries/pgflibraryarrows.code.tex" 1640630541 31874 89148c383c49d4c72114a76fd0062299 ""
  "c:/texlive/2021/texmf-dist/tex/generic/pgf/libraries/pgflibraryplothandlers.code.tex" 1640630541 32995 ac577023e12c0e4bd8aa420b2e852d1a ""
  "c:/texlive/2021/texmf-dist/tex/generic/pgf/math/pgfint.code.tex" 1640630541 3063 8c415c68a0f3394e45cfeca0b65f6ee6 ""
  "c:/texlive/2021/texmf-dist/tex/generic/pgf/math/pgfmath.code.tex" 1640630541 521 8e224a7af69b7fee4451d1bf76b46654 ""
  "c:/texlive/2021/texmf-dist/tex/generic/pgf/math/pgfmathcalc.code.tex" 1640630541 13391 84d29568c13bdce4133ab4a214711112 ""
  "c:/texlive/2021/texmf-dist/tex/generic/pgf/math/pgfmathfloat.code.tex" 1640630541 104935 184ed87524e76d4957860df4ce0cd1c3 ""
  "c:/texlive/2021/texmf-dist/tex/generic/pgf/math/pgfmathfunctions.base.code.tex" 1640630541 10165 cec5fa73d49da442e56efc2d605ef154 ""
  "c:/texlive/2021/texmf-dist/tex/generic/pgf/math/pgfmathfunctions.basic.code.tex" 1640630541 28178 41c17713108e0795aac6fef3d275fbca ""
  "c:/texlive/2021/texmf-dist/tex/generic/pgf/math/pgfmathfunctions.code.tex" 1640630541 9989 c55967bf45126ff9b061fa2ca0c4694f ""
  "c:/texlive/2021/texmf-dist/tex/generic/pgf/math/pgfmathfunctions.comparison.code.tex" 1640630541 3865 ac538ab80c5cf82b345016e474786549 ""
  "c:/texlive/2021/texmf-dist/tex/generic/pgf/math/pgfmathfunctions.integerarithmetics.code.tex" 1640630541 3177 27d85c44fbfe09ff3b2cf2879e3ea434 ""
  "c:/texlive/2021/texmf-dist/tex/generic/pgf/math/pgfmathfunctions.misc.code.tex" 1640630541 11024 0179538121bc2dba172013a3ef89519f ""
  "c:/texlive/2021/texmf-dist/tex/generic/pgf/math/pgfmathfunctions.random.code.tex" 1640630541 7854 4176998eeefd8745ac6d2d4bd9c98451 ""
  "c:/texlive/2021/texmf-dist/tex/generic/pgf/math/pgfmathfunctions.round.code.tex" 1640630541 3379 781797a101f647bab82741a99944a229 ""
  "c:/texlive/2021/texmf-dist/tex/generic/pgf/math/pgfmathfunctions.trigonometric.code.tex" 1640630541 92405 f515f31275db273f97b9d8f52e1b0736 ""
  "c:/texlive/2021/texmf-dist/tex/generic/pgf/math/pgfmathparser.code.tex" 1640630541 37376 11cd75aac3da1c1b152b2848f30adc14 ""
  "c:/texlive/2021/texmf-dist/tex/generic/pgf/math/pgfmathutil.code.tex" 1640630541 8471 c2883569d03f69e8e1cabfef4999cfd7 ""
  "c:/texlive/2021/texmf-dist/tex/generic/pgf/modules/pgfmoduledecorations.code.tex" 1640630541 71722 aa25655703db0306f6401798e312b7b8 ""
  "c:/texlive/2021/texmf-dist/tex/generic/pgf/modules/pgfmodulematrix.code.tex" 1640630541 21201 08d231a2386e2b61d64641c50dc15abd ""
  "c:/texlive/2021/texmf-dist/tex/generic/pgf/modules/pgfmoduleplot.code.tex" 1640630541 16121 346f9013d34804439f7436ff6786cef7 ""
  "c:/texlive/2021/texmf-dist/tex/generic/pgf/modules/pgfmoduleshapes.code.tex" 1640630541 44784 cedaa399d15f95e68e22906e2cc09ef8 ""
  "c:/texlive/2021/texmf-dist/tex/generic/pgf/pgf.revision.tex" 1640630541 465 d68603f8b820ea4a08cce534944db581 ""
  "c:/texlive/2021/texmf-dist/tex/generic/pgf/systemlayer/pgf.cfg" 1640630541 926 2963ea0dcf6cc6c0a770b69ec46a477b ""
  "c:/texlive/2021/texmf-dist/tex/generic/pgf/systemlayer/pgfsys-common-pdf.def" 1640630541 5546 f3f24d7898386cb7daac70bdd2c4d6dc ""
  "c:/texlive/2021/texmf-dist/tex/generic/pgf/systemlayer/pgfsys-pdftex.def" 1640630541 12601 4786e597516eddd82097506db7cfa098 ""
  "c:/texlive/2021/texmf-dist/tex/generic/pgf/systemlayer/pgfsys.code.tex" 1640630541 61163 9b2eefc24e021323e0fc140e9826d016 ""
  "c:/texlive/2021/texmf-dist/tex/generic/pgf/systemlayer/pgfsysprotocol.code.tex" 1640630541 1896 b8e0ca0ac371d74c0ca05583f6313c91 ""
  "c:/texlive/2021/texmf-dist/tex/generic/pgf/systemlayer/pgfsyssoftpath.code.tex" 1640630541 7778 53c8b5623d80238f6a20aa1df1868e63 ""
  "c:/texlive/2021/texmf-dist/tex/generic/pgf/utilities/pgffor.code.tex" 1640630541 23997 a4bed72405fa644418bea7eac2887006 ""
  "c:/texlive/2021/texmf-dist/tex/generic/pgf/utilities/pgfkeys.code.tex" 1640630541 37060 797782f0eb50075c9bc952374d9a659a ""
  "c:/texlive/2021/texmf-dist/tex/generic/pgf/utilities/pgfkeysfiltered.code.tex" 1640630541 37431 9abe862035de1b29c7a677f3205e3d9f ""
  "c:/texlive/2021/texmf-dist/tex/generic/pgf/utilities/pgfrcs.code.tex" 1640630541 4494 af17fb7efeafe423710479858e42fa7e ""
  "c:/texlive/2021/texmf-dist/tex/generic/pgf/utilities/pgfutil-common-lists.tex" 1640630541 7251 fb18c67117e09c64de82267e12cd8aa4 ""
  "c:/texlive/2021/texmf-dist/tex/generic/pgf/utilities/pgfutil-common.tex" 1640630541 29274 e15c5b7157d21523bd9c9f1dfa146b8e ""
  "c:/texlive/2021/texmf-dist/tex/generic/pgf/utilities/pgfutil-latex.def" 1640630541 6825 a2b0ea5b539dda0625e99dd15785ab59 ""
  "c:/texlive/2021/texmf-dist/tex/generic/uniquecounter/uniquecounter.sty" 1640633084 7008 f92eaa0a3872ed622bbf538217cd2ab7 ""
  "c:/texlive/2021/texmf-dist/tex/generic/xkeyval/xkeyval.tex" 1640633634 19231 3cbf682090baecad8e17a66b7a271ed1 ""
  "c:/texlive/2021/texmf-dist/tex/generic/xkeyval/xkvutils.tex" 1640633634 7677 cf3e6aa6a8d444f55327f61df80bfa0c ""
  "c:/texlive/2021/texmf-dist/tex/latex/amscls/amsthm.sty" 1640626244 12594 0d51ac3a545aaaa555021326ff22a6cc ""
  "c:/texlive/2021/texmf-dist/tex/latex/amsfonts/amsfonts.sty" 1640626263 5949 3f3fd50a8cc94c3d4cbf4fc66cd3df1c ""
  "c:/texlive/2021/texmf-dist/tex/latex/amsfonts/amssymb.sty" 1640626263 13829 94730e64147574077f8ecfea9bb69af4 ""
  "c:/texlive/2021/texmf-dist/tex/latex/amsmath/amsbsy.sty" 1640626274 2222 da905dc1db75412efd2d8f67739f0596 ""
  "c:/texlive/2021/texmf-dist/tex/latex/amsmath/amsgen.sty" 1640626274 4173 bc0410bcccdff806d6132d3c1ef35481 ""
  "c:/texlive/2021/texmf-dist/tex/latex/amsmath/amsmath.sty" 1640626274 87648 07fbb6e9169e00cb2a2f40b31b2dbf3c ""
  "c:/texlive/2021/texmf-dist/tex/latex/amsmath/amsopn.sty" 1640626274 4128 8eea906621b6639f7ba476a472036bbe ""
  "c:/texlive/2021/texmf-dist/tex/latex/amsmath/amstext.sty" 1640626274 2444 926f379cc60fcf0c6e3fee2223b4370d ""
  "c:/texlive/2021/texmf-dist/tex/latex/atveryend/atveryend.sty" 1640626708 19336 ce7ae9438967282886b3b036cfad1e4d ""
  "c:/texlive/2021/texmf-dist/tex/latex/auxhook/auxhook.sty" 1640626743 3935 57aa3c3e203a5c2effb4d2bd2efbc323 ""
  "c:/texlive/2021/texmf-dist/tex/latex/base/article.cls" 1640629381 20144 8a7de377ae7a11ee924a7499611f5a9d ""
  "c:/texlive/2021/texmf-dist/tex/latex/base/atbegshi-ltx.sty" 1640629381 3034 3bfb87122e6fa8758225c0dd3cbaceba ""
  "c:/texlive/2021/texmf-dist/tex/latex/base/atveryend-ltx.sty" 1640629381 2462 754d6b31b2ab5a09bb72c348ace2ec75 ""
  "c:/texlive/2021/texmf-dist/tex/latex/base/ifthen.sty" 1640629381 5157 f308c7c04889e16c588e78aa42599fae ""
  "c:/texlive/2021/texmf-dist/tex/latex/base/size10.clo" 1640629381 8448 96f18c76bf608a36ee6fbf021ac1dd32 ""
  "c:/texlive/2021/texmf-dist/tex/latex/caption/caption.sty" 1640627214 51746 e89c4da670ba533e6ab38e045ce6d1d9 ""
  "c:/texlive/2021/texmf-dist/tex/latex/caption/caption3.sty" 1640627214 67929 d50ae850e1d9604065e8337a75a41029 ""
  "c:/texlive/2021/texmf-dist/tex/latex/caption/subcaption.sty" 1640627214 6133 46bea384e36e9b74bd53a238fc2d0654 ""
  "c:/texlive/2021/texmf-dist/tex/latex/changepage/changepage.sty" 1640627328 4523 a9044e2dc40e764dac60d2acda7ae919 ""
  "c:/texlive/2021/texmf-dist/tex/latex/epstopdf-pkg/epstopdf-base.sty" 1640628241 13886 d1306dcf79a944f6988e688c1785f9ce ""
  "c:/texlive/2021/texmf-dist/tex/latex/eso-pic/eso-pic.sty" 1640628270 11772 8d0db0794e6aeb45348f60bbe3a3e093 ""
  "c:/texlive/2021/texmf-dist/tex/latex/graphics-cfg/color.cfg" 1640628746 1213 620bba36b25224fa9b7e1ccb4ecb76fd ""
  "c:/texlive/2021/texmf-dist/tex/latex/graphics-cfg/graphics.cfg" 1640628746 1224 978390e9c2234eab29404bc21b268d1e ""
  "c:/texlive/2021/texmf-dist/tex/latex/graphics-def/pdftex.def" 1640628747 19103 48d29b6e2a64cb717117ef65f107b404 ""
  "c:/texlive/2021/texmf-dist/tex/latex/graphics/color.sty" 1640628744 7197 eb6c1ebf41667a05cb50c23c19d5e8bc ""
  "c:/texlive/2021/texmf-dist/tex/latex/graphics/graphics.sty" 1640628744 18399 7e40f80366dffb22c0e7b70517db5cb4 ""
  "c:/texlive/2021/texmf-dist/tex/latex/graphics/graphicx.sty" 1640628744 7996 a8fb260d598dcaf305a7ae7b9c3e3229 ""
  "c:/texlive/2021/texmf-dist/tex/latex/graphics/keyval.sty" 1640628744 2671 4de6781a30211fe0ea4c672e4a2a8166 ""
  "c:/texlive/2021/texmf-dist/tex/latex/graphics/lscape.sty" 1640628744 1808 e22d55a4f66156801447813626bd4159 ""
  "c:/texlive/2021/texmf-dist/tex/latex/graphics/trig.sty" 1640628744 4009 187ea2dc3194cd5a76cd99a8d7a6c4d0 ""
  "c:/texlive/2021/texmf-dist/tex/latex/hycolor/hycolor.sty" 1640629001 17914 4c28a13fc3d975e6e81c9bea1d697276 ""
  "c:/texlive/2021/texmf-dist/tex/latex/hyperref/hpdftex.def" 1640629011 49890 0bb76a5b745d92e86aed6f3f93e334f0 ""
  "c:/texlive/2021/texmf-dist/tex/latex/hyperref/hyperref-langpatches.def" 1640629011 1777 940b1aa83773bc035eb882e8d6842769 ""
  "c:/texlive/2021/texmf-dist/tex/latex/hyperref/hyperref.sty" 1640629011 230915 97a8817f13de4e61bbc3592cb2caa995 ""
  "c:/texlive/2021/texmf-dist/tex/latex/hyperref/nameref.sty" 1640629011 13242 133e617c5eebffdd05e421624022b267 ""
  "c:/texlive/2021/texmf-dist/tex/latex/hyperref/pd1enc.def" 1640629011 14132 c9404e8e78123ef0d1007c34d1d6da51 ""
  "c:/texlive/2021/texmf-dist/tex/latex/hyperref/puenc.def" 1640629011 117004 86586f287ddfad919a0a4bd68934277a ""
  "c:/texlive/2021/texmf-dist/tex/latex/import/import.sty" 1640629094 6201 0ad8b5da8e12f60a88d546b2198a56f2 ""
  "c:/texlive/2021/texmf-dist/tex/latex/koma-script/scrbase.sty" 1640629304 99856 6cbb9d59d820d727b2acbf2edddcf8c8 ""
  "c:/texlive/2021/texmf-dist/tex/latex/koma-script/scrlfile-hook.sty" 1640629304 11081 5538240709a5dbcdc97e4d1524f034a8 ""
  "c:/texlive/2021/texmf-dist/tex/latex/koma-script/scrlfile.sty" 1640629304 3225 54deb0fdd4552a94c6525a4a8ff74efc ""
  "c:/texlive/2021/texmf-dist/tex/latex/koma-script/scrlogo.sty" 1640629304 1954 94f3677c5f3a58b3854eb25278202694 ""
  "c:/texlive/2021/texmf-dist/tex/latex/kvoptions/kvoptions.sty" 1640629339 22521 d2fceb764a442a2001d257ef11db7618 ""
  "c:/texlive/2021/texmf-dist/tex/latex/l3backend/l3backend-pdftex.def" 1640629347 29971 0fb19a39718d289d512ef2f074f16cc2 ""
  "c:/texlive/2021/texmf-dist/tex/latex/l3kernel/expl3.sty" 1640629353 6208 8e07b49f15e79668e492fab98378014d ""
  "c:/texlive/2021/texmf-dist/tex/latex/l3packages/l3keys2e/l3keys2e.sty" 1640629361 4674 175cd58a3276550cf236fd19e68aba45 ""
  "c:/texlive/2021/texmf-dist/tex/latex/l3packages/xparse/xparse.sty" 1640629361 6758 00f6c8a8db7d6342f781c270a186f6c8 ""
  "c:/texlive/2021/texmf-dist/tex/latex/latexconfig/epstopdf-sys.cfg" 1640629474 678 4792914a8f45be57bb98413425e4c7af ""
  "c:/texlive/2021/texmf-dist/tex/latex/letltxmacro/letltxmacro.sty" 1640629527 5766 13a9e8766c47f30327caf893ece86ac8 ""
  "c:/texlive/2021/texmf-dist/tex/latex/multirow/multirow.sty" 1640630118 6149 2398eec4faa1ee24ff761581e580ecf1 ""
  "c:/texlive/2021/texmf-dist/tex/latex/pdflscape/pdflscape.sty" 1640630490 6575 25396d208d8f2b9395d06ef315d5886c ""
  "c:/texlive/2021/texmf-dist/tex/latex/pdfpages/pdfpages.sty" 1640630501 54497 58ccf247b8e81d55ca6f10c5082d335f ""
  "c:/texlive/2021/texmf-dist/tex/latex/pdfpages/pppdftex.def" 1640630501 6591 7d4f68a47a8f9dceeb2327354264a7a7 ""
  "c:/texlive/2021/texmf-dist/tex/latex/pgf/basiclayer/pgf.sty" 1640630541 1090 bae35ef70b3168089ef166db3e66f5b2 ""
  "c:/texlive/2021/texmf-dist/tex/latex/pgf/basiclayer/pgfcore.sty" 1640630541 410 615550c46f918fcbee37641b02a862d9 ""
  "c:/texlive/2021/texmf-dist/tex/latex/pgf/compatibility/pgfcomp-version-0-65.sty" 1640630541 21013 f4ff83d25bb56552493b030f27c075ae ""
  "c:/texlive/2021/texmf-dist/tex/latex/pgf/compatibility/pgfcomp-version-1-18.sty" 1640630541 989 c49c8ae06d96f8b15869da7428047b1e ""
  "c:/texlive/2021/texmf-dist/tex/latex/pgf/frontendlayer/tikz.sty" 1640630541 339 c2e180022e3afdb99c7d0ea5ce469b7d ""
  "c:/texlive/2021/texmf-dist/tex/latex/pgf/math/pgfmath.sty" 1640630541 306 c56a323ca5bf9242f54474ced10fca71 ""
  "c:/texlive/2021/texmf-dist/tex/latex/pgf/systemlayer/pgfsys.sty" 1640630541 443 8c872229db56122037e86bcda49e14f3 ""
  "c:/texlive/2021/texmf-dist/tex/latex/pgf/utilities/pgffor.sty" 1640630541 348 ee405e64380c11319f0e249fed57e6c5 ""
  "c:/texlive/2021/texmf-dist/tex/latex/pgf/utilities/pgfkeys.sty" 1640630541 274 5ae372b7df79135d240456a1c6f2cf9a ""
  "c:/texlive/2021/texmf-dist/tex/latex/pgf/utilities/pgfrcs.sty" 1640630541 325 f9f16d12354225b7dd52a3321f085955 ""
  "c:/texlive/2021/texmf-dist/tex/latex/ragged2e/ragged2e.sty" 1640631799 9244 53da791cc5f775633a8a852b08533fe2 ""
  "c:/texlive/2021/texmf-dist/tex/latex/refcount/refcount.sty" 1640631831 9878 9e94e8fa600d95f9c7731bb21dfb67a4 ""
  "c:/texlive/2021/texmf-dist/tex/latex/rerunfilecheck/rerunfilecheck.sty" 1640631856 9715 b051d5b493d9fe5f4bc251462d039e5f ""
  "c:/texlive/2021/texmf-dist/tex/latex/subfiles/subfiles.cls" 1640632230 1507 57de335d88fde4e5c924dfed577fdb74 ""
  "c:/texlive/2021/texmf-dist/tex/latex/subfiles/subfiles.sty" 1640632230 5262 70ab9987ec94ed2beeb5c2d951d465f6 ""
  "c:/texlive/2021/texmf-dist/tex/latex/svg/svg.sty" 1640632245 43468 671ae75b3a15019004495eff4c0911e8 ""
  "c:/texlive/2021/texmf-dist/tex/latex/tikzsymbols/tikzsymbols.sty" 1640632560 132239 eb912f9962d808256603d31d845cbf37 ""
  "c:/texlive/2021/texmf-dist/tex/latex/todonotes/todonotes.sty" 1640632697 20709 ec0ab3eaf79cba9afda8dd45da4e5c5b ""
  "c:/texlive/2021/texmf-dist/tex/latex/tools/calc.sty" 1640632708 10214 00ce62e730d0cfe22b35e8f1c84949c7 ""
  "c:/texlive/2021/texmf-dist/tex/latex/tools/shellesc.sty" 1640632708 4118 0f286eca74ee36b7743ff20320e5479f ""
  "c:/texlive/2021/texmf-dist/tex/latex/tools/xspace.sty" 1640632708 4545 d84d0b20a11b9c36c6ecf45697be591c ""
  "c:/texlive/2021/texmf-dist/tex/latex/transparent/transparent.sty" 1640632776 4155 541de118e0abc42fce3317addc90afb0 ""
  "c:/texlive/2021/texmf-dist/tex/latex/trimspaces/trimspaces.sty" 1640632783 1380 971a51b00a14503ddf754cab24c3f209 ""
  "c:/texlive/2021/texmf-dist/tex/latex/url/url.sty" 1640633138 12796 8edb7d69a20b857904dd0ea757c14ec9 ""
  "c:/texlive/2021/texmf-dist/tex/latex/xcolor/xcolor.sty" 1640633520 56029 3f7889dab51d620aa43177c391b7b190 ""
  "c:/texlive/2021/texmf-dist/tex/latex/xkeyval/xkeyval.sty" 1640633634 4902 efb3d66683a2da2a232f71e3a571a899 ""
  "c:/texlive/2021/texmf-dist/web2c/texmf.cnf" 1640629318 40042 fe981136cbb5f3715ab1b0e46e3d3892 ""
  "c:/texlive/2021/texmf-var/fonts/map/pdftex/updmap/pdftex.map" 1640633856 4412718 ada1c61bbfa7db40aae998c8d328ff5e ""
  "c:/texlive/2021/texmf-var/web2c/pdftex/pdflatex.fmt" 1640633942 2820070 3f6ef9019d7f03177fcad4a561d05911 ""
  "c:/texlive/2021/texmf.cnf" 1640633832 713 e69b156964470283e0530f5060668171 ""
  "sections/temp/..//../main.tex" 1690904934 3088 08e82266f9658f5d1b459e0518af88e7 ""
  "sections/temp/zaver.aux" 1690906637 898 d114bd630a963b3fc9e5078dc23223bd "pdflatex"
  "sections/temp/zaver.out" 1690906637 0 d41d8cd98f00b204e9800998ecf8427e "pdflatex"
  "sections/zaver.tex" 1690906634 2241 bf4696b0f93cd9d0e3f29d41eb976cae ""
  (generated)
  "sections/temp/zaver.aux"
  "sections/temp/zaver.log"
  "sections/temp/zaver.out"
  "sections/temp/zaver.pdf"
