PWD c:/Users/matej/PycharmProjects/bthesis/Latex
INPUT c:/texlive/2022/texmf.cnf
INPUT c:/texlive/2022/texmf-dist/web2c/texmf.cnf
INPUT c:/texlive/2022/texmf-var/web2c/pdftex/pdflatex.fmt
INPUT c:/Users/matej/PycharmProjects/bthesis/Latex/sections/zdroje.tex
OUTPUT sections/temp/zdroje.log
INPUT c:/texlive/2022/texmf-dist/tex/latex/subfiles/subfiles.cls
INPUT c:/texlive/2022/texmf-dist/tex/latex/subfiles/subfiles.cls
INPUT c:/texlive/2022/texmf-dist/tex/latex/subfiles/subfiles.cls
INPUT c:/texlive/2022/texmf-dist/tex/latex/subfiles/subfiles.cls
INPUT c:/texlive/2022/texmf-dist/tex/latex/subfiles/subfiles.cls
INPUT c:/texlive/2022/texmf-dist/tex/latex/subfiles/subfiles.cls
INPUT c:/texlive/2022/texmf-dist/tex/latex/subfiles/subfiles.cls
INPUT c:/texlive/2022/texmf-dist/tex/latex/subfiles/subfiles.cls
INPUT c:/texlive/2022/texmf-dist/tex/latex/subfiles/subfiles.cls
INPUT c:/texlive/2022/texmf-dist/tex/latex/subfiles/subfiles.cls
INPUT c:/texlive/2022/texmf-dist/tex/latex/subfiles/subfiles.cls
INPUT c:/texlive/2022/texmf-dist/tex/latex/import/import.sty
INPUT c:/texlive/2022/texmf-dist/tex/latex/import/import.sty
INPUT c:/texlive/2022/texmf-dist/tex/latex/import/import.sty
INPUT c:/texlive/2022/texmf-dist/tex/latex/import/import.sty
INPUT c:/texlive/2022/texmf-dist/tex/latex/import/import.sty
INPUT c:/texlive/2022/texmf-dist/tex/latex/import/import.sty
INPUT c:/texlive/2022/texmf-dist/tex/latex/import/import.sty
INPUT c:/texlive/2022/texmf-dist/tex/latex/import/import.sty
INPUT c:/texlive/2022/texmf-dist/tex/latex/import/import.sty
INPUT c:/texlive/2022/texmf-dist/tex/latex/import/import.sty
INPUT c:/texlive/2022/texmf-dist/tex/latex/import/import.sty
INPUT sections/temp/..//../main.tex
INPUT sections/temp/..//../main.tex
INPUT sections/temp/..//../main.tex
INPUT sections/temp/..//../main.tex
INPUT c:/texlive/2022/texmf-dist/tex/latex/base/article.cls
INPUT c:/texlive/2022/texmf-dist/tex/latex/base/article.cls
INPUT c:/texlive/2022/texmf-dist/tex/latex/base/article.cls
INPUT c:/texlive/2022/texmf-dist/tex/latex/base/article.cls
INPUT c:/texlive/2022/texmf-dist/tex/latex/base/article.cls
INPUT c:/texlive/2022/texmf-dist/tex/latex/base/article.cls
INPUT c:/texlive/2022/texmf-dist/tex/latex/base/article.cls
INPUT c:/texlive/2022/texmf-dist/tex/latex/base/article.cls
INPUT c:/texlive/2022/texmf-dist/tex/latex/base/article.cls
INPUT c:/texlive/2022/texmf-dist/tex/latex/base/article.cls
INPUT c:/texlive/2022/texmf-dist/tex/latex/base/article.cls
INPUT c:/texlive/2022/texmf-dist/tex/latex/base/size10.clo
INPUT c:/texlive/2022/texmf-dist/tex/latex/base/size10.clo
INPUT c:/texlive/2022/texmf-dist/tex/latex/base/size10.clo
INPUT c:/texlive/2022/texmf-dist/tex/latex/base/size10.clo
INPUT c:/texlive/2022/texmf-dist/tex/latex/amsfonts/amssymb.sty
INPUT c:/texlive/2022/texmf-dist/tex/latex/amsfonts/amssymb.sty
INPUT c:/texlive/2022/texmf-dist/tex/latex/amsfonts/amssymb.sty
INPUT c:/texlive/2022/texmf-dist/tex/latex/amsfonts/amssymb.sty
INPUT c:/texlive/2022/texmf-dist/tex/latex/amsfonts/amssymb.sty
INPUT c:/texlive/2022/texmf-dist/tex/latex/amsfonts/amssymb.sty
INPUT c:/texlive/2022/texmf-dist/tex/latex/amsfonts/amssymb.sty
INPUT c:/texlive/2022/texmf-dist/tex/latex/amsfonts/amssymb.sty
INPUT c:/texlive/2022/texmf-dist/tex/latex/amsfonts/amssymb.sty
INPUT c:/texlive/2022/texmf-dist/tex/latex/amsfonts/amssymb.sty
INPUT c:/texlive/2022/texmf-dist/tex/latex/amsfonts/amssymb.sty
INPUT c:/texlive/2022/texmf-dist/tex/latex/amsfonts/amsfonts.sty
INPUT c:/texlive/2022/texmf-dist/tex/latex/amsfonts/amsfonts.sty
INPUT c:/texlive/2022/texmf-dist/tex/latex/amsfonts/amsfonts.sty
INPUT c:/texlive/2022/texmf-dist/tex/latex/amsfonts/amsfonts.sty
INPUT c:/texlive/2022/texmf-dist/tex/latex/amsfonts/amsfonts.sty
INPUT c:/texlive/2022/texmf-dist/tex/latex/amsfonts/amsfonts.sty
INPUT c:/texlive/2022/texmf-dist/tex/latex/amsfonts/amsfonts.sty
INPUT c:/texlive/2022/texmf-dist/tex/latex/amsfonts/amsfonts.sty
INPUT c:/texlive/2022/texmf-dist/tex/latex/amsfonts/amsfonts.sty
INPUT c:/texlive/2022/texmf-dist/tex/latex/amsfonts/amsfonts.sty
INPUT c:/texlive/2022/texmf-dist/tex/latex/amsfonts/amsfonts.sty
INPUT c:/texlive/2022/texmf-dist/tex/latex/amsmath/amsmath.sty
INPUT c:/texlive/2022/texmf-dist/tex/latex/amsmath/amsmath.sty
INPUT c:/texlive/2022/texmf-dist/tex/latex/amsmath/amsmath.sty
INPUT c:/texlive/2022/texmf-dist/tex/latex/amsmath/amsmath.sty
INPUT c:/texlive/2022/texmf-dist/tex/latex/amsmath/amsmath.sty
INPUT c:/texlive/2022/texmf-dist/tex/latex/amsmath/amsmath.sty
INPUT c:/texlive/2022/texmf-dist/tex/latex/amsmath/amsmath.sty
INPUT c:/texlive/2022/texmf-dist/tex/latex/amsmath/amsmath.sty
INPUT c:/texlive/2022/texmf-dist/tex/latex/amsmath/amsmath.sty
INPUT c:/texlive/2022/texmf-dist/tex/latex/amsmath/amsmath.sty
INPUT c:/texlive/2022/texmf-dist/tex/latex/amsmath/amsmath.sty
INPUT c:/texlive/2022/texmf-dist/tex/latex/amsmath/amsopn.sty
INPUT c:/texlive/2022/texmf-dist/tex/latex/amsmath/amsopn.sty
INPUT c:/texlive/2022/texmf-dist/tex/latex/amsmath/amstext.sty
INPUT c:/texlive/2022/texmf-dist/tex/latex/amsmath/amstext.sty
INPUT c:/texlive/2022/texmf-dist/tex/latex/amsmath/amstext.sty
INPUT c:/texlive/2022/texmf-dist/tex/latex/amsmath/amstext.sty
INPUT c:/texlive/2022/texmf-dist/tex/latex/amsmath/amstext.sty
INPUT c:/texlive/2022/texmf-dist/tex/latex/amsmath/amstext.sty
INPUT c:/texlive/2022/texmf-dist/tex/latex/amsmath/amstext.sty
INPUT c:/texlive/2022/texmf-dist/tex/latex/amsmath/amstext.sty
INPUT c:/texlive/2022/texmf-dist/tex/latex/amsmath/amstext.sty
INPUT c:/texlive/2022/texmf-dist/tex/latex/amsmath/amstext.sty
INPUT c:/texlive/2022/texmf-dist/tex/latex/amsmath/amstext.sty
INPUT c:/texlive/2022/texmf-dist/tex/latex/amsmath/amsgen.sty
INPUT c:/texlive/2022/texmf-dist/tex/latex/amsmath/amsgen.sty
INPUT c:/texlive/2022/texmf-dist/tex/latex/amsmath/amsgen.sty
INPUT c:/texlive/2022/texmf-dist/tex/latex/amsmath/amsgen.sty
INPUT c:/texlive/2022/texmf-dist/tex/latex/amsmath/amsgen.sty
INPUT c:/texlive/2022/texmf-dist/tex/latex/amsmath/amsgen.sty
INPUT c:/texlive/2022/texmf-dist/tex/latex/amsmath/amsgen.sty
INPUT c:/texlive/2022/texmf-dist/tex/latex/amsmath/amsgen.sty
INPUT c:/texlive/2022/texmf-dist/tex/latex/amsmath/amsgen.sty
INPUT c:/texlive/2022/texmf-dist/tex/latex/amsmath/amsgen.sty
INPUT c:/texlive/2022/texmf-dist/tex/latex/amsmath/amsgen.sty
INPUT c:/texlive/2022/texmf-dist/tex/latex/amsmath/amsbsy.sty
INPUT c:/texlive/2022/texmf-dist/tex/latex/amsmath/amsbsy.sty
INPUT c:/texlive/2022/texmf-dist/tex/latex/amsmath/amsbsy.sty
INPUT c:/texlive/2022/texmf-dist/tex/latex/amsmath/amsbsy.sty
INPUT c:/texlive/2022/texmf-dist/tex/latex/amsmath/amsbsy.sty
INPUT c:/texlive/2022/texmf-dist/tex/latex/amsmath/amsbsy.sty
INPUT c:/texlive/2022/texmf-dist/tex/latex/amsmath/amsbsy.sty
INPUT c:/texlive/2022/texmf-dist/tex/latex/amsmath/amsbsy.sty
INPUT c:/texlive/2022/texmf-dist/tex/latex/amsmath/amsbsy.sty
INPUT c:/texlive/2022/texmf-dist/tex/latex/amsmath/amsbsy.sty
INPUT c:/texlive/2022/texmf-dist/tex/latex/amsmath/amsbsy.sty
INPUT c:/texlive/2022/texmf-dist/tex/latex/amsmath/amsgen.sty
INPUT c:/texlive/2022/texmf-dist/tex/latex/amsmath/amsopn.sty
INPUT c:/texlive/2022/texmf-dist/tex/latex/amsmath/amsopn.sty
INPUT c:/texlive/2022/texmf-dist/tex/latex/amsmath/amsopn.sty
INPUT c:/texlive/2022/texmf-dist/tex/latex/amsmath/amsopn.sty
INPUT c:/texlive/2022/texmf-dist/tex/latex/amsmath/amsopn.sty
INPUT c:/texlive/2022/texmf-dist/tex/latex/amsmath/amsopn.sty
INPUT c:/texlive/2022/texmf-dist/tex/latex/amsmath/amsopn.sty
INPUT c:/texlive/2022/texmf-dist/tex/latex/amsmath/amsopn.sty
INPUT c:/texlive/2022/texmf-dist/tex/latex/amsmath/amsopn.sty
INPUT c:/texlive/2022/texmf-dist/tex/latex/amsmath/amsopn.sty
INPUT c:/texlive/2022/texmf-dist/tex/latex/amsmath/amsopn.sty
INPUT c:/texlive/2022/texmf-dist/tex/latex/amsmath/amsgen.sty
INPUT c:/texlive/2022/texmf-dist/tex/latex/amscls/amsthm.sty
INPUT c:/texlive/2022/texmf-dist/tex/latex/amscls/amsthm.sty
INPUT c:/texlive/2022/texmf-dist/tex/latex/amscls/amsthm.sty
INPUT c:/texlive/2022/texmf-dist/tex/latex/amscls/amsthm.sty
INPUT c:/texlive/2022/texmf-dist/tex/latex/amscls/amsthm.sty
INPUT c:/texlive/2022/texmf-dist/tex/latex/amscls/amsthm.sty
INPUT c:/texlive/2022/texmf-dist/tex/latex/amscls/amsthm.sty
INPUT c:/texlive/2022/texmf-dist/tex/latex/amscls/amsthm.sty
INPUT c:/texlive/2022/texmf-dist/tex/latex/amscls/amsthm.sty
INPUT c:/texlive/2022/texmf-dist/tex/latex/amscls/amsthm.sty
INPUT c:/texlive/2022/texmf-dist/tex/latex/amscls/amsthm.sty
INPUT c:/texlive/2022/texmf-dist/tex/latex/graphics/graphics.sty
INPUT c:/texlive/2022/texmf-dist/tex/latex/graphics/graphics.sty
INPUT c:/texlive/2022/texmf-dist/tex/latex/graphics/graphics.sty
INPUT c:/texlive/2022/texmf-dist/tex/latex/graphics/graphics.sty
INPUT c:/texlive/2022/texmf-dist/tex/latex/graphics/graphics.sty
INPUT c:/texlive/2022/texmf-dist/tex/latex/graphics/graphics.sty
INPUT c:/texlive/2022/texmf-dist/tex/latex/graphics/graphics.sty
INPUT c:/texlive/2022/texmf-dist/tex/latex/graphics/graphics.sty
INPUT c:/texlive/2022/texmf-dist/tex/latex/graphics/graphics.sty
INPUT c:/texlive/2022/texmf-dist/tex/latex/graphics/graphics.sty
INPUT c:/texlive/2022/texmf-dist/tex/latex/graphics/graphics.sty
INPUT c:/texlive/2022/texmf-dist/tex/latex/graphics/trig.sty
INPUT c:/texlive/2022/texmf-dist/tex/latex/graphics/trig.sty
INPUT c:/texlive/2022/texmf-dist/tex/latex/graphics/trig.sty
INPUT c:/texlive/2022/texmf-dist/tex/latex/graphics/trig.sty
INPUT c:/texlive/2022/texmf-dist/tex/latex/graphics/trig.sty
INPUT c:/texlive/2022/texmf-dist/tex/latex/graphics/trig.sty
INPUT c:/texlive/2022/texmf-dist/tex/latex/graphics/trig.sty
INPUT c:/texlive/2022/texmf-dist/tex/latex/graphics/trig.sty
INPUT c:/texlive/2022/texmf-dist/tex/latex/graphics/trig.sty
INPUT c:/texlive/2022/texmf-dist/tex/latex/graphics/trig.sty
INPUT c:/texlive/2022/texmf-dist/tex/latex/graphics/trig.sty
INPUT c:/texlive/2022/texmf-dist/tex/latex/graphics-cfg/graphics.cfg
INPUT c:/texlive/2022/texmf-dist/tex/latex/graphics-cfg/graphics.cfg
INPUT c:/texlive/2022/texmf-dist/tex/latex/graphics-cfg/graphics.cfg
INPUT c:/texlive/2022/texmf-dist/tex/latex/graphics-cfg/graphics.cfg
INPUT c:/texlive/2022/texmf-dist/tex/latex/graphics-def/pdftex.def
INPUT c:/texlive/2022/texmf-dist/tex/latex/graphics-def/pdftex.def
INPUT c:/texlive/2022/texmf-dist/tex/latex/graphics-def/pdftex.def
INPUT c:/texlive/2022/texmf-dist/tex/latex/graphics-def/pdftex.def
INPUT c:/texlive/2022/texmf-dist/tex/latex/todonotes/todonotes.sty
INPUT c:/texlive/2022/texmf-dist/tex/latex/todonotes/todonotes.sty
INPUT c:/texlive/2022/texmf-dist/tex/latex/todonotes/todonotes.sty
INPUT c:/texlive/2022/texmf-dist/tex/latex/todonotes/todonotes.sty
INPUT c:/texlive/2022/texmf-dist/tex/latex/todonotes/todonotes.sty
INPUT c:/texlive/2022/texmf-dist/tex/latex/todonotes/todonotes.sty
INPUT c:/texlive/2022/texmf-dist/tex/latex/todonotes/todonotes.sty
INPUT c:/texlive/2022/texmf-dist/tex/latex/todonotes/todonotes.sty
INPUT c:/texlive/2022/texmf-dist/tex/latex/todonotes/todonotes.sty
INPUT c:/texlive/2022/texmf-dist/tex/latex/todonotes/todonotes.sty
INPUT c:/texlive/2022/texmf-dist/tex/latex/todonotes/todonotes.sty
INPUT c:/texlive/2022/texmf-dist/tex/latex/base/ifthen.sty
INPUT c:/texlive/2022/texmf-dist/tex/latex/base/ifthen.sty
INPUT c:/texlive/2022/texmf-dist/tex/latex/base/ifthen.sty
INPUT c:/texlive/2022/texmf-dist/tex/latex/base/ifthen.sty
INPUT c:/texlive/2022/texmf-dist/tex/latex/base/ifthen.sty
INPUT c:/texlive/2022/texmf-dist/tex/latex/base/ifthen.sty
INPUT c:/texlive/2022/texmf-dist/tex/latex/base/ifthen.sty
INPUT c:/texlive/2022/texmf-dist/tex/latex/base/ifthen.sty
INPUT c:/texlive/2022/texmf-dist/tex/latex/base/ifthen.sty
INPUT c:/texlive/2022/texmf-dist/tex/latex/base/ifthen.sty
INPUT c:/texlive/2022/texmf-dist/tex/latex/base/ifthen.sty
INPUT c:/texlive/2022/texmf-dist/tex/latex/xkeyval/xkeyval.sty
INPUT c:/texlive/2022/texmf-dist/tex/latex/xkeyval/xkeyval.sty
INPUT c:/texlive/2022/texmf-dist/tex/latex/xkeyval/xkeyval.sty
INPUT c:/texlive/2022/texmf-dist/tex/latex/xkeyval/xkeyval.sty
INPUT c:/texlive/2022/texmf-dist/tex/latex/xkeyval/xkeyval.sty
INPUT c:/texlive/2022/texmf-dist/tex/latex/xkeyval/xkeyval.sty
INPUT c:/texlive/2022/texmf-dist/tex/latex/xkeyval/xkeyval.sty
INPUT c:/texlive/2022/texmf-dist/tex/latex/xkeyval/xkeyval.sty
INPUT c:/texlive/2022/texmf-dist/tex/latex/xkeyval/xkeyval.sty
INPUT c:/texlive/2022/texmf-dist/tex/latex/xkeyval/xkeyval.sty
INPUT c:/texlive/2022/texmf-dist/tex/latex/xkeyval/xkeyval.sty
INPUT c:/texlive/2022/texmf-dist/tex/generic/xkeyval/xkeyval.tex
INPUT c:/texlive/2022/texmf-dist/tex/generic/xkeyval/xkvutils.tex
INPUT c:/texlive/2022/texmf-dist/tex/generic/xkeyval/keyval.tex
INPUT c:/texlive/2022/texmf-dist/tex/latex/xcolor/xcolor.sty
INPUT c:/texlive/2022/texmf-dist/tex/latex/xcolor/xcolor.sty
INPUT c:/texlive/2022/texmf-dist/tex/latex/xcolor/xcolor.sty
INPUT c:/texlive/2022/texmf-dist/tex/latex/xcolor/xcolor.sty
INPUT c:/texlive/2022/texmf-dist/tex/latex/xcolor/xcolor.sty
INPUT c:/texlive/2022/texmf-dist/tex/latex/xcolor/xcolor.sty
INPUT c:/texlive/2022/texmf-dist/tex/latex/xcolor/xcolor.sty
INPUT c:/texlive/2022/texmf-dist/tex/latex/xcolor/xcolor.sty
INPUT c:/texlive/2022/texmf-dist/tex/latex/xcolor/xcolor.sty
INPUT c:/texlive/2022/texmf-dist/tex/latex/xcolor/xcolor.sty
INPUT c:/texlive/2022/texmf-dist/tex/latex/xcolor/xcolor.sty
INPUT c:/texlive/2022/texmf-dist/tex/latex/graphics-cfg/color.cfg
INPUT c:/texlive/2022/texmf-dist/tex/latex/graphics-cfg/color.cfg
INPUT c:/texlive/2022/texmf-dist/tex/latex/graphics-cfg/color.cfg
INPUT c:/texlive/2022/texmf-dist/tex/latex/graphics-cfg/color.cfg
INPUT c:/texlive/2022/texmf-dist/tex/latex/graphics/mathcolor.ltx
INPUT c:/texlive/2022/texmf-dist/tex/latex/graphics/mathcolor.ltx
INPUT c:/texlive/2022/texmf-dist/tex/latex/graphics/mathcolor.ltx
INPUT c:/texlive/2022/texmf-dist/tex/latex/graphics/mathcolor.ltx
INPUT c:/texlive/2022/texmf-dist/tex/latex/pgf/frontendlayer/tikz.sty
INPUT c:/texlive/2022/texmf-dist/tex/latex/pgf/frontendlayer/tikz.sty
INPUT c:/texlive/2022/texmf-dist/tex/latex/pgf/frontendlayer/tikz.sty
INPUT c:/texlive/2022/texmf-dist/tex/latex/pgf/frontendlayer/tikz.sty
INPUT c:/texlive/2022/texmf-dist/tex/latex/pgf/frontendlayer/tikz.sty
INPUT c:/texlive/2022/texmf-dist/tex/latex/pgf/frontendlayer/tikz.sty
INPUT c:/texlive/2022/texmf-dist/tex/latex/pgf/frontendlayer/tikz.sty
INPUT c:/texlive/2022/texmf-dist/tex/latex/pgf/frontendlayer/tikz.sty
INPUT c:/texlive/2022/texmf-dist/tex/latex/pgf/frontendlayer/tikz.sty
INPUT c:/texlive/2022/texmf-dist/tex/latex/pgf/frontendlayer/tikz.sty
INPUT c:/texlive/2022/texmf-dist/tex/latex/pgf/frontendlayer/tikz.sty
INPUT c:/texlive/2022/texmf-dist/tex/latex/pgf/basiclayer/pgf.sty
INPUT c:/texlive/2022/texmf-dist/tex/latex/pgf/basiclayer/pgf.sty
INPUT c:/texlive/2022/texmf-dist/tex/latex/pgf/basiclayer/pgf.sty
INPUT c:/texlive/2022/texmf-dist/tex/latex/pgf/basiclayer/pgf.sty
INPUT c:/texlive/2022/texmf-dist/tex/latex/pgf/basiclayer/pgf.sty
INPUT c:/texlive/2022/texmf-dist/tex/latex/pgf/basiclayer/pgf.sty
INPUT c:/texlive/2022/texmf-dist/tex/latex/pgf/basiclayer/pgf.sty
INPUT c:/texlive/2022/texmf-dist/tex/latex/pgf/basiclayer/pgf.sty
INPUT c:/texlive/2022/texmf-dist/tex/latex/pgf/basiclayer/pgf.sty
INPUT c:/texlive/2022/texmf-dist/tex/latex/pgf/basiclayer/pgf.sty
INPUT c:/texlive/2022/texmf-dist/tex/latex/pgf/basiclayer/pgf.sty
INPUT c:/texlive/2022/texmf-dist/tex/latex/pgf/utilities/pgfrcs.sty
INPUT c:/texlive/2022/texmf-dist/tex/latex/pgf/utilities/pgfrcs.sty
INPUT c:/texlive/2022/texmf-dist/tex/latex/pgf/utilities/pgfrcs.sty
INPUT c:/texlive/2022/texmf-dist/tex/latex/pgf/utilities/pgfrcs.sty
INPUT c:/texlive/2022/texmf-dist/tex/latex/pgf/utilities/pgfrcs.sty
INPUT c:/texlive/2022/texmf-dist/tex/latex/pgf/utilities/pgfrcs.sty
INPUT c:/texlive/2022/texmf-dist/tex/latex/pgf/utilities/pgfrcs.sty
INPUT c:/texlive/2022/texmf-dist/tex/latex/pgf/utilities/pgfrcs.sty
INPUT c:/texlive/2022/texmf-dist/tex/latex/pgf/utilities/pgfrcs.sty
INPUT c:/texlive/2022/texmf-dist/tex/latex/pgf/utilities/pgfrcs.sty
INPUT c:/texlive/2022/texmf-dist/tex/latex/pgf/utilities/pgfrcs.sty
INPUT c:/texlive/2022/texmf-dist/tex/generic/pgf/utilities/pgfutil-common.tex
INPUT c:/texlive/2022/texmf-dist/tex/generic/pgf/utilities/pgfutil-common-lists.tex
INPUT c:/texlive/2022/texmf-dist/tex/generic/pgf/utilities/pgfutil-latex.def
INPUT c:/texlive/2022/texmf-dist/tex/generic/pgf/utilities/pgfrcs.code.tex
INPUT c:/texlive/2022/texmf-dist/tex/generic/pgf/utilities/pgfrcs.code.tex
INPUT c:/texlive/2022/texmf-dist/tex/generic/pgf/utilities/pgfrcs.code.tex
INPUT c:/texlive/2022/texmf-dist/tex/generic/pgf/utilities/pgfrcs.code.tex
INPUT c:/texlive/2022/texmf-dist/tex/generic/pgf/pgf.revision.tex
INPUT c:/texlive/2022/texmf-dist/tex/generic/pgf/pgf.revision.tex
INPUT c:/texlive/2022/texmf-dist/tex/latex/pgf/basiclayer/pgfcore.sty
INPUT c:/texlive/2022/texmf-dist/tex/latex/pgf/basiclayer/pgfcore.sty
INPUT c:/texlive/2022/texmf-dist/tex/latex/pgf/basiclayer/pgfcore.sty
INPUT c:/texlive/2022/texmf-dist/tex/latex/pgf/basiclayer/pgfcore.sty
INPUT c:/texlive/2022/texmf-dist/tex/latex/pgf/basiclayer/pgfcore.sty
INPUT c:/texlive/2022/texmf-dist/tex/latex/pgf/basiclayer/pgfcore.sty
INPUT c:/texlive/2022/texmf-dist/tex/latex/pgf/basiclayer/pgfcore.sty
INPUT c:/texlive/2022/texmf-dist/tex/latex/pgf/basiclayer/pgfcore.sty
INPUT c:/texlive/2022/texmf-dist/tex/latex/pgf/basiclayer/pgfcore.sty
INPUT c:/texlive/2022/texmf-dist/tex/latex/pgf/basiclayer/pgfcore.sty
INPUT c:/texlive/2022/texmf-dist/tex/latex/pgf/basiclayer/pgfcore.sty
INPUT c:/texlive/2022/texmf-dist/tex/latex/graphics/graphicx.sty
INPUT c:/texlive/2022/texmf-dist/tex/latex/graphics/graphicx.sty
INPUT c:/texlive/2022/texmf-dist/tex/latex/graphics/graphicx.sty
INPUT c:/texlive/2022/texmf-dist/tex/latex/graphics/graphicx.sty
INPUT c:/texlive/2022/texmf-dist/tex/latex/graphics/graphicx.sty
INPUT c:/texlive/2022/texmf-dist/tex/latex/graphics/graphicx.sty
INPUT c:/texlive/2022/texmf-dist/tex/latex/graphics/graphicx.sty
INPUT c:/texlive/2022/texmf-dist/tex/latex/graphics/graphicx.sty
INPUT c:/texlive/2022/texmf-dist/tex/latex/graphics/graphicx.sty
INPUT c:/texlive/2022/texmf-dist/tex/latex/graphics/graphicx.sty
INPUT c:/texlive/2022/texmf-dist/tex/latex/graphics/graphicx.sty
INPUT c:/texlive/2022/texmf-dist/tex/latex/graphics/keyval.sty
INPUT c:/texlive/2022/texmf-dist/tex/latex/graphics/graphics.sty
INPUT c:/texlive/2022/texmf-dist/tex/latex/pgf/systemlayer/pgfsys.sty
INPUT c:/texlive/2022/texmf-dist/tex/latex/pgf/systemlayer/pgfsys.sty
INPUT c:/texlive/2022/texmf-dist/tex/latex/pgf/systemlayer/pgfsys.sty
INPUT c:/texlive/2022/texmf-dist/tex/latex/pgf/systemlayer/pgfsys.sty
INPUT c:/texlive/2022/texmf-dist/tex/latex/pgf/systemlayer/pgfsys.sty
INPUT c:/texlive/2022/texmf-dist/tex/latex/pgf/systemlayer/pgfsys.sty
INPUT c:/texlive/2022/texmf-dist/tex/latex/pgf/systemlayer/pgfsys.sty
INPUT c:/texlive/2022/texmf-dist/tex/latex/pgf/systemlayer/pgfsys.sty
INPUT c:/texlive/2022/texmf-dist/tex/latex/pgf/systemlayer/pgfsys.sty
INPUT c:/texlive/2022/texmf-dist/tex/latex/pgf/systemlayer/pgfsys.sty
INPUT c:/texlive/2022/texmf-dist/tex/latex/pgf/systemlayer/pgfsys.sty
INPUT c:/texlive/2022/texmf-dist/tex/latex/pgf/utilities/pgfrcs.sty
INPUT c:/texlive/2022/texmf-dist/tex/generic/pgf/systemlayer/pgfsys.code.tex
INPUT c:/texlive/2022/texmf-dist/tex/generic/pgf/systemlayer/pgfsys.code.tex
INPUT c:/texlive/2022/texmf-dist/tex/generic/pgf/systemlayer/pgfsys.code.tex
INPUT c:/texlive/2022/texmf-dist/tex/generic/pgf/systemlayer/pgfsys.code.tex
INPUT c:/texlive/2022/texmf-dist/tex/generic/pgf/utilities/pgfkeys.code.tex
INPUT c:/texlive/2022/texmf-dist/tex/generic/pgf/utilities/pgfkeysfiltered.code.tex
INPUT c:/texlive/2022/texmf-dist/tex/generic/pgf/systemlayer/pgf.cfg
INPUT c:/texlive/2022/texmf-dist/tex/generic/pgf/systemlayer/pgfsys-pdftex.def
INPUT c:/texlive/2022/texmf-dist/tex/generic/pgf/systemlayer/pgfsys-pdftex.def
INPUT c:/texlive/2022/texmf-dist/tex/generic/pgf/systemlayer/pgfsys-common-pdf.def
INPUT c:/texlive/2022/texmf-dist/tex/generic/pgf/systemlayer/pgfsyssoftpath.code.tex
INPUT c:/texlive/2022/texmf-dist/tex/generic/pgf/systemlayer/pgfsyssoftpath.code.tex
INPUT c:/texlive/2022/texmf-dist/tex/generic/pgf/systemlayer/pgfsyssoftpath.code.tex
INPUT c:/texlive/2022/texmf-dist/tex/generic/pgf/systemlayer/pgfsyssoftpath.code.tex
INPUT c:/texlive/2022/texmf-dist/tex/generic/pgf/systemlayer/pgfsysprotocol.code.tex
INPUT c:/texlive/2022/texmf-dist/tex/generic/pgf/systemlayer/pgfsysprotocol.code.tex
INPUT c:/texlive/2022/texmf-dist/tex/generic/pgf/systemlayer/pgfsysprotocol.code.tex
INPUT c:/texlive/2022/texmf-dist/tex/generic/pgf/systemlayer/pgfsysprotocol.code.tex
INPUT c:/texlive/2022/texmf-dist/tex/latex/graphics/keyval.sty
INPUT c:/texlive/2022/texmf-dist/tex/latex/xcolor/xcolor.sty
INPUT c:/texlive/2022/texmf-dist/tex/generic/pgf/basiclayer/pgfcore.code.tex
INPUT c:/texlive/2022/texmf-dist/tex/generic/pgf/basiclayer/pgfcore.code.tex
INPUT c:/texlive/2022/texmf-dist/tex/generic/pgf/basiclayer/pgfcore.code.tex
INPUT c:/texlive/2022/texmf-dist/tex/generic/pgf/basiclayer/pgfcore.code.tex
INPUT c:/texlive/2022/texmf-dist/tex/generic/pgf/math/pgfmath.code.tex
INPUT c:/texlive/2022/texmf-dist/tex/generic/pgf/math/pgfmathcalc.code.tex
INPUT c:/texlive/2022/texmf-dist/tex/generic/pgf/math/pgfmathutil.code.tex
INPUT c:/texlive/2022/texmf-dist/tex/generic/pgf/math/pgfmathparser.code.tex
INPUT c:/texlive/2022/texmf-dist/tex/generic/pgf/math/pgfmathfunctions.code.tex
INPUT c:/texlive/2022/texmf-dist/tex/generic/pgf/math/pgfmathfunctions.basic.code.tex
INPUT c:/texlive/2022/texmf-dist/tex/generic/pgf/math/pgfmathfunctions.trigonometric.code.tex
INPUT c:/texlive/2022/texmf-dist/tex/generic/pgf/math/pgfmathfunctions.random.code.tex
INPUT c:/texlive/2022/texmf-dist/tex/generic/pgf/math/pgfmathfunctions.comparison.code.tex
INPUT c:/texlive/2022/texmf-dist/tex/generic/pgf/math/pgfmathfunctions.base.code.tex
INPUT c:/texlive/2022/texmf-dist/tex/generic/pgf/math/pgfmathfunctions.round.code.tex
INPUT c:/texlive/2022/texmf-dist/tex/generic/pgf/math/pgfmathfunctions.misc.code.tex
INPUT c:/texlive/2022/texmf-dist/tex/generic/pgf/math/pgfmathfunctions.integerarithmetics.code.tex
INPUT c:/texlive/2022/texmf-dist/tex/generic/pgf/math/pgfmathfloat.code.tex
INPUT c:/texlive/2022/texmf-dist/tex/generic/pgf/math/pgfint.code.tex
INPUT c:/texlive/2022/texmf-dist/tex/generic/pgf/basiclayer/pgfcorepoints.code.tex
INPUT c:/texlive/2022/texmf-dist/tex/generic/pgf/basiclayer/pgfcorepathconstruct.code.tex
INPUT c:/texlive/2022/texmf-dist/tex/generic/pgf/basiclayer/pgfcorepathusage.code.tex
INPUT c:/texlive/2022/texmf-dist/tex/generic/pgf/basiclayer/pgfcorescopes.code.tex
INPUT c:/texlive/2022/texmf-dist/tex/generic/pgf/basiclayer/pgfcoregraphicstate.code.tex
INPUT c:/texlive/2022/texmf-dist/tex/generic/pgf/basiclayer/pgfcoretransformations.code.tex
INPUT c:/texlive/2022/texmf-dist/tex/generic/pgf/basiclayer/pgfcorequick.code.tex
INPUT c:/texlive/2022/texmf-dist/tex/generic/pgf/basiclayer/pgfcoreobjects.code.tex
INPUT c:/texlive/2022/texmf-dist/tex/generic/pgf/basiclayer/pgfcorepathprocessing.code.tex
INPUT c:/texlive/2022/texmf-dist/tex/generic/pgf/basiclayer/pgfcorearrows.code.tex
INPUT c:/texlive/2022/texmf-dist/tex/generic/pgf/basiclayer/pgfcoreshade.code.tex
INPUT c:/texlive/2022/texmf-dist/tex/generic/pgf/basiclayer/pgfcoreimage.code.tex
INPUT c:/texlive/2022/texmf-dist/tex/generic/pgf/basiclayer/pgfcoreexternal.code.tex
INPUT c:/texlive/2022/texmf-dist/tex/generic/pgf/basiclayer/pgfcorelayers.code.tex
INPUT c:/texlive/2022/texmf-dist/tex/generic/pgf/basiclayer/pgfcoretransparency.code.tex
INPUT c:/texlive/2022/texmf-dist/tex/generic/pgf/basiclayer/pgfcorepatterns.code.tex
INPUT c:/texlive/2022/texmf-dist/tex/generic/pgf/basiclayer/pgfcorerdf.code.tex
INPUT c:/texlive/2022/texmf-dist/tex/generic/pgf/modules/pgfmoduleshapes.code.tex
INPUT c:/texlive/2022/texmf-dist/tex/generic/pgf/modules/pgfmoduleplot.code.tex
INPUT c:/texlive/2022/texmf-dist/tex/latex/pgf/compatibility/pgfcomp-version-0-65.sty
INPUT c:/texlive/2022/texmf-dist/tex/latex/pgf/compatibility/pgfcomp-version-0-65.sty
INPUT c:/texlive/2022/texmf-dist/tex/latex/pgf/compatibility/pgfcomp-version-0-65.sty
INPUT c:/texlive/2022/texmf-dist/tex/latex/pgf/compatibility/pgfcomp-version-0-65.sty
INPUT c:/texlive/2022/texmf-dist/tex/latex/pgf/compatibility/pgfcomp-version-0-65.sty
INPUT c:/texlive/2022/texmf-dist/tex/latex/pgf/compatibility/pgfcomp-version-0-65.sty
INPUT c:/texlive/2022/texmf-dist/tex/latex/pgf/compatibility/pgfcomp-version-0-65.sty
INPUT c:/texlive/2022/texmf-dist/tex/latex/pgf/compatibility/pgfcomp-version-0-65.sty
INPUT c:/texlive/2022/texmf-dist/tex/latex/pgf/compatibility/pgfcomp-version-0-65.sty
INPUT c:/texlive/2022/texmf-dist/tex/latex/pgf/compatibility/pgfcomp-version-0-65.sty
INPUT c:/texlive/2022/texmf-dist/tex/latex/pgf/compatibility/pgfcomp-version-0-65.sty
INPUT c:/texlive/2022/texmf-dist/tex/latex/pgf/utilities/pgfrcs.sty
INPUT c:/texlive/2022/texmf-dist/tex/latex/pgf/compatibility/pgfcomp-version-1-18.sty
INPUT c:/texlive/2022/texmf-dist/tex/latex/pgf/compatibility/pgfcomp-version-1-18.sty
INPUT c:/texlive/2022/texmf-dist/tex/latex/pgf/compatibility/pgfcomp-version-1-18.sty
INPUT c:/texlive/2022/texmf-dist/tex/latex/pgf/compatibility/pgfcomp-version-1-18.sty
INPUT c:/texlive/2022/texmf-dist/tex/latex/pgf/compatibility/pgfcomp-version-1-18.sty
INPUT c:/texlive/2022/texmf-dist/tex/latex/pgf/compatibility/pgfcomp-version-1-18.sty
INPUT c:/texlive/2022/texmf-dist/tex/latex/pgf/compatibility/pgfcomp-version-1-18.sty
INPUT c:/texlive/2022/texmf-dist/tex/latex/pgf/compatibility/pgfcomp-version-1-18.sty
INPUT c:/texlive/2022/texmf-dist/tex/latex/pgf/compatibility/pgfcomp-version-1-18.sty
INPUT c:/texlive/2022/texmf-dist/tex/latex/pgf/compatibility/pgfcomp-version-1-18.sty
INPUT c:/texlive/2022/texmf-dist/tex/latex/pgf/compatibility/pgfcomp-version-1-18.sty
INPUT c:/texlive/2022/texmf-dist/tex/latex/pgf/utilities/pgfrcs.sty
INPUT c:/texlive/2022/texmf-dist/tex/latex/pgf/utilities/pgffor.sty
INPUT c:/texlive/2022/texmf-dist/tex/latex/pgf/utilities/pgffor.sty
INPUT c:/texlive/2022/texmf-dist/tex/latex/pgf/utilities/pgffor.sty
INPUT c:/texlive/2022/texmf-dist/tex/latex/pgf/utilities/pgffor.sty
INPUT c:/texlive/2022/texmf-dist/tex/latex/pgf/utilities/pgffor.sty
INPUT c:/texlive/2022/texmf-dist/tex/latex/pgf/utilities/pgffor.sty
INPUT c:/texlive/2022/texmf-dist/tex/latex/pgf/utilities/pgffor.sty
INPUT c:/texlive/2022/texmf-dist/tex/latex/pgf/utilities/pgffor.sty
INPUT c:/texlive/2022/texmf-dist/tex/latex/pgf/utilities/pgffor.sty
INPUT c:/texlive/2022/texmf-dist/tex/latex/pgf/utilities/pgffor.sty
INPUT c:/texlive/2022/texmf-dist/tex/latex/pgf/utilities/pgffor.sty
INPUT c:/texlive/2022/texmf-dist/tex/latex/pgf/utilities/pgfrcs.sty
INPUT c:/texlive/2022/texmf-dist/tex/latex/pgf/utilities/pgfkeys.sty
INPUT c:/texlive/2022/texmf-dist/tex/latex/pgf/utilities/pgfkeys.sty
INPUT c:/texlive/2022/texmf-dist/tex/latex/pgf/utilities/pgfkeys.sty
INPUT c:/texlive/2022/texmf-dist/tex/latex/pgf/utilities/pgfkeys.sty
INPUT c:/texlive/2022/texmf-dist/tex/latex/pgf/utilities/pgfkeys.sty
INPUT c:/texlive/2022/texmf-dist/tex/latex/pgf/utilities/pgfkeys.sty
INPUT c:/texlive/2022/texmf-dist/tex/latex/pgf/utilities/pgfkeys.sty
INPUT c:/texlive/2022/texmf-dist/tex/latex/pgf/utilities/pgfkeys.sty
INPUT c:/texlive/2022/texmf-dist/tex/latex/pgf/utilities/pgfkeys.sty
INPUT c:/texlive/2022/texmf-dist/tex/latex/pgf/utilities/pgfkeys.sty
INPUT c:/texlive/2022/texmf-dist/tex/latex/pgf/utilities/pgfkeys.sty
INPUT c:/texlive/2022/texmf-dist/tex/generic/pgf/utilities/pgfkeys.code.tex
INPUT c:/texlive/2022/texmf-dist/tex/generic/pgf/utilities/pgfkeys.code.tex
INPUT c:/texlive/2022/texmf-dist/tex/generic/pgf/utilities/pgfkeys.code.tex
INPUT c:/texlive/2022/texmf-dist/tex/generic/pgf/utilities/pgfkeys.code.tex
INPUT c:/texlive/2022/texmf-dist/tex/latex/pgf/math/pgfmath.sty
INPUT c:/texlive/2022/texmf-dist/tex/latex/pgf/math/pgfmath.sty
INPUT c:/texlive/2022/texmf-dist/tex/latex/pgf/math/pgfmath.sty
INPUT c:/texlive/2022/texmf-dist/tex/latex/pgf/math/pgfmath.sty
INPUT c:/texlive/2022/texmf-dist/tex/latex/pgf/math/pgfmath.sty
INPUT c:/texlive/2022/texmf-dist/tex/latex/pgf/math/pgfmath.sty
INPUT c:/texlive/2022/texmf-dist/tex/latex/pgf/math/pgfmath.sty
INPUT c:/texlive/2022/texmf-dist/tex/latex/pgf/math/pgfmath.sty
INPUT c:/texlive/2022/texmf-dist/tex/latex/pgf/math/pgfmath.sty
INPUT c:/texlive/2022/texmf-dist/tex/latex/pgf/math/pgfmath.sty
INPUT c:/texlive/2022/texmf-dist/tex/latex/pgf/math/pgfmath.sty
INPUT c:/texlive/2022/texmf-dist/tex/latex/pgf/utilities/pgfrcs.sty
INPUT c:/texlive/2022/texmf-dist/tex/latex/pgf/utilities/pgfkeys.sty
INPUT c:/texlive/2022/texmf-dist/tex/generic/pgf/math/pgfmath.code.tex
INPUT c:/texlive/2022/texmf-dist/tex/generic/pgf/math/pgfmath.code.tex
INPUT c:/texlive/2022/texmf-dist/tex/generic/pgf/math/pgfmath.code.tex
INPUT c:/texlive/2022/texmf-dist/tex/generic/pgf/math/pgfmath.code.tex
INPUT c:/texlive/2022/texmf-dist/tex/generic/pgf/utilities/pgffor.code.tex
INPUT c:/texlive/2022/texmf-dist/tex/generic/pgf/utilities/pgffor.code.tex
INPUT c:/texlive/2022/texmf-dist/tex/generic/pgf/utilities/pgffor.code.tex
INPUT c:/texlive/2022/texmf-dist/tex/generic/pgf/utilities/pgffor.code.tex
INPUT c:/texlive/2022/texmf-dist/tex/generic/pgf/math/pgfmath.code.tex
INPUT c:/texlive/2022/texmf-dist/tex/generic/pgf/frontendlayer/tikz/tikz.code.tex
INPUT c:/texlive/2022/texmf-dist/tex/generic/pgf/frontendlayer/tikz/tikz.code.tex
INPUT c:/texlive/2022/texmf-dist/tex/generic/pgf/frontendlayer/tikz/tikz.code.tex
INPUT c:/texlive/2022/texmf-dist/tex/generic/pgf/frontendlayer/tikz/tikz.code.tex
INPUT c:/texlive/2022/texmf-dist/tex/generic/pgf/libraries/pgflibraryplothandlers.code.tex
INPUT c:/texlive/2022/texmf-dist/tex/generic/pgf/libraries/pgflibraryplothandlers.code.tex
INPUT c:/texlive/2022/texmf-dist/tex/generic/pgf/modules/pgfmodulematrix.code.tex
INPUT c:/texlive/2022/texmf-dist/tex/generic/pgf/frontendlayer/tikz/libraries/tikzlibrarytopaths.code.tex
INPUT c:/texlive/2022/texmf-dist/tex/generic/pgf/frontendlayer/tikz/libraries/tikzlibrarytopaths.code.tex
INPUT c:/texlive/2022/texmf-dist/tex/generic/pgf/frontendlayer/tikz/libraries/tikzlibrarypositioning.code.tex
INPUT c:/texlive/2022/texmf-dist/tex/generic/pgf/frontendlayer/tikz/libraries/tikzlibrarypositioning.code.tex
INPUT c:/texlive/2022/texmf-dist/tex/latex/tools/calc.sty
INPUT c:/texlive/2022/texmf-dist/tex/latex/tools/calc.sty
INPUT c:/texlive/2022/texmf-dist/tex/latex/tools/calc.sty
INPUT c:/texlive/2022/texmf-dist/tex/latex/tools/calc.sty
INPUT c:/texlive/2022/texmf-dist/tex/latex/tools/calc.sty
INPUT c:/texlive/2022/texmf-dist/tex/latex/tools/calc.sty
INPUT c:/texlive/2022/texmf-dist/tex/latex/tools/calc.sty
INPUT c:/texlive/2022/texmf-dist/tex/latex/tools/calc.sty
INPUT c:/texlive/2022/texmf-dist/tex/latex/tools/calc.sty
INPUT c:/texlive/2022/texmf-dist/tex/latex/tools/calc.sty
INPUT c:/texlive/2022/texmf-dist/tex/latex/tools/calc.sty
INPUT c:/texlive/2022/texmf-dist/tex/latex/pgf/frontendlayer/tikz.sty
INPUT c:/texlive/2022/texmf-dist/tex/latex/tikzsymbols/tikzsymbols.sty
INPUT c:/texlive/2022/texmf-dist/tex/latex/tikzsymbols/tikzsymbols.sty
INPUT c:/texlive/2022/texmf-dist/tex/latex/tikzsymbols/tikzsymbols.sty
INPUT c:/texlive/2022/texmf-dist/tex/latex/tikzsymbols/tikzsymbols.sty
INPUT c:/texlive/2022/texmf-dist/tex/latex/tikzsymbols/tikzsymbols.sty
INPUT c:/texlive/2022/texmf-dist/tex/latex/tikzsymbols/tikzsymbols.sty
INPUT c:/texlive/2022/texmf-dist/tex/latex/tikzsymbols/tikzsymbols.sty
INPUT c:/texlive/2022/texmf-dist/tex/latex/tikzsymbols/tikzsymbols.sty
INPUT c:/texlive/2022/texmf-dist/tex/latex/tikzsymbols/tikzsymbols.sty
INPUT c:/texlive/2022/texmf-dist/tex/latex/tikzsymbols/tikzsymbols.sty
INPUT c:/texlive/2022/texmf-dist/tex/latex/tikzsymbols/tikzsymbols.sty
INPUT c:/texlive/2022/texmf-dist/tex/latex/l3packages/xparse/xparse.sty
INPUT c:/texlive/2022/texmf-dist/tex/latex/l3packages/xparse/xparse.sty
INPUT c:/texlive/2022/texmf-dist/tex/latex/l3packages/xparse/xparse.sty
INPUT c:/texlive/2022/texmf-dist/tex/latex/l3packages/xparse/xparse.sty
INPUT c:/texlive/2022/texmf-dist/tex/latex/l3packages/xparse/xparse.sty
INPUT c:/texlive/2022/texmf-dist/tex/latex/l3packages/xparse/xparse.sty
INPUT c:/texlive/2022/texmf-dist/tex/latex/l3packages/xparse/xparse.sty
INPUT c:/texlive/2022/texmf-dist/tex/latex/l3packages/xparse/xparse.sty
INPUT c:/texlive/2022/texmf-dist/tex/latex/l3packages/xparse/xparse.sty
INPUT c:/texlive/2022/texmf-dist/tex/latex/l3packages/xparse/xparse.sty
INPUT c:/texlive/2022/texmf-dist/tex/latex/l3packages/xparse/xparse.sty
INPUT c:/texlive/2022/texmf-dist/tex/latex/l3kernel/expl3.sty
INPUT c:/texlive/2022/texmf-dist/tex/latex/l3kernel/expl3.sty
INPUT c:/texlive/2022/texmf-dist/tex/latex/l3kernel/expl3.sty
INPUT c:/texlive/2022/texmf-dist/tex/latex/l3kernel/expl3.sty
INPUT c:/texlive/2022/texmf-dist/tex/latex/l3kernel/expl3.sty
INPUT c:/texlive/2022/texmf-dist/tex/latex/l3kernel/expl3.sty
INPUT c:/texlive/2022/texmf-dist/tex/latex/l3kernel/expl3.sty
INPUT c:/texlive/2022/texmf-dist/tex/latex/l3kernel/expl3.sty
INPUT c:/texlive/2022/texmf-dist/tex/latex/l3kernel/expl3.sty
INPUT c:/texlive/2022/texmf-dist/tex/latex/l3kernel/expl3.sty
INPUT c:/texlive/2022/texmf-dist/tex/latex/l3kernel/expl3.sty
INPUT c:/texlive/2022/texmf-dist/tex/latex/l3backend/l3backend-pdftex.def
INPUT c:/texlive/2022/texmf-dist/tex/latex/l3backend/l3backend-pdftex.def
INPUT c:/texlive/2022/texmf-dist/tex/latex/l3backend/l3backend-pdftex.def
INPUT c:/texlive/2022/texmf-dist/tex/latex/l3backend/l3backend-pdftex.def
INPUT c:/texlive/2022/texmf-dist/tex/latex/l3backend/l3backend-pdftex.def
INPUT c:/texlive/2022/texmf-dist/tex/latex/l3backend/l3backend-pdftex.def
INPUT c:/texlive/2022/texmf-dist/tex/latex/l3backend/l3backend-pdftex.def
INPUT c:/texlive/2022/texmf-dist/tex/latex/l3backend/l3backend-pdftex.def
INPUT c:/texlive/2022/texmf-dist/tex/latex/l3backend/l3backend-pdftex.def
INPUT c:/texlive/2022/texmf-dist/tex/latex/l3backend/l3backend-pdftex.def
INPUT c:/texlive/2022/texmf-dist/tex/latex/l3backend/l3backend-pdftex.def
INPUT c:/texlive/2022/texmf-dist/tex/latex/tools/xspace.sty
INPUT c:/texlive/2022/texmf-dist/tex/latex/tools/xspace.sty
INPUT c:/texlive/2022/texmf-dist/tex/latex/tools/xspace.sty
INPUT c:/texlive/2022/texmf-dist/tex/latex/tools/xspace.sty
INPUT c:/texlive/2022/texmf-dist/tex/latex/tools/xspace.sty
INPUT c:/texlive/2022/texmf-dist/tex/latex/tools/xspace.sty
INPUT c:/texlive/2022/texmf-dist/tex/latex/tools/xspace.sty
INPUT c:/texlive/2022/texmf-dist/tex/latex/tools/xspace.sty
INPUT c:/texlive/2022/texmf-dist/tex/latex/tools/xspace.sty
INPUT c:/texlive/2022/texmf-dist/tex/latex/tools/xspace.sty
INPUT c:/texlive/2022/texmf-dist/tex/latex/tools/xspace.sty
INPUT c:/texlive/2022/texmf-dist/tex/latex/l3packages/l3keys2e/l3keys2e.sty
INPUT c:/texlive/2022/texmf-dist/tex/latex/l3packages/l3keys2e/l3keys2e.sty
INPUT c:/texlive/2022/texmf-dist/tex/latex/l3packages/l3keys2e/l3keys2e.sty
INPUT c:/texlive/2022/texmf-dist/tex/latex/l3packages/l3keys2e/l3keys2e.sty
INPUT c:/texlive/2022/texmf-dist/tex/latex/l3packages/l3keys2e/l3keys2e.sty
INPUT c:/texlive/2022/texmf-dist/tex/latex/l3packages/l3keys2e/l3keys2e.sty
INPUT c:/texlive/2022/texmf-dist/tex/latex/l3packages/l3keys2e/l3keys2e.sty
INPUT c:/texlive/2022/texmf-dist/tex/latex/l3packages/l3keys2e/l3keys2e.sty
INPUT c:/texlive/2022/texmf-dist/tex/latex/l3packages/l3keys2e/l3keys2e.sty
INPUT c:/texlive/2022/texmf-dist/tex/latex/l3packages/l3keys2e/l3keys2e.sty
INPUT c:/texlive/2022/texmf-dist/tex/latex/l3packages/l3keys2e/l3keys2e.sty
INPUT c:/texlive/2022/texmf-dist/tex/latex/l3kernel/expl3.sty
INPUT c:/texlive/2022/texmf-dist/tex/generic/pgf/frontendlayer/tikz/libraries/tikzlibraryarrows.code.tex
INPUT c:/texlive/2022/texmf-dist/tex/generic/pgf/frontendlayer/tikz/libraries/tikzlibraryarrows.code.tex
INPUT c:/texlive/2022/texmf-dist/tex/generic/pgf/libraries/pgflibraryarrows.code.tex
INPUT c:/texlive/2022/texmf-dist/tex/generic/pgf/libraries/pgflibraryarrows.code.tex
INPUT c:/texlive/2022/texmf-dist/tex/generic/pgf/frontendlayer/tikz/libraries/tikzlibrarydecorations.pathmorphing.code.tex
INPUT c:/texlive/2022/texmf-dist/tex/generic/pgf/frontendlayer/tikz/libraries/tikzlibrarydecorations.pathmorphing.code.tex
INPUT c:/texlive/2022/texmf-dist/tex/generic/pgf/frontendlayer/tikz/libraries/tikzlibrarydecorations.code.tex
INPUT c:/texlive/2022/texmf-dist/tex/generic/pgf/frontendlayer/tikz/libraries/tikzlibrarydecorations.code.tex
INPUT c:/texlive/2022/texmf-dist/tex/generic/pgf/modules/pgfmoduledecorations.code.tex
INPUT c:/texlive/2022/texmf-dist/tex/generic/pgf/libraries/decorations/pgflibrarydecorations.pathmorphing.code.tex
INPUT c:/texlive/2022/texmf-dist/tex/generic/pgf/libraries/decorations/pgflibrarydecorations.pathmorphing.code.tex
INPUT c:/texlive/2022/texmf-dist/tex/generic/pgf/frontendlayer/tikz/libraries/tikzlibrarytrees.code.tex
INPUT c:/texlive/2022/texmf-dist/tex/generic/pgf/frontendlayer/tikz/libraries/tikzlibrarytrees.code.tex
INPUT c:/texlive/2022/texmf-dist/tex/latex/caption/caption.sty
INPUT c:/texlive/2022/texmf-dist/tex/latex/caption/caption.sty
INPUT c:/texlive/2022/texmf-dist/tex/latex/caption/caption.sty
INPUT c:/texlive/2022/texmf-dist/tex/latex/caption/caption.sty
INPUT c:/texlive/2022/texmf-dist/tex/latex/caption/caption.sty
INPUT c:/texlive/2022/texmf-dist/tex/latex/caption/caption.sty
INPUT c:/texlive/2022/texmf-dist/tex/latex/caption/caption.sty
INPUT c:/texlive/2022/texmf-dist/tex/latex/caption/caption.sty
INPUT c:/texlive/2022/texmf-dist/tex/latex/caption/caption.sty
INPUT c:/texlive/2022/texmf-dist/tex/latex/caption/caption.sty
INPUT c:/texlive/2022/texmf-dist/tex/latex/caption/caption.sty
INPUT c:/texlive/2022/texmf-dist/tex/latex/caption/caption3.sty
INPUT c:/texlive/2022/texmf-dist/tex/latex/caption/caption3.sty
INPUT c:/texlive/2022/texmf-dist/tex/latex/caption/caption3.sty
INPUT c:/texlive/2022/texmf-dist/tex/latex/caption/caption3.sty
INPUT c:/texlive/2022/texmf-dist/tex/latex/caption/caption3.sty
INPUT c:/texlive/2022/texmf-dist/tex/latex/caption/caption3.sty
INPUT c:/texlive/2022/texmf-dist/tex/latex/caption/caption3.sty
INPUT c:/texlive/2022/texmf-dist/tex/latex/caption/caption3.sty
INPUT c:/texlive/2022/texmf-dist/tex/latex/caption/caption3.sty
INPUT c:/texlive/2022/texmf-dist/tex/latex/caption/caption3.sty
INPUT c:/texlive/2022/texmf-dist/tex/latex/caption/caption3.sty
INPUT c:/texlive/2022/texmf-dist/tex/latex/graphics/keyval.sty
INPUT c:/texlive/2022/texmf-dist/tex/latex/caption/subcaption.sty
INPUT c:/texlive/2022/texmf-dist/tex/latex/caption/subcaption.sty
INPUT c:/texlive/2022/texmf-dist/tex/latex/caption/subcaption.sty
INPUT c:/texlive/2022/texmf-dist/tex/latex/caption/subcaption.sty
INPUT c:/texlive/2022/texmf-dist/tex/latex/caption/subcaption.sty
INPUT c:/texlive/2022/texmf-dist/tex/latex/caption/subcaption.sty
INPUT c:/texlive/2022/texmf-dist/tex/latex/caption/subcaption.sty
INPUT c:/texlive/2022/texmf-dist/tex/latex/caption/subcaption.sty
INPUT c:/texlive/2022/texmf-dist/tex/latex/caption/subcaption.sty
INPUT c:/texlive/2022/texmf-dist/tex/latex/caption/subcaption.sty
INPUT c:/texlive/2022/texmf-dist/tex/latex/caption/subcaption.sty
INPUT c:/texlive/2022/texmf-dist/tex/latex/caption/caption.sty
INPUT c:/texlive/2022/texmf-dist/tex/latex/subfiles/subfiles.sty
INPUT c:/texlive/2022/texmf-dist/tex/latex/subfiles/subfiles.sty
INPUT c:/texlive/2022/texmf-dist/tex/latex/subfiles/subfiles.sty
INPUT c:/texlive/2022/texmf-dist/tex/latex/subfiles/subfiles.sty
INPUT c:/texlive/2022/texmf-dist/tex/latex/subfiles/subfiles.sty
INPUT c:/texlive/2022/texmf-dist/tex/latex/subfiles/subfiles.sty
INPUT c:/texlive/2022/texmf-dist/tex/latex/subfiles/subfiles.sty
INPUT c:/texlive/2022/texmf-dist/tex/latex/subfiles/subfiles.sty
INPUT c:/texlive/2022/texmf-dist/tex/latex/subfiles/subfiles.sty
INPUT c:/texlive/2022/texmf-dist/tex/latex/subfiles/subfiles.sty
INPUT c:/texlive/2022/texmf-dist/tex/latex/subfiles/subfiles.sty
INPUT c:/texlive/2022/texmf-dist/tex/latex/import/import.sty
INPUT c:/texlive/2022/texmf-dist/tex/latex/hyperref/hyperref.sty
INPUT c:/texlive/2022/texmf-dist/tex/latex/hyperref/hyperref.sty
INPUT c:/texlive/2022/texmf-dist/tex/latex/hyperref/hyperref.sty
INPUT c:/texlive/2022/texmf-dist/tex/latex/hyperref/hyperref.sty
INPUT c:/texlive/2022/texmf-dist/tex/latex/hyperref/hyperref.sty
INPUT c:/texlive/2022/texmf-dist/tex/latex/hyperref/hyperref.sty
INPUT c:/texlive/2022/texmf-dist/tex/latex/hyperref/hyperref.sty
INPUT c:/texlive/2022/texmf-dist/tex/latex/hyperref/hyperref.sty
INPUT c:/texlive/2022/texmf-dist/tex/latex/hyperref/hyperref.sty
INPUT c:/texlive/2022/texmf-dist/tex/latex/hyperref/hyperref.sty
INPUT c:/texlive/2022/texmf-dist/tex/latex/hyperref/hyperref.sty
INPUT c:/texlive/2022/texmf-dist/tex/generic/ltxcmds/ltxcmds.sty
INPUT c:/texlive/2022/texmf-dist/tex/generic/ltxcmds/ltxcmds.sty
INPUT c:/texlive/2022/texmf-dist/tex/generic/ltxcmds/ltxcmds.sty
INPUT c:/texlive/2022/texmf-dist/tex/generic/ltxcmds/ltxcmds.sty
INPUT c:/texlive/2022/texmf-dist/tex/generic/ltxcmds/ltxcmds.sty
INPUT c:/texlive/2022/texmf-dist/tex/generic/ltxcmds/ltxcmds.sty
INPUT c:/texlive/2022/texmf-dist/tex/generic/ltxcmds/ltxcmds.sty
INPUT c:/texlive/2022/texmf-dist/tex/generic/ltxcmds/ltxcmds.sty
INPUT c:/texlive/2022/texmf-dist/tex/generic/ltxcmds/ltxcmds.sty
INPUT c:/texlive/2022/texmf-dist/tex/generic/ltxcmds/ltxcmds.sty
INPUT c:/texlive/2022/texmf-dist/tex/generic/ltxcmds/ltxcmds.sty
INPUT c:/texlive/2022/texmf-dist/tex/generic/iftex/iftex.sty
INPUT c:/texlive/2022/texmf-dist/tex/generic/iftex/iftex.sty
INPUT c:/texlive/2022/texmf-dist/tex/generic/iftex/iftex.sty
INPUT c:/texlive/2022/texmf-dist/tex/generic/iftex/iftex.sty
INPUT c:/texlive/2022/texmf-dist/tex/generic/iftex/iftex.sty
INPUT c:/texlive/2022/texmf-dist/tex/generic/iftex/iftex.sty
INPUT c:/texlive/2022/texmf-dist/tex/generic/iftex/iftex.sty
INPUT c:/texlive/2022/texmf-dist/tex/generic/iftex/iftex.sty
INPUT c:/texlive/2022/texmf-dist/tex/generic/iftex/iftex.sty
INPUT c:/texlive/2022/texmf-dist/tex/generic/iftex/iftex.sty
INPUT c:/texlive/2022/texmf-dist/tex/generic/iftex/iftex.sty
INPUT c:/texlive/2022/texmf-dist/tex/generic/pdftexcmds/pdftexcmds.sty
INPUT c:/texlive/2022/texmf-dist/tex/generic/pdftexcmds/pdftexcmds.sty
INPUT c:/texlive/2022/texmf-dist/tex/generic/pdftexcmds/pdftexcmds.sty
INPUT c:/texlive/2022/texmf-dist/tex/generic/pdftexcmds/pdftexcmds.sty
INPUT c:/texlive/2022/texmf-dist/tex/generic/pdftexcmds/pdftexcmds.sty
INPUT c:/texlive/2022/texmf-dist/tex/generic/pdftexcmds/pdftexcmds.sty
INPUT c:/texlive/2022/texmf-dist/tex/generic/pdftexcmds/pdftexcmds.sty
INPUT c:/texlive/2022/texmf-dist/tex/generic/pdftexcmds/pdftexcmds.sty
INPUT c:/texlive/2022/texmf-dist/tex/generic/pdftexcmds/pdftexcmds.sty
INPUT c:/texlive/2022/texmf-dist/tex/generic/pdftexcmds/pdftexcmds.sty
INPUT c:/texlive/2022/texmf-dist/tex/generic/pdftexcmds/pdftexcmds.sty
INPUT c:/texlive/2022/texmf-dist/tex/generic/infwarerr/infwarerr.sty
INPUT c:/texlive/2022/texmf-dist/tex/generic/infwarerr/infwarerr.sty
INPUT c:/texlive/2022/texmf-dist/tex/generic/infwarerr/infwarerr.sty
INPUT c:/texlive/2022/texmf-dist/tex/generic/infwarerr/infwarerr.sty
INPUT c:/texlive/2022/texmf-dist/tex/generic/infwarerr/infwarerr.sty
INPUT c:/texlive/2022/texmf-dist/tex/generic/infwarerr/infwarerr.sty
INPUT c:/texlive/2022/texmf-dist/tex/generic/infwarerr/infwarerr.sty
INPUT c:/texlive/2022/texmf-dist/tex/generic/infwarerr/infwarerr.sty
INPUT c:/texlive/2022/texmf-dist/tex/generic/infwarerr/infwarerr.sty
INPUT c:/texlive/2022/texmf-dist/tex/generic/infwarerr/infwarerr.sty
INPUT c:/texlive/2022/texmf-dist/tex/generic/infwarerr/infwarerr.sty
INPUT c:/texlive/2022/texmf-dist/tex/generic/iftex/iftex.sty
INPUT c:/texlive/2022/texmf-dist/tex/generic/ltxcmds/ltxcmds.sty
INPUT c:/texlive/2022/texmf-dist/tex/generic/infwarerr/infwarerr.sty
INPUT c:/texlive/2022/texmf-dist/tex/latex/graphics/keyval.sty
INPUT c:/texlive/2022/texmf-dist/tex/generic/kvsetkeys/kvsetkeys.sty
INPUT c:/texlive/2022/texmf-dist/tex/generic/kvsetkeys/kvsetkeys.sty
INPUT c:/texlive/2022/texmf-dist/tex/generic/kvsetkeys/kvsetkeys.sty
INPUT c:/texlive/2022/texmf-dist/tex/generic/kvsetkeys/kvsetkeys.sty
INPUT c:/texlive/2022/texmf-dist/tex/generic/kvsetkeys/kvsetkeys.sty
INPUT c:/texlive/2022/texmf-dist/tex/generic/kvsetkeys/kvsetkeys.sty
INPUT c:/texlive/2022/texmf-dist/tex/generic/kvsetkeys/kvsetkeys.sty
INPUT c:/texlive/2022/texmf-dist/tex/generic/kvsetkeys/kvsetkeys.sty
INPUT c:/texlive/2022/texmf-dist/tex/generic/kvsetkeys/kvsetkeys.sty
INPUT c:/texlive/2022/texmf-dist/tex/generic/kvsetkeys/kvsetkeys.sty
INPUT c:/texlive/2022/texmf-dist/tex/generic/kvsetkeys/kvsetkeys.sty
INPUT c:/texlive/2022/texmf-dist/tex/generic/kvdefinekeys/kvdefinekeys.sty
INPUT c:/texlive/2022/texmf-dist/tex/generic/kvdefinekeys/kvdefinekeys.sty
INPUT c:/texlive/2022/texmf-dist/tex/generic/kvdefinekeys/kvdefinekeys.sty
INPUT c:/texlive/2022/texmf-dist/tex/generic/kvdefinekeys/kvdefinekeys.sty
INPUT c:/texlive/2022/texmf-dist/tex/generic/kvdefinekeys/kvdefinekeys.sty
INPUT c:/texlive/2022/texmf-dist/tex/generic/kvdefinekeys/kvdefinekeys.sty
INPUT c:/texlive/2022/texmf-dist/tex/generic/kvdefinekeys/kvdefinekeys.sty
INPUT c:/texlive/2022/texmf-dist/tex/generic/kvdefinekeys/kvdefinekeys.sty
INPUT c:/texlive/2022/texmf-dist/tex/generic/kvdefinekeys/kvdefinekeys.sty
INPUT c:/texlive/2022/texmf-dist/tex/generic/kvdefinekeys/kvdefinekeys.sty
INPUT c:/texlive/2022/texmf-dist/tex/generic/kvdefinekeys/kvdefinekeys.sty
INPUT c:/texlive/2022/texmf-dist/tex/generic/pdfescape/pdfescape.sty
INPUT c:/texlive/2022/texmf-dist/tex/generic/pdfescape/pdfescape.sty
INPUT c:/texlive/2022/texmf-dist/tex/generic/pdfescape/pdfescape.sty
INPUT c:/texlive/2022/texmf-dist/tex/generic/pdfescape/pdfescape.sty
INPUT c:/texlive/2022/texmf-dist/tex/generic/pdfescape/pdfescape.sty
INPUT c:/texlive/2022/texmf-dist/tex/generic/pdfescape/pdfescape.sty
INPUT c:/texlive/2022/texmf-dist/tex/generic/pdfescape/pdfescape.sty
INPUT c:/texlive/2022/texmf-dist/tex/generic/pdfescape/pdfescape.sty
INPUT c:/texlive/2022/texmf-dist/tex/generic/pdfescape/pdfescape.sty
INPUT c:/texlive/2022/texmf-dist/tex/generic/pdfescape/pdfescape.sty
INPUT c:/texlive/2022/texmf-dist/tex/generic/pdfescape/pdfescape.sty
INPUT c:/texlive/2022/texmf-dist/tex/generic/ltxcmds/ltxcmds.sty
INPUT c:/texlive/2022/texmf-dist/tex/generic/pdftexcmds/pdftexcmds.sty
INPUT c:/texlive/2022/texmf-dist/tex/latex/hycolor/hycolor.sty
INPUT c:/texlive/2022/texmf-dist/tex/latex/hycolor/hycolor.sty
INPUT c:/texlive/2022/texmf-dist/tex/latex/hycolor/hycolor.sty
INPUT c:/texlive/2022/texmf-dist/tex/latex/hycolor/hycolor.sty
INPUT c:/texlive/2022/texmf-dist/tex/latex/hycolor/hycolor.sty
INPUT c:/texlive/2022/texmf-dist/tex/latex/hycolor/hycolor.sty
INPUT c:/texlive/2022/texmf-dist/tex/latex/hycolor/hycolor.sty
INPUT c:/texlive/2022/texmf-dist/tex/latex/hycolor/hycolor.sty
INPUT c:/texlive/2022/texmf-dist/tex/latex/hycolor/hycolor.sty
INPUT c:/texlive/2022/texmf-dist/tex/latex/hycolor/hycolor.sty
INPUT c:/texlive/2022/texmf-dist/tex/latex/hycolor/hycolor.sty
INPUT c:/texlive/2022/texmf-dist/tex/latex/letltxmacro/letltxmacro.sty
INPUT c:/texlive/2022/texmf-dist/tex/latex/letltxmacro/letltxmacro.sty
INPUT c:/texlive/2022/texmf-dist/tex/latex/letltxmacro/letltxmacro.sty
INPUT c:/texlive/2022/texmf-dist/tex/latex/letltxmacro/letltxmacro.sty
INPUT c:/texlive/2022/texmf-dist/tex/latex/letltxmacro/letltxmacro.sty
INPUT c:/texlive/2022/texmf-dist/tex/latex/letltxmacro/letltxmacro.sty
INPUT c:/texlive/2022/texmf-dist/tex/latex/letltxmacro/letltxmacro.sty
INPUT c:/texlive/2022/texmf-dist/tex/latex/letltxmacro/letltxmacro.sty
INPUT c:/texlive/2022/texmf-dist/tex/latex/letltxmacro/letltxmacro.sty
INPUT c:/texlive/2022/texmf-dist/tex/latex/letltxmacro/letltxmacro.sty
INPUT c:/texlive/2022/texmf-dist/tex/latex/letltxmacro/letltxmacro.sty
INPUT c:/texlive/2022/texmf-dist/tex/latex/auxhook/auxhook.sty
INPUT c:/texlive/2022/texmf-dist/tex/latex/auxhook/auxhook.sty
INPUT c:/texlive/2022/texmf-dist/tex/latex/auxhook/auxhook.sty
INPUT c:/texlive/2022/texmf-dist/tex/latex/auxhook/auxhook.sty
INPUT c:/texlive/2022/texmf-dist/tex/latex/auxhook/auxhook.sty
INPUT c:/texlive/2022/texmf-dist/tex/latex/auxhook/auxhook.sty
INPUT c:/texlive/2022/texmf-dist/tex/latex/auxhook/auxhook.sty
INPUT c:/texlive/2022/texmf-dist/tex/latex/auxhook/auxhook.sty
INPUT c:/texlive/2022/texmf-dist/tex/latex/auxhook/auxhook.sty
INPUT c:/texlive/2022/texmf-dist/tex/latex/auxhook/auxhook.sty
INPUT c:/texlive/2022/texmf-dist/tex/latex/auxhook/auxhook.sty
INPUT c:/texlive/2022/texmf-dist/tex/latex/hyperref/nameref.sty
INPUT c:/texlive/2022/texmf-dist/tex/latex/hyperref/nameref.sty
INPUT c:/texlive/2022/texmf-dist/tex/latex/hyperref/nameref.sty
INPUT c:/texlive/2022/texmf-dist/tex/latex/hyperref/nameref.sty
INPUT c:/texlive/2022/texmf-dist/tex/latex/hyperref/nameref.sty
INPUT c:/texlive/2022/texmf-dist/tex/latex/hyperref/nameref.sty
INPUT c:/texlive/2022/texmf-dist/tex/latex/hyperref/nameref.sty
INPUT c:/texlive/2022/texmf-dist/tex/latex/hyperref/nameref.sty
INPUT c:/texlive/2022/texmf-dist/tex/latex/hyperref/nameref.sty
INPUT c:/texlive/2022/texmf-dist/tex/latex/hyperref/nameref.sty
INPUT c:/texlive/2022/texmf-dist/tex/latex/hyperref/nameref.sty
INPUT c:/texlive/2022/texmf-dist/tex/latex/refcount/refcount.sty
INPUT c:/texlive/2022/texmf-dist/tex/latex/refcount/refcount.sty
INPUT c:/texlive/2022/texmf-dist/tex/latex/refcount/refcount.sty
INPUT c:/texlive/2022/texmf-dist/tex/latex/refcount/refcount.sty
INPUT c:/texlive/2022/texmf-dist/tex/latex/refcount/refcount.sty
INPUT c:/texlive/2022/texmf-dist/tex/latex/refcount/refcount.sty
INPUT c:/texlive/2022/texmf-dist/tex/latex/refcount/refcount.sty
INPUT c:/texlive/2022/texmf-dist/tex/latex/refcount/refcount.sty
INPUT c:/texlive/2022/texmf-dist/tex/latex/refcount/refcount.sty
INPUT c:/texlive/2022/texmf-dist/tex/latex/refcount/refcount.sty
INPUT c:/texlive/2022/texmf-dist/tex/latex/refcount/refcount.sty
INPUT c:/texlive/2022/texmf-dist/tex/generic/ltxcmds/ltxcmds.sty
INPUT c:/texlive/2022/texmf-dist/tex/generic/infwarerr/infwarerr.sty
INPUT c:/texlive/2022/texmf-dist/tex/generic/gettitlestring/gettitlestring.sty
INPUT c:/texlive/2022/texmf-dist/tex/generic/gettitlestring/gettitlestring.sty
INPUT c:/texlive/2022/texmf-dist/tex/generic/gettitlestring/gettitlestring.sty
INPUT c:/texlive/2022/texmf-dist/tex/generic/gettitlestring/gettitlestring.sty
INPUT c:/texlive/2022/texmf-dist/tex/generic/gettitlestring/gettitlestring.sty
INPUT c:/texlive/2022/texmf-dist/tex/generic/gettitlestring/gettitlestring.sty
INPUT c:/texlive/2022/texmf-dist/tex/generic/gettitlestring/gettitlestring.sty
INPUT c:/texlive/2022/texmf-dist/tex/generic/gettitlestring/gettitlestring.sty
INPUT c:/texlive/2022/texmf-dist/tex/generic/gettitlestring/gettitlestring.sty
INPUT c:/texlive/2022/texmf-dist/tex/generic/gettitlestring/gettitlestring.sty
INPUT c:/texlive/2022/texmf-dist/tex/generic/gettitlestring/gettitlestring.sty
INPUT c:/texlive/2022/texmf-dist/tex/latex/kvoptions/kvoptions.sty
INPUT c:/texlive/2022/texmf-dist/tex/latex/kvoptions/kvoptions.sty
INPUT c:/texlive/2022/texmf-dist/tex/latex/kvoptions/kvoptions.sty
INPUT c:/texlive/2022/texmf-dist/tex/latex/kvoptions/kvoptions.sty
INPUT c:/texlive/2022/texmf-dist/tex/latex/kvoptions/kvoptions.sty
INPUT c:/texlive/2022/texmf-dist/tex/latex/kvoptions/kvoptions.sty
INPUT c:/texlive/2022/texmf-dist/tex/latex/kvoptions/kvoptions.sty
INPUT c:/texlive/2022/texmf-dist/tex/latex/kvoptions/kvoptions.sty
INPUT c:/texlive/2022/texmf-dist/tex/latex/kvoptions/kvoptions.sty
INPUT c:/texlive/2022/texmf-dist/tex/latex/kvoptions/kvoptions.sty
INPUT c:/texlive/2022/texmf-dist/tex/latex/kvoptions/kvoptions.sty
INPUT c:/texlive/2022/texmf-dist/tex/generic/ltxcmds/ltxcmds.sty
INPUT c:/texlive/2022/texmf-dist/tex/generic/kvsetkeys/kvsetkeys.sty
INPUT c:/texlive/2022/texmf-dist/tex/generic/ltxcmds/ltxcmds.sty
INPUT c:/texlive/2022/texmf-dist/tex/latex/kvoptions/kvoptions.sty
INPUT c:/texlive/2022/texmf-dist/tex/latex/hyperref/pd1enc.def
INPUT c:/texlive/2022/texmf-dist/tex/latex/hyperref/pd1enc.def
INPUT c:/texlive/2022/texmf-dist/tex/latex/hyperref/pd1enc.def
INPUT c:/texlive/2022/texmf-dist/tex/latex/hyperref/pd1enc.def
INPUT c:/texlive/2022/texmf-dist/tex/generic/intcalc/intcalc.sty
INPUT c:/texlive/2022/texmf-dist/tex/generic/intcalc/intcalc.sty
INPUT c:/texlive/2022/texmf-dist/tex/generic/intcalc/intcalc.sty
INPUT c:/texlive/2022/texmf-dist/tex/generic/intcalc/intcalc.sty
INPUT c:/texlive/2022/texmf-dist/tex/generic/intcalc/intcalc.sty
INPUT c:/texlive/2022/texmf-dist/tex/generic/intcalc/intcalc.sty
INPUT c:/texlive/2022/texmf-dist/tex/generic/intcalc/intcalc.sty
INPUT c:/texlive/2022/texmf-dist/tex/generic/intcalc/intcalc.sty
INPUT c:/texlive/2022/texmf-dist/tex/generic/intcalc/intcalc.sty
INPUT c:/texlive/2022/texmf-dist/tex/generic/intcalc/intcalc.sty
INPUT c:/texlive/2022/texmf-dist/tex/generic/intcalc/intcalc.sty
INPUT c:/texlive/2022/texmf-dist/tex/generic/etexcmds/etexcmds.sty
INPUT c:/texlive/2022/texmf-dist/tex/generic/etexcmds/etexcmds.sty
INPUT c:/texlive/2022/texmf-dist/tex/generic/etexcmds/etexcmds.sty
INPUT c:/texlive/2022/texmf-dist/tex/generic/etexcmds/etexcmds.sty
INPUT c:/texlive/2022/texmf-dist/tex/generic/etexcmds/etexcmds.sty
INPUT c:/texlive/2022/texmf-dist/tex/generic/etexcmds/etexcmds.sty
INPUT c:/texlive/2022/texmf-dist/tex/generic/etexcmds/etexcmds.sty
INPUT c:/texlive/2022/texmf-dist/tex/generic/etexcmds/etexcmds.sty
INPUT c:/texlive/2022/texmf-dist/tex/generic/etexcmds/etexcmds.sty
INPUT c:/texlive/2022/texmf-dist/tex/generic/etexcmds/etexcmds.sty
INPUT c:/texlive/2022/texmf-dist/tex/generic/etexcmds/etexcmds.sty
INPUT c:/texlive/2022/texmf-dist/tex/generic/infwarerr/infwarerr.sty
INPUT c:/texlive/2022/texmf-dist/tex/generic/iftex/iftex.sty
INPUT c:/texlive/2022/texmf-dist/tex/latex/hyperref/puenc.def
INPUT c:/texlive/2022/texmf-dist/tex/latex/hyperref/puenc.def
INPUT c:/texlive/2022/texmf-dist/tex/latex/hyperref/puenc.def
INPUT c:/texlive/2022/texmf-dist/tex/latex/hyperref/puenc.def
INPUT c:/texlive/2022/texmf-dist/tex/latex/url/url.sty
INPUT c:/texlive/2022/texmf-dist/tex/latex/url/url.sty
INPUT c:/texlive/2022/texmf-dist/tex/latex/url/url.sty
INPUT c:/texlive/2022/texmf-dist/tex/latex/url/url.sty
INPUT c:/texlive/2022/texmf-dist/tex/latex/url/url.sty
INPUT c:/texlive/2022/texmf-dist/tex/latex/url/url.sty
INPUT c:/texlive/2022/texmf-dist/tex/latex/url/url.sty
INPUT c:/texlive/2022/texmf-dist/tex/latex/url/url.sty
INPUT c:/texlive/2022/texmf-dist/tex/latex/url/url.sty
INPUT c:/texlive/2022/texmf-dist/tex/latex/url/url.sty
INPUT c:/texlive/2022/texmf-dist/tex/latex/url/url.sty
INPUT c:/texlive/2022/texmf-dist/tex/generic/bitset/bitset.sty
INPUT c:/texlive/2022/texmf-dist/tex/generic/bitset/bitset.sty
INPUT c:/texlive/2022/texmf-dist/tex/generic/bitset/bitset.sty
INPUT c:/texlive/2022/texmf-dist/tex/generic/bitset/bitset.sty
INPUT c:/texlive/2022/texmf-dist/tex/generic/bitset/bitset.sty
INPUT c:/texlive/2022/texmf-dist/tex/generic/bitset/bitset.sty
INPUT c:/texlive/2022/texmf-dist/tex/generic/bitset/bitset.sty
INPUT c:/texlive/2022/texmf-dist/tex/generic/bitset/bitset.sty
INPUT c:/texlive/2022/texmf-dist/tex/generic/bitset/bitset.sty
INPUT c:/texlive/2022/texmf-dist/tex/generic/bitset/bitset.sty
INPUT c:/texlive/2022/texmf-dist/tex/generic/bitset/bitset.sty
INPUT c:/texlive/2022/texmf-dist/tex/generic/infwarerr/infwarerr.sty
INPUT c:/texlive/2022/texmf-dist/tex/generic/intcalc/intcalc.sty
INPUT c:/texlive/2022/texmf-dist/tex/generic/bigintcalc/bigintcalc.sty
INPUT c:/texlive/2022/texmf-dist/tex/generic/bigintcalc/bigintcalc.sty
INPUT c:/texlive/2022/texmf-dist/tex/generic/bigintcalc/bigintcalc.sty
INPUT c:/texlive/2022/texmf-dist/tex/generic/bigintcalc/bigintcalc.sty
INPUT c:/texlive/2022/texmf-dist/tex/generic/bigintcalc/bigintcalc.sty
INPUT c:/texlive/2022/texmf-dist/tex/generic/bigintcalc/bigintcalc.sty
INPUT c:/texlive/2022/texmf-dist/tex/generic/bigintcalc/bigintcalc.sty
INPUT c:/texlive/2022/texmf-dist/tex/generic/bigintcalc/bigintcalc.sty
INPUT c:/texlive/2022/texmf-dist/tex/generic/bigintcalc/bigintcalc.sty
INPUT c:/texlive/2022/texmf-dist/tex/generic/bigintcalc/bigintcalc.sty
INPUT c:/texlive/2022/texmf-dist/tex/generic/bigintcalc/bigintcalc.sty
INPUT c:/texlive/2022/texmf-dist/tex/generic/pdftexcmds/pdftexcmds.sty
INPUT c:/texlive/2022/texmf-dist/tex/generic/atbegshi/atbegshi.sty
INPUT c:/texlive/2022/texmf-dist/tex/generic/atbegshi/atbegshi.sty
INPUT c:/texlive/2022/texmf-dist/tex/generic/atbegshi/atbegshi.sty
INPUT c:/texlive/2022/texmf-dist/tex/latex/base/atbegshi-ltx.sty
INPUT c:/texlive/2022/texmf-dist/tex/generic/atbegshi/atbegshi.sty
INPUT c:/texlive/2022/texmf-dist/tex/generic/atbegshi/atbegshi.sty
INPUT c:/texlive/2022/texmf-dist/tex/latex/base/atbegshi-ltx.sty
INPUT c:/texlive/2022/texmf-dist/tex/generic/atbegshi/atbegshi.sty
INPUT c:/texlive/2022/texmf-dist/tex/latex/base/atbegshi-ltx.sty
INPUT c:/texlive/2022/texmf-dist/tex/latex/base/atbegshi-ltx.sty
INPUT c:/texlive/2022/texmf-dist/tex/generic/atbegshi/atbegshi.sty
INPUT c:/texlive/2022/texmf-dist/tex/generic/atbegshi/atbegshi.sty
INPUT c:/texlive/2022/texmf-dist/tex/latex/base/atbegshi-ltx.sty
INPUT c:/texlive/2022/texmf-dist/tex/latex/base/atbegshi-ltx.sty
INPUT c:/texlive/2022/texmf-dist/tex/generic/atbegshi/atbegshi.sty
INPUT c:/texlive/2022/texmf-dist/tex/latex/base/atbegshi-ltx.sty
INPUT c:/texlive/2022/texmf-dist/tex/latex/hyperref/hpdftex.def
INPUT c:/texlive/2022/texmf-dist/tex/latex/hyperref/hpdftex.def
INPUT c:/texlive/2022/texmf-dist/tex/latex/hyperref/hpdftex.def
INPUT c:/texlive/2022/texmf-dist/tex/latex/hyperref/hpdftex.def
INPUT c:/texlive/2022/texmf-dist/tex/latex/atveryend/atveryend.sty
INPUT c:/texlive/2022/texmf-dist/tex/latex/atveryend/atveryend.sty
INPUT c:/texlive/2022/texmf-dist/tex/latex/atveryend/atveryend.sty
INPUT c:/texlive/2022/texmf-dist/tex/latex/base/atveryend-ltx.sty
INPUT c:/texlive/2022/texmf-dist/tex/latex/atveryend/atveryend.sty
INPUT c:/texlive/2022/texmf-dist/tex/latex/atveryend/atveryend.sty
INPUT c:/texlive/2022/texmf-dist/tex/latex/base/atveryend-ltx.sty
INPUT c:/texlive/2022/texmf-dist/tex/latex/atveryend/atveryend.sty
INPUT c:/texlive/2022/texmf-dist/tex/latex/base/atveryend-ltx.sty
INPUT c:/texlive/2022/texmf-dist/tex/latex/base/atveryend-ltx.sty
INPUT c:/texlive/2022/texmf-dist/tex/latex/atveryend/atveryend.sty
INPUT c:/texlive/2022/texmf-dist/tex/latex/atveryend/atveryend.sty
INPUT c:/texlive/2022/texmf-dist/tex/latex/base/atveryend-ltx.sty
INPUT c:/texlive/2022/texmf-dist/tex/latex/base/atveryend-ltx.sty
INPUT c:/texlive/2022/texmf-dist/tex/latex/atveryend/atveryend.sty
INPUT c:/texlive/2022/texmf-dist/tex/latex/base/atveryend-ltx.sty
INPUT c:/texlive/2022/texmf-dist/tex/latex/rerunfilecheck/rerunfilecheck.sty
INPUT c:/texlive/2022/texmf-dist/tex/latex/rerunfilecheck/rerunfilecheck.sty
INPUT c:/texlive/2022/texmf-dist/tex/latex/rerunfilecheck/rerunfilecheck.sty
INPUT c:/texlive/2022/texmf-dist/tex/latex/rerunfilecheck/rerunfilecheck.sty
INPUT c:/texlive/2022/texmf-dist/tex/latex/rerunfilecheck/rerunfilecheck.sty
INPUT c:/texlive/2022/texmf-dist/tex/latex/rerunfilecheck/rerunfilecheck.sty
INPUT c:/texlive/2022/texmf-dist/tex/latex/rerunfilecheck/rerunfilecheck.sty
INPUT c:/texlive/2022/texmf-dist/tex/latex/rerunfilecheck/rerunfilecheck.sty
INPUT c:/texlive/2022/texmf-dist/tex/latex/rerunfilecheck/rerunfilecheck.sty
INPUT c:/texlive/2022/texmf-dist/tex/latex/rerunfilecheck/rerunfilecheck.sty
INPUT c:/texlive/2022/texmf-dist/tex/latex/rerunfilecheck/rerunfilecheck.sty
INPUT c:/texlive/2022/texmf-dist/tex/latex/kvoptions/kvoptions.sty
INPUT c:/texlive/2022/texmf-dist/tex/generic/infwarerr/infwarerr.sty
INPUT c:/texlive/2022/texmf-dist/tex/generic/pdftexcmds/pdftexcmds.sty
INPUT c:/texlive/2022/texmf-dist/tex/latex/atveryend/atveryend.sty
INPUT c:/texlive/2022/texmf-dist/tex/generic/uniquecounter/uniquecounter.sty
INPUT c:/texlive/2022/texmf-dist/tex/generic/uniquecounter/uniquecounter.sty
INPUT c:/texlive/2022/texmf-dist/tex/generic/uniquecounter/uniquecounter.sty
INPUT c:/texlive/2022/texmf-dist/tex/generic/uniquecounter/uniquecounter.sty
INPUT c:/texlive/2022/texmf-dist/tex/generic/uniquecounter/uniquecounter.sty
INPUT c:/texlive/2022/texmf-dist/tex/generic/uniquecounter/uniquecounter.sty
INPUT c:/texlive/2022/texmf-dist/tex/generic/uniquecounter/uniquecounter.sty
INPUT c:/texlive/2022/texmf-dist/tex/generic/uniquecounter/uniquecounter.sty
INPUT c:/texlive/2022/texmf-dist/tex/generic/uniquecounter/uniquecounter.sty
INPUT c:/texlive/2022/texmf-dist/tex/generic/uniquecounter/uniquecounter.sty
INPUT c:/texlive/2022/texmf-dist/tex/generic/uniquecounter/uniquecounter.sty
INPUT c:/texlive/2022/texmf-dist/tex/generic/bigintcalc/bigintcalc.sty
INPUT c:/texlive/2022/texmf-dist/tex/generic/infwarerr/infwarerr.sty
INPUT sections/temp/zdroje.aux
INPUT sections/temp/zdroje.aux
INPUT sections/temp/zdroje.aux
OUTPUT sections/temp/zdroje.aux
INPUT c:/texlive/2022/texmf-dist/tex/context/base/mkii/supp-pdf.mkii
INPUT c:/texlive/2022/texmf-dist/tex/context/base/mkii/supp-pdf.mkii
INPUT c:/texlive/2022/texmf-dist/tex/context/base/mkii/supp-pdf.mkii
INPUT c:/texlive/2022/texmf-dist/tex/context/base/mkii/supp-pdf.mkii
INPUT c:/texlive/2022/texmf-dist/tex/latex/epstopdf-pkg/epstopdf-base.sty
INPUT c:/texlive/2022/texmf-dist/tex/latex/epstopdf-pkg/epstopdf-base.sty
INPUT c:/texlive/2022/texmf-dist/tex/latex/epstopdf-pkg/epstopdf-base.sty
INPUT c:/texlive/2022/texmf-dist/tex/latex/epstopdf-pkg/epstopdf-base.sty
INPUT c:/texlive/2022/texmf-dist/tex/latex/epstopdf-pkg/epstopdf-base.sty
INPUT c:/texlive/2022/texmf-dist/tex/latex/epstopdf-pkg/epstopdf-base.sty
INPUT c:/texlive/2022/texmf-dist/tex/latex/epstopdf-pkg/epstopdf-base.sty
INPUT c:/texlive/2022/texmf-dist/tex/latex/epstopdf-pkg/epstopdf-base.sty
INPUT c:/texlive/2022/texmf-dist/tex/latex/epstopdf-pkg/epstopdf-base.sty
INPUT c:/texlive/2022/texmf-dist/tex/latex/epstopdf-pkg/epstopdf-base.sty
INPUT c:/texlive/2022/texmf-dist/tex/latex/epstopdf-pkg/epstopdf-base.sty
INPUT c:/texlive/2022/texmf-dist/tex/latex/latexconfig/epstopdf-sys.cfg
INPUT c:/texlive/2022/texmf-dist/tex/latex/latexconfig/epstopdf-sys.cfg
INPUT c:/texlive/2022/texmf-dist/tex/latex/latexconfig/epstopdf-sys.cfg
INPUT c:/texlive/2022/texmf-dist/tex/latex/latexconfig/epstopdf-sys.cfg
INPUT c:/texlive/2022/texmf-dist/tex/latex/graphics/color.sty
INPUT sections/temp/zdroje.out
INPUT sections/temp/zdroje.out
INPUT sections/temp/zdroje.out
INPUT sections/temp/zdroje.out
INPUT sections/temp/zdroje.out
INPUT sections/temp/zdroje.out
INPUT sections/temp/zdroje.out
INPUT sections/temp/zdroje.out
INPUT sections/temp/zdroje.out
INPUT sections/temp/zdroje.out
OUTPUT sections/temp/zdroje.out
OUTPUT sections/temp/zdroje.pdf
INPUT sections/temp/zdroje.aux
INPUT sections/temp/zdroje.out
INPUT sections/temp/zdroje.out
