<?xml version="1.0" encoding="utf-8" standalone="no"?>
<!DOCTYPE svg PUBLIC "-//W3C//DTD SVG 1.1//EN"
  "http://www.w3.org/Graphics/SVG/1.1/DTD/svg11.dtd">
<svg xmlns:xlink="http://www.w3.org/1999/xlink" width="460.8pt" height="345.6pt" viewBox="0 0 460.8 345.6" xmlns="http://www.w3.org/2000/svg" version="1.1">
 <metadata>
  <rdf:RDF xmlns:dc="http://purl.org/dc/elements/1.1/" xmlns:cc="http://creativecommons.org/ns#" xmlns:rdf="http://www.w3.org/1999/02/22-rdf-syntax-ns#">
   <cc:Work>
    <dc:type rdf:resource="http://purl.org/dc/dcmitype/StillImage"/>
    <dc:date>2023-08-02T16:52:34.675441</dc:date>
    <dc:format>image/svg+xml</dc:format>
    <dc:creator>
     <cc:Agent>
      <dc:title>Matplotlib v3.5.2, https://matplotlib.org/</dc:title>
     </cc:Agent>
    </dc:creator>
   </cc:Work>
  </rdf:RDF>
 </metadata>
 <defs>
  <style type="text/css">*{stroke-linejoin: round; stroke-linecap: butt}</style>
 </defs>
 <g id="figure_1">
  <g id="patch_1">
   <path d="M 0 345.6 
L 460.8 345.6 
L 460.8 0 
L 0 0 
z
" style="fill: #ffffff"/>
  </g>
  <g id="axes_1">
   <g id="patch_2">
    <path d="M 57.6 307.584 
L 414.72 307.584 
L 414.72 41.472 
L 57.6 41.472 
z
" style="fill: #ffffff"/>
   </g>
   <g id="PathCollection_1">
    <defs>
     <path id="maf6b55f6bc" d="M 0 3 
C 0.795609 3 1.55874 2.683901 2.12132 2.12132 
C 2.683901 1.55874 3 0.795609 3 0 
C 3 -0.795609 2.683901 -1.55874 2.12132 -2.12132 
C 1.55874 -2.683901 0.795609 -3 0 -3 
C -0.795609 -3 -1.55874 -2.683901 -2.12132 -2.12132 
C -2.683901 -1.55874 -3 -0.795609 -3 0 
C -3 0.795609 -2.683901 1.55874 -2.12132 2.12132 
C -1.55874 2.683901 -0.795609 3 0 3 
z
" style="stroke: #228b22"/>
    </defs>
    <g clip-path="url(#pa75c7cc4b6)">
     <use xlink:href="#maf6b55f6bc" x="77.994965" y="155.35012" style="fill: #228b22; stroke: #228b22"/>
     <use xlink:href="#maf6b55f6bc" x="86.319441" y="118.968285" style="fill: #228b22; stroke: #228b22"/>
     <use xlink:href="#maf6b55f6bc" x="94.643916" y="88.30505" style="fill: #228b22; stroke: #228b22"/>
     <use xlink:href="#maf6b55f6bc" x="102.968392" y="66.516496" style="fill: #228b22; stroke: #228b22"/>
     <use xlink:href="#maf6b55f6bc" x="111.292867" y="55.845254" style="fill: #228b22; stroke: #228b22"/>
     <use xlink:href="#maf6b55f6bc" x="119.617343" y="57.389684" style="fill: #228b22; stroke: #228b22"/>
     <use xlink:href="#maf6b55f6bc" x="127.941818" y="70.990824" style="fill: #228b22; stroke: #228b22"/>
     <use xlink:href="#maf6b55f6bc" x="136.266294" y="95.248747" style="fill: #228b22; stroke: #228b22"/>
     <use xlink:href="#maf6b55f6bc" x="144.590769" y="127.666654" style="fill: #228b22; stroke: #228b22"/>
     <use xlink:href="#maf6b55f6bc" x="152.915245" y="164.907865" style="fill: #228b22; stroke: #228b22"/>
     <use xlink:href="#maf6b55f6bc" x="161.23972" y="203.139249" style="fill: #228b22; stroke: #228b22"/>
     <use xlink:href="#maf6b55f6bc" x="169.564196" y="238.425759" style="fill: #228b22; stroke: #228b22"/>
     <use xlink:href="#maf6b55f6bc" x="177.888671" y="267.135457" style="fill: #228b22; stroke: #228b22"/>
     <use xlink:href="#maf6b55f6bc" x="186.213147" y="286.313337" style="fill: #228b22; stroke: #228b22"/>
     <use xlink:href="#maf6b55f6bc" x="194.537622" y="293.985474" style="fill: #228b22; stroke: #228b22"/>
     <use xlink:href="#maf6b55f6bc" x="202.862098" y="289.362198" style="fill: #228b22; stroke: #228b22"/>
     <use xlink:href="#maf6b55f6bc" x="211.186573" y="272.919369" style="fill: #228b22; stroke: #228b22"/>
     <use xlink:href="#maf6b55f6bc" x="219.511049" y="246.349401" style="fill: #228b22; stroke: #228b22"/>
     <use xlink:href="#maf6b55f6bc" x="227.835524" y="212.387062" style="fill: #228b22; stroke: #228b22"/>
     <use xlink:href="#maf6b55f6bc" x="236.16" y="174.528" style="fill: #228b22; stroke: #228b22"/>
     <use xlink:href="#maf6b55f6bc" x="244.484476" y="136.668938" style="fill: #228b22; stroke: #228b22"/>
     <use xlink:href="#maf6b55f6bc" x="252.808951" y="102.706599" style="fill: #228b22; stroke: #228b22"/>
     <use xlink:href="#maf6b55f6bc" x="261.133427" y="76.136631" style="fill: #228b22; stroke: #228b22"/>
     <use xlink:href="#maf6b55f6bc" x="269.457902" y="59.693802" style="fill: #228b22; stroke: #228b22"/>
     <use xlink:href="#maf6b55f6bc" x="277.782378" y="55.070526" style="fill: #228b22; stroke: #228b22"/>
     <use xlink:href="#maf6b55f6bc" x="286.106853" y="62.742663" style="fill: #228b22; stroke: #228b22"/>
     <use xlink:href="#maf6b55f6bc" x="294.431329" y="81.920543" style="fill: #228b22; stroke: #228b22"/>
     <use xlink:href="#maf6b55f6bc" x="302.755804" y="110.630241" style="fill: #228b22; stroke: #228b22"/>
     <use xlink:href="#maf6b55f6bc" x="311.08028" y="145.916751" style="fill: #228b22; stroke: #228b22"/>
     <use xlink:href="#maf6b55f6bc" x="319.404755" y="184.148135" style="fill: #228b22; stroke: #228b22"/>
     <use xlink:href="#maf6b55f6bc" x="327.729231" y="221.389346" style="fill: #228b22; stroke: #228b22"/>
     <use xlink:href="#maf6b55f6bc" x="336.053706" y="253.807253" style="fill: #228b22; stroke: #228b22"/>
     <use xlink:href="#maf6b55f6bc" x="344.378182" y="278.065176" style="fill: #228b22; stroke: #228b22"/>
     <use xlink:href="#maf6b55f6bc" x="352.702657" y="291.666316" style="fill: #228b22; stroke: #228b22"/>
     <use xlink:href="#maf6b55f6bc" x="361.027133" y="293.210746" style="fill: #228b22; stroke: #228b22"/>
     <use xlink:href="#maf6b55f6bc" x="369.351608" y="282.539504" style="fill: #228b22; stroke: #228b22"/>
     <use xlink:href="#maf6b55f6bc" x="377.676084" y="260.75095" style="fill: #228b22; stroke: #228b22"/>
     <use xlink:href="#maf6b55f6bc" x="386.000559" y="230.087715" style="fill: #228b22; stroke: #228b22"/>
     <use xlink:href="#maf6b55f6bc" x="394.325035" y="193.70588" style="fill: #228b22; stroke: #228b22"/>
    </g>
   </g>
   <g id="matplotlib.axis_1">
    <g id="xtick_1">
     <g id="line2d_1">
      <defs>
       <path id="m30f4b8b3de" d="M 0 0 
L 0 3.5 
" style="stroke: #000000; stroke-width: 0.8"/>
      </defs>
      <g>
       <use xlink:href="#m30f4b8b3de" x="73.832727" y="307.584" style="stroke: #000000; stroke-width: 0.8"/>
      </g>
     </g>
     <g id="text_1">
      <!-- −1.00 -->
      <g transform="translate(58.510071 322.182437)scale(0.1 -0.1)">
       <defs>
        <path id="DejaVuSans-2212" d="M 678 2272 
L 4684 2272 
L 4684 1741 
L 678 1741 
L 678 2272 
z
" transform="scale(0.015625)"/>
        <path id="DejaVuSans-31" d="M 794 531 
L 1825 531 
L 1825 4091 
L 703 3866 
L 703 4441 
L 1819 4666 
L 2450 4666 
L 2450 531 
L 3481 531 
L 3481 0 
L 794 0 
L 794 531 
z
" transform="scale(0.015625)"/>
        <path id="DejaVuSans-2e" d="M 684 794 
L 1344 794 
L 1344 0 
L 684 0 
L 684 794 
z
" transform="scale(0.015625)"/>
        <path id="DejaVuSans-30" d="M 2034 4250 
Q 1547 4250 1301 3770 
Q 1056 3291 1056 2328 
Q 1056 1369 1301 889 
Q 1547 409 2034 409 
Q 2525 409 2770 889 
Q 3016 1369 3016 2328 
Q 3016 3291 2770 3770 
Q 2525 4250 2034 4250 
z
M 2034 4750 
Q 2819 4750 3233 4129 
Q 3647 3509 3647 2328 
Q 3647 1150 3233 529 
Q 2819 -91 2034 -91 
Q 1250 -91 836 529 
Q 422 1150 422 2328 
Q 422 3509 836 4129 
Q 1250 4750 2034 4750 
z
" transform="scale(0.015625)"/>
       </defs>
       <use xlink:href="#DejaVuSans-2212"/>
       <use xlink:href="#DejaVuSans-31" x="83.789062"/>
       <use xlink:href="#DejaVuSans-2e" x="147.412109"/>
       <use xlink:href="#DejaVuSans-30" x="179.199219"/>
       <use xlink:href="#DejaVuSans-30" x="242.822266"/>
      </g>
     </g>
    </g>
    <g id="xtick_2">
     <g id="line2d_2">
      <g>
       <use xlink:href="#m30f4b8b3de" x="114.414545" y="307.584" style="stroke: #000000; stroke-width: 0.8"/>
      </g>
     </g>
     <g id="text_2">
      <!-- −0.75 -->
      <g transform="translate(99.091889 322.182437)scale(0.1 -0.1)">
       <defs>
        <path id="DejaVuSans-37" d="M 525 4666 
L 3525 4666 
L 3525 4397 
L 1831 0 
L 1172 0 
L 2766 4134 
L 525 4134 
L 525 4666 
z
" transform="scale(0.015625)"/>
        <path id="DejaVuSans-35" d="M 691 4666 
L 3169 4666 
L 3169 4134 
L 1269 4134 
L 1269 2991 
Q 1406 3038 1543 3061 
Q 1681 3084 1819 3084 
Q 2600 3084 3056 2656 
Q 3513 2228 3513 1497 
Q 3513 744 3044 326 
Q 2575 -91 1722 -91 
Q 1428 -91 1123 -41 
Q 819 9 494 109 
L 494 744 
Q 775 591 1075 516 
Q 1375 441 1709 441 
Q 2250 441 2565 725 
Q 2881 1009 2881 1497 
Q 2881 1984 2565 2268 
Q 2250 2553 1709 2553 
Q 1456 2553 1204 2497 
Q 953 2441 691 2322 
L 691 4666 
z
" transform="scale(0.015625)"/>
       </defs>
       <use xlink:href="#DejaVuSans-2212"/>
       <use xlink:href="#DejaVuSans-30" x="83.789062"/>
       <use xlink:href="#DejaVuSans-2e" x="147.412109"/>
       <use xlink:href="#DejaVuSans-37" x="179.199219"/>
       <use xlink:href="#DejaVuSans-35" x="242.822266"/>
      </g>
     </g>
    </g>
    <g id="xtick_3">
     <g id="line2d_3">
      <g>
       <use xlink:href="#m30f4b8b3de" x="154.996364" y="307.584" style="stroke: #000000; stroke-width: 0.8"/>
      </g>
     </g>
     <g id="text_3">
      <!-- −0.50 -->
      <g transform="translate(139.673707 322.182437)scale(0.1 -0.1)">
       <use xlink:href="#DejaVuSans-2212"/>
       <use xlink:href="#DejaVuSans-30" x="83.789062"/>
       <use xlink:href="#DejaVuSans-2e" x="147.412109"/>
       <use xlink:href="#DejaVuSans-35" x="179.199219"/>
       <use xlink:href="#DejaVuSans-30" x="242.822266"/>
      </g>
     </g>
    </g>
    <g id="xtick_4">
     <g id="line2d_4">
      <g>
       <use xlink:href="#m30f4b8b3de" x="195.578182" y="307.584" style="stroke: #000000; stroke-width: 0.8"/>
      </g>
     </g>
     <g id="text_4">
      <!-- −0.25 -->
      <g transform="translate(180.255526 322.182437)scale(0.1 -0.1)">
       <defs>
        <path id="DejaVuSans-32" d="M 1228 531 
L 3431 531 
L 3431 0 
L 469 0 
L 469 531 
Q 828 903 1448 1529 
Q 2069 2156 2228 2338 
Q 2531 2678 2651 2914 
Q 2772 3150 2772 3378 
Q 2772 3750 2511 3984 
Q 2250 4219 1831 4219 
Q 1534 4219 1204 4116 
Q 875 4013 500 3803 
L 500 4441 
Q 881 4594 1212 4672 
Q 1544 4750 1819 4750 
Q 2544 4750 2975 4387 
Q 3406 4025 3406 3419 
Q 3406 3131 3298 2873 
Q 3191 2616 2906 2266 
Q 2828 2175 2409 1742 
Q 1991 1309 1228 531 
z
" transform="scale(0.015625)"/>
       </defs>
       <use xlink:href="#DejaVuSans-2212"/>
       <use xlink:href="#DejaVuSans-30" x="83.789062"/>
       <use xlink:href="#DejaVuSans-2e" x="147.412109"/>
       <use xlink:href="#DejaVuSans-32" x="179.199219"/>
       <use xlink:href="#DejaVuSans-35" x="242.822266"/>
      </g>
     </g>
    </g>
    <g id="xtick_5">
     <g id="line2d_5">
      <g>
       <use xlink:href="#m30f4b8b3de" x="236.16" y="307.584" style="stroke: #000000; stroke-width: 0.8"/>
      </g>
     </g>
     <g id="text_5">
      <!-- 0.00 -->
      <g transform="translate(225.027187 322.182437)scale(0.1 -0.1)">
       <use xlink:href="#DejaVuSans-30"/>
       <use xlink:href="#DejaVuSans-2e" x="63.623047"/>
       <use xlink:href="#DejaVuSans-30" x="95.410156"/>
       <use xlink:href="#DejaVuSans-30" x="159.033203"/>
      </g>
     </g>
    </g>
    <g id="xtick_6">
     <g id="line2d_6">
      <g>
       <use xlink:href="#m30f4b8b3de" x="276.741818" y="307.584" style="stroke: #000000; stroke-width: 0.8"/>
      </g>
     </g>
     <g id="text_6">
      <!-- 0.25 -->
      <g transform="translate(265.609006 322.182437)scale(0.1 -0.1)">
       <use xlink:href="#DejaVuSans-30"/>
       <use xlink:href="#DejaVuSans-2e" x="63.623047"/>
       <use xlink:href="#DejaVuSans-32" x="95.410156"/>
       <use xlink:href="#DejaVuSans-35" x="159.033203"/>
      </g>
     </g>
    </g>
    <g id="xtick_7">
     <g id="line2d_7">
      <g>
       <use xlink:href="#m30f4b8b3de" x="317.323636" y="307.584" style="stroke: #000000; stroke-width: 0.8"/>
      </g>
     </g>
     <g id="text_7">
      <!-- 0.50 -->
      <g transform="translate(306.190824 322.182437)scale(0.1 -0.1)">
       <use xlink:href="#DejaVuSans-30"/>
       <use xlink:href="#DejaVuSans-2e" x="63.623047"/>
       <use xlink:href="#DejaVuSans-35" x="95.410156"/>
       <use xlink:href="#DejaVuSans-30" x="159.033203"/>
      </g>
     </g>
    </g>
    <g id="xtick_8">
     <g id="line2d_8">
      <g>
       <use xlink:href="#m30f4b8b3de" x="357.905455" y="307.584" style="stroke: #000000; stroke-width: 0.8"/>
      </g>
     </g>
     <g id="text_8">
      <!-- 0.75 -->
      <g transform="translate(346.772642 322.182437)scale(0.1 -0.1)">
       <use xlink:href="#DejaVuSans-30"/>
       <use xlink:href="#DejaVuSans-2e" x="63.623047"/>
       <use xlink:href="#DejaVuSans-37" x="95.410156"/>
       <use xlink:href="#DejaVuSans-35" x="159.033203"/>
      </g>
     </g>
    </g>
    <g id="xtick_9">
     <g id="line2d_9">
      <g>
       <use xlink:href="#m30f4b8b3de" x="398.487273" y="307.584" style="stroke: #000000; stroke-width: 0.8"/>
      </g>
     </g>
     <g id="text_9">
      <!-- 1.00 -->
      <g transform="translate(387.35446 322.182437)scale(0.1 -0.1)">
       <use xlink:href="#DejaVuSans-31"/>
       <use xlink:href="#DejaVuSans-2e" x="63.623047"/>
       <use xlink:href="#DejaVuSans-30" x="95.410156"/>
       <use xlink:href="#DejaVuSans-30" x="159.033203"/>
      </g>
     </g>
    </g>
    <g id="text_10">
     <!-- x -->
     <g transform="translate(233.200625 335.860562)scale(0.1 -0.1)">
      <defs>
       <path id="DejaVuSans-78" d="M 3513 3500 
L 2247 1797 
L 3578 0 
L 2900 0 
L 1881 1375 
L 863 0 
L 184 0 
L 1544 1831 
L 300 3500 
L 978 3500 
L 1906 2253 
L 2834 3500 
L 3513 3500 
z
" transform="scale(0.015625)"/>
      </defs>
      <use xlink:href="#DejaVuSans-78"/>
     </g>
    </g>
   </g>
   <g id="matplotlib.axis_2">
    <g id="ytick_1">
     <g id="line2d_10">
      <defs>
       <path id="m81cf6e5c40" d="M 0 0 
L -3.5 0 
" style="stroke: #000000; stroke-width: 0.8"/>
      </defs>
      <g>
       <use xlink:href="#m81cf6e5c40" x="57.6" y="294.601187" style="stroke: #000000; stroke-width: 0.8"/>
      </g>
     </g>
     <g id="text_11">
      <!-- 0.00 -->
      <g transform="translate(28.334375 298.400406)scale(0.1 -0.1)">
       <use xlink:href="#DejaVuSans-30"/>
       <use xlink:href="#DejaVuSans-2e" x="63.623047"/>
       <use xlink:href="#DejaVuSans-30" x="95.410156"/>
       <use xlink:href="#DejaVuSans-30" x="159.033203"/>
      </g>
     </g>
    </g>
    <g id="ytick_2">
     <g id="line2d_11">
      <g>
       <use xlink:href="#m81cf6e5c40" x="57.6" y="264.58289" style="stroke: #000000; stroke-width: 0.8"/>
      </g>
     </g>
     <g id="text_12">
      <!-- 0.25 -->
      <g transform="translate(28.334375 268.382109)scale(0.1 -0.1)">
       <use xlink:href="#DejaVuSans-30"/>
       <use xlink:href="#DejaVuSans-2e" x="63.623047"/>
       <use xlink:href="#DejaVuSans-32" x="95.410156"/>
       <use xlink:href="#DejaVuSans-35" x="159.033203"/>
      </g>
     </g>
    </g>
    <g id="ytick_3">
     <g id="line2d_12">
      <g>
       <use xlink:href="#m81cf6e5c40" x="57.6" y="234.564594" style="stroke: #000000; stroke-width: 0.8"/>
      </g>
     </g>
     <g id="text_13">
      <!-- 0.50 -->
      <g transform="translate(28.334375 238.363812)scale(0.1 -0.1)">
       <use xlink:href="#DejaVuSans-30"/>
       <use xlink:href="#DejaVuSans-2e" x="63.623047"/>
       <use xlink:href="#DejaVuSans-35" x="95.410156"/>
       <use xlink:href="#DejaVuSans-30" x="159.033203"/>
      </g>
     </g>
    </g>
    <g id="ytick_4">
     <g id="line2d_13">
      <g>
       <use xlink:href="#m81cf6e5c40" x="57.6" y="204.546297" style="stroke: #000000; stroke-width: 0.8"/>
      </g>
     </g>
     <g id="text_14">
      <!-- 0.75 -->
      <g transform="translate(28.334375 208.345516)scale(0.1 -0.1)">
       <use xlink:href="#DejaVuSans-30"/>
       <use xlink:href="#DejaVuSans-2e" x="63.623047"/>
       <use xlink:href="#DejaVuSans-37" x="95.410156"/>
       <use xlink:href="#DejaVuSans-35" x="159.033203"/>
      </g>
     </g>
    </g>
    <g id="ytick_5">
     <g id="line2d_14">
      <g>
       <use xlink:href="#m81cf6e5c40" x="57.6" y="174.528" style="stroke: #000000; stroke-width: 0.8"/>
      </g>
     </g>
     <g id="text_15">
      <!-- 1.00 -->
      <g transform="translate(28.334375 178.327219)scale(0.1 -0.1)">
       <use xlink:href="#DejaVuSans-31"/>
       <use xlink:href="#DejaVuSans-2e" x="63.623047"/>
       <use xlink:href="#DejaVuSans-30" x="95.410156"/>
       <use xlink:href="#DejaVuSans-30" x="159.033203"/>
      </g>
     </g>
    </g>
    <g id="ytick_6">
     <g id="line2d_15">
      <g>
       <use xlink:href="#m81cf6e5c40" x="57.6" y="144.509703" style="stroke: #000000; stroke-width: 0.8"/>
      </g>
     </g>
     <g id="text_16">
      <!-- 1.25 -->
      <g transform="translate(28.334375 148.308922)scale(0.1 -0.1)">
       <use xlink:href="#DejaVuSans-31"/>
       <use xlink:href="#DejaVuSans-2e" x="63.623047"/>
       <use xlink:href="#DejaVuSans-32" x="95.410156"/>
       <use xlink:href="#DejaVuSans-35" x="159.033203"/>
      </g>
     </g>
    </g>
    <g id="ytick_7">
     <g id="line2d_16">
      <g>
       <use xlink:href="#m81cf6e5c40" x="57.6" y="114.491406" style="stroke: #000000; stroke-width: 0.8"/>
      </g>
     </g>
     <g id="text_17">
      <!-- 1.50 -->
      <g transform="translate(28.334375 118.290625)scale(0.1 -0.1)">
       <use xlink:href="#DejaVuSans-31"/>
       <use xlink:href="#DejaVuSans-2e" x="63.623047"/>
       <use xlink:href="#DejaVuSans-35" x="95.410156"/>
       <use xlink:href="#DejaVuSans-30" x="159.033203"/>
      </g>
     </g>
    </g>
    <g id="ytick_8">
     <g id="line2d_17">
      <g>
       <use xlink:href="#m81cf6e5c40" x="57.6" y="84.47311" style="stroke: #000000; stroke-width: 0.8"/>
      </g>
     </g>
     <g id="text_18">
      <!-- 1.75 -->
      <g transform="translate(28.334375 88.272328)scale(0.1 -0.1)">
       <use xlink:href="#DejaVuSans-31"/>
       <use xlink:href="#DejaVuSans-2e" x="63.623047"/>
       <use xlink:href="#DejaVuSans-37" x="95.410156"/>
       <use xlink:href="#DejaVuSans-35" x="159.033203"/>
      </g>
     </g>
    </g>
    <g id="ytick_9">
     <g id="line2d_18">
      <g>
       <use xlink:href="#m81cf6e5c40" x="57.6" y="54.454813" style="stroke: #000000; stroke-width: 0.8"/>
      </g>
     </g>
     <g id="text_19">
      <!-- 2.00 -->
      <g transform="translate(28.334375 58.254032)scale(0.1 -0.1)">
       <use xlink:href="#DejaVuSans-32"/>
       <use xlink:href="#DejaVuSans-2e" x="63.623047"/>
       <use xlink:href="#DejaVuSans-30" x="95.410156"/>
       <use xlink:href="#DejaVuSans-30" x="159.033203"/>
      </g>
     </g>
    </g>
    <g id="text_20">
     <!-- $f_i$ -->
     <g transform="translate(22.254688 177.428)rotate(-90)scale(0.1 -0.1)">
      <defs>
       <path id="DejaVuSans-Oblique-66" d="M 3059 4863 
L 2969 4384 
L 2419 4384 
Q 2106 4384 1964 4261 
Q 1822 4138 1753 3809 
L 1691 3500 
L 2638 3500 
L 2553 3053 
L 1606 3053 
L 1013 0 
L 434 0 
L 1031 3053 
L 481 3053 
L 563 3500 
L 1113 3500 
L 1159 3744 
Q 1278 4363 1576 4613 
Q 1875 4863 2516 4863 
L 3059 4863 
z
" transform="scale(0.015625)"/>
       <path id="DejaVuSans-Oblique-69" d="M 1172 4863 
L 1747 4863 
L 1606 4134 
L 1031 4134 
L 1172 4863 
z
M 909 3500 
L 1484 3500 
L 800 0 
L 225 0 
L 909 3500 
z
" transform="scale(0.015625)"/>
      </defs>
      <use xlink:href="#DejaVuSans-Oblique-66" transform="translate(0 0.015625)"/>
      <use xlink:href="#DejaVuSans-Oblique-69" transform="translate(35.205078 -16.390625)scale(0.7)"/>
     </g>
    </g>
   </g>
   <g id="line2d_19">
    <path d="M 73.832727 174.528 
L 81.307256 140.271532 
L 85.53199 121.993218 
L 88.781785 108.86251 
L 91.706601 97.92648 
L 94.306437 89.02481 
L 96.581294 81.942662 
L 98.856151 75.577889 
L 100.806028 70.730883 
L 102.755905 66.474853 
L 104.380803 63.397189 
L 106.0057 60.758986 
L 107.630598 58.570676 
L 108.930516 57.149827 
L 110.230434 56.026079 
L 111.530352 55.202277 
L 112.83027 54.680506 
L 114.130188 54.462086 
L 115.105127 54.497707 
L 116.080066 54.704239 
L 117.379984 55.244934 
L 118.679902 56.087552 
L 119.97982 57.229959 
L 121.279738 58.669265 
L 122.579656 60.401827 
L 124.204554 62.973168 
L 125.829451 65.985647 
L 127.454349 69.427351 
L 129.404226 74.104693 
L 131.354103 79.353802 
L 133.62896 86.16037 
L 135.903817 93.651633 
L 138.503653 102.976794 
L 141.428468 114.327976 
L 144.678264 127.837694 
L 148.578018 145.003614 
L 154.427649 171.885023 
L 162.552138 209.146203 
L 166.451892 226.041841 
L 169.701687 239.242191 
L 172.626503 250.253789 
L 175.226339 259.232077 
L 177.501196 266.387926 
L 179.776052 272.832021 
L 181.72593 277.751026 
L 183.675807 282.082323 
L 185.300704 285.224899 
L 186.925602 287.929729 
L 188.5505 290.186119 
L 189.850418 291.662297 
L 191.150336 292.84199 
L 192.450254 293.722214 
L 193.750172 294.30074 
L 195.05009 294.576103 
L 196.025029 294.583227 
L 196.999967 294.419405 
L 198.299885 293.935496 
L 199.599803 293.149349 
L 200.899722 292.062955 
L 202.19964 290.679062 
L 203.499558 289.001175 
L 205.124455 286.496924 
L 206.749353 283.549898 
L 208.374251 280.171752 
L 210.324128 275.567822 
L 212.274005 270.388614 
L 214.548862 263.658632 
L 216.823718 256.238043 
L 219.423554 246.985713 
L 222.34837 235.705469 
L 225.598165 222.25986 
L 229.49792 205.149073 
L 235.022572 179.812673 
L 243.797019 139.548404 
L 247.696773 122.673331 
L 250.946568 109.496065 
L 253.871384 98.509548 
L 256.47122 89.556711 
L 258.746077 82.425358 
L 261.020934 76.007641 
L 262.970811 71.112587 
L 264.920688 66.806336 
L 266.545586 63.685367 
L 268.170483 61.002719 
L 269.795381 58.769001 
L 271.095299 57.311252 
L 272.395217 56.150195 
L 273.695135 55.28877 
L 274.995053 54.729157 
L 276.294971 54.472773 
L 277.26991 54.479897 
L 278.244848 54.657958 
L 279.544767 55.1608 
L 280.844685 55.965779 
L 282.144603 57.070855 
L 283.444521 58.473233 
L 284.744439 60.169362 
L 286.369337 62.696001 
L 287.994234 65.664874 
L 289.619132 69.06424 
L 291.569009 73.692687 
L 293.518886 78.895247 
L 295.793743 85.650824 
L 298.0686 93.095045 
L 300.668436 102.371743 
L 303.593251 113.675745 
L 306.843047 127.142857 
L 310.742801 144.272191 
L 316.592432 171.130066 
L 325.0419 209.868644 
L 328.941654 226.722984 
L 332.19145 239.877035 
L 335.116265 250.838363 
L 337.716102 259.765661 
L 339.990958 266.872447 
L 342.265815 273.263723 
L 344.215692 278.134778 
L 346.165569 282.415939 
L 347.790467 285.515271 
L 349.415364 288.175709 
L 351.040262 290.386735 
L 352.34018 291.826041 
L 353.640098 292.968448 
L 354.940016 293.811066 
L 356.239934 294.351761 
L 357.539853 294.589164 
L 358.514791 294.567792 
L 359.48973 294.375494 
L 360.789648 293.853723 
L 362.089566 293.029921 
L 363.389484 291.906173 
L 364.689402 290.485324 
L 365.98932 288.77097 
L 367.614218 286.221968 
L 369.239115 283.231277 
L 370.864013 279.810725 
L 372.81389 275.157808 
L 374.763767 269.931947 
L 377.038624 263.150841 
L 379.313481 255.683063 
L 381.913317 246.382087 
L 384.838133 235.054439 
L 388.087928 221.565957 
L 391.987682 204.418245 
L 397.837314 177.54847 
L 398.487273 174.528 
L 398.487273 174.528 
" clip-path="url(#pa75c7cc4b6)" style="fill: none; stroke: #0000ff; stroke-width: 1.5; stroke-linecap: square"/>
   </g>
   <g id="line2d_20">
    <path d="M 73.840844 168.471391 
L 74.18702 167.377951 
L 74.533197 166.284512 
L 74.879374 165.191073 
L 75.225551 164.097634 
L 75.571728 163.004195 
L 75.917904 161.910755 
L 76.264081 160.817316 
L 76.610258 159.723877 
L 76.956435 158.630438 
L 77.302611 157.536999 
L 77.648788 156.443559 
L 77.994965 155.35012 
L 78.341142 154.256681 
L 78.687319 153.163242 
L 79.033495 152.069803 
L 79.379672 150.976364 
L 79.725849 149.882924 
L 80.072026 148.789485 
L 80.418203 147.696046 
L 80.764379 146.602607 
L 81.110556 145.509168 
L 81.456733 144.415728 
L 81.80291 143.322289 
L 82.149086 142.22885 
" clip-path="url(#pa75c7cc4b6)" style="fill: none; stroke: #008000; stroke-width: 1.5; stroke-linecap: square"/>
   </g>
   <g id="line2d_21">
    <path d="M 82.165319 135.696868 
L 82.511496 134.302819 
L 82.857673 132.908771 
L 83.20385 131.514722 
L 83.550026 130.120673 
L 83.896203 128.726625 
L 84.24238 127.332576 
L 84.588557 125.938528 
L 84.934733 124.544479 
L 85.28091 123.15043 
L 85.627087 121.756382 
L 85.973264 120.362333 
L 86.319441 118.968285 
L 86.665617 117.574236 
L 87.011794 116.180188 
L 87.357971 114.786139 
L 87.704148 113.39209 
L 88.050324 111.998042 
L 88.396501 110.603993 
L 88.742678 109.209945 
L 89.088855 107.815896 
L 89.435032 106.421847 
L 89.781208 105.027799 
L 90.127385 103.63375 
L 90.473562 102.239702 
" clip-path="url(#pa75c7cc4b6)" style="fill: none; stroke: #008000; stroke-width: 1.5; stroke-linecap: square"/>
   </g>
   <g id="line2d_22">
    <path d="M 90.489795 101.392427 
L 90.835971 100.301813 
L 91.182148 99.211198 
L 91.528325 98.120583 
L 91.874502 97.029968 
L 92.220679 95.939354 
L 92.566855 94.848739 
L 92.913032 93.758124 
L 93.259209 92.667509 
L 93.605386 91.576895 
L 93.951563 90.48628 
L 94.297739 89.395665 
L 94.643916 88.30505 
L 94.990093 87.214436 
L 95.33627 86.123821 
L 95.682446 85.033206 
L 96.028623 83.942591 
L 96.3748 82.851977 
L 96.720977 81.761362 
L 97.067154 80.670747 
L 97.41333 79.580132 
L 97.759507 78.489518 
L 98.105684 77.398903 
L 98.451861 76.308288 
L 98.798037 75.217673 
" clip-path="url(#pa75c7cc4b6)" style="fill: none; stroke: #008000; stroke-width: 1.5; stroke-linecap: square"/>
   </g>
   <g id="line2d_23">
    <path d="M 98.81427 74.615621 
L 99.160447 73.940694 
L 99.506624 73.265767 
L 99.852801 72.590839 
L 100.198977 71.915912 
L 100.545154 71.240985 
L 100.891331 70.566058 
L 101.237508 69.891131 
L 101.583684 69.216204 
L 101.929861 68.541277 
L 102.276038 67.86635 
L 102.622215 67.191423 
L 102.968392 66.516496 
L 103.314568 65.841569 
L 103.660745 65.166641 
L 104.006922 64.491714 
L 104.353099 63.816787 
L 104.699276 63.14186 
L 105.045452 62.466933 
L 105.391629 61.792006 
L 105.737806 61.117079 
L 106.083983 60.442152 
L 106.430159 59.767225 
L 106.776336 59.092298 
L 107.122513 58.417371 
" clip-path="url(#pa75c7cc4b6)" style="fill: none; stroke: #008000; stroke-width: 1.5; stroke-linecap: square"/>
   </g>
   <g id="line2d_24">
    <path d="M 107.138746 58.122507 
L 107.484923 57.932736 
L 107.831099 57.742965 
L 108.177276 57.553194 
L 108.523453 57.363423 
L 108.86963 57.173651 
L 109.215806 56.98388 
L 109.561983 56.794109 
L 109.90816 56.604338 
L 110.254337 56.414567 
L 110.600514 56.224796 
L 110.94669 56.035025 
L 111.292867 55.845254 
L 111.639044 55.655482 
L 111.985221 55.465711 
L 112.331397 55.27594 
L 112.677574 55.086169 
L 113.023751 54.896398 
L 113.369928 54.706627 
L 113.716105 54.516856 
L 114.062281 54.327085 
L 114.408458 54.137313 
L 114.754635 53.947542 
L 115.100812 53.757771 
L 115.446989 53.568 
" clip-path="url(#pa75c7cc4b6)" style="fill: none; stroke: #008000; stroke-width: 1.5; stroke-linecap: square"/>
   </g>
   <g id="line2d_25">
    <path d="M 115.463221 53.610675 
L 115.809398 53.925593 
L 116.155575 54.24051 
L 116.501752 54.555427 
L 116.847928 54.870345 
L 117.194105 55.185262 
L 117.540282 55.50018 
L 117.886459 55.815097 
L 118.232636 56.130015 
L 118.578812 56.444932 
L 118.924989 56.759849 
L 119.271166 57.074767 
L 119.617343 57.389684 
L 119.963519 57.704602 
L 120.309696 58.019519 
L 120.655873 58.334437 
L 121.00205 58.649354 
L 121.348227 58.964271 
L 121.694403 59.279189 
L 122.04058 59.594106 
L 122.386757 59.909024 
L 122.732934 60.223941 
L 123.07911 60.538859 
L 123.425287 60.853776 
L 123.771464 61.168693 
" clip-path="url(#pa75c7cc4b6)" style="fill: none; stroke: #008000; stroke-width: 1.5; stroke-linecap: square"/>
   </g>
   <g id="line2d_26">
    <path d="M 123.787697 61.544515 
L 124.133874 62.331707 
L 124.48005 63.1189 
L 124.826227 63.906092 
L 125.172404 64.693284 
L 125.518581 65.480477 
L 125.864757 66.267669 
L 126.210934 67.054862 
L 126.557111 67.842054 
L 126.903288 68.629247 
L 127.249465 69.416439 
L 127.595641 70.203632 
L 127.941818 70.990824 
L 128.287995 71.778016 
L 128.634172 72.565209 
L 128.980349 73.352401 
L 129.326525 74.139594 
L 129.672702 74.926786 
L 130.018879 75.713979 
L 130.365056 76.501171 
L 130.711232 77.288364 
L 131.057409 78.075556 
L 131.403586 78.862748 
L 131.749763 79.649941 
L 132.09594 80.437133 
" clip-path="url(#pa75c7cc4b6)" style="fill: none; stroke: #008000; stroke-width: 1.5; stroke-linecap: square"/>
   </g>
   <g id="line2d_27">
    <path d="M 132.112172 81.107419 
L 132.458349 82.285863 
L 132.804526 83.464307 
L 133.150703 84.642751 
L 133.496879 85.821195 
L 133.843056 86.999639 
L 134.189233 88.178083 
L 134.53541 89.356527 
L 134.881587 90.534971 
L 135.227763 91.713415 
L 135.57394 92.891859 
L 135.920117 94.070303 
L 136.266294 95.248747 
L 136.61247 96.427191 
L 136.958647 97.605635 
L 137.304824 98.784079 
L 137.651001 99.962523 
L 137.997178 101.140967 
L 138.343354 102.319411 
L 138.689531 103.497855 
L 139.035708 104.676299 
L 139.381885 105.854743 
L 139.728062 107.033187 
L 140.074238 108.211631 
L 140.420415 109.390075 
" clip-path="url(#pa75c7cc4b6)" style="fill: none; stroke: #008000; stroke-width: 1.5; stroke-linecap: square"/>
   </g>
   <g id="line2d_28">
    <path d="M 140.436648 110.285833 
L 140.782825 111.734235 
L 141.129001 113.182637 
L 141.475178 114.631039 
L 141.821355 116.07944 
L 142.167532 117.527842 
L 142.513709 118.976244 
L 142.859885 120.424646 
L 143.206062 121.873047 
L 143.552239 123.321449 
L 143.898416 124.769851 
L 144.244592 126.218253 
L 144.590769 127.666654 
L 144.936946 129.115056 
L 145.283123 130.563458 
L 145.6293 132.011859 
L 145.975476 133.460261 
L 146.321653 134.908663 
L 146.66783 136.357065 
L 147.014007 137.805466 
L 147.360183 139.253868 
L 147.70636 140.70227 
L 148.052537 142.150672 
L 148.398714 143.599073 
L 148.744891 145.047475 
" clip-path="url(#pa75c7cc4b6)" style="fill: none; stroke: #008000; stroke-width: 1.5; stroke-linecap: square"/>
   </g>
   <g id="line2d_29">
    <path d="M 148.761123 146.076509 
L 149.1073 147.645789 
L 149.453477 149.215069 
L 149.799654 150.784348 
L 150.14583 152.353628 
L 150.492007 153.922908 
L 150.838184 155.492187 
L 151.184361 157.061467 
L 151.530538 158.630746 
L 151.876714 160.200026 
L 152.222891 161.769306 
L 152.569068 163.338585 
L 152.915245 164.907865 
L 153.261422 166.477145 
L 153.607598 168.046424 
L 153.953775 169.615704 
L 154.299952 171.184984 
L 154.646129 172.754263 
L 154.992305 174.323543 
L 155.338482 175.892822 
L 155.684659 177.462102 
L 156.030836 179.031382 
L 156.377013 180.600661 
L 156.723189 182.169941 
L 157.069366 183.739221 
" clip-path="url(#pa75c7cc4b6)" style="fill: none; stroke: #008000; stroke-width: 1.5; stroke-linecap: square"/>
   </g>
   <g id="line2d_30">
    <path d="M 157.085599 184.795615 
L 157.431776 186.324251 
L 157.777952 187.852887 
L 158.124129 189.381523 
L 158.470306 190.91016 
L 158.816483 192.438796 
L 159.16266 193.967432 
L 159.508836 195.496068 
L 159.855013 197.024704 
L 160.20119 198.55334 
L 160.547367 200.081976 
L 160.893543 201.610612 
L 161.23972 203.139249 
L 161.585897 204.667885 
L 161.932074 206.196521 
L 162.278251 207.725157 
L 162.624427 209.253793 
L 162.970604 210.782429 
L 163.316781 212.311065 
L 163.662958 213.839701 
L 164.009135 215.368337 
L 164.355311 216.896974 
L 164.701488 218.42561 
L 165.047665 219.954246 
L 165.393842 221.482882 
" clip-path="url(#pa75c7cc4b6)" style="fill: none; stroke: #008000; stroke-width: 1.5; stroke-linecap: square"/>
   </g>
   <g id="line2d_31">
    <path d="M 165.410074 222.457905 
L 165.756251 223.788559 
L 166.102428 225.119214 
L 166.448605 226.449868 
L 166.794782 227.780523 
L 167.140958 229.111177 
L 167.487135 230.441832 
L 167.833312 231.772486 
L 168.179489 233.103141 
L 168.525665 234.433795 
L 168.871842 235.76445 
L 169.218019 237.095104 
L 169.564196 238.425759 
L 169.910373 239.756413 
L 170.256549 241.087068 
L 170.602726 242.417722 
L 170.948903 243.748377 
L 171.29508 245.079031 
L 171.641257 246.409686 
L 171.987433 247.74034 
L 172.33361 249.070995 
L 172.679787 250.401649 
L 173.025964 251.732304 
L 173.37214 253.062958 
L 173.718317 254.393613 
" clip-path="url(#pa75c7cc4b6)" style="fill: none; stroke: #008000; stroke-width: 1.5; stroke-linecap: square"/>
   </g>
   <g id="line2d_32">
    <path d="M 173.73455 255.186908 
L 174.080727 256.18262 
L 174.426903 257.178333 
L 174.77308 258.174045 
L 175.119257 259.169757 
L 175.465434 260.16547 
L 175.811611 261.161182 
L 176.157787 262.156895 
L 176.503964 263.152607 
L 176.850141 264.14832 
L 177.196318 265.144032 
L 177.542495 266.139744 
L 177.888671 267.135457 
L 178.234848 268.131169 
L 178.581025 269.126882 
L 178.927202 270.122594 
L 179.273378 271.118307 
L 179.619555 272.114019 
L 179.965732 273.109732 
L 180.311909 274.105444 
L 180.658086 275.101156 
L 181.004262 276.096869 
L 181.350439 277.092581 
L 181.696616 278.088294 
L 182.042793 279.084006 
" clip-path="url(#pa75c7cc4b6)" style="fill: none; stroke: #008000; stroke-width: 1.5; stroke-linecap: square"/>
   </g>
   <g id="line2d_33">
    <path d="M 182.059025 279.613922 
L 182.405202 280.172206 
L 182.751379 280.730491 
L 183.097556 281.288775 
L 183.443733 281.84706 
L 183.789909 282.405345 
L 184.136086 282.963629 
L 184.482263 283.521914 
L 184.82844 284.080198 
L 185.174617 284.638483 
L 185.520793 285.196767 
L 185.86697 285.755052 
L 186.213147 286.313337 
L 186.559324 286.871621 
L 186.9055 287.429906 
L 187.251677 287.98819 
L 187.597854 288.546475 
L 187.944031 289.10476 
L 188.290208 289.663044 
L 188.636384 290.221329 
L 188.982561 290.779613 
L 189.328738 291.337898 
L 189.674915 291.896182 
L 190.021091 292.454467 
L 190.367268 293.012752 
" clip-path="url(#pa75c7cc4b6)" style="fill: none; stroke: #008000; stroke-width: 1.5; stroke-linecap: square"/>
   </g>
   <g id="line2d_34">
    <path d="M 190.383501 293.224745 
L 190.729678 293.288139 
L 191.075855 293.351533 
L 191.422031 293.414927 
L 191.768208 293.478321 
L 192.114385 293.541715 
L 192.460562 293.60511 
L 192.806738 293.668504 
L 193.152915 293.731898 
L 193.499092 293.795292 
L 193.845269 293.858686 
L 194.191446 293.92208 
L 194.537622 293.985474 
L 194.883799 294.048868 
L 195.229976 294.112262 
L 195.576153 294.175656 
L 195.92233 294.23905 
L 196.268506 294.302444 
L 196.614683 294.365839 
L 196.96086 294.429233 
L 197.307037 294.492627 
L 197.653213 294.556021 
L 197.99939 294.619415 
L 198.345567 294.682809 
L 198.691744 294.746203 
" clip-path="url(#pa75c7cc4b6)" style="fill: none; stroke: #008000; stroke-width: 1.5; stroke-linecap: square"/>
   </g>
   <g id="line2d_35">
    <path d="M 198.707977 294.618455 
L 199.054153 294.180433 
L 199.40033 293.742412 
L 199.746507 293.30439 
L 200.092684 292.866369 
L 200.43886 292.428348 
L 200.785037 291.990326 
L 201.131214 291.552305 
L 201.477391 291.114284 
L 201.823568 290.676262 
L 202.169744 290.238241 
L 202.515921 289.800219 
L 202.862098 289.362198 
L 203.208275 288.924177 
L 203.554451 288.486155 
L 203.900628 288.048134 
L 204.246805 287.610113 
L 204.592982 287.172091 
L 204.939159 286.73407 
L 205.285335 286.296049 
L 205.631512 285.858027 
L 205.977689 285.420006 
L 206.323866 284.981984 
L 206.670043 284.543963 
L 207.016219 284.105942 
" clip-path="url(#pa75c7cc4b6)" style="fill: none; stroke: #008000; stroke-width: 1.5; stroke-linecap: square"/>
   </g>
   <g id="line2d_36">
    <path d="M 207.032452 283.6516 
L 207.378629 282.757247 
L 207.724806 281.862895 
L 208.070982 280.968542 
L 208.417159 280.07419 
L 208.763336 279.179837 
L 209.109513 278.285485 
L 209.45569 277.391132 
L 209.801866 276.49678 
L 210.148043 275.602427 
L 210.49422 274.708074 
L 210.840397 273.813722 
L 211.186573 272.919369 
L 211.53275 272.025017 
L 211.878927 271.130664 
L 212.225104 270.236312 
L 212.571281 269.341959 
L 212.917457 268.447607 
L 213.263634 267.553254 
L 213.609811 266.658902 
L 213.955988 265.764549 
L 214.302164 264.870196 
L 214.648341 263.975844 
L 214.994518 263.081491 
L 215.340695 262.187139 
" clip-path="url(#pa75c7cc4b6)" style="fill: none; stroke: #008000; stroke-width: 1.5; stroke-linecap: square"/>
   </g>
   <g id="line2d_37">
    <path d="M 215.356928 261.452968 
L 215.703104 260.194337 
L 216.049281 258.935707 
L 216.395458 257.677076 
L 216.741635 256.418446 
L 217.087811 255.159815 
L 217.433988 253.901184 
L 217.780165 252.642554 
L 218.126342 251.383923 
L 218.472519 250.125293 
L 218.818695 248.866662 
L 219.164872 247.608031 
L 219.511049 246.349401 
L 219.857226 245.09077 
L 220.203403 243.83214 
L 220.549579 242.573509 
L 220.895756 241.314878 
L 221.241933 240.056248 
L 221.58811 238.797617 
L 221.934286 237.538986 
L 222.280463 236.280356 
L 222.62664 235.021725 
L 222.972817 233.763095 
L 223.318994 232.504464 
L 223.66517 231.245833 
" clip-path="url(#pa75c7cc4b6)" style="fill: none; stroke: #008000; stroke-width: 1.5; stroke-linecap: square"/>
   </g>
   <g id="line2d_38">
    <path d="M 223.681403 230.3074 
L 224.02758 228.814038 
L 224.373757 227.320677 
L 224.719933 225.827315 
L 225.06611 224.333954 
L 225.412287 222.840592 
L 225.758464 221.347231 
L 226.104641 219.85387 
L 226.450817 218.360508 
L 226.796994 216.867147 
L 227.143171 215.373785 
L 227.489348 213.880424 
L 227.835524 212.387062 
L 228.181701 210.893701 
L 228.527878 209.40034 
L 228.874055 207.906978 
L 229.220232 206.413617 
L 229.566408 204.920255 
L 229.912585 203.426894 
L 230.258762 201.933532 
L 230.604939 200.440171 
L 230.951116 198.946809 
L 231.297292 197.453448 
L 231.643469 195.960087 
L 231.989646 194.466725 
" clip-path="url(#pa75c7cc4b6)" style="fill: none; stroke: #008000; stroke-width: 1.5; stroke-linecap: square"/>
   </g>
   <g id="line2d_39">
    <path d="M 232.005879 193.420619 
L 232.352055 191.846234 
L 232.698232 190.271849 
L 233.044409 188.697464 
L 233.390586 187.123079 
L 233.736763 185.548694 
L 234.082939 183.974309 
L 234.429116 182.399924 
L 234.775293 180.82554 
L 235.12147 179.251155 
L 235.467646 177.67677 
L 235.813823 176.102385 
L 236.16 174.528 
L 236.506177 172.953615 
L 236.852354 171.37923 
L 237.19853 169.804845 
L 237.544707 168.23046 
L 237.890884 166.656076 
L 238.237061 165.081691 
L 238.583237 163.507306 
L 238.929414 161.932921 
L 239.275591 160.358536 
L 239.621768 158.784151 
L 239.967945 157.209766 
L 240.314121 155.635381 
" clip-path="url(#pa75c7cc4b6)" style="fill: none; stroke: #008000; stroke-width: 1.5; stroke-linecap: square"/>
   </g>
   <g id="line2d_40">
    <path d="M 240.330354 154.589275 
L 240.676531 153.095913 
L 241.022708 151.602552 
L 241.368884 150.109191 
L 241.715061 148.615829 
L 242.061238 147.122468 
L 242.407415 145.629106 
L 242.753592 144.135745 
L 243.099768 142.642383 
L 243.445945 141.149022 
L 243.792122 139.65566 
L 244.138299 138.162299 
L 244.484476 136.668938 
L 244.830652 135.175576 
L 245.176829 133.682215 
L 245.523006 132.188853 
L 245.869183 130.695492 
L 246.215359 129.20213 
L 246.561536 127.708769 
L 246.907713 126.215408 
L 247.25389 124.722046 
L 247.600067 123.228685 
L 247.946243 121.735323 
L 248.29242 120.241962 
L 248.638597 118.7486 
" clip-path="url(#pa75c7cc4b6)" style="fill: none; stroke: #008000; stroke-width: 1.5; stroke-linecap: square"/>
   </g>
   <g id="line2d_41">
    <path d="M 248.65483 117.810167 
L 249.001006 116.551536 
L 249.347183 115.292905 
L 249.69336 114.034275 
L 250.039537 112.775644 
L 250.385714 111.517014 
L 250.73189 110.258383 
L 251.078067 108.999752 
L 251.424244 107.741122 
L 251.770421 106.482491 
L 252.116597 105.22386 
L 252.462774 103.96523 
L 252.808951 102.706599 
L 253.155128 101.447969 
L 253.501305 100.189338 
L 253.847481 98.930707 
L 254.193658 97.672077 
L 254.539835 96.413446 
L 254.886012 95.154816 
L 255.232189 93.896185 
L 255.578365 92.637554 
L 255.924542 91.378924 
L 256.270719 90.120293 
L 256.616896 88.861663 
L 256.963072 87.603032 
" clip-path="url(#pa75c7cc4b6)" style="fill: none; stroke: #008000; stroke-width: 1.5; stroke-linecap: square"/>
   </g>
   <g id="line2d_42">
    <path d="M 256.979305 86.868861 
L 257.325482 85.974509 
L 257.671659 85.080156 
L 258.017836 84.185804 
L 258.364012 83.291451 
L 258.710189 82.397098 
L 259.056366 81.502746 
L 259.402543 80.608393 
L 259.748719 79.714041 
L 260.094896 78.819688 
L 260.441073 77.925336 
L 260.78725 77.030983 
L 261.133427 76.136631 
L 261.479603 75.242278 
L 261.82578 74.347926 
L 262.171957 73.453573 
L 262.518134 72.55922 
L 262.86431 71.664868 
L 263.210487 70.770515 
L 263.556664 69.876163 
L 263.902841 68.98181 
L 264.249018 68.087458 
L 264.595194 67.193105 
L 264.941371 66.298753 
L 265.287548 65.4044 
" clip-path="url(#pa75c7cc4b6)" style="fill: none; stroke: #008000; stroke-width: 1.5; stroke-linecap: square"/>
   </g>
   <g id="line2d_43">
    <path d="M 265.303781 64.950058 
L 265.649957 64.512037 
L 265.996134 64.074016 
L 266.342311 63.635994 
L 266.688488 63.197973 
L 267.034665 62.759951 
L 267.380841 62.32193 
L 267.727018 61.883909 
L 268.073195 61.445887 
L 268.419372 61.007866 
L 268.765549 60.569845 
L 269.111725 60.131823 
L 269.457902 59.693802 
L 269.804079 59.255781 
L 270.150256 58.817759 
L 270.496432 58.379738 
L 270.842609 57.941716 
L 271.188786 57.503695 
L 271.534963 57.065674 
L 271.88114 56.627652 
L 272.227316 56.189631 
L 272.573493 55.75161 
L 272.91967 55.313588 
L 273.265847 54.875567 
L 273.612023 54.437545 
" clip-path="url(#pa75c7cc4b6)" style="fill: none; stroke: #008000; stroke-width: 1.5; stroke-linecap: square"/>
   </g>
   <g id="line2d_44">
    <path d="M 273.628256 54.309797 
L 273.974433 54.373191 
L 274.32061 54.436585 
L 274.666787 54.499979 
L 275.012963 54.563373 
L 275.35914 54.626767 
L 275.705317 54.690161 
L 276.051494 54.753556 
L 276.39767 54.81695 
L 276.743847 54.880344 
L 277.090024 54.943738 
L 277.436201 55.007132 
L 277.782378 55.070526 
L 278.128554 55.13392 
L 278.474731 55.197314 
L 278.820908 55.260708 
L 279.167085 55.324102 
L 279.513262 55.387496 
L 279.859438 55.45089 
L 280.205615 55.514285 
L 280.551792 55.577679 
L 280.897969 55.641073 
L 281.244145 55.704467 
L 281.590322 55.767861 
L 281.936499 55.831255 
" clip-path="url(#pa75c7cc4b6)" style="fill: none; stroke: #008000; stroke-width: 1.5; stroke-linecap: square"/>
   </g>
   <g id="line2d_45">
    <path d="M 281.952732 56.043248 
L 282.298909 56.601533 
L 282.645085 57.159818 
L 282.991262 57.718102 
L 283.337439 58.276387 
L 283.683616 58.834671 
L 284.029792 59.392956 
L 284.375969 59.95124 
L 284.722146 60.509525 
L 285.068323 61.06781 
L 285.4145 61.626094 
L 285.760676 62.184379 
L 286.106853 62.742663 
L 286.45303 63.300948 
L 286.799207 63.859233 
L 287.145383 64.417517 
L 287.49156 64.975802 
L 287.837737 65.534086 
L 288.183914 66.092371 
L 288.530091 66.650655 
L 288.876267 67.20894 
L 289.222444 67.767225 
L 289.568621 68.325509 
L 289.914798 68.883794 
L 290.260975 69.442078 
" clip-path="url(#pa75c7cc4b6)" style="fill: none; stroke: #008000; stroke-width: 1.5; stroke-linecap: square"/>
   </g>
   <g id="line2d_46">
    <path d="M 290.277207 69.971994 
L 290.623384 70.967706 
L 290.969561 71.963419 
L 291.315738 72.959131 
L 291.661914 73.954844 
L 292.008091 74.950556 
L 292.354268 75.946268 
L 292.700445 76.941981 
L 293.046622 77.937693 
L 293.392798 78.933406 
L 293.738975 79.929118 
L 294.085152 80.924831 
L 294.431329 81.920543 
L 294.777505 82.916256 
L 295.123682 83.911968 
L 295.469859 84.90768 
L 295.816036 85.903393 
L 296.162213 86.899105 
L 296.508389 87.894818 
L 296.854566 88.89053 
L 297.200743 89.886243 
L 297.54692 90.881955 
L 297.893097 91.877667 
L 298.239273 92.87338 
L 298.58545 93.869092 
" clip-path="url(#pa75c7cc4b6)" style="fill: none; stroke: #008000; stroke-width: 1.5; stroke-linecap: square"/>
   </g>
   <g id="line2d_47">
    <path d="M 298.601683 94.662387 
L 298.94786 95.993042 
L 299.294036 97.323696 
L 299.640213 98.654351 
L 299.98639 99.985005 
L 300.332567 101.31566 
L 300.678743 102.646314 
L 301.02492 103.976969 
L 301.371097 105.307623 
L 301.717274 106.638278 
L 302.063451 107.968932 
L 302.409627 109.299587 
L 302.755804 110.630241 
L 303.101981 111.960896 
L 303.448158 113.29155 
L 303.794335 114.622205 
L 304.140511 115.952859 
L 304.486688 117.283514 
L 304.832865 118.614168 
L 305.179042 119.944823 
L 305.525218 121.275477 
L 305.871395 122.606132 
L 306.217572 123.936786 
L 306.563749 125.267441 
L 306.909926 126.598095 
" clip-path="url(#pa75c7cc4b6)" style="fill: none; stroke: #008000; stroke-width: 1.5; stroke-linecap: square"/>
   </g>
   <g id="line2d_48">
    <path d="M 306.926158 127.573118 
L 307.272335 129.101754 
L 307.618512 130.63039 
L 307.964689 132.159026 
L 308.310865 133.687663 
L 308.657042 135.216299 
L 309.003219 136.744935 
L 309.349396 138.273571 
L 309.695573 139.802207 
L 310.041749 141.330843 
L 310.387926 142.859479 
L 310.734103 144.388115 
L 311.08028 145.916751 
L 311.426457 147.445388 
L 311.772633 148.974024 
L 312.11881 150.50266 
L 312.464987 152.031296 
L 312.811164 153.559932 
L 313.15734 155.088568 
L 313.503517 156.617204 
L 313.849694 158.14584 
L 314.195871 159.674477 
L 314.542048 161.203113 
L 314.888224 162.731749 
L 315.234401 164.260385 
" clip-path="url(#pa75c7cc4b6)" style="fill: none; stroke: #008000; stroke-width: 1.5; stroke-linecap: square"/>
   </g>
   <g id="line2d_49">
    <path d="M 315.250634 165.316779 
L 315.596811 166.886059 
L 315.942987 168.455339 
L 316.289164 170.024618 
L 316.635341 171.593898 
L 316.981518 173.163178 
L 317.327695 174.732457 
L 317.673871 176.301737 
L 318.020048 177.871016 
L 318.366225 179.440296 
L 318.712402 181.009576 
L 319.058578 182.578855 
L 319.404755 184.148135 
L 319.750932 185.717415 
L 320.097109 187.286694 
L 320.443286 188.855974 
L 320.789462 190.425254 
L 321.135639 191.994533 
L 321.481816 193.563813 
L 321.827993 195.133092 
L 322.17417 196.702372 
L 322.520346 198.271652 
L 322.866523 199.840931 
L 323.2127 201.410211 
L 323.558877 202.979491 
" clip-path="url(#pa75c7cc4b6)" style="fill: none; stroke: #008000; stroke-width: 1.5; stroke-linecap: square"/>
   </g>
   <g id="line2d_50">
    <path d="M 323.575109 204.008525 
L 323.921286 205.456927 
L 324.267463 206.905328 
L 324.61364 208.35373 
L 324.959817 209.802132 
L 325.305993 211.250534 
L 325.65217 212.698935 
L 325.998347 214.147337 
L 326.344524 215.595739 
L 326.6907 217.044141 
L 327.036877 218.492542 
L 327.383054 219.940944 
L 327.729231 221.389346 
L 328.075408 222.837747 
L 328.421584 224.286149 
L 328.767761 225.734551 
L 329.113938 227.182953 
L 329.460115 228.631354 
L 329.806291 230.079756 
L 330.152468 231.528158 
L 330.498645 232.97656 
L 330.844822 234.424961 
L 331.190999 235.873363 
L 331.537175 237.321765 
L 331.883352 238.770167 
" clip-path="url(#pa75c7cc4b6)" style="fill: none; stroke: #008000; stroke-width: 1.5; stroke-linecap: square"/>
   </g>
   <g id="line2d_51">
    <path d="M 331.899585 239.665925 
L 332.245762 240.844369 
L 332.591938 242.022813 
L 332.938115 243.201257 
L 333.284292 244.379701 
L 333.630469 245.558145 
L 333.976646 246.736589 
L 334.322822 247.915033 
L 334.668999 249.093477 
L 335.015176 250.271921 
L 335.361353 251.450365 
L 335.70753 252.628809 
L 336.053706 253.807253 
L 336.399883 254.985697 
L 336.74606 256.164141 
L 337.092237 257.342585 
L 337.438413 258.521029 
L 337.78459 259.699473 
L 338.130767 260.877917 
L 338.476944 262.056361 
L 338.823121 263.234805 
L 339.169297 264.413249 
L 339.515474 265.591693 
L 339.861651 266.770137 
L 340.207828 267.948581 
" clip-path="url(#pa75c7cc4b6)" style="fill: none; stroke: #008000; stroke-width: 1.5; stroke-linecap: square"/>
   </g>
   <g id="line2d_52">
    <path d="M 340.22406 268.618867 
L 340.570237 269.406059 
L 340.916414 270.193252 
L 341.262591 270.980444 
L 341.608768 271.767636 
L 341.954944 272.554829 
L 342.301121 273.342021 
L 342.647298 274.129214 
L 342.993475 274.916406 
L 343.339651 275.703599 
L 343.685828 276.490791 
L 344.032005 277.277984 
L 344.378182 278.065176 
L 344.724359 278.852368 
L 345.070535 279.639561 
L 345.416712 280.426753 
L 345.762889 281.213946 
L 346.109066 282.001138 
L 346.455243 282.788331 
L 346.801419 283.575523 
L 347.147596 284.362716 
L 347.493773 285.149908 
L 347.83995 285.9371 
L 348.186126 286.724293 
L 348.532303 287.511485 
" clip-path="url(#pa75c7cc4b6)" style="fill: none; stroke: #008000; stroke-width: 1.5; stroke-linecap: square"/>
   </g>
   <g id="line2d_53">
    <path d="M 348.548536 287.887307 
L 348.894713 288.202224 
L 349.24089 288.517141 
L 349.587066 288.832059 
L 349.933243 289.146976 
L 350.27942 289.461894 
L 350.625597 289.776811 
L 350.971773 290.091729 
L 351.31795 290.406646 
L 351.664127 290.721563 
L 352.010304 291.036481 
L 352.356481 291.351398 
L 352.702657 291.666316 
L 353.048834 291.981233 
L 353.395011 292.296151 
L 353.741188 292.611068 
L 354.087364 292.925985 
L 354.433541 293.240903 
L 354.779718 293.55582 
L 355.125895 293.870738 
L 355.472072 294.185655 
L 355.818248 294.500573 
L 356.164425 294.81549 
L 356.510602 295.130407 
L 356.856779 295.445325 
" clip-path="url(#pa75c7cc4b6)" style="fill: none; stroke: #008000; stroke-width: 1.5; stroke-linecap: square"/>
   </g>
   <g id="line2d_54">
    <path d="M 356.873011 295.488 
L 357.219188 295.298229 
L 357.565365 295.108458 
L 357.911542 294.918687 
L 358.257719 294.728915 
L 358.603895 294.539144 
L 358.950072 294.349373 
L 359.296249 294.159602 
L 359.642426 293.969831 
L 359.988603 293.78006 
L 360.334779 293.590289 
L 360.680956 293.400518 
L 361.027133 293.210746 
L 361.37331 293.020975 
L 361.719486 292.831204 
L 362.065663 292.641433 
L 362.41184 292.451662 
L 362.758017 292.261891 
L 363.104194 292.07212 
L 363.45037 291.882349 
L 363.796547 291.692577 
L 364.142724 291.502806 
L 364.488901 291.313035 
L 364.835077 291.123264 
L 365.181254 290.933493 
" clip-path="url(#pa75c7cc4b6)" style="fill: none; stroke: #008000; stroke-width: 1.5; stroke-linecap: square"/>
   </g>
   <g id="line2d_55">
    <path d="M 365.197487 290.638629 
L 365.543664 289.963702 
L 365.889841 289.288775 
L 366.236017 288.613848 
L 366.582194 287.938921 
L 366.928371 287.263994 
L 367.274548 286.589067 
L 367.620724 285.91414 
L 367.966901 285.239213 
L 368.313078 284.564286 
L 368.659255 283.889359 
L 369.005432 283.214431 
L 369.351608 282.539504 
L 369.697785 281.864577 
L 370.043962 281.18965 
L 370.390139 280.514723 
L 370.736316 279.839796 
L 371.082492 279.164869 
L 371.428669 278.489942 
L 371.774846 277.815015 
L 372.121023 277.140088 
L 372.467199 276.465161 
L 372.813376 275.790233 
L 373.159553 275.115306 
L 373.50573 274.440379 
" clip-path="url(#pa75c7cc4b6)" style="fill: none; stroke: #008000; stroke-width: 1.5; stroke-linecap: square"/>
   </g>
   <g id="line2d_56">
    <path d="M 373.521963 273.838327 
L 373.868139 272.747712 
L 374.214316 271.657097 
L 374.560493 270.566482 
L 374.90667 269.475868 
L 375.252846 268.385253 
L 375.599023 267.294638 
L 375.9452 266.204023 
L 376.291377 265.113409 
L 376.637554 264.022794 
L 376.98373 262.932179 
L 377.329907 261.841564 
L 377.676084 260.75095 
L 378.022261 259.660335 
L 378.368437 258.56972 
L 378.714614 257.479105 
L 379.060791 256.388491 
L 379.406968 255.297876 
L 379.753145 254.207261 
L 380.099321 253.116646 
L 380.445498 252.026032 
L 380.791675 250.935417 
L 381.137852 249.844802 
L 381.484029 248.754187 
L 381.830205 247.663573 
" clip-path="url(#pa75c7cc4b6)" style="fill: none; stroke: #008000; stroke-width: 1.5; stroke-linecap: square"/>
   </g>
   <g id="line2d_57">
    <path d="M 381.846438 246.816298 
L 382.192615 245.42225 
L 382.538792 244.028201 
L 382.884968 242.634153 
L 383.231145 241.240104 
L 383.577322 239.846055 
L 383.923499 238.452007 
L 384.269676 237.057958 
L 384.615852 235.66391 
L 384.962029 234.269861 
L 385.308206 232.875812 
L 385.654383 231.481764 
L 386.000559 230.087715 
L 386.346736 228.693667 
L 386.692913 227.299618 
L 387.03909 225.90557 
L 387.385267 224.511521 
L 387.731443 223.117472 
L 388.07762 221.723424 
L 388.423797 220.329375 
L 388.769974 218.935327 
L 389.11615 217.541278 
L 389.462327 216.147229 
L 389.808504 214.753181 
L 390.154681 213.359132 
" clip-path="url(#pa75c7cc4b6)" style="fill: none; stroke: #008000; stroke-width: 1.5; stroke-linecap: square"/>
   </g>
   <g id="line2d_58">
    <path d="M 390.170914 206.82715 
L 390.51709 205.733711 
L 390.863267 204.640272 
L 391.209444 203.546832 
L 391.555621 202.453393 
L 391.901797 201.359954 
L 392.247974 200.266515 
L 392.594151 199.173076 
L 392.940328 198.079636 
L 393.286505 196.986197 
L 393.632681 195.892758 
L 393.978858 194.799319 
L 394.325035 193.70588 
L 394.671212 192.612441 
L 395.017389 191.519001 
L 395.363565 190.425562 
L 395.709742 189.332123 
L 396.055919 188.238684 
L 396.402096 187.145245 
L 396.748272 186.051805 
L 397.094449 184.958366 
L 397.440626 183.864927 
L 397.786803 182.771488 
L 398.13298 181.678049 
L 398.479156 180.584609 
" clip-path="url(#pa75c7cc4b6)" style="fill: none; stroke: #008000; stroke-width: 1.5; stroke-linecap: square"/>
   </g>
   <g id="patch_3">
    <path d="M 57.6 307.584 
L 57.6 41.472 
" style="fill: none; stroke: #000000; stroke-width: 0.8; stroke-linejoin: miter; stroke-linecap: square"/>
   </g>
   <g id="patch_4">
    <path d="M 414.72 307.584 
L 414.72 41.472 
" style="fill: none; stroke: #000000; stroke-width: 0.8; stroke-linejoin: miter; stroke-linecap: square"/>
   </g>
   <g id="patch_5">
    <path d="M 57.6 307.584 
L 414.72 307.584 
" style="fill: none; stroke: #000000; stroke-width: 0.8; stroke-linejoin: miter; stroke-linecap: square"/>
   </g>
   <g id="patch_6">
    <path d="M 57.6 41.472 
L 414.72 41.472 
" style="fill: none; stroke: #000000; stroke-width: 0.8; stroke-linejoin: miter; stroke-linecap: square"/>
   </g>
   <g id="legend_1">
    <g id="patch_7">
     <path d="M 64.6 93.906375 
L 210.795312 93.906375 
Q 212.795312 93.906375 212.795312 91.906375 
L 212.795312 48.472 
Q 212.795312 46.472 210.795312 46.472 
L 64.6 46.472 
Q 62.6 46.472 62.6 48.472 
L 62.6 91.906375 
Q 62.6 93.906375 64.6 93.906375 
z
" style="fill: #ffffff; opacity: 0.8; stroke: #cccccc; stroke-linejoin: miter"/>
    </g>
    <g id="line2d_59">
     <path d="M 66.6 54.570437 
L 76.6 54.570437 
L 86.6 54.570437 
" style="fill: none; stroke: #0000ff; stroke-width: 1.5; stroke-linecap: square"/>
    </g>
    <g id="text_21">
     <!-- Původní funkce -->
     <g transform="translate(94.6 58.070437)scale(0.1 -0.1)">
      <defs>
       <path id="DejaVuSans-50" d="M 1259 4147 
L 1259 2394 
L 2053 2394 
Q 2494 2394 2734 2622 
Q 2975 2850 2975 3272 
Q 2975 3691 2734 3919 
Q 2494 4147 2053 4147 
L 1259 4147 
z
M 628 4666 
L 2053 4666 
Q 2838 4666 3239 4311 
Q 3641 3956 3641 3272 
Q 3641 2581 3239 2228 
Q 2838 1875 2053 1875 
L 1259 1875 
L 1259 0 
L 628 0 
L 628 4666 
z
" transform="scale(0.015625)"/>
       <path id="DejaVuSans-16f" d="M 544 1381 
L 544 3500 
L 1119 3500 
L 1119 1403 
Q 1119 906 1312 657 
Q 1506 409 1894 409 
Q 2359 409 2629 706 
Q 2900 1003 2900 1516 
L 2900 3500 
L 3475 3500 
L 3475 0 
L 2900 0 
L 2900 538 
Q 2691 219 2414 64 
Q 2138 -91 1772 -91 
Q 1169 -91 856 284 
Q 544 659 544 1381 
z
M 1991 3584 
L 1991 3584 
z
M 2463 4575 
Q 2463 4771 2325 4908 
Q 2188 5046 1988 5046 
Q 1784 5046 1648 4910 
Q 1513 4775 1513 4575 
Q 1513 4371 1648 4235 
Q 1784 4100 1988 4100 
Q 2188 4100 2325 4237 
Q 2463 4375 2463 4575 
z
M 2844 4575 
Q 2844 4215 2595 3965 
Q 2347 3715 1988 3715 
Q 1628 3715 1379 3965 
Q 1131 4215 1131 4575 
Q 1131 4934 1379 5182 
Q 1628 5431 1988 5431 
Q 2347 5431 2595 5182 
Q 2844 4934 2844 4575 
z
" transform="scale(0.015625)"/>
       <path id="DejaVuSans-76" d="M 191 3500 
L 800 3500 
L 1894 563 
L 2988 3500 
L 3597 3500 
L 2284 0 
L 1503 0 
L 191 3500 
z
" transform="scale(0.015625)"/>
       <path id="DejaVuSans-6f" d="M 1959 3097 
Q 1497 3097 1228 2736 
Q 959 2375 959 1747 
Q 959 1119 1226 758 
Q 1494 397 1959 397 
Q 2419 397 2687 759 
Q 2956 1122 2956 1747 
Q 2956 2369 2687 2733 
Q 2419 3097 1959 3097 
z
M 1959 3584 
Q 2709 3584 3137 3096 
Q 3566 2609 3566 1747 
Q 3566 888 3137 398 
Q 2709 -91 1959 -91 
Q 1206 -91 779 398 
Q 353 888 353 1747 
Q 353 2609 779 3096 
Q 1206 3584 1959 3584 
z
" transform="scale(0.015625)"/>
       <path id="DejaVuSans-64" d="M 2906 2969 
L 2906 4863 
L 3481 4863 
L 3481 0 
L 2906 0 
L 2906 525 
Q 2725 213 2448 61 
Q 2172 -91 1784 -91 
Q 1150 -91 751 415 
Q 353 922 353 1747 
Q 353 2572 751 3078 
Q 1150 3584 1784 3584 
Q 2172 3584 2448 3432 
Q 2725 3281 2906 2969 
z
M 947 1747 
Q 947 1113 1208 752 
Q 1469 391 1925 391 
Q 2381 391 2643 752 
Q 2906 1113 2906 1747 
Q 2906 2381 2643 2742 
Q 2381 3103 1925 3103 
Q 1469 3103 1208 2742 
Q 947 2381 947 1747 
z
" transform="scale(0.015625)"/>
       <path id="DejaVuSans-6e" d="M 3513 2113 
L 3513 0 
L 2938 0 
L 2938 2094 
Q 2938 2591 2744 2837 
Q 2550 3084 2163 3084 
Q 1697 3084 1428 2787 
Q 1159 2491 1159 1978 
L 1159 0 
L 581 0 
L 581 3500 
L 1159 3500 
L 1159 2956 
Q 1366 3272 1645 3428 
Q 1925 3584 2291 3584 
Q 2894 3584 3203 3211 
Q 3513 2838 3513 2113 
z
" transform="scale(0.015625)"/>
       <path id="DejaVuSans-ed" d="M 1325 5119 
L 1947 5119 
L 928 3944 
L 450 3944 
L 1325 5119 
z
M 603 3500 
L 1178 3500 
L 1178 0 
L 603 0 
L 603 3500 
z
M 891 3584 
L 891 3584 
z
" transform="scale(0.015625)"/>
       <path id="DejaVuSans-20" transform="scale(0.015625)"/>
       <path id="DejaVuSans-66" d="M 2375 4863 
L 2375 4384 
L 1825 4384 
Q 1516 4384 1395 4259 
Q 1275 4134 1275 3809 
L 1275 3500 
L 2222 3500 
L 2222 3053 
L 1275 3053 
L 1275 0 
L 697 0 
L 697 3053 
L 147 3053 
L 147 3500 
L 697 3500 
L 697 3744 
Q 697 4328 969 4595 
Q 1241 4863 1831 4863 
L 2375 4863 
z
" transform="scale(0.015625)"/>
       <path id="DejaVuSans-75" d="M 544 1381 
L 544 3500 
L 1119 3500 
L 1119 1403 
Q 1119 906 1312 657 
Q 1506 409 1894 409 
Q 2359 409 2629 706 
Q 2900 1003 2900 1516 
L 2900 3500 
L 3475 3500 
L 3475 0 
L 2900 0 
L 2900 538 
Q 2691 219 2414 64 
Q 2138 -91 1772 -91 
Q 1169 -91 856 284 
Q 544 659 544 1381 
z
M 1991 3584 
L 1991 3584 
z
" transform="scale(0.015625)"/>
       <path id="DejaVuSans-6b" d="M 581 4863 
L 1159 4863 
L 1159 1991 
L 2875 3500 
L 3609 3500 
L 1753 1863 
L 3688 0 
L 2938 0 
L 1159 1709 
L 1159 0 
L 581 0 
L 581 4863 
z
" transform="scale(0.015625)"/>
       <path id="DejaVuSans-63" d="M 3122 3366 
L 3122 2828 
Q 2878 2963 2633 3030 
Q 2388 3097 2138 3097 
Q 1578 3097 1268 2742 
Q 959 2388 959 1747 
Q 959 1106 1268 751 
Q 1578 397 2138 397 
Q 2388 397 2633 464 
Q 2878 531 3122 666 
L 3122 134 
Q 2881 22 2623 -34 
Q 2366 -91 2075 -91 
Q 1284 -91 818 406 
Q 353 903 353 1747 
Q 353 2603 823 3093 
Q 1294 3584 2113 3584 
Q 2378 3584 2631 3529 
Q 2884 3475 3122 3366 
z
" transform="scale(0.015625)"/>
       <path id="DejaVuSans-65" d="M 3597 1894 
L 3597 1613 
L 953 1613 
Q 991 1019 1311 708 
Q 1631 397 2203 397 
Q 2534 397 2845 478 
Q 3156 559 3463 722 
L 3463 178 
Q 3153 47 2828 -22 
Q 2503 -91 2169 -91 
Q 1331 -91 842 396 
Q 353 884 353 1716 
Q 353 2575 817 3079 
Q 1281 3584 2069 3584 
Q 2775 3584 3186 3129 
Q 3597 2675 3597 1894 
z
M 3022 2063 
Q 3016 2534 2758 2815 
Q 2500 3097 2075 3097 
Q 1594 3097 1305 2825 
Q 1016 2553 972 2059 
L 3022 2063 
z
" transform="scale(0.015625)"/>
      </defs>
      <use xlink:href="#DejaVuSans-50"/>
      <use xlink:href="#DejaVuSans-16f" x="58.552734"/>
      <use xlink:href="#DejaVuSans-76" x="121.931641"/>
      <use xlink:href="#DejaVuSans-6f" x="181.111328"/>
      <use xlink:href="#DejaVuSans-64" x="242.292969"/>
      <use xlink:href="#DejaVuSans-6e" x="305.769531"/>
      <use xlink:href="#DejaVuSans-ed" x="369.148438"/>
      <use xlink:href="#DejaVuSans-20" x="396.931641"/>
      <use xlink:href="#DejaVuSans-66" x="428.71875"/>
      <use xlink:href="#DejaVuSans-75" x="463.923828"/>
      <use xlink:href="#DejaVuSans-6e" x="527.302734"/>
      <use xlink:href="#DejaVuSans-6b" x="590.681641"/>
      <use xlink:href="#DejaVuSans-63" x="648.591797"/>
      <use xlink:href="#DejaVuSans-65" x="703.572266"/>
     </g>
    </g>
    <g id="PathCollection_2">
     <g>
      <use xlink:href="#maf6b55f6bc" x="76.6" y="70.523562" style="fill: #228b22; stroke: #228b22"/>
     </g>
    </g>
    <g id="text_22">
     <!-- Střední hodnoty buněk -->
     <g transform="translate(94.6 73.148562)scale(0.1 -0.1)">
      <defs>
       <path id="DejaVuSans-53" d="M 3425 4513 
L 3425 3897 
Q 3066 4069 2747 4153 
Q 2428 4238 2131 4238 
Q 1616 4238 1336 4038 
Q 1056 3838 1056 3469 
Q 1056 3159 1242 3001 
Q 1428 2844 1947 2747 
L 2328 2669 
Q 3034 2534 3370 2195 
Q 3706 1856 3706 1288 
Q 3706 609 3251 259 
Q 2797 -91 1919 -91 
Q 1588 -91 1214 -16 
Q 841 59 441 206 
L 441 856 
Q 825 641 1194 531 
Q 1563 422 1919 422 
Q 2459 422 2753 634 
Q 3047 847 3047 1241 
Q 3047 1584 2836 1778 
Q 2625 1972 2144 2069 
L 1759 2144 
Q 1053 2284 737 2584 
Q 422 2884 422 3419 
Q 422 4038 858 4394 
Q 1294 4750 2059 4750 
Q 2388 4750 2728 4690 
Q 3069 4631 3425 4513 
z
" transform="scale(0.015625)"/>
       <path id="DejaVuSans-74" d="M 1172 4494 
L 1172 3500 
L 2356 3500 
L 2356 3053 
L 1172 3053 
L 1172 1153 
Q 1172 725 1289 603 
Q 1406 481 1766 481 
L 2356 481 
L 2356 0 
L 1766 0 
Q 1100 0 847 248 
Q 594 497 594 1153 
L 594 3053 
L 172 3053 
L 172 3500 
L 594 3500 
L 594 4494 
L 1172 4494 
z
" transform="scale(0.015625)"/>
       <path id="DejaVuSans-159" d="M 2631 2963 
Q 2534 3019 2420 3045 
Q 2306 3072 2169 3072 
Q 1681 3072 1420 2755 
Q 1159 2438 1159 1844 
L 1159 0 
L 581 0 
L 581 3500 
L 1159 3500 
L 1159 2956 
Q 1341 3275 1631 3429 
Q 1922 3584 2338 3584 
Q 2397 3584 2469 3576 
Q 2541 3569 2628 3553 
L 2631 2963 
z
M 1453 3944 
L 688 5119 
L 1122 5119 
L 1684 4353 
L 2247 5119 
L 2681 5119 
L 1916 3944 
L 1453 3944 
z
" transform="scale(0.015625)"/>
       <path id="DejaVuSans-68" d="M 3513 2113 
L 3513 0 
L 2938 0 
L 2938 2094 
Q 2938 2591 2744 2837 
Q 2550 3084 2163 3084 
Q 1697 3084 1428 2787 
Q 1159 2491 1159 1978 
L 1159 0 
L 581 0 
L 581 4863 
L 1159 4863 
L 1159 2956 
Q 1366 3272 1645 3428 
Q 1925 3584 2291 3584 
Q 2894 3584 3203 3211 
Q 3513 2838 3513 2113 
z
" transform="scale(0.015625)"/>
       <path id="DejaVuSans-79" d="M 2059 -325 
Q 1816 -950 1584 -1140 
Q 1353 -1331 966 -1331 
L 506 -1331 
L 506 -850 
L 844 -850 
Q 1081 -850 1212 -737 
Q 1344 -625 1503 -206 
L 1606 56 
L 191 3500 
L 800 3500 
L 1894 763 
L 2988 3500 
L 3597 3500 
L 2059 -325 
z
" transform="scale(0.015625)"/>
       <path id="DejaVuSans-62" d="M 3116 1747 
Q 3116 2381 2855 2742 
Q 2594 3103 2138 3103 
Q 1681 3103 1420 2742 
Q 1159 2381 1159 1747 
Q 1159 1113 1420 752 
Q 1681 391 2138 391 
Q 2594 391 2855 752 
Q 3116 1113 3116 1747 
z
M 1159 2969 
Q 1341 3281 1617 3432 
Q 1894 3584 2278 3584 
Q 2916 3584 3314 3078 
Q 3713 2572 3713 1747 
Q 3713 922 3314 415 
Q 2916 -91 2278 -91 
Q 1894 -91 1617 61 
Q 1341 213 1159 525 
L 1159 0 
L 581 0 
L 581 4863 
L 1159 4863 
L 1159 2969 
z
" transform="scale(0.015625)"/>
       <path id="DejaVuSans-11b" d="M 3597 1894 
L 3597 1613 
L 953 1613 
Q 991 1019 1311 708 
Q 1631 397 2203 397 
Q 2534 397 2845 478 
Q 3156 559 3463 722 
L 3463 178 
Q 3153 47 2828 -22 
Q 2503 -91 2169 -91 
Q 1331 -91 842 396 
Q 353 884 353 1716 
Q 353 2575 817 3079 
Q 1281 3584 2069 3584 
Q 2775 3584 3186 3129 
Q 3597 2675 3597 1894 
z
M 3022 2063 
Q 3016 2534 2758 2815 
Q 2500 3097 2075 3097 
Q 1594 3097 1305 2825 
Q 1016 2553 972 2059 
L 3022 2063 
z
M 1831 3928 
L 1066 5103 
L 1500 5103 
L 2063 4337 
L 2625 5103 
L 3059 5103 
L 2294 3928 
L 1831 3928 
z
" transform="scale(0.015625)"/>
      </defs>
      <use xlink:href="#DejaVuSans-53"/>
      <use xlink:href="#DejaVuSans-74" x="63.476562"/>
      <use xlink:href="#DejaVuSans-159" x="102.685547"/>
      <use xlink:href="#DejaVuSans-65" x="141.548828"/>
      <use xlink:href="#DejaVuSans-64" x="203.072266"/>
      <use xlink:href="#DejaVuSans-6e" x="266.548828"/>
      <use xlink:href="#DejaVuSans-ed" x="329.927734"/>
      <use xlink:href="#DejaVuSans-20" x="357.710938"/>
      <use xlink:href="#DejaVuSans-68" x="389.498047"/>
      <use xlink:href="#DejaVuSans-6f" x="452.876953"/>
      <use xlink:href="#DejaVuSans-64" x="514.058594"/>
      <use xlink:href="#DejaVuSans-6e" x="577.535156"/>
      <use xlink:href="#DejaVuSans-6f" x="640.914062"/>
      <use xlink:href="#DejaVuSans-74" x="702.095703"/>
      <use xlink:href="#DejaVuSans-79" x="741.304688"/>
      <use xlink:href="#DejaVuSans-20" x="800.484375"/>
      <use xlink:href="#DejaVuSans-62" x="832.271484"/>
      <use xlink:href="#DejaVuSans-75" x="895.748047"/>
      <use xlink:href="#DejaVuSans-6e" x="959.126953"/>
      <use xlink:href="#DejaVuSans-11b" x="1022.505859"/>
      <use xlink:href="#DejaVuSans-6b" x="1084.029297"/>
     </g>
    </g>
    <g id="line2d_60">
     <path d="M 66.6 84.326687 
L 76.6 84.326687 
L 86.6 84.326687 
" style="fill: none; stroke: #008000; stroke-width: 1.5; stroke-linecap: square"/>
    </g>
    <g id="text_23">
     <!-- Rekonstrukce -->
     <g transform="translate(94.6 87.826687)scale(0.1 -0.1)">
      <defs>
       <path id="DejaVuSans-52" d="M 2841 2188 
Q 3044 2119 3236 1894 
Q 3428 1669 3622 1275 
L 4263 0 
L 3584 0 
L 2988 1197 
Q 2756 1666 2539 1819 
Q 2322 1972 1947 1972 
L 1259 1972 
L 1259 0 
L 628 0 
L 628 4666 
L 2053 4666 
Q 2853 4666 3247 4331 
Q 3641 3997 3641 3322 
Q 3641 2881 3436 2590 
Q 3231 2300 2841 2188 
z
M 1259 4147 
L 1259 2491 
L 2053 2491 
Q 2509 2491 2742 2702 
Q 2975 2913 2975 3322 
Q 2975 3731 2742 3939 
Q 2509 4147 2053 4147 
L 1259 4147 
z
" transform="scale(0.015625)"/>
       <path id="DejaVuSans-73" d="M 2834 3397 
L 2834 2853 
Q 2591 2978 2328 3040 
Q 2066 3103 1784 3103 
Q 1356 3103 1142 2972 
Q 928 2841 928 2578 
Q 928 2378 1081 2264 
Q 1234 2150 1697 2047 
L 1894 2003 
Q 2506 1872 2764 1633 
Q 3022 1394 3022 966 
Q 3022 478 2636 193 
Q 2250 -91 1575 -91 
Q 1294 -91 989 -36 
Q 684 19 347 128 
L 347 722 
Q 666 556 975 473 
Q 1284 391 1588 391 
Q 1994 391 2212 530 
Q 2431 669 2431 922 
Q 2431 1156 2273 1281 
Q 2116 1406 1581 1522 
L 1381 1569 
Q 847 1681 609 1914 
Q 372 2147 372 2553 
Q 372 3047 722 3315 
Q 1072 3584 1716 3584 
Q 2034 3584 2315 3537 
Q 2597 3491 2834 3397 
z
" transform="scale(0.015625)"/>
       <path id="DejaVuSans-72" d="M 2631 2963 
Q 2534 3019 2420 3045 
Q 2306 3072 2169 3072 
Q 1681 3072 1420 2755 
Q 1159 2438 1159 1844 
L 1159 0 
L 581 0 
L 581 3500 
L 1159 3500 
L 1159 2956 
Q 1341 3275 1631 3429 
Q 1922 3584 2338 3584 
Q 2397 3584 2469 3576 
Q 2541 3569 2628 3553 
L 2631 2963 
z
" transform="scale(0.015625)"/>
      </defs>
      <use xlink:href="#DejaVuSans-52"/>
      <use xlink:href="#DejaVuSans-65" x="64.982422"/>
      <use xlink:href="#DejaVuSans-6b" x="126.505859"/>
      <use xlink:href="#DejaVuSans-6f" x="180.791016"/>
      <use xlink:href="#DejaVuSans-6e" x="241.972656"/>
      <use xlink:href="#DejaVuSans-73" x="305.351562"/>
      <use xlink:href="#DejaVuSans-74" x="357.451172"/>
      <use xlink:href="#DejaVuSans-72" x="396.660156"/>
      <use xlink:href="#DejaVuSans-75" x="437.773438"/>
      <use xlink:href="#DejaVuSans-6b" x="501.152344"/>
      <use xlink:href="#DejaVuSans-63" x="559.0625"/>
      <use xlink:href="#DejaVuSans-65" x="614.042969"/>
     </g>
    </g>
   </g>
  </g>
 </g>
 <defs>
  <clipPath id="pa75c7cc4b6">
   <rect x="57.6" y="41.472" width="357.12" height="266.112"/>
  </clipPath>
 </defs>
</svg>
