<?xml version="1.0" encoding="utf-8" standalone="no"?>
<!DOCTYPE svg PUBLIC "-//W3C//DTD SVG 1.1//EN"
  "http://www.w3.org/Graphics/SVG/1.1/DTD/svg11.dtd">
<svg xmlns:xlink="http://www.w3.org/1999/xlink" width="460.8pt" height="345.6pt" viewBox="0 0 460.8 345.6" xmlns="http://www.w3.org/2000/svg" version="1.1">
 <metadata>
  <rdf:RDF xmlns:dc="http://purl.org/dc/elements/1.1/" xmlns:cc="http://creativecommons.org/ns#" xmlns:rdf="http://www.w3.org/1999/02/22-rdf-syntax-ns#">
   <cc:Work>
    <dc:type rdf:resource="http://purl.org/dc/dcmitype/StillImage"/>
    <dc:date>2023-08-02T18:13:06.375113</dc:date>
    <dc:format>image/svg+xml</dc:format>
    <dc:creator>
     <cc:Agent>
      <dc:title>Matplotlib v3.5.2, https://matplotlib.org/</dc:title>
     </cc:Agent>
    </dc:creator>
   </cc:Work>
  </rdf:RDF>
 </metadata>
 <defs>
  <style type="text/css">*{stroke-linejoin: round; stroke-linecap: butt}</style>
 </defs>
 <g id="figure_1">
  <g id="patch_1">
   <path d="M 0 345.6 
L 460.8 345.6 
L 460.8 0 
L 0 0 
z
" style="fill: #ffffff"/>
  </g>
  <g id="axes_1">
   <g id="patch_2">
    <path d="M 57.6 307.584 
L 414.72 307.584 
L 414.72 41.472 
L 57.6 41.472 
z
" style="fill: #ffffff"/>
   </g>
   <g id="PathCollection_1">
    <defs>
     <path id="m727683e232" d="M 0 3 
C 0.795609 3 1.55874 2.683901 2.12132 2.12132 
C 2.683901 1.55874 3 0.795609 3 0 
C 3 -0.795609 2.683901 -1.55874 2.12132 -2.12132 
C 1.55874 -2.683901 0.795609 -3 0 -3 
C -0.795609 -3 -1.55874 -2.683901 -2.12132 -2.12132 
C -2.683901 -1.55874 -3 -0.795609 -3 0 
C -3 0.795609 -2.683901 1.55874 -2.12132 2.12132 
C -1.55874 2.683901 -0.795609 3 0 3 
z
" style="stroke: #0000ff"/>
    </defs>
    <g clip-path="url(#paa2235f184)">
     <use xlink:href="#m727683e232" x="75.887503" y="91.880241" style="fill: #0000ff; stroke: #0000ff"/>
    </g>
   </g>
   <g id="PathCollection_2">
    <g clip-path="url(#paa2235f184)">
     <use xlink:href="#m727683e232" x="79.997054" y="88.003907" style="fill: #0000ff; stroke: #0000ff"/>
    </g>
   </g>
   <g id="PathCollection_3">
    <g clip-path="url(#paa2235f184)">
     <use xlink:href="#m727683e232" x="84.106605" y="84.33431" style="fill: #0000ff; stroke: #0000ff"/>
    </g>
   </g>
   <g id="PathCollection_4">
    <g clip-path="url(#paa2235f184)">
     <use xlink:href="#m727683e232" x="88.216157" y="80.871451" style="fill: #0000ff; stroke: #0000ff"/>
    </g>
   </g>
   <g id="PathCollection_5">
    <g clip-path="url(#paa2235f184)">
     <use xlink:href="#m727683e232" x="92.325708" y="77.61533" style="fill: #0000ff; stroke: #0000ff"/>
    </g>
   </g>
   <g id="PathCollection_6">
    <g clip-path="url(#paa2235f184)">
     <use xlink:href="#m727683e232" x="96.435259" y="74.565947" style="fill: #0000ff; stroke: #0000ff"/>
    </g>
   </g>
   <g id="PathCollection_7">
    <g clip-path="url(#paa2235f184)">
     <use xlink:href="#m727683e232" x="100.54481" y="71.723302" style="fill: #0000ff; stroke: #0000ff"/>
    </g>
   </g>
   <g id="PathCollection_8">
    <g clip-path="url(#paa2235f184)">
     <use xlink:href="#m727683e232" x="104.654361" y="69.087394" style="fill: #0000ff; stroke: #0000ff"/>
    </g>
   </g>
   <g id="PathCollection_9">
    <g clip-path="url(#paa2235f184)">
     <use xlink:href="#m727683e232" x="108.763913" y="66.658225" style="fill: #0000ff; stroke: #0000ff"/>
    </g>
   </g>
   <g id="PathCollection_10">
    <g clip-path="url(#paa2235f184)">
     <use xlink:href="#m727683e232" x="112.873464" y="64.435793" style="fill: #0000ff; stroke: #0000ff"/>
    </g>
   </g>
   <g id="PathCollection_11">
    <g clip-path="url(#paa2235f184)">
     <use xlink:href="#m727683e232" x="116.983015" y="62.420099" style="fill: #0000ff; stroke: #0000ff"/>
    </g>
   </g>
   <g id="PathCollection_12">
    <g clip-path="url(#paa2235f184)">
     <use xlink:href="#m727683e232" x="121.092566" y="60.611143" style="fill: #0000ff; stroke: #0000ff"/>
    </g>
   </g>
   <g id="PathCollection_13">
    <g clip-path="url(#paa2235f184)">
     <use xlink:href="#m727683e232" x="125.202117" y="59.008925" style="fill: #0000ff; stroke: #0000ff"/>
    </g>
   </g>
   <g id="PathCollection_14">
    <g clip-path="url(#paa2235f184)">
     <use xlink:href="#m727683e232" x="129.311669" y="57.613444" style="fill: #0000ff; stroke: #0000ff"/>
    </g>
   </g>
   <g id="PathCollection_15">
    <g clip-path="url(#paa2235f184)">
     <use xlink:href="#m727683e232" x="133.42122" y="56.424702" style="fill: #0000ff; stroke: #0000ff"/>
    </g>
   </g>
   <g id="PathCollection_16">
    <g clip-path="url(#paa2235f184)">
     <use xlink:href="#m727683e232" x="137.530771" y="55.442697" style="fill: #0000ff; stroke: #0000ff"/>
    </g>
   </g>
   <g id="PathCollection_17">
    <g clip-path="url(#paa2235f184)">
     <use xlink:href="#m727683e232" x="141.640322" y="54.66743" style="fill: #0000ff; stroke: #0000ff"/>
    </g>
   </g>
   <g id="PathCollection_18">
    <g clip-path="url(#paa2235f184)">
     <use xlink:href="#m727683e232" x="145.749873" y="54.098901" style="fill: #0000ff; stroke: #0000ff"/>
    </g>
   </g>
   <g id="PathCollection_19">
    <g clip-path="url(#paa2235f184)">
     <use xlink:href="#m727683e232" x="149.859425" y="53.73711" style="fill: #0000ff; stroke: #0000ff"/>
    </g>
   </g>
   <g id="PathCollection_20">
    <g clip-path="url(#paa2235f184)">
     <use xlink:href="#m727683e232" x="153.968976" y="53.582056" style="fill: #0000ff; stroke: #0000ff"/>
    </g>
   </g>
   <g id="PathCollection_21">
    <g clip-path="url(#paa2235f184)">
     <use xlink:href="#m727683e232" x="158.078527" y="53.633741" style="fill: #0000ff; stroke: #0000ff"/>
    </g>
   </g>
   <g id="PathCollection_22">
    <g clip-path="url(#paa2235f184)">
     <use xlink:href="#m727683e232" x="162.188078" y="53.892163" style="fill: #0000ff; stroke: #0000ff"/>
    </g>
   </g>
   <g id="PathCollection_23">
    <g clip-path="url(#paa2235f184)">
     <use xlink:href="#m727683e232" x="166.297629" y="54.357323" style="fill: #0000ff; stroke: #0000ff"/>
    </g>
   </g>
   <g id="PathCollection_24">
    <g clip-path="url(#paa2235f184)">
     <use xlink:href="#m727683e232" x="170.407181" y="55.029221" style="fill: #0000ff; stroke: #0000ff"/>
    </g>
   </g>
   <g id="PathCollection_25">
    <g clip-path="url(#paa2235f184)">
     <use xlink:href="#m727683e232" x="174.516732" y="55.907857" style="fill: #0000ff; stroke: #0000ff"/>
    </g>
   </g>
   <g id="PathCollection_26">
    <g clip-path="url(#paa2235f184)">
     <use xlink:href="#m727683e232" x="178.626283" y="56.993231" style="fill: #0000ff; stroke: #0000ff"/>
    </g>
   </g>
   <g id="PathCollection_27">
    <g clip-path="url(#paa2235f184)">
     <use xlink:href="#m727683e232" x="182.735834" y="58.285342" style="fill: #0000ff; stroke: #0000ff"/>
    </g>
   </g>
   <g id="PathCollection_28">
    <g clip-path="url(#paa2235f184)">
     <use xlink:href="#m727683e232" x="186.845386" y="59.784192" style="fill: #0000ff; stroke: #0000ff"/>
    </g>
   </g>
   <g id="PathCollection_29">
    <g clip-path="url(#paa2235f184)">
     <use xlink:href="#m727683e232" x="190.954937" y="61.489779" style="fill: #0000ff; stroke: #0000ff"/>
    </g>
   </g>
   <g id="PathCollection_30">
    <g clip-path="url(#paa2235f184)">
     <use xlink:href="#m727683e232" x="195.064488" y="63.402104" style="fill: #0000ff; stroke: #0000ff"/>
    </g>
   </g>
   <g id="PathCollection_31">
    <g clip-path="url(#paa2235f184)">
     <use xlink:href="#m727683e232" x="199.174039" y="65.521167" style="fill: #0000ff; stroke: #0000ff"/>
    </g>
   </g>
   <g id="PathCollection_32">
    <g clip-path="url(#paa2235f184)">
     <use xlink:href="#m727683e232" x="203.28359" y="67.846967" style="fill: #0000ff; stroke: #0000ff"/>
    </g>
   </g>
   <g id="PathCollection_33">
    <g clip-path="url(#paa2235f184)">
     <use xlink:href="#m727683e232" x="207.393142" y="70.379506" style="fill: #0000ff; stroke: #0000ff"/>
    </g>
   </g>
   <g id="PathCollection_34">
    <g clip-path="url(#paa2235f184)">
     <use xlink:href="#m727683e232" x="211.502693" y="73.118782" style="fill: #0000ff; stroke: #0000ff"/>
    </g>
   </g>
   <g id="PathCollection_35">
    <g clip-path="url(#paa2235f184)">
     <use xlink:href="#m727683e232" x="215.612244" y="76.064797" style="fill: #0000ff; stroke: #0000ff"/>
    </g>
   </g>
   <g id="PathCollection_36">
    <g clip-path="url(#paa2235f184)">
     <use xlink:href="#m727683e232" x="219.721795" y="79.217549" style="fill: #0000ff; stroke: #0000ff"/>
    </g>
   </g>
   <g id="PathCollection_37">
    <g clip-path="url(#paa2235f184)">
     <use xlink:href="#m727683e232" x="223.831346" y="82.577039" style="fill: #0000ff; stroke: #0000ff"/>
    </g>
   </g>
   <g id="PathCollection_38">
    <g clip-path="url(#paa2235f184)">
     <use xlink:href="#m727683e232" x="227.940898" y="86.143266" style="fill: #0000ff; stroke: #0000ff"/>
    </g>
   </g>
   <g id="PathCollection_39">
    <g clip-path="url(#paa2235f184)">
     <use xlink:href="#m727683e232" x="232.050449" y="89.916232" style="fill: #0000ff; stroke: #0000ff"/>
    </g>
   </g>
   <g id="PathCollection_40">
    <defs>
     <path id="m1a1aff726c" d="M -3 0 
L 3 0 
M 0 3 
L 0 -3 
" style="stroke: #ff0000; stroke-width: 1.5"/>
    </defs>
    <g clip-path="url(#paa2235f184)">
     <use xlink:href="#m1a1aff726c" x="236.16" y="174.464294" style="fill: #ff0000; stroke: #ff0000; stroke-width: 1.5"/>
    </g>
   </g>
   <g id="PathCollection_41">
    <g clip-path="url(#paa2235f184)">
     <use xlink:href="#m727683e232" x="235.133424" y="92.875967" style="fill: #0000ff; stroke: #0000ff"/>
    </g>
   </g>
   <g id="PathCollection_42">
    <defs>
     <path id="m90b67e5c56" d="M 0 3 
C 0.795609 3 1.55874 2.683901 2.12132 2.12132 
C 2.683901 1.55874 3 0.795609 3 0 
C 3 -0.795609 2.683901 -1.55874 2.12132 -2.12132 
C 1.55874 -2.683901 0.795609 -3 0 -3 
C -0.795609 -3 -1.55874 -2.683901 -2.12132 -2.12132 
C -2.683901 -1.55874 -3 -0.795609 -3 0 
C -3 0.795609 -2.683901 1.55874 -2.12132 2.12132 
C -1.55874 2.683901 -0.795609 3 0 3 
z
" style="stroke: #008000"/>
    </defs>
    <g clip-path="url(#paa2235f184)">
     <use xlink:href="#m90b67e5c56" x="237.188199" y="256.181632" style="fill: #008000; stroke: #008000"/>
    </g>
   </g>
   <g id="PathCollection_43">
    <g clip-path="url(#paa2235f184)">
     <use xlink:href="#m90b67e5c56" x="240.269551" y="259.139768" style="fill: #008000; stroke: #008000"/>
    </g>
   </g>
   <g id="PathCollection_44">
    <g clip-path="url(#paa2235f184)">
     <use xlink:href="#m90b67e5c56" x="244.379102" y="262.912734" style="fill: #008000; stroke: #008000"/>
    </g>
   </g>
   <g id="PathCollection_45">
    <g clip-path="url(#paa2235f184)">
     <use xlink:href="#m90b67e5c56" x="248.488654" y="266.478961" style="fill: #008000; stroke: #008000"/>
    </g>
   </g>
   <g id="PathCollection_46">
    <g clip-path="url(#paa2235f184)">
     <use xlink:href="#m90b67e5c56" x="252.598205" y="269.838451" style="fill: #008000; stroke: #008000"/>
    </g>
   </g>
   <g id="PathCollection_47">
    <g clip-path="url(#paa2235f184)">
     <use xlink:href="#m90b67e5c56" x="256.707756" y="272.991203" style="fill: #008000; stroke: #008000"/>
    </g>
   </g>
   <g id="PathCollection_48">
    <g clip-path="url(#paa2235f184)">
     <use xlink:href="#m90b67e5c56" x="260.817307" y="275.937218" style="fill: #008000; stroke: #008000"/>
    </g>
   </g>
   <g id="PathCollection_49">
    <g clip-path="url(#paa2235f184)">
     <use xlink:href="#m90b67e5c56" x="264.926858" y="278.676494" style="fill: #008000; stroke: #008000"/>
    </g>
   </g>
   <g id="PathCollection_50">
    <g clip-path="url(#paa2235f184)">
     <use xlink:href="#m90b67e5c56" x="269.03641" y="281.209033" style="fill: #008000; stroke: #008000"/>
    </g>
   </g>
   <g id="PathCollection_51">
    <g clip-path="url(#paa2235f184)">
     <use xlink:href="#m90b67e5c56" x="273.145961" y="283.534833" style="fill: #008000; stroke: #008000"/>
    </g>
   </g>
   <g id="PathCollection_52">
    <g clip-path="url(#paa2235f184)">
     <use xlink:href="#m90b67e5c56" x="277.255512" y="285.653896" style="fill: #008000; stroke: #008000"/>
    </g>
   </g>
   <g id="PathCollection_53">
    <g clip-path="url(#paa2235f184)">
     <use xlink:href="#m90b67e5c56" x="281.365063" y="287.566221" style="fill: #008000; stroke: #008000"/>
    </g>
   </g>
   <g id="PathCollection_54">
    <g clip-path="url(#paa2235f184)">
     <use xlink:href="#m90b67e5c56" x="285.474614" y="289.271808" style="fill: #008000; stroke: #008000"/>
    </g>
   </g>
   <g id="PathCollection_55">
    <g clip-path="url(#paa2235f184)">
     <use xlink:href="#m90b67e5c56" x="289.584166" y="290.770658" style="fill: #008000; stroke: #008000"/>
    </g>
   </g>
   <g id="PathCollection_56">
    <g clip-path="url(#paa2235f184)">
     <use xlink:href="#m90b67e5c56" x="293.693717" y="292.062769" style="fill: #008000; stroke: #008000"/>
    </g>
   </g>
   <g id="PathCollection_57">
    <g clip-path="url(#paa2235f184)">
     <use xlink:href="#m90b67e5c56" x="297.803268" y="293.148143" style="fill: #008000; stroke: #008000"/>
    </g>
   </g>
   <g id="PathCollection_58">
    <g clip-path="url(#paa2235f184)">
     <use xlink:href="#m90b67e5c56" x="301.912819" y="294.026779" style="fill: #008000; stroke: #008000"/>
    </g>
   </g>
   <g id="PathCollection_59">
    <g clip-path="url(#paa2235f184)">
     <use xlink:href="#m90b67e5c56" x="306.022371" y="294.698677" style="fill: #008000; stroke: #008000"/>
    </g>
   </g>
   <g id="PathCollection_60">
    <g clip-path="url(#paa2235f184)">
     <use xlink:href="#m90b67e5c56" x="310.131922" y="295.163837" style="fill: #008000; stroke: #008000"/>
    </g>
   </g>
   <g id="PathCollection_61">
    <g clip-path="url(#paa2235f184)">
     <use xlink:href="#m90b67e5c56" x="314.241473" y="295.422259" style="fill: #008000; stroke: #008000"/>
    </g>
   </g>
   <g id="PathCollection_62">
    <g clip-path="url(#paa2235f184)">
     <use xlink:href="#m90b67e5c56" x="318.351024" y="295.473944" style="fill: #008000; stroke: #008000"/>
    </g>
   </g>
   <g id="PathCollection_63">
    <g clip-path="url(#paa2235f184)">
     <use xlink:href="#m90b67e5c56" x="322.460575" y="295.31889" style="fill: #008000; stroke: #008000"/>
    </g>
   </g>
   <g id="PathCollection_64">
    <g clip-path="url(#paa2235f184)">
     <use xlink:href="#m90b67e5c56" x="326.570127" y="294.957099" style="fill: #008000; stroke: #008000"/>
    </g>
   </g>
   <g id="PathCollection_65">
    <g clip-path="url(#paa2235f184)">
     <use xlink:href="#m90b67e5c56" x="330.679678" y="294.38857" style="fill: #008000; stroke: #008000"/>
    </g>
   </g>
   <g id="PathCollection_66">
    <g clip-path="url(#paa2235f184)">
     <use xlink:href="#m90b67e5c56" x="334.789229" y="293.613303" style="fill: #008000; stroke: #008000"/>
    </g>
   </g>
   <g id="PathCollection_67">
    <g clip-path="url(#paa2235f184)">
     <use xlink:href="#m90b67e5c56" x="338.89878" y="292.631298" style="fill: #008000; stroke: #008000"/>
    </g>
   </g>
   <g id="PathCollection_68">
    <g clip-path="url(#paa2235f184)">
     <use xlink:href="#m90b67e5c56" x="343.008331" y="291.442556" style="fill: #008000; stroke: #008000"/>
    </g>
   </g>
   <g id="PathCollection_69">
    <g clip-path="url(#paa2235f184)">
     <use xlink:href="#m90b67e5c56" x="347.117883" y="290.047075" style="fill: #008000; stroke: #008000"/>
    </g>
   </g>
   <g id="PathCollection_70">
    <g clip-path="url(#paa2235f184)">
     <use xlink:href="#m90b67e5c56" x="351.227434" y="288.444857" style="fill: #008000; stroke: #008000"/>
    </g>
   </g>
   <g id="PathCollection_71">
    <g clip-path="url(#paa2235f184)">
     <use xlink:href="#m90b67e5c56" x="355.336985" y="286.635901" style="fill: #008000; stroke: #008000"/>
    </g>
   </g>
   <g id="PathCollection_72">
    <g clip-path="url(#paa2235f184)">
     <use xlink:href="#m90b67e5c56" x="359.446536" y="284.620207" style="fill: #008000; stroke: #008000"/>
    </g>
   </g>
   <g id="PathCollection_73">
    <g clip-path="url(#paa2235f184)">
     <use xlink:href="#m90b67e5c56" x="363.556087" y="282.397775" style="fill: #008000; stroke: #008000"/>
    </g>
   </g>
   <g id="PathCollection_74">
    <g clip-path="url(#paa2235f184)">
     <use xlink:href="#m90b67e5c56" x="367.665639" y="279.968606" style="fill: #008000; stroke: #008000"/>
    </g>
   </g>
   <g id="PathCollection_75">
    <g clip-path="url(#paa2235f184)">
     <use xlink:href="#m90b67e5c56" x="371.77519" y="277.332698" style="fill: #008000; stroke: #008000"/>
    </g>
   </g>
   <g id="PathCollection_76">
    <g clip-path="url(#paa2235f184)">
     <use xlink:href="#m90b67e5c56" x="375.884741" y="274.490053" style="fill: #008000; stroke: #008000"/>
    </g>
   </g>
   <g id="PathCollection_77">
    <g clip-path="url(#paa2235f184)">
     <use xlink:href="#m90b67e5c56" x="379.994292" y="271.44067" style="fill: #008000; stroke: #008000"/>
    </g>
   </g>
   <g id="PathCollection_78">
    <g clip-path="url(#paa2235f184)">
     <use xlink:href="#m90b67e5c56" x="384.103843" y="268.184549" style="fill: #008000; stroke: #008000"/>
    </g>
   </g>
   <g id="PathCollection_79">
    <g clip-path="url(#paa2235f184)">
     <use xlink:href="#m90b67e5c56" x="388.213395" y="264.72169" style="fill: #008000; stroke: #008000"/>
    </g>
   </g>
   <g id="PathCollection_80">
    <g clip-path="url(#paa2235f184)">
     <use xlink:href="#m90b67e5c56" x="392.322946" y="261.052093" style="fill: #008000; stroke: #008000"/>
    </g>
   </g>
   <g id="PathCollection_81">
    <g clip-path="url(#paa2235f184)">
     <use xlink:href="#m90b67e5c56" x="396.432497" y="257.175759" style="fill: #008000; stroke: #008000"/>
    </g>
   </g>
   <g id="PathCollection_82">
    <g clip-path="url(#paa2235f184)">
     <use xlink:href="#m727683e232" x="75.887503" y="91.880241" style="fill: #0000ff; stroke: #0000ff"/>
    </g>
   </g>
   <g id="PathCollection_83">
    <g clip-path="url(#paa2235f184)">
     <use xlink:href="#m727683e232" x="79.997054" y="88.003907" style="fill: #0000ff; stroke: #0000ff"/>
    </g>
   </g>
   <g id="PathCollection_84">
    <g clip-path="url(#paa2235f184)">
     <use xlink:href="#m727683e232" x="84.106605" y="84.33431" style="fill: #0000ff; stroke: #0000ff"/>
    </g>
   </g>
   <g id="PathCollection_85">
    <g clip-path="url(#paa2235f184)">
     <use xlink:href="#m727683e232" x="88.216157" y="80.871451" style="fill: #0000ff; stroke: #0000ff"/>
    </g>
   </g>
   <g id="PathCollection_86">
    <g clip-path="url(#paa2235f184)">
     <use xlink:href="#m727683e232" x="92.325708" y="77.61533" style="fill: #0000ff; stroke: #0000ff"/>
    </g>
   </g>
   <g id="PathCollection_87">
    <g clip-path="url(#paa2235f184)">
     <use xlink:href="#m727683e232" x="96.435259" y="74.565947" style="fill: #0000ff; stroke: #0000ff"/>
    </g>
   </g>
   <g id="PathCollection_88">
    <g clip-path="url(#paa2235f184)">
     <use xlink:href="#m727683e232" x="100.54481" y="71.723302" style="fill: #0000ff; stroke: #0000ff"/>
    </g>
   </g>
   <g id="PathCollection_89">
    <g clip-path="url(#paa2235f184)">
     <use xlink:href="#m727683e232" x="104.654361" y="69.087394" style="fill: #0000ff; stroke: #0000ff"/>
    </g>
   </g>
   <g id="PathCollection_90">
    <g clip-path="url(#paa2235f184)">
     <use xlink:href="#m727683e232" x="108.763913" y="66.658225" style="fill: #0000ff; stroke: #0000ff"/>
    </g>
   </g>
   <g id="PathCollection_91">
    <g clip-path="url(#paa2235f184)">
     <use xlink:href="#m727683e232" x="112.873464" y="64.435793" style="fill: #0000ff; stroke: #0000ff"/>
    </g>
   </g>
   <g id="PathCollection_92">
    <g clip-path="url(#paa2235f184)">
     <use xlink:href="#m727683e232" x="116.983015" y="62.420099" style="fill: #0000ff; stroke: #0000ff"/>
    </g>
   </g>
   <g id="PathCollection_93">
    <g clip-path="url(#paa2235f184)">
     <use xlink:href="#m727683e232" x="121.092566" y="60.611143" style="fill: #0000ff; stroke: #0000ff"/>
    </g>
   </g>
   <g id="PathCollection_94">
    <g clip-path="url(#paa2235f184)">
     <use xlink:href="#m727683e232" x="125.202117" y="59.008925" style="fill: #0000ff; stroke: #0000ff"/>
    </g>
   </g>
   <g id="PathCollection_95">
    <g clip-path="url(#paa2235f184)">
     <use xlink:href="#m727683e232" x="129.311669" y="57.613444" style="fill: #0000ff; stroke: #0000ff"/>
    </g>
   </g>
   <g id="PathCollection_96">
    <g clip-path="url(#paa2235f184)">
     <use xlink:href="#m727683e232" x="133.42122" y="56.424702" style="fill: #0000ff; stroke: #0000ff"/>
    </g>
   </g>
   <g id="PathCollection_97">
    <g clip-path="url(#paa2235f184)">
     <use xlink:href="#m727683e232" x="137.530771" y="55.442697" style="fill: #0000ff; stroke: #0000ff"/>
    </g>
   </g>
   <g id="PathCollection_98">
    <g clip-path="url(#paa2235f184)">
     <use xlink:href="#m727683e232" x="141.640322" y="54.66743" style="fill: #0000ff; stroke: #0000ff"/>
    </g>
   </g>
   <g id="PathCollection_99">
    <g clip-path="url(#paa2235f184)">
     <use xlink:href="#m727683e232" x="145.749873" y="54.098901" style="fill: #0000ff; stroke: #0000ff"/>
    </g>
   </g>
   <g id="PathCollection_100">
    <g clip-path="url(#paa2235f184)">
     <use xlink:href="#m727683e232" x="149.859425" y="53.73711" style="fill: #0000ff; stroke: #0000ff"/>
    </g>
   </g>
   <g id="PathCollection_101">
    <g clip-path="url(#paa2235f184)">
     <use xlink:href="#m727683e232" x="153.968976" y="53.582056" style="fill: #0000ff; stroke: #0000ff"/>
    </g>
   </g>
   <g id="PathCollection_102">
    <g clip-path="url(#paa2235f184)">
     <use xlink:href="#m727683e232" x="158.078527" y="53.633741" style="fill: #0000ff; stroke: #0000ff"/>
    </g>
   </g>
   <g id="PathCollection_103">
    <g clip-path="url(#paa2235f184)">
     <use xlink:href="#m727683e232" x="162.188078" y="53.892163" style="fill: #0000ff; stroke: #0000ff"/>
    </g>
   </g>
   <g id="PathCollection_104">
    <g clip-path="url(#paa2235f184)">
     <use xlink:href="#m727683e232" x="166.297629" y="54.357323" style="fill: #0000ff; stroke: #0000ff"/>
    </g>
   </g>
   <g id="PathCollection_105">
    <g clip-path="url(#paa2235f184)">
     <use xlink:href="#m727683e232" x="170.407181" y="55.029221" style="fill: #0000ff; stroke: #0000ff"/>
    </g>
   </g>
   <g id="PathCollection_106">
    <g clip-path="url(#paa2235f184)">
     <use xlink:href="#m727683e232" x="174.516732" y="55.907857" style="fill: #0000ff; stroke: #0000ff"/>
    </g>
   </g>
   <g id="PathCollection_107">
    <g clip-path="url(#paa2235f184)">
     <use xlink:href="#m727683e232" x="178.626283" y="56.993231" style="fill: #0000ff; stroke: #0000ff"/>
    </g>
   </g>
   <g id="PathCollection_108">
    <g clip-path="url(#paa2235f184)">
     <use xlink:href="#m727683e232" x="182.735834" y="58.285342" style="fill: #0000ff; stroke: #0000ff"/>
    </g>
   </g>
   <g id="PathCollection_109">
    <g clip-path="url(#paa2235f184)">
     <use xlink:href="#m727683e232" x="186.845386" y="59.784192" style="fill: #0000ff; stroke: #0000ff"/>
    </g>
   </g>
   <g id="PathCollection_110">
    <g clip-path="url(#paa2235f184)">
     <use xlink:href="#m727683e232" x="190.954937" y="61.489779" style="fill: #0000ff; stroke: #0000ff"/>
    </g>
   </g>
   <g id="PathCollection_111">
    <g clip-path="url(#paa2235f184)">
     <use xlink:href="#m727683e232" x="195.064488" y="63.402104" style="fill: #0000ff; stroke: #0000ff"/>
    </g>
   </g>
   <g id="PathCollection_112">
    <g clip-path="url(#paa2235f184)">
     <use xlink:href="#m727683e232" x="199.174039" y="65.521167" style="fill: #0000ff; stroke: #0000ff"/>
    </g>
   </g>
   <g id="PathCollection_113">
    <g clip-path="url(#paa2235f184)">
     <use xlink:href="#m727683e232" x="203.28359" y="67.846967" style="fill: #0000ff; stroke: #0000ff"/>
    </g>
   </g>
   <g id="PathCollection_114">
    <g clip-path="url(#paa2235f184)">
     <use xlink:href="#m727683e232" x="207.393142" y="70.379506" style="fill: #0000ff; stroke: #0000ff"/>
    </g>
   </g>
   <g id="PathCollection_115">
    <g clip-path="url(#paa2235f184)">
     <use xlink:href="#m727683e232" x="211.502693" y="73.118782" style="fill: #0000ff; stroke: #0000ff"/>
    </g>
   </g>
   <g id="PathCollection_116">
    <g clip-path="url(#paa2235f184)">
     <use xlink:href="#m727683e232" x="215.612244" y="76.064797" style="fill: #0000ff; stroke: #0000ff"/>
    </g>
   </g>
   <g id="PathCollection_117">
    <g clip-path="url(#paa2235f184)">
     <use xlink:href="#m727683e232" x="219.721795" y="79.217549" style="fill: #0000ff; stroke: #0000ff"/>
    </g>
   </g>
   <g id="PathCollection_118">
    <g clip-path="url(#paa2235f184)">
     <use xlink:href="#m727683e232" x="223.831346" y="82.577039" style="fill: #0000ff; stroke: #0000ff"/>
    </g>
   </g>
   <g id="PathCollection_119">
    <g clip-path="url(#paa2235f184)">
     <use xlink:href="#m727683e232" x="227.940898" y="86.143266" style="fill: #0000ff; stroke: #0000ff"/>
    </g>
   </g>
   <g id="PathCollection_120">
    <g clip-path="url(#paa2235f184)">
     <use xlink:href="#m727683e232" x="232.050449" y="89.916232" style="fill: #0000ff; stroke: #0000ff"/>
    </g>
   </g>
   <g id="PathCollection_121">
    <g clip-path="url(#paa2235f184)">
     <use xlink:href="#m1a1aff726c" x="236.16" y="174.464294" style="fill: #ff0000; stroke: #ff0000; stroke-width: 1.5"/>
    </g>
   </g>
   <g id="PathCollection_122">
    <g clip-path="url(#paa2235f184)">
     <use xlink:href="#m727683e232" x="235.133424" y="92.875967" style="fill: #0000ff; stroke: #0000ff"/>
    </g>
   </g>
   <g id="PathCollection_123">
    <g clip-path="url(#paa2235f184)">
     <use xlink:href="#m90b67e5c56" x="237.188199" y="256.181632" style="fill: #008000; stroke: #008000"/>
    </g>
   </g>
   <g id="PathCollection_124">
    <g clip-path="url(#paa2235f184)">
     <use xlink:href="#m90b67e5c56" x="240.269551" y="259.139768" style="fill: #008000; stroke: #008000"/>
    </g>
   </g>
   <g id="PathCollection_125">
    <g clip-path="url(#paa2235f184)">
     <use xlink:href="#m90b67e5c56" x="244.379102" y="262.912734" style="fill: #008000; stroke: #008000"/>
    </g>
   </g>
   <g id="PathCollection_126">
    <g clip-path="url(#paa2235f184)">
     <use xlink:href="#m90b67e5c56" x="248.488654" y="266.478961" style="fill: #008000; stroke: #008000"/>
    </g>
   </g>
   <g id="PathCollection_127">
    <g clip-path="url(#paa2235f184)">
     <use xlink:href="#m90b67e5c56" x="252.598205" y="269.838451" style="fill: #008000; stroke: #008000"/>
    </g>
   </g>
   <g id="PathCollection_128">
    <g clip-path="url(#paa2235f184)">
     <use xlink:href="#m90b67e5c56" x="256.707756" y="272.991203" style="fill: #008000; stroke: #008000"/>
    </g>
   </g>
   <g id="PathCollection_129">
    <g clip-path="url(#paa2235f184)">
     <use xlink:href="#m90b67e5c56" x="260.817307" y="275.937218" style="fill: #008000; stroke: #008000"/>
    </g>
   </g>
   <g id="PathCollection_130">
    <g clip-path="url(#paa2235f184)">
     <use xlink:href="#m90b67e5c56" x="264.926858" y="278.676494" style="fill: #008000; stroke: #008000"/>
    </g>
   </g>
   <g id="PathCollection_131">
    <g clip-path="url(#paa2235f184)">
     <use xlink:href="#m90b67e5c56" x="269.03641" y="281.209033" style="fill: #008000; stroke: #008000"/>
    </g>
   </g>
   <g id="PathCollection_132">
    <g clip-path="url(#paa2235f184)">
     <use xlink:href="#m90b67e5c56" x="273.145961" y="283.534833" style="fill: #008000; stroke: #008000"/>
    </g>
   </g>
   <g id="PathCollection_133">
    <g clip-path="url(#paa2235f184)">
     <use xlink:href="#m90b67e5c56" x="277.255512" y="285.653896" style="fill: #008000; stroke: #008000"/>
    </g>
   </g>
   <g id="PathCollection_134">
    <g clip-path="url(#paa2235f184)">
     <use xlink:href="#m90b67e5c56" x="281.365063" y="287.566221" style="fill: #008000; stroke: #008000"/>
    </g>
   </g>
   <g id="PathCollection_135">
    <g clip-path="url(#paa2235f184)">
     <use xlink:href="#m90b67e5c56" x="285.474614" y="289.271808" style="fill: #008000; stroke: #008000"/>
    </g>
   </g>
   <g id="PathCollection_136">
    <g clip-path="url(#paa2235f184)">
     <use xlink:href="#m90b67e5c56" x="289.584166" y="290.770658" style="fill: #008000; stroke: #008000"/>
    </g>
   </g>
   <g id="PathCollection_137">
    <g clip-path="url(#paa2235f184)">
     <use xlink:href="#m90b67e5c56" x="293.693717" y="292.062769" style="fill: #008000; stroke: #008000"/>
    </g>
   </g>
   <g id="PathCollection_138">
    <g clip-path="url(#paa2235f184)">
     <use xlink:href="#m90b67e5c56" x="297.803268" y="293.148143" style="fill: #008000; stroke: #008000"/>
    </g>
   </g>
   <g id="PathCollection_139">
    <g clip-path="url(#paa2235f184)">
     <use xlink:href="#m90b67e5c56" x="301.912819" y="294.026779" style="fill: #008000; stroke: #008000"/>
    </g>
   </g>
   <g id="PathCollection_140">
    <g clip-path="url(#paa2235f184)">
     <use xlink:href="#m90b67e5c56" x="306.022371" y="294.698677" style="fill: #008000; stroke: #008000"/>
    </g>
   </g>
   <g id="PathCollection_141">
    <g clip-path="url(#paa2235f184)">
     <use xlink:href="#m90b67e5c56" x="310.131922" y="295.163837" style="fill: #008000; stroke: #008000"/>
    </g>
   </g>
   <g id="PathCollection_142">
    <g clip-path="url(#paa2235f184)">
     <use xlink:href="#m90b67e5c56" x="314.241473" y="295.422259" style="fill: #008000; stroke: #008000"/>
    </g>
   </g>
   <g id="PathCollection_143">
    <g clip-path="url(#paa2235f184)">
     <use xlink:href="#m90b67e5c56" x="318.351024" y="295.473944" style="fill: #008000; stroke: #008000"/>
    </g>
   </g>
   <g id="PathCollection_144">
    <g clip-path="url(#paa2235f184)">
     <use xlink:href="#m90b67e5c56" x="322.460575" y="295.31889" style="fill: #008000; stroke: #008000"/>
    </g>
   </g>
   <g id="PathCollection_145">
    <g clip-path="url(#paa2235f184)">
     <use xlink:href="#m90b67e5c56" x="326.570127" y="294.957099" style="fill: #008000; stroke: #008000"/>
    </g>
   </g>
   <g id="PathCollection_146">
    <g clip-path="url(#paa2235f184)">
     <use xlink:href="#m90b67e5c56" x="330.679678" y="294.38857" style="fill: #008000; stroke: #008000"/>
    </g>
   </g>
   <g id="PathCollection_147">
    <g clip-path="url(#paa2235f184)">
     <use xlink:href="#m90b67e5c56" x="334.789229" y="293.613303" style="fill: #008000; stroke: #008000"/>
    </g>
   </g>
   <g id="PathCollection_148">
    <g clip-path="url(#paa2235f184)">
     <use xlink:href="#m90b67e5c56" x="338.89878" y="292.631298" style="fill: #008000; stroke: #008000"/>
    </g>
   </g>
   <g id="PathCollection_149">
    <g clip-path="url(#paa2235f184)">
     <use xlink:href="#m90b67e5c56" x="343.008331" y="291.442556" style="fill: #008000; stroke: #008000"/>
    </g>
   </g>
   <g id="PathCollection_150">
    <g clip-path="url(#paa2235f184)">
     <use xlink:href="#m90b67e5c56" x="347.117883" y="290.047075" style="fill: #008000; stroke: #008000"/>
    </g>
   </g>
   <g id="PathCollection_151">
    <g clip-path="url(#paa2235f184)">
     <use xlink:href="#m90b67e5c56" x="351.227434" y="288.444857" style="fill: #008000; stroke: #008000"/>
    </g>
   </g>
   <g id="PathCollection_152">
    <g clip-path="url(#paa2235f184)">
     <use xlink:href="#m90b67e5c56" x="355.336985" y="286.635901" style="fill: #008000; stroke: #008000"/>
    </g>
   </g>
   <g id="PathCollection_153">
    <g clip-path="url(#paa2235f184)">
     <use xlink:href="#m90b67e5c56" x="359.446536" y="284.620207" style="fill: #008000; stroke: #008000"/>
    </g>
   </g>
   <g id="PathCollection_154">
    <g clip-path="url(#paa2235f184)">
     <use xlink:href="#m90b67e5c56" x="363.556087" y="282.397775" style="fill: #008000; stroke: #008000"/>
    </g>
   </g>
   <g id="PathCollection_155">
    <g clip-path="url(#paa2235f184)">
     <use xlink:href="#m90b67e5c56" x="367.665639" y="279.968606" style="fill: #008000; stroke: #008000"/>
    </g>
   </g>
   <g id="PathCollection_156">
    <g clip-path="url(#paa2235f184)">
     <use xlink:href="#m90b67e5c56" x="371.77519" y="277.332698" style="fill: #008000; stroke: #008000"/>
    </g>
   </g>
   <g id="PathCollection_157">
    <g clip-path="url(#paa2235f184)">
     <use xlink:href="#m90b67e5c56" x="375.884741" y="274.490053" style="fill: #008000; stroke: #008000"/>
    </g>
   </g>
   <g id="PathCollection_158">
    <g clip-path="url(#paa2235f184)">
     <use xlink:href="#m90b67e5c56" x="379.994292" y="271.44067" style="fill: #008000; stroke: #008000"/>
    </g>
   </g>
   <g id="PathCollection_159">
    <g clip-path="url(#paa2235f184)">
     <use xlink:href="#m90b67e5c56" x="384.103843" y="268.184549" style="fill: #008000; stroke: #008000"/>
    </g>
   </g>
   <g id="PathCollection_160">
    <g clip-path="url(#paa2235f184)">
     <use xlink:href="#m90b67e5c56" x="388.213395" y="264.72169" style="fill: #008000; stroke: #008000"/>
    </g>
   </g>
   <g id="PathCollection_161">
    <g clip-path="url(#paa2235f184)">
     <use xlink:href="#m90b67e5c56" x="392.322946" y="261.052093" style="fill: #008000; stroke: #008000"/>
    </g>
   </g>
   <g id="PathCollection_162">
    <g clip-path="url(#paa2235f184)">
     <use xlink:href="#m90b67e5c56" x="396.432497" y="257.175759" style="fill: #008000; stroke: #008000"/>
    </g>
   </g>
   <g id="matplotlib.axis_1">
    <g id="xtick_1">
     <g id="line2d_1">
      <defs>
       <path id="m404124eee5" d="M 0 0 
L 0 3.5 
" style="stroke: #000000; stroke-width: 0.8"/>
      </defs>
      <g>
       <use xlink:href="#m404124eee5" x="73.832727" y="307.584" style="stroke: #000000; stroke-width: 0.8"/>
      </g>
     </g>
     <g id="text_1">
      <!-- −1.00 -->
      <g transform="translate(58.510071 322.182437)scale(0.1 -0.1)">
       <defs>
        <path id="DejaVuSans-2212" d="M 678 2272 
L 4684 2272 
L 4684 1741 
L 678 1741 
L 678 2272 
z
" transform="scale(0.015625)"/>
        <path id="DejaVuSans-31" d="M 794 531 
L 1825 531 
L 1825 4091 
L 703 3866 
L 703 4441 
L 1819 4666 
L 2450 4666 
L 2450 531 
L 3481 531 
L 3481 0 
L 794 0 
L 794 531 
z
" transform="scale(0.015625)"/>
        <path id="DejaVuSans-2e" d="M 684 794 
L 1344 794 
L 1344 0 
L 684 0 
L 684 794 
z
" transform="scale(0.015625)"/>
        <path id="DejaVuSans-30" d="M 2034 4250 
Q 1547 4250 1301 3770 
Q 1056 3291 1056 2328 
Q 1056 1369 1301 889 
Q 1547 409 2034 409 
Q 2525 409 2770 889 
Q 3016 1369 3016 2328 
Q 3016 3291 2770 3770 
Q 2525 4250 2034 4250 
z
M 2034 4750 
Q 2819 4750 3233 4129 
Q 3647 3509 3647 2328 
Q 3647 1150 3233 529 
Q 2819 -91 2034 -91 
Q 1250 -91 836 529 
Q 422 1150 422 2328 
Q 422 3509 836 4129 
Q 1250 4750 2034 4750 
z
" transform="scale(0.015625)"/>
       </defs>
       <use xlink:href="#DejaVuSans-2212"/>
       <use xlink:href="#DejaVuSans-31" x="83.789062"/>
       <use xlink:href="#DejaVuSans-2e" x="147.412109"/>
       <use xlink:href="#DejaVuSans-30" x="179.199219"/>
       <use xlink:href="#DejaVuSans-30" x="242.822266"/>
      </g>
     </g>
    </g>
    <g id="xtick_2">
     <g id="line2d_2">
      <g>
       <use xlink:href="#m404124eee5" x="114.414545" y="307.584" style="stroke: #000000; stroke-width: 0.8"/>
      </g>
     </g>
     <g id="text_2">
      <!-- −0.75 -->
      <g transform="translate(99.091889 322.182437)scale(0.1 -0.1)">
       <defs>
        <path id="DejaVuSans-37" d="M 525 4666 
L 3525 4666 
L 3525 4397 
L 1831 0 
L 1172 0 
L 2766 4134 
L 525 4134 
L 525 4666 
z
" transform="scale(0.015625)"/>
        <path id="DejaVuSans-35" d="M 691 4666 
L 3169 4666 
L 3169 4134 
L 1269 4134 
L 1269 2991 
Q 1406 3038 1543 3061 
Q 1681 3084 1819 3084 
Q 2600 3084 3056 2656 
Q 3513 2228 3513 1497 
Q 3513 744 3044 326 
Q 2575 -91 1722 -91 
Q 1428 -91 1123 -41 
Q 819 9 494 109 
L 494 744 
Q 775 591 1075 516 
Q 1375 441 1709 441 
Q 2250 441 2565 725 
Q 2881 1009 2881 1497 
Q 2881 1984 2565 2268 
Q 2250 2553 1709 2553 
Q 1456 2553 1204 2497 
Q 953 2441 691 2322 
L 691 4666 
z
" transform="scale(0.015625)"/>
       </defs>
       <use xlink:href="#DejaVuSans-2212"/>
       <use xlink:href="#DejaVuSans-30" x="83.789062"/>
       <use xlink:href="#DejaVuSans-2e" x="147.412109"/>
       <use xlink:href="#DejaVuSans-37" x="179.199219"/>
       <use xlink:href="#DejaVuSans-35" x="242.822266"/>
      </g>
     </g>
    </g>
    <g id="xtick_3">
     <g id="line2d_3">
      <g>
       <use xlink:href="#m404124eee5" x="154.996364" y="307.584" style="stroke: #000000; stroke-width: 0.8"/>
      </g>
     </g>
     <g id="text_3">
      <!-- −0.50 -->
      <g transform="translate(139.673707 322.182437)scale(0.1 -0.1)">
       <use xlink:href="#DejaVuSans-2212"/>
       <use xlink:href="#DejaVuSans-30" x="83.789062"/>
       <use xlink:href="#DejaVuSans-2e" x="147.412109"/>
       <use xlink:href="#DejaVuSans-35" x="179.199219"/>
       <use xlink:href="#DejaVuSans-30" x="242.822266"/>
      </g>
     </g>
    </g>
    <g id="xtick_4">
     <g id="line2d_4">
      <g>
       <use xlink:href="#m404124eee5" x="195.578182" y="307.584" style="stroke: #000000; stroke-width: 0.8"/>
      </g>
     </g>
     <g id="text_4">
      <!-- −0.25 -->
      <g transform="translate(180.255526 322.182437)scale(0.1 -0.1)">
       <defs>
        <path id="DejaVuSans-32" d="M 1228 531 
L 3431 531 
L 3431 0 
L 469 0 
L 469 531 
Q 828 903 1448 1529 
Q 2069 2156 2228 2338 
Q 2531 2678 2651 2914 
Q 2772 3150 2772 3378 
Q 2772 3750 2511 3984 
Q 2250 4219 1831 4219 
Q 1534 4219 1204 4116 
Q 875 4013 500 3803 
L 500 4441 
Q 881 4594 1212 4672 
Q 1544 4750 1819 4750 
Q 2544 4750 2975 4387 
Q 3406 4025 3406 3419 
Q 3406 3131 3298 2873 
Q 3191 2616 2906 2266 
Q 2828 2175 2409 1742 
Q 1991 1309 1228 531 
z
" transform="scale(0.015625)"/>
       </defs>
       <use xlink:href="#DejaVuSans-2212"/>
       <use xlink:href="#DejaVuSans-30" x="83.789062"/>
       <use xlink:href="#DejaVuSans-2e" x="147.412109"/>
       <use xlink:href="#DejaVuSans-32" x="179.199219"/>
       <use xlink:href="#DejaVuSans-35" x="242.822266"/>
      </g>
     </g>
    </g>
    <g id="xtick_5">
     <g id="line2d_5">
      <g>
       <use xlink:href="#m404124eee5" x="236.16" y="307.584" style="stroke: #000000; stroke-width: 0.8"/>
      </g>
     </g>
     <g id="text_5">
      <!-- 0.00 -->
      <g transform="translate(225.027187 322.182437)scale(0.1 -0.1)">
       <use xlink:href="#DejaVuSans-30"/>
       <use xlink:href="#DejaVuSans-2e" x="63.623047"/>
       <use xlink:href="#DejaVuSans-30" x="95.410156"/>
       <use xlink:href="#DejaVuSans-30" x="159.033203"/>
      </g>
     </g>
    </g>
    <g id="xtick_6">
     <g id="line2d_6">
      <g>
       <use xlink:href="#m404124eee5" x="276.741818" y="307.584" style="stroke: #000000; stroke-width: 0.8"/>
      </g>
     </g>
     <g id="text_6">
      <!-- 0.25 -->
      <g transform="translate(265.609006 322.182437)scale(0.1 -0.1)">
       <use xlink:href="#DejaVuSans-30"/>
       <use xlink:href="#DejaVuSans-2e" x="63.623047"/>
       <use xlink:href="#DejaVuSans-32" x="95.410156"/>
       <use xlink:href="#DejaVuSans-35" x="159.033203"/>
      </g>
     </g>
    </g>
    <g id="xtick_7">
     <g id="line2d_7">
      <g>
       <use xlink:href="#m404124eee5" x="317.323636" y="307.584" style="stroke: #000000; stroke-width: 0.8"/>
      </g>
     </g>
     <g id="text_7">
      <!-- 0.50 -->
      <g transform="translate(306.190824 322.182437)scale(0.1 -0.1)">
       <use xlink:href="#DejaVuSans-30"/>
       <use xlink:href="#DejaVuSans-2e" x="63.623047"/>
       <use xlink:href="#DejaVuSans-35" x="95.410156"/>
       <use xlink:href="#DejaVuSans-30" x="159.033203"/>
      </g>
     </g>
    </g>
    <g id="xtick_8">
     <g id="line2d_8">
      <g>
       <use xlink:href="#m404124eee5" x="357.905455" y="307.584" style="stroke: #000000; stroke-width: 0.8"/>
      </g>
     </g>
     <g id="text_8">
      <!-- 0.75 -->
      <g transform="translate(346.772642 322.182437)scale(0.1 -0.1)">
       <use xlink:href="#DejaVuSans-30"/>
       <use xlink:href="#DejaVuSans-2e" x="63.623047"/>
       <use xlink:href="#DejaVuSans-37" x="95.410156"/>
       <use xlink:href="#DejaVuSans-35" x="159.033203"/>
      </g>
     </g>
    </g>
    <g id="xtick_9">
     <g id="line2d_9">
      <g>
       <use xlink:href="#m404124eee5" x="398.487273" y="307.584" style="stroke: #000000; stroke-width: 0.8"/>
      </g>
     </g>
     <g id="text_9">
      <!-- 1.00 -->
      <g transform="translate(387.35446 322.182437)scale(0.1 -0.1)">
       <use xlink:href="#DejaVuSans-31"/>
       <use xlink:href="#DejaVuSans-2e" x="63.623047"/>
       <use xlink:href="#DejaVuSans-30" x="95.410156"/>
       <use xlink:href="#DejaVuSans-30" x="159.033203"/>
      </g>
     </g>
    </g>
   </g>
   <g id="matplotlib.axis_2">
    <g id="ytick_1">
     <g id="line2d_10">
      <defs>
       <path id="m13d2cf0ad2" d="M 0 0 
L -3.5 0 
" style="stroke: #000000; stroke-width: 0.8"/>
      </defs>
      <g>
       <use xlink:href="#m13d2cf0ad2" x="57.6" y="287.42495" style="stroke: #000000; stroke-width: 0.8"/>
      </g>
     </g>
     <g id="text_10">
      <!-- 0.8 -->
      <g transform="translate(34.696875 291.224169)scale(0.1 -0.1)">
       <defs>
        <path id="DejaVuSans-38" d="M 2034 2216 
Q 1584 2216 1326 1975 
Q 1069 1734 1069 1313 
Q 1069 891 1326 650 
Q 1584 409 2034 409 
Q 2484 409 2743 651 
Q 3003 894 3003 1313 
Q 3003 1734 2745 1975 
Q 2488 2216 2034 2216 
z
M 1403 2484 
Q 997 2584 770 2862 
Q 544 3141 544 3541 
Q 544 4100 942 4425 
Q 1341 4750 2034 4750 
Q 2731 4750 3128 4425 
Q 3525 4100 3525 3541 
Q 3525 3141 3298 2862 
Q 3072 2584 2669 2484 
Q 3125 2378 3379 2068 
Q 3634 1759 3634 1313 
Q 3634 634 3220 271 
Q 2806 -91 2034 -91 
Q 1263 -91 848 271 
Q 434 634 434 1313 
Q 434 1759 690 2068 
Q 947 2378 1403 2484 
z
M 1172 3481 
Q 1172 3119 1398 2916 
Q 1625 2713 2034 2713 
Q 2441 2713 2670 2916 
Q 2900 3119 2900 3481 
Q 2900 3844 2670 4047 
Q 2441 4250 2034 4250 
Q 1625 4250 1398 4047 
Q 1172 3844 1172 3481 
z
" transform="scale(0.015625)"/>
       </defs>
       <use xlink:href="#DejaVuSans-30"/>
       <use xlink:href="#DejaVuSans-2e" x="63.623047"/>
       <use xlink:href="#DejaVuSans-38" x="95.410156"/>
      </g>
     </g>
    </g>
    <g id="ytick_2">
     <g id="line2d_11">
      <g>
       <use xlink:href="#m13d2cf0ad2" x="57.6" y="255.168679" style="stroke: #000000; stroke-width: 0.8"/>
      </g>
     </g>
     <g id="text_11">
      <!-- 1.0 -->
      <g transform="translate(34.696875 258.967898)scale(0.1 -0.1)">
       <use xlink:href="#DejaVuSans-31"/>
       <use xlink:href="#DejaVuSans-2e" x="63.623047"/>
       <use xlink:href="#DejaVuSans-30" x="95.410156"/>
      </g>
     </g>
    </g>
    <g id="ytick_3">
     <g id="line2d_12">
      <g>
       <use xlink:href="#m13d2cf0ad2" x="57.6" y="222.912407" style="stroke: #000000; stroke-width: 0.8"/>
      </g>
     </g>
     <g id="text_12">
      <!-- 1.2 -->
      <g transform="translate(34.696875 226.711626)scale(0.1 -0.1)">
       <use xlink:href="#DejaVuSans-31"/>
       <use xlink:href="#DejaVuSans-2e" x="63.623047"/>
       <use xlink:href="#DejaVuSans-32" x="95.410156"/>
      </g>
     </g>
    </g>
    <g id="ytick_4">
     <g id="line2d_13">
      <g>
       <use xlink:href="#m13d2cf0ad2" x="57.6" y="190.656136" style="stroke: #000000; stroke-width: 0.8"/>
      </g>
     </g>
     <g id="text_13">
      <!-- 1.4 -->
      <g transform="translate(34.696875 194.455355)scale(0.1 -0.1)">
       <defs>
        <path id="DejaVuSans-34" d="M 2419 4116 
L 825 1625 
L 2419 1625 
L 2419 4116 
z
M 2253 4666 
L 3047 4666 
L 3047 1625 
L 3713 1625 
L 3713 1100 
L 3047 1100 
L 3047 0 
L 2419 0 
L 2419 1100 
L 313 1100 
L 313 1709 
L 2253 4666 
z
" transform="scale(0.015625)"/>
       </defs>
       <use xlink:href="#DejaVuSans-31"/>
       <use xlink:href="#DejaVuSans-2e" x="63.623047"/>
       <use xlink:href="#DejaVuSans-34" x="95.410156"/>
      </g>
     </g>
    </g>
    <g id="ytick_5">
     <g id="line2d_14">
      <g>
       <use xlink:href="#m13d2cf0ad2" x="57.6" y="158.399864" style="stroke: #000000; stroke-width: 0.8"/>
      </g>
     </g>
     <g id="text_14">
      <!-- 1.6 -->
      <g transform="translate(34.696875 162.199083)scale(0.1 -0.1)">
       <defs>
        <path id="DejaVuSans-36" d="M 2113 2584 
Q 1688 2584 1439 2293 
Q 1191 2003 1191 1497 
Q 1191 994 1439 701 
Q 1688 409 2113 409 
Q 2538 409 2786 701 
Q 3034 994 3034 1497 
Q 3034 2003 2786 2293 
Q 2538 2584 2113 2584 
z
M 3366 4563 
L 3366 3988 
Q 3128 4100 2886 4159 
Q 2644 4219 2406 4219 
Q 1781 4219 1451 3797 
Q 1122 3375 1075 2522 
Q 1259 2794 1537 2939 
Q 1816 3084 2150 3084 
Q 2853 3084 3261 2657 
Q 3669 2231 3669 1497 
Q 3669 778 3244 343 
Q 2819 -91 2113 -91 
Q 1303 -91 875 529 
Q 447 1150 447 2328 
Q 447 3434 972 4092 
Q 1497 4750 2381 4750 
Q 2619 4750 2861 4703 
Q 3103 4656 3366 4563 
z
" transform="scale(0.015625)"/>
       </defs>
       <use xlink:href="#DejaVuSans-31"/>
       <use xlink:href="#DejaVuSans-2e" x="63.623047"/>
       <use xlink:href="#DejaVuSans-36" x="95.410156"/>
      </g>
     </g>
    </g>
    <g id="ytick_6">
     <g id="line2d_15">
      <g>
       <use xlink:href="#m13d2cf0ad2" x="57.6" y="126.143593" style="stroke: #000000; stroke-width: 0.8"/>
      </g>
     </g>
     <g id="text_15">
      <!-- 1.8 -->
      <g transform="translate(34.696875 129.942811)scale(0.1 -0.1)">
       <use xlink:href="#DejaVuSans-31"/>
       <use xlink:href="#DejaVuSans-2e" x="63.623047"/>
       <use xlink:href="#DejaVuSans-38" x="95.410156"/>
      </g>
     </g>
    </g>
    <g id="ytick_7">
     <g id="line2d_16">
      <g>
       <use xlink:href="#m13d2cf0ad2" x="57.6" y="93.887321" style="stroke: #000000; stroke-width: 0.8"/>
      </g>
     </g>
     <g id="text_16">
      <!-- 2.0 -->
      <g transform="translate(34.696875 97.68654)scale(0.1 -0.1)">
       <use xlink:href="#DejaVuSans-32"/>
       <use xlink:href="#DejaVuSans-2e" x="63.623047"/>
       <use xlink:href="#DejaVuSans-30" x="95.410156"/>
      </g>
     </g>
    </g>
    <g id="ytick_8">
     <g id="line2d_17">
      <g>
       <use xlink:href="#m13d2cf0ad2" x="57.6" y="61.63105" style="stroke: #000000; stroke-width: 0.8"/>
      </g>
     </g>
     <g id="text_17">
      <!-- 2.2 -->
      <g transform="translate(34.696875 65.430268)scale(0.1 -0.1)">
       <use xlink:href="#DejaVuSans-32"/>
       <use xlink:href="#DejaVuSans-2e" x="63.623047"/>
       <use xlink:href="#DejaVuSans-32" x="95.410156"/>
      </g>
     </g>
    </g>
   </g>
   <g id="line2d_18">
    <path d="M 73.832727 93.887321 
L 78.727017 89.171182 
L 83.621307 84.748275 
L 88.515596 80.618599 
L 93.409886 76.782155 
L 98.304175 73.238942 
L 103.198465 69.98896 
L 108.092755 67.03221 
L 112.987044 64.368691 
L 117.881334 61.998404 
L 122.775624 59.921348 
L 127.669913 58.137523 
L 132.564203 56.64693 
L 137.458492 55.449568 
L 142.352782 54.545438 
L 147.247072 53.934539 
L 152.141361 53.616872 
L 157.035651 53.592436 
L 161.929941 53.861231 
L 166.82423 54.423258 
L 171.71852 55.278517 
L 176.61281 56.427006 
L 181.507099 57.868728 
L 186.401389 59.60368 
L 191.295678 61.631864 
L 196.189968 63.95328 
L 201.084258 66.567927 
L 205.978547 69.475805 
L 210.872837 72.676915 
L 215.767127 76.171256 
L 220.661416 79.958828 
L 225.555706 84.039632 
L 230.449995 88.413668 
L 235.344285 93.080935 
L 236.975715 255.975065 
L 241.870005 260.642332 
L 246.764294 265.016368 
L 251.658584 269.097172 
L 256.552873 272.884744 
L 261.447163 276.379085 
L 266.341453 279.580195 
L 271.235742 282.488073 
L 276.130032 285.10272 
L 281.024322 287.424136 
L 285.918611 289.45232 
L 290.812901 291.187272 
L 295.70719 292.628994 
L 300.60148 293.777483 
L 305.49577 294.632742 
L 310.390059 295.194769 
L 315.284349 295.463564 
L 320.178639 295.439128 
L 325.072928 295.121461 
L 329.967218 294.510562 
L 334.861508 293.606432 
L 339.755797 292.40907 
L 344.650087 290.918477 
L 349.544376 289.134652 
L 354.438666 287.057596 
L 359.332956 284.687309 
L 364.227245 282.02379 
L 369.121535 279.06704 
L 374.015825 275.817058 
L 378.910114 272.273845 
L 383.804404 268.437401 
L 388.698693 264.307725 
L 393.592983 259.884818 
L 398.487273 255.168679 
L 398.487273 255.168679 
" clip-path="url(#paa2235f184)" style="fill: none; stroke: #ffc0cb; stroke-width: 1.5; stroke-linecap: square"/>
   </g>
   <g id="line2d_19">
    <path d="M 73.832727 93.887321 
L 77.942278 89.907618 
" clip-path="url(#paa2235f184)" style="fill: none; stroke: #0000ff; stroke-width: 1.5; stroke-linecap: square"/>
   </g>
   <g id="line2d_20">
    <path d="M 77.942278 89.907618 
L 82.05183 86.134652 
" clip-path="url(#paa2235f184)" style="fill: none; stroke: #0000ff; stroke-width: 1.5; stroke-linecap: square"/>
   </g>
   <g id="line2d_21">
    <path d="M 82.05183 86.134652 
L 86.161381 82.568424 
" clip-path="url(#paa2235f184)" style="fill: none; stroke: #0000ff; stroke-width: 1.5; stroke-linecap: square"/>
   </g>
   <g id="line2d_22">
    <path d="M 86.161381 82.568424 
L 90.270932 79.208935 
" clip-path="url(#paa2235f184)" style="fill: none; stroke: #0000ff; stroke-width: 1.5; stroke-linecap: square"/>
   </g>
   <g id="line2d_23">
    <path d="M 90.270932 79.208935 
L 94.380483 76.056183 
" clip-path="url(#paa2235f184)" style="fill: none; stroke: #0000ff; stroke-width: 1.5; stroke-linecap: square"/>
   </g>
   <g id="line2d_24">
    <path d="M 94.380483 76.056182 
L 98.490035 73.110168 
" clip-path="url(#paa2235f184)" style="fill: none; stroke: #0000ff; stroke-width: 1.5; stroke-linecap: square"/>
   </g>
   <g id="line2d_25">
    <path d="M 98.490035 73.110168 
L 102.599586 70.370892 
" clip-path="url(#paa2235f184)" style="fill: none; stroke: #0000ff; stroke-width: 1.5; stroke-linecap: square"/>
   </g>
   <g id="line2d_26">
    <path d="M 102.599586 70.370892 
L 106.709137 67.838353 
" clip-path="url(#paa2235f184)" style="fill: none; stroke: #0000ff; stroke-width: 1.5; stroke-linecap: square"/>
   </g>
   <g id="line2d_27">
    <path d="M 106.709137 67.838353 
L 110.818688 65.512553 
" clip-path="url(#paa2235f184)" style="fill: none; stroke: #0000ff; stroke-width: 1.5; stroke-linecap: square"/>
   </g>
   <g id="line2d_28">
    <path d="M 110.818688 65.512553 
L 114.928239 63.39349 
" clip-path="url(#paa2235f184)" style="fill: none; stroke: #0000ff; stroke-width: 1.5; stroke-linecap: square"/>
   </g>
   <g id="line2d_29">
    <path d="M 114.928239 63.39349 
L 119.037791 61.481165 
" clip-path="url(#paa2235f184)" style="fill: none; stroke: #0000ff; stroke-width: 1.5; stroke-linecap: square"/>
   </g>
   <g id="line2d_30">
    <path d="M 119.037791 61.481165 
L 123.147342 59.775578 
" clip-path="url(#paa2235f184)" style="fill: none; stroke: #0000ff; stroke-width: 1.5; stroke-linecap: square"/>
   </g>
   <g id="line2d_31">
    <path d="M 123.147342 59.775578 
L 127.256893 58.276728 
" clip-path="url(#paa2235f184)" style="fill: none; stroke: #0000ff; stroke-width: 1.5; stroke-linecap: square"/>
   </g>
   <g id="line2d_32">
    <path d="M 127.256893 58.276728 
L 131.366444 56.984617 
" clip-path="url(#paa2235f184)" style="fill: none; stroke: #0000ff; stroke-width: 1.5; stroke-linecap: square"/>
   </g>
   <g id="line2d_33">
    <path d="M 131.366444 56.984617 
L 135.475995 55.899243 
" clip-path="url(#paa2235f184)" style="fill: none; stroke: #0000ff; stroke-width: 1.5; stroke-linecap: square"/>
   </g>
   <g id="line2d_34">
    <path d="M 135.475995 55.899243 
L 139.585547 55.020607 
" clip-path="url(#paa2235f184)" style="fill: none; stroke: #0000ff; stroke-width: 1.5; stroke-linecap: square"/>
   </g>
   <g id="line2d_35">
    <path d="M 139.585547 55.020607 
L 143.695098 54.348709 
" clip-path="url(#paa2235f184)" style="fill: none; stroke: #0000ff; stroke-width: 1.5; stroke-linecap: square"/>
   </g>
   <g id="line2d_36">
    <path d="M 143.695098 54.348709 
L 147.804649 53.883549 
" clip-path="url(#paa2235f184)" style="fill: none; stroke: #0000ff; stroke-width: 1.5; stroke-linecap: square"/>
   </g>
   <g id="line2d_37">
    <path d="M 147.804649 53.883549 
L 151.9142 53.625127 
" clip-path="url(#paa2235f184)" style="fill: none; stroke: #0000ff; stroke-width: 1.5; stroke-linecap: square"/>
   </g>
   <g id="line2d_38">
    <path d="M 151.9142 53.625127 
L 156.023751 53.573442 
" clip-path="url(#paa2235f184)" style="fill: none; stroke: #0000ff; stroke-width: 1.5; stroke-linecap: square"/>
   </g>
   <g id="line2d_39">
    <path d="M 156.023751 53.573442 
L 160.133303 53.728496 
" clip-path="url(#paa2235f184)" style="fill: none; stroke: #0000ff; stroke-width: 1.5; stroke-linecap: square"/>
   </g>
   <g id="line2d_40">
    <path d="M 160.133303 53.728496 
L 164.242854 54.090287 
" clip-path="url(#paa2235f184)" style="fill: none; stroke: #0000ff; stroke-width: 1.5; stroke-linecap: square"/>
   </g>
   <g id="line2d_41">
    <path d="M 164.242854 54.090287 
L 168.352405 54.658816 
" clip-path="url(#paa2235f184)" style="fill: none; stroke: #0000ff; stroke-width: 1.5; stroke-linecap: square"/>
   </g>
   <g id="line2d_42">
    <path d="M 168.352405 54.658816 
L 172.461956 55.434083 
" clip-path="url(#paa2235f184)" style="fill: none; stroke: #0000ff; stroke-width: 1.5; stroke-linecap: square"/>
   </g>
   <g id="line2d_43">
    <path d="M 172.461956 55.434083 
L 176.571507 56.416088 
" clip-path="url(#paa2235f184)" style="fill: none; stroke: #0000ff; stroke-width: 1.5; stroke-linecap: square"/>
   </g>
   <g id="line2d_44">
    <path d="M 176.571507 56.416088 
L 180.681059 57.60483 
" clip-path="url(#paa2235f184)" style="fill: none; stroke: #0000ff; stroke-width: 1.5; stroke-linecap: square"/>
   </g>
   <g id="line2d_45">
    <path d="M 180.681059 57.60483 
L 184.79061 59.000311 
" clip-path="url(#paa2235f184)" style="fill: none; stroke: #0000ff; stroke-width: 1.5; stroke-linecap: square"/>
   </g>
   <g id="line2d_46">
    <path d="M 184.79061 59.000311 
L 188.900161 60.602529 
" clip-path="url(#paa2235f184)" style="fill: none; stroke: #0000ff; stroke-width: 1.5; stroke-linecap: square"/>
   </g>
   <g id="line2d_47">
    <path d="M 188.900161 60.602529 
L 193.009712 62.411485 
" clip-path="url(#paa2235f184)" style="fill: none; stroke: #0000ff; stroke-width: 1.5; stroke-linecap: square"/>
   </g>
   <g id="line2d_48">
    <path d="M 193.009712 62.411485 
L 197.119264 64.427179 
" clip-path="url(#paa2235f184)" style="fill: none; stroke: #0000ff; stroke-width: 1.5; stroke-linecap: square"/>
   </g>
   <g id="line2d_49">
    <path d="M 197.119264 64.427179 
L 201.228815 66.649611 
" clip-path="url(#paa2235f184)" style="fill: none; stroke: #0000ff; stroke-width: 1.5; stroke-linecap: square"/>
   </g>
   <g id="line2d_50">
    <path d="M 201.228815 66.649611 
L 205.338366 69.07878 
" clip-path="url(#paa2235f184)" style="fill: none; stroke: #0000ff; stroke-width: 1.5; stroke-linecap: square"/>
   </g>
   <g id="line2d_51">
    <path d="M 205.338366 69.07878 
L 209.447917 71.714688 
" clip-path="url(#paa2235f184)" style="fill: none; stroke: #0000ff; stroke-width: 1.5; stroke-linecap: square"/>
   </g>
   <g id="line2d_52">
    <path d="M 209.447917 71.714688 
L 213.557468 74.557333 
" clip-path="url(#paa2235f184)" style="fill: none; stroke: #0000ff; stroke-width: 1.5; stroke-linecap: square"/>
   </g>
   <g id="line2d_53">
    <path d="M 213.557468 74.557333 
L 217.66702 77.606716 
" clip-path="url(#paa2235f184)" style="fill: none; stroke: #0000ff; stroke-width: 1.5; stroke-linecap: square"/>
   </g>
   <g id="line2d_54">
    <path d="M 217.66702 77.606716 
L 221.776571 80.862837 
" clip-path="url(#paa2235f184)" style="fill: none; stroke: #0000ff; stroke-width: 1.5; stroke-linecap: square"/>
   </g>
   <g id="line2d_55">
    <path d="M 221.776571 80.862837 
L 225.886122 84.325696 
" clip-path="url(#paa2235f184)" style="fill: none; stroke: #0000ff; stroke-width: 1.5; stroke-linecap: square"/>
   </g>
   <g id="line2d_56">
    <path d="M 225.886122 84.325696 
L 229.995673 87.995293 
" clip-path="url(#paa2235f184)" style="fill: none; stroke: #0000ff; stroke-width: 1.5; stroke-linecap: square"/>
   </g>
   <g id="line2d_57">
    <path d="M 229.995673 87.995293 
L 234.105224 91.871627 
" clip-path="url(#paa2235f184)" style="fill: none; stroke: #0000ff; stroke-width: 1.5; stroke-linecap: square"/>
   </g>
   <g id="line2d_58">
    <path d="M 234.105224 92.875967 
L 236.161623 92.875967 
" clip-path="url(#paa2235f184)" style="fill: none; stroke: #0000ff; stroke-width: 1.5; stroke-linecap: square"/>
   </g>
   <g id="line2d_59">
    <path d="M 236.161623 256.181632 
L 238.214776 256.181632 
" clip-path="url(#paa2235f184)" style="fill: none; stroke: #008000; stroke-width: 1.5; stroke-linecap: square"/>
   </g>
   <g id="line2d_60">
    <path d="M 238.214776 257.184373 
L 242.324327 261.060707 
" clip-path="url(#paa2235f184)" style="fill: none; stroke: #008000; stroke-width: 1.5; stroke-linecap: square"/>
   </g>
   <g id="line2d_61">
    <path d="M 242.324327 261.060707 
L 246.433878 264.730304 
" clip-path="url(#paa2235f184)" style="fill: none; stroke: #008000; stroke-width: 1.5; stroke-linecap: square"/>
   </g>
   <g id="line2d_62">
    <path d="M 246.433878 264.730304 
L 250.543429 268.193163 
" clip-path="url(#paa2235f184)" style="fill: none; stroke: #008000; stroke-width: 1.5; stroke-linecap: square"/>
   </g>
   <g id="line2d_63">
    <path d="M 250.543429 268.193163 
L 254.65298 271.449284 
" clip-path="url(#paa2235f184)" style="fill: none; stroke: #008000; stroke-width: 1.5; stroke-linecap: square"/>
   </g>
   <g id="line2d_64">
    <path d="M 254.65298 271.449284 
L 258.762532 274.498667 
" clip-path="url(#paa2235f184)" style="fill: none; stroke: #008000; stroke-width: 1.5; stroke-linecap: square"/>
   </g>
   <g id="line2d_65">
    <path d="M 258.762532 274.498667 
L 262.872083 277.341312 
" clip-path="url(#paa2235f184)" style="fill: none; stroke: #008000; stroke-width: 1.5; stroke-linecap: square"/>
   </g>
   <g id="line2d_66">
    <path d="M 262.872083 277.341312 
L 266.981634 279.97722 
" clip-path="url(#paa2235f184)" style="fill: none; stroke: #008000; stroke-width: 1.5; stroke-linecap: square"/>
   </g>
   <g id="line2d_67">
    <path d="M 266.981634 279.97722 
L 271.091185 282.406389 
" clip-path="url(#paa2235f184)" style="fill: none; stroke: #008000; stroke-width: 1.5; stroke-linecap: square"/>
   </g>
   <g id="line2d_68">
    <path d="M 271.091185 282.406389 
L 275.200736 284.628821 
" clip-path="url(#paa2235f184)" style="fill: none; stroke: #008000; stroke-width: 1.5; stroke-linecap: square"/>
   </g>
   <g id="line2d_69">
    <path d="M 275.200736 284.628821 
L 279.310288 286.644515 
" clip-path="url(#paa2235f184)" style="fill: none; stroke: #008000; stroke-width: 1.5; stroke-linecap: square"/>
   </g>
   <g id="line2d_70">
    <path d="M 279.310288 286.644515 
L 283.419839 288.453471 
" clip-path="url(#paa2235f184)" style="fill: none; stroke: #008000; stroke-width: 1.5; stroke-linecap: square"/>
   </g>
   <g id="line2d_71">
    <path d="M 283.419839 288.453471 
L 287.52939 290.055689 
" clip-path="url(#paa2235f184)" style="fill: none; stroke: #008000; stroke-width: 1.5; stroke-linecap: square"/>
   </g>
   <g id="line2d_72">
    <path d="M 287.52939 290.055689 
L 291.638941 291.45117 
" clip-path="url(#paa2235f184)" style="fill: none; stroke: #008000; stroke-width: 1.5; stroke-linecap: square"/>
   </g>
   <g id="line2d_73">
    <path d="M 291.638941 291.45117 
L 295.748493 292.639912 
" clip-path="url(#paa2235f184)" style="fill: none; stroke: #008000; stroke-width: 1.5; stroke-linecap: square"/>
   </g>
   <g id="line2d_74">
    <path d="M 295.748493 292.639912 
L 299.858044 293.621917 
" clip-path="url(#paa2235f184)" style="fill: none; stroke: #008000; stroke-width: 1.5; stroke-linecap: square"/>
   </g>
   <g id="line2d_75">
    <path d="M 299.858044 293.621917 
L 303.967595 294.397184 
" clip-path="url(#paa2235f184)" style="fill: none; stroke: #008000; stroke-width: 1.5; stroke-linecap: square"/>
   </g>
   <g id="line2d_76">
    <path d="M 303.967595 294.397184 
L 308.077146 294.965713 
" clip-path="url(#paa2235f184)" style="fill: none; stroke: #008000; stroke-width: 1.5; stroke-linecap: square"/>
   </g>
   <g id="line2d_77">
    <path d="M 308.077146 294.965713 
L 312.186697 295.327504 
" clip-path="url(#paa2235f184)" style="fill: none; stroke: #008000; stroke-width: 1.5; stroke-linecap: square"/>
   </g>
   <g id="line2d_78">
    <path d="M 312.186697 295.327504 
L 316.296249 295.482558 
" clip-path="url(#paa2235f184)" style="fill: none; stroke: #008000; stroke-width: 1.5; stroke-linecap: square"/>
   </g>
   <g id="line2d_79">
    <path d="M 316.296249 295.482558 
L 320.4058 295.430873 
" clip-path="url(#paa2235f184)" style="fill: none; stroke: #008000; stroke-width: 1.5; stroke-linecap: square"/>
   </g>
   <g id="line2d_80">
    <path d="M 320.4058 295.430873 
L 324.515351 295.172451 
" clip-path="url(#paa2235f184)" style="fill: none; stroke: #008000; stroke-width: 1.5; stroke-linecap: square"/>
   </g>
   <g id="line2d_81">
    <path d="M 324.515351 295.172451 
L 328.624902 294.707291 
" clip-path="url(#paa2235f184)" style="fill: none; stroke: #008000; stroke-width: 1.5; stroke-linecap: square"/>
   </g>
   <g id="line2d_82">
    <path d="M 328.624902 294.707291 
L 332.734453 294.035393 
" clip-path="url(#paa2235f184)" style="fill: none; stroke: #008000; stroke-width: 1.5; stroke-linecap: square"/>
   </g>
   <g id="line2d_83">
    <path d="M 332.734453 294.035393 
L 336.844005 293.156757 
" clip-path="url(#paa2235f184)" style="fill: none; stroke: #008000; stroke-width: 1.5; stroke-linecap: square"/>
   </g>
   <g id="line2d_84">
    <path d="M 336.844005 293.156757 
L 340.953556 292.071383 
" clip-path="url(#paa2235f184)" style="fill: none; stroke: #008000; stroke-width: 1.5; stroke-linecap: square"/>
   </g>
   <g id="line2d_85">
    <path d="M 340.953556 292.071383 
L 345.063107 290.779272 
" clip-path="url(#paa2235f184)" style="fill: none; stroke: #008000; stroke-width: 1.5; stroke-linecap: square"/>
   </g>
   <g id="line2d_86">
    <path d="M 345.063107 290.779272 
L 349.172658 289.280422 
" clip-path="url(#paa2235f184)" style="fill: none; stroke: #008000; stroke-width: 1.5; stroke-linecap: square"/>
   </g>
   <g id="line2d_87">
    <path d="M 349.172658 289.280422 
L 353.282209 287.574835 
" clip-path="url(#paa2235f184)" style="fill: none; stroke: #008000; stroke-width: 1.5; stroke-linecap: square"/>
   </g>
   <g id="line2d_88">
    <path d="M 353.282209 287.574835 
L 357.391761 285.66251 
" clip-path="url(#paa2235f184)" style="fill: none; stroke: #008000; stroke-width: 1.5; stroke-linecap: square"/>
   </g>
   <g id="line2d_89">
    <path d="M 357.391761 285.66251 
L 361.501312 283.543447 
" clip-path="url(#paa2235f184)" style="fill: none; stroke: #008000; stroke-width: 1.5; stroke-linecap: square"/>
   </g>
   <g id="line2d_90">
    <path d="M 361.501312 283.543447 
L 365.610863 281.217647 
" clip-path="url(#paa2235f184)" style="fill: none; stroke: #008000; stroke-width: 1.5; stroke-linecap: square"/>
   </g>
   <g id="line2d_91">
    <path d="M 365.610863 281.217647 
L 369.720414 278.685108 
" clip-path="url(#paa2235f184)" style="fill: none; stroke: #008000; stroke-width: 1.5; stroke-linecap: square"/>
   </g>
   <g id="line2d_92">
    <path d="M 369.720414 278.685108 
L 373.829965 275.945832 
" clip-path="url(#paa2235f184)" style="fill: none; stroke: #008000; stroke-width: 1.5; stroke-linecap: square"/>
   </g>
   <g id="line2d_93">
    <path d="M 373.829965 275.945832 
L 377.939517 272.999818 
" clip-path="url(#paa2235f184)" style="fill: none; stroke: #008000; stroke-width: 1.5; stroke-linecap: square"/>
   </g>
   <g id="line2d_94">
    <path d="M 377.939517 272.999817 
L 382.049068 269.847065 
" clip-path="url(#paa2235f184)" style="fill: none; stroke: #008000; stroke-width: 1.5; stroke-linecap: square"/>
   </g>
   <g id="line2d_95">
    <path d="M 382.049068 269.847065 
L 386.158619 266.487576 
" clip-path="url(#paa2235f184)" style="fill: none; stroke: #008000; stroke-width: 1.5; stroke-linecap: square"/>
   </g>
   <g id="line2d_96">
    <path d="M 386.158619 266.487576 
L 390.26817 262.921348 
" clip-path="url(#paa2235f184)" style="fill: none; stroke: #008000; stroke-width: 1.5; stroke-linecap: square"/>
   </g>
   <g id="line2d_97">
    <path d="M 390.26817 262.921348 
L 394.377722 259.148382 
" clip-path="url(#paa2235f184)" style="fill: none; stroke: #008000; stroke-width: 1.5; stroke-linecap: square"/>
   </g>
   <g id="line2d_98">
    <path d="M 394.377722 259.148382 
L 398.487273 255.168679 
" clip-path="url(#paa2235f184)" style="fill: none; stroke: #008000; stroke-width: 1.5; stroke-linecap: square"/>
   </g>
   <g id="patch_3">
    <path d="M 57.6 307.584 
L 57.6 41.472 
" style="fill: none; stroke: #000000; stroke-width: 0.8; stroke-linejoin: miter; stroke-linecap: square"/>
   </g>
   <g id="patch_4">
    <path d="M 414.72 307.584 
L 414.72 41.472 
" style="fill: none; stroke: #000000; stroke-width: 0.8; stroke-linejoin: miter; stroke-linecap: square"/>
   </g>
   <g id="patch_5">
    <path d="M 57.6 307.584 
L 414.72 307.584 
" style="fill: none; stroke: #000000; stroke-width: 0.8; stroke-linejoin: miter; stroke-linecap: square"/>
   </g>
   <g id="patch_6">
    <path d="M 57.6 41.472 
L 414.72 41.472 
" style="fill: none; stroke: #000000; stroke-width: 0.8; stroke-linejoin: miter; stroke-linecap: square"/>
   </g>
   <g id="legend_1">
    <g id="patch_7">
     <path d="M 199.285625 220.662375 
L 407.72 220.662375 
Q 409.72 220.662375 409.72 218.662375 
L 409.72 130.393625 
Q 409.72 128.393625 407.72 128.393625 
L 199.285625 128.393625 
Q 197.285625 128.393625 197.285625 130.393625 
L 197.285625 218.662375 
Q 197.285625 220.662375 199.285625 220.662375 
z
" style="fill: #ffffff; opacity: 0.8; stroke: #cccccc; stroke-linejoin: miter"/>
    </g>
    <g id="line2d_99">
     <path d="M 201.285625 136.492062 
L 211.285625 136.492062 
L 221.285625 136.492062 
" style="fill: none; stroke: #ffc0cb; stroke-width: 1.5; stroke-linecap: square"/>
    </g>
    <g id="text_18">
     <!-- Původní funkce -->
     <g transform="translate(229.285625 139.992062)scale(0.1 -0.1)">
      <defs>
       <path id="DejaVuSans-50" d="M 1259 4147 
L 1259 2394 
L 2053 2394 
Q 2494 2394 2734 2622 
Q 2975 2850 2975 3272 
Q 2975 3691 2734 3919 
Q 2494 4147 2053 4147 
L 1259 4147 
z
M 628 4666 
L 2053 4666 
Q 2838 4666 3239 4311 
Q 3641 3956 3641 3272 
Q 3641 2581 3239 2228 
Q 2838 1875 2053 1875 
L 1259 1875 
L 1259 0 
L 628 0 
L 628 4666 
z
" transform="scale(0.015625)"/>
       <path id="DejaVuSans-16f" d="M 544 1381 
L 544 3500 
L 1119 3500 
L 1119 1403 
Q 1119 906 1312 657 
Q 1506 409 1894 409 
Q 2359 409 2629 706 
Q 2900 1003 2900 1516 
L 2900 3500 
L 3475 3500 
L 3475 0 
L 2900 0 
L 2900 538 
Q 2691 219 2414 64 
Q 2138 -91 1772 -91 
Q 1169 -91 856 284 
Q 544 659 544 1381 
z
M 1991 3584 
L 1991 3584 
z
M 2463 4575 
Q 2463 4771 2325 4908 
Q 2188 5046 1988 5046 
Q 1784 5046 1648 4910 
Q 1513 4775 1513 4575 
Q 1513 4371 1648 4235 
Q 1784 4100 1988 4100 
Q 2188 4100 2325 4237 
Q 2463 4375 2463 4575 
z
M 2844 4575 
Q 2844 4215 2595 3965 
Q 2347 3715 1988 3715 
Q 1628 3715 1379 3965 
Q 1131 4215 1131 4575 
Q 1131 4934 1379 5182 
Q 1628 5431 1988 5431 
Q 2347 5431 2595 5182 
Q 2844 4934 2844 4575 
z
" transform="scale(0.015625)"/>
       <path id="DejaVuSans-76" d="M 191 3500 
L 800 3500 
L 1894 563 
L 2988 3500 
L 3597 3500 
L 2284 0 
L 1503 0 
L 191 3500 
z
" transform="scale(0.015625)"/>
       <path id="DejaVuSans-6f" d="M 1959 3097 
Q 1497 3097 1228 2736 
Q 959 2375 959 1747 
Q 959 1119 1226 758 
Q 1494 397 1959 397 
Q 2419 397 2687 759 
Q 2956 1122 2956 1747 
Q 2956 2369 2687 2733 
Q 2419 3097 1959 3097 
z
M 1959 3584 
Q 2709 3584 3137 3096 
Q 3566 2609 3566 1747 
Q 3566 888 3137 398 
Q 2709 -91 1959 -91 
Q 1206 -91 779 398 
Q 353 888 353 1747 
Q 353 2609 779 3096 
Q 1206 3584 1959 3584 
z
" transform="scale(0.015625)"/>
       <path id="DejaVuSans-64" d="M 2906 2969 
L 2906 4863 
L 3481 4863 
L 3481 0 
L 2906 0 
L 2906 525 
Q 2725 213 2448 61 
Q 2172 -91 1784 -91 
Q 1150 -91 751 415 
Q 353 922 353 1747 
Q 353 2572 751 3078 
Q 1150 3584 1784 3584 
Q 2172 3584 2448 3432 
Q 2725 3281 2906 2969 
z
M 947 1747 
Q 947 1113 1208 752 
Q 1469 391 1925 391 
Q 2381 391 2643 752 
Q 2906 1113 2906 1747 
Q 2906 2381 2643 2742 
Q 2381 3103 1925 3103 
Q 1469 3103 1208 2742 
Q 947 2381 947 1747 
z
" transform="scale(0.015625)"/>
       <path id="DejaVuSans-6e" d="M 3513 2113 
L 3513 0 
L 2938 0 
L 2938 2094 
Q 2938 2591 2744 2837 
Q 2550 3084 2163 3084 
Q 1697 3084 1428 2787 
Q 1159 2491 1159 1978 
L 1159 0 
L 581 0 
L 581 3500 
L 1159 3500 
L 1159 2956 
Q 1366 3272 1645 3428 
Q 1925 3584 2291 3584 
Q 2894 3584 3203 3211 
Q 3513 2838 3513 2113 
z
" transform="scale(0.015625)"/>
       <path id="DejaVuSans-ed" d="M 1325 5119 
L 1947 5119 
L 928 3944 
L 450 3944 
L 1325 5119 
z
M 603 3500 
L 1178 3500 
L 1178 0 
L 603 0 
L 603 3500 
z
M 891 3584 
L 891 3584 
z
" transform="scale(0.015625)"/>
       <path id="DejaVuSans-20" transform="scale(0.015625)"/>
       <path id="DejaVuSans-66" d="M 2375 4863 
L 2375 4384 
L 1825 4384 
Q 1516 4384 1395 4259 
Q 1275 4134 1275 3809 
L 1275 3500 
L 2222 3500 
L 2222 3053 
L 1275 3053 
L 1275 0 
L 697 0 
L 697 3053 
L 147 3053 
L 147 3500 
L 697 3500 
L 697 3744 
Q 697 4328 969 4595 
Q 1241 4863 1831 4863 
L 2375 4863 
z
" transform="scale(0.015625)"/>
       <path id="DejaVuSans-75" d="M 544 1381 
L 544 3500 
L 1119 3500 
L 1119 1403 
Q 1119 906 1312 657 
Q 1506 409 1894 409 
Q 2359 409 2629 706 
Q 2900 1003 2900 1516 
L 2900 3500 
L 3475 3500 
L 3475 0 
L 2900 0 
L 2900 538 
Q 2691 219 2414 64 
Q 2138 -91 1772 -91 
Q 1169 -91 856 284 
Q 544 659 544 1381 
z
M 1991 3584 
L 1991 3584 
z
" transform="scale(0.015625)"/>
       <path id="DejaVuSans-6b" d="M 581 4863 
L 1159 4863 
L 1159 1991 
L 2875 3500 
L 3609 3500 
L 1753 1863 
L 3688 0 
L 2938 0 
L 1159 1709 
L 1159 0 
L 581 0 
L 581 4863 
z
" transform="scale(0.015625)"/>
       <path id="DejaVuSans-63" d="M 3122 3366 
L 3122 2828 
Q 2878 2963 2633 3030 
Q 2388 3097 2138 3097 
Q 1578 3097 1268 2742 
Q 959 2388 959 1747 
Q 959 1106 1268 751 
Q 1578 397 2138 397 
Q 2388 397 2633 464 
Q 2878 531 3122 666 
L 3122 134 
Q 2881 22 2623 -34 
Q 2366 -91 2075 -91 
Q 1284 -91 818 406 
Q 353 903 353 1747 
Q 353 2603 823 3093 
Q 1294 3584 2113 3584 
Q 2378 3584 2631 3529 
Q 2884 3475 3122 3366 
z
" transform="scale(0.015625)"/>
       <path id="DejaVuSans-65" d="M 3597 1894 
L 3597 1613 
L 953 1613 
Q 991 1019 1311 708 
Q 1631 397 2203 397 
Q 2534 397 2845 478 
Q 3156 559 3463 722 
L 3463 178 
Q 3153 47 2828 -22 
Q 2503 -91 2169 -91 
Q 1331 -91 842 396 
Q 353 884 353 1716 
Q 353 2575 817 3079 
Q 1281 3584 2069 3584 
Q 2775 3584 3186 3129 
Q 3597 2675 3597 1894 
z
M 3022 2063 
Q 3016 2534 2758 2815 
Q 2500 3097 2075 3097 
Q 1594 3097 1305 2825 
Q 1016 2553 972 2059 
L 3022 2063 
z
" transform="scale(0.015625)"/>
      </defs>
      <use xlink:href="#DejaVuSans-50"/>
      <use xlink:href="#DejaVuSans-16f" x="58.552734"/>
      <use xlink:href="#DejaVuSans-76" x="121.931641"/>
      <use xlink:href="#DejaVuSans-6f" x="181.111328"/>
      <use xlink:href="#DejaVuSans-64" x="242.292969"/>
      <use xlink:href="#DejaVuSans-6e" x="305.769531"/>
      <use xlink:href="#DejaVuSans-ed" x="369.148438"/>
      <use xlink:href="#DejaVuSans-20" x="396.931641"/>
      <use xlink:href="#DejaVuSans-66" x="428.71875"/>
      <use xlink:href="#DejaVuSans-75" x="463.923828"/>
      <use xlink:href="#DejaVuSans-6e" x="527.302734"/>
      <use xlink:href="#DejaVuSans-6b" x="590.681641"/>
      <use xlink:href="#DejaVuSans-63" x="648.591797"/>
      <use xlink:href="#DejaVuSans-65" x="703.572266"/>
     </g>
    </g>
    <g id="PathCollection_163">
     <g>
      <use xlink:href="#m1a1aff726c" x="211.285625" y="152.445187" style="fill: #ff0000; stroke: #ff0000; stroke-width: 1.5"/>
     </g>
    </g>
    <g id="text_19">
     <!-- Střední hodnota smíšené buňky -->
     <g transform="translate(229.285625 155.070187)scale(0.1 -0.1)">
      <defs>
       <path id="DejaVuSans-53" d="M 3425 4513 
L 3425 3897 
Q 3066 4069 2747 4153 
Q 2428 4238 2131 4238 
Q 1616 4238 1336 4038 
Q 1056 3838 1056 3469 
Q 1056 3159 1242 3001 
Q 1428 2844 1947 2747 
L 2328 2669 
Q 3034 2534 3370 2195 
Q 3706 1856 3706 1288 
Q 3706 609 3251 259 
Q 2797 -91 1919 -91 
Q 1588 -91 1214 -16 
Q 841 59 441 206 
L 441 856 
Q 825 641 1194 531 
Q 1563 422 1919 422 
Q 2459 422 2753 634 
Q 3047 847 3047 1241 
Q 3047 1584 2836 1778 
Q 2625 1972 2144 2069 
L 1759 2144 
Q 1053 2284 737 2584 
Q 422 2884 422 3419 
Q 422 4038 858 4394 
Q 1294 4750 2059 4750 
Q 2388 4750 2728 4690 
Q 3069 4631 3425 4513 
z
" transform="scale(0.015625)"/>
       <path id="DejaVuSans-74" d="M 1172 4494 
L 1172 3500 
L 2356 3500 
L 2356 3053 
L 1172 3053 
L 1172 1153 
Q 1172 725 1289 603 
Q 1406 481 1766 481 
L 2356 481 
L 2356 0 
L 1766 0 
Q 1100 0 847 248 
Q 594 497 594 1153 
L 594 3053 
L 172 3053 
L 172 3500 
L 594 3500 
L 594 4494 
L 1172 4494 
z
" transform="scale(0.015625)"/>
       <path id="DejaVuSans-159" d="M 2631 2963 
Q 2534 3019 2420 3045 
Q 2306 3072 2169 3072 
Q 1681 3072 1420 2755 
Q 1159 2438 1159 1844 
L 1159 0 
L 581 0 
L 581 3500 
L 1159 3500 
L 1159 2956 
Q 1341 3275 1631 3429 
Q 1922 3584 2338 3584 
Q 2397 3584 2469 3576 
Q 2541 3569 2628 3553 
L 2631 2963 
z
M 1453 3944 
L 688 5119 
L 1122 5119 
L 1684 4353 
L 2247 5119 
L 2681 5119 
L 1916 3944 
L 1453 3944 
z
" transform="scale(0.015625)"/>
       <path id="DejaVuSans-68" d="M 3513 2113 
L 3513 0 
L 2938 0 
L 2938 2094 
Q 2938 2591 2744 2837 
Q 2550 3084 2163 3084 
Q 1697 3084 1428 2787 
Q 1159 2491 1159 1978 
L 1159 0 
L 581 0 
L 581 4863 
L 1159 4863 
L 1159 2956 
Q 1366 3272 1645 3428 
Q 1925 3584 2291 3584 
Q 2894 3584 3203 3211 
Q 3513 2838 3513 2113 
z
" transform="scale(0.015625)"/>
       <path id="DejaVuSans-61" d="M 2194 1759 
Q 1497 1759 1228 1600 
Q 959 1441 959 1056 
Q 959 750 1161 570 
Q 1363 391 1709 391 
Q 2188 391 2477 730 
Q 2766 1069 2766 1631 
L 2766 1759 
L 2194 1759 
z
M 3341 1997 
L 3341 0 
L 2766 0 
L 2766 531 
Q 2569 213 2275 61 
Q 1981 -91 1556 -91 
Q 1019 -91 701 211 
Q 384 513 384 1019 
Q 384 1609 779 1909 
Q 1175 2209 1959 2209 
L 2766 2209 
L 2766 2266 
Q 2766 2663 2505 2880 
Q 2244 3097 1772 3097 
Q 1472 3097 1187 3025 
Q 903 2953 641 2809 
L 641 3341 
Q 956 3463 1253 3523 
Q 1550 3584 1831 3584 
Q 2591 3584 2966 3190 
Q 3341 2797 3341 1997 
z
" transform="scale(0.015625)"/>
       <path id="DejaVuSans-73" d="M 2834 3397 
L 2834 2853 
Q 2591 2978 2328 3040 
Q 2066 3103 1784 3103 
Q 1356 3103 1142 2972 
Q 928 2841 928 2578 
Q 928 2378 1081 2264 
Q 1234 2150 1697 2047 
L 1894 2003 
Q 2506 1872 2764 1633 
Q 3022 1394 3022 966 
Q 3022 478 2636 193 
Q 2250 -91 1575 -91 
Q 1294 -91 989 -36 
Q 684 19 347 128 
L 347 722 
Q 666 556 975 473 
Q 1284 391 1588 391 
Q 1994 391 2212 530 
Q 2431 669 2431 922 
Q 2431 1156 2273 1281 
Q 2116 1406 1581 1522 
L 1381 1569 
Q 847 1681 609 1914 
Q 372 2147 372 2553 
Q 372 3047 722 3315 
Q 1072 3584 1716 3584 
Q 2034 3584 2315 3537 
Q 2597 3491 2834 3397 
z
" transform="scale(0.015625)"/>
       <path id="DejaVuSans-6d" d="M 3328 2828 
Q 3544 3216 3844 3400 
Q 4144 3584 4550 3584 
Q 5097 3584 5394 3201 
Q 5691 2819 5691 2113 
L 5691 0 
L 5113 0 
L 5113 2094 
Q 5113 2597 4934 2840 
Q 4756 3084 4391 3084 
Q 3944 3084 3684 2787 
Q 3425 2491 3425 1978 
L 3425 0 
L 2847 0 
L 2847 2094 
Q 2847 2600 2669 2842 
Q 2491 3084 2119 3084 
Q 1678 3084 1418 2786 
Q 1159 2488 1159 1978 
L 1159 0 
L 581 0 
L 581 3500 
L 1159 3500 
L 1159 2956 
Q 1356 3278 1631 3431 
Q 1906 3584 2284 3584 
Q 2666 3584 2933 3390 
Q 3200 3197 3328 2828 
z
" transform="scale(0.015625)"/>
       <path id="DejaVuSans-161" d="M 2834 3397 
L 2834 2853 
Q 2591 2978 2328 3040 
Q 2066 3103 1784 3103 
Q 1356 3103 1142 2972 
Q 928 2841 928 2578 
Q 928 2378 1081 2264 
Q 1234 2150 1697 2047 
L 1894 2003 
Q 2506 1872 2764 1633 
Q 3022 1394 3022 966 
Q 3022 478 2636 193 
Q 2250 -91 1575 -91 
Q 1294 -91 989 -36 
Q 684 19 347 128 
L 347 722 
Q 666 556 975 473 
Q 1284 391 1588 391 
Q 1994 391 2212 530 
Q 2431 669 2431 922 
Q 2431 1156 2273 1281 
Q 2116 1406 1581 1522 
L 1381 1569 
Q 847 1681 609 1914 
Q 372 2147 372 2553 
Q 372 3047 722 3315 
Q 1072 3584 1716 3584 
Q 2034 3584 2315 3537 
Q 2597 3491 2834 3397 
z
M 1503 3944 
L 738 5119 
L 1172 5119 
L 1734 4353 
L 2297 5119 
L 2731 5119 
L 1966 3944 
L 1503 3944 
z
M 1722 3584 
L 1722 3584 
z
" transform="scale(0.015625)"/>
       <path id="DejaVuSans-e9" d="M 3597 1894 
L 3597 1613 
L 953 1613 
Q 991 1019 1311 708 
Q 1631 397 2203 397 
Q 2534 397 2845 478 
Q 3156 559 3463 722 
L 3463 178 
Q 3153 47 2828 -22 
Q 2503 -91 2169 -91 
Q 1331 -91 842 396 
Q 353 884 353 1716 
Q 353 2575 817 3079 
Q 1281 3584 2069 3584 
Q 2775 3584 3186 3129 
Q 3597 2675 3597 1894 
z
M 3022 2063 
Q 3016 2534 2758 2815 
Q 2500 3097 2075 3097 
Q 1594 3097 1305 2825 
Q 1016 2553 972 2059 
L 3022 2063 
z
M 2469 5119 
L 3091 5119 
L 2072 3944 
L 1594 3944 
L 2469 5119 
z
" transform="scale(0.015625)"/>
       <path id="DejaVuSans-62" d="M 3116 1747 
Q 3116 2381 2855 2742 
Q 2594 3103 2138 3103 
Q 1681 3103 1420 2742 
Q 1159 2381 1159 1747 
Q 1159 1113 1420 752 
Q 1681 391 2138 391 
Q 2594 391 2855 752 
Q 3116 1113 3116 1747 
z
M 1159 2969 
Q 1341 3281 1617 3432 
Q 1894 3584 2278 3584 
Q 2916 3584 3314 3078 
Q 3713 2572 3713 1747 
Q 3713 922 3314 415 
Q 2916 -91 2278 -91 
Q 1894 -91 1617 61 
Q 1341 213 1159 525 
L 1159 0 
L 581 0 
L 581 4863 
L 1159 4863 
L 1159 2969 
z
" transform="scale(0.015625)"/>
       <path id="DejaVuSans-148" d="M 3513 2113 
L 3513 0 
L 2938 0 
L 2938 2094 
Q 2938 2591 2744 2837 
Q 2550 3084 2163 3084 
Q 1697 3084 1428 2787 
Q 1159 2491 1159 1978 
L 1159 0 
L 581 0 
L 581 3500 
L 1159 3500 
L 1159 2956 
Q 1366 3272 1645 3428 
Q 1925 3584 2291 3584 
Q 2894 3584 3203 3211 
Q 3513 2838 3513 2113 
z
M 1809 3944 
L 1044 5119 
L 1478 5119 
L 2041 4353 
L 2603 5119 
L 3038 5119 
L 2272 3944 
L 1809 3944 
z
" transform="scale(0.015625)"/>
       <path id="DejaVuSans-79" d="M 2059 -325 
Q 1816 -950 1584 -1140 
Q 1353 -1331 966 -1331 
L 506 -1331 
L 506 -850 
L 844 -850 
Q 1081 -850 1212 -737 
Q 1344 -625 1503 -206 
L 1606 56 
L 191 3500 
L 800 3500 
L 1894 763 
L 2988 3500 
L 3597 3500 
L 2059 -325 
z
" transform="scale(0.015625)"/>
      </defs>
      <use xlink:href="#DejaVuSans-53"/>
      <use xlink:href="#DejaVuSans-74" x="63.476562"/>
      <use xlink:href="#DejaVuSans-159" x="102.685547"/>
      <use xlink:href="#DejaVuSans-65" x="141.548828"/>
      <use xlink:href="#DejaVuSans-64" x="203.072266"/>
      <use xlink:href="#DejaVuSans-6e" x="266.548828"/>
      <use xlink:href="#DejaVuSans-ed" x="329.927734"/>
      <use xlink:href="#DejaVuSans-20" x="357.710938"/>
      <use xlink:href="#DejaVuSans-68" x="389.498047"/>
      <use xlink:href="#DejaVuSans-6f" x="452.876953"/>
      <use xlink:href="#DejaVuSans-64" x="514.058594"/>
      <use xlink:href="#DejaVuSans-6e" x="577.535156"/>
      <use xlink:href="#DejaVuSans-6f" x="640.914062"/>
      <use xlink:href="#DejaVuSans-74" x="702.095703"/>
      <use xlink:href="#DejaVuSans-61" x="741.304688"/>
      <use xlink:href="#DejaVuSans-20" x="802.583984"/>
      <use xlink:href="#DejaVuSans-73" x="834.371094"/>
      <use xlink:href="#DejaVuSans-6d" x="886.470703"/>
      <use xlink:href="#DejaVuSans-ed" x="983.882812"/>
      <use xlink:href="#DejaVuSans-161" x="1011.666016"/>
      <use xlink:href="#DejaVuSans-65" x="1063.765625"/>
      <use xlink:href="#DejaVuSans-6e" x="1125.289062"/>
      <use xlink:href="#DejaVuSans-e9" x="1188.667969"/>
      <use xlink:href="#DejaVuSans-20" x="1250.191406"/>
      <use xlink:href="#DejaVuSans-62" x="1281.978516"/>
      <use xlink:href="#DejaVuSans-75" x="1345.455078"/>
      <use xlink:href="#DejaVuSans-148" x="1408.833984"/>
      <use xlink:href="#DejaVuSans-6b" x="1472.212891"/>
      <use xlink:href="#DejaVuSans-79" x="1526.498047"/>
     </g>
    </g>
    <g id="PathCollection_164">
     <g>
      <use xlink:href="#m727683e232" x="211.285625" y="167.523312" style="fill: #0000ff; stroke: #0000ff"/>
     </g>
    </g>
    <g id="text_20">
     <!-- Střední hodnota prvního materiálu -->
     <g transform="translate(229.285625 170.148312)scale(0.1 -0.1)">
      <defs>
       <path id="DejaVuSans-70" d="M 1159 525 
L 1159 -1331 
L 581 -1331 
L 581 3500 
L 1159 3500 
L 1159 2969 
Q 1341 3281 1617 3432 
Q 1894 3584 2278 3584 
Q 2916 3584 3314 3078 
Q 3713 2572 3713 1747 
Q 3713 922 3314 415 
Q 2916 -91 2278 -91 
Q 1894 -91 1617 61 
Q 1341 213 1159 525 
z
M 3116 1747 
Q 3116 2381 2855 2742 
Q 2594 3103 2138 3103 
Q 1681 3103 1420 2742 
Q 1159 2381 1159 1747 
Q 1159 1113 1420 752 
Q 1681 391 2138 391 
Q 2594 391 2855 752 
Q 3116 1113 3116 1747 
z
" transform="scale(0.015625)"/>
       <path id="DejaVuSans-72" d="M 2631 2963 
Q 2534 3019 2420 3045 
Q 2306 3072 2169 3072 
Q 1681 3072 1420 2755 
Q 1159 2438 1159 1844 
L 1159 0 
L 581 0 
L 581 3500 
L 1159 3500 
L 1159 2956 
Q 1341 3275 1631 3429 
Q 1922 3584 2338 3584 
Q 2397 3584 2469 3576 
Q 2541 3569 2628 3553 
L 2631 2963 
z
" transform="scale(0.015625)"/>
       <path id="DejaVuSans-69" d="M 603 3500 
L 1178 3500 
L 1178 0 
L 603 0 
L 603 3500 
z
M 603 4863 
L 1178 4863 
L 1178 4134 
L 603 4134 
L 603 4863 
z
" transform="scale(0.015625)"/>
       <path id="DejaVuSans-e1" d="M 2194 1759 
Q 1497 1759 1228 1600 
Q 959 1441 959 1056 
Q 959 750 1161 570 
Q 1363 391 1709 391 
Q 2188 391 2477 730 
Q 2766 1069 2766 1631 
L 2766 1759 
L 2194 1759 
z
M 3341 1997 
L 3341 0 
L 2766 0 
L 2766 531 
Q 2569 213 2275 61 
Q 1981 -91 1556 -91 
Q 1019 -91 701 211 
Q 384 513 384 1019 
Q 384 1609 779 1909 
Q 1175 2209 1959 2209 
L 2766 2209 
L 2766 2266 
Q 2766 2663 2505 2880 
Q 2244 3097 1772 3097 
Q 1472 3097 1187 3025 
Q 903 2953 641 2809 
L 641 3341 
Q 956 3463 1253 3523 
Q 1550 3584 1831 3584 
Q 2591 3584 2966 3190 
Q 3341 2797 3341 1997 
z
M 2291 5119 
L 2913 5119 
L 1894 3944 
L 1416 3944 
L 2291 5119 
z
" transform="scale(0.015625)"/>
       <path id="DejaVuSans-6c" d="M 603 4863 
L 1178 4863 
L 1178 0 
L 603 0 
L 603 4863 
z
" transform="scale(0.015625)"/>
      </defs>
      <use xlink:href="#DejaVuSans-53"/>
      <use xlink:href="#DejaVuSans-74" x="63.476562"/>
      <use xlink:href="#DejaVuSans-159" x="102.685547"/>
      <use xlink:href="#DejaVuSans-65" x="141.548828"/>
      <use xlink:href="#DejaVuSans-64" x="203.072266"/>
      <use xlink:href="#DejaVuSans-6e" x="266.548828"/>
      <use xlink:href="#DejaVuSans-ed" x="329.927734"/>
      <use xlink:href="#DejaVuSans-20" x="357.710938"/>
      <use xlink:href="#DejaVuSans-68" x="389.498047"/>
      <use xlink:href="#DejaVuSans-6f" x="452.876953"/>
      <use xlink:href="#DejaVuSans-64" x="514.058594"/>
      <use xlink:href="#DejaVuSans-6e" x="577.535156"/>
      <use xlink:href="#DejaVuSans-6f" x="640.914062"/>
      <use xlink:href="#DejaVuSans-74" x="702.095703"/>
      <use xlink:href="#DejaVuSans-61" x="741.304688"/>
      <use xlink:href="#DejaVuSans-20" x="802.583984"/>
      <use xlink:href="#DejaVuSans-70" x="834.371094"/>
      <use xlink:href="#DejaVuSans-72" x="897.847656"/>
      <use xlink:href="#DejaVuSans-76" x="938.960938"/>
      <use xlink:href="#DejaVuSans-6e" x="998.140625"/>
      <use xlink:href="#DejaVuSans-ed" x="1061.519531"/>
      <use xlink:href="#DejaVuSans-68" x="1089.302734"/>
      <use xlink:href="#DejaVuSans-6f" x="1152.681641"/>
      <use xlink:href="#DejaVuSans-20" x="1213.863281"/>
      <use xlink:href="#DejaVuSans-6d" x="1245.650391"/>
      <use xlink:href="#DejaVuSans-61" x="1343.0625"/>
      <use xlink:href="#DejaVuSans-74" x="1404.341797"/>
      <use xlink:href="#DejaVuSans-65" x="1443.550781"/>
      <use xlink:href="#DejaVuSans-72" x="1505.074219"/>
      <use xlink:href="#DejaVuSans-69" x="1546.1875"/>
      <use xlink:href="#DejaVuSans-e1" x="1573.970703"/>
      <use xlink:href="#DejaVuSans-6c" x="1635.25"/>
      <use xlink:href="#DejaVuSans-75" x="1663.033203"/>
     </g>
    </g>
    <g id="PathCollection_165">
     <g>
      <use xlink:href="#m90b67e5c56" x="211.285625" y="182.201437" style="fill: #008000; stroke: #008000"/>
     </g>
    </g>
    <g id="text_21">
     <!-- Střední hodnota druhého materiálu -->
     <g transform="translate(229.285625 184.826437)scale(0.1 -0.1)">
      <use xlink:href="#DejaVuSans-53"/>
      <use xlink:href="#DejaVuSans-74" x="63.476562"/>
      <use xlink:href="#DejaVuSans-159" x="102.685547"/>
      <use xlink:href="#DejaVuSans-65" x="141.548828"/>
      <use xlink:href="#DejaVuSans-64" x="203.072266"/>
      <use xlink:href="#DejaVuSans-6e" x="266.548828"/>
      <use xlink:href="#DejaVuSans-ed" x="329.927734"/>
      <use xlink:href="#DejaVuSans-20" x="357.710938"/>
      <use xlink:href="#DejaVuSans-68" x="389.498047"/>
      <use xlink:href="#DejaVuSans-6f" x="452.876953"/>
      <use xlink:href="#DejaVuSans-64" x="514.058594"/>
      <use xlink:href="#DejaVuSans-6e" x="577.535156"/>
      <use xlink:href="#DejaVuSans-6f" x="640.914062"/>
      <use xlink:href="#DejaVuSans-74" x="702.095703"/>
      <use xlink:href="#DejaVuSans-61" x="741.304688"/>
      <use xlink:href="#DejaVuSans-20" x="802.583984"/>
      <use xlink:href="#DejaVuSans-64" x="834.371094"/>
      <use xlink:href="#DejaVuSans-72" x="897.847656"/>
      <use xlink:href="#DejaVuSans-75" x="938.960938"/>
      <use xlink:href="#DejaVuSans-68" x="1002.339844"/>
      <use xlink:href="#DejaVuSans-e9" x="1065.71875"/>
      <use xlink:href="#DejaVuSans-68" x="1127.242188"/>
      <use xlink:href="#DejaVuSans-6f" x="1190.621094"/>
      <use xlink:href="#DejaVuSans-20" x="1251.802734"/>
      <use xlink:href="#DejaVuSans-6d" x="1283.589844"/>
      <use xlink:href="#DejaVuSans-61" x="1381.001953"/>
      <use xlink:href="#DejaVuSans-74" x="1442.28125"/>
      <use xlink:href="#DejaVuSans-65" x="1481.490234"/>
      <use xlink:href="#DejaVuSans-72" x="1543.013672"/>
      <use xlink:href="#DejaVuSans-69" x="1584.126953"/>
      <use xlink:href="#DejaVuSans-e1" x="1611.910156"/>
      <use xlink:href="#DejaVuSans-6c" x="1673.189453"/>
      <use xlink:href="#DejaVuSans-75" x="1700.972656"/>
     </g>
    </g>
    <g id="line2d_100">
     <path d="M 201.285625 196.404562 
L 211.285625 196.404562 
L 221.285625 196.404562 
" style="fill: none; stroke: #0000ff; stroke-width: 1.5; stroke-linecap: square"/>
    </g>
    <g id="text_22">
     <!-- Rekonstrukce prvního materiálu -->
     <g transform="translate(229.285625 199.904562)scale(0.1 -0.1)">
      <defs>
       <path id="DejaVuSans-52" d="M 2841 2188 
Q 3044 2119 3236 1894 
Q 3428 1669 3622 1275 
L 4263 0 
L 3584 0 
L 2988 1197 
Q 2756 1666 2539 1819 
Q 2322 1972 1947 1972 
L 1259 1972 
L 1259 0 
L 628 0 
L 628 4666 
L 2053 4666 
Q 2853 4666 3247 4331 
Q 3641 3997 3641 3322 
Q 3641 2881 3436 2590 
Q 3231 2300 2841 2188 
z
M 1259 4147 
L 1259 2491 
L 2053 2491 
Q 2509 2491 2742 2702 
Q 2975 2913 2975 3322 
Q 2975 3731 2742 3939 
Q 2509 4147 2053 4147 
L 1259 4147 
z
" transform="scale(0.015625)"/>
      </defs>
      <use xlink:href="#DejaVuSans-52"/>
      <use xlink:href="#DejaVuSans-65" x="64.982422"/>
      <use xlink:href="#DejaVuSans-6b" x="126.505859"/>
      <use xlink:href="#DejaVuSans-6f" x="180.791016"/>
      <use xlink:href="#DejaVuSans-6e" x="241.972656"/>
      <use xlink:href="#DejaVuSans-73" x="305.351562"/>
      <use xlink:href="#DejaVuSans-74" x="357.451172"/>
      <use xlink:href="#DejaVuSans-72" x="396.660156"/>
      <use xlink:href="#DejaVuSans-75" x="437.773438"/>
      <use xlink:href="#DejaVuSans-6b" x="501.152344"/>
      <use xlink:href="#DejaVuSans-63" x="559.0625"/>
      <use xlink:href="#DejaVuSans-65" x="614.042969"/>
      <use xlink:href="#DejaVuSans-20" x="675.566406"/>
      <use xlink:href="#DejaVuSans-70" x="707.353516"/>
      <use xlink:href="#DejaVuSans-72" x="770.830078"/>
      <use xlink:href="#DejaVuSans-76" x="811.943359"/>
      <use xlink:href="#DejaVuSans-6e" x="871.123047"/>
      <use xlink:href="#DejaVuSans-ed" x="934.501953"/>
      <use xlink:href="#DejaVuSans-68" x="962.285156"/>
      <use xlink:href="#DejaVuSans-6f" x="1025.664062"/>
      <use xlink:href="#DejaVuSans-20" x="1086.845703"/>
      <use xlink:href="#DejaVuSans-6d" x="1118.632812"/>
      <use xlink:href="#DejaVuSans-61" x="1216.044922"/>
      <use xlink:href="#DejaVuSans-74" x="1277.324219"/>
      <use xlink:href="#DejaVuSans-65" x="1316.533203"/>
      <use xlink:href="#DejaVuSans-72" x="1378.056641"/>
      <use xlink:href="#DejaVuSans-69" x="1419.169922"/>
      <use xlink:href="#DejaVuSans-e1" x="1446.953125"/>
      <use xlink:href="#DejaVuSans-6c" x="1508.232422"/>
      <use xlink:href="#DejaVuSans-75" x="1536.015625"/>
     </g>
    </g>
    <g id="line2d_101">
     <path d="M 201.285625 211.082687 
L 211.285625 211.082687 
L 221.285625 211.082687 
" style="fill: none; stroke: #008000; stroke-width: 1.5; stroke-linecap: square"/>
    </g>
    <g id="text_23">
     <!-- Rekonstrukce druhého materiálu -->
     <g transform="translate(229.285625 214.582687)scale(0.1 -0.1)">
      <use xlink:href="#DejaVuSans-52"/>
      <use xlink:href="#DejaVuSans-65" x="64.982422"/>
      <use xlink:href="#DejaVuSans-6b" x="126.505859"/>
      <use xlink:href="#DejaVuSans-6f" x="180.791016"/>
      <use xlink:href="#DejaVuSans-6e" x="241.972656"/>
      <use xlink:href="#DejaVuSans-73" x="305.351562"/>
      <use xlink:href="#DejaVuSans-74" x="357.451172"/>
      <use xlink:href="#DejaVuSans-72" x="396.660156"/>
      <use xlink:href="#DejaVuSans-75" x="437.773438"/>
      <use xlink:href="#DejaVuSans-6b" x="501.152344"/>
      <use xlink:href="#DejaVuSans-63" x="559.0625"/>
      <use xlink:href="#DejaVuSans-65" x="614.042969"/>
      <use xlink:href="#DejaVuSans-20" x="675.566406"/>
      <use xlink:href="#DejaVuSans-64" x="707.353516"/>
      <use xlink:href="#DejaVuSans-72" x="770.830078"/>
      <use xlink:href="#DejaVuSans-75" x="811.943359"/>
      <use xlink:href="#DejaVuSans-68" x="875.322266"/>
      <use xlink:href="#DejaVuSans-e9" x="938.701172"/>
      <use xlink:href="#DejaVuSans-68" x="1000.224609"/>
      <use xlink:href="#DejaVuSans-6f" x="1063.603516"/>
      <use xlink:href="#DejaVuSans-20" x="1124.785156"/>
      <use xlink:href="#DejaVuSans-6d" x="1156.572266"/>
      <use xlink:href="#DejaVuSans-61" x="1253.984375"/>
      <use xlink:href="#DejaVuSans-74" x="1315.263672"/>
      <use xlink:href="#DejaVuSans-65" x="1354.472656"/>
      <use xlink:href="#DejaVuSans-72" x="1415.996094"/>
      <use xlink:href="#DejaVuSans-69" x="1457.109375"/>
      <use xlink:href="#DejaVuSans-e1" x="1484.892578"/>
      <use xlink:href="#DejaVuSans-6c" x="1546.171875"/>
      <use xlink:href="#DejaVuSans-75" x="1573.955078"/>
     </g>
    </g>
   </g>
  </g>
 </g>
 <defs>
  <clipPath id="paa2235f184">
   <rect x="57.6" y="41.472" width="357.12" height="266.112"/>
  </clipPath>
 </defs>
</svg>
