<?xml version="1.0" encoding="utf-8" standalone="no"?>
<!DOCTYPE svg PUBLIC "-//W3C//DTD SVG 1.1//EN"
  "http://www.w3.org/Graphics/SVG/1.1/DTD/svg11.dtd">
<svg xmlns:xlink="http://www.w3.org/1999/xlink" width="460.8pt" height="345.6pt" viewBox="0 0 460.8 345.6" xmlns="http://www.w3.org/2000/svg" version="1.1">
 <metadata>
  <rdf:RDF xmlns:dc="http://purl.org/dc/elements/1.1/" xmlns:cc="http://creativecommons.org/ns#" xmlns:rdf="http://www.w3.org/1999/02/22-rdf-syntax-ns#">
   <cc:Work>
    <dc:type rdf:resource="http://purl.org/dc/dcmitype/StillImage"/>
    <dc:date>2023-08-02T06:03:54.825526</dc:date>
    <dc:format>image/svg+xml</dc:format>
    <dc:creator>
     <cc:Agent>
      <dc:title>Matplotlib v3.5.2, https://matplotlib.org/</dc:title>
     </cc:Agent>
    </dc:creator>
   </cc:Work>
  </rdf:RDF>
 </metadata>
 <defs>
  <style type="text/css">*{stroke-linejoin: round; stroke-linecap: butt}</style>
 </defs>
 <g id="figure_1">
  <g id="patch_1">
   <path d="M 0 345.6 
L 460.8 345.6 
L 460.8 0 
L 0 0 
z
" style="fill: #ffffff"/>
  </g>
  <g id="axes_1">
   <g id="patch_2">
    <path d="M 57.6 307.584 
L 414.72 307.584 
L 414.72 41.472 
L 57.6 41.472 
z
" style="fill: #ffffff"/>
   </g>
   <g id="PathCollection_1">
    <defs>
     <path id="mc4e8fe291e" d="M 0 3 
C 0.795609 3 1.55874 2.683901 2.12132 2.12132 
C 2.683901 1.55874 3 0.795609 3 0 
C 3 -0.795609 2.683901 -1.55874 2.12132 -2.12132 
C 1.55874 -2.683901 0.795609 -3 0 -3 
C -0.795609 -3 -1.55874 -2.683901 -2.12132 -2.12132 
C -2.683901 -1.55874 -3 -0.795609 -3 0 
C -3 0.795609 -2.683901 1.55874 -2.12132 2.12132 
C -1.55874 2.683901 -0.795609 3 0 3 
z
" style="stroke: #228b22"/>
    </defs>
    <g clip-path="url(#p0ea04c8ee9)">
     <use xlink:href="#mc4e8fe291e" x="75.887503" y="279.31066" style="fill: #228b22; stroke: #228b22"/>
     <use xlink:href="#mc4e8fe291e" x="79.997054" y="279.57122" style="fill: #228b22; stroke: #228b22"/>
     <use xlink:href="#mc4e8fe291e" x="84.106605" y="279.637897" style="fill: #228b22; stroke: #228b22"/>
     <use xlink:href="#mc4e8fe291e" x="88.216157" y="278.427494" style="fill: #228b22; stroke: #228b22"/>
     <use xlink:href="#mc4e8fe291e" x="92.325708" y="277.228994" style="fill: #228b22; stroke: #228b22"/>
     <use xlink:href="#mc4e8fe291e" x="96.435259" y="280.086811" style="fill: #228b22; stroke: #228b22"/>
     <use xlink:href="#mc4e8fe291e" x="100.54481" y="287.083813" style="fill: #228b22; stroke: #228b22"/>
     <use xlink:href="#mc4e8fe291e" x="104.654361" y="288.514791" style="fill: #228b22; stroke: #228b22"/>
     <use xlink:href="#mc4e8fe291e" x="108.763913" y="270.539699" style="fill: #228b22; stroke: #228b22"/>
     <use xlink:href="#mc4e8fe291e" x="112.873464" y="229.70845" style="fill: #228b22; stroke: #228b22"/>
     <use xlink:href="#mc4e8fe291e" x="116.983015" y="181.337285" style="fill: #228b22; stroke: #228b22"/>
     <use xlink:href="#mc4e8fe291e" x="121.092566" y="151.169089" style="fill: #228b22; stroke: #228b22"/>
     <use xlink:href="#mc4e8fe291e" x="125.202117" y="156.440535" style="fill: #228b22; stroke: #228b22"/>
     <use xlink:href="#mc4e8fe291e" x="129.311669" y="193.070289" style="fill: #228b22; stroke: #228b22"/>
     <use xlink:href="#mc4e8fe291e" x="133.42122" y="239.724066" style="fill: #228b22; stroke: #228b22"/>
     <use xlink:href="#mc4e8fe291e" x="137.530771" y="274.196683" style="fill: #228b22; stroke: #228b22"/>
     <use xlink:href="#mc4e8fe291e" x="141.640322" y="287.880437" style="fill: #228b22; stroke: #228b22"/>
     <use xlink:href="#mc4e8fe291e" x="145.749873" y="287.575233" style="fill: #228b22; stroke: #228b22"/>
     <use xlink:href="#mc4e8fe291e" x="149.859425" y="285.473014" style="fill: #228b22; stroke: #228b22"/>
     <use xlink:href="#mc4e8fe291e" x="153.968976" y="287.128005" style="fill: #228b22; stroke: #228b22"/>
     <use xlink:href="#mc4e8fe291e" x="158.078527" y="287.096245" style="fill: #228b22; stroke: #228b22"/>
     <use xlink:href="#mc4e8fe291e" x="162.188078" y="274.43728" style="fill: #228b22; stroke: #228b22"/>
     <use xlink:href="#mc4e8fe291e" x="166.297629" y="242.362118" style="fill: #228b22; stroke: #228b22"/>
     <use xlink:href="#mc4e8fe291e" x="170.407181" y="194.033668" style="fill: #228b22; stroke: #228b22"/>
     <use xlink:href="#mc4e8fe291e" x="174.516732" y="140.740927" style="fill: #228b22; stroke: #228b22"/>
     <use xlink:href="#mc4e8fe291e" x="178.626283" y="95.132428" style="fill: #228b22; stroke: #228b22"/>
     <use xlink:href="#mc4e8fe291e" x="182.735834" y="65.432485" style="fill: #228b22; stroke: #228b22"/>
     <use xlink:href="#mc4e8fe291e" x="186.845386" y="54.39926" style="fill: #228b22; stroke: #228b22"/>
     <use xlink:href="#mc4e8fe291e" x="190.954937" y="61.878341" style="fill: #228b22; stroke: #228b22"/>
     <use xlink:href="#mc4e8fe291e" x="195.064488" y="86.937669" style="fill: #228b22; stroke: #228b22"/>
     <use xlink:href="#mc4e8fe291e" x="199.174039" y="127.133558" style="fill: #228b22; stroke: #228b22"/>
     <use xlink:href="#mc4e8fe291e" x="203.28359" y="176.3833" style="fill: #228b22; stroke: #228b22"/>
     <use xlink:href="#mc4e8fe291e" x="207.393142" y="224.949565" style="fill: #228b22; stroke: #228b22"/>
     <use xlink:href="#mc4e8fe291e" x="211.502693" y="263.051239" style="fill: #228b22; stroke: #228b22"/>
     <use xlink:href="#mc4e8fe291e" x="215.612244" y="285.677604" style="fill: #228b22; stroke: #228b22"/>
     <use xlink:href="#mc4e8fe291e" x="219.721795" y="294.395181" style="fill: #228b22; stroke: #228b22"/>
     <use xlink:href="#mc4e8fe291e" x="223.831346" y="294.283751" style="fill: #228b22; stroke: #228b22"/>
     <use xlink:href="#mc4e8fe291e" x="227.940898" y="288.525519" style="fill: #228b22; stroke: #228b22"/>
     <use xlink:href="#mc4e8fe291e" x="232.050449" y="275.47125" style="fill: #228b22; stroke: #228b22"/>
     <use xlink:href="#mc4e8fe291e" x="236.16" y="250.994276" style="fill: #228b22; stroke: #228b22"/>
     <use xlink:href="#mc4e8fe291e" x="240.269551" y="214.329007" style="fill: #228b22; stroke: #228b22"/>
     <use xlink:href="#mc4e8fe291e" x="244.379102" y="172.390775" style="fill: #228b22; stroke: #228b22"/>
     <use xlink:href="#mc4e8fe291e" x="248.488654" y="138.521695" style="fill: #228b22; stroke: #228b22"/>
     <use xlink:href="#mc4e8fe291e" x="252.598205" y="125.89684" style="fill: #228b22; stroke: #228b22"/>
     <use xlink:href="#mc4e8fe291e" x="256.707756" y="139.977495" style="fill: #228b22; stroke: #228b22"/>
     <use xlink:href="#mc4e8fe291e" x="260.817307" y="175.213478" style="fill: #228b22; stroke: #228b22"/>
     <use xlink:href="#mc4e8fe291e" x="264.926858" y="218.200979" style="fill: #228b22; stroke: #228b22"/>
     <use xlink:href="#mc4e8fe291e" x="269.03641" y="255.066528" style="fill: #228b22; stroke: #228b22"/>
     <use xlink:href="#mc4e8fe291e" x="273.145961" y="278.191771" style="fill: #228b22; stroke: #228b22"/>
     <use xlink:href="#mc4e8fe291e" x="277.255512" y="288.214461" style="fill: #228b22; stroke: #228b22"/>
     <use xlink:href="#mc4e8fe291e" x="281.365063" y="290.686546" style="fill: #228b22; stroke: #228b22"/>
     <use xlink:href="#mc4e8fe291e" x="285.474614" y="290.291496" style="fill: #228b22; stroke: #228b22"/>
     <use xlink:href="#mc4e8fe291e" x="289.584166" y="286.781844" style="fill: #228b22; stroke: #228b22"/>
     <use xlink:href="#mc4e8fe291e" x="293.693717" y="275.213317" style="fill: #228b22; stroke: #228b22"/>
     <use xlink:href="#mc4e8fe291e" x="297.803268" y="249.984083" style="fill: #228b22; stroke: #228b22"/>
     <use xlink:href="#mc4e8fe291e" x="301.912819" y="209.791033" style="fill: #228b22; stroke: #228b22"/>
     <use xlink:href="#mc4e8fe291e" x="306.022371" y="160.305995" style="fill: #228b22; stroke: #228b22"/>
     <use xlink:href="#mc4e8fe291e" x="310.131922" y="113.018626" style="fill: #228b22; stroke: #228b22"/>
     <use xlink:href="#mc4e8fe291e" x="314.241473" y="80.973179" style="fill: #228b22; stroke: #228b22"/>
     <use xlink:href="#mc4e8fe291e" x="318.351024" y="73.634037" style="fill: #228b22; stroke: #228b22"/>
     <use xlink:href="#mc4e8fe291e" x="322.460575" y="93.242745" style="fill: #228b22; stroke: #228b22"/>
     <use xlink:href="#mc4e8fe291e" x="326.570127" y="134.083975" style="fill: #228b22; stroke: #228b22"/>
     <use xlink:href="#mc4e8fe291e" x="330.679678" y="184.759578" style="fill: #228b22; stroke: #228b22"/>
     <use xlink:href="#mc4e8fe291e" x="334.789229" y="232.431445" style="fill: #228b22; stroke: #228b22"/>
     <use xlink:href="#mc4e8fe291e" x="338.89878" y="267.30789" style="fill: #228b22; stroke: #228b22"/>
     <use xlink:href="#mc4e8fe291e" x="343.008331" y="285.574305" style="fill: #228b22; stroke: #228b22"/>
     <use xlink:href="#mc4e8fe291e" x="347.117883" y="289.621458" style="fill: #228b22; stroke: #228b22"/>
     <use xlink:href="#mc4e8fe291e" x="351.227434" y="285.675254" style="fill: #228b22; stroke: #228b22"/>
     <use xlink:href="#mc4e8fe291e" x="355.336985" y="280.222369" style="fill: #228b22; stroke: #228b22"/>
     <use xlink:href="#mc4e8fe291e" x="359.446536" y="277.176292" style="fill: #228b22; stroke: #228b22"/>
     <use xlink:href="#mc4e8fe291e" x="363.556087" y="277.11256" style="fill: #228b22; stroke: #228b22"/>
     <use xlink:href="#mc4e8fe291e" x="367.665639" y="278.497098" style="fill: #228b22; stroke: #228b22"/>
     <use xlink:href="#mc4e8fe291e" x="371.77519" y="279.629546" style="fill: #228b22; stroke: #228b22"/>
     <use xlink:href="#mc4e8fe291e" x="375.884741" y="279.865994" style="fill: #228b22; stroke: #228b22"/>
     <use xlink:href="#mc4e8fe291e" x="379.994292" y="279.567402" style="fill: #228b22; stroke: #228b22"/>
     <use xlink:href="#mc4e8fe291e" x="384.103843" y="279.310937" style="fill: #228b22; stroke: #228b22"/>
     <use xlink:href="#mc4e8fe291e" x="388.213395" y="279.295289" style="fill: #228b22; stroke: #228b22"/>
     <use xlink:href="#mc4e8fe291e" x="392.322946" y="279.372263" style="fill: #228b22; stroke: #228b22"/>
     <use xlink:href="#mc4e8fe291e" x="396.432497" y="279.393205" style="fill: #228b22; stroke: #228b22"/>
    </g>
   </g>
   <g id="matplotlib.axis_1">
    <g id="xtick_1">
     <g id="line2d_1">
      <defs>
       <path id="m4653651ea2" d="M 0 0 
L 0 3.5 
" style="stroke: #000000; stroke-width: 0.8"/>
      </defs>
      <g>
       <use xlink:href="#m4653651ea2" x="73.832727" y="307.584" style="stroke: #000000; stroke-width: 0.8"/>
      </g>
     </g>
     <g id="text_1">
      <!-- −1.00 -->
      <g transform="translate(58.510071 322.182437)scale(0.1 -0.1)">
       <defs>
        <path id="DejaVuSans-2212" d="M 678 2272 
L 4684 2272 
L 4684 1741 
L 678 1741 
L 678 2272 
z
" transform="scale(0.015625)"/>
        <path id="DejaVuSans-31" d="M 794 531 
L 1825 531 
L 1825 4091 
L 703 3866 
L 703 4441 
L 1819 4666 
L 2450 4666 
L 2450 531 
L 3481 531 
L 3481 0 
L 794 0 
L 794 531 
z
" transform="scale(0.015625)"/>
        <path id="DejaVuSans-2e" d="M 684 794 
L 1344 794 
L 1344 0 
L 684 0 
L 684 794 
z
" transform="scale(0.015625)"/>
        <path id="DejaVuSans-30" d="M 2034 4250 
Q 1547 4250 1301 3770 
Q 1056 3291 1056 2328 
Q 1056 1369 1301 889 
Q 1547 409 2034 409 
Q 2525 409 2770 889 
Q 3016 1369 3016 2328 
Q 3016 3291 2770 3770 
Q 2525 4250 2034 4250 
z
M 2034 4750 
Q 2819 4750 3233 4129 
Q 3647 3509 3647 2328 
Q 3647 1150 3233 529 
Q 2819 -91 2034 -91 
Q 1250 -91 836 529 
Q 422 1150 422 2328 
Q 422 3509 836 4129 
Q 1250 4750 2034 4750 
z
" transform="scale(0.015625)"/>
       </defs>
       <use xlink:href="#DejaVuSans-2212"/>
       <use xlink:href="#DejaVuSans-31" x="83.789062"/>
       <use xlink:href="#DejaVuSans-2e" x="147.412109"/>
       <use xlink:href="#DejaVuSans-30" x="179.199219"/>
       <use xlink:href="#DejaVuSans-30" x="242.822266"/>
      </g>
     </g>
    </g>
    <g id="xtick_2">
     <g id="line2d_2">
      <g>
       <use xlink:href="#m4653651ea2" x="114.414545" y="307.584" style="stroke: #000000; stroke-width: 0.8"/>
      </g>
     </g>
     <g id="text_2">
      <!-- −0.75 -->
      <g transform="translate(99.091889 322.182437)scale(0.1 -0.1)">
       <defs>
        <path id="DejaVuSans-37" d="M 525 4666 
L 3525 4666 
L 3525 4397 
L 1831 0 
L 1172 0 
L 2766 4134 
L 525 4134 
L 525 4666 
z
" transform="scale(0.015625)"/>
        <path id="DejaVuSans-35" d="M 691 4666 
L 3169 4666 
L 3169 4134 
L 1269 4134 
L 1269 2991 
Q 1406 3038 1543 3061 
Q 1681 3084 1819 3084 
Q 2600 3084 3056 2656 
Q 3513 2228 3513 1497 
Q 3513 744 3044 326 
Q 2575 -91 1722 -91 
Q 1428 -91 1123 -41 
Q 819 9 494 109 
L 494 744 
Q 775 591 1075 516 
Q 1375 441 1709 441 
Q 2250 441 2565 725 
Q 2881 1009 2881 1497 
Q 2881 1984 2565 2268 
Q 2250 2553 1709 2553 
Q 1456 2553 1204 2497 
Q 953 2441 691 2322 
L 691 4666 
z
" transform="scale(0.015625)"/>
       </defs>
       <use xlink:href="#DejaVuSans-2212"/>
       <use xlink:href="#DejaVuSans-30" x="83.789062"/>
       <use xlink:href="#DejaVuSans-2e" x="147.412109"/>
       <use xlink:href="#DejaVuSans-37" x="179.199219"/>
       <use xlink:href="#DejaVuSans-35" x="242.822266"/>
      </g>
     </g>
    </g>
    <g id="xtick_3">
     <g id="line2d_3">
      <g>
       <use xlink:href="#m4653651ea2" x="154.996364" y="307.584" style="stroke: #000000; stroke-width: 0.8"/>
      </g>
     </g>
     <g id="text_3">
      <!-- −0.50 -->
      <g transform="translate(139.673707 322.182437)scale(0.1 -0.1)">
       <use xlink:href="#DejaVuSans-2212"/>
       <use xlink:href="#DejaVuSans-30" x="83.789062"/>
       <use xlink:href="#DejaVuSans-2e" x="147.412109"/>
       <use xlink:href="#DejaVuSans-35" x="179.199219"/>
       <use xlink:href="#DejaVuSans-30" x="242.822266"/>
      </g>
     </g>
    </g>
    <g id="xtick_4">
     <g id="line2d_4">
      <g>
       <use xlink:href="#m4653651ea2" x="195.578182" y="307.584" style="stroke: #000000; stroke-width: 0.8"/>
      </g>
     </g>
     <g id="text_4">
      <!-- −0.25 -->
      <g transform="translate(180.255526 322.182437)scale(0.1 -0.1)">
       <defs>
        <path id="DejaVuSans-32" d="M 1228 531 
L 3431 531 
L 3431 0 
L 469 0 
L 469 531 
Q 828 903 1448 1529 
Q 2069 2156 2228 2338 
Q 2531 2678 2651 2914 
Q 2772 3150 2772 3378 
Q 2772 3750 2511 3984 
Q 2250 4219 1831 4219 
Q 1534 4219 1204 4116 
Q 875 4013 500 3803 
L 500 4441 
Q 881 4594 1212 4672 
Q 1544 4750 1819 4750 
Q 2544 4750 2975 4387 
Q 3406 4025 3406 3419 
Q 3406 3131 3298 2873 
Q 3191 2616 2906 2266 
Q 2828 2175 2409 1742 
Q 1991 1309 1228 531 
z
" transform="scale(0.015625)"/>
       </defs>
       <use xlink:href="#DejaVuSans-2212"/>
       <use xlink:href="#DejaVuSans-30" x="83.789062"/>
       <use xlink:href="#DejaVuSans-2e" x="147.412109"/>
       <use xlink:href="#DejaVuSans-32" x="179.199219"/>
       <use xlink:href="#DejaVuSans-35" x="242.822266"/>
      </g>
     </g>
    </g>
    <g id="xtick_5">
     <g id="line2d_5">
      <g>
       <use xlink:href="#m4653651ea2" x="236.16" y="307.584" style="stroke: #000000; stroke-width: 0.8"/>
      </g>
     </g>
     <g id="text_5">
      <!-- 0.00 -->
      <g transform="translate(225.027187 322.182437)scale(0.1 -0.1)">
       <use xlink:href="#DejaVuSans-30"/>
       <use xlink:href="#DejaVuSans-2e" x="63.623047"/>
       <use xlink:href="#DejaVuSans-30" x="95.410156"/>
       <use xlink:href="#DejaVuSans-30" x="159.033203"/>
      </g>
     </g>
    </g>
    <g id="xtick_6">
     <g id="line2d_6">
      <g>
       <use xlink:href="#m4653651ea2" x="276.741818" y="307.584" style="stroke: #000000; stroke-width: 0.8"/>
      </g>
     </g>
     <g id="text_6">
      <!-- 0.25 -->
      <g transform="translate(265.609006 322.182437)scale(0.1 -0.1)">
       <use xlink:href="#DejaVuSans-30"/>
       <use xlink:href="#DejaVuSans-2e" x="63.623047"/>
       <use xlink:href="#DejaVuSans-32" x="95.410156"/>
       <use xlink:href="#DejaVuSans-35" x="159.033203"/>
      </g>
     </g>
    </g>
    <g id="xtick_7">
     <g id="line2d_7">
      <g>
       <use xlink:href="#m4653651ea2" x="317.323636" y="307.584" style="stroke: #000000; stroke-width: 0.8"/>
      </g>
     </g>
     <g id="text_7">
      <!-- 0.50 -->
      <g transform="translate(306.190824 322.182437)scale(0.1 -0.1)">
       <use xlink:href="#DejaVuSans-30"/>
       <use xlink:href="#DejaVuSans-2e" x="63.623047"/>
       <use xlink:href="#DejaVuSans-35" x="95.410156"/>
       <use xlink:href="#DejaVuSans-30" x="159.033203"/>
      </g>
     </g>
    </g>
    <g id="xtick_8">
     <g id="line2d_8">
      <g>
       <use xlink:href="#m4653651ea2" x="357.905455" y="307.584" style="stroke: #000000; stroke-width: 0.8"/>
      </g>
     </g>
     <g id="text_8">
      <!-- 0.75 -->
      <g transform="translate(346.772642 322.182437)scale(0.1 -0.1)">
       <use xlink:href="#DejaVuSans-30"/>
       <use xlink:href="#DejaVuSans-2e" x="63.623047"/>
       <use xlink:href="#DejaVuSans-37" x="95.410156"/>
       <use xlink:href="#DejaVuSans-35" x="159.033203"/>
      </g>
     </g>
    </g>
    <g id="xtick_9">
     <g id="line2d_9">
      <g>
       <use xlink:href="#m4653651ea2" x="398.487273" y="307.584" style="stroke: #000000; stroke-width: 0.8"/>
      </g>
     </g>
     <g id="text_9">
      <!-- 1.00 -->
      <g transform="translate(387.35446 322.182437)scale(0.1 -0.1)">
       <use xlink:href="#DejaVuSans-31"/>
       <use xlink:href="#DejaVuSans-2e" x="63.623047"/>
       <use xlink:href="#DejaVuSans-30" x="95.410156"/>
       <use xlink:href="#DejaVuSans-30" x="159.033203"/>
      </g>
     </g>
    </g>
    <g id="text_10">
     <!-- x -->
     <g transform="translate(233.200625 335.860562)scale(0.1 -0.1)">
      <defs>
       <path id="DejaVuSans-78" d="M 3513 3500 
L 2247 1797 
L 3578 0 
L 2900 0 
L 1881 1375 
L 863 0 
L 184 0 
L 1544 1831 
L 300 3500 
L 978 3500 
L 1906 2253 
L 2834 3500 
L 3513 3500 
z
" transform="scale(0.015625)"/>
      </defs>
      <use xlink:href="#DejaVuSans-78"/>
     </g>
    </g>
   </g>
   <g id="matplotlib.axis_2">
    <g id="ytick_1">
     <g id="line2d_10">
      <defs>
       <path id="md60a6d0ea1" d="M 0 0 
L -3.5 0 
" style="stroke: #000000; stroke-width: 0.8"/>
      </defs>
      <g>
       <use xlink:href="#md60a6d0ea1" x="57.6" y="279.376421" style="stroke: #000000; stroke-width: 0.8"/>
      </g>
     </g>
     <g id="text_11">
      <!-- 2.0 -->
      <g transform="translate(34.696875 283.175639)scale(0.1 -0.1)">
       <use xlink:href="#DejaVuSans-32"/>
       <use xlink:href="#DejaVuSans-2e" x="63.623047"/>
       <use xlink:href="#DejaVuSans-30" x="95.410156"/>
      </g>
     </g>
    </g>
    <g id="ytick_2">
     <g id="line2d_11">
      <g>
       <use xlink:href="#md60a6d0ea1" x="57.6" y="239.358804" style="stroke: #000000; stroke-width: 0.8"/>
      </g>
     </g>
     <g id="text_12">
      <!-- 2.2 -->
      <g transform="translate(34.696875 243.158023)scale(0.1 -0.1)">
       <use xlink:href="#DejaVuSans-32"/>
       <use xlink:href="#DejaVuSans-2e" x="63.623047"/>
       <use xlink:href="#DejaVuSans-32" x="95.410156"/>
      </g>
     </g>
    </g>
    <g id="ytick_3">
     <g id="line2d_12">
      <g>
       <use xlink:href="#md60a6d0ea1" x="57.6" y="199.341187" style="stroke: #000000; stroke-width: 0.8"/>
      </g>
     </g>
     <g id="text_13">
      <!-- 2.4 -->
      <g transform="translate(34.696875 203.140406)scale(0.1 -0.1)">
       <defs>
        <path id="DejaVuSans-34" d="M 2419 4116 
L 825 1625 
L 2419 1625 
L 2419 4116 
z
M 2253 4666 
L 3047 4666 
L 3047 1625 
L 3713 1625 
L 3713 1100 
L 3047 1100 
L 3047 0 
L 2419 0 
L 2419 1100 
L 313 1100 
L 313 1709 
L 2253 4666 
z
" transform="scale(0.015625)"/>
       </defs>
       <use xlink:href="#DejaVuSans-32"/>
       <use xlink:href="#DejaVuSans-2e" x="63.623047"/>
       <use xlink:href="#DejaVuSans-34" x="95.410156"/>
      </g>
     </g>
    </g>
    <g id="ytick_4">
     <g id="line2d_13">
      <g>
       <use xlink:href="#md60a6d0ea1" x="57.6" y="159.323571" style="stroke: #000000; stroke-width: 0.8"/>
      </g>
     </g>
     <g id="text_14">
      <!-- 2.6 -->
      <g transform="translate(34.696875 163.122789)scale(0.1 -0.1)">
       <defs>
        <path id="DejaVuSans-36" d="M 2113 2584 
Q 1688 2584 1439 2293 
Q 1191 2003 1191 1497 
Q 1191 994 1439 701 
Q 1688 409 2113 409 
Q 2538 409 2786 701 
Q 3034 994 3034 1497 
Q 3034 2003 2786 2293 
Q 2538 2584 2113 2584 
z
M 3366 4563 
L 3366 3988 
Q 3128 4100 2886 4159 
Q 2644 4219 2406 4219 
Q 1781 4219 1451 3797 
Q 1122 3375 1075 2522 
Q 1259 2794 1537 2939 
Q 1816 3084 2150 3084 
Q 2853 3084 3261 2657 
Q 3669 2231 3669 1497 
Q 3669 778 3244 343 
Q 2819 -91 2113 -91 
Q 1303 -91 875 529 
Q 447 1150 447 2328 
Q 447 3434 972 4092 
Q 1497 4750 2381 4750 
Q 2619 4750 2861 4703 
Q 3103 4656 3366 4563 
z
" transform="scale(0.015625)"/>
       </defs>
       <use xlink:href="#DejaVuSans-32"/>
       <use xlink:href="#DejaVuSans-2e" x="63.623047"/>
       <use xlink:href="#DejaVuSans-36" x="95.410156"/>
      </g>
     </g>
    </g>
    <g id="ytick_5">
     <g id="line2d_14">
      <g>
       <use xlink:href="#md60a6d0ea1" x="57.6" y="119.305954" style="stroke: #000000; stroke-width: 0.8"/>
      </g>
     </g>
     <g id="text_15">
      <!-- 2.8 -->
      <g transform="translate(34.696875 123.105173)scale(0.1 -0.1)">
       <defs>
        <path id="DejaVuSans-38" d="M 2034 2216 
Q 1584 2216 1326 1975 
Q 1069 1734 1069 1313 
Q 1069 891 1326 650 
Q 1584 409 2034 409 
Q 2484 409 2743 651 
Q 3003 894 3003 1313 
Q 3003 1734 2745 1975 
Q 2488 2216 2034 2216 
z
M 1403 2484 
Q 997 2584 770 2862 
Q 544 3141 544 3541 
Q 544 4100 942 4425 
Q 1341 4750 2034 4750 
Q 2731 4750 3128 4425 
Q 3525 4100 3525 3541 
Q 3525 3141 3298 2862 
Q 3072 2584 2669 2484 
Q 3125 2378 3379 2068 
Q 3634 1759 3634 1313 
Q 3634 634 3220 271 
Q 2806 -91 2034 -91 
Q 1263 -91 848 271 
Q 434 634 434 1313 
Q 434 1759 690 2068 
Q 947 2378 1403 2484 
z
M 1172 3481 
Q 1172 3119 1398 2916 
Q 1625 2713 2034 2713 
Q 2441 2713 2670 2916 
Q 2900 3119 2900 3481 
Q 2900 3844 2670 4047 
Q 2441 4250 2034 4250 
Q 1625 4250 1398 4047 
Q 1172 3844 1172 3481 
z
" transform="scale(0.015625)"/>
       </defs>
       <use xlink:href="#DejaVuSans-32"/>
       <use xlink:href="#DejaVuSans-2e" x="63.623047"/>
       <use xlink:href="#DejaVuSans-38" x="95.410156"/>
      </g>
     </g>
    </g>
    <g id="ytick_6">
     <g id="line2d_15">
      <g>
       <use xlink:href="#md60a6d0ea1" x="57.6" y="79.288337" style="stroke: #000000; stroke-width: 0.8"/>
      </g>
     </g>
     <g id="text_16">
      <!-- 3.0 -->
      <g transform="translate(34.696875 83.087556)scale(0.1 -0.1)">
       <defs>
        <path id="DejaVuSans-33" d="M 2597 2516 
Q 3050 2419 3304 2112 
Q 3559 1806 3559 1356 
Q 3559 666 3084 287 
Q 2609 -91 1734 -91 
Q 1441 -91 1130 -33 
Q 819 25 488 141 
L 488 750 
Q 750 597 1062 519 
Q 1375 441 1716 441 
Q 2309 441 2620 675 
Q 2931 909 2931 1356 
Q 2931 1769 2642 2001 
Q 2353 2234 1838 2234 
L 1294 2234 
L 1294 2753 
L 1863 2753 
Q 2328 2753 2575 2939 
Q 2822 3125 2822 3475 
Q 2822 3834 2567 4026 
Q 2313 4219 1838 4219 
Q 1578 4219 1281 4162 
Q 984 4106 628 3988 
L 628 4550 
Q 988 4650 1302 4700 
Q 1616 4750 1894 4750 
Q 2613 4750 3031 4423 
Q 3450 4097 3450 3541 
Q 3450 3153 3228 2886 
Q 3006 2619 2597 2516 
z
" transform="scale(0.015625)"/>
       </defs>
       <use xlink:href="#DejaVuSans-33"/>
       <use xlink:href="#DejaVuSans-2e" x="63.623047"/>
       <use xlink:href="#DejaVuSans-30" x="95.410156"/>
      </g>
     </g>
    </g>
    <g id="text_17">
     <!-- $f_i$ -->
     <g transform="translate(28.617188 177.428)rotate(-90)scale(0.1 -0.1)">
      <defs>
       <path id="DejaVuSans-Oblique-66" d="M 3059 4863 
L 2969 4384 
L 2419 4384 
Q 2106 4384 1964 4261 
Q 1822 4138 1753 3809 
L 1691 3500 
L 2638 3500 
L 2553 3053 
L 1606 3053 
L 1013 0 
L 434 0 
L 1031 3053 
L 481 3053 
L 563 3500 
L 1113 3500 
L 1159 3744 
Q 1278 4363 1576 4613 
Q 1875 4863 2516 4863 
L 3059 4863 
z
" transform="scale(0.015625)"/>
       <path id="DejaVuSans-Oblique-69" d="M 1172 4863 
L 1747 4863 
L 1606 4134 
L 1031 4134 
L 1172 4863 
z
M 909 3500 
L 1484 3500 
L 800 0 
L 225 0 
L 909 3500 
z
" transform="scale(0.015625)"/>
      </defs>
      <use xlink:href="#DejaVuSans-Oblique-66" transform="translate(0 0.015625)"/>
      <use xlink:href="#DejaVuSans-Oblique-69" transform="translate(35.205078 -16.390625)scale(0.7)"/>
     </g>
    </g>
   </g>
   <g id="line2d_16">
    <path d="M 73.832727 279.376421 
L 106.33068 279.274264 
L 107.630598 279.048366 
L 108.605536 278.638248 
L 109.255495 278.146919 
L 109.905455 277.377888 
L 110.555414 276.206089 
L 111.205373 274.46837 
L 111.855332 271.961192 
L 112.505291 268.443123 
L 113.15525 263.644238 
L 113.805209 257.28427 
L 114.455168 249.10044 
L 115.430106 232.974645 
L 116.405045 212.056092 
L 117.704963 177.852668 
L 119.97982 114.602666 
L 120.954758 94.314397 
L 121.604717 85.421504 
L 121.929697 82.623255 
L 122.254676 80.99753 
L 122.579656 80.573858 
L 122.904636 81.359959 
L 123.229615 83.341516 
L 123.554595 86.482603 
L 124.204554 95.998731 
L 124.854513 109.244476 
L 125.829451 134.134864 
L 128.754267 214.354892 
L 129.729206 234.804323 
L 130.704144 250.453362 
L 131.679083 261.609973 
L 132.329042 266.923567 
L 132.979001 270.858211 
L 133.62896 273.690001 
L 134.278919 275.671826 
L 134.928878 277.021081 
L 135.578837 277.914993 
L 136.228796 278.491484 
L 137.203735 278.978075 
L 138.828632 279.376421 
L 171.001605 279.376421 
L 171.326585 79.288337 
L 203.499558 79.288337 
L 203.824537 279.376421 
L 235.99751 279.376421 
L 236.32249 277.373537 
L 252.246486 81.090932 
L 252.571466 81.491509 
L 268.495463 277.774114 
L 268.820442 279.376421 
L 300.993415 279.376421 
L 301.318395 245.383126 
L 302.293333 205.631675 
L 302.943292 187.441968 
L 303.918231 167.017774 
L 304.89317 151.013207 
L 306.193088 133.95033 
L 307.493006 120.319425 
L 308.792924 109.281638 
L 310.092842 100.352115 
L 311.39276 93.22508 
L 312.367699 88.938289 
L 313.342637 85.490393 
L 314.317576 82.837049 
L 315.292514 80.946261 
L 315.942473 80.098257 
L 316.592432 79.575113 
L 317.242391 79.374269 
L 317.892351 79.494751 
L 318.54231 79.937143 
L 319.192269 80.703604 
L 319.842228 81.797917 
L 320.817166 84.066662 
L 321.792105 87.112571 
L 322.767043 90.973491 
L 323.741982 95.701053 
L 324.716921 101.364662 
L 326.016839 110.538279 
L 327.316757 121.868746 
L 328.291695 132.081036 
L 329.266634 144.133956 
L 330.241572 158.59186 
L 331.216511 176.51262 
L 331.86647 191.508589 
L 332.516429 211.359393 
L 333.491368 256.640755 
L 333.816347 279.376421 
L 398.487273 279.376421 
L 398.487273 279.376421 
" clip-path="url(#p0ea04c8ee9)" style="fill: none; stroke: #0000ff; stroke-width: 1.5; stroke-linecap: square"/>
   </g>
   <g id="line2d_17">
    <path d="M 73.840844 279.172151 
L 74.212963 279.195798 
L 74.585083 279.220181 
L 74.957203 279.24519 
L 75.329323 279.270708 
L 75.701443 279.296616 
L 76.073563 279.322788 
L 76.445683 279.349095 
L 76.817803 279.375402 
L 77.189922 279.401571 
L 77.562042 279.427456 
L 77.934162 279.452911 
" clip-path="url(#p0ea04c8ee9)" style="fill: none; stroke: #008000; stroke-width: 1.5; stroke-linecap: square"/>
   </g>
   <g id="line2d_18">
    <path d="M 77.950395 279.408772 
L 78.322515 279.437611 
L 78.694635 279.467809 
L 79.066754 279.498884 
L 79.438874 279.530319 
L 79.810994 279.561566 
L 80.183114 279.592041 
L 80.555234 279.621127 
L 80.927354 279.648172 
L 81.299474 279.672491 
L 81.671593 279.693366 
L 82.043713 279.710044 
" clip-path="url(#p0ea04c8ee9)" style="fill: none; stroke: #008000; stroke-width: 1.5; stroke-linecap: square"/>
   </g>
   <g id="line2d_19">
    <path d="M 82.059946 279.806518 
L 82.432066 279.81491 
L 82.804186 279.811683 
L 83.176306 279.796276 
L 83.548426 279.768288 
L 83.920545 279.727476 
L 84.292665 279.673756 
L 84.664785 279.607205 
L 85.036905 279.528058 
L 85.409025 279.436712 
L 85.781145 279.333721 
L 86.153265 279.2198 
" clip-path="url(#p0ea04c8ee9)" style="fill: none; stroke: #008000; stroke-width: 1.5; stroke-linecap: square"/>
   </g>
   <g id="line2d_20">
    <path d="M 86.169497 279.22737 
L 86.541617 279.102566 
L 86.913737 278.968017 
L 87.285857 278.824963 
L 87.657977 278.674827 
L 88.030097 278.519218 
L 88.402216 278.359931 
L 88.774336 278.198946 
L 89.146456 278.038429 
L 89.518576 277.880729 
L 89.890696 277.728382 
L 90.262816 277.584109 
" clip-path="url(#p0ea04c8ee9)" style="fill: none; stroke: #008000; stroke-width: 1.5; stroke-linecap: square"/>
   </g>
   <g id="line2d_21">
    <path d="M 90.279048 277.354148 
L 90.651168 277.228567 
L 91.023288 277.130693 
L 91.395408 277.063121 
L 91.767528 277.028184 
L 92.139648 277.027946 
L 92.511768 277.064206 
L 92.883888 277.138495 
L 93.256007 277.25208 
L 93.628127 277.40596 
L 94.000247 277.600869 
L 94.372367 277.837272 
" clip-path="url(#p0ea04c8ee9)" style="fill: none; stroke: #008000; stroke-width: 1.5; stroke-linecap: square"/>
   </g>
   <g id="line2d_22">
    <path d="M 94.3886 277.654318 
L 94.76072 277.940451 
L 95.132839 278.279911 
L 95.504959 278.671758 
L 95.877079 279.114394 
L 96.249199 279.605563 
L 96.621319 280.142352 
L 96.993439 280.721188 
L 97.365559 281.337841 
L 97.737678 281.987424 
L 98.109798 282.664389 
L 98.481918 283.362533 
" clip-path="url(#p0ea04c8ee9)" style="fill: none; stroke: #008000; stroke-width: 1.5; stroke-linecap: square"/>
   </g>
   <g id="line2d_23">
    <path d="M 98.498151 283.581804 
L 98.870271 284.288693 
L 99.242391 284.990677 
L 99.61451 285.680128 
L 99.98663 286.349138 
L 100.35875 286.989524 
L 100.73087 287.592822 
L 101.10299 288.150293 
L 101.47511 288.652917 
L 101.84723 289.091398 
L 102.21935 289.456162 
L 102.591469 289.737356 
" clip-path="url(#p0ea04c8ee9)" style="fill: none; stroke: #008000; stroke-width: 1.5; stroke-linecap: square"/>
   </g>
   <g id="line2d_24">
    <path d="M 102.607702 290.231717 
L 102.979822 290.399396 
L 103.351942 290.433325 
L 103.724062 290.32429 
L 104.096182 290.063776 
L 104.468301 289.64397 
L 104.840421 289.057753 
L 105.212541 288.298708 
L 105.584661 287.361114 
L 105.956781 286.239949 
L 106.328901 284.930891 
L 106.701021 283.430316 
" clip-path="url(#p0ea04c8ee9)" style="fill: none; stroke: #008000; stroke-width: 1.5; stroke-linecap: square"/>
   </g>
   <g id="line2d_25">
    <path d="M 106.717253 283.639658 
L 107.089373 281.927167 
L 107.461493 280.001094 
L 107.833613 277.860798 
L 108.205733 275.506899 
L 108.577853 272.941278 
L 108.949972 270.16708 
L 109.322092 267.188708 
L 109.694212 264.01183 
L 110.066332 260.643374 
L 110.438452 257.091529 
L 110.810572 253.365748 
" clip-path="url(#p0ea04c8ee9)" style="fill: none; stroke: #008000; stroke-width: 1.5; stroke-linecap: square"/>
   </g>
   <g id="line2d_26">
    <path d="M 110.826805 252.921438 
L 111.198924 249.034471 
L 111.571044 245.013562 
L 111.943164 240.871149 
L 112.315284 236.620371 
L 112.687404 232.275069 
L 113.059524 227.849783 
L 113.431644 223.359756 
L 113.803763 218.82093 
L 114.175883 214.249951 
L 114.548003 209.664162 
L 114.920123 205.08161 
" clip-path="url(#p0ea04c8ee9)" style="fill: none; stroke: #008000; stroke-width: 1.5; stroke-linecap: square"/>
   </g>
   <g id="line2d_27">
    <path d="M 114.936356 204.250984 
L 115.308476 199.712006 
L 115.680595 195.253361 
L 116.052715 190.893294 
L 116.424835 186.649474 
L 116.796955 182.539001 
L 117.169075 178.5784 
L 117.541195 174.783628 
L 117.913315 171.170067 
L 118.285434 167.752528 
L 118.657554 164.545252 
L 119.029674 161.561905 
" clip-path="url(#p0ea04c8ee9)" style="fill: none; stroke: #008000; stroke-width: 1.5; stroke-linecap: square"/>
   </g>
   <g id="line2d_28">
    <path d="M 119.045907 161.010013 
L 119.418027 158.287985 
L 119.790147 155.84178 
L 120.162267 153.682014 
L 120.534386 151.817871 
L 120.906506 150.2571 
L 121.278626 149.006018 
L 121.650746 148.069509 
L 122.022866 147.451023 
L 122.394986 147.152577 
L 122.767106 147.174755 
L 123.139225 147.516708 
" clip-path="url(#p0ea04c8ee9)" style="fill: none; stroke: #008000; stroke-width: 1.5; stroke-linecap: square"/>
   </g>
   <g id="line2d_29">
    <path d="M 123.155458 147.674374 
L 123.527578 148.34326 
L 123.899698 149.317562 
L 124.271818 150.592484 
L 124.643938 152.16207 
L 125.016057 154.019207 
L 125.388177 156.155618 
L 125.760297 158.561869 
L 126.132417 161.227366 
L 126.504537 164.140352 
L 126.876657 167.287915 
L 127.248777 170.65598 
" clip-path="url(#p0ea04c8ee9)" style="fill: none; stroke: #008000; stroke-width: 1.5; stroke-linecap: square"/>
   </g>
   <g id="line2d_30">
    <path d="M 127.265009 171.35375 
L 127.637129 174.918198 
L 128.009249 178.637865 
L 128.381369 182.49682 
L 128.753489 186.479078 
L 129.125609 190.568591 
L 129.497729 194.749257 
L 129.869848 199.004911 
L 130.241968 203.319333 
L 130.614088 207.676242 
L 130.986208 212.059301 
L 131.358328 216.452112 
" clip-path="url(#p0ea04c8ee9)" style="fill: none; stroke: #008000; stroke-width: 1.5; stroke-linecap: square"/>
   </g>
   <g id="line2d_31">
    <path d="M 131.374561 217.125976 
L 131.74668 221.495983 
L 132.1188 225.812982 
L 132.49092 230.061878 
L 132.86304 234.22849 
L 133.23516 238.29955 
L 133.60728 242.262707 
L 133.9794 246.106522 
L 134.351519 249.820471 
L 134.723639 253.394943 
L 135.095759 256.821242 
L 135.467879 260.091587 
" clip-path="url(#p0ea04c8ee9)" style="fill: none; stroke: #008000; stroke-width: 1.5; stroke-linecap: square"/>
   </g>
   <g id="line2d_32">
    <path d="M 135.484112 260.290924 
L 135.856232 263.389271 
L 136.228351 266.314967 
L 136.600471 269.063197 
L 136.972591 271.630182 
L 137.344711 274.013179 
L 137.716831 276.210483 
L 138.088951 278.221421 
L 138.461071 280.046358 
L 138.833191 281.686695 
L 139.20531 283.144869 
L 139.57743 284.424351 
" clip-path="url(#p0ea04c8ee9)" style="fill: none; stroke: #008000; stroke-width: 1.5; stroke-linecap: square"/>
   </g>
   <g id="line2d_33">
    <path d="M 139.593663 284.142316 
L 139.965783 285.250818 
L 140.337903 286.211068 
L 140.710023 287.028666 
L 141.082142 287.709576 
L 141.454262 288.260123 
L 141.826382 288.686994 
L 142.198502 288.997239 
L 142.570622 289.198272 
L 142.942742 289.297868 
L 143.314862 289.304163 
L 143.686981 289.225659 
" clip-path="url(#p0ea04c8ee9)" style="fill: none; stroke: #008000; stroke-width: 1.5; stroke-linecap: square"/>
   </g>
   <g id="line2d_34">
    <path d="M 143.703214 288.819454 
L 144.075334 288.674738 
L 144.447454 288.487891 
L 144.819574 288.267285 
L 145.191694 288.020846 
L 145.563813 287.756056 
L 145.935933 287.479947 
L 146.308053 287.199108 
L 146.680173 286.919681 
L 147.052293 286.64736 
L 147.424413 286.387395 
L 147.796533 286.144588 
" clip-path="url(#p0ea04c8ee9)" style="fill: none; stroke: #008000; stroke-width: 1.5; stroke-linecap: square"/>
   </g>
   <g id="line2d_35">
    <path d="M 147.812765 285.989109 
L 148.184885 285.773499 
L 148.557005 285.592235 
L 148.929125 285.448316 
L 149.301245 285.344002 
L 149.673365 285.280811 
L 150.045485 285.259524 
L 150.417604 285.280183 
L 150.789724 285.342088 
L 151.161844 285.443802 
L 151.533964 285.583147 
L 151.906084 285.757208 
" clip-path="url(#p0ea04c8ee9)" style="fill: none; stroke: #008000; stroke-width: 1.5; stroke-linecap: square"/>
   </g>
   <g id="line2d_36">
    <path d="M 151.922317 285.948924 
L 152.294436 286.149435 
L 152.666556 286.365348 
L 153.038676 286.592058 
L 153.410796 286.824591 
L 153.782916 287.057605 
L 154.155036 287.285386 
L 154.527156 287.501852 
L 154.899275 287.700551 
L 155.271395 287.874663 
L 155.643515 288.016995 
L 156.015635 288.119989 
" clip-path="url(#p0ea04c8ee9)" style="fill: none; stroke: #008000; stroke-width: 1.5; stroke-linecap: square"/>
   </g>
   <g id="line2d_37">
    <path d="M 156.031868 288.445059 
L 156.403988 288.488244 
L 156.776108 288.456107 
L 157.148227 288.34095 
L 157.520347 288.135352 
L 157.892467 287.832175 
L 158.264587 287.424557 
L 158.636707 286.905918 
L 159.008827 286.269954 
L 159.380947 285.510643 
L 159.753066 284.62224 
L 160.125186 283.599279 
" clip-path="url(#p0ea04c8ee9)" style="fill: none; stroke: #008000; stroke-width: 1.5; stroke-linecap: square"/>
   </g>
   <g id="line2d_38">
    <path d="M 160.141419 283.744856 
L 160.513539 282.569756 
L 160.885659 281.238145 
L 161.257779 279.745999 
L 161.629898 278.089966 
L 162.002018 276.267361 
L 162.374138 274.276169 
L 162.746258 272.115045 
L 163.118378 269.783311 
L 163.490498 267.280959 
L 163.862618 264.608651 
L 164.234737 261.767716 
" clip-path="url(#p0ea04c8ee9)" style="fill: none; stroke: #008000; stroke-width: 1.5; stroke-linecap: square"/>
   </g>
   <g id="line2d_39">
    <path d="M 164.25097 261.579118 
L 164.62309 258.56629 
L 164.99521 255.393303 
L 165.36733 252.063336 
L 165.73945 248.580116 
L 166.11157 244.947914 
L 166.483689 241.171549 
L 166.855809 237.256387 
L 167.227929 233.208338 
L 167.600049 229.033859 
L 167.972169 224.739955 
L 168.344289 220.334176 
" clip-path="url(#p0ea04c8ee9)" style="fill: none; stroke: #008000; stroke-width: 1.5; stroke-linecap: square"/>
   </g>
   <g id="line2d_40">
    <path d="M 168.360521 219.914015 
L 168.732641 215.407339 
L 169.104761 210.819512 
L 169.476881 206.159054 
L 169.849001 201.434576 
L 170.221121 196.654782 
L 170.593241 191.828467 
L 170.96536 186.964517 
L 171.33748 182.07191 
L 171.7096 177.159714 
L 172.08172 172.23709 
L 172.45384 167.31329 
" clip-path="url(#p0ea04c8ee9)" style="fill: none; stroke: #008000; stroke-width: 1.5; stroke-linecap: square"/>
   </g>
   <g id="line2d_41">
    <path d="M 172.470073 166.905831 
L 172.842192 161.996937 
L 173.214312 157.117678 
L 173.586432 152.276993 
L 173.958552 147.483522 
L 174.330672 142.745609 
L 174.702792 138.071299 
L 175.074912 133.468342 
L 175.447032 128.944187 
L 175.819151 124.50599 
L 176.191271 120.160605 
L 176.563391 115.914593 
" clip-path="url(#p0ea04c8ee9)" style="fill: none; stroke: #008000; stroke-width: 1.5; stroke-linecap: square"/>
   </g>
   <g id="line2d_42">
    <path d="M 176.579624 115.697001 
L 176.951744 111.562479 
L 177.323864 107.5419 
L 177.695983 103.640812 
L 178.068103 99.864394 
L 178.440223 96.217458 
L 178.812343 92.704448 
L 179.184463 89.329442 
L 179.556583 86.096148 
L 179.928703 83.007909 
L 180.300822 80.067699 
L 180.672942 77.278126 
" clip-path="url(#p0ea04c8ee9)" style="fill: none; stroke: #008000; stroke-width: 1.5; stroke-linecap: square"/>
   </g>
   <g id="line2d_43">
    <path d="M 180.689175 77.245021 
L 181.061295 74.612314 
L 181.433415 72.129298 
L 181.805535 69.797722 
L 182.177654 67.619141 
L 182.549774 65.594913 
L 182.921894 63.7262 
L 183.294014 62.013968 
L 183.666134 60.458989 
L 184.038254 59.061837 
L 184.410374 57.822892 
L 184.782494 56.742337 
" clip-path="url(#p0ea04c8ee9)" style="fill: none; stroke: #008000; stroke-width: 1.5; stroke-linecap: square"/>
   </g>
   <g id="line2d_44">
    <path d="M 184.798726 56.76997 
L 185.170846 55.852421 
L 185.542966 55.088738 
L 185.915086 54.478727 
L 186.287206 54.022141 
L 186.659326 53.718683 
L 187.031445 53.568 
L 187.403565 53.56969 
L 187.775685 53.723296 
L 188.147805 54.028312 
L 188.519925 54.484176 
L 188.892045 55.090277 
" clip-path="url(#p0ea04c8ee9)" style="fill: none; stroke: #008000; stroke-width: 1.5; stroke-linecap: square"/>
   </g>
   <g id="line2d_45">
    <path d="M 188.908277 55.095661 
L 189.280397 55.858625 
L 189.652517 56.771886 
L 190.024637 57.834596 
L 190.396757 59.045809 
L 190.768877 60.404474 
L 191.140997 61.909439 
L 191.513117 63.559452 
L 191.885236 65.353157 
L 192.257356 67.289098 
L 192.629476 69.365718 
L 193.001596 71.581355 
" clip-path="url(#p0ea04c8ee9)" style="fill: none; stroke: #008000; stroke-width: 1.5; stroke-linecap: square"/>
   </g>
   <g id="line2d_46">
    <path d="M 193.017829 71.610232 
L 193.389949 73.971341 
L 193.762068 76.472036 
L 194.134188 79.110129 
L 194.506308 81.883189 
L 194.878428 84.78854 
L 195.250548 87.823261 
L 195.622668 90.984188 
L 195.994788 94.26791 
L 196.366907 97.670774 
L 196.739027 101.188879 
L 197.111147 104.818082 
" clip-path="url(#p0ea04c8ee9)" style="fill: none; stroke: #008000; stroke-width: 1.5; stroke-linecap: square"/>
   </g>
   <g id="line2d_47">
    <path d="M 197.12738 104.978338 
L 197.4995 108.718819 
L 197.87162 112.561201 
L 198.243739 116.500592 
L 198.615859 120.531858 
L 198.987979 124.649618 
L 199.360099 128.848243 
L 199.732219 133.121862 
L 200.104339 137.464356 
L 200.476459 141.86936 
L 200.848579 146.330266 
L 201.220698 150.840216 
" clip-path="url(#p0ea04c8ee9)" style="fill: none; stroke: #008000; stroke-width: 1.5; stroke-linecap: square"/>
   </g>
   <g id="line2d_48">
    <path d="M 201.236931 151.158318 
L 201.609051 155.708025 
L 201.981171 160.28475 
L 202.353291 164.881257 
L 202.725411 169.490309 
L 203.09753 174.104668 
L 203.46965 178.717089 
L 203.84177 183.320328 
L 204.21389 187.907135 
L 204.58601 192.47026 
L 204.95813 197.002447 
L 205.33025 201.49644 
" clip-path="url(#p0ea04c8ee9)" style="fill: none; stroke: #008000; stroke-width: 1.5; stroke-linecap: square"/>
   </g>
   <g id="line2d_49">
    <path d="M 205.346482 201.851966 
L 205.718602 206.293221 
L 206.090722 210.671767 
L 206.462842 214.980832 
L 206.834962 219.213961 
L 207.207082 223.365024 
L 207.579201 227.428207 
L 207.951321 231.398019 
L 208.323441 235.269291 
L 208.695561 239.037173 
L 209.067681 242.697136 
L 209.439801 246.24497 
" clip-path="url(#p0ea04c8ee9)" style="fill: none; stroke: #008000; stroke-width: 1.5; stroke-linecap: square"/>
   </g>
   <g id="line2d_50">
    <path d="M 209.456034 246.457349 
L 209.828153 249.882097 
L 210.200273 253.183485 
L 210.572393 256.358465 
L 210.944513 259.404433 
L 211.316633 262.319225 
L 211.688753 265.10112 
L 212.060873 267.74884 
L 212.432992 270.261549 
L 212.805112 272.638853 
L 213.177232 274.880798 
L 213.549352 276.987877 
" clip-path="url(#p0ea04c8ee9)" style="fill: none; stroke: #008000; stroke-width: 1.5; stroke-linecap: square"/>
   </g>
   <g id="line2d_51">
    <path d="M 213.565585 276.974604 
L 213.937705 278.9452 
L 214.309824 280.789462 
L 214.681944 282.508912 
L 215.054064 284.105308 
L 215.426184 285.580645 
L 215.798304 286.937155 
L 216.170424 288.177305 
L 216.542544 289.303798 
L 216.914663 290.319573 
L 217.286783 291.227807 
L 217.658903 292.031912 
" clip-path="url(#p0ea04c8ee9)" style="fill: none; stroke: #008000; stroke-width: 1.5; stroke-linecap: square"/>
   </g>
   <g id="line2d_52">
    <path d="M 217.675136 291.884316 
L 218.047256 292.589414 
L 218.419376 293.208961 
L 218.791496 293.746535 
L 219.163615 294.205585 
L 219.535735 294.589434 
L 219.907855 294.901276 
L 220.279975 295.144177 
L 220.652095 295.321079 
L 221.024215 295.434791 
L 221.396335 295.488 
L 221.768454 295.483261 
" clip-path="url(#p0ea04c8ee9)" style="fill: none; stroke: #008000; stroke-width: 1.5; stroke-linecap: square"/>
   </g>
   <g id="line2d_53">
    <path d="M 221.784687 295.38398 
L 222.156807 295.324483 
L 222.528927 295.217762 
L 222.901047 295.065685 
L 223.273167 294.869794 
L 223.645286 294.63131 
L 224.017406 294.351125 
L 224.389526 294.02981 
L 224.761646 293.667607 
L 225.133766 293.264437 
L 225.505886 292.819894 
L 225.878006 292.333248 
" clip-path="url(#p0ea04c8ee9)" style="fill: none; stroke: #008000; stroke-width: 1.5; stroke-linecap: square"/>
   </g>
   <g id="line2d_54">
    <path d="M 225.894238 292.389512 
L 226.266358 291.855285 
L 226.638478 291.271724 
L 227.010598 290.63735 
L 227.382718 289.950519 
L 227.754838 289.20942 
L 228.126958 288.412075 
L 228.499077 287.556339 
L 228.871197 286.639903 
L 229.243317 285.660289 
L 229.615437 284.614853 
L 229.987557 283.500785 
" clip-path="url(#p0ea04c8ee9)" style="fill: none; stroke: #008000; stroke-width: 1.5; stroke-linecap: square"/>
   </g>
   <g id="line2d_55">
    <path d="M 230.00379 283.645193 
L 230.375909 282.450094 
L 230.748029 281.168372 
L 231.120149 279.797306 
L 231.492269 278.334402 
L 231.864389 276.777392 
L 232.236509 275.124235 
L 232.608629 273.373113 
L 232.980748 271.522438 
L 233.352868 269.570844 
L 233.724988 267.517193 
L 234.097108 265.360573 
" clip-path="url(#p0ea04c8ee9)" style="fill: none; stroke: #008000; stroke-width: 1.5; stroke-linecap: square"/>
   </g>
   <g id="line2d_56">
    <path d="M 234.113341 265.408134 
L 234.485461 263.138718 
L 234.85758 260.756493 
L 235.2297 258.261675 
L 235.60182 255.654999 
L 235.97394 252.937714 
L 236.34606 250.111588 
L 236.71818 247.178903 
L 237.0903 244.142459 
L 237.46242 241.005571 
L 237.834539 237.772071 
L 238.206659 234.446308 
" clip-path="url(#p0ea04c8ee9)" style="fill: none; stroke: #008000; stroke-width: 1.5; stroke-linecap: square"/>
   </g>
   <g id="line2d_57">
    <path d="M 238.222892 234.2574 
L 238.595012 230.841882 
L 238.967132 227.347114 
L 239.339252 223.778886 
L 239.711371 220.143422 
L 240.083491 216.44738 
L 240.455611 212.697845 
L 240.827731 208.90234 
L 241.199851 205.068814 
L 241.571971 201.205654 
L 241.944091 197.321675 
L 242.31621 193.426125 
" clip-path="url(#p0ea04c8ee9)" style="fill: none; stroke: #008000; stroke-width: 1.5; stroke-linecap: square"/>
   </g>
   <g id="line2d_58">
    <path d="M 242.332443 193.036286 
L 242.704563 189.146023 
L 243.076683 185.277681 
L 243.448803 181.441148 
L 243.820923 177.646303 
L 244.193042 173.903011 
L 244.565162 170.221127 
L 244.937282 166.610496 
L 245.309402 163.080949 
L 245.681522 159.642308 
L 246.053642 156.304384 
L 246.425762 153.076974 
" clip-path="url(#p0ea04c8ee9)" style="fill: none; stroke: #008000; stroke-width: 1.5; stroke-linecap: square"/>
   </g>
   <g id="line2d_59">
    <path d="M 246.441994 152.6873 
L 246.814114 149.593713 
L 247.186234 146.645794 
L 247.558354 143.852535 
L 247.930474 141.22241 
L 248.302594 138.763375 
L 248.674714 136.482867 
L 249.046833 134.387804 
L 249.418953 132.484585 
L 249.791073 130.779092 
L 250.163193 129.276687 
L 250.535313 127.982213 
" clip-path="url(#p0ea04c8ee9)" style="fill: none; stroke: #008000; stroke-width: 1.5; stroke-linecap: square"/>
   </g>
   <g id="line2d_60">
    <path d="M 250.551546 127.820626 
L 250.923665 126.751277 
L 251.295785 125.904772 
L 251.667905 125.284039 
L 252.040025 124.891265 
L 252.412145 124.727899 
L 252.784265 124.794648 
L 253.156385 125.091478 
L 253.528504 125.617616 
L 253.900624 126.371549 
L 254.272744 127.351023 
L 254.644864 128.553044 
" clip-path="url(#p0ea04c8ee9)" style="fill: none; stroke: #008000; stroke-width: 1.5; stroke-linecap: square"/>
   </g>
   <g id="line2d_61">
    <path d="M 254.661097 128.71575 
L 255.033217 130.142663 
L 255.405337 131.777358 
L 255.777456 133.61491 
L 256.149576 135.649867 
L 256.521696 137.876247 
L 256.893816 140.287545 
L 257.265936 142.876722 
L 257.638056 145.636215 
L 258.010176 148.557933 
L 258.382295 151.633253 
L 258.754415 154.85303 
" clip-path="url(#p0ea04c8ee9)" style="fill: none; stroke: #008000; stroke-width: 1.5; stroke-linecap: square"/>
   </g>
   <g id="line2d_62">
    <path d="M 258.770648 155.242753 
L 259.142768 158.595084 
L 259.514888 162.056699 
L 259.887008 165.617596 
L 260.259127 169.267746 
L 260.631247 172.997085 
L 261.003367 176.795518 
L 261.375487 180.652921 
L 261.747607 184.559134 
L 262.119727 188.50397 
L 262.491847 192.477208 
L 262.863966 196.468594 
" clip-path="url(#p0ea04c8ee9)" style="fill: none; stroke: #008000; stroke-width: 1.5; stroke-linecap: square"/>
   </g>
   <g id="line2d_63">
    <path d="M 262.880199 196.867118 
L 263.252319 200.859306 
L 263.624439 204.835082 
L 263.996559 208.784787 
L 264.368679 212.69918 
L 264.740799 216.569441 
L 265.112918 220.387173 
L 265.485038 224.144396 
L 265.857158 227.833553 
L 266.229278 231.447507 
L 266.601398 234.979542 
L 266.973518 238.42336 
" clip-path="url(#p0ea04c8ee9)" style="fill: none; stroke: #008000; stroke-width: 1.5; stroke-linecap: square"/>
   </g>
   <g id="line2d_64">
    <path d="M 266.98975 238.638185 
L 267.36187 241.981546 
L 267.73399 245.221111 
L 268.10611 248.352069 
L 268.47823 251.370164 
L 268.85035 254.271693 
L 269.22247 257.053511 
L 269.594589 259.713027 
L 269.966709 262.248203 
L 270.338829 264.657559 
L 270.710949 266.940169 
L 271.083069 269.09566 
" clip-path="url(#p0ea04c8ee9)" style="fill: none; stroke: #008000; stroke-width: 1.5; stroke-linecap: square"/>
   </g>
   <g id="line2d_65">
    <path d="M 271.099302 269.0754 
L 271.471421 271.101997 
L 271.843541 273.009159 
L 272.215661 274.797862 
L 272.587781 276.469412 
L 272.959901 278.025446 
L 273.332021 279.467931 
L 273.704141 280.799166 
L 274.076261 282.021778 
L 274.44838 283.138726 
L 274.8205 284.153299 
L 275.19262 285.069116 
" clip-path="url(#p0ea04c8ee9)" style="fill: none; stroke: #008000; stroke-width: 1.5; stroke-linecap: square"/>
   </g>
   <g id="line2d_66">
    <path d="M 275.208853 284.914125 
L 275.580973 285.737263 
L 275.953093 286.481686 
L 276.325212 287.151429 
L 276.697332 287.750466 
L 277.069452 288.282713 
L 277.441572 288.752029 
L 277.813692 289.162213 
L 278.185812 289.517006 
L 278.557932 289.820091 
L 278.930051 290.075093 
L 279.302171 290.285578 
" clip-path="url(#p0ea04c8ee9)" style="fill: none; stroke: #008000; stroke-width: 1.5; stroke-linecap: square"/>
   </g>
   <g id="line2d_67">
    <path d="M 279.318404 290.158387 
L 279.690524 290.330485 
L 280.062644 290.473334 
L 280.434764 290.589907 
L 280.806883 290.682844 
L 281.179003 290.754456 
L 281.551123 290.80672 
L 281.923243 290.841285 
L 282.295363 290.859464 
L 282.667483 290.862241 
L 283.039603 290.85027 
L 283.411723 290.82387 
" clip-path="url(#p0ea04c8ee9)" style="fill: none; stroke: #008000; stroke-width: 1.5; stroke-linecap: square"/>
   </g>
   <g id="line2d_68">
    <path d="M 283.427955 290.830196 
L 283.800075 290.788472 
L 284.172195 290.731474 
L 284.544315 290.658537 
L 284.916435 290.568681 
L 285.288555 290.460612 
L 285.660674 290.332716 
L 286.032794 290.183067 
L 286.404914 290.009422 
L 286.777034 289.809222 
L 287.149154 289.579592 
L 287.521274 289.317342 
" clip-path="url(#p0ea04c8ee9)" style="fill: none; stroke: #008000; stroke-width: 1.5; stroke-linecap: square"/>
   </g>
   <g id="line2d_69">
    <path d="M 287.537506 289.439746 
L 287.909626 289.135402 
L 288.281746 288.78282 
L 288.653866 288.378263 
L 289.025986 287.917948 
L 289.398106 287.39805 
L 289.770226 286.814696 
L 290.142346 286.163972 
L 290.514465 285.44192 
L 290.886585 284.644535 
L 291.258705 283.767769 
L 291.630825 282.807532 
" clip-path="url(#p0ea04c8ee9)" style="fill: none; stroke: #008000; stroke-width: 1.5; stroke-linecap: square"/>
   </g>
   <g id="line2d_70">
    <path d="M 291.647058 282.928888 
L 292.019178 281.87184 
L 292.391297 280.712864 
L 292.763417 279.448238 
L 293.135537 278.074535 
L 293.507657 276.588611 
L 293.879777 274.987615 
L 294.251897 273.268983 
L 294.624017 271.430442 
L 294.996136 269.470005 
L 295.368256 267.385977 
L 295.740376 265.176951 
" clip-path="url(#p0ea04c8ee9)" style="fill: none; stroke: #008000; stroke-width: 1.5; stroke-linecap: square"/>
   </g>
   <g id="line2d_71">
    <path d="M 295.756609 265.16693 
L 296.128729 262.82341 
L 296.500849 260.347537 
L 296.872968 257.739057 
L 297.245088 254.998186 
L 297.617208 252.125608 
L 297.989328 249.122474 
L 298.361448 245.990408 
L 298.733568 242.731499 
L 299.105688 239.348308 
L 299.477808 235.843862 
L 299.849927 232.22166 
" clip-path="url(#p0ea04c8ee9)" style="fill: none; stroke: #008000; stroke-width: 1.5; stroke-linecap: square"/>
   </g>
   <g id="line2d_72">
    <path d="M 299.86616 232.022461 
L 300.23828 228.282836 
L 300.6104 224.436386 
L 300.98252 220.487915 
L 301.35464 216.442621 
L 301.726759 212.306094 
L 302.098879 208.084312 
L 302.470999 203.783646 
L 302.843119 199.410858 
L 303.215239 194.973102 
L 303.587359 190.47792 
L 303.959479 185.933249 
" clip-path="url(#p0ea04c8ee9)" style="fill: none; stroke: #008000; stroke-width: 1.5; stroke-linecap: square"/>
   </g>
   <g id="line2d_73">
    <path d="M 303.975711 185.591896 
L 304.347831 181.009009 
L 304.719951 176.402631 
L 305.092071 171.781451 
L 305.464191 167.154264 
L 305.836311 162.529968 
L 306.20843 157.917565 
L 306.58055 153.326165 
L 306.95267 148.764978 
L 307.32479 144.243321 
L 307.69691 139.770615 
L 308.06903 135.356387 
" clip-path="url(#p0ea04c8ee9)" style="fill: none; stroke: #008000; stroke-width: 1.5; stroke-linecap: square"/>
   </g>
   <g id="line2d_74">
    <path d="M 308.085263 134.994161 
L 308.457382 130.656708 
L 308.829502 126.407839 
L 309.201622 122.256873 
L 309.573742 118.212888 
L 309.945862 114.284721 
L 310.317982 110.480968 
L 310.690102 106.809985 
L 311.062221 103.279886 
L 311.434341 99.898548 
L 311.806461 96.673602 
L 312.178581 93.612442 
" clip-path="url(#p0ea04c8ee9)" style="fill: none; stroke: #008000; stroke-width: 1.5; stroke-linecap: square"/>
   </g>
   <g id="line2d_75">
    <path d="M 312.194814 93.361317 
L 312.566934 90.482597 
L 312.939053 87.789343 
L 313.311173 85.287842 
L 313.683293 82.983897 
L 314.055413 80.882823 
L 314.427533 78.989453 
L 314.799653 77.308132 
L 315.171773 75.84272 
L 315.543892 74.596591 
L 315.916012 73.572634 
L 316.288132 72.773252 
" clip-path="url(#p0ea04c8ee9)" style="fill: none; stroke: #008000; stroke-width: 1.5; stroke-linecap: square"/>
   </g>
   <g id="line2d_76">
    <path d="M 316.304365 72.719057 
L 316.676485 72.156866 
L 317.048605 71.824127 
L 317.420725 71.721688 
L 317.792844 71.849866 
L 318.164964 72.208441 
L 318.537084 72.796658 
L 318.909204 73.613227 
L 319.281324 74.656324 
L 319.653444 75.923589 
L 320.025564 77.412129 
L 320.397683 79.118514 
" clip-path="url(#p0ea04c8ee9)" style="fill: none; stroke: #008000; stroke-width: 1.5; stroke-linecap: square"/>
   </g>
   <g id="line2d_77">
    <path d="M 320.413916 79.27365 
L 320.786036 81.200721 
L 321.158156 83.332397 
L 321.530276 85.663853 
L 321.902396 88.189881 
L 322.274515 90.904894 
L 322.646635 93.802919 
L 323.018755 96.877605 
L 323.390875 100.122216 
L 323.762995 103.529635 
L 324.135115 107.092364 
L 324.507235 110.80252 
" clip-path="url(#p0ea04c8ee9)" style="fill: none; stroke: #008000; stroke-width: 1.5; stroke-linecap: square"/>
   </g>
   <g id="line2d_78">
    <path d="M 324.523467 111.109022 
L 324.895587 114.959694 
L 325.267707 118.931976 
L 325.639827 123.017258 
L 326.011947 127.206833 
L 326.384067 131.491897 
L 326.756187 135.86355 
L 327.128306 140.312795 
L 327.500426 144.830539 
L 327.872546 149.40759 
L 328.244666 154.034661 
L 328.616786 158.702368 
" clip-path="url(#p0ea04c8ee9)" style="fill: none; stroke: #008000; stroke-width: 1.5; stroke-linecap: square"/>
   </g>
   <g id="line2d_79">
    <path d="M 328.633019 159.056307 
L 329.005138 163.751525 
L 329.377258 168.458887 
L 329.749378 173.169171 
L 330.121498 177.873364 
L 330.493618 182.562654 
L 330.865738 187.228437 
L 331.237858 191.862311 
L 331.609977 196.45608 
L 331.982097 201.001754 
L 332.354217 205.491546 
L 332.726337 209.917875 
" clip-path="url(#p0ea04c8ee9)" style="fill: none; stroke: #008000; stroke-width: 1.5; stroke-linecap: square"/>
   </g>
   <g id="line2d_80">
    <path d="M 332.74257 210.207089 
L 333.11469 214.556197 
L 333.486809 218.821097 
L 333.858929 222.995131 
L 334.231049 227.072042 
L 334.603169 231.045975 
L 334.975289 234.911478 
L 335.347409 238.663499 
L 335.719529 242.29739 
L 336.091649 245.808904 
L 336.463768 249.194194 
L 336.835888 252.449817 
" clip-path="url(#p0ea04c8ee9)" style="fill: none; stroke: #008000; stroke-width: 1.5; stroke-linecap: square"/>
   </g>
   <g id="line2d_81">
    <path d="M 336.852121 252.596445 
L 337.224241 255.713264 
L 337.596361 258.694169 
L 337.968481 261.536964 
L 338.3406 264.239868 
L 338.71272 266.801519 
L 339.08484 269.22097 
L 339.45696 271.497693 
L 339.82908 273.631577 
L 340.2012 275.622927 
L 340.57332 277.472466 
L 340.945439 279.181335 
" clip-path="url(#p0ea04c8ee9)" style="fill: none; stroke: #008000; stroke-width: 1.5; stroke-linecap: square"/>
   </g>
   <g id="line2d_82">
    <path d="M 340.961672 279.173694 
L 341.333792 280.739951 
L 341.705912 282.173928 
L 342.078032 283.477791 
L 342.450152 284.653965 
L 342.822271 285.705135 
L 343.194391 286.63424 
L 343.566511 287.444479 
L 343.938631 288.13931 
L 344.310751 288.722445 
L 344.682871 289.197858 
L 345.054991 289.569779 
" clip-path="url(#p0ea04c8ee9)" style="fill: none; stroke: #008000; stroke-width: 1.5; stroke-linecap: square"/>
   </g>
   <g id="line2d_83">
    <path d="M 345.071223 289.464572 
L 345.443343 289.737087 
L 345.815463 289.922738 
L 346.187583 290.026174 
L 346.559703 290.05206 
L 346.931823 290.005082 
L 347.303943 289.88994 
L 347.676062 289.711354 
L 348.048182 289.474061 
L 348.420302 289.182816 
L 348.792422 288.842389 
L 349.164542 288.45757 
" clip-path="url(#p0ea04c8ee9)" style="fill: none; stroke: #008000; stroke-width: 1.5; stroke-linecap: square"/>
   </g>
   <g id="line2d_84">
    <path d="M 349.180775 288.345383 
L 349.552894 287.922385 
L 349.925014 287.470531 
L 350.297134 286.994374 
L 350.669254 286.498293 
L 351.041374 285.986495 
L 351.413494 285.463015 
L 351.785614 284.931713 
L 352.157733 284.396276 
L 352.529853 283.86022 
L 352.901973 283.326886 
L 353.274093 282.799443 
" clip-path="url(#p0ea04c8ee9)" style="fill: none; stroke: #008000; stroke-width: 1.5; stroke-linecap: square"/>
   </g>
   <g id="line2d_85">
    <path d="M 353.290326 282.751124 
L 353.662446 282.233838 
L 354.034566 281.729916 
L 354.406685 281.241924 
L 354.778805 280.772202 
L 355.150925 280.322864 
L 355.523045 279.895801 
L 355.895165 279.49268 
L 356.267285 279.114942 
L 356.639405 278.763806 
L 357.011524 278.440265 
L 357.383644 278.145087 
" clip-path="url(#p0ea04c8ee9)" style="fill: none; stroke: #008000; stroke-width: 1.5; stroke-linecap: square"/>
   </g>
   <g id="line2d_86">
    <path d="M 357.399877 278.173809 
L 357.771997 277.907499 
L 358.144117 277.667957 
L 358.516237 277.455396 
L 358.888356 277.269884 
L 359.260476 277.11135 
L 359.632596 276.97958 
L 360.004716 276.874218 
L 360.376836 276.794766 
L 360.748956 276.740584 
L 361.121076 276.710892 
L 361.493195 276.704766 
" clip-path="url(#p0ea04c8ee9)" style="fill: none; stroke: #008000; stroke-width: 1.5; stroke-linecap: square"/>
   </g>
   <g id="line2d_87">
    <path d="M 361.509428 276.769796 
L 361.881548 276.785054 
L 362.253668 276.817647 
L 362.625788 276.866417 
L 362.997908 276.930199 
L 363.370028 277.007813 
L 363.742147 277.098071 
L 364.114267 277.199771 
L 364.486387 277.311702 
L 364.858507 277.43264 
L 365.230627 277.561352 
L 365.602747 277.696592 
" clip-path="url(#p0ea04c8ee9)" style="fill: none; stroke: #008000; stroke-width: 1.5; stroke-linecap: square"/>
   </g>
   <g id="line2d_88">
    <path d="M 365.618979 277.743378 
L 365.991099 277.882786 
L 366.363219 278.023685 
L 366.735339 278.164922 
L 367.107459 278.305413 
L 367.479579 278.444144 
L 367.851699 278.580177 
L 368.223818 278.712639 
L 368.595938 278.840731 
L 368.968058 278.963727 
L 369.340178 279.080967 
L 369.712298 279.191867 
" clip-path="url(#p0ea04c8ee9)" style="fill: none; stroke: #008000; stroke-width: 1.5; stroke-linecap: square"/>
   </g>
   <g id="line2d_89">
    <path d="M 369.728531 279.194833 
L 370.10065 279.298622 
L 370.47277 279.395197 
L 370.84489 279.484183 
L 371.21701 279.565271 
L 371.58913 279.638223 
L 371.96125 279.702864 
L 372.33337 279.75909 
L 372.70549 279.806864 
L 373.077609 279.846216 
L 373.449729 279.877243 
L 373.821849 279.90011 
" clip-path="url(#p0ea04c8ee9)" style="fill: none; stroke: #008000; stroke-width: 1.5; stroke-linecap: square"/>
   </g>
   <g id="line2d_90">
    <path d="M 373.838082 279.874637 
L 374.210202 279.890079 
L 374.582322 279.899494 
L 374.954441 279.903172 
L 375.326561 279.901417 
L 375.698681 279.894549 
L 376.070801 279.882901 
L 376.442921 279.866822 
L 376.815041 279.846674 
L 377.187161 279.822835 
L 377.55928 279.795696 
L 377.9314 279.765665 
" clip-path="url(#p0ea04c8ee9)" style="fill: none; stroke: #008000; stroke-width: 1.5; stroke-linecap: square"/>
   </g>
   <g id="line2d_91">
    <path d="M 377.947633 279.744473 
L 378.319753 279.712505 
L 378.691873 279.679716 
L 379.063993 279.646493 
L 379.436112 279.613202 
L 379.808232 279.580182 
L 380.180352 279.547746 
L 380.552472 279.516181 
L 380.924592 279.485752 
L 381.296712 279.456694 
L 381.668832 279.429219 
L 382.040952 279.403514 
" clip-path="url(#p0ea04c8ee9)" style="fill: none; stroke: #008000; stroke-width: 1.5; stroke-linecap: square"/>
   </g>
   <g id="line2d_92">
    <path d="M 382.057184 279.403489 
L 382.429304 279.379769 
L 382.801424 279.358056 
L 383.173544 279.338462 
L 383.545664 279.321077 
L 383.917784 279.305966 
L 384.289903 279.293171 
L 384.662023 279.28271 
L 385.034143 279.274579 
L 385.406263 279.268751 
L 385.778383 279.265173 
L 386.150503 279.263771 
" clip-path="url(#p0ea04c8ee9)" style="fill: none; stroke: #008000; stroke-width: 1.5; stroke-linecap: square"/>
   </g>
   <g id="line2d_93">
    <path d="M 386.166735 279.275305 
L 386.538855 279.275701 
L 386.910975 279.277352 
L 387.283095 279.280148 
L 387.655215 279.28398 
L 388.027335 279.288737 
L 388.399455 279.294309 
L 388.771574 279.300586 
L 389.143694 279.307457 
L 389.515814 279.314812 
L 389.887934 279.322542 
L 390.260054 279.330535 
" clip-path="url(#p0ea04c8ee9)" style="fill: none; stroke: #008000; stroke-width: 1.5; stroke-linecap: square"/>
   </g>
   <g id="line2d_94">
    <path d="M 390.276287 279.33397 
L 390.648407 279.342023 
L 391.020526 279.349927 
L 391.392646 279.357583 
L 391.764766 279.364896 
L 392.136886 279.371777 
L 392.509006 279.378143 
L 392.881126 279.383919 
L 393.253246 279.389034 
L 393.625365 279.393425 
L 393.997485 279.397034 
L 394.369605 279.399809 
" clip-path="url(#p0ea04c8ee9)" style="fill: none; stroke: #008000; stroke-width: 1.5; stroke-linecap: square"/>
   </g>
   <g id="line2d_95">
    <path d="M 394.385838 279.389595 
L 394.757958 279.391114 
L 395.130078 279.39232 
L 395.502197 279.393233 
L 395.874317 279.393873 
L 396.246437 279.394258 
L 396.618557 279.394408 
L 396.990677 279.394339 
L 397.362797 279.39407 
L 397.734917 279.393617 
L 398.107037 279.392998 
L 398.479156 279.392227 
" clip-path="url(#p0ea04c8ee9)" style="fill: none; stroke: #008000; stroke-width: 1.5; stroke-linecap: square"/>
   </g>
   <g id="patch_3">
    <path d="M 57.6 307.584 
L 57.6 41.472 
" style="fill: none; stroke: #000000; stroke-width: 0.8; stroke-linejoin: miter; stroke-linecap: square"/>
   </g>
   <g id="patch_4">
    <path d="M 414.72 307.584 
L 414.72 41.472 
" style="fill: none; stroke: #000000; stroke-width: 0.8; stroke-linejoin: miter; stroke-linecap: square"/>
   </g>
   <g id="patch_5">
    <path d="M 57.6 307.584 
L 414.72 307.584 
" style="fill: none; stroke: #000000; stroke-width: 0.8; stroke-linejoin: miter; stroke-linecap: square"/>
   </g>
   <g id="patch_6">
    <path d="M 57.6 41.472 
L 414.72 41.472 
" style="fill: none; stroke: #000000; stroke-width: 0.8; stroke-linejoin: miter; stroke-linecap: square"/>
   </g>
   <g id="legend_1">
    <g id="patch_7">
     <path d="M 64.6 93.906375 
L 210.795312 93.906375 
Q 212.795312 93.906375 212.795312 91.906375 
L 212.795312 48.472 
Q 212.795312 46.472 210.795312 46.472 
L 64.6 46.472 
Q 62.6 46.472 62.6 48.472 
L 62.6 91.906375 
Q 62.6 93.906375 64.6 93.906375 
z
" style="fill: #ffffff; opacity: 0.8; stroke: #cccccc; stroke-linejoin: miter"/>
    </g>
    <g id="line2d_96">
     <path d="M 66.6 54.570437 
L 76.6 54.570437 
L 86.6 54.570437 
" style="fill: none; stroke: #0000ff; stroke-width: 1.5; stroke-linecap: square"/>
    </g>
    <g id="text_18">
     <!-- Původní funkce -->
     <g transform="translate(94.6 58.070437)scale(0.1 -0.1)">
      <defs>
       <path id="DejaVuSans-50" d="M 1259 4147 
L 1259 2394 
L 2053 2394 
Q 2494 2394 2734 2622 
Q 2975 2850 2975 3272 
Q 2975 3691 2734 3919 
Q 2494 4147 2053 4147 
L 1259 4147 
z
M 628 4666 
L 2053 4666 
Q 2838 4666 3239 4311 
Q 3641 3956 3641 3272 
Q 3641 2581 3239 2228 
Q 2838 1875 2053 1875 
L 1259 1875 
L 1259 0 
L 628 0 
L 628 4666 
z
" transform="scale(0.015625)"/>
       <path id="DejaVuSans-16f" d="M 544 1381 
L 544 3500 
L 1119 3500 
L 1119 1403 
Q 1119 906 1312 657 
Q 1506 409 1894 409 
Q 2359 409 2629 706 
Q 2900 1003 2900 1516 
L 2900 3500 
L 3475 3500 
L 3475 0 
L 2900 0 
L 2900 538 
Q 2691 219 2414 64 
Q 2138 -91 1772 -91 
Q 1169 -91 856 284 
Q 544 659 544 1381 
z
M 1991 3584 
L 1991 3584 
z
M 2463 4575 
Q 2463 4771 2325 4908 
Q 2188 5046 1988 5046 
Q 1784 5046 1648 4910 
Q 1513 4775 1513 4575 
Q 1513 4371 1648 4235 
Q 1784 4100 1988 4100 
Q 2188 4100 2325 4237 
Q 2463 4375 2463 4575 
z
M 2844 4575 
Q 2844 4215 2595 3965 
Q 2347 3715 1988 3715 
Q 1628 3715 1379 3965 
Q 1131 4215 1131 4575 
Q 1131 4934 1379 5182 
Q 1628 5431 1988 5431 
Q 2347 5431 2595 5182 
Q 2844 4934 2844 4575 
z
" transform="scale(0.015625)"/>
       <path id="DejaVuSans-76" d="M 191 3500 
L 800 3500 
L 1894 563 
L 2988 3500 
L 3597 3500 
L 2284 0 
L 1503 0 
L 191 3500 
z
" transform="scale(0.015625)"/>
       <path id="DejaVuSans-6f" d="M 1959 3097 
Q 1497 3097 1228 2736 
Q 959 2375 959 1747 
Q 959 1119 1226 758 
Q 1494 397 1959 397 
Q 2419 397 2687 759 
Q 2956 1122 2956 1747 
Q 2956 2369 2687 2733 
Q 2419 3097 1959 3097 
z
M 1959 3584 
Q 2709 3584 3137 3096 
Q 3566 2609 3566 1747 
Q 3566 888 3137 398 
Q 2709 -91 1959 -91 
Q 1206 -91 779 398 
Q 353 888 353 1747 
Q 353 2609 779 3096 
Q 1206 3584 1959 3584 
z
" transform="scale(0.015625)"/>
       <path id="DejaVuSans-64" d="M 2906 2969 
L 2906 4863 
L 3481 4863 
L 3481 0 
L 2906 0 
L 2906 525 
Q 2725 213 2448 61 
Q 2172 -91 1784 -91 
Q 1150 -91 751 415 
Q 353 922 353 1747 
Q 353 2572 751 3078 
Q 1150 3584 1784 3584 
Q 2172 3584 2448 3432 
Q 2725 3281 2906 2969 
z
M 947 1747 
Q 947 1113 1208 752 
Q 1469 391 1925 391 
Q 2381 391 2643 752 
Q 2906 1113 2906 1747 
Q 2906 2381 2643 2742 
Q 2381 3103 1925 3103 
Q 1469 3103 1208 2742 
Q 947 2381 947 1747 
z
" transform="scale(0.015625)"/>
       <path id="DejaVuSans-6e" d="M 3513 2113 
L 3513 0 
L 2938 0 
L 2938 2094 
Q 2938 2591 2744 2837 
Q 2550 3084 2163 3084 
Q 1697 3084 1428 2787 
Q 1159 2491 1159 1978 
L 1159 0 
L 581 0 
L 581 3500 
L 1159 3500 
L 1159 2956 
Q 1366 3272 1645 3428 
Q 1925 3584 2291 3584 
Q 2894 3584 3203 3211 
Q 3513 2838 3513 2113 
z
" transform="scale(0.015625)"/>
       <path id="DejaVuSans-ed" d="M 1325 5119 
L 1947 5119 
L 928 3944 
L 450 3944 
L 1325 5119 
z
M 603 3500 
L 1178 3500 
L 1178 0 
L 603 0 
L 603 3500 
z
M 891 3584 
L 891 3584 
z
" transform="scale(0.015625)"/>
       <path id="DejaVuSans-20" transform="scale(0.015625)"/>
       <path id="DejaVuSans-66" d="M 2375 4863 
L 2375 4384 
L 1825 4384 
Q 1516 4384 1395 4259 
Q 1275 4134 1275 3809 
L 1275 3500 
L 2222 3500 
L 2222 3053 
L 1275 3053 
L 1275 0 
L 697 0 
L 697 3053 
L 147 3053 
L 147 3500 
L 697 3500 
L 697 3744 
Q 697 4328 969 4595 
Q 1241 4863 1831 4863 
L 2375 4863 
z
" transform="scale(0.015625)"/>
       <path id="DejaVuSans-75" d="M 544 1381 
L 544 3500 
L 1119 3500 
L 1119 1403 
Q 1119 906 1312 657 
Q 1506 409 1894 409 
Q 2359 409 2629 706 
Q 2900 1003 2900 1516 
L 2900 3500 
L 3475 3500 
L 3475 0 
L 2900 0 
L 2900 538 
Q 2691 219 2414 64 
Q 2138 -91 1772 -91 
Q 1169 -91 856 284 
Q 544 659 544 1381 
z
M 1991 3584 
L 1991 3584 
z
" transform="scale(0.015625)"/>
       <path id="DejaVuSans-6b" d="M 581 4863 
L 1159 4863 
L 1159 1991 
L 2875 3500 
L 3609 3500 
L 1753 1863 
L 3688 0 
L 2938 0 
L 1159 1709 
L 1159 0 
L 581 0 
L 581 4863 
z
" transform="scale(0.015625)"/>
       <path id="DejaVuSans-63" d="M 3122 3366 
L 3122 2828 
Q 2878 2963 2633 3030 
Q 2388 3097 2138 3097 
Q 1578 3097 1268 2742 
Q 959 2388 959 1747 
Q 959 1106 1268 751 
Q 1578 397 2138 397 
Q 2388 397 2633 464 
Q 2878 531 3122 666 
L 3122 134 
Q 2881 22 2623 -34 
Q 2366 -91 2075 -91 
Q 1284 -91 818 406 
Q 353 903 353 1747 
Q 353 2603 823 3093 
Q 1294 3584 2113 3584 
Q 2378 3584 2631 3529 
Q 2884 3475 3122 3366 
z
" transform="scale(0.015625)"/>
       <path id="DejaVuSans-65" d="M 3597 1894 
L 3597 1613 
L 953 1613 
Q 991 1019 1311 708 
Q 1631 397 2203 397 
Q 2534 397 2845 478 
Q 3156 559 3463 722 
L 3463 178 
Q 3153 47 2828 -22 
Q 2503 -91 2169 -91 
Q 1331 -91 842 396 
Q 353 884 353 1716 
Q 353 2575 817 3079 
Q 1281 3584 2069 3584 
Q 2775 3584 3186 3129 
Q 3597 2675 3597 1894 
z
M 3022 2063 
Q 3016 2534 2758 2815 
Q 2500 3097 2075 3097 
Q 1594 3097 1305 2825 
Q 1016 2553 972 2059 
L 3022 2063 
z
" transform="scale(0.015625)"/>
      </defs>
      <use xlink:href="#DejaVuSans-50"/>
      <use xlink:href="#DejaVuSans-16f" x="58.552734"/>
      <use xlink:href="#DejaVuSans-76" x="121.931641"/>
      <use xlink:href="#DejaVuSans-6f" x="181.111328"/>
      <use xlink:href="#DejaVuSans-64" x="242.292969"/>
      <use xlink:href="#DejaVuSans-6e" x="305.769531"/>
      <use xlink:href="#DejaVuSans-ed" x="369.148438"/>
      <use xlink:href="#DejaVuSans-20" x="396.931641"/>
      <use xlink:href="#DejaVuSans-66" x="428.71875"/>
      <use xlink:href="#DejaVuSans-75" x="463.923828"/>
      <use xlink:href="#DejaVuSans-6e" x="527.302734"/>
      <use xlink:href="#DejaVuSans-6b" x="590.681641"/>
      <use xlink:href="#DejaVuSans-63" x="648.591797"/>
      <use xlink:href="#DejaVuSans-65" x="703.572266"/>
     </g>
    </g>
    <g id="PathCollection_2">
     <g>
      <use xlink:href="#mc4e8fe291e" x="76.6" y="70.523562" style="fill: #228b22; stroke: #228b22"/>
     </g>
    </g>
    <g id="text_19">
     <!-- Střední hodnoty buněk -->
     <g transform="translate(94.6 73.148562)scale(0.1 -0.1)">
      <defs>
       <path id="DejaVuSans-53" d="M 3425 4513 
L 3425 3897 
Q 3066 4069 2747 4153 
Q 2428 4238 2131 4238 
Q 1616 4238 1336 4038 
Q 1056 3838 1056 3469 
Q 1056 3159 1242 3001 
Q 1428 2844 1947 2747 
L 2328 2669 
Q 3034 2534 3370 2195 
Q 3706 1856 3706 1288 
Q 3706 609 3251 259 
Q 2797 -91 1919 -91 
Q 1588 -91 1214 -16 
Q 841 59 441 206 
L 441 856 
Q 825 641 1194 531 
Q 1563 422 1919 422 
Q 2459 422 2753 634 
Q 3047 847 3047 1241 
Q 3047 1584 2836 1778 
Q 2625 1972 2144 2069 
L 1759 2144 
Q 1053 2284 737 2584 
Q 422 2884 422 3419 
Q 422 4038 858 4394 
Q 1294 4750 2059 4750 
Q 2388 4750 2728 4690 
Q 3069 4631 3425 4513 
z
" transform="scale(0.015625)"/>
       <path id="DejaVuSans-74" d="M 1172 4494 
L 1172 3500 
L 2356 3500 
L 2356 3053 
L 1172 3053 
L 1172 1153 
Q 1172 725 1289 603 
Q 1406 481 1766 481 
L 2356 481 
L 2356 0 
L 1766 0 
Q 1100 0 847 248 
Q 594 497 594 1153 
L 594 3053 
L 172 3053 
L 172 3500 
L 594 3500 
L 594 4494 
L 1172 4494 
z
" transform="scale(0.015625)"/>
       <path id="DejaVuSans-159" d="M 2631 2963 
Q 2534 3019 2420 3045 
Q 2306 3072 2169 3072 
Q 1681 3072 1420 2755 
Q 1159 2438 1159 1844 
L 1159 0 
L 581 0 
L 581 3500 
L 1159 3500 
L 1159 2956 
Q 1341 3275 1631 3429 
Q 1922 3584 2338 3584 
Q 2397 3584 2469 3576 
Q 2541 3569 2628 3553 
L 2631 2963 
z
M 1453 3944 
L 688 5119 
L 1122 5119 
L 1684 4353 
L 2247 5119 
L 2681 5119 
L 1916 3944 
L 1453 3944 
z
" transform="scale(0.015625)"/>
       <path id="DejaVuSans-68" d="M 3513 2113 
L 3513 0 
L 2938 0 
L 2938 2094 
Q 2938 2591 2744 2837 
Q 2550 3084 2163 3084 
Q 1697 3084 1428 2787 
Q 1159 2491 1159 1978 
L 1159 0 
L 581 0 
L 581 4863 
L 1159 4863 
L 1159 2956 
Q 1366 3272 1645 3428 
Q 1925 3584 2291 3584 
Q 2894 3584 3203 3211 
Q 3513 2838 3513 2113 
z
" transform="scale(0.015625)"/>
       <path id="DejaVuSans-79" d="M 2059 -325 
Q 1816 -950 1584 -1140 
Q 1353 -1331 966 -1331 
L 506 -1331 
L 506 -850 
L 844 -850 
Q 1081 -850 1212 -737 
Q 1344 -625 1503 -206 
L 1606 56 
L 191 3500 
L 800 3500 
L 1894 763 
L 2988 3500 
L 3597 3500 
L 2059 -325 
z
" transform="scale(0.015625)"/>
       <path id="DejaVuSans-62" d="M 3116 1747 
Q 3116 2381 2855 2742 
Q 2594 3103 2138 3103 
Q 1681 3103 1420 2742 
Q 1159 2381 1159 1747 
Q 1159 1113 1420 752 
Q 1681 391 2138 391 
Q 2594 391 2855 752 
Q 3116 1113 3116 1747 
z
M 1159 2969 
Q 1341 3281 1617 3432 
Q 1894 3584 2278 3584 
Q 2916 3584 3314 3078 
Q 3713 2572 3713 1747 
Q 3713 922 3314 415 
Q 2916 -91 2278 -91 
Q 1894 -91 1617 61 
Q 1341 213 1159 525 
L 1159 0 
L 581 0 
L 581 4863 
L 1159 4863 
L 1159 2969 
z
" transform="scale(0.015625)"/>
       <path id="DejaVuSans-11b" d="M 3597 1894 
L 3597 1613 
L 953 1613 
Q 991 1019 1311 708 
Q 1631 397 2203 397 
Q 2534 397 2845 478 
Q 3156 559 3463 722 
L 3463 178 
Q 3153 47 2828 -22 
Q 2503 -91 2169 -91 
Q 1331 -91 842 396 
Q 353 884 353 1716 
Q 353 2575 817 3079 
Q 1281 3584 2069 3584 
Q 2775 3584 3186 3129 
Q 3597 2675 3597 1894 
z
M 3022 2063 
Q 3016 2534 2758 2815 
Q 2500 3097 2075 3097 
Q 1594 3097 1305 2825 
Q 1016 2553 972 2059 
L 3022 2063 
z
M 1831 3928 
L 1066 5103 
L 1500 5103 
L 2063 4337 
L 2625 5103 
L 3059 5103 
L 2294 3928 
L 1831 3928 
z
" transform="scale(0.015625)"/>
      </defs>
      <use xlink:href="#DejaVuSans-53"/>
      <use xlink:href="#DejaVuSans-74" x="63.476562"/>
      <use xlink:href="#DejaVuSans-159" x="102.685547"/>
      <use xlink:href="#DejaVuSans-65" x="141.548828"/>
      <use xlink:href="#DejaVuSans-64" x="203.072266"/>
      <use xlink:href="#DejaVuSans-6e" x="266.548828"/>
      <use xlink:href="#DejaVuSans-ed" x="329.927734"/>
      <use xlink:href="#DejaVuSans-20" x="357.710938"/>
      <use xlink:href="#DejaVuSans-68" x="389.498047"/>
      <use xlink:href="#DejaVuSans-6f" x="452.876953"/>
      <use xlink:href="#DejaVuSans-64" x="514.058594"/>
      <use xlink:href="#DejaVuSans-6e" x="577.535156"/>
      <use xlink:href="#DejaVuSans-6f" x="640.914062"/>
      <use xlink:href="#DejaVuSans-74" x="702.095703"/>
      <use xlink:href="#DejaVuSans-79" x="741.304688"/>
      <use xlink:href="#DejaVuSans-20" x="800.484375"/>
      <use xlink:href="#DejaVuSans-62" x="832.271484"/>
      <use xlink:href="#DejaVuSans-75" x="895.748047"/>
      <use xlink:href="#DejaVuSans-6e" x="959.126953"/>
      <use xlink:href="#DejaVuSans-11b" x="1022.505859"/>
      <use xlink:href="#DejaVuSans-6b" x="1084.029297"/>
     </g>
    </g>
    <g id="line2d_97">
     <path d="M 66.6 84.326687 
L 76.6 84.326687 
L 86.6 84.326687 
" style="fill: none; stroke: #008000; stroke-width: 1.5; stroke-linecap: square"/>
    </g>
    <g id="text_20">
     <!-- Rekonstrukce -->
     <g transform="translate(94.6 87.826687)scale(0.1 -0.1)">
      <defs>
       <path id="DejaVuSans-52" d="M 2841 2188 
Q 3044 2119 3236 1894 
Q 3428 1669 3622 1275 
L 4263 0 
L 3584 0 
L 2988 1197 
Q 2756 1666 2539 1819 
Q 2322 1972 1947 1972 
L 1259 1972 
L 1259 0 
L 628 0 
L 628 4666 
L 2053 4666 
Q 2853 4666 3247 4331 
Q 3641 3997 3641 3322 
Q 3641 2881 3436 2590 
Q 3231 2300 2841 2188 
z
M 1259 4147 
L 1259 2491 
L 2053 2491 
Q 2509 2491 2742 2702 
Q 2975 2913 2975 3322 
Q 2975 3731 2742 3939 
Q 2509 4147 2053 4147 
L 1259 4147 
z
" transform="scale(0.015625)"/>
       <path id="DejaVuSans-73" d="M 2834 3397 
L 2834 2853 
Q 2591 2978 2328 3040 
Q 2066 3103 1784 3103 
Q 1356 3103 1142 2972 
Q 928 2841 928 2578 
Q 928 2378 1081 2264 
Q 1234 2150 1697 2047 
L 1894 2003 
Q 2506 1872 2764 1633 
Q 3022 1394 3022 966 
Q 3022 478 2636 193 
Q 2250 -91 1575 -91 
Q 1294 -91 989 -36 
Q 684 19 347 128 
L 347 722 
Q 666 556 975 473 
Q 1284 391 1588 391 
Q 1994 391 2212 530 
Q 2431 669 2431 922 
Q 2431 1156 2273 1281 
Q 2116 1406 1581 1522 
L 1381 1569 
Q 847 1681 609 1914 
Q 372 2147 372 2553 
Q 372 3047 722 3315 
Q 1072 3584 1716 3584 
Q 2034 3584 2315 3537 
Q 2597 3491 2834 3397 
z
" transform="scale(0.015625)"/>
       <path id="DejaVuSans-72" d="M 2631 2963 
Q 2534 3019 2420 3045 
Q 2306 3072 2169 3072 
Q 1681 3072 1420 2755 
Q 1159 2438 1159 1844 
L 1159 0 
L 581 0 
L 581 3500 
L 1159 3500 
L 1159 2956 
Q 1341 3275 1631 3429 
Q 1922 3584 2338 3584 
Q 2397 3584 2469 3576 
Q 2541 3569 2628 3553 
L 2631 2963 
z
" transform="scale(0.015625)"/>
      </defs>
      <use xlink:href="#DejaVuSans-52"/>
      <use xlink:href="#DejaVuSans-65" x="64.982422"/>
      <use xlink:href="#DejaVuSans-6b" x="126.505859"/>
      <use xlink:href="#DejaVuSans-6f" x="180.791016"/>
      <use xlink:href="#DejaVuSans-6e" x="241.972656"/>
      <use xlink:href="#DejaVuSans-73" x="305.351562"/>
      <use xlink:href="#DejaVuSans-74" x="357.451172"/>
      <use xlink:href="#DejaVuSans-72" x="396.660156"/>
      <use xlink:href="#DejaVuSans-75" x="437.773438"/>
      <use xlink:href="#DejaVuSans-6b" x="501.152344"/>
      <use xlink:href="#DejaVuSans-63" x="559.0625"/>
      <use xlink:href="#DejaVuSans-65" x="614.042969"/>
     </g>
    </g>
   </g>
  </g>
 </g>
 <defs>
  <clipPath id="p0ea04c8ee9">
   <rect x="57.6" y="41.472" width="357.12" height="266.112"/>
  </clipPath>
 </defs>
</svg>
