<?xml version="1.0" encoding="utf-8" standalone="no"?>
<!DOCTYPE svg PUBLIC "-//W3C//DTD SVG 1.1//EN"
  "http://www.w3.org/Graphics/SVG/1.1/DTD/svg11.dtd">
<svg xmlns:xlink="http://www.w3.org/1999/xlink" width="460.8pt" height="345.6pt" viewBox="0 0 460.8 345.6" xmlns="http://www.w3.org/2000/svg" version="1.1">
 <metadata>
  <rdf:RDF xmlns:dc="http://purl.org/dc/elements/1.1/" xmlns:cc="http://creativecommons.org/ns#" xmlns:rdf="http://www.w3.org/1999/02/22-rdf-syntax-ns#">
   <cc:Work>
    <dc:type rdf:resource="http://purl.org/dc/dcmitype/StillImage"/>
    <dc:date>2023-08-02T06:17:36.366120</dc:date>
    <dc:format>image/svg+xml</dc:format>
    <dc:creator>
     <cc:Agent>
      <dc:title>Matplotlib v3.5.2, https://matplotlib.org/</dc:title>
     </cc:Agent>
    </dc:creator>
   </cc:Work>
  </rdf:RDF>
 </metadata>
 <defs>
  <style type="text/css">*{stroke-linejoin: round; stroke-linecap: butt}</style>
 </defs>
 <g id="figure_1">
  <g id="patch_1">
   <path d="M 0 345.6 
L 460.8 345.6 
L 460.8 0 
L 0 0 
z
" style="fill: #ffffff"/>
  </g>
  <g id="axes_1">
   <g id="patch_2">
    <path d="M 57.6 307.584 
L 414.72 307.584 
L 414.72 41.472 
L 57.6 41.472 
z
" style="fill: #ffffff"/>
   </g>
   <g id="PathCollection_1">
    <defs>
     <path id="mc9c3b7231a" d="M 0 3 
C 0.795609 3 1.55874 2.683901 2.12132 2.12132 
C 2.683901 1.55874 3 0.795609 3 0 
C 3 -0.795609 2.683901 -1.55874 2.12132 -2.12132 
C 1.55874 -2.683901 0.795609 -3 0 -3 
C -0.795609 -3 -1.55874 -2.683901 -2.12132 -2.12132 
C -2.683901 -1.55874 -3 -0.795609 -3 0 
C -3 0.795609 -2.683901 1.55874 -2.12132 2.12132 
C -1.55874 2.683901 -0.795609 3 0 3 
z
" style="stroke: #228b22"/>
    </defs>
    <g clip-path="url(#p9248984cc9)">
     <use xlink:href="#mc9c3b7231a" x="77.994965" y="54.808615" style="fill: #228b22; stroke: #228b22"/>
     <use xlink:href="#mc9c3b7231a" x="86.319441" y="57.289846" style="fill: #228b22; stroke: #228b22"/>
     <use xlink:href="#mc9c3b7231a" x="94.643916" y="59.771077" style="fill: #228b22; stroke: #228b22"/>
     <use xlink:href="#mc9c3b7231a" x="102.968392" y="62.252308" style="fill: #228b22; stroke: #228b22"/>
     <use xlink:href="#mc9c3b7231a" x="111.292867" y="64.733538" style="fill: #228b22; stroke: #228b22"/>
     <use xlink:href="#mc9c3b7231a" x="119.617343" y="67.214769" style="fill: #228b22; stroke: #228b22"/>
     <use xlink:href="#mc9c3b7231a" x="127.941818" y="69.696" style="fill: #228b22; stroke: #228b22"/>
     <use xlink:href="#mc9c3b7231a" x="136.266294" y="72.177231" style="fill: #228b22; stroke: #228b22"/>
     <use xlink:href="#mc9c3b7231a" x="144.590769" y="74.658462" style="fill: #228b22; stroke: #228b22"/>
     <use xlink:href="#mc9c3b7231a" x="152.915245" y="77.139692" style="fill: #228b22; stroke: #228b22"/>
     <use xlink:href="#mc9c3b7231a" x="161.23972" y="79.620923" style="fill: #228b22; stroke: #228b22"/>
     <use xlink:href="#mc9c3b7231a" x="169.564196" y="82.102154" style="fill: #228b22; stroke: #228b22"/>
     <use xlink:href="#mc9c3b7231a" x="177.888671" y="84.583385" style="fill: #228b22; stroke: #228b22"/>
     <use xlink:href="#mc9c3b7231a" x="186.213147" y="87.064615" style="fill: #228b22; stroke: #228b22"/>
     <use xlink:href="#mc9c3b7231a" x="194.537622" y="89.545846" style="fill: #228b22; stroke: #228b22"/>
     <use xlink:href="#mc9c3b7231a" x="202.862098" y="92.027077" style="fill: #228b22; stroke: #228b22"/>
     <use xlink:href="#mc9c3b7231a" x="211.186573" y="94.508308" style="fill: #228b22; stroke: #228b22"/>
     <use xlink:href="#mc9c3b7231a" x="219.511049" y="96.989538" style="fill: #228b22; stroke: #228b22"/>
     <use xlink:href="#mc9c3b7231a" x="227.835524" y="99.470769" style="fill: #228b22; stroke: #228b22"/>
     <use xlink:href="#mc9c3b7231a" x="236.16" y="162.587077" style="fill: #228b22; stroke: #228b22"/>
     <use xlink:href="#mc9c3b7231a" x="244.484476" y="226.633846" style="fill: #228b22; stroke: #228b22"/>
     <use xlink:href="#mc9c3b7231a" x="252.808951" y="230.355692" style="fill: #228b22; stroke: #228b22"/>
     <use xlink:href="#mc9c3b7231a" x="261.133427" y="234.077538" style="fill: #228b22; stroke: #228b22"/>
     <use xlink:href="#mc9c3b7231a" x="269.457902" y="237.799385" style="fill: #228b22; stroke: #228b22"/>
     <use xlink:href="#mc9c3b7231a" x="277.782378" y="241.521231" style="fill: #228b22; stroke: #228b22"/>
     <use xlink:href="#mc9c3b7231a" x="286.106853" y="245.243077" style="fill: #228b22; stroke: #228b22"/>
     <use xlink:href="#mc9c3b7231a" x="294.431329" y="248.964923" style="fill: #228b22; stroke: #228b22"/>
     <use xlink:href="#mc9c3b7231a" x="302.755804" y="252.686769" style="fill: #228b22; stroke: #228b22"/>
     <use xlink:href="#mc9c3b7231a" x="311.08028" y="256.408615" style="fill: #228b22; stroke: #228b22"/>
     <use xlink:href="#mc9c3b7231a" x="319.404755" y="260.130462" style="fill: #228b22; stroke: #228b22"/>
     <use xlink:href="#mc9c3b7231a" x="327.729231" y="263.852308" style="fill: #228b22; stroke: #228b22"/>
     <use xlink:href="#mc9c3b7231a" x="336.053706" y="267.574154" style="fill: #228b22; stroke: #228b22"/>
     <use xlink:href="#mc9c3b7231a" x="344.378182" y="271.296" style="fill: #228b22; stroke: #228b22"/>
     <use xlink:href="#mc9c3b7231a" x="352.702657" y="275.017846" style="fill: #228b22; stroke: #228b22"/>
     <use xlink:href="#mc9c3b7231a" x="361.027133" y="278.739692" style="fill: #228b22; stroke: #228b22"/>
     <use xlink:href="#mc9c3b7231a" x="369.351608" y="282.461538" style="fill: #228b22; stroke: #228b22"/>
     <use xlink:href="#mc9c3b7231a" x="377.676084" y="286.183385" style="fill: #228b22; stroke: #228b22"/>
     <use xlink:href="#mc9c3b7231a" x="386.000559" y="289.905231" style="fill: #228b22; stroke: #228b22"/>
     <use xlink:href="#mc9c3b7231a" x="394.325035" y="293.627077" style="fill: #228b22; stroke: #228b22"/>
    </g>
   </g>
   <g id="matplotlib.axis_1">
    <g id="xtick_1">
     <g id="line2d_1">
      <defs>
       <path id="mb8d5a7e851" d="M 0 0 
L 0 3.5 
" style="stroke: #000000; stroke-width: 0.8"/>
      </defs>
      <g>
       <use xlink:href="#mb8d5a7e851" x="73.832727" y="307.584" style="stroke: #000000; stroke-width: 0.8"/>
      </g>
     </g>
     <g id="text_1">
      <!-- −1.00 -->
      <g transform="translate(58.510071 322.182437)scale(0.1 -0.1)">
       <defs>
        <path id="DejaVuSans-2212" d="M 678 2272 
L 4684 2272 
L 4684 1741 
L 678 1741 
L 678 2272 
z
" transform="scale(0.015625)"/>
        <path id="DejaVuSans-31" d="M 794 531 
L 1825 531 
L 1825 4091 
L 703 3866 
L 703 4441 
L 1819 4666 
L 2450 4666 
L 2450 531 
L 3481 531 
L 3481 0 
L 794 0 
L 794 531 
z
" transform="scale(0.015625)"/>
        <path id="DejaVuSans-2e" d="M 684 794 
L 1344 794 
L 1344 0 
L 684 0 
L 684 794 
z
" transform="scale(0.015625)"/>
        <path id="DejaVuSans-30" d="M 2034 4250 
Q 1547 4250 1301 3770 
Q 1056 3291 1056 2328 
Q 1056 1369 1301 889 
Q 1547 409 2034 409 
Q 2525 409 2770 889 
Q 3016 1369 3016 2328 
Q 3016 3291 2770 3770 
Q 2525 4250 2034 4250 
z
M 2034 4750 
Q 2819 4750 3233 4129 
Q 3647 3509 3647 2328 
Q 3647 1150 3233 529 
Q 2819 -91 2034 -91 
Q 1250 -91 836 529 
Q 422 1150 422 2328 
Q 422 3509 836 4129 
Q 1250 4750 2034 4750 
z
" transform="scale(0.015625)"/>
       </defs>
       <use xlink:href="#DejaVuSans-2212"/>
       <use xlink:href="#DejaVuSans-31" x="83.789062"/>
       <use xlink:href="#DejaVuSans-2e" x="147.412109"/>
       <use xlink:href="#DejaVuSans-30" x="179.199219"/>
       <use xlink:href="#DejaVuSans-30" x="242.822266"/>
      </g>
     </g>
    </g>
    <g id="xtick_2">
     <g id="line2d_2">
      <g>
       <use xlink:href="#mb8d5a7e851" x="114.414545" y="307.584" style="stroke: #000000; stroke-width: 0.8"/>
      </g>
     </g>
     <g id="text_2">
      <!-- −0.75 -->
      <g transform="translate(99.091889 322.182437)scale(0.1 -0.1)">
       <defs>
        <path id="DejaVuSans-37" d="M 525 4666 
L 3525 4666 
L 3525 4397 
L 1831 0 
L 1172 0 
L 2766 4134 
L 525 4134 
L 525 4666 
z
" transform="scale(0.015625)"/>
        <path id="DejaVuSans-35" d="M 691 4666 
L 3169 4666 
L 3169 4134 
L 1269 4134 
L 1269 2991 
Q 1406 3038 1543 3061 
Q 1681 3084 1819 3084 
Q 2600 3084 3056 2656 
Q 3513 2228 3513 1497 
Q 3513 744 3044 326 
Q 2575 -91 1722 -91 
Q 1428 -91 1123 -41 
Q 819 9 494 109 
L 494 744 
Q 775 591 1075 516 
Q 1375 441 1709 441 
Q 2250 441 2565 725 
Q 2881 1009 2881 1497 
Q 2881 1984 2565 2268 
Q 2250 2553 1709 2553 
Q 1456 2553 1204 2497 
Q 953 2441 691 2322 
L 691 4666 
z
" transform="scale(0.015625)"/>
       </defs>
       <use xlink:href="#DejaVuSans-2212"/>
       <use xlink:href="#DejaVuSans-30" x="83.789062"/>
       <use xlink:href="#DejaVuSans-2e" x="147.412109"/>
       <use xlink:href="#DejaVuSans-37" x="179.199219"/>
       <use xlink:href="#DejaVuSans-35" x="242.822266"/>
      </g>
     </g>
    </g>
    <g id="xtick_3">
     <g id="line2d_3">
      <g>
       <use xlink:href="#mb8d5a7e851" x="154.996364" y="307.584" style="stroke: #000000; stroke-width: 0.8"/>
      </g>
     </g>
     <g id="text_3">
      <!-- −0.50 -->
      <g transform="translate(139.673707 322.182437)scale(0.1 -0.1)">
       <use xlink:href="#DejaVuSans-2212"/>
       <use xlink:href="#DejaVuSans-30" x="83.789062"/>
       <use xlink:href="#DejaVuSans-2e" x="147.412109"/>
       <use xlink:href="#DejaVuSans-35" x="179.199219"/>
       <use xlink:href="#DejaVuSans-30" x="242.822266"/>
      </g>
     </g>
    </g>
    <g id="xtick_4">
     <g id="line2d_4">
      <g>
       <use xlink:href="#mb8d5a7e851" x="195.578182" y="307.584" style="stroke: #000000; stroke-width: 0.8"/>
      </g>
     </g>
     <g id="text_4">
      <!-- −0.25 -->
      <g transform="translate(180.255526 322.182437)scale(0.1 -0.1)">
       <defs>
        <path id="DejaVuSans-32" d="M 1228 531 
L 3431 531 
L 3431 0 
L 469 0 
L 469 531 
Q 828 903 1448 1529 
Q 2069 2156 2228 2338 
Q 2531 2678 2651 2914 
Q 2772 3150 2772 3378 
Q 2772 3750 2511 3984 
Q 2250 4219 1831 4219 
Q 1534 4219 1204 4116 
Q 875 4013 500 3803 
L 500 4441 
Q 881 4594 1212 4672 
Q 1544 4750 1819 4750 
Q 2544 4750 2975 4387 
Q 3406 4025 3406 3419 
Q 3406 3131 3298 2873 
Q 3191 2616 2906 2266 
Q 2828 2175 2409 1742 
Q 1991 1309 1228 531 
z
" transform="scale(0.015625)"/>
       </defs>
       <use xlink:href="#DejaVuSans-2212"/>
       <use xlink:href="#DejaVuSans-30" x="83.789062"/>
       <use xlink:href="#DejaVuSans-2e" x="147.412109"/>
       <use xlink:href="#DejaVuSans-32" x="179.199219"/>
       <use xlink:href="#DejaVuSans-35" x="242.822266"/>
      </g>
     </g>
    </g>
    <g id="xtick_5">
     <g id="line2d_5">
      <g>
       <use xlink:href="#mb8d5a7e851" x="236.16" y="307.584" style="stroke: #000000; stroke-width: 0.8"/>
      </g>
     </g>
     <g id="text_5">
      <!-- 0.00 -->
      <g transform="translate(225.027187 322.182437)scale(0.1 -0.1)">
       <use xlink:href="#DejaVuSans-30"/>
       <use xlink:href="#DejaVuSans-2e" x="63.623047"/>
       <use xlink:href="#DejaVuSans-30" x="95.410156"/>
       <use xlink:href="#DejaVuSans-30" x="159.033203"/>
      </g>
     </g>
    </g>
    <g id="xtick_6">
     <g id="line2d_6">
      <g>
       <use xlink:href="#mb8d5a7e851" x="276.741818" y="307.584" style="stroke: #000000; stroke-width: 0.8"/>
      </g>
     </g>
     <g id="text_6">
      <!-- 0.25 -->
      <g transform="translate(265.609006 322.182437)scale(0.1 -0.1)">
       <use xlink:href="#DejaVuSans-30"/>
       <use xlink:href="#DejaVuSans-2e" x="63.623047"/>
       <use xlink:href="#DejaVuSans-32" x="95.410156"/>
       <use xlink:href="#DejaVuSans-35" x="159.033203"/>
      </g>
     </g>
    </g>
    <g id="xtick_7">
     <g id="line2d_7">
      <g>
       <use xlink:href="#mb8d5a7e851" x="317.323636" y="307.584" style="stroke: #000000; stroke-width: 0.8"/>
      </g>
     </g>
     <g id="text_7">
      <!-- 0.50 -->
      <g transform="translate(306.190824 322.182437)scale(0.1 -0.1)">
       <use xlink:href="#DejaVuSans-30"/>
       <use xlink:href="#DejaVuSans-2e" x="63.623047"/>
       <use xlink:href="#DejaVuSans-35" x="95.410156"/>
       <use xlink:href="#DejaVuSans-30" x="159.033203"/>
      </g>
     </g>
    </g>
    <g id="xtick_8">
     <g id="line2d_8">
      <g>
       <use xlink:href="#mb8d5a7e851" x="357.905455" y="307.584" style="stroke: #000000; stroke-width: 0.8"/>
      </g>
     </g>
     <g id="text_8">
      <!-- 0.75 -->
      <g transform="translate(346.772642 322.182437)scale(0.1 -0.1)">
       <use xlink:href="#DejaVuSans-30"/>
       <use xlink:href="#DejaVuSans-2e" x="63.623047"/>
       <use xlink:href="#DejaVuSans-37" x="95.410156"/>
       <use xlink:href="#DejaVuSans-35" x="159.033203"/>
      </g>
     </g>
    </g>
    <g id="xtick_9">
     <g id="line2d_9">
      <g>
       <use xlink:href="#mb8d5a7e851" x="398.487273" y="307.584" style="stroke: #000000; stroke-width: 0.8"/>
      </g>
     </g>
     <g id="text_9">
      <!-- 1.00 -->
      <g transform="translate(387.35446 322.182437)scale(0.1 -0.1)">
       <use xlink:href="#DejaVuSans-31"/>
       <use xlink:href="#DejaVuSans-2e" x="63.623047"/>
       <use xlink:href="#DejaVuSans-30" x="95.410156"/>
       <use xlink:href="#DejaVuSans-30" x="159.033203"/>
      </g>
     </g>
    </g>
    <g id="text_10">
     <!-- x -->
     <g transform="translate(233.200625 335.860562)scale(0.1 -0.1)">
      <defs>
       <path id="DejaVuSans-78" d="M 3513 3500 
L 2247 1797 
L 3578 0 
L 2900 0 
L 1881 1375 
L 863 0 
L 184 0 
L 1544 1831 
L 300 3500 
L 978 3500 
L 1906 2253 
L 2834 3500 
L 3513 3500 
z
" transform="scale(0.015625)"/>
      </defs>
      <use xlink:href="#DejaVuSans-78"/>
     </g>
    </g>
   </g>
   <g id="matplotlib.axis_2">
    <g id="ytick_1">
     <g id="line2d_10">
      <defs>
       <path id="mffac409e01" d="M 0 0 
L -3.5 0 
" style="stroke: #000000; stroke-width: 0.8"/>
      </defs>
      <g>
       <use xlink:href="#mffac409e01" x="57.6" y="295.488" style="stroke: #000000; stroke-width: 0.8"/>
      </g>
     </g>
     <g id="text_11">
      <!-- −6 -->
      <g transform="translate(35.857813 299.287219)scale(0.1 -0.1)">
       <defs>
        <path id="DejaVuSans-36" d="M 2113 2584 
Q 1688 2584 1439 2293 
Q 1191 2003 1191 1497 
Q 1191 994 1439 701 
Q 1688 409 2113 409 
Q 2538 409 2786 701 
Q 3034 994 3034 1497 
Q 3034 2003 2786 2293 
Q 2538 2584 2113 2584 
z
M 3366 4563 
L 3366 3988 
Q 3128 4100 2886 4159 
Q 2644 4219 2406 4219 
Q 1781 4219 1451 3797 
Q 1122 3375 1075 2522 
Q 1259 2794 1537 2939 
Q 1816 3084 2150 3084 
Q 2853 3084 3261 2657 
Q 3669 2231 3669 1497 
Q 3669 778 3244 343 
Q 2819 -91 2113 -91 
Q 1303 -91 875 529 
Q 447 1150 447 2328 
Q 447 3434 972 4092 
Q 1497 4750 2381 4750 
Q 2619 4750 2861 4703 
Q 3103 4656 3366 4563 
z
" transform="scale(0.015625)"/>
       </defs>
       <use xlink:href="#DejaVuSans-2212"/>
       <use xlink:href="#DejaVuSans-36" x="83.789062"/>
      </g>
     </g>
    </g>
    <g id="ytick_2">
     <g id="line2d_11">
      <g>
       <use xlink:href="#mffac409e01" x="57.6" y="247.104" style="stroke: #000000; stroke-width: 0.8"/>
      </g>
     </g>
     <g id="text_12">
      <!-- −4 -->
      <g transform="translate(35.857813 250.903219)scale(0.1 -0.1)">
       <defs>
        <path id="DejaVuSans-34" d="M 2419 4116 
L 825 1625 
L 2419 1625 
L 2419 4116 
z
M 2253 4666 
L 3047 4666 
L 3047 1625 
L 3713 1625 
L 3713 1100 
L 3047 1100 
L 3047 0 
L 2419 0 
L 2419 1100 
L 313 1100 
L 313 1709 
L 2253 4666 
z
" transform="scale(0.015625)"/>
       </defs>
       <use xlink:href="#DejaVuSans-2212"/>
       <use xlink:href="#DejaVuSans-34" x="83.789062"/>
      </g>
     </g>
    </g>
    <g id="ytick_3">
     <g id="line2d_12">
      <g>
       <use xlink:href="#mffac409e01" x="57.6" y="198.72" style="stroke: #000000; stroke-width: 0.8"/>
      </g>
     </g>
     <g id="text_13">
      <!-- −2 -->
      <g transform="translate(35.857813 202.519219)scale(0.1 -0.1)">
       <use xlink:href="#DejaVuSans-2212"/>
       <use xlink:href="#DejaVuSans-32" x="83.789062"/>
      </g>
     </g>
    </g>
    <g id="ytick_4">
     <g id="line2d_13">
      <g>
       <use xlink:href="#mffac409e01" x="57.6" y="150.336" style="stroke: #000000; stroke-width: 0.8"/>
      </g>
     </g>
     <g id="text_14">
      <!-- 0 -->
      <g transform="translate(44.2375 154.135219)scale(0.1 -0.1)">
       <use xlink:href="#DejaVuSans-30"/>
      </g>
     </g>
    </g>
    <g id="ytick_5">
     <g id="line2d_14">
      <g>
       <use xlink:href="#mffac409e01" x="57.6" y="101.952" style="stroke: #000000; stroke-width: 0.8"/>
      </g>
     </g>
     <g id="text_15">
      <!-- 2 -->
      <g transform="translate(44.2375 105.751219)scale(0.1 -0.1)">
       <use xlink:href="#DejaVuSans-32"/>
      </g>
     </g>
    </g>
    <g id="ytick_6">
     <g id="line2d_15">
      <g>
       <use xlink:href="#mffac409e01" x="57.6" y="53.568" style="stroke: #000000; stroke-width: 0.8"/>
      </g>
     </g>
     <g id="text_16">
      <!-- 4 -->
      <g transform="translate(44.2375 57.367219)scale(0.1 -0.1)">
       <use xlink:href="#DejaVuSans-34"/>
      </g>
     </g>
    </g>
    <g id="text_17">
     <!-- $f_i$ -->
     <g transform="translate(29.778125 177.428)rotate(-90)scale(0.1 -0.1)">
      <defs>
       <path id="DejaVuSans-Oblique-66" d="M 3059 4863 
L 2969 4384 
L 2419 4384 
Q 2106 4384 1964 4261 
Q 1822 4138 1753 3809 
L 1691 3500 
L 2638 3500 
L 2553 3053 
L 1606 3053 
L 1013 0 
L 434 0 
L 1031 3053 
L 481 3053 
L 563 3500 
L 1113 3500 
L 1159 3744 
Q 1278 4363 1576 4613 
Q 1875 4863 2516 4863 
L 3059 4863 
z
" transform="scale(0.015625)"/>
       <path id="DejaVuSans-Oblique-69" d="M 1172 4863 
L 1747 4863 
L 1606 4134 
L 1031 4134 
L 1172 4863 
z
M 909 3500 
L 1484 3500 
L 800 0 
L 225 0 
L 909 3500 
z
" transform="scale(0.015625)"/>
      </defs>
      <use xlink:href="#DejaVuSans-Oblique-66" transform="translate(0 0.015625)"/>
      <use xlink:href="#DejaVuSans-Oblique-69" transform="translate(35.205078 -16.390625)scale(0.7)"/>
     </g>
    </g>
   </g>
   <g id="line2d_16">
    <path d="M 73.832727 53.568 
L 235.99751 101.903568 
L 236.32249 222.984649 
L 398.487273 295.488 
L 398.487273 295.488 
" clip-path="url(#p9248984cc9)" style="fill: none; stroke: #0000ff; stroke-width: 1.5; stroke-linecap: square"/>
   </g>
   <g id="line2d_17">
    <path d="M 73.840844 53.570419 
L 74.18702 53.673602 
L 74.533197 53.776785 
L 74.879374 53.879968 
L 75.225551 53.983151 
L 75.571728 54.086334 
L 75.917904 54.189517 
L 76.264081 54.2927 
L 76.610258 54.395883 
L 76.956435 54.499066 
L 77.302611 54.602249 
L 77.648788 54.705432 
L 77.994965 54.808615 
L 78.341142 54.911798 
L 78.687319 55.014981 
L 79.033495 55.118164 
L 79.379672 55.221347 
L 79.725849 55.32453 
L 80.072026 55.427713 
L 80.418203 55.530896 
L 80.764379 55.63408 
L 81.110556 55.737263 
L 81.456733 55.840446 
L 81.80291 55.943629 
L 82.149086 56.046812 
" clip-path="url(#p9248984cc9)" style="fill: none; stroke: #008000; stroke-width: 1.5; stroke-linecap: square"/>
   </g>
   <g id="line2d_18">
    <path d="M 82.165319 56.05165 
L 82.511496 56.154833 
L 82.857673 56.258016 
L 83.20385 56.361199 
L 83.550026 56.464382 
L 83.896203 56.567565 
L 84.24238 56.670748 
L 84.588557 56.773931 
L 84.934733 56.877114 
L 85.28091 56.980297 
L 85.627087 57.08348 
L 85.973264 57.186663 
L 86.319441 57.289846 
L 86.665617 57.393029 
L 87.011794 57.496212 
L 87.357971 57.599395 
L 87.704148 57.702578 
L 88.050324 57.805761 
L 88.396501 57.908944 
L 88.742678 58.012127 
L 89.088855 58.11531 
L 89.435032 58.218493 
L 89.781208 58.321676 
L 90.127385 58.424859 
L 90.473562 58.528042 
" clip-path="url(#p9248984cc9)" style="fill: none; stroke: #008000; stroke-width: 1.5; stroke-linecap: square"/>
   </g>
   <g id="line2d_19">
    <path d="M 90.489795 58.532881 
L 90.835971 58.636064 
L 91.182148 58.739247 
L 91.528325 58.84243 
L 91.874502 58.945613 
L 92.220679 59.048796 
L 92.566855 59.151979 
L 92.913032 59.255162 
L 93.259209 59.358345 
L 93.605386 59.461528 
L 93.951563 59.564711 
L 94.297739 59.667894 
L 94.643916 59.771077 
L 94.990093 59.87426 
L 95.33627 59.977443 
L 95.682446 60.080626 
L 96.028623 60.183809 
L 96.3748 60.286992 
L 96.720977 60.390175 
L 97.067154 60.493358 
L 97.41333 60.596541 
L 97.759507 60.699724 
L 98.105684 60.802907 
L 98.451861 60.90609 
L 98.798037 61.009273 
" clip-path="url(#p9248984cc9)" style="fill: none; stroke: #008000; stroke-width: 1.5; stroke-linecap: square"/>
   </g>
   <g id="line2d_20">
    <path d="M 98.81427 61.014112 
L 99.160447 61.117295 
L 99.506624 61.220478 
L 99.852801 61.323661 
L 100.198977 61.426844 
L 100.545154 61.530027 
L 100.891331 61.63321 
L 101.237508 61.736393 
L 101.583684 61.839576 
L 101.929861 61.942759 
L 102.276038 62.045942 
L 102.622215 62.149125 
L 102.968392 62.252308 
L 103.314568 62.355491 
L 103.660745 62.458674 
L 104.006922 62.561857 
L 104.353099 62.66504 
L 104.699276 62.768223 
L 105.045452 62.871406 
L 105.391629 62.974589 
L 105.737806 63.077772 
L 106.083983 63.180955 
L 106.430159 63.284138 
L 106.776336 63.387321 
L 107.122513 63.490504 
" clip-path="url(#p9248984cc9)" style="fill: none; stroke: #008000; stroke-width: 1.5; stroke-linecap: square"/>
   </g>
   <g id="line2d_21">
    <path d="M 107.138746 63.495342 
L 107.484923 63.598525 
L 107.831099 63.701708 
L 108.177276 63.804891 
L 108.523453 63.908074 
L 108.86963 64.011257 
L 109.215806 64.11444 
L 109.561983 64.217623 
L 109.90816 64.320806 
L 110.254337 64.423989 
L 110.600514 64.527172 
L 110.94669 64.630355 
L 111.292867 64.733538 
L 111.639044 64.836721 
L 111.985221 64.939904 
L 112.331397 65.043088 
L 112.677574 65.146271 
L 113.023751 65.249454 
L 113.369928 65.352637 
L 113.716105 65.45582 
L 114.062281 65.559003 
L 114.408458 65.662186 
L 114.754635 65.765369 
L 115.100812 65.868552 
L 115.446989 65.971735 
" clip-path="url(#p9248984cc9)" style="fill: none; stroke: #008000; stroke-width: 1.5; stroke-linecap: square"/>
   </g>
   <g id="line2d_22">
    <path d="M 115.463221 65.976573 
L 115.809398 66.079756 
L 116.155575 66.182939 
L 116.501752 66.286122 
L 116.847928 66.389305 
L 117.194105 66.492488 
L 117.540282 66.595671 
L 117.886459 66.698854 
L 118.232636 66.802037 
L 118.578812 66.90522 
L 118.924989 67.008403 
L 119.271166 67.111586 
L 119.617343 67.214769 
L 119.963519 67.317952 
L 120.309696 67.421135 
L 120.655873 67.524318 
L 121.00205 67.627501 
L 121.348227 67.730684 
L 121.694403 67.833867 
L 122.04058 67.93705 
L 122.386757 68.040233 
L 122.732934 68.143416 
L 123.07911 68.246599 
L 123.425287 68.349782 
L 123.771464 68.452965 
" clip-path="url(#p9248984cc9)" style="fill: none; stroke: #008000; stroke-width: 1.5; stroke-linecap: square"/>
   </g>
   <g id="line2d_23">
    <path d="M 123.787697 68.457804 
L 124.133874 68.560987 
L 124.48005 68.66417 
L 124.826227 68.767353 
L 125.172404 68.870536 
L 125.518581 68.973719 
L 125.864757 69.076902 
L 126.210934 69.180085 
L 126.557111 69.283268 
L 126.903288 69.386451 
L 127.249465 69.489634 
L 127.595641 69.592817 
L 127.941818 69.696 
L 128.287995 69.799183 
L 128.634172 69.902366 
L 128.980349 70.005549 
L 129.326525 70.108732 
L 129.672702 70.211915 
L 130.018879 70.315098 
L 130.365056 70.418281 
L 130.711232 70.521464 
L 131.057409 70.624647 
L 131.403586 70.72783 
L 131.749763 70.831013 
L 132.09594 70.934196 
" clip-path="url(#p9248984cc9)" style="fill: none; stroke: #008000; stroke-width: 1.5; stroke-linecap: square"/>
   </g>
   <g id="line2d_24">
    <path d="M 132.112172 70.939035 
L 132.458349 71.042218 
L 132.804526 71.145401 
L 133.150703 71.248584 
L 133.496879 71.351767 
L 133.843056 71.45495 
L 134.189233 71.558133 
L 134.53541 71.661316 
L 134.881587 71.764499 
L 135.227763 71.867682 
L 135.57394 71.970865 
L 135.920117 72.074048 
L 136.266294 72.177231 
L 136.61247 72.280414 
L 136.958647 72.383597 
L 137.304824 72.48678 
L 137.651001 72.589963 
L 137.997178 72.693146 
L 138.343354 72.796329 
L 138.689531 72.899512 
L 139.035708 73.002695 
L 139.381885 73.105878 
L 139.728062 73.209061 
L 140.074238 73.312244 
L 140.420415 73.415427 
" clip-path="url(#p9248984cc9)" style="fill: none; stroke: #008000; stroke-width: 1.5; stroke-linecap: square"/>
   </g>
   <g id="line2d_25">
    <path d="M 140.436648 73.420265 
L 140.782825 73.523448 
L 141.129001 73.626631 
L 141.475178 73.729814 
L 141.821355 73.832997 
L 142.167532 73.93618 
L 142.513709 74.039363 
L 142.859885 74.142546 
L 143.206062 74.245729 
L 143.552239 74.348912 
L 143.898416 74.452096 
L 144.244592 74.555279 
L 144.590769 74.658462 
L 144.936946 74.761645 
L 145.283123 74.864828 
L 145.6293 74.968011 
L 145.975476 75.071194 
L 146.321653 75.174377 
L 146.66783 75.27756 
L 147.014007 75.380743 
L 147.360183 75.483926 
L 147.70636 75.587109 
L 148.052537 75.690292 
L 148.398714 75.793475 
L 148.744891 75.896658 
" clip-path="url(#p9248984cc9)" style="fill: none; stroke: #008000; stroke-width: 1.5; stroke-linecap: square"/>
   </g>
   <g id="line2d_26">
    <path d="M 148.761123 75.901496 
L 149.1073 76.004679 
L 149.453477 76.107862 
L 149.799654 76.211045 
L 150.14583 76.314228 
L 150.492007 76.417411 
L 150.838184 76.520594 
L 151.184361 76.623777 
L 151.530538 76.72696 
L 151.876714 76.830143 
L 152.222891 76.933326 
L 152.569068 77.036509 
L 152.915245 77.139692 
L 153.261422 77.242875 
L 153.607598 77.346058 
L 153.953775 77.449241 
L 154.299952 77.552424 
L 154.646129 77.655607 
L 154.992305 77.75879 
L 155.338482 77.861973 
L 155.684659 77.965156 
L 156.030836 78.068339 
L 156.377013 78.171522 
L 156.723189 78.274705 
L 157.069366 78.377888 
" clip-path="url(#p9248984cc9)" style="fill: none; stroke: #008000; stroke-width: 1.5; stroke-linecap: square"/>
   </g>
   <g id="line2d_27">
    <path d="M 157.085599 78.382727 
L 157.431776 78.48591 
L 157.777952 78.589093 
L 158.124129 78.692276 
L 158.470306 78.795459 
L 158.816483 78.898642 
L 159.16266 79.001825 
L 159.508836 79.105008 
L 159.855013 79.208191 
L 160.20119 79.311374 
L 160.547367 79.414557 
L 160.893543 79.51774 
L 161.23972 79.620923 
L 161.585897 79.724106 
L 161.932074 79.827289 
L 162.278251 79.930472 
L 162.624427 80.033655 
L 162.970604 80.136838 
L 163.316781 80.240021 
L 163.662958 80.343204 
L 164.009135 80.446387 
L 164.355311 80.54957 
L 164.701488 80.652753 
L 165.047665 80.755936 
L 165.393842 80.859119 
" clip-path="url(#p9248984cc9)" style="fill: none; stroke: #008000; stroke-width: 1.5; stroke-linecap: square"/>
   </g>
   <g id="line2d_28">
    <path d="M 165.410074 80.863958 
L 165.756251 80.967141 
L 166.102428 81.070324 
L 166.448605 81.173507 
L 166.794782 81.27669 
L 167.140958 81.379873 
L 167.487135 81.483056 
L 167.833312 81.586239 
L 168.179489 81.689422 
L 168.525665 81.792605 
L 168.871842 81.895788 
L 169.218019 81.998971 
L 169.564196 82.102154 
L 169.910373 82.205337 
L 170.256549 82.30852 
L 170.602726 82.411703 
L 170.948903 82.514886 
L 171.29508 82.618069 
L 171.641257 82.721252 
L 171.987433 82.824435 
L 172.33361 82.927618 
L 172.679787 83.030801 
L 173.025964 83.133984 
L 173.37214 83.237167 
L 173.718317 83.34035 
" clip-path="url(#p9248984cc9)" style="fill: none; stroke: #008000; stroke-width: 1.5; stroke-linecap: square"/>
   </g>
   <g id="line2d_29">
    <path d="M 173.73455 83.345188 
L 174.080727 83.448371 
L 174.426903 83.551554 
L 174.77308 83.654737 
L 175.119257 83.75792 
L 175.465434 83.861104 
L 175.811611 83.964287 
L 176.157787 84.06747 
L 176.503964 84.170653 
L 176.850141 84.273836 
L 177.196318 84.377019 
L 177.542495 84.480202 
L 177.888671 84.583385 
L 178.234848 84.686568 
L 178.581025 84.789751 
L 178.927202 84.892934 
L 179.273378 84.996117 
L 179.619555 85.0993 
L 179.965732 85.202483 
L 180.311909 85.305666 
L 180.658086 85.408849 
L 181.004262 85.512032 
L 181.350439 85.615215 
L 181.696616 85.718398 
L 182.042793 85.821581 
" clip-path="url(#p9248984cc9)" style="fill: none; stroke: #008000; stroke-width: 1.5; stroke-linecap: square"/>
   </g>
   <g id="line2d_30">
    <path d="M 182.059025 85.826419 
L 182.405202 85.929602 
L 182.751379 86.032785 
L 183.097556 86.135968 
L 183.443733 86.239151 
L 183.789909 86.342334 
L 184.136086 86.445517 
L 184.482263 86.5487 
L 184.82844 86.651883 
L 185.174617 86.755066 
L 185.520793 86.858249 
L 185.86697 86.961432 
L 186.213147 87.064615 
L 186.559324 87.167798 
L 186.9055 87.270981 
L 187.251677 87.374164 
L 187.597854 87.477347 
L 187.944031 87.58053 
L 188.290208 87.683713 
L 188.636384 87.786896 
L 188.982561 87.89008 
L 189.328738 87.993263 
L 189.674915 88.096446 
L 190.021091 88.199629 
L 190.367268 88.302812 
" clip-path="url(#p9248984cc9)" style="fill: none; stroke: #008000; stroke-width: 1.5; stroke-linecap: square"/>
   </g>
   <g id="line2d_31">
    <path d="M 190.383501 88.30765 
L 190.729678 88.410833 
L 191.075855 88.514016 
L 191.422031 88.617199 
L 191.768208 88.720382 
L 192.114385 88.823565 
L 192.460562 88.926748 
L 192.806738 89.029931 
L 193.152915 89.133114 
L 193.499092 89.236297 
L 193.845269 89.33948 
L 194.191446 89.442663 
L 194.537622 89.545846 
L 194.883799 89.649029 
L 195.229976 89.752212 
L 195.576153 89.855395 
L 195.92233 89.958578 
L 196.268506 90.061761 
L 196.614683 90.164944 
L 196.96086 90.268127 
L 197.307037 90.37131 
L 197.653213 90.474493 
L 197.99939 90.577676 
L 198.345567 90.680859 
L 198.691744 90.784042 
" clip-path="url(#p9248984cc9)" style="fill: none; stroke: #008000; stroke-width: 1.5; stroke-linecap: square"/>
   </g>
   <g id="line2d_32">
    <path d="M 198.707977 90.788881 
L 199.054153 90.892064 
L 199.40033 90.995247 
L 199.746507 91.09843 
L 200.092684 91.201613 
L 200.43886 91.304796 
L 200.785037 91.407979 
L 201.131214 91.511162 
L 201.477391 91.614345 
L 201.823568 91.717528 
L 202.169744 91.820711 
L 202.515921 91.923894 
L 202.862098 92.027077 
L 203.208275 92.13026 
L 203.554451 92.233443 
L 203.900628 92.336626 
L 204.246805 92.439809 
L 204.592982 92.542992 
L 204.939159 92.646175 
L 205.285335 92.749358 
L 205.631512 92.852541 
L 205.977689 92.955724 
L 206.323866 93.058907 
L 206.670043 93.16209 
L 207.016219 93.265273 
" clip-path="url(#p9248984cc9)" style="fill: none; stroke: #008000; stroke-width: 1.5; stroke-linecap: square"/>
   </g>
   <g id="line2d_33">
    <path d="M 207.032452 93.270112 
L 207.378629 93.373295 
L 207.724806 93.476478 
L 208.070982 93.579661 
L 208.417159 93.682844 
L 208.763336 93.786027 
L 209.109513 93.88921 
L 209.45569 93.992393 
L 209.801866 94.095576 
L 210.148043 94.198759 
L 210.49422 94.301942 
L 210.840397 94.405125 
L 211.186573 94.508308 
L 211.53275 94.611491 
L 211.878927 94.714674 
L 212.225104 94.817857 
L 212.571281 94.92104 
L 212.917457 95.024223 
L 213.263634 95.127406 
L 213.609811 95.230589 
L 213.955988 95.333772 
L 214.302164 95.436955 
L 214.648341 95.540138 
L 214.994518 95.643321 
L 215.340695 95.746504 
" clip-path="url(#p9248984cc9)" style="fill: none; stroke: #008000; stroke-width: 1.5; stroke-linecap: square"/>
   </g>
   <g id="line2d_34">
    <path d="M 215.356928 95.751342 
L 215.703104 95.854525 
L 216.049281 95.957708 
L 216.395458 96.060891 
L 216.741635 96.164074 
L 217.087811 96.267257 
L 217.433988 96.37044 
L 217.780165 96.473623 
L 218.126342 96.576806 
L 218.472519 96.679989 
L 218.818695 96.783172 
L 219.164872 96.886355 
L 219.511049 96.989538 
L 219.857226 97.092721 
L 220.203403 97.195904 
L 220.549579 97.299088 
L 220.895756 97.402271 
L 221.241933 97.505454 
L 221.58811 97.608637 
L 221.934286 97.71182 
L 222.280463 97.815003 
L 222.62664 97.918186 
L 222.972817 98.021369 
L 223.318994 98.124552 
L 223.66517 98.227735 
" clip-path="url(#p9248984cc9)" style="fill: none; stroke: #008000; stroke-width: 1.5; stroke-linecap: square"/>
   </g>
   <g id="line2d_35">
    <path d="M 223.681403 96.994377 
L 224.02758 97.200743 
L 224.373757 97.407109 
L 224.719933 97.613475 
L 225.06611 97.819841 
L 225.412287 98.026207 
L 225.758464 98.232573 
L 226.104641 98.438939 
L 226.450817 98.645305 
L 226.796994 98.851671 
L 227.143171 99.058037 
L 227.489348 99.264403 
L 227.835524 99.470769 
L 228.181701 99.677135 
L 228.527878 99.883501 
L 228.874055 100.089867 
L 229.220232 100.296233 
L 229.566408 100.502599 
L 229.912585 100.708965 
L 230.258762 100.915331 
L 230.604939 101.121697 
L 230.951116 101.328064 
L 231.297292 101.53443 
L 231.643469 101.740796 
L 231.989646 101.947162 
" clip-path="url(#p9248984cc9)" style="fill: none; stroke: #008000; stroke-width: 1.5; stroke-linecap: square"/>
   </g>
   <g id="line2d_36">
    <path d="M 232.005879 101.957745 
L 233.319895 102.08686 
L 233.768989 102.347855 
L 234.093335 102.811588 
L 234.384415 103.669489 
L 234.667178 105.293772 
L 234.949941 108.371493 
L 235.24102 114.211943 
L 235.565366 125.822367 
L 235.972877 149.800997 
L 236.871066 204.758994 
L 237.261944 215.10064 
L 237.627873 219.541984 
L 237.985485 221.461473 
L 238.343097 222.293413 
L 238.733975 222.669391 
L 239.257918 222.843001 
L 240.314121 222.906542 
L 240.314121 222.906542 
" clip-path="url(#p9248984cc9)" style="fill: none; stroke: #008000; stroke-width: 1.5; stroke-linecap: square"/>
   </g>
   <g id="line2d_37">
    <path d="M 240.330354 222.919258 
L 240.676531 223.228807 
L 241.022708 223.538356 
L 241.368884 223.847905 
L 241.715061 224.157454 
L 242.061238 224.467003 
L 242.407415 224.776552 
L 242.753592 225.086101 
L 243.099768 225.39565 
L 243.445945 225.705199 
L 243.792122 226.014748 
L 244.138299 226.324297 
L 244.484476 226.633846 
L 244.830652 226.943395 
L 245.176829 227.252944 
L 245.523006 227.562493 
L 245.869183 227.872042 
L 246.215359 228.181591 
L 246.561536 228.49114 
L 246.907713 228.800689 
L 247.25389 229.110239 
L 247.600067 229.419788 
L 247.946243 229.729337 
L 248.29242 230.038886 
L 248.638597 230.348435 
" clip-path="url(#p9248984cc9)" style="fill: none; stroke: #008000; stroke-width: 1.5; stroke-linecap: square"/>
   </g>
   <g id="line2d_38">
    <path d="M 248.65483 228.498398 
L 249.001006 228.653173 
L 249.347183 228.807947 
L 249.69336 228.962722 
L 250.039537 229.117496 
L 250.385714 229.272271 
L 250.73189 229.427045 
L 251.078067 229.58182 
L 251.424244 229.736594 
L 251.770421 229.891369 
L 252.116597 230.046143 
L 252.462774 230.200918 
L 252.808951 230.355692 
L 253.155128 230.510467 
L 253.501305 230.665241 
L 253.847481 230.820016 
L 254.193658 230.97479 
L 254.539835 231.129565 
L 254.886012 231.284339 
L 255.232189 231.439114 
L 255.578365 231.593888 
L 255.924542 231.748663 
L 256.270719 231.903438 
L 256.616896 232.058212 
L 256.963072 232.212987 
" clip-path="url(#p9248984cc9)" style="fill: none; stroke: #008000; stroke-width: 1.5; stroke-linecap: square"/>
   </g>
   <g id="line2d_39">
    <path d="M 256.979305 232.220244 
L 257.325482 232.375019 
L 257.671659 232.529793 
L 258.017836 232.684568 
L 258.364012 232.839342 
L 258.710189 232.994117 
L 259.056366 233.148891 
L 259.402543 233.303666 
L 259.748719 233.45844 
L 260.094896 233.613215 
L 260.441073 233.767989 
L 260.78725 233.922764 
L 261.133427 234.077538 
L 261.479603 234.232313 
L 261.82578 234.387088 
L 262.171957 234.541862 
L 262.518134 234.696637 
L 262.86431 234.851411 
L 263.210487 235.006186 
L 263.556664 235.16096 
L 263.902841 235.315735 
L 264.249018 235.470509 
L 264.595194 235.625284 
L 264.941371 235.780058 
L 265.287548 235.934833 
" clip-path="url(#p9248984cc9)" style="fill: none; stroke: #008000; stroke-width: 1.5; stroke-linecap: square"/>
   </g>
   <g id="line2d_40">
    <path d="M 265.303781 235.94209 
L 265.649957 236.096865 
L 265.996134 236.251639 
L 266.342311 236.406414 
L 266.688488 236.561188 
L 267.034665 236.715963 
L 267.380841 236.870737 
L 267.727018 237.025512 
L 268.073195 237.180287 
L 268.419372 237.335061 
L 268.765549 237.489836 
L 269.111725 237.64461 
L 269.457902 237.799385 
L 269.804079 237.954159 
L 270.150256 238.108934 
L 270.496432 238.263708 
L 270.842609 238.418483 
L 271.188786 238.573257 
L 271.534963 238.728032 
L 271.88114 238.882806 
L 272.227316 239.037581 
L 272.573493 239.192355 
L 272.91967 239.34713 
L 273.265847 239.501904 
L 273.612023 239.656679 
" clip-path="url(#p9248984cc9)" style="fill: none; stroke: #008000; stroke-width: 1.5; stroke-linecap: square"/>
   </g>
   <g id="line2d_41">
    <path d="M 273.628256 239.663936 
L 273.974433 239.818711 
L 274.32061 239.973486 
L 274.666787 240.12826 
L 275.012963 240.283035 
L 275.35914 240.437809 
L 275.705317 240.592584 
L 276.051494 240.747358 
L 276.39767 240.902133 
L 276.743847 241.056907 
L 277.090024 241.211682 
L 277.436201 241.366456 
L 277.782378 241.521231 
L 278.128554 241.676005 
L 278.474731 241.83078 
L 278.820908 241.985554 
L 279.167085 242.140329 
L 279.513262 242.295103 
L 279.859438 242.449878 
L 280.205615 242.604652 
L 280.551792 242.759427 
L 280.897969 242.914201 
L 281.244145 243.068976 
L 281.590322 243.223751 
L 281.936499 243.378525 
" clip-path="url(#p9248984cc9)" style="fill: none; stroke: #008000; stroke-width: 1.5; stroke-linecap: square"/>
   </g>
   <g id="line2d_42">
    <path d="M 281.952732 243.385783 
L 282.298909 243.540557 
L 282.645085 243.695332 
L 282.991262 243.850106 
L 283.337439 244.004881 
L 283.683616 244.159655 
L 284.029792 244.31443 
L 284.375969 244.469204 
L 284.722146 244.623979 
L 285.068323 244.778753 
L 285.4145 244.933528 
L 285.760676 245.088302 
L 286.106853 245.243077 
L 286.45303 245.397851 
L 286.799207 245.552626 
L 287.145383 245.7074 
L 287.49156 245.862175 
L 287.837737 246.01695 
L 288.183914 246.171724 
L 288.530091 246.326499 
L 288.876267 246.481273 
L 289.222444 246.636048 
L 289.568621 246.790822 
L 289.914798 246.945597 
L 290.260975 247.100371 
" clip-path="url(#p9248984cc9)" style="fill: none; stroke: #008000; stroke-width: 1.5; stroke-linecap: square"/>
   </g>
   <g id="line2d_43">
    <path d="M 290.277207 247.107629 
L 290.623384 247.262403 
L 290.969561 247.417178 
L 291.315738 247.571952 
L 291.661914 247.726727 
L 292.008091 247.881501 
L 292.354268 248.036276 
L 292.700445 248.19105 
L 293.046622 248.345825 
L 293.392798 248.5006 
L 293.738975 248.655374 
L 294.085152 248.810149 
L 294.431329 248.964923 
L 294.777505 249.119698 
L 295.123682 249.274472 
L 295.469859 249.429247 
L 295.816036 249.584021 
L 296.162213 249.738796 
L 296.508389 249.89357 
L 296.854566 250.048345 
L 297.200743 250.203119 
L 297.54692 250.357894 
L 297.893097 250.512668 
L 298.239273 250.667443 
L 298.58545 250.822217 
" clip-path="url(#p9248984cc9)" style="fill: none; stroke: #008000; stroke-width: 1.5; stroke-linecap: square"/>
   </g>
   <g id="line2d_44">
    <path d="M 298.601683 250.829475 
L 298.94786 250.984249 
L 299.294036 251.139024 
L 299.640213 251.293799 
L 299.98639 251.448573 
L 300.332567 251.603348 
L 300.678743 251.758122 
L 301.02492 251.912897 
L 301.371097 252.067671 
L 301.717274 252.222446 
L 302.063451 252.37722 
L 302.409627 252.531995 
L 302.755804 252.686769 
L 303.101981 252.841544 
L 303.448158 252.996318 
L 303.794335 253.151093 
L 304.140511 253.305867 
L 304.486688 253.460642 
L 304.832865 253.615416 
L 305.179042 253.770191 
L 305.525218 253.924965 
L 305.871395 254.07974 
L 306.217572 254.234514 
L 306.563749 254.389289 
L 306.909926 254.544064 
" clip-path="url(#p9248984cc9)" style="fill: none; stroke: #008000; stroke-width: 1.5; stroke-linecap: square"/>
   </g>
   <g id="line2d_45">
    <path d="M 306.926158 254.551321 
L 307.272335 254.706096 
L 307.618512 254.86087 
L 307.964689 255.015645 
L 308.310865 255.170419 
L 308.657042 255.325194 
L 309.003219 255.479968 
L 309.349396 255.634743 
L 309.695573 255.789517 
L 310.041749 255.944292 
L 310.387926 256.099066 
L 310.734103 256.253841 
L 311.08028 256.408615 
L 311.426457 256.56339 
L 311.772633 256.718164 
L 312.11881 256.872939 
L 312.464987 257.027713 
L 312.811164 257.182488 
L 313.15734 257.337263 
L 313.503517 257.492037 
L 313.849694 257.646812 
L 314.195871 257.801586 
L 314.542048 257.956361 
L 314.888224 258.111135 
L 315.234401 258.26591 
" clip-path="url(#p9248984cc9)" style="fill: none; stroke: #008000; stroke-width: 1.5; stroke-linecap: square"/>
   </g>
   <g id="line2d_46">
    <path d="M 315.250634 258.273167 
L 315.596811 258.427942 
L 315.942987 258.582716 
L 316.289164 258.737491 
L 316.635341 258.892265 
L 316.981518 259.04704 
L 317.327695 259.201814 
L 317.673871 259.356589 
L 318.020048 259.511363 
L 318.366225 259.666138 
L 318.712402 259.820912 
L 319.058578 259.975687 
L 319.404755 260.130462 
L 319.750932 260.285236 
L 320.097109 260.440011 
L 320.443286 260.594785 
L 320.789462 260.74956 
L 321.135639 260.904334 
L 321.481816 261.059109 
L 321.827993 261.213883 
L 322.17417 261.368658 
L 322.520346 261.523432 
L 322.866523 261.678207 
L 323.2127 261.832981 
L 323.558877 261.987756 
" clip-path="url(#p9248984cc9)" style="fill: none; stroke: #008000; stroke-width: 1.5; stroke-linecap: square"/>
   </g>
   <g id="line2d_47">
    <path d="M 323.575109 261.995013 
L 323.921286 262.149788 
L 324.267463 262.304562 
L 324.61364 262.459337 
L 324.959817 262.614112 
L 325.305993 262.768886 
L 325.65217 262.923661 
L 325.998347 263.078435 
L 326.344524 263.23321 
L 326.6907 263.387984 
L 327.036877 263.542759 
L 327.383054 263.697533 
L 327.729231 263.852308 
L 328.075408 264.007082 
L 328.421584 264.161857 
L 328.767761 264.316631 
L 329.113938 264.471406 
L 329.460115 264.62618 
L 329.806291 264.780955 
L 330.152468 264.935729 
L 330.498645 265.090504 
L 330.844822 265.245278 
L 331.190999 265.400053 
L 331.537175 265.554827 
L 331.883352 265.709602 
" clip-path="url(#p9248984cc9)" style="fill: none; stroke: #008000; stroke-width: 1.5; stroke-linecap: square"/>
   </g>
   <g id="line2d_48">
    <path d="M 331.899585 265.71686 
L 332.245762 265.871634 
L 332.591938 266.026409 
L 332.938115 266.181183 
L 333.284292 266.335958 
L 333.630469 266.490732 
L 333.976646 266.645507 
L 334.322822 266.800281 
L 334.668999 266.955056 
L 335.015176 267.10983 
L 335.361353 267.264605 
L 335.70753 267.419379 
L 336.053706 267.574154 
L 336.399883 267.728928 
L 336.74606 267.883703 
L 337.092237 268.038477 
L 337.438413 268.193252 
L 337.78459 268.348026 
L 338.130767 268.502801 
L 338.476944 268.657576 
L 338.823121 268.81235 
L 339.169297 268.967125 
L 339.515474 269.121899 
L 339.861651 269.276674 
L 340.207828 269.431448 
" clip-path="url(#p9248984cc9)" style="fill: none; stroke: #008000; stroke-width: 1.5; stroke-linecap: square"/>
   </g>
   <g id="line2d_49">
    <path d="M 340.22406 269.438706 
L 340.570237 269.59348 
L 340.916414 269.748255 
L 341.262591 269.903029 
L 341.608768 270.057804 
L 341.954944 270.212578 
L 342.301121 270.367353 
L 342.647298 270.522127 
L 342.993475 270.676902 
L 343.339651 270.831676 
L 343.685828 270.986451 
L 344.032005 271.141225 
L 344.378182 271.296 
L 344.724359 271.450775 
L 345.070535 271.605549 
L 345.416712 271.760324 
L 345.762889 271.915098 
L 346.109066 272.069873 
L 346.455243 272.224647 
L 346.801419 272.379422 
L 347.147596 272.534196 
L 347.493773 272.688971 
L 347.83995 272.843745 
L 348.186126 272.99852 
L 348.532303 273.153294 
" clip-path="url(#p9248984cc9)" style="fill: none; stroke: #008000; stroke-width: 1.5; stroke-linecap: square"/>
   </g>
   <g id="line2d_50">
    <path d="M 348.548536 273.160552 
L 348.894713 273.315326 
L 349.24089 273.470101 
L 349.587066 273.624875 
L 349.933243 273.77965 
L 350.27942 273.934424 
L 350.625597 274.089199 
L 350.971773 274.243974 
L 351.31795 274.398748 
L 351.664127 274.553523 
L 352.010304 274.708297 
L 352.356481 274.863072 
L 352.702657 275.017846 
L 353.048834 275.172621 
L 353.395011 275.327395 
L 353.741188 275.48217 
L 354.087364 275.636944 
L 354.433541 275.791719 
L 354.779718 275.946493 
L 355.125895 276.101268 
L 355.472072 276.256042 
L 355.818248 276.410817 
L 356.164425 276.565591 
L 356.510602 276.720366 
L 356.856779 276.87514 
" clip-path="url(#p9248984cc9)" style="fill: none; stroke: #008000; stroke-width: 1.5; stroke-linecap: square"/>
   </g>
   <g id="line2d_51">
    <path d="M 356.873011 276.882398 
L 357.219188 277.037173 
L 357.565365 277.191947 
L 357.911542 277.346722 
L 358.257719 277.501496 
L 358.603895 277.656271 
L 358.950072 277.811045 
L 359.296249 277.96582 
L 359.642426 278.120594 
L 359.988603 278.275369 
L 360.334779 278.430143 
L 360.680956 278.584918 
L 361.027133 278.739692 
L 361.37331 278.894467 
L 361.719486 279.049241 
L 362.065663 279.204016 
L 362.41184 279.35879 
L 362.758017 279.513565 
L 363.104194 279.668339 
L 363.45037 279.823114 
L 363.796547 279.977888 
L 364.142724 280.132663 
L 364.488901 280.287438 
L 364.835077 280.442212 
L 365.181254 280.596987 
" clip-path="url(#p9248984cc9)" style="fill: none; stroke: #008000; stroke-width: 1.5; stroke-linecap: square"/>
   </g>
   <g id="line2d_52">
    <path d="M 365.197487 280.604244 
L 365.543664 280.759019 
L 365.889841 280.913793 
L 366.236017 281.068568 
L 366.582194 281.223342 
L 366.928371 281.378117 
L 367.274548 281.532891 
L 367.620724 281.687666 
L 367.966901 281.84244 
L 368.313078 281.997215 
L 368.659255 282.151989 
L 369.005432 282.306764 
L 369.351608 282.461538 
L 369.697785 282.616313 
L 370.043962 282.771088 
L 370.390139 282.925862 
L 370.736316 283.080637 
L 371.082492 283.235411 
L 371.428669 283.390186 
L 371.774846 283.54496 
L 372.121023 283.699735 
L 372.467199 283.854509 
L 372.813376 284.009284 
L 373.159553 284.164058 
L 373.50573 284.318833 
" clip-path="url(#p9248984cc9)" style="fill: none; stroke: #008000; stroke-width: 1.5; stroke-linecap: square"/>
   </g>
   <g id="line2d_53">
    <path d="M 373.521963 284.32609 
L 373.868139 284.480865 
L 374.214316 284.635639 
L 374.560493 284.790414 
L 374.90667 284.945188 
L 375.252846 285.099963 
L 375.599023 285.254737 
L 375.9452 285.409512 
L 376.291377 285.564287 
L 376.637554 285.719061 
L 376.98373 285.873836 
L 377.329907 286.02861 
L 377.676084 286.183385 
L 378.022261 286.338159 
L 378.368437 286.492934 
L 378.714614 286.647708 
L 379.060791 286.802483 
L 379.406968 286.957257 
L 379.753145 287.112032 
L 380.099321 287.266806 
L 380.445498 287.421581 
L 380.791675 287.576355 
L 381.137852 287.73113 
L 381.484029 287.885904 
L 381.830205 288.040679 
" clip-path="url(#p9248984cc9)" style="fill: none; stroke: #008000; stroke-width: 1.5; stroke-linecap: square"/>
   </g>
   <g id="line2d_54">
    <path d="M 381.846438 288.047936 
L 382.192615 288.202711 
L 382.538792 288.357486 
L 382.884968 288.51226 
L 383.231145 288.667035 
L 383.577322 288.821809 
L 383.923499 288.976584 
L 384.269676 289.131358 
L 384.615852 289.286133 
L 384.962029 289.440907 
L 385.308206 289.595682 
L 385.654383 289.750456 
L 386.000559 289.905231 
L 386.346736 290.060005 
L 386.692913 290.21478 
L 387.03909 290.369554 
L 387.385267 290.524329 
L 387.731443 290.679103 
L 388.07762 290.833878 
L 388.423797 290.988652 
L 388.769974 291.143427 
L 389.11615 291.298201 
L 389.462327 291.452976 
L 389.808504 291.607751 
L 390.154681 291.762525 
" clip-path="url(#p9248984cc9)" style="fill: none; stroke: #008000; stroke-width: 1.5; stroke-linecap: square"/>
   </g>
   <g id="line2d_55">
    <path d="M 390.170914 291.769783 
L 390.51709 291.924557 
L 390.863267 292.079332 
L 391.209444 292.234106 
L 391.555621 292.388881 
L 391.901797 292.543655 
L 392.247974 292.69843 
L 392.594151 292.853204 
L 392.940328 293.007979 
L 393.286505 293.162753 
L 393.632681 293.317528 
L 393.978858 293.472302 
L 394.325035 293.627077 
L 394.671212 293.781851 
L 395.017389 293.936626 
L 395.363565 294.0914 
L 395.709742 294.246175 
L 396.055919 294.40095 
L 396.402096 294.555724 
L 396.748272 294.710499 
L 397.094449 294.865273 
L 397.440626 295.020048 
L 397.786803 295.174822 
L 398.13298 295.329597 
L 398.479156 295.484371 
" clip-path="url(#p9248984cc9)" style="fill: none; stroke: #008000; stroke-width: 1.5; stroke-linecap: square"/>
   </g>
   <g id="patch_3">
    <path d="M 57.6 307.584 
L 57.6 41.472 
" style="fill: none; stroke: #000000; stroke-width: 0.8; stroke-linejoin: miter; stroke-linecap: square"/>
   </g>
   <g id="patch_4">
    <path d="M 414.72 307.584 
L 414.72 41.472 
" style="fill: none; stroke: #000000; stroke-width: 0.8; stroke-linejoin: miter; stroke-linecap: square"/>
   </g>
   <g id="patch_5">
    <path d="M 57.6 307.584 
L 414.72 307.584 
" style="fill: none; stroke: #000000; stroke-width: 0.8; stroke-linejoin: miter; stroke-linecap: square"/>
   </g>
   <g id="patch_6">
    <path d="M 57.6 41.472 
L 414.72 41.472 
" style="fill: none; stroke: #000000; stroke-width: 0.8; stroke-linejoin: miter; stroke-linecap: square"/>
   </g>
   <g id="legend_1">
    <g id="patch_7">
     <path d="M 64.6 93.906375 
L 210.795312 93.906375 
Q 212.795312 93.906375 212.795312 91.906375 
L 212.795312 48.472 
Q 212.795312 46.472 210.795312 46.472 
L 64.6 46.472 
Q 62.6 46.472 62.6 48.472 
L 62.6 91.906375 
Q 62.6 93.906375 64.6 93.906375 
z
" style="fill: #ffffff; opacity: 0.8; stroke: #cccccc; stroke-linejoin: miter"/>
    </g>
    <g id="line2d_56">
     <path d="M 66.6 54.570437 
L 76.6 54.570437 
L 86.6 54.570437 
" style="fill: none; stroke: #0000ff; stroke-width: 1.5; stroke-linecap: square"/>
    </g>
    <g id="text_18">
     <!-- Původní funkce -->
     <g transform="translate(94.6 58.070437)scale(0.1 -0.1)">
      <defs>
       <path id="DejaVuSans-50" d="M 1259 4147 
L 1259 2394 
L 2053 2394 
Q 2494 2394 2734 2622 
Q 2975 2850 2975 3272 
Q 2975 3691 2734 3919 
Q 2494 4147 2053 4147 
L 1259 4147 
z
M 628 4666 
L 2053 4666 
Q 2838 4666 3239 4311 
Q 3641 3956 3641 3272 
Q 3641 2581 3239 2228 
Q 2838 1875 2053 1875 
L 1259 1875 
L 1259 0 
L 628 0 
L 628 4666 
z
" transform="scale(0.015625)"/>
       <path id="DejaVuSans-16f" d="M 544 1381 
L 544 3500 
L 1119 3500 
L 1119 1403 
Q 1119 906 1312 657 
Q 1506 409 1894 409 
Q 2359 409 2629 706 
Q 2900 1003 2900 1516 
L 2900 3500 
L 3475 3500 
L 3475 0 
L 2900 0 
L 2900 538 
Q 2691 219 2414 64 
Q 2138 -91 1772 -91 
Q 1169 -91 856 284 
Q 544 659 544 1381 
z
M 1991 3584 
L 1991 3584 
z
M 2463 4575 
Q 2463 4771 2325 4908 
Q 2188 5046 1988 5046 
Q 1784 5046 1648 4910 
Q 1513 4775 1513 4575 
Q 1513 4371 1648 4235 
Q 1784 4100 1988 4100 
Q 2188 4100 2325 4237 
Q 2463 4375 2463 4575 
z
M 2844 4575 
Q 2844 4215 2595 3965 
Q 2347 3715 1988 3715 
Q 1628 3715 1379 3965 
Q 1131 4215 1131 4575 
Q 1131 4934 1379 5182 
Q 1628 5431 1988 5431 
Q 2347 5431 2595 5182 
Q 2844 4934 2844 4575 
z
" transform="scale(0.015625)"/>
       <path id="DejaVuSans-76" d="M 191 3500 
L 800 3500 
L 1894 563 
L 2988 3500 
L 3597 3500 
L 2284 0 
L 1503 0 
L 191 3500 
z
" transform="scale(0.015625)"/>
       <path id="DejaVuSans-6f" d="M 1959 3097 
Q 1497 3097 1228 2736 
Q 959 2375 959 1747 
Q 959 1119 1226 758 
Q 1494 397 1959 397 
Q 2419 397 2687 759 
Q 2956 1122 2956 1747 
Q 2956 2369 2687 2733 
Q 2419 3097 1959 3097 
z
M 1959 3584 
Q 2709 3584 3137 3096 
Q 3566 2609 3566 1747 
Q 3566 888 3137 398 
Q 2709 -91 1959 -91 
Q 1206 -91 779 398 
Q 353 888 353 1747 
Q 353 2609 779 3096 
Q 1206 3584 1959 3584 
z
" transform="scale(0.015625)"/>
       <path id="DejaVuSans-64" d="M 2906 2969 
L 2906 4863 
L 3481 4863 
L 3481 0 
L 2906 0 
L 2906 525 
Q 2725 213 2448 61 
Q 2172 -91 1784 -91 
Q 1150 -91 751 415 
Q 353 922 353 1747 
Q 353 2572 751 3078 
Q 1150 3584 1784 3584 
Q 2172 3584 2448 3432 
Q 2725 3281 2906 2969 
z
M 947 1747 
Q 947 1113 1208 752 
Q 1469 391 1925 391 
Q 2381 391 2643 752 
Q 2906 1113 2906 1747 
Q 2906 2381 2643 2742 
Q 2381 3103 1925 3103 
Q 1469 3103 1208 2742 
Q 947 2381 947 1747 
z
" transform="scale(0.015625)"/>
       <path id="DejaVuSans-6e" d="M 3513 2113 
L 3513 0 
L 2938 0 
L 2938 2094 
Q 2938 2591 2744 2837 
Q 2550 3084 2163 3084 
Q 1697 3084 1428 2787 
Q 1159 2491 1159 1978 
L 1159 0 
L 581 0 
L 581 3500 
L 1159 3500 
L 1159 2956 
Q 1366 3272 1645 3428 
Q 1925 3584 2291 3584 
Q 2894 3584 3203 3211 
Q 3513 2838 3513 2113 
z
" transform="scale(0.015625)"/>
       <path id="DejaVuSans-ed" d="M 1325 5119 
L 1947 5119 
L 928 3944 
L 450 3944 
L 1325 5119 
z
M 603 3500 
L 1178 3500 
L 1178 0 
L 603 0 
L 603 3500 
z
M 891 3584 
L 891 3584 
z
" transform="scale(0.015625)"/>
       <path id="DejaVuSans-20" transform="scale(0.015625)"/>
       <path id="DejaVuSans-66" d="M 2375 4863 
L 2375 4384 
L 1825 4384 
Q 1516 4384 1395 4259 
Q 1275 4134 1275 3809 
L 1275 3500 
L 2222 3500 
L 2222 3053 
L 1275 3053 
L 1275 0 
L 697 0 
L 697 3053 
L 147 3053 
L 147 3500 
L 697 3500 
L 697 3744 
Q 697 4328 969 4595 
Q 1241 4863 1831 4863 
L 2375 4863 
z
" transform="scale(0.015625)"/>
       <path id="DejaVuSans-75" d="M 544 1381 
L 544 3500 
L 1119 3500 
L 1119 1403 
Q 1119 906 1312 657 
Q 1506 409 1894 409 
Q 2359 409 2629 706 
Q 2900 1003 2900 1516 
L 2900 3500 
L 3475 3500 
L 3475 0 
L 2900 0 
L 2900 538 
Q 2691 219 2414 64 
Q 2138 -91 1772 -91 
Q 1169 -91 856 284 
Q 544 659 544 1381 
z
M 1991 3584 
L 1991 3584 
z
" transform="scale(0.015625)"/>
       <path id="DejaVuSans-6b" d="M 581 4863 
L 1159 4863 
L 1159 1991 
L 2875 3500 
L 3609 3500 
L 1753 1863 
L 3688 0 
L 2938 0 
L 1159 1709 
L 1159 0 
L 581 0 
L 581 4863 
z
" transform="scale(0.015625)"/>
       <path id="DejaVuSans-63" d="M 3122 3366 
L 3122 2828 
Q 2878 2963 2633 3030 
Q 2388 3097 2138 3097 
Q 1578 3097 1268 2742 
Q 959 2388 959 1747 
Q 959 1106 1268 751 
Q 1578 397 2138 397 
Q 2388 397 2633 464 
Q 2878 531 3122 666 
L 3122 134 
Q 2881 22 2623 -34 
Q 2366 -91 2075 -91 
Q 1284 -91 818 406 
Q 353 903 353 1747 
Q 353 2603 823 3093 
Q 1294 3584 2113 3584 
Q 2378 3584 2631 3529 
Q 2884 3475 3122 3366 
z
" transform="scale(0.015625)"/>
       <path id="DejaVuSans-65" d="M 3597 1894 
L 3597 1613 
L 953 1613 
Q 991 1019 1311 708 
Q 1631 397 2203 397 
Q 2534 397 2845 478 
Q 3156 559 3463 722 
L 3463 178 
Q 3153 47 2828 -22 
Q 2503 -91 2169 -91 
Q 1331 -91 842 396 
Q 353 884 353 1716 
Q 353 2575 817 3079 
Q 1281 3584 2069 3584 
Q 2775 3584 3186 3129 
Q 3597 2675 3597 1894 
z
M 3022 2063 
Q 3016 2534 2758 2815 
Q 2500 3097 2075 3097 
Q 1594 3097 1305 2825 
Q 1016 2553 972 2059 
L 3022 2063 
z
" transform="scale(0.015625)"/>
      </defs>
      <use xlink:href="#DejaVuSans-50"/>
      <use xlink:href="#DejaVuSans-16f" x="58.552734"/>
      <use xlink:href="#DejaVuSans-76" x="121.931641"/>
      <use xlink:href="#DejaVuSans-6f" x="181.111328"/>
      <use xlink:href="#DejaVuSans-64" x="242.292969"/>
      <use xlink:href="#DejaVuSans-6e" x="305.769531"/>
      <use xlink:href="#DejaVuSans-ed" x="369.148438"/>
      <use xlink:href="#DejaVuSans-20" x="396.931641"/>
      <use xlink:href="#DejaVuSans-66" x="428.71875"/>
      <use xlink:href="#DejaVuSans-75" x="463.923828"/>
      <use xlink:href="#DejaVuSans-6e" x="527.302734"/>
      <use xlink:href="#DejaVuSans-6b" x="590.681641"/>
      <use xlink:href="#DejaVuSans-63" x="648.591797"/>
      <use xlink:href="#DejaVuSans-65" x="703.572266"/>
     </g>
    </g>
    <g id="PathCollection_2">
     <g>
      <use xlink:href="#mc9c3b7231a" x="76.6" y="70.523562" style="fill: #228b22; stroke: #228b22"/>
     </g>
    </g>
    <g id="text_19">
     <!-- Střední hodnoty buněk -->
     <g transform="translate(94.6 73.148562)scale(0.1 -0.1)">
      <defs>
       <path id="DejaVuSans-53" d="M 3425 4513 
L 3425 3897 
Q 3066 4069 2747 4153 
Q 2428 4238 2131 4238 
Q 1616 4238 1336 4038 
Q 1056 3838 1056 3469 
Q 1056 3159 1242 3001 
Q 1428 2844 1947 2747 
L 2328 2669 
Q 3034 2534 3370 2195 
Q 3706 1856 3706 1288 
Q 3706 609 3251 259 
Q 2797 -91 1919 -91 
Q 1588 -91 1214 -16 
Q 841 59 441 206 
L 441 856 
Q 825 641 1194 531 
Q 1563 422 1919 422 
Q 2459 422 2753 634 
Q 3047 847 3047 1241 
Q 3047 1584 2836 1778 
Q 2625 1972 2144 2069 
L 1759 2144 
Q 1053 2284 737 2584 
Q 422 2884 422 3419 
Q 422 4038 858 4394 
Q 1294 4750 2059 4750 
Q 2388 4750 2728 4690 
Q 3069 4631 3425 4513 
z
" transform="scale(0.015625)"/>
       <path id="DejaVuSans-74" d="M 1172 4494 
L 1172 3500 
L 2356 3500 
L 2356 3053 
L 1172 3053 
L 1172 1153 
Q 1172 725 1289 603 
Q 1406 481 1766 481 
L 2356 481 
L 2356 0 
L 1766 0 
Q 1100 0 847 248 
Q 594 497 594 1153 
L 594 3053 
L 172 3053 
L 172 3500 
L 594 3500 
L 594 4494 
L 1172 4494 
z
" transform="scale(0.015625)"/>
       <path id="DejaVuSans-159" d="M 2631 2963 
Q 2534 3019 2420 3045 
Q 2306 3072 2169 3072 
Q 1681 3072 1420 2755 
Q 1159 2438 1159 1844 
L 1159 0 
L 581 0 
L 581 3500 
L 1159 3500 
L 1159 2956 
Q 1341 3275 1631 3429 
Q 1922 3584 2338 3584 
Q 2397 3584 2469 3576 
Q 2541 3569 2628 3553 
L 2631 2963 
z
M 1453 3944 
L 688 5119 
L 1122 5119 
L 1684 4353 
L 2247 5119 
L 2681 5119 
L 1916 3944 
L 1453 3944 
z
" transform="scale(0.015625)"/>
       <path id="DejaVuSans-68" d="M 3513 2113 
L 3513 0 
L 2938 0 
L 2938 2094 
Q 2938 2591 2744 2837 
Q 2550 3084 2163 3084 
Q 1697 3084 1428 2787 
Q 1159 2491 1159 1978 
L 1159 0 
L 581 0 
L 581 4863 
L 1159 4863 
L 1159 2956 
Q 1366 3272 1645 3428 
Q 1925 3584 2291 3584 
Q 2894 3584 3203 3211 
Q 3513 2838 3513 2113 
z
" transform="scale(0.015625)"/>
       <path id="DejaVuSans-79" d="M 2059 -325 
Q 1816 -950 1584 -1140 
Q 1353 -1331 966 -1331 
L 506 -1331 
L 506 -850 
L 844 -850 
Q 1081 -850 1212 -737 
Q 1344 -625 1503 -206 
L 1606 56 
L 191 3500 
L 800 3500 
L 1894 763 
L 2988 3500 
L 3597 3500 
L 2059 -325 
z
" transform="scale(0.015625)"/>
       <path id="DejaVuSans-62" d="M 3116 1747 
Q 3116 2381 2855 2742 
Q 2594 3103 2138 3103 
Q 1681 3103 1420 2742 
Q 1159 2381 1159 1747 
Q 1159 1113 1420 752 
Q 1681 391 2138 391 
Q 2594 391 2855 752 
Q 3116 1113 3116 1747 
z
M 1159 2969 
Q 1341 3281 1617 3432 
Q 1894 3584 2278 3584 
Q 2916 3584 3314 3078 
Q 3713 2572 3713 1747 
Q 3713 922 3314 415 
Q 2916 -91 2278 -91 
Q 1894 -91 1617 61 
Q 1341 213 1159 525 
L 1159 0 
L 581 0 
L 581 4863 
L 1159 4863 
L 1159 2969 
z
" transform="scale(0.015625)"/>
       <path id="DejaVuSans-11b" d="M 3597 1894 
L 3597 1613 
L 953 1613 
Q 991 1019 1311 708 
Q 1631 397 2203 397 
Q 2534 397 2845 478 
Q 3156 559 3463 722 
L 3463 178 
Q 3153 47 2828 -22 
Q 2503 -91 2169 -91 
Q 1331 -91 842 396 
Q 353 884 353 1716 
Q 353 2575 817 3079 
Q 1281 3584 2069 3584 
Q 2775 3584 3186 3129 
Q 3597 2675 3597 1894 
z
M 3022 2063 
Q 3016 2534 2758 2815 
Q 2500 3097 2075 3097 
Q 1594 3097 1305 2825 
Q 1016 2553 972 2059 
L 3022 2063 
z
M 1831 3928 
L 1066 5103 
L 1500 5103 
L 2063 4337 
L 2625 5103 
L 3059 5103 
L 2294 3928 
L 1831 3928 
z
" transform="scale(0.015625)"/>
      </defs>
      <use xlink:href="#DejaVuSans-53"/>
      <use xlink:href="#DejaVuSans-74" x="63.476562"/>
      <use xlink:href="#DejaVuSans-159" x="102.685547"/>
      <use xlink:href="#DejaVuSans-65" x="141.548828"/>
      <use xlink:href="#DejaVuSans-64" x="203.072266"/>
      <use xlink:href="#DejaVuSans-6e" x="266.548828"/>
      <use xlink:href="#DejaVuSans-ed" x="329.927734"/>
      <use xlink:href="#DejaVuSans-20" x="357.710938"/>
      <use xlink:href="#DejaVuSans-68" x="389.498047"/>
      <use xlink:href="#DejaVuSans-6f" x="452.876953"/>
      <use xlink:href="#DejaVuSans-64" x="514.058594"/>
      <use xlink:href="#DejaVuSans-6e" x="577.535156"/>
      <use xlink:href="#DejaVuSans-6f" x="640.914062"/>
      <use xlink:href="#DejaVuSans-74" x="702.095703"/>
      <use xlink:href="#DejaVuSans-79" x="741.304688"/>
      <use xlink:href="#DejaVuSans-20" x="800.484375"/>
      <use xlink:href="#DejaVuSans-62" x="832.271484"/>
      <use xlink:href="#DejaVuSans-75" x="895.748047"/>
      <use xlink:href="#DejaVuSans-6e" x="959.126953"/>
      <use xlink:href="#DejaVuSans-11b" x="1022.505859"/>
      <use xlink:href="#DejaVuSans-6b" x="1084.029297"/>
     </g>
    </g>
    <g id="line2d_57">
     <path d="M 66.6 84.326687 
L 76.6 84.326687 
L 86.6 84.326687 
" style="fill: none; stroke: #008000; stroke-width: 1.5; stroke-linecap: square"/>
    </g>
    <g id="text_20">
     <!-- Rekonstrukce -->
     <g transform="translate(94.6 87.826687)scale(0.1 -0.1)">
      <defs>
       <path id="DejaVuSans-52" d="M 2841 2188 
Q 3044 2119 3236 1894 
Q 3428 1669 3622 1275 
L 4263 0 
L 3584 0 
L 2988 1197 
Q 2756 1666 2539 1819 
Q 2322 1972 1947 1972 
L 1259 1972 
L 1259 0 
L 628 0 
L 628 4666 
L 2053 4666 
Q 2853 4666 3247 4331 
Q 3641 3997 3641 3322 
Q 3641 2881 3436 2590 
Q 3231 2300 2841 2188 
z
M 1259 4147 
L 1259 2491 
L 2053 2491 
Q 2509 2491 2742 2702 
Q 2975 2913 2975 3322 
Q 2975 3731 2742 3939 
Q 2509 4147 2053 4147 
L 1259 4147 
z
" transform="scale(0.015625)"/>
       <path id="DejaVuSans-73" d="M 2834 3397 
L 2834 2853 
Q 2591 2978 2328 3040 
Q 2066 3103 1784 3103 
Q 1356 3103 1142 2972 
Q 928 2841 928 2578 
Q 928 2378 1081 2264 
Q 1234 2150 1697 2047 
L 1894 2003 
Q 2506 1872 2764 1633 
Q 3022 1394 3022 966 
Q 3022 478 2636 193 
Q 2250 -91 1575 -91 
Q 1294 -91 989 -36 
Q 684 19 347 128 
L 347 722 
Q 666 556 975 473 
Q 1284 391 1588 391 
Q 1994 391 2212 530 
Q 2431 669 2431 922 
Q 2431 1156 2273 1281 
Q 2116 1406 1581 1522 
L 1381 1569 
Q 847 1681 609 1914 
Q 372 2147 372 2553 
Q 372 3047 722 3315 
Q 1072 3584 1716 3584 
Q 2034 3584 2315 3537 
Q 2597 3491 2834 3397 
z
" transform="scale(0.015625)"/>
       <path id="DejaVuSans-72" d="M 2631 2963 
Q 2534 3019 2420 3045 
Q 2306 3072 2169 3072 
Q 1681 3072 1420 2755 
Q 1159 2438 1159 1844 
L 1159 0 
L 581 0 
L 581 3500 
L 1159 3500 
L 1159 2956 
Q 1341 3275 1631 3429 
Q 1922 3584 2338 3584 
Q 2397 3584 2469 3576 
Q 2541 3569 2628 3553 
L 2631 2963 
z
" transform="scale(0.015625)"/>
      </defs>
      <use xlink:href="#DejaVuSans-52"/>
      <use xlink:href="#DejaVuSans-65" x="64.982422"/>
      <use xlink:href="#DejaVuSans-6b" x="126.505859"/>
      <use xlink:href="#DejaVuSans-6f" x="180.791016"/>
      <use xlink:href="#DejaVuSans-6e" x="241.972656"/>
      <use xlink:href="#DejaVuSans-73" x="305.351562"/>
      <use xlink:href="#DejaVuSans-74" x="357.451172"/>
      <use xlink:href="#DejaVuSans-72" x="396.660156"/>
      <use xlink:href="#DejaVuSans-75" x="437.773438"/>
      <use xlink:href="#DejaVuSans-6b" x="501.152344"/>
      <use xlink:href="#DejaVuSans-63" x="559.0625"/>
      <use xlink:href="#DejaVuSans-65" x="614.042969"/>
     </g>
    </g>
   </g>
  </g>
 </g>
 <defs>
  <clipPath id="p9248984cc9">
   <rect x="57.6" y="41.472" width="357.12" height="266.112"/>
  </clipPath>
 </defs>
</svg>
