<?xml version="1.0" encoding="utf-8" standalone="no"?>
<!DOCTYPE svg PUBLIC "-//W3C//DTD SVG 1.1//EN"
  "http://www.w3.org/Graphics/SVG/1.1/DTD/svg11.dtd">
<svg xmlns:xlink="http://www.w3.org/1999/xlink" width="460.8pt" height="345.6pt" viewBox="0 0 460.8 345.6" xmlns="http://www.w3.org/2000/svg" version="1.1">
 <metadata>
  <rdf:RDF xmlns:dc="http://purl.org/dc/elements/1.1/" xmlns:cc="http://creativecommons.org/ns#" xmlns:rdf="http://www.w3.org/1999/02/22-rdf-syntax-ns#">
   <cc:Work>
    <dc:type rdf:resource="http://purl.org/dc/dcmitype/StillImage"/>
    <dc:date>2023-07-31T22:47:03.302575</dc:date>
    <dc:format>image/svg+xml</dc:format>
    <dc:creator>
     <cc:Agent>
      <dc:title>Matplotlib v3.5.2, https://matplotlib.org/</dc:title>
     </cc:Agent>
    </dc:creator>
   </cc:Work>
  </rdf:RDF>
 </metadata>
 <defs>
  <style type="text/css">*{stroke-linejoin: round; stroke-linecap: butt}</style>
 </defs>
 <g id="figure_1">
  <g id="patch_1">
   <path d="M 0 345.6 
L 460.8 345.6 
L 460.8 0 
L 0 0 
z
" style="fill: #ffffff"/>
  </g>
  <g id="axes_1">
   <g id="patch_2">
    <path d="M 57.6 307.584 
L 414.72 307.584 
L 414.72 41.472 
L 57.6 41.472 
z
" style="fill: #ffffff"/>
   </g>
   <g id="PathCollection_1">
    <defs>
     <path id="m861a152b22" d="M 0 3 
C 0.795609 3 1.55874 2.683901 2.12132 2.12132 
C 2.683901 1.55874 3 0.795609 3 0 
C 3 -0.795609 2.683901 -1.55874 2.12132 -2.12132 
C 1.55874 -2.683901 0.795609 -3 0 -3 
C -0.795609 -3 -1.55874 -2.683901 -2.12132 -2.12132 
C -2.683901 -1.55874 -3 -0.795609 -3 0 
C -3 0.795609 -2.683901 1.55874 -2.12132 2.12132 
C -1.55874 2.683901 -0.795609 3 0 3 
z
" style="stroke: #228b22"/>
    </defs>
    <g clip-path="url(#p1576c34b77)">
     <use xlink:href="#m861a152b22" x="82.376268" y="135.964255" style="fill: #228b22; stroke: #228b22"/>
     <use xlink:href="#m861a152b22" x="99.463349" y="75.099828" style="fill: #228b22; stroke: #228b22"/>
     <use xlink:href="#m861a152b22" x="116.550431" y="56.166148" style="fill: #228b22; stroke: #228b22"/>
     <use xlink:href="#m861a152b22" x="133.637512" y="87.147908" style="fill: #228b22; stroke: #228b22"/>
     <use xlink:href="#m861a152b22" x="150.724593" y="154.979511" style="fill: #228b22; stroke: #228b22"/>
     <use xlink:href="#m861a152b22" x="167.811675" y="231.055083" style="fill: #228b22; stroke: #228b22"/>
     <use xlink:href="#m861a152b22" x="184.898756" y="283.292111" style="fill: #228b22; stroke: #228b22"/>
     <use xlink:href="#m861a152b22" x="201.985837" y="289.661249" style="fill: #228b22; stroke: #228b22"/>
     <use xlink:href="#m861a152b22" x="219.072919" y="247.47651" style="fill: #228b22; stroke: #228b22"/>
     <use xlink:href="#m861a152b22" x="236.16" y="174.528" style="fill: #228b22; stroke: #228b22"/>
     <use xlink:href="#m861a152b22" x="253.247081" y="101.57949" style="fill: #228b22; stroke: #228b22"/>
     <use xlink:href="#m861a152b22" x="270.334163" y="59.394751" style="fill: #228b22; stroke: #228b22"/>
     <use xlink:href="#m861a152b22" x="287.421244" y="65.763889" style="fill: #228b22; stroke: #228b22"/>
     <use xlink:href="#m861a152b22" x="304.508325" y="118.000917" style="fill: #228b22; stroke: #228b22"/>
     <use xlink:href="#m861a152b22" x="321.595407" y="194.076489" style="fill: #228b22; stroke: #228b22"/>
     <use xlink:href="#m861a152b22" x="338.682488" y="261.908092" style="fill: #228b22; stroke: #228b22"/>
     <use xlink:href="#m861a152b22" x="355.769569" y="292.889852" style="fill: #228b22; stroke: #228b22"/>
     <use xlink:href="#m861a152b22" x="372.856651" y="273.956172" style="fill: #228b22; stroke: #228b22"/>
     <use xlink:href="#m861a152b22" x="389.943732" y="213.091745" style="fill: #228b22; stroke: #228b22"/>
    </g>
   </g>
   <g id="matplotlib.axis_1">
    <g id="xtick_1">
     <g id="line2d_1">
      <defs>
       <path id="m8ded7f0822" d="M 0 0 
L 0 3.5 
" style="stroke: #000000; stroke-width: 0.8"/>
      </defs>
      <g>
       <use xlink:href="#m8ded7f0822" x="73.832727" y="307.584" style="stroke: #000000; stroke-width: 0.8"/>
      </g>
     </g>
     <g id="text_1">
      <!-- 0.00 -->
      <g transform="translate(62.699915 322.182437)scale(0.1 -0.1)">
       <defs>
        <path id="DejaVuSans-30" d="M 2034 4250 
Q 1547 4250 1301 3770 
Q 1056 3291 1056 2328 
Q 1056 1369 1301 889 
Q 1547 409 2034 409 
Q 2525 409 2770 889 
Q 3016 1369 3016 2328 
Q 3016 3291 2770 3770 
Q 2525 4250 2034 4250 
z
M 2034 4750 
Q 2819 4750 3233 4129 
Q 3647 3509 3647 2328 
Q 3647 1150 3233 529 
Q 2819 -91 2034 -91 
Q 1250 -91 836 529 
Q 422 1150 422 2328 
Q 422 3509 836 4129 
Q 1250 4750 2034 4750 
z
" transform="scale(0.015625)"/>
        <path id="DejaVuSans-2e" d="M 684 794 
L 1344 794 
L 1344 0 
L 684 0 
L 684 794 
z
" transform="scale(0.015625)"/>
       </defs>
       <use xlink:href="#DejaVuSans-30"/>
       <use xlink:href="#DejaVuSans-2e" x="63.623047"/>
       <use xlink:href="#DejaVuSans-30" x="95.410156"/>
       <use xlink:href="#DejaVuSans-30" x="159.033203"/>
      </g>
     </g>
    </g>
    <g id="xtick_2">
     <g id="line2d_2">
      <g>
       <use xlink:href="#m8ded7f0822" x="114.414545" y="307.584" style="stroke: #000000; stroke-width: 0.8"/>
      </g>
     </g>
     <g id="text_2">
      <!-- 0.25 -->
      <g transform="translate(103.281733 322.182437)scale(0.1 -0.1)">
       <defs>
        <path id="DejaVuSans-32" d="M 1228 531 
L 3431 531 
L 3431 0 
L 469 0 
L 469 531 
Q 828 903 1448 1529 
Q 2069 2156 2228 2338 
Q 2531 2678 2651 2914 
Q 2772 3150 2772 3378 
Q 2772 3750 2511 3984 
Q 2250 4219 1831 4219 
Q 1534 4219 1204 4116 
Q 875 4013 500 3803 
L 500 4441 
Q 881 4594 1212 4672 
Q 1544 4750 1819 4750 
Q 2544 4750 2975 4387 
Q 3406 4025 3406 3419 
Q 3406 3131 3298 2873 
Q 3191 2616 2906 2266 
Q 2828 2175 2409 1742 
Q 1991 1309 1228 531 
z
" transform="scale(0.015625)"/>
        <path id="DejaVuSans-35" d="M 691 4666 
L 3169 4666 
L 3169 4134 
L 1269 4134 
L 1269 2991 
Q 1406 3038 1543 3061 
Q 1681 3084 1819 3084 
Q 2600 3084 3056 2656 
Q 3513 2228 3513 1497 
Q 3513 744 3044 326 
Q 2575 -91 1722 -91 
Q 1428 -91 1123 -41 
Q 819 9 494 109 
L 494 744 
Q 775 591 1075 516 
Q 1375 441 1709 441 
Q 2250 441 2565 725 
Q 2881 1009 2881 1497 
Q 2881 1984 2565 2268 
Q 2250 2553 1709 2553 
Q 1456 2553 1204 2497 
Q 953 2441 691 2322 
L 691 4666 
z
" transform="scale(0.015625)"/>
       </defs>
       <use xlink:href="#DejaVuSans-30"/>
       <use xlink:href="#DejaVuSans-2e" x="63.623047"/>
       <use xlink:href="#DejaVuSans-32" x="95.410156"/>
       <use xlink:href="#DejaVuSans-35" x="159.033203"/>
      </g>
     </g>
    </g>
    <g id="xtick_3">
     <g id="line2d_3">
      <g>
       <use xlink:href="#m8ded7f0822" x="154.996364" y="307.584" style="stroke: #000000; stroke-width: 0.8"/>
      </g>
     </g>
     <g id="text_3">
      <!-- 0.50 -->
      <g transform="translate(143.863551 322.182437)scale(0.1 -0.1)">
       <use xlink:href="#DejaVuSans-30"/>
       <use xlink:href="#DejaVuSans-2e" x="63.623047"/>
       <use xlink:href="#DejaVuSans-35" x="95.410156"/>
       <use xlink:href="#DejaVuSans-30" x="159.033203"/>
      </g>
     </g>
    </g>
    <g id="xtick_4">
     <g id="line2d_4">
      <g>
       <use xlink:href="#m8ded7f0822" x="195.578182" y="307.584" style="stroke: #000000; stroke-width: 0.8"/>
      </g>
     </g>
     <g id="text_4">
      <!-- 0.75 -->
      <g transform="translate(184.445369 322.182437)scale(0.1 -0.1)">
       <defs>
        <path id="DejaVuSans-37" d="M 525 4666 
L 3525 4666 
L 3525 4397 
L 1831 0 
L 1172 0 
L 2766 4134 
L 525 4134 
L 525 4666 
z
" transform="scale(0.015625)"/>
       </defs>
       <use xlink:href="#DejaVuSans-30"/>
       <use xlink:href="#DejaVuSans-2e" x="63.623047"/>
       <use xlink:href="#DejaVuSans-37" x="95.410156"/>
       <use xlink:href="#DejaVuSans-35" x="159.033203"/>
      </g>
     </g>
    </g>
    <g id="xtick_5">
     <g id="line2d_5">
      <g>
       <use xlink:href="#m8ded7f0822" x="236.16" y="307.584" style="stroke: #000000; stroke-width: 0.8"/>
      </g>
     </g>
     <g id="text_5">
      <!-- 1.00 -->
      <g transform="translate(225.027187 322.182437)scale(0.1 -0.1)">
       <defs>
        <path id="DejaVuSans-31" d="M 794 531 
L 1825 531 
L 1825 4091 
L 703 3866 
L 703 4441 
L 1819 4666 
L 2450 4666 
L 2450 531 
L 3481 531 
L 3481 0 
L 794 0 
L 794 531 
z
" transform="scale(0.015625)"/>
       </defs>
       <use xlink:href="#DejaVuSans-31"/>
       <use xlink:href="#DejaVuSans-2e" x="63.623047"/>
       <use xlink:href="#DejaVuSans-30" x="95.410156"/>
       <use xlink:href="#DejaVuSans-30" x="159.033203"/>
      </g>
     </g>
    </g>
    <g id="xtick_6">
     <g id="line2d_6">
      <g>
       <use xlink:href="#m8ded7f0822" x="276.741818" y="307.584" style="stroke: #000000; stroke-width: 0.8"/>
      </g>
     </g>
     <g id="text_6">
      <!-- 1.25 -->
      <g transform="translate(265.609006 322.182437)scale(0.1 -0.1)">
       <use xlink:href="#DejaVuSans-31"/>
       <use xlink:href="#DejaVuSans-2e" x="63.623047"/>
       <use xlink:href="#DejaVuSans-32" x="95.410156"/>
       <use xlink:href="#DejaVuSans-35" x="159.033203"/>
      </g>
     </g>
    </g>
    <g id="xtick_7">
     <g id="line2d_7">
      <g>
       <use xlink:href="#m8ded7f0822" x="317.323636" y="307.584" style="stroke: #000000; stroke-width: 0.8"/>
      </g>
     </g>
     <g id="text_7">
      <!-- 1.50 -->
      <g transform="translate(306.190824 322.182437)scale(0.1 -0.1)">
       <use xlink:href="#DejaVuSans-31"/>
       <use xlink:href="#DejaVuSans-2e" x="63.623047"/>
       <use xlink:href="#DejaVuSans-35" x="95.410156"/>
       <use xlink:href="#DejaVuSans-30" x="159.033203"/>
      </g>
     </g>
    </g>
    <g id="xtick_8">
     <g id="line2d_8">
      <g>
       <use xlink:href="#m8ded7f0822" x="357.905455" y="307.584" style="stroke: #000000; stroke-width: 0.8"/>
      </g>
     </g>
     <g id="text_8">
      <!-- 1.75 -->
      <g transform="translate(346.772642 322.182437)scale(0.1 -0.1)">
       <use xlink:href="#DejaVuSans-31"/>
       <use xlink:href="#DejaVuSans-2e" x="63.623047"/>
       <use xlink:href="#DejaVuSans-37" x="95.410156"/>
       <use xlink:href="#DejaVuSans-35" x="159.033203"/>
      </g>
     </g>
    </g>
    <g id="xtick_9">
     <g id="line2d_9">
      <g>
       <use xlink:href="#m8ded7f0822" x="398.487273" y="307.584" style="stroke: #000000; stroke-width: 0.8"/>
      </g>
     </g>
     <g id="text_9">
      <!-- 2.00 -->
      <g transform="translate(387.35446 322.182437)scale(0.1 -0.1)">
       <use xlink:href="#DejaVuSans-32"/>
       <use xlink:href="#DejaVuSans-2e" x="63.623047"/>
       <use xlink:href="#DejaVuSans-30" x="95.410156"/>
       <use xlink:href="#DejaVuSans-30" x="159.033203"/>
      </g>
     </g>
    </g>
    <g id="text_10">
     <!-- x -->
     <g transform="translate(233.200625 335.860562)scale(0.1 -0.1)">
      <defs>
       <path id="DejaVuSans-78" d="M 3513 3500 
L 2247 1797 
L 3578 0 
L 2900 0 
L 1881 1375 
L 863 0 
L 184 0 
L 1544 1831 
L 300 3500 
L 978 3500 
L 1906 2253 
L 2834 3500 
L 3513 3500 
z
" transform="scale(0.015625)"/>
      </defs>
      <use xlink:href="#DejaVuSans-78"/>
     </g>
    </g>
   </g>
   <g id="matplotlib.axis_2">
    <g id="ytick_1">
     <g id="line2d_10">
      <defs>
       <path id="mf322609d4e" d="M 0 0 
L -3.5 0 
" style="stroke: #000000; stroke-width: 0.8"/>
      </defs>
      <g>
       <use xlink:href="#mf322609d4e" x="57.6" y="295.48815" style="stroke: #000000; stroke-width: 0.8"/>
      </g>
     </g>
     <g id="text_11">
      <!-- 0.00 -->
      <g transform="translate(28.334375 299.287368)scale(0.1 -0.1)">
       <use xlink:href="#DejaVuSans-30"/>
       <use xlink:href="#DejaVuSans-2e" x="63.623047"/>
       <use xlink:href="#DejaVuSans-30" x="95.410156"/>
       <use xlink:href="#DejaVuSans-30" x="159.033203"/>
      </g>
     </g>
    </g>
    <g id="ytick_2">
     <g id="line2d_11">
      <g>
       <use xlink:href="#mf322609d4e" x="57.6" y="265.248112" style="stroke: #000000; stroke-width: 0.8"/>
      </g>
     </g>
     <g id="text_12">
      <!-- 0.25 -->
      <g transform="translate(28.334375 269.047331)scale(0.1 -0.1)">
       <use xlink:href="#DejaVuSans-30"/>
       <use xlink:href="#DejaVuSans-2e" x="63.623047"/>
       <use xlink:href="#DejaVuSans-32" x="95.410156"/>
       <use xlink:href="#DejaVuSans-35" x="159.033203"/>
      </g>
     </g>
    </g>
    <g id="ytick_3">
     <g id="line2d_12">
      <g>
       <use xlink:href="#mf322609d4e" x="57.6" y="235.008075" style="stroke: #000000; stroke-width: 0.8"/>
      </g>
     </g>
     <g id="text_13">
      <!-- 0.50 -->
      <g transform="translate(28.334375 238.807294)scale(0.1 -0.1)">
       <use xlink:href="#DejaVuSans-30"/>
       <use xlink:href="#DejaVuSans-2e" x="63.623047"/>
       <use xlink:href="#DejaVuSans-35" x="95.410156"/>
       <use xlink:href="#DejaVuSans-30" x="159.033203"/>
      </g>
     </g>
    </g>
    <g id="ytick_4">
     <g id="line2d_13">
      <g>
       <use xlink:href="#mf322609d4e" x="57.6" y="204.768037" style="stroke: #000000; stroke-width: 0.8"/>
      </g>
     </g>
     <g id="text_14">
      <!-- 0.75 -->
      <g transform="translate(28.334375 208.567256)scale(0.1 -0.1)">
       <use xlink:href="#DejaVuSans-30"/>
       <use xlink:href="#DejaVuSans-2e" x="63.623047"/>
       <use xlink:href="#DejaVuSans-37" x="95.410156"/>
       <use xlink:href="#DejaVuSans-35" x="159.033203"/>
      </g>
     </g>
    </g>
    <g id="ytick_5">
     <g id="line2d_14">
      <g>
       <use xlink:href="#mf322609d4e" x="57.6" y="174.528" style="stroke: #000000; stroke-width: 0.8"/>
      </g>
     </g>
     <g id="text_15">
      <!-- 1.00 -->
      <g transform="translate(28.334375 178.327219)scale(0.1 -0.1)">
       <use xlink:href="#DejaVuSans-31"/>
       <use xlink:href="#DejaVuSans-2e" x="63.623047"/>
       <use xlink:href="#DejaVuSans-30" x="95.410156"/>
       <use xlink:href="#DejaVuSans-30" x="159.033203"/>
      </g>
     </g>
    </g>
    <g id="ytick_6">
     <g id="line2d_15">
      <g>
       <use xlink:href="#mf322609d4e" x="57.6" y="144.287963" style="stroke: #000000; stroke-width: 0.8"/>
      </g>
     </g>
     <g id="text_16">
      <!-- 1.25 -->
      <g transform="translate(28.334375 148.087181)scale(0.1 -0.1)">
       <use xlink:href="#DejaVuSans-31"/>
       <use xlink:href="#DejaVuSans-2e" x="63.623047"/>
       <use xlink:href="#DejaVuSans-32" x="95.410156"/>
       <use xlink:href="#DejaVuSans-35" x="159.033203"/>
      </g>
     </g>
    </g>
    <g id="ytick_7">
     <g id="line2d_16">
      <g>
       <use xlink:href="#mf322609d4e" x="57.6" y="114.047925" style="stroke: #000000; stroke-width: 0.8"/>
      </g>
     </g>
     <g id="text_17">
      <!-- 1.50 -->
      <g transform="translate(28.334375 117.847144)scale(0.1 -0.1)">
       <use xlink:href="#DejaVuSans-31"/>
       <use xlink:href="#DejaVuSans-2e" x="63.623047"/>
       <use xlink:href="#DejaVuSans-35" x="95.410156"/>
       <use xlink:href="#DejaVuSans-30" x="159.033203"/>
      </g>
     </g>
    </g>
    <g id="ytick_8">
     <g id="line2d_17">
      <g>
       <use xlink:href="#mf322609d4e" x="57.6" y="83.807888" style="stroke: #000000; stroke-width: 0.8"/>
      </g>
     </g>
     <g id="text_18">
      <!-- 1.75 -->
      <g transform="translate(28.334375 87.607107)scale(0.1 -0.1)">
       <use xlink:href="#DejaVuSans-31"/>
       <use xlink:href="#DejaVuSans-2e" x="63.623047"/>
       <use xlink:href="#DejaVuSans-37" x="95.410156"/>
       <use xlink:href="#DejaVuSans-35" x="159.033203"/>
      </g>
     </g>
    </g>
    <g id="ytick_9">
     <g id="line2d_18">
      <g>
       <use xlink:href="#mf322609d4e" x="57.6" y="53.56785" style="stroke: #000000; stroke-width: 0.8"/>
      </g>
     </g>
     <g id="text_19">
      <!-- 2.00 -->
      <g transform="translate(28.334375 57.367069)scale(0.1 -0.1)">
       <use xlink:href="#DejaVuSans-32"/>
       <use xlink:href="#DejaVuSans-2e" x="63.623047"/>
       <use xlink:href="#DejaVuSans-30" x="95.410156"/>
       <use xlink:href="#DejaVuSans-30" x="159.033203"/>
      </g>
     </g>
    </g>
    <g id="text_20">
     <!-- $f_i$ -->
     <g transform="translate(22.254688 177.428)rotate(-90)scale(0.1 -0.1)">
      <defs>
       <path id="DejaVuSans-Oblique-66" d="M 3059 4863 
L 2969 4384 
L 2419 4384 
Q 2106 4384 1964 4261 
Q 1822 4138 1753 3809 
L 1691 3500 
L 2638 3500 
L 2553 3053 
L 1606 3053 
L 1013 0 
L 434 0 
L 1031 3053 
L 481 3053 
L 563 3500 
L 1113 3500 
L 1159 3744 
Q 1278 4363 1576 4613 
Q 1875 4863 2516 4863 
L 3059 4863 
z
" transform="scale(0.015625)"/>
       <path id="DejaVuSans-Oblique-69" d="M 1172 4863 
L 1747 4863 
L 1606 4134 
L 1031 4134 
L 1172 4863 
z
M 909 3500 
L 1484 3500 
L 800 0 
L 225 0 
L 909 3500 
z
" transform="scale(0.015625)"/>
      </defs>
      <use xlink:href="#DejaVuSans-Oblique-66" transform="translate(0 0.015625)"/>
      <use xlink:href="#DejaVuSans-Oblique-69" transform="translate(35.205078 -16.390625)scale(0.7)"/>
     </g>
    </g>
   </g>
   <g id="line2d_19">
    <path d="M 73.832727 174.528 
L 81.307256 140.018485 
L 85.53199 121.605151 
L 88.781785 108.377449 
L 91.706601 97.360637 
L 94.306437 88.393211 
L 96.581294 81.258748 
L 98.856151 74.84696 
L 100.806028 69.964149 
L 102.755905 65.676681 
L 104.380803 62.576283 
L 106.0057 59.918591 
L 107.630598 57.714117 
L 108.930516 56.282772 
L 110.230434 55.150723 
L 111.530352 54.320836 
L 112.83027 53.795211 
L 113.805209 53.601493 
L 114.780147 53.579962 
L 115.755086 53.730649 
L 117.055004 54.199054 
L 118.354922 54.97203 
L 119.65484 56.047618 
L 120.954758 57.423098 
L 122.254676 59.094987 
L 123.879574 61.595157 
L 125.504472 64.541914 
L 127.129369 67.923605 
L 129.079247 72.5368 
L 131.029124 77.73069 
L 133.30398 84.484533 
L 135.578837 91.936057 
L 138.178673 101.232091 
L 141.103489 112.571615 
L 144.353284 126.09475 
L 148.253038 143.313076 
L 153.77769 168.824297 
L 162.552138 209.401923 
L 166.451892 226.422366 
L 169.701687 239.720225 
L 172.626503 250.813164 
L 175.226339 259.857773 
L 177.501196 267.066482 
L 179.776052 273.558178 
L 181.72593 278.513519 
L 183.675807 282.876811 
L 185.300704 286.0426 
L 186.925602 288.767411 
L 188.5505 291.040468 
L 189.850418 292.52755 
L 191.150336 293.715958 
L 192.450254 294.602683 
L 193.750172 295.185483 
L 195.05009 295.46288 
L 196.025029 295.470057 
L 196.999967 295.305025 
L 198.299885 294.817541 
L 199.599803 294.025587 
L 200.899722 292.931168 
L 202.19964 291.537053 
L 203.499558 289.84677 
L 205.124455 287.324021 
L 206.749353 284.355227 
L 208.374251 280.952126 
L 210.324128 276.314187 
L 212.274005 271.096721 
L 214.548862 264.317026 
L 216.823718 256.841623 
L 219.423554 247.520947 
L 222.34837 236.157378 
L 225.598165 222.612448 
L 229.49792 205.375267 
L 235.022572 179.85171 
L 243.797019 139.290015 
L 247.696773 122.290289 
L 250.946568 109.015684 
L 253.871384 97.948011 
L 256.47122 88.929041 
L 258.746077 81.74501 
L 261.020934 75.279886 
L 262.970811 70.348673 
L 264.920688 66.010613 
L 266.545586 62.866589 
L 268.170483 60.164125 
L 269.795381 57.913907 
L 271.095299 56.445389 
L 272.395217 55.275757 
L 273.695135 54.407968 
L 274.995053 53.844222 
L 276.294971 53.585943 
L 277.26991 53.59312 
L 278.244848 53.772496 
L 279.544767 54.279053 
L 280.844685 55.089977 
L 282.144603 56.203217 
L 283.444521 57.615954 
L 284.744439 59.324612 
L 286.369337 61.869915 
L 287.994234 64.860719 
L 289.619132 68.285195 
L 291.569009 72.947832 
L 293.518886 78.188822 
L 295.793743 84.994302 
L 298.0686 92.493512 
L 300.668436 101.838736 
L 303.593251 113.226239 
L 306.843047 126.792831 
L 310.742801 144.048696 
L 316.592432 171.104966 
L 325.0419 210.129699 
L 328.941654 227.10854 
L 332.19145 240.359759 
L 335.116265 251.402056 
L 337.716102 260.395299 
L 339.990958 267.554581 
L 342.265815 273.993069 
L 344.215692 278.900105 
L 346.165569 283.212891 
L 347.790467 286.335117 
L 349.415364 289.015208 
L 351.040262 291.242565 
L 352.34018 292.692503 
L 353.640098 293.84335 
L 354.940016 294.692192 
L 356.239934 295.236881 
L 357.539853 295.476038 
L 358.514791 295.454507 
L 359.48973 295.260789 
L 360.789648 294.735164 
L 362.089566 293.905277 
L 363.389484 292.773228 
L 364.689402 291.341883 
L 365.98932 289.614866 
L 367.614218 287.047034 
L 369.239115 284.034251 
L 370.864013 280.588433 
L 372.81389 275.901145 
L 374.763767 270.636682 
L 377.038624 263.805485 
L 379.313481 256.282543 
L 381.913317 246.912862 
L 384.838133 235.501538 
L 388.087928 221.913419 
L 391.987682 204.63904 
L 397.837314 177.570782 
L 398.487273 174.528 
L 398.487273 174.528 
" clip-path="url(#p1576c34b77)" style="fill: none; stroke: #0000ff; stroke-width: 1.5; stroke-linecap: square"/>
   </g>
   <g id="line2d_20">
    <path d="M 73.840844 163.363711 
L 74.189228 162.245366 
L 74.537613 161.127021 
L 74.885998 160.008676 
L 75.234382 158.890331 
L 75.582767 157.771985 
L 75.931152 156.65364 
L 76.279536 155.535295 
L 76.627921 154.41695 
L 76.976306 153.298605 
L 77.32469 152.18026 
L 77.673075 151.061914 
L 78.02146 149.943569 
L 78.369844 148.825224 
L 78.718229 147.706879 
L 79.066614 146.588534 
L 79.414998 145.470189 
L 79.763383 144.351843 
L 80.111768 143.233498 
L 80.460152 142.115153 
L 80.808537 140.996808 
L 81.156922 139.878463 
L 81.505306 138.760118 
L 81.853691 137.641773 
L 82.202076 136.523427 
L 82.55046 135.405082 
L 82.898845 134.286737 
L 83.24723 133.168392 
L 83.595614 132.050047 
L 83.943999 130.931702 
L 84.292384 129.813356 
L 84.640768 128.695011 
L 84.989153 127.576666 
L 85.337538 126.458321 
L 85.685922 125.339976 
L 86.034307 124.221631 
L 86.382692 123.103285 
L 86.731076 121.98494 
L 87.079461 120.866595 
L 87.427846 119.74825 
L 87.77623 118.629905 
L 88.124615 117.51156 
L 88.473 116.393214 
L 88.821384 115.274869 
L 89.169769 114.156524 
L 89.518154 113.038179 
L 89.866538 111.919834 
L 90.214923 110.801489 
L 90.563308 109.683144 
L 90.911692 108.564798 
" clip-path="url(#p1576c34b77)" style="fill: none; stroke: #008000; stroke-width: 1.5; stroke-linecap: square"/>
   </g>
   <g id="line2d_21">
    <path d="M 90.927925 94.01552 
L 91.27631 93.243451 
L 91.624694 92.471382 
L 91.973079 91.699313 
L 92.321464 90.927244 
L 92.669848 90.155175 
L 93.018233 89.383106 
L 93.366618 88.611037 
L 93.715002 87.838968 
L 94.063387 87.066898 
L 94.411772 86.294829 
L 94.760156 85.52276 
L 95.108541 84.750691 
L 95.456926 83.978622 
L 95.80531 83.206553 
L 96.153695 82.434484 
L 96.50208 81.662415 
L 96.850464 80.890346 
L 97.198849 80.118277 
L 97.547234 79.346208 
L 97.895618 78.574139 
L 98.244003 77.802069 
L 98.592388 77.03 
L 98.940772 76.257931 
L 99.289157 75.485862 
L 99.637542 74.713793 
L 99.985926 73.941724 
L 100.334311 73.169655 
L 100.682696 72.397586 
L 101.03108 71.625517 
L 101.379465 70.853448 
L 101.72785 70.081379 
L 102.076234 69.30931 
L 102.424619 68.53724 
L 102.773004 67.765171 
L 103.121388 66.993102 
L 103.469773 66.221033 
L 103.818158 65.448964 
L 104.166542 64.676895 
L 104.514927 63.904826 
L 104.863312 63.132757 
L 105.211696 62.360688 
L 105.560081 61.588619 
L 105.908466 60.81655 
L 106.25685 60.044481 
L 106.605235 59.272411 
L 106.95362 58.500342 
L 107.302004 57.728273 
L 107.650389 56.956204 
L 107.998774 56.184135 
" clip-path="url(#p1576c34b77)" style="fill: none; stroke: #008000; stroke-width: 1.5; stroke-linecap: square"/>
   </g>
   <g id="line2d_22">
    <path d="M 108.015006 56.166148 
L 108.363391 56.166148 
L 108.711776 56.166148 
L 109.06016 56.166148 
L 109.408545 56.166148 
L 109.75693 56.166148 
L 110.105314 56.166148 
L 110.453699 56.166148 
L 110.802084 56.166148 
L 111.150468 56.166148 
L 111.498853 56.166148 
L 111.847238 56.166148 
L 112.195622 56.166148 
L 112.544007 56.166148 
L 112.892392 56.166148 
L 113.240776 56.166148 
L 113.589161 56.166148 
L 113.937546 56.166148 
L 114.28593 56.166148 
L 114.634315 56.166148 
L 114.9827 56.166148 
L 115.331084 56.166148 
L 115.679469 56.166148 
L 116.027854 56.166148 
L 116.376238 56.166148 
L 116.724623 56.166148 
L 117.073008 56.166148 
L 117.421392 56.166148 
L 117.769777 56.166148 
L 118.118162 56.166148 
L 118.466546 56.166148 
L 118.814931 56.166148 
L 119.163316 56.166148 
L 119.5117 56.166148 
L 119.860085 56.166148 
L 120.20847 56.166148 
L 120.556854 56.166148 
L 120.905239 56.166148 
L 121.253624 56.166148 
L 121.602008 56.166148 
L 121.950393 56.166148 
L 122.298778 56.166148 
L 122.647162 56.166148 
L 122.995547 56.166148 
L 123.343932 56.166148 
L 123.692316 56.166148 
L 124.040701 56.166148 
L 124.389086 56.166148 
L 124.73747 56.166148 
L 125.085855 56.166148 
" clip-path="url(#p1576c34b77)" style="fill: none; stroke: #008000; stroke-width: 1.5; stroke-linecap: square"/>
   </g>
   <g id="line2d_23">
    <path d="M 125.102088 62.468035 
L 125.450472 63.475377 
L 125.798857 64.482719 
L 126.147242 65.490061 
L 126.495626 66.497402 
L 126.844011 67.504744 
L 127.192396 68.512086 
L 127.54078 69.519428 
L 127.889165 70.526769 
L 128.23755 71.534111 
L 128.585934 72.541453 
L 128.934319 73.548795 
L 129.282704 74.556136 
L 129.631088 75.563478 
L 129.979473 76.57082 
L 130.327858 77.578162 
L 130.676242 78.585503 
L 131.024627 79.592845 
L 131.373012 80.600187 
L 131.721396 81.607529 
L 132.069781 82.61487 
L 132.418166 83.622212 
L 132.76655 84.629554 
L 133.114935 85.636896 
L 133.46332 86.644237 
L 133.811704 87.651579 
L 134.160089 88.658921 
L 134.508474 89.666262 
L 134.856858 90.673604 
L 135.205243 91.680946 
L 135.553628 92.688288 
L 135.902012 93.695629 
L 136.250397 94.702971 
L 136.598782 95.710313 
L 136.947166 96.717655 
L 137.295551 97.724996 
L 137.643936 98.732338 
L 137.99232 99.73968 
L 138.340705 100.747022 
L 138.68909 101.754363 
L 139.037474 102.761705 
L 139.385859 103.769047 
L 139.734244 104.776389 
L 140.082628 105.78373 
L 140.431013 106.791072 
L 140.779398 107.798414 
L 141.127782 108.805756 
L 141.476167 109.813097 
L 141.824552 110.820439 
L 142.172936 111.827781 
" clip-path="url(#p1576c34b77)" style="fill: none; stroke: #008000; stroke-width: 1.5; stroke-linecap: square"/>
   </g>
   <g id="line2d_24">
    <path d="M 142.189169 119.036896 
L 142.537554 120.503941 
L 142.885938 121.970987 
L 143.234323 123.438032 
L 143.582708 124.905078 
L 143.931092 126.372123 
L 144.279477 127.839169 
L 144.627862 129.306214 
L 144.976246 130.77326 
L 145.324631 132.240306 
L 145.673016 133.707351 
L 146.0214 135.174397 
L 146.369785 136.641442 
L 146.71817 138.108488 
L 147.066554 139.575533 
L 147.414939 141.042579 
L 147.763324 142.509624 
L 148.111708 143.97667 
L 148.460093 145.443715 
L 148.808478 146.910761 
L 149.156862 148.377807 
L 149.505247 149.844852 
L 149.853632 151.311898 
L 150.202016 152.778943 
L 150.550401 154.245989 
L 150.898786 155.713034 
L 151.24717 157.18008 
L 151.595555 158.647125 
L 151.94394 160.114171 
L 152.292324 161.581216 
L 152.640709 163.048262 
L 152.989094 164.515308 
L 153.337478 165.982353 
L 153.685863 167.449399 
L 154.034248 168.916444 
L 154.382632 170.38349 
L 154.731017 171.850535 
L 155.079402 173.317581 
L 155.427786 174.784626 
L 155.776171 176.251672 
L 156.124556 177.718717 
L 156.47294 179.185763 
L 156.821325 180.652809 
L 157.16971 182.119854 
L 157.518094 183.5869 
L 157.866479 185.053945 
L 158.214864 186.520991 
L 158.563248 187.988036 
L 158.911633 189.455082 
L 159.260018 190.922127 
" clip-path="url(#p1576c34b77)" style="fill: none; stroke: #008000; stroke-width: 1.5; stroke-linecap: square"/>
   </g>
   <g id="line2d_25">
    <path d="M 159.27625 199.007408 
L 159.624635 200.315476 
L 159.97302 201.623545 
L 160.321404 202.931613 
L 160.669789 204.239681 
L 161.018174 205.54775 
L 161.366558 206.855818 
L 161.714943 208.163887 
L 162.063328 209.471955 
L 162.411712 210.780023 
L 162.760097 212.088092 
L 163.108482 213.39616 
L 163.456866 214.704229 
L 163.805251 216.012297 
L 164.153636 217.320365 
L 164.50202 218.628434 
L 164.850405 219.936502 
L 165.19879 221.244571 
L 165.547174 222.552639 
L 165.895559 223.860707 
L 166.243944 225.168776 
L 166.592328 226.476844 
L 166.940713 227.784912 
L 167.289098 229.092981 
L 167.637482 230.401049 
L 167.985867 231.709118 
L 168.334252 233.017186 
L 168.682636 234.325254 
L 169.031021 235.633323 
L 169.379406 236.941391 
L 169.72779 238.24946 
L 170.076175 239.557528 
L 170.42456 240.865596 
L 170.772944 242.173665 
L 171.121329 243.481733 
L 171.469714 244.789802 
L 171.818098 246.09787 
L 172.166483 247.405938 
L 172.514868 248.714007 
L 172.863252 250.022075 
L 173.211637 251.330144 
L 173.560022 252.638212 
L 173.908406 253.94628 
L 174.256791 255.254349 
L 174.605176 256.562417 
L 174.95356 257.870486 
L 175.301945 259.178554 
L 175.65033 260.486622 
L 175.998714 261.794691 
L 176.347099 263.102759 
" clip-path="url(#p1576c34b77)" style="fill: none; stroke: #008000; stroke-width: 1.5; stroke-linecap: square"/>
   </g>
   <g id="line2d_26">
    <path d="M 176.363332 276.929024 
L 176.711716 277.188742 
L 177.060101 277.44846 
L 177.408486 277.708178 
L 177.75687 277.967896 
L 178.105255 278.227614 
L 178.45364 278.487331 
L 178.802024 278.747049 
L 179.150409 279.006767 
L 179.498794 279.266485 
L 179.847178 279.526203 
L 180.195563 279.785921 
L 180.543948 280.045638 
L 180.892332 280.305356 
L 181.240717 280.565074 
L 181.589102 280.824792 
L 181.937486 281.08451 
L 182.285871 281.344228 
L 182.634256 281.603945 
L 182.98264 281.863663 
L 183.331025 282.123381 
L 183.67941 282.383099 
L 184.027794 282.642817 
L 184.376179 282.902535 
L 184.724564 283.162253 
L 185.072948 283.42197 
L 185.421333 283.681688 
L 185.769718 283.941406 
L 186.118102 284.201124 
L 186.466487 284.460842 
L 186.814872 284.72056 
L 187.163256 284.980277 
L 187.511641 285.239995 
L 187.860026 285.499713 
L 188.20841 285.759431 
L 188.556795 286.019149 
L 188.90518 286.278867 
L 189.253564 286.538584 
L 189.601949 286.798302 
L 189.950334 287.05802 
L 190.298718 287.317738 
L 190.647103 287.577456 
L 190.995488 287.837174 
L 191.343872 288.096891 
L 191.692257 288.356609 
L 192.040642 288.616327 
L 192.389026 288.876045 
L 192.737411 289.135763 
L 193.085796 289.395481 
L 193.43418 289.655198 
" clip-path="url(#p1576c34b77)" style="fill: none; stroke: #008000; stroke-width: 1.5; stroke-linecap: square"/>
   </g>
   <g id="line2d_27">
    <path d="M 193.450413 289.661249 
L 193.798798 289.661249 
L 194.147182 289.661249 
L 194.495567 289.661249 
L 194.843952 289.661249 
L 195.192336 289.661249 
L 195.540721 289.661249 
L 195.889106 289.661249 
L 196.23749 289.661249 
L 196.585875 289.661249 
L 196.93426 289.661249 
L 197.282644 289.661249 
L 197.631029 289.661249 
L 197.979414 289.661249 
L 198.327798 289.661249 
L 198.676183 289.661249 
L 199.024568 289.661249 
L 199.372952 289.661249 
L 199.721337 289.661249 
L 200.069722 289.661249 
L 200.418106 289.661249 
L 200.766491 289.661249 
L 201.114876 289.661249 
L 201.46326 289.661249 
L 201.811645 289.661249 
L 202.16003 289.661249 
L 202.508414 289.661249 
L 202.856799 289.661249 
L 203.205184 289.661249 
L 203.553568 289.661249 
L 203.901953 289.661249 
L 204.250338 289.661249 
L 204.598722 289.661249 
L 204.947107 289.661249 
L 205.295492 289.661249 
L 205.643876 289.661249 
L 205.992261 289.661249 
L 206.340646 289.661249 
L 206.68903 289.661249 
L 207.037415 289.661249 
L 207.3858 289.661249 
L 207.734184 289.661249 
L 208.082569 289.661249 
L 208.430954 289.661249 
L 208.779338 289.661249 
L 209.127723 289.661249 
L 209.476108 289.661249 
L 209.824492 289.661249 
L 210.172877 289.661249 
L 210.521262 289.661249 
" clip-path="url(#p1576c34b77)" style="fill: none; stroke: #008000; stroke-width: 1.5; stroke-linecap: square"/>
   </g>
   <g id="line2d_28">
    <path d="M 210.537494 276.232478 
L 210.885879 275.058765 
L 211.234264 273.885052 
L 211.582648 272.711339 
L 211.931033 271.537626 
L 212.279418 270.363913 
L 212.627802 269.1902 
L 212.976187 268.016488 
L 213.324572 266.842775 
L 213.672956 265.669062 
L 214.021341 264.495349 
L 214.369726 263.321636 
L 214.71811 262.147923 
L 215.066495 260.97421 
L 215.41488 259.800497 
L 215.763264 258.626784 
L 216.111649 257.453071 
L 216.460034 256.279358 
L 216.808418 255.105645 
L 217.156803 253.931932 
L 217.505188 252.758219 
L 217.853572 251.584506 
L 218.201957 250.410793 
L 218.550342 249.23708 
L 218.898726 248.063367 
L 219.247111 246.889654 
L 219.595496 245.715941 
L 219.94388 244.542228 
L 220.292265 243.368515 
L 220.64065 242.194802 
L 220.989034 241.021089 
L 221.337419 239.847376 
L 221.685804 238.673663 
L 222.034188 237.49995 
L 222.382573 236.326237 
L 222.730958 235.152524 
L 223.079342 233.978811 
L 223.427727 232.805098 
L 223.776112 231.631385 
L 224.124496 230.457672 
L 224.472881 229.283959 
L 224.821266 228.110246 
L 225.16965 226.936533 
L 225.518035 225.76282 
L 225.86642 224.589107 
L 226.214804 223.415394 
L 226.563189 222.241681 
L 226.911574 221.067968 
L 227.259958 219.894255 
L 227.608343 218.720542 
" clip-path="url(#p1576c34b77)" style="fill: none; stroke: #008000; stroke-width: 1.5; stroke-linecap: square"/>
   </g>
   <g id="line2d_29">
    <path d="M 227.624576 210.967605 
L 227.97296 209.480274 
L 228.321345 207.992943 
L 228.66973 206.505612 
L 229.018114 205.018281 
L 229.366499 203.530951 
L 229.714884 202.04362 
L 230.063268 200.556289 
L 230.411653 199.068958 
L 230.760038 197.581627 
L 231.108422 196.094297 
L 231.456807 194.606966 
L 231.805192 193.119635 
L 232.153576 191.632304 
L 232.501961 190.144973 
L 232.850346 188.657643 
L 233.19873 187.170312 
L 233.547115 185.682981 
L 233.8955 184.19565 
L 234.243884 182.708319 
L 234.592269 181.220989 
L 234.940654 179.733658 
L 235.289038 178.246327 
L 235.637423 176.758996 
L 235.985808 175.271665 
L 236.334192 173.784335 
L 236.682577 172.297004 
L 237.030962 170.809673 
L 237.379346 169.322342 
L 237.727731 167.835011 
L 238.076116 166.347681 
L 238.4245 164.86035 
L 238.772885 163.373019 
L 239.12127 161.885688 
L 239.469654 160.398357 
L 239.818039 158.911027 
L 240.166424 157.423696 
L 240.514808 155.936365 
L 240.863193 154.449034 
L 241.211578 152.961703 
L 241.559962 151.474373 
L 241.908347 149.987042 
L 242.256732 148.499711 
L 242.605116 147.01238 
L 242.953501 145.525049 
L 243.301886 144.037719 
L 243.65027 142.550388 
L 243.998655 141.063057 
L 244.34704 139.575726 
L 244.695424 138.088395 
" clip-path="url(#p1576c34b77)" style="fill: none; stroke: #008000; stroke-width: 1.5; stroke-linecap: square"/>
   </g>
   <g id="line2d_30">
    <path d="M 244.711657 130.335458 
L 245.060042 129.161745 
L 245.408426 127.988032 
L 245.756811 126.814319 
L 246.105196 125.640606 
L 246.45358 124.466893 
L 246.801965 123.29318 
L 247.15035 122.119467 
L 247.498734 120.945754 
L 247.847119 119.772041 
L 248.195504 118.598328 
L 248.543888 117.424615 
L 248.892273 116.250902 
L 249.240658 115.077189 
L 249.589042 113.903476 
L 249.937427 112.729763 
L 250.285812 111.55605 
L 250.634196 110.382337 
L 250.982581 109.208624 
L 251.330966 108.034911 
L 251.67935 106.861198 
L 252.027735 105.687485 
L 252.37612 104.513772 
L 252.724504 103.340059 
L 253.072889 102.166346 
L 253.421274 100.992633 
L 253.769658 99.81892 
L 254.118043 98.645207 
L 254.466428 97.471494 
L 254.814812 96.297781 
L 255.163197 95.124068 
L 255.511582 93.950355 
L 255.859966 92.776642 
L 256.208351 91.602929 
L 256.556736 90.429216 
L 256.90512 89.255503 
L 257.253505 88.08179 
L 257.60189 86.908077 
L 257.950274 85.734364 
L 258.298659 84.560651 
L 258.647044 83.386938 
L 258.995428 82.213225 
L 259.343813 81.039512 
L 259.692198 79.8658 
L 260.040582 78.692087 
L 260.388967 77.518374 
L 260.737352 76.344661 
L 261.085736 75.170948 
L 261.434121 73.997235 
L 261.782506 72.823522 
" clip-path="url(#p1576c34b77)" style="fill: none; stroke: #008000; stroke-width: 1.5; stroke-linecap: square"/>
   </g>
   <g id="line2d_31">
    <path d="M 261.798738 59.394751 
L 262.147123 59.394751 
L 262.495508 59.394751 
L 262.843892 59.394751 
L 263.192277 59.394751 
L 263.540662 59.394751 
L 263.889046 59.394751 
L 264.237431 59.394751 
L 264.585816 59.394751 
L 264.9342 59.394751 
L 265.282585 59.394751 
L 265.63097 59.394751 
L 265.979354 59.394751 
L 266.327739 59.394751 
L 266.676124 59.394751 
L 267.024508 59.394751 
L 267.372893 59.394751 
L 267.721278 59.394751 
L 268.069662 59.394751 
L 268.418047 59.394751 
L 268.766432 59.394751 
L 269.114816 59.394751 
L 269.463201 59.394751 
L 269.811586 59.394751 
L 270.15997 59.394751 
L 270.508355 59.394751 
L 270.85674 59.394751 
L 271.205124 59.394751 
L 271.553509 59.394751 
L 271.901894 59.394751 
L 272.250278 59.394751 
L 272.598663 59.394751 
L 272.947048 59.394751 
L 273.295432 59.394751 
L 273.643817 59.394751 
L 273.992202 59.394751 
L 274.340586 59.394751 
L 274.688971 59.394751 
L 275.037356 59.394751 
L 275.38574 59.394751 
L 275.734125 59.394751 
L 276.08251 59.394751 
L 276.430894 59.394751 
L 276.779279 59.394751 
L 277.127664 59.394751 
L 277.476048 59.394751 
L 277.824433 59.394751 
L 278.172818 59.394751 
L 278.521202 59.394751 
L 278.869587 59.394751 
" clip-path="url(#p1576c34b77)" style="fill: none; stroke: #008000; stroke-width: 1.5; stroke-linecap: square"/>
   </g>
   <g id="line2d_32">
    <path d="M 278.88582 59.400802 
L 279.234204 59.660519 
L 279.582589 59.920237 
L 279.930974 60.179955 
L 280.279358 60.439673 
L 280.627743 60.699391 
L 280.976128 60.959109 
L 281.324512 61.218826 
L 281.672897 61.478544 
L 282.021282 61.738262 
L 282.369666 61.99798 
L 282.718051 62.257698 
L 283.066436 62.517416 
L 283.41482 62.777133 
L 283.763205 63.036851 
L 284.11159 63.296569 
L 284.459974 63.556287 
L 284.808359 63.816005 
L 285.156744 64.075723 
L 285.505128 64.33544 
L 285.853513 64.595158 
L 286.201898 64.854876 
L 286.550282 65.114594 
L 286.898667 65.374312 
L 287.247052 65.63403 
L 287.595436 65.893747 
L 287.943821 66.153465 
L 288.292206 66.413183 
L 288.64059 66.672901 
L 288.988975 66.932619 
L 289.33736 67.192337 
L 289.685744 67.452055 
L 290.034129 67.711772 
L 290.382514 67.97149 
L 290.730898 68.231208 
L 291.079283 68.490926 
L 291.427668 68.750644 
L 291.776052 69.010362 
L 292.124437 69.270079 
L 292.472822 69.529797 
L 292.821206 69.789515 
L 293.169591 70.049233 
L 293.517976 70.308951 
L 293.86636 70.568669 
L 294.214745 70.828386 
L 294.56313 71.088104 
L 294.911514 71.347822 
L 295.259899 71.60754 
L 295.608284 71.867258 
L 295.956668 72.126976 
" clip-path="url(#p1576c34b77)" style="fill: none; stroke: #008000; stroke-width: 1.5; stroke-linecap: square"/>
   </g>
   <g id="line2d_33">
    <path d="M 295.972901 85.953241 
L 296.321286 87.261309 
L 296.66967 88.569378 
L 297.018055 89.877446 
L 297.36644 91.185514 
L 297.714824 92.493583 
L 298.063209 93.801651 
L 298.411594 95.10972 
L 298.759978 96.417788 
L 299.108363 97.725856 
L 299.456748 99.033925 
L 299.805132 100.341993 
L 300.153517 101.650062 
L 300.501902 102.95813 
L 300.850286 104.266198 
L 301.198671 105.574267 
L 301.547056 106.882335 
L 301.89544 108.190404 
L 302.243825 109.498472 
L 302.59221 110.80654 
L 302.940594 112.114609 
L 303.288979 113.422677 
L 303.637364 114.730746 
L 303.985748 116.038814 
L 304.334133 117.346882 
L 304.682518 118.654951 
L 305.030902 119.963019 
L 305.379287 121.271088 
L 305.727672 122.579156 
L 306.076056 123.887224 
L 306.424441 125.195293 
L 306.772826 126.503361 
L 307.12121 127.811429 
L 307.469595 129.119498 
L 307.81798 130.427566 
L 308.166364 131.735635 
L 308.514749 133.043703 
L 308.863134 134.351771 
L 309.211518 135.65984 
L 309.559903 136.967908 
L 309.908288 138.275977 
L 310.256672 139.584045 
L 310.605057 140.892113 
L 310.953442 142.200182 
L 311.301826 143.50825 
L 311.650211 144.816319 
L 311.998596 146.124387 
L 312.34698 147.432455 
L 312.695365 148.740524 
L 313.04375 150.048592 
" clip-path="url(#p1576c34b77)" style="fill: none; stroke: #008000; stroke-width: 1.5; stroke-linecap: square"/>
   </g>
   <g id="line2d_34">
    <path d="M 313.059982 158.133873 
L 313.408367 159.600918 
L 313.756752 161.067964 
L 314.105136 162.535009 
L 314.453521 164.002055 
L 314.801906 165.4691 
L 315.15029 166.936146 
L 315.498675 168.403191 
L 315.84706 169.870237 
L 316.195444 171.337283 
L 316.543829 172.804328 
L 316.892214 174.271374 
L 317.240598 175.738419 
L 317.588983 177.205465 
L 317.937368 178.67251 
L 318.285752 180.139556 
L 318.634137 181.606601 
L 318.982522 183.073647 
L 319.330906 184.540692 
L 319.679291 186.007738 
L 320.027676 187.474784 
L 320.37606 188.941829 
L 320.724445 190.408875 
L 321.07283 191.87592 
L 321.421214 193.342966 
L 321.769599 194.810011 
L 322.117984 196.277057 
L 322.466368 197.744102 
L 322.814753 199.211148 
L 323.163138 200.678193 
L 323.511522 202.145239 
L 323.859907 203.612285 
L 324.208292 205.07933 
L 324.556676 206.546376 
L 324.905061 208.013421 
L 325.253446 209.480467 
L 325.60183 210.947512 
L 325.950215 212.414558 
L 326.2986 213.881603 
L 326.646984 215.348649 
L 326.995369 216.815694 
L 327.343754 218.28274 
L 327.692138 219.749786 
L 328.040523 221.216831 
L 328.388908 222.683877 
L 328.737292 224.150922 
L 329.085677 225.617968 
L 329.434062 227.085013 
L 329.782446 228.552059 
L 330.130831 230.019104 
" clip-path="url(#p1576c34b77)" style="fill: none; stroke: #008000; stroke-width: 1.5; stroke-linecap: square"/>
   </g>
   <g id="line2d_35">
    <path d="M 330.147064 237.228219 
L 330.495448 238.235561 
L 330.843833 239.242903 
L 331.192218 240.250244 
L 331.540602 241.257586 
L 331.888987 242.264928 
L 332.237372 243.27227 
L 332.585756 244.279611 
L 332.934141 245.286953 
L 333.282526 246.294295 
L 333.63091 247.301637 
L 333.979295 248.308978 
L 334.32768 249.31632 
L 334.676064 250.323662 
L 335.024449 251.331004 
L 335.372834 252.338345 
L 335.721218 253.345687 
L 336.069603 254.353029 
L 336.417988 255.360371 
L 336.766372 256.367712 
L 337.114757 257.375054 
L 337.463142 258.382396 
L 337.811526 259.389738 
L 338.159911 260.397079 
L 338.508296 261.404421 
L 338.85668 262.411763 
L 339.205065 263.419104 
L 339.55345 264.426446 
L 339.901834 265.433788 
L 340.250219 266.44113 
L 340.598604 267.448471 
L 340.946988 268.455813 
L 341.295373 269.463155 
L 341.643758 270.470497 
L 341.992142 271.477838 
L 342.340527 272.48518 
L 342.688912 273.492522 
L 343.037296 274.499864 
L 343.385681 275.507205 
L 343.734066 276.514547 
L 344.08245 277.521889 
L 344.430835 278.529231 
L 344.77922 279.536572 
L 345.127604 280.543914 
L 345.475989 281.551256 
L 345.824374 282.558598 
L 346.172758 283.565939 
L 346.521143 284.573281 
L 346.869528 285.580623 
L 347.217912 286.587965 
" clip-path="url(#p1576c34b77)" style="fill: none; stroke: #008000; stroke-width: 1.5; stroke-linecap: square"/>
   </g>
   <g id="line2d_36">
    <path d="M 347.234145 292.889852 
L 347.58253 292.889852 
L 347.930914 292.889852 
L 348.279299 292.889852 
L 348.627684 292.889852 
L 348.976068 292.889852 
L 349.324453 292.889852 
L 349.672838 292.889852 
L 350.021222 292.889852 
L 350.369607 292.889852 
L 350.717992 292.889852 
L 351.066376 292.889852 
L 351.414761 292.889852 
L 351.763146 292.889852 
L 352.11153 292.889852 
L 352.459915 292.889852 
L 352.8083 292.889852 
L 353.156684 292.889852 
L 353.505069 292.889852 
L 353.853454 292.889852 
L 354.201838 292.889852 
L 354.550223 292.889852 
L 354.898608 292.889852 
L 355.246992 292.889852 
L 355.595377 292.889852 
L 355.943762 292.889852 
L 356.292146 292.889852 
L 356.640531 292.889852 
L 356.988916 292.889852 
L 357.3373 292.889852 
L 357.685685 292.889852 
L 358.03407 292.889852 
L 358.382454 292.889852 
L 358.730839 292.889852 
L 359.079224 292.889852 
L 359.427608 292.889852 
L 359.775993 292.889852 
L 360.124378 292.889852 
L 360.472762 292.889852 
L 360.821147 292.889852 
L 361.169532 292.889852 
L 361.517916 292.889852 
L 361.866301 292.889852 
L 362.214686 292.889852 
L 362.56307 292.889852 
L 362.911455 292.889852 
L 363.25984 292.889852 
L 363.608224 292.889852 
L 363.956609 292.889852 
L 364.304994 292.889852 
" clip-path="url(#p1576c34b77)" style="fill: none; stroke: #008000; stroke-width: 1.5; stroke-linecap: square"/>
   </g>
   <g id="line2d_37">
    <path d="M 364.321226 292.871865 
L 364.669611 292.099796 
L 365.017996 291.327727 
L 365.36638 290.555658 
L 365.714765 289.783589 
L 366.06315 289.011519 
L 366.411534 288.23945 
L 366.759919 287.467381 
L 367.108304 286.695312 
L 367.456688 285.923243 
L 367.805073 285.151174 
L 368.153458 284.379105 
L 368.501842 283.607036 
L 368.850227 282.834967 
L 369.198612 282.062898 
L 369.546996 281.290829 
L 369.895381 280.51876 
L 370.243766 279.74669 
L 370.59215 278.974621 
L 370.940535 278.202552 
L 371.28892 277.430483 
L 371.637304 276.658414 
L 371.985689 275.886345 
L 372.334074 275.114276 
L 372.682458 274.342207 
L 373.030843 273.570138 
L 373.379228 272.798069 
L 373.727612 272.026 
L 374.075997 271.253931 
L 374.424382 270.481861 
L 374.772766 269.709792 
L 375.121151 268.937723 
L 375.469536 268.165654 
L 375.81792 267.393585 
L 376.166305 266.621516 
L 376.51469 265.849447 
L 376.863074 265.077378 
L 377.211459 264.305309 
L 377.559844 263.53324 
L 377.908228 262.761171 
L 378.256613 261.989102 
L 378.604998 261.217032 
L 378.953382 260.444963 
L 379.301767 259.672894 
L 379.650152 258.900825 
L 379.998536 258.128756 
L 380.346921 257.356687 
L 380.695306 256.584618 
L 381.04369 255.812549 
L 381.392075 255.04048 
" clip-path="url(#p1576c34b77)" style="fill: none; stroke: #008000; stroke-width: 1.5; stroke-linecap: square"/>
   </g>
   <g id="line2d_38">
    <path d="M 381.408308 240.491202 
L 381.756692 239.372856 
L 382.105077 238.254511 
L 382.453462 237.136166 
L 382.801846 236.017821 
L 383.150231 234.899476 
L 383.498616 233.781131 
L 383.847 232.662786 
L 384.195385 231.54444 
L 384.54377 230.426095 
L 384.892154 229.30775 
L 385.240539 228.189405 
L 385.588924 227.07106 
L 385.937308 225.952715 
L 386.285693 224.834369 
L 386.634078 223.716024 
L 386.982462 222.597679 
L 387.330847 221.479334 
L 387.679232 220.360989 
L 388.027616 219.242644 
L 388.376001 218.124298 
L 388.724386 217.005953 
L 389.07277 215.887608 
L 389.421155 214.769263 
L 389.76954 213.650918 
L 390.117924 212.532573 
L 390.466309 211.414227 
L 390.814694 210.295882 
L 391.163078 209.177537 
L 391.511463 208.059192 
L 391.859848 206.940847 
L 392.208232 205.822502 
L 392.556617 204.704157 
L 392.905002 203.585811 
L 393.253386 202.467466 
L 393.601771 201.349121 
L 393.950156 200.230776 
L 394.29854 199.112431 
L 394.646925 197.994086 
L 394.99531 196.87574 
L 395.343694 195.757395 
L 395.692079 194.63905 
L 396.040464 193.520705 
L 396.388848 192.40236 
L 396.737233 191.284015 
L 397.085618 190.165669 
L 397.434002 189.047324 
L 397.782387 187.928979 
L 398.130772 186.810634 
L 398.479156 185.692289 
" clip-path="url(#p1576c34b77)" style="fill: none; stroke: #008000; stroke-width: 1.5; stroke-linecap: square"/>
   </g>
   <g id="patch_3">
    <path d="M 57.6 307.584 
L 57.6 41.472 
" style="fill: none; stroke: #000000; stroke-width: 0.8; stroke-linejoin: miter; stroke-linecap: square"/>
   </g>
   <g id="patch_4">
    <path d="M 414.72 307.584 
L 414.72 41.472 
" style="fill: none; stroke: #000000; stroke-width: 0.8; stroke-linejoin: miter; stroke-linecap: square"/>
   </g>
   <g id="patch_5">
    <path d="M 57.6 307.584 
L 414.72 307.584 
" style="fill: none; stroke: #000000; stroke-width: 0.8; stroke-linejoin: miter; stroke-linecap: square"/>
   </g>
   <g id="patch_6">
    <path d="M 57.6 41.472 
L 414.72 41.472 
" style="fill: none; stroke: #000000; stroke-width: 0.8; stroke-linejoin: miter; stroke-linecap: square"/>
   </g>
   <g id="legend_1">
    <g id="patch_7">
     <path d="M 64.6 93.906375 
L 210.795312 93.906375 
Q 212.795312 93.906375 212.795312 91.906375 
L 212.795312 48.472 
Q 212.795312 46.472 210.795312 46.472 
L 64.6 46.472 
Q 62.6 46.472 62.6 48.472 
L 62.6 91.906375 
Q 62.6 93.906375 64.6 93.906375 
z
" style="fill: #ffffff; opacity: 0.8; stroke: #cccccc; stroke-linejoin: miter"/>
    </g>
    <g id="line2d_39">
     <path d="M 66.6 54.570437 
L 76.6 54.570437 
L 86.6 54.570437 
" style="fill: none; stroke: #0000ff; stroke-width: 1.5; stroke-linecap: square"/>
    </g>
    <g id="text_21">
     <!-- Původní funkce -->
     <g transform="translate(94.6 58.070437)scale(0.1 -0.1)">
      <defs>
       <path id="DejaVuSans-50" d="M 1259 4147 
L 1259 2394 
L 2053 2394 
Q 2494 2394 2734 2622 
Q 2975 2850 2975 3272 
Q 2975 3691 2734 3919 
Q 2494 4147 2053 4147 
L 1259 4147 
z
M 628 4666 
L 2053 4666 
Q 2838 4666 3239 4311 
Q 3641 3956 3641 3272 
Q 3641 2581 3239 2228 
Q 2838 1875 2053 1875 
L 1259 1875 
L 1259 0 
L 628 0 
L 628 4666 
z
" transform="scale(0.015625)"/>
       <path id="DejaVuSans-16f" d="M 544 1381 
L 544 3500 
L 1119 3500 
L 1119 1403 
Q 1119 906 1312 657 
Q 1506 409 1894 409 
Q 2359 409 2629 706 
Q 2900 1003 2900 1516 
L 2900 3500 
L 3475 3500 
L 3475 0 
L 2900 0 
L 2900 538 
Q 2691 219 2414 64 
Q 2138 -91 1772 -91 
Q 1169 -91 856 284 
Q 544 659 544 1381 
z
M 1991 3584 
L 1991 3584 
z
M 2463 4575 
Q 2463 4771 2325 4908 
Q 2188 5046 1988 5046 
Q 1784 5046 1648 4910 
Q 1513 4775 1513 4575 
Q 1513 4371 1648 4235 
Q 1784 4100 1988 4100 
Q 2188 4100 2325 4237 
Q 2463 4375 2463 4575 
z
M 2844 4575 
Q 2844 4215 2595 3965 
Q 2347 3715 1988 3715 
Q 1628 3715 1379 3965 
Q 1131 4215 1131 4575 
Q 1131 4934 1379 5182 
Q 1628 5431 1988 5431 
Q 2347 5431 2595 5182 
Q 2844 4934 2844 4575 
z
" transform="scale(0.015625)"/>
       <path id="DejaVuSans-76" d="M 191 3500 
L 800 3500 
L 1894 563 
L 2988 3500 
L 3597 3500 
L 2284 0 
L 1503 0 
L 191 3500 
z
" transform="scale(0.015625)"/>
       <path id="DejaVuSans-6f" d="M 1959 3097 
Q 1497 3097 1228 2736 
Q 959 2375 959 1747 
Q 959 1119 1226 758 
Q 1494 397 1959 397 
Q 2419 397 2687 759 
Q 2956 1122 2956 1747 
Q 2956 2369 2687 2733 
Q 2419 3097 1959 3097 
z
M 1959 3584 
Q 2709 3584 3137 3096 
Q 3566 2609 3566 1747 
Q 3566 888 3137 398 
Q 2709 -91 1959 -91 
Q 1206 -91 779 398 
Q 353 888 353 1747 
Q 353 2609 779 3096 
Q 1206 3584 1959 3584 
z
" transform="scale(0.015625)"/>
       <path id="DejaVuSans-64" d="M 2906 2969 
L 2906 4863 
L 3481 4863 
L 3481 0 
L 2906 0 
L 2906 525 
Q 2725 213 2448 61 
Q 2172 -91 1784 -91 
Q 1150 -91 751 415 
Q 353 922 353 1747 
Q 353 2572 751 3078 
Q 1150 3584 1784 3584 
Q 2172 3584 2448 3432 
Q 2725 3281 2906 2969 
z
M 947 1747 
Q 947 1113 1208 752 
Q 1469 391 1925 391 
Q 2381 391 2643 752 
Q 2906 1113 2906 1747 
Q 2906 2381 2643 2742 
Q 2381 3103 1925 3103 
Q 1469 3103 1208 2742 
Q 947 2381 947 1747 
z
" transform="scale(0.015625)"/>
       <path id="DejaVuSans-6e" d="M 3513 2113 
L 3513 0 
L 2938 0 
L 2938 2094 
Q 2938 2591 2744 2837 
Q 2550 3084 2163 3084 
Q 1697 3084 1428 2787 
Q 1159 2491 1159 1978 
L 1159 0 
L 581 0 
L 581 3500 
L 1159 3500 
L 1159 2956 
Q 1366 3272 1645 3428 
Q 1925 3584 2291 3584 
Q 2894 3584 3203 3211 
Q 3513 2838 3513 2113 
z
" transform="scale(0.015625)"/>
       <path id="DejaVuSans-ed" d="M 1325 5119 
L 1947 5119 
L 928 3944 
L 450 3944 
L 1325 5119 
z
M 603 3500 
L 1178 3500 
L 1178 0 
L 603 0 
L 603 3500 
z
M 891 3584 
L 891 3584 
z
" transform="scale(0.015625)"/>
       <path id="DejaVuSans-20" transform="scale(0.015625)"/>
       <path id="DejaVuSans-66" d="M 2375 4863 
L 2375 4384 
L 1825 4384 
Q 1516 4384 1395 4259 
Q 1275 4134 1275 3809 
L 1275 3500 
L 2222 3500 
L 2222 3053 
L 1275 3053 
L 1275 0 
L 697 0 
L 697 3053 
L 147 3053 
L 147 3500 
L 697 3500 
L 697 3744 
Q 697 4328 969 4595 
Q 1241 4863 1831 4863 
L 2375 4863 
z
" transform="scale(0.015625)"/>
       <path id="DejaVuSans-75" d="M 544 1381 
L 544 3500 
L 1119 3500 
L 1119 1403 
Q 1119 906 1312 657 
Q 1506 409 1894 409 
Q 2359 409 2629 706 
Q 2900 1003 2900 1516 
L 2900 3500 
L 3475 3500 
L 3475 0 
L 2900 0 
L 2900 538 
Q 2691 219 2414 64 
Q 2138 -91 1772 -91 
Q 1169 -91 856 284 
Q 544 659 544 1381 
z
M 1991 3584 
L 1991 3584 
z
" transform="scale(0.015625)"/>
       <path id="DejaVuSans-6b" d="M 581 4863 
L 1159 4863 
L 1159 1991 
L 2875 3500 
L 3609 3500 
L 1753 1863 
L 3688 0 
L 2938 0 
L 1159 1709 
L 1159 0 
L 581 0 
L 581 4863 
z
" transform="scale(0.015625)"/>
       <path id="DejaVuSans-63" d="M 3122 3366 
L 3122 2828 
Q 2878 2963 2633 3030 
Q 2388 3097 2138 3097 
Q 1578 3097 1268 2742 
Q 959 2388 959 1747 
Q 959 1106 1268 751 
Q 1578 397 2138 397 
Q 2388 397 2633 464 
Q 2878 531 3122 666 
L 3122 134 
Q 2881 22 2623 -34 
Q 2366 -91 2075 -91 
Q 1284 -91 818 406 
Q 353 903 353 1747 
Q 353 2603 823 3093 
Q 1294 3584 2113 3584 
Q 2378 3584 2631 3529 
Q 2884 3475 3122 3366 
z
" transform="scale(0.015625)"/>
       <path id="DejaVuSans-65" d="M 3597 1894 
L 3597 1613 
L 953 1613 
Q 991 1019 1311 708 
Q 1631 397 2203 397 
Q 2534 397 2845 478 
Q 3156 559 3463 722 
L 3463 178 
Q 3153 47 2828 -22 
Q 2503 -91 2169 -91 
Q 1331 -91 842 396 
Q 353 884 353 1716 
Q 353 2575 817 3079 
Q 1281 3584 2069 3584 
Q 2775 3584 3186 3129 
Q 3597 2675 3597 1894 
z
M 3022 2063 
Q 3016 2534 2758 2815 
Q 2500 3097 2075 3097 
Q 1594 3097 1305 2825 
Q 1016 2553 972 2059 
L 3022 2063 
z
" transform="scale(0.015625)"/>
      </defs>
      <use xlink:href="#DejaVuSans-50"/>
      <use xlink:href="#DejaVuSans-16f" x="58.552734"/>
      <use xlink:href="#DejaVuSans-76" x="121.931641"/>
      <use xlink:href="#DejaVuSans-6f" x="181.111328"/>
      <use xlink:href="#DejaVuSans-64" x="242.292969"/>
      <use xlink:href="#DejaVuSans-6e" x="305.769531"/>
      <use xlink:href="#DejaVuSans-ed" x="369.148438"/>
      <use xlink:href="#DejaVuSans-20" x="396.931641"/>
      <use xlink:href="#DejaVuSans-66" x="428.71875"/>
      <use xlink:href="#DejaVuSans-75" x="463.923828"/>
      <use xlink:href="#DejaVuSans-6e" x="527.302734"/>
      <use xlink:href="#DejaVuSans-6b" x="590.681641"/>
      <use xlink:href="#DejaVuSans-63" x="648.591797"/>
      <use xlink:href="#DejaVuSans-65" x="703.572266"/>
     </g>
    </g>
    <g id="PathCollection_2">
     <g>
      <use xlink:href="#m861a152b22" x="76.6" y="70.523562" style="fill: #228b22; stroke: #228b22"/>
     </g>
    </g>
    <g id="text_22">
     <!-- Střední hodnoty buněk -->
     <g transform="translate(94.6 73.148562)scale(0.1 -0.1)">
      <defs>
       <path id="DejaVuSans-53" d="M 3425 4513 
L 3425 3897 
Q 3066 4069 2747 4153 
Q 2428 4238 2131 4238 
Q 1616 4238 1336 4038 
Q 1056 3838 1056 3469 
Q 1056 3159 1242 3001 
Q 1428 2844 1947 2747 
L 2328 2669 
Q 3034 2534 3370 2195 
Q 3706 1856 3706 1288 
Q 3706 609 3251 259 
Q 2797 -91 1919 -91 
Q 1588 -91 1214 -16 
Q 841 59 441 206 
L 441 856 
Q 825 641 1194 531 
Q 1563 422 1919 422 
Q 2459 422 2753 634 
Q 3047 847 3047 1241 
Q 3047 1584 2836 1778 
Q 2625 1972 2144 2069 
L 1759 2144 
Q 1053 2284 737 2584 
Q 422 2884 422 3419 
Q 422 4038 858 4394 
Q 1294 4750 2059 4750 
Q 2388 4750 2728 4690 
Q 3069 4631 3425 4513 
z
" transform="scale(0.015625)"/>
       <path id="DejaVuSans-74" d="M 1172 4494 
L 1172 3500 
L 2356 3500 
L 2356 3053 
L 1172 3053 
L 1172 1153 
Q 1172 725 1289 603 
Q 1406 481 1766 481 
L 2356 481 
L 2356 0 
L 1766 0 
Q 1100 0 847 248 
Q 594 497 594 1153 
L 594 3053 
L 172 3053 
L 172 3500 
L 594 3500 
L 594 4494 
L 1172 4494 
z
" transform="scale(0.015625)"/>
       <path id="DejaVuSans-159" d="M 2631 2963 
Q 2534 3019 2420 3045 
Q 2306 3072 2169 3072 
Q 1681 3072 1420 2755 
Q 1159 2438 1159 1844 
L 1159 0 
L 581 0 
L 581 3500 
L 1159 3500 
L 1159 2956 
Q 1341 3275 1631 3429 
Q 1922 3584 2338 3584 
Q 2397 3584 2469 3576 
Q 2541 3569 2628 3553 
L 2631 2963 
z
M 1453 3944 
L 688 5119 
L 1122 5119 
L 1684 4353 
L 2247 5119 
L 2681 5119 
L 1916 3944 
L 1453 3944 
z
" transform="scale(0.015625)"/>
       <path id="DejaVuSans-68" d="M 3513 2113 
L 3513 0 
L 2938 0 
L 2938 2094 
Q 2938 2591 2744 2837 
Q 2550 3084 2163 3084 
Q 1697 3084 1428 2787 
Q 1159 2491 1159 1978 
L 1159 0 
L 581 0 
L 581 4863 
L 1159 4863 
L 1159 2956 
Q 1366 3272 1645 3428 
Q 1925 3584 2291 3584 
Q 2894 3584 3203 3211 
Q 3513 2838 3513 2113 
z
" transform="scale(0.015625)"/>
       <path id="DejaVuSans-79" d="M 2059 -325 
Q 1816 -950 1584 -1140 
Q 1353 -1331 966 -1331 
L 506 -1331 
L 506 -850 
L 844 -850 
Q 1081 -850 1212 -737 
Q 1344 -625 1503 -206 
L 1606 56 
L 191 3500 
L 800 3500 
L 1894 763 
L 2988 3500 
L 3597 3500 
L 2059 -325 
z
" transform="scale(0.015625)"/>
       <path id="DejaVuSans-62" d="M 3116 1747 
Q 3116 2381 2855 2742 
Q 2594 3103 2138 3103 
Q 1681 3103 1420 2742 
Q 1159 2381 1159 1747 
Q 1159 1113 1420 752 
Q 1681 391 2138 391 
Q 2594 391 2855 752 
Q 3116 1113 3116 1747 
z
M 1159 2969 
Q 1341 3281 1617 3432 
Q 1894 3584 2278 3584 
Q 2916 3584 3314 3078 
Q 3713 2572 3713 1747 
Q 3713 922 3314 415 
Q 2916 -91 2278 -91 
Q 1894 -91 1617 61 
Q 1341 213 1159 525 
L 1159 0 
L 581 0 
L 581 4863 
L 1159 4863 
L 1159 2969 
z
" transform="scale(0.015625)"/>
       <path id="DejaVuSans-11b" d="M 3597 1894 
L 3597 1613 
L 953 1613 
Q 991 1019 1311 708 
Q 1631 397 2203 397 
Q 2534 397 2845 478 
Q 3156 559 3463 722 
L 3463 178 
Q 3153 47 2828 -22 
Q 2503 -91 2169 -91 
Q 1331 -91 842 396 
Q 353 884 353 1716 
Q 353 2575 817 3079 
Q 1281 3584 2069 3584 
Q 2775 3584 3186 3129 
Q 3597 2675 3597 1894 
z
M 3022 2063 
Q 3016 2534 2758 2815 
Q 2500 3097 2075 3097 
Q 1594 3097 1305 2825 
Q 1016 2553 972 2059 
L 3022 2063 
z
M 1831 3928 
L 1066 5103 
L 1500 5103 
L 2063 4337 
L 2625 5103 
L 3059 5103 
L 2294 3928 
L 1831 3928 
z
" transform="scale(0.015625)"/>
      </defs>
      <use xlink:href="#DejaVuSans-53"/>
      <use xlink:href="#DejaVuSans-74" x="63.476562"/>
      <use xlink:href="#DejaVuSans-159" x="102.685547"/>
      <use xlink:href="#DejaVuSans-65" x="141.548828"/>
      <use xlink:href="#DejaVuSans-64" x="203.072266"/>
      <use xlink:href="#DejaVuSans-6e" x="266.548828"/>
      <use xlink:href="#DejaVuSans-ed" x="329.927734"/>
      <use xlink:href="#DejaVuSans-20" x="357.710938"/>
      <use xlink:href="#DejaVuSans-68" x="389.498047"/>
      <use xlink:href="#DejaVuSans-6f" x="452.876953"/>
      <use xlink:href="#DejaVuSans-64" x="514.058594"/>
      <use xlink:href="#DejaVuSans-6e" x="577.535156"/>
      <use xlink:href="#DejaVuSans-6f" x="640.914062"/>
      <use xlink:href="#DejaVuSans-74" x="702.095703"/>
      <use xlink:href="#DejaVuSans-79" x="741.304688"/>
      <use xlink:href="#DejaVuSans-20" x="800.484375"/>
      <use xlink:href="#DejaVuSans-62" x="832.271484"/>
      <use xlink:href="#DejaVuSans-75" x="895.748047"/>
      <use xlink:href="#DejaVuSans-6e" x="959.126953"/>
      <use xlink:href="#DejaVuSans-11b" x="1022.505859"/>
      <use xlink:href="#DejaVuSans-6b" x="1084.029297"/>
     </g>
    </g>
    <g id="line2d_40">
     <path d="M 66.6 84.326687 
L 76.6 84.326687 
L 86.6 84.326687 
" style="fill: none; stroke: #008000; stroke-width: 1.5; stroke-linecap: square"/>
    </g>
    <g id="text_23">
     <!-- Rekonstrukce -->
     <g transform="translate(94.6 87.826687)scale(0.1 -0.1)">
      <defs>
       <path id="DejaVuSans-52" d="M 2841 2188 
Q 3044 2119 3236 1894 
Q 3428 1669 3622 1275 
L 4263 0 
L 3584 0 
L 2988 1197 
Q 2756 1666 2539 1819 
Q 2322 1972 1947 1972 
L 1259 1972 
L 1259 0 
L 628 0 
L 628 4666 
L 2053 4666 
Q 2853 4666 3247 4331 
Q 3641 3997 3641 3322 
Q 3641 2881 3436 2590 
Q 3231 2300 2841 2188 
z
M 1259 4147 
L 1259 2491 
L 2053 2491 
Q 2509 2491 2742 2702 
Q 2975 2913 2975 3322 
Q 2975 3731 2742 3939 
Q 2509 4147 2053 4147 
L 1259 4147 
z
" transform="scale(0.015625)"/>
       <path id="DejaVuSans-73" d="M 2834 3397 
L 2834 2853 
Q 2591 2978 2328 3040 
Q 2066 3103 1784 3103 
Q 1356 3103 1142 2972 
Q 928 2841 928 2578 
Q 928 2378 1081 2264 
Q 1234 2150 1697 2047 
L 1894 2003 
Q 2506 1872 2764 1633 
Q 3022 1394 3022 966 
Q 3022 478 2636 193 
Q 2250 -91 1575 -91 
Q 1294 -91 989 -36 
Q 684 19 347 128 
L 347 722 
Q 666 556 975 473 
Q 1284 391 1588 391 
Q 1994 391 2212 530 
Q 2431 669 2431 922 
Q 2431 1156 2273 1281 
Q 2116 1406 1581 1522 
L 1381 1569 
Q 847 1681 609 1914 
Q 372 2147 372 2553 
Q 372 3047 722 3315 
Q 1072 3584 1716 3584 
Q 2034 3584 2315 3537 
Q 2597 3491 2834 3397 
z
" transform="scale(0.015625)"/>
       <path id="DejaVuSans-72" d="M 2631 2963 
Q 2534 3019 2420 3045 
Q 2306 3072 2169 3072 
Q 1681 3072 1420 2755 
Q 1159 2438 1159 1844 
L 1159 0 
L 581 0 
L 581 3500 
L 1159 3500 
L 1159 2956 
Q 1341 3275 1631 3429 
Q 1922 3584 2338 3584 
Q 2397 3584 2469 3576 
Q 2541 3569 2628 3553 
L 2631 2963 
z
" transform="scale(0.015625)"/>
      </defs>
      <use xlink:href="#DejaVuSans-52"/>
      <use xlink:href="#DejaVuSans-65" x="64.982422"/>
      <use xlink:href="#DejaVuSans-6b" x="126.505859"/>
      <use xlink:href="#DejaVuSans-6f" x="180.791016"/>
      <use xlink:href="#DejaVuSans-6e" x="241.972656"/>
      <use xlink:href="#DejaVuSans-73" x="305.351562"/>
      <use xlink:href="#DejaVuSans-74" x="357.451172"/>
      <use xlink:href="#DejaVuSans-72" x="396.660156"/>
      <use xlink:href="#DejaVuSans-75" x="437.773438"/>
      <use xlink:href="#DejaVuSans-6b" x="501.152344"/>
      <use xlink:href="#DejaVuSans-63" x="559.0625"/>
      <use xlink:href="#DejaVuSans-65" x="614.042969"/>
     </g>
    </g>
   </g>
  </g>
 </g>
 <defs>
  <clipPath id="p1576c34b77">
   <rect x="57.6" y="41.472" width="357.12" height="266.112"/>
  </clipPath>
 </defs>
</svg>
