<?xml version="1.0" encoding="utf-8" standalone="no"?>
<!DOCTYPE svg PUBLIC "-//W3C//DTD SVG 1.1//EN"
  "http://www.w3.org/Graphics/SVG/1.1/DTD/svg11.dtd">
<svg xmlns:xlink="http://www.w3.org/1999/xlink" width="460.8pt" height="345.6pt" viewBox="0 0 460.8 345.6" xmlns="http://www.w3.org/2000/svg" version="1.1">
 <metadata>
  <rdf:RDF xmlns:dc="http://purl.org/dc/elements/1.1/" xmlns:cc="http://creativecommons.org/ns#" xmlns:rdf="http://www.w3.org/1999/02/22-rdf-syntax-ns#">
   <cc:Work>
    <dc:type rdf:resource="http://purl.org/dc/dcmitype/StillImage"/>
    <dc:date>2023-08-01T22:36:54.138581</dc:date>
    <dc:format>image/svg+xml</dc:format>
    <dc:creator>
     <cc:Agent>
      <dc:title>Matplotlib v3.5.2, https://matplotlib.org/</dc:title>
     </cc:Agent>
    </dc:creator>
   </cc:Work>
  </rdf:RDF>
 </metadata>
 <defs>
  <style type="text/css">*{stroke-linejoin: round; stroke-linecap: butt}</style>
 </defs>
 <g id="figure_1">
  <g id="patch_1">
   <path d="M 0 345.6 
L 460.8 345.6 
L 460.8 0 
L 0 0 
z
" style="fill: #ffffff"/>
  </g>
  <g id="axes_1">
   <g id="patch_2">
    <path d="M 57.6 307.584 
L 414.72 307.584 
L 414.72 41.472 
L 57.6 41.472 
z
" style="fill: #ffffff"/>
   </g>
   <g id="PathCollection_1">
    <defs>
     <path id="me3654cd70a" d="M 0 3 
C 0.795609 3 1.55874 2.683901 2.12132 2.12132 
C 2.683901 1.55874 3 0.795609 3 0 
C 3 -0.795609 2.683901 -1.55874 2.12132 -2.12132 
C 1.55874 -2.683901 0.795609 -3 0 -3 
C -0.795609 -3 -1.55874 -2.683901 -2.12132 -2.12132 
C -2.683901 -1.55874 -3 -0.795609 -3 0 
C -3 0.795609 -2.683901 1.55874 -2.12132 2.12132 
C -1.55874 2.683901 -0.795609 3 0 3 
z
" style="stroke: #228b22"/>
    </defs>
    <g clip-path="url(#pb6537ff2ea)">
     <use xlink:href="#me3654cd70a" x="82.376268" y="56.123329" style="fill: #228b22; stroke: #228b22"/>
     <use xlink:href="#me3654cd70a" x="99.463349" y="61.285824" style="fill: #228b22; stroke: #228b22"/>
     <use xlink:href="#me3654cd70a" x="116.550431" y="66.659323" style="fill: #228b22; stroke: #228b22"/>
     <use xlink:href="#me3654cd70a" x="133.637512" y="72.003104" style="fill: #228b22; stroke: #228b22"/>
     <use xlink:href="#me3654cd70a" x="150.724593" y="76.069411" style="fill: #228b22; stroke: #228b22"/>
     <use xlink:href="#me3654cd70a" x="167.811675" y="79.061364" style="fill: #228b22; stroke: #228b22"/>
     <use xlink:href="#me3654cd70a" x="184.898756" y="81.434475" style="fill: #228b22; stroke: #228b22"/>
     <use xlink:href="#me3654cd70a" x="201.985837" y="83.246552" style="fill: #228b22; stroke: #228b22"/>
     <use xlink:href="#me3654cd70a" x="219.072919" y="84.511148" style="fill: #228b22; stroke: #228b22"/>
     <use xlink:href="#me3654cd70a" x="236.16" y="131.865226" style="fill: #228b22; stroke: #228b22"/>
     <use xlink:href="#me3654cd70a" x="253.247081" y="245.381205" style="fill: #228b22; stroke: #228b22"/>
     <use xlink:href="#me3654cd70a" x="270.334163" y="259.122287" style="fill: #228b22; stroke: #228b22"/>
     <use xlink:href="#me3654cd70a" x="287.421244" y="261.095907" style="fill: #228b22; stroke: #228b22"/>
     <use xlink:href="#me3654cd70a" x="304.508325" y="261.082632" style="fill: #228b22; stroke: #228b22"/>
     <use xlink:href="#me3654cd70a" x="321.595407" y="263.069136" style="fill: #228b22; stroke: #228b22"/>
     <use xlink:href="#me3654cd70a" x="338.682488" y="267.99012" style="fill: #228b22; stroke: #228b22"/>
     <use xlink:href="#me3654cd70a" x="355.769569" y="275.309261" style="fill: #228b22; stroke: #228b22"/>
     <use xlink:href="#me3654cd70a" x="372.856651" y="283.518225" style="fill: #228b22; stroke: #228b22"/>
     <use xlink:href="#me3654cd70a" x="389.943732" y="291.57596" style="fill: #228b22; stroke: #228b22"/>
    </g>
   </g>
   <g id="matplotlib.axis_1">
    <g id="xtick_1">
     <g id="line2d_1">
      <defs>
       <path id="m33d84fbbe7" d="M 0 0 
L 0 3.5 
" style="stroke: #000000; stroke-width: 0.8"/>
      </defs>
      <g>
       <use xlink:href="#m33d84fbbe7" x="73.832727" y="307.584" style="stroke: #000000; stroke-width: 0.8"/>
      </g>
     </g>
     <g id="text_1">
      <!-- −1.00 -->
      <g transform="translate(58.510071 322.182437)scale(0.1 -0.1)">
       <defs>
        <path id="DejaVuSans-2212" d="M 678 2272 
L 4684 2272 
L 4684 1741 
L 678 1741 
L 678 2272 
z
" transform="scale(0.015625)"/>
        <path id="DejaVuSans-31" d="M 794 531 
L 1825 531 
L 1825 4091 
L 703 3866 
L 703 4441 
L 1819 4666 
L 2450 4666 
L 2450 531 
L 3481 531 
L 3481 0 
L 794 0 
L 794 531 
z
" transform="scale(0.015625)"/>
        <path id="DejaVuSans-2e" d="M 684 794 
L 1344 794 
L 1344 0 
L 684 0 
L 684 794 
z
" transform="scale(0.015625)"/>
        <path id="DejaVuSans-30" d="M 2034 4250 
Q 1547 4250 1301 3770 
Q 1056 3291 1056 2328 
Q 1056 1369 1301 889 
Q 1547 409 2034 409 
Q 2525 409 2770 889 
Q 3016 1369 3016 2328 
Q 3016 3291 2770 3770 
Q 2525 4250 2034 4250 
z
M 2034 4750 
Q 2819 4750 3233 4129 
Q 3647 3509 3647 2328 
Q 3647 1150 3233 529 
Q 2819 -91 2034 -91 
Q 1250 -91 836 529 
Q 422 1150 422 2328 
Q 422 3509 836 4129 
Q 1250 4750 2034 4750 
z
" transform="scale(0.015625)"/>
       </defs>
       <use xlink:href="#DejaVuSans-2212"/>
       <use xlink:href="#DejaVuSans-31" x="83.789062"/>
       <use xlink:href="#DejaVuSans-2e" x="147.412109"/>
       <use xlink:href="#DejaVuSans-30" x="179.199219"/>
       <use xlink:href="#DejaVuSans-30" x="242.822266"/>
      </g>
     </g>
    </g>
    <g id="xtick_2">
     <g id="line2d_2">
      <g>
       <use xlink:href="#m33d84fbbe7" x="114.414545" y="307.584" style="stroke: #000000; stroke-width: 0.8"/>
      </g>
     </g>
     <g id="text_2">
      <!-- −0.75 -->
      <g transform="translate(99.091889 322.182437)scale(0.1 -0.1)">
       <defs>
        <path id="DejaVuSans-37" d="M 525 4666 
L 3525 4666 
L 3525 4397 
L 1831 0 
L 1172 0 
L 2766 4134 
L 525 4134 
L 525 4666 
z
" transform="scale(0.015625)"/>
        <path id="DejaVuSans-35" d="M 691 4666 
L 3169 4666 
L 3169 4134 
L 1269 4134 
L 1269 2991 
Q 1406 3038 1543 3061 
Q 1681 3084 1819 3084 
Q 2600 3084 3056 2656 
Q 3513 2228 3513 1497 
Q 3513 744 3044 326 
Q 2575 -91 1722 -91 
Q 1428 -91 1123 -41 
Q 819 9 494 109 
L 494 744 
Q 775 591 1075 516 
Q 1375 441 1709 441 
Q 2250 441 2565 725 
Q 2881 1009 2881 1497 
Q 2881 1984 2565 2268 
Q 2250 2553 1709 2553 
Q 1456 2553 1204 2497 
Q 953 2441 691 2322 
L 691 4666 
z
" transform="scale(0.015625)"/>
       </defs>
       <use xlink:href="#DejaVuSans-2212"/>
       <use xlink:href="#DejaVuSans-30" x="83.789062"/>
       <use xlink:href="#DejaVuSans-2e" x="147.412109"/>
       <use xlink:href="#DejaVuSans-37" x="179.199219"/>
       <use xlink:href="#DejaVuSans-35" x="242.822266"/>
      </g>
     </g>
    </g>
    <g id="xtick_3">
     <g id="line2d_3">
      <g>
       <use xlink:href="#m33d84fbbe7" x="154.996364" y="307.584" style="stroke: #000000; stroke-width: 0.8"/>
      </g>
     </g>
     <g id="text_3">
      <!-- −0.50 -->
      <g transform="translate(139.673707 322.182437)scale(0.1 -0.1)">
       <use xlink:href="#DejaVuSans-2212"/>
       <use xlink:href="#DejaVuSans-30" x="83.789062"/>
       <use xlink:href="#DejaVuSans-2e" x="147.412109"/>
       <use xlink:href="#DejaVuSans-35" x="179.199219"/>
       <use xlink:href="#DejaVuSans-30" x="242.822266"/>
      </g>
     </g>
    </g>
    <g id="xtick_4">
     <g id="line2d_4">
      <g>
       <use xlink:href="#m33d84fbbe7" x="195.578182" y="307.584" style="stroke: #000000; stroke-width: 0.8"/>
      </g>
     </g>
     <g id="text_4">
      <!-- −0.25 -->
      <g transform="translate(180.255526 322.182437)scale(0.1 -0.1)">
       <defs>
        <path id="DejaVuSans-32" d="M 1228 531 
L 3431 531 
L 3431 0 
L 469 0 
L 469 531 
Q 828 903 1448 1529 
Q 2069 2156 2228 2338 
Q 2531 2678 2651 2914 
Q 2772 3150 2772 3378 
Q 2772 3750 2511 3984 
Q 2250 4219 1831 4219 
Q 1534 4219 1204 4116 
Q 875 4013 500 3803 
L 500 4441 
Q 881 4594 1212 4672 
Q 1544 4750 1819 4750 
Q 2544 4750 2975 4387 
Q 3406 4025 3406 3419 
Q 3406 3131 3298 2873 
Q 3191 2616 2906 2266 
Q 2828 2175 2409 1742 
Q 1991 1309 1228 531 
z
" transform="scale(0.015625)"/>
       </defs>
       <use xlink:href="#DejaVuSans-2212"/>
       <use xlink:href="#DejaVuSans-30" x="83.789062"/>
       <use xlink:href="#DejaVuSans-2e" x="147.412109"/>
       <use xlink:href="#DejaVuSans-32" x="179.199219"/>
       <use xlink:href="#DejaVuSans-35" x="242.822266"/>
      </g>
     </g>
    </g>
    <g id="xtick_5">
     <g id="line2d_5">
      <g>
       <use xlink:href="#m33d84fbbe7" x="236.16" y="307.584" style="stroke: #000000; stroke-width: 0.8"/>
      </g>
     </g>
     <g id="text_5">
      <!-- 0.00 -->
      <g transform="translate(225.027187 322.182437)scale(0.1 -0.1)">
       <use xlink:href="#DejaVuSans-30"/>
       <use xlink:href="#DejaVuSans-2e" x="63.623047"/>
       <use xlink:href="#DejaVuSans-30" x="95.410156"/>
       <use xlink:href="#DejaVuSans-30" x="159.033203"/>
      </g>
     </g>
    </g>
    <g id="xtick_6">
     <g id="line2d_6">
      <g>
       <use xlink:href="#m33d84fbbe7" x="276.741818" y="307.584" style="stroke: #000000; stroke-width: 0.8"/>
      </g>
     </g>
     <g id="text_6">
      <!-- 0.25 -->
      <g transform="translate(265.609006 322.182437)scale(0.1 -0.1)">
       <use xlink:href="#DejaVuSans-30"/>
       <use xlink:href="#DejaVuSans-2e" x="63.623047"/>
       <use xlink:href="#DejaVuSans-32" x="95.410156"/>
       <use xlink:href="#DejaVuSans-35" x="159.033203"/>
      </g>
     </g>
    </g>
    <g id="xtick_7">
     <g id="line2d_7">
      <g>
       <use xlink:href="#m33d84fbbe7" x="317.323636" y="307.584" style="stroke: #000000; stroke-width: 0.8"/>
      </g>
     </g>
     <g id="text_7">
      <!-- 0.50 -->
      <g transform="translate(306.190824 322.182437)scale(0.1 -0.1)">
       <use xlink:href="#DejaVuSans-30"/>
       <use xlink:href="#DejaVuSans-2e" x="63.623047"/>
       <use xlink:href="#DejaVuSans-35" x="95.410156"/>
       <use xlink:href="#DejaVuSans-30" x="159.033203"/>
      </g>
     </g>
    </g>
    <g id="xtick_8">
     <g id="line2d_8">
      <g>
       <use xlink:href="#m33d84fbbe7" x="357.905455" y="307.584" style="stroke: #000000; stroke-width: 0.8"/>
      </g>
     </g>
     <g id="text_8">
      <!-- 0.75 -->
      <g transform="translate(346.772642 322.182437)scale(0.1 -0.1)">
       <use xlink:href="#DejaVuSans-30"/>
       <use xlink:href="#DejaVuSans-2e" x="63.623047"/>
       <use xlink:href="#DejaVuSans-37" x="95.410156"/>
       <use xlink:href="#DejaVuSans-35" x="159.033203"/>
      </g>
     </g>
    </g>
    <g id="xtick_9">
     <g id="line2d_9">
      <g>
       <use xlink:href="#m33d84fbbe7" x="398.487273" y="307.584" style="stroke: #000000; stroke-width: 0.8"/>
      </g>
     </g>
     <g id="text_9">
      <!-- 1.00 -->
      <g transform="translate(387.35446 322.182437)scale(0.1 -0.1)">
       <use xlink:href="#DejaVuSans-31"/>
       <use xlink:href="#DejaVuSans-2e" x="63.623047"/>
       <use xlink:href="#DejaVuSans-30" x="95.410156"/>
       <use xlink:href="#DejaVuSans-30" x="159.033203"/>
      </g>
     </g>
    </g>
    <g id="text_10">
     <!-- x -->
     <g transform="translate(233.200625 335.860562)scale(0.1 -0.1)">
      <defs>
       <path id="DejaVuSans-78" d="M 3513 3500 
L 2247 1797 
L 3578 0 
L 2900 0 
L 1881 1375 
L 863 0 
L 184 0 
L 1544 1831 
L 300 3500 
L 978 3500 
L 1906 2253 
L 2834 3500 
L 3513 3500 
z
" transform="scale(0.015625)"/>
      </defs>
      <use xlink:href="#DejaVuSans-78"/>
     </g>
    </g>
   </g>
   <g id="matplotlib.axis_2">
    <g id="ytick_1">
     <g id="line2d_10">
      <defs>
       <path id="me5c440ebd7" d="M 0 0 
L -3.5 0 
" style="stroke: #000000; stroke-width: 0.8"/>
      </defs>
      <g>
       <use xlink:href="#me5c440ebd7" x="57.6" y="295.366914" style="stroke: #000000; stroke-width: 0.8"/>
      </g>
     </g>
     <g id="text_11">
      <!-- −6 -->
      <g transform="translate(35.857813 299.166132)scale(0.1 -0.1)">
       <defs>
        <path id="DejaVuSans-36" d="M 2113 2584 
Q 1688 2584 1439 2293 
Q 1191 2003 1191 1497 
Q 1191 994 1439 701 
Q 1688 409 2113 409 
Q 2538 409 2786 701 
Q 3034 994 3034 1497 
Q 3034 2003 2786 2293 
Q 2538 2584 2113 2584 
z
M 3366 4563 
L 3366 3988 
Q 3128 4100 2886 4159 
Q 2644 4219 2406 4219 
Q 1781 4219 1451 3797 
Q 1122 3375 1075 2522 
Q 1259 2794 1537 2939 
Q 1816 3084 2150 3084 
Q 2853 3084 3261 2657 
Q 3669 2231 3669 1497 
Q 3669 778 3244 343 
Q 2819 -91 2113 -91 
Q 1303 -91 875 529 
Q 447 1150 447 2328 
Q 447 3434 972 4092 
Q 1497 4750 2381 4750 
Q 2619 4750 2861 4703 
Q 3103 4656 3366 4563 
z
" transform="scale(0.015625)"/>
       </defs>
       <use xlink:href="#DejaVuSans-2212"/>
       <use xlink:href="#DejaVuSans-36" x="83.789062"/>
      </g>
     </g>
    </g>
    <g id="ytick_2">
     <g id="line2d_11">
      <g>
       <use xlink:href="#me5c440ebd7" x="57.6" y="247.014695" style="stroke: #000000; stroke-width: 0.8"/>
      </g>
     </g>
     <g id="text_12">
      <!-- −4 -->
      <g transform="translate(35.857813 250.813914)scale(0.1 -0.1)">
       <defs>
        <path id="DejaVuSans-34" d="M 2419 4116 
L 825 1625 
L 2419 1625 
L 2419 4116 
z
M 2253 4666 
L 3047 4666 
L 3047 1625 
L 3713 1625 
L 3713 1100 
L 3047 1100 
L 3047 0 
L 2419 0 
L 2419 1100 
L 313 1100 
L 313 1709 
L 2253 4666 
z
" transform="scale(0.015625)"/>
       </defs>
       <use xlink:href="#DejaVuSans-2212"/>
       <use xlink:href="#DejaVuSans-34" x="83.789062"/>
      </g>
     </g>
    </g>
    <g id="ytick_3">
     <g id="line2d_12">
      <g>
       <use xlink:href="#me5c440ebd7" x="57.6" y="198.662477" style="stroke: #000000; stroke-width: 0.8"/>
      </g>
     </g>
     <g id="text_13">
      <!-- −2 -->
      <g transform="translate(35.857813 202.461696)scale(0.1 -0.1)">
       <use xlink:href="#DejaVuSans-2212"/>
       <use xlink:href="#DejaVuSans-32" x="83.789062"/>
      </g>
     </g>
    </g>
    <g id="ytick_4">
     <g id="line2d_13">
      <g>
       <use xlink:href="#me5c440ebd7" x="57.6" y="150.310258" style="stroke: #000000; stroke-width: 0.8"/>
      </g>
     </g>
     <g id="text_14">
      <!-- 0 -->
      <g transform="translate(44.2375 154.109477)scale(0.1 -0.1)">
       <use xlink:href="#DejaVuSans-30"/>
      </g>
     </g>
    </g>
    <g id="ytick_5">
     <g id="line2d_14">
      <g>
       <use xlink:href="#me5c440ebd7" x="57.6" y="101.95804" style="stroke: #000000; stroke-width: 0.8"/>
      </g>
     </g>
     <g id="text_15">
      <!-- 2 -->
      <g transform="translate(44.2375 105.757259)scale(0.1 -0.1)">
       <use xlink:href="#DejaVuSans-32"/>
      </g>
     </g>
    </g>
    <g id="ytick_6">
     <g id="line2d_15">
      <g>
       <use xlink:href="#me5c440ebd7" x="57.6" y="53.605822" style="stroke: #000000; stroke-width: 0.8"/>
      </g>
     </g>
     <g id="text_16">
      <!-- 4 -->
      <g transform="translate(44.2375 57.40504)scale(0.1 -0.1)">
       <use xlink:href="#DejaVuSans-34"/>
      </g>
     </g>
    </g>
    <g id="text_17">
     <!-- $f_i$ -->
     <g transform="translate(29.778125 177.428)rotate(-90)scale(0.1 -0.1)">
      <defs>
       <path id="DejaVuSans-Oblique-66" d="M 3059 4863 
L 2969 4384 
L 2419 4384 
Q 2106 4384 1964 4261 
Q 1822 4138 1753 3809 
L 1691 3500 
L 2638 3500 
L 2553 3053 
L 1606 3053 
L 1013 0 
L 434 0 
L 1031 3053 
L 481 3053 
L 563 3500 
L 1113 3500 
L 1159 3744 
Q 1278 4363 1576 4613 
Q 1875 4863 2516 4863 
L 3059 4863 
z
" transform="scale(0.015625)"/>
       <path id="DejaVuSans-Oblique-69" d="M 1172 4863 
L 1747 4863 
L 1606 4134 
L 1031 4134 
L 1172 4863 
z
M 909 3500 
L 1484 3500 
L 800 0 
L 225 0 
L 909 3500 
z
" transform="scale(0.015625)"/>
      </defs>
      <use xlink:href="#DejaVuSans-Oblique-66" transform="translate(0 0.015625)"/>
      <use xlink:href="#DejaVuSans-Oblique-69" transform="translate(35.205078 -16.390625)scale(0.7)"/>
     </g>
    </g>
   </g>
   <g id="line2d_16">
    <path d="M 73.832727 53.605822 
L 235.99751 101.909639 
L 236.32249 222.911187 
L 398.487273 295.366914 
L 398.487273 295.366914 
" clip-path="url(#pb6537ff2ea)" style="fill: none; stroke: #0000ff; stroke-width: 1.5; stroke-linecap: square"/>
   </g>
   <g id="line2d_17">
    <path d="M 73.840844 53.568 
L 74.189228 53.671835 
L 74.537613 53.775699 
L 74.885998 53.879593 
L 75.234382 53.983516 
L 75.582767 54.087468 
L 75.931152 54.191449 
L 76.279536 54.29546 
L 76.627921 54.3995 
L 76.976306 54.503569 
L 77.32469 54.607668 
L 77.673075 54.711796 
L 78.02146 54.815953 
L 78.369844 54.92014 
L 78.718229 55.024356 
L 79.066614 55.128601 
L 79.414998 55.232875 
L 79.763383 55.337179 
L 80.111768 55.441512 
L 80.460152 55.545875 
L 80.808537 55.650267 
L 81.156922 55.754688 
L 81.505306 55.859138 
L 81.853691 55.963618 
L 82.202076 56.068126 
L 82.55046 56.172665 
L 82.898845 56.277232 
L 83.24723 56.381829 
L 83.595614 56.486455 
L 83.943999 56.591111 
L 84.292384 56.695796 
L 84.640768 56.80051 
L 84.989153 56.905253 
L 85.337538 57.010026 
L 85.685922 57.114828 
L 86.034307 57.219659 
L 86.382692 57.32452 
L 86.731076 57.42941 
L 87.079461 57.534329 
L 87.427846 57.639277 
L 87.77623 57.744255 
L 88.124615 57.849262 
L 88.473 57.954299 
L 88.821384 58.059365 
L 89.169769 58.16446 
L 89.518154 58.269584 
L 89.866538 58.374738 
L 90.214923 58.479921 
L 90.563308 58.585133 
L 90.911692 58.690375 
" clip-path="url(#pb6537ff2ea)" style="fill: none; stroke: #008000; stroke-width: 1.5; stroke-linecap: square"/>
   </g>
   <g id="line2d_18">
    <path d="M 90.927925 58.671861 
L 91.27631 58.777164 
L 91.624694 58.882554 
L 91.973079 58.988033 
L 92.321464 59.093599 
L 92.669848 59.199252 
L 93.018233 59.304994 
L 93.366618 59.410823 
L 93.715002 59.51674 
L 94.063387 59.622744 
L 94.411772 59.728837 
L 94.760156 59.835017 
L 95.108541 59.941284 
L 95.456926 60.04764 
L 95.80531 60.154083 
L 96.153695 60.260614 
L 96.50208 60.367232 
L 96.850464 60.473939 
L 97.198849 60.580733 
L 97.547234 60.687614 
L 97.895618 60.794584 
L 98.244003 60.901641 
L 98.592388 61.008786 
L 98.940772 61.116018 
L 99.289157 61.223339 
L 99.637542 61.330747 
L 99.985926 61.438242 
L 100.334311 61.545826 
L 100.682696 61.653497 
L 101.03108 61.761256 
L 101.379465 61.869102 
L 101.72785 61.977037 
L 102.076234 62.085059 
L 102.424619 62.193168 
L 102.773004 62.301366 
L 103.121388 62.409651 
L 103.469773 62.518024 
L 103.818158 62.626484 
L 104.166542 62.735033 
L 104.514927 62.843669 
L 104.863312 62.952393 
L 105.211696 63.061204 
L 105.560081 63.170103 
L 105.908466 63.27909 
L 106.25685 63.388165 
L 106.605235 63.497327 
L 106.95362 63.606577 
L 107.302004 63.715915 
L 107.650389 63.82534 
L 107.998774 63.934853 
" clip-path="url(#pb6537ff2ea)" style="fill: none; stroke: #008000; stroke-width: 1.5; stroke-linecap: square"/>
   </g>
   <g id="line2d_19">
    <path d="M 108.015006 63.980079 
L 108.363391 64.089631 
L 108.711776 64.199172 
L 109.06016 64.3087 
L 109.408545 64.418215 
L 109.75693 64.527718 
L 110.105314 64.637209 
L 110.453699 64.746688 
L 110.802084 64.856154 
L 111.150468 64.965608 
L 111.498853 65.075049 
L 111.847238 65.184478 
L 112.195622 65.293895 
L 112.544007 65.403299 
L 112.892392 65.512691 
L 113.240776 65.622071 
L 113.589161 65.731438 
L 113.937546 65.840793 
L 114.28593 65.950136 
L 114.634315 66.059466 
L 114.9827 66.168784 
L 115.331084 66.278089 
L 115.679469 66.387382 
L 116.027854 66.496663 
L 116.376238 66.605932 
L 116.724623 66.715188 
L 117.073008 66.824432 
L 117.421392 66.933663 
L 117.769777 67.042882 
L 118.118162 67.152089 
L 118.466546 67.261283 
L 118.814931 67.370465 
L 119.163316 67.479635 
L 119.5117 67.588792 
L 119.860085 67.697937 
L 120.20847 67.807069 
L 120.556854 67.91619 
L 120.905239 68.025298 
L 121.253624 68.134393 
L 121.602008 68.243476 
L 121.950393 68.352547 
L 122.298778 68.461606 
L 122.647162 68.570652 
L 122.995547 68.679685 
L 123.343932 68.788707 
L 123.692316 68.897716 
L 124.040701 69.006712 
L 124.389086 69.115697 
L 124.73747 69.224669 
L 125.085855 69.333628 
" clip-path="url(#pb6537ff2ea)" style="fill: none; stroke: #008000; stroke-width: 1.5; stroke-linecap: square"/>
   </g>
   <g id="line2d_20">
    <path d="M 125.102088 69.546664 
L 125.450472 69.655339 
L 125.798857 69.763484 
L 126.147242 69.871097 
L 126.495626 69.978179 
L 126.844011 70.08473 
L 127.192396 70.19075 
L 127.54078 70.296239 
L 127.889165 70.401197 
L 128.23755 70.505624 
L 128.585934 70.60952 
L 128.934319 70.712884 
L 129.282704 70.815718 
L 129.631088 70.918021 
L 129.979473 71.019792 
L 130.327858 71.121033 
L 130.676242 71.221742 
L 131.024627 71.321921 
L 131.373012 71.421568 
L 131.721396 71.520685 
L 132.069781 71.61927 
L 132.418166 71.717324 
L 132.76655 71.814848 
L 133.114935 71.91184 
L 133.46332 72.008301 
L 133.811704 72.104231 
L 134.160089 72.19963 
L 134.508474 72.294498 
L 134.856858 72.388835 
L 135.205243 72.482641 
L 135.553628 72.575916 
L 135.902012 72.668659 
L 136.250397 72.760872 
L 136.598782 72.852554 
L 136.947166 72.943704 
L 137.295551 73.034324 
L 137.643936 73.124413 
L 137.99232 73.21397 
L 138.340705 73.302997 
L 138.68909 73.391492 
L 139.037474 73.479456 
L 139.385859 73.56689 
L 139.734244 73.653792 
L 140.082628 73.740163 
L 140.431013 73.826003 
L 140.779398 73.911312 
L 141.127782 73.99609 
L 141.476167 74.080337 
L 141.824552 74.164053 
L 142.172936 74.247238 
" clip-path="url(#pb6537ff2ea)" style="fill: none; stroke: #008000; stroke-width: 1.5; stroke-linecap: square"/>
   </g>
   <g id="line2d_21">
    <path d="M 142.189169 74.217248 
L 142.537554 74.299921 
L 142.885938 74.382148 
L 143.234323 74.463928 
L 143.582708 74.545261 
L 143.931092 74.626148 
L 144.279477 74.706588 
L 144.627862 74.786582 
L 144.976246 74.866129 
L 145.324631 74.945229 
L 145.673016 75.023883 
L 146.0214 75.10209 
L 146.369785 75.179851 
L 146.71817 75.257165 
L 147.066554 75.334032 
L 147.414939 75.410453 
L 147.763324 75.486427 
L 148.111708 75.561955 
L 148.460093 75.637036 
L 148.808478 75.71167 
L 149.156862 75.785858 
L 149.505247 75.859599 
L 149.853632 75.932893 
L 150.202016 76.005741 
L 150.550401 76.078142 
L 150.898786 76.150097 
L 151.24717 76.221605 
L 151.595555 76.292666 
L 151.94394 76.363281 
L 152.292324 76.433449 
L 152.640709 76.503171 
L 152.989094 76.572446 
L 153.337478 76.641274 
L 153.685863 76.709656 
L 154.034248 76.777591 
L 154.382632 76.84508 
L 154.731017 76.912122 
L 155.079402 76.978717 
L 155.427786 77.044866 
L 155.776171 77.110568 
L 156.124556 77.175823 
L 156.47294 77.240632 
L 156.821325 77.304994 
L 157.16971 77.36891 
L 157.518094 77.432379 
L 157.866479 77.495401 
L 158.214864 77.557977 
L 158.563248 77.620106 
L 158.911633 77.681789 
L 159.260018 77.743025 
" clip-path="url(#pb6537ff2ea)" style="fill: none; stroke: #008000; stroke-width: 1.5; stroke-linecap: square"/>
   </g>
   <g id="line2d_22">
    <path d="M 159.27625 77.669949 
L 159.624635 77.730817 
L 159.97302 77.791427 
L 160.321404 77.85178 
L 160.669789 77.911876 
L 161.018174 77.971715 
L 161.366558 78.031296 
L 161.714943 78.09062 
L 162.063328 78.149687 
L 162.411712 78.208497 
L 162.760097 78.267049 
L 163.108482 78.325344 
L 163.456866 78.383382 
L 163.805251 78.441162 
L 164.153636 78.498686 
L 164.50202 78.555952 
L 164.850405 78.612961 
L 165.19879 78.669712 
L 165.547174 78.726207 
L 165.895559 78.782444 
L 166.243944 78.838424 
L 166.592328 78.894146 
L 166.940713 78.949611 
L 167.289098 79.004819 
L 167.637482 79.05977 
L 167.985867 79.114464 
L 168.334252 79.1689 
L 168.682636 79.223079 
L 169.031021 79.277001 
L 169.379406 79.330665 
L 169.72779 79.384073 
L 170.076175 79.437223 
L 170.42456 79.490116 
L 170.772944 79.542751 
L 171.121329 79.595129 
L 171.469714 79.64725 
L 171.818098 79.699114 
L 172.166483 79.750721 
L 172.514868 79.80207 
L 172.863252 79.853162 
L 173.211637 79.903997 
L 173.560022 79.954574 
L 173.908406 80.004894 
L 174.256791 80.054957 
L 174.605176 80.104763 
L 174.95356 80.154311 
L 175.301945 80.203603 
L 175.65033 80.252637 
L 175.998714 80.301413 
L 176.347099 80.349933 
" clip-path="url(#pb6537ff2ea)" style="fill: none; stroke: #008000; stroke-width: 1.5; stroke-linecap: square"/>
   </g>
   <g id="line2d_23">
    <path d="M 176.363332 80.342552 
L 176.711716 80.390815 
L 177.060101 80.438845 
L 177.408486 80.486641 
L 177.75687 80.534204 
L 178.105255 80.581534 
L 178.45364 80.628631 
L 178.802024 80.675494 
L 179.150409 80.722124 
L 179.498794 80.768521 
L 179.847178 80.814685 
L 180.195563 80.860616 
L 180.543948 80.906313 
L 180.892332 80.951777 
L 181.240717 80.997008 
L 181.589102 81.042006 
L 181.937486 81.08677 
L 182.285871 81.131301 
L 182.634256 81.175599 
L 182.98264 81.219664 
L 183.331025 81.263496 
L 183.67941 81.307094 
L 184.027794 81.350459 
L 184.376179 81.393591 
L 184.724564 81.43649 
L 185.072948 81.479155 
L 185.421333 81.521587 
L 185.769718 81.563786 
L 186.118102 81.605752 
L 186.466487 81.647484 
L 186.814872 81.688984 
L 187.163256 81.73025 
L 187.511641 81.771283 
L 187.860026 81.812082 
L 188.20841 81.852649 
L 188.556795 81.892982 
L 188.90518 81.933082 
L 189.253564 81.972949 
L 189.601949 82.012582 
L 189.950334 82.051982 
L 190.298718 82.09115 
L 190.647103 82.130083 
L 190.995488 82.168784 
L 191.343872 82.207251 
L 191.692257 82.245486 
L 192.040642 82.283487 
L 192.389026 82.321254 
L 192.737411 82.358789 
L 193.085796 82.39609 
L 193.43418 82.433158 
" clip-path="url(#pb6537ff2ea)" style="fill: none; stroke: #008000; stroke-width: 1.5; stroke-linecap: square"/>
   </g>
   <g id="line2d_24">
    <path d="M 193.450413 82.432621 
L 193.798798 82.469448 
L 194.147182 82.506047 
L 194.495567 82.542419 
L 194.843952 82.578563 
L 195.192336 82.614479 
L 195.540721 82.650168 
L 195.889106 82.68563 
L 196.23749 82.720864 
L 196.585875 82.75587 
L 196.93426 82.790648 
L 197.282644 82.825199 
L 197.631029 82.859523 
L 197.979414 82.893619 
L 198.327798 82.927487 
L 198.676183 82.961128 
L 199.024568 82.994541 
L 199.372952 83.027726 
L 199.721337 83.060684 
L 200.069722 83.093415 
L 200.418106 83.125917 
L 200.766491 83.158192 
L 201.114876 83.19024 
L 201.46326 83.22206 
L 201.811645 83.253652 
L 202.16003 83.285017 
L 202.508414 83.316154 
L 202.856799 83.347064 
L 203.205184 83.377746 
L 203.553568 83.4082 
L 203.901953 83.438427 
L 204.250338 83.468427 
L 204.598722 83.498198 
L 204.947107 83.527742 
L 205.295492 83.557059 
L 205.643876 83.586148 
L 205.992261 83.615009 
L 206.340646 83.643643 
L 206.68903 83.672049 
L 207.037415 83.700228 
L 207.3858 83.728178 
L 207.734184 83.755902 
L 208.082569 83.783398 
L 208.430954 83.810666 
L 208.779338 83.837706 
L 209.127723 83.864519 
L 209.476108 83.891105 
L 209.824492 83.917463 
L 210.172877 83.943593 
L 210.521262 83.969496 
" clip-path="url(#pb6537ff2ea)" style="fill: none; stroke: #008000; stroke-width: 1.5; stroke-linecap: square"/>
   </g>
   <g id="line2d_25">
    <path d="M 210.537494 83.247753 
L 210.885879 83.29932 
L 211.234264 83.350887 
L 211.582648 83.402454 
L 211.931033 83.454021 
L 212.279418 83.505589 
L 212.627802 83.557156 
L 212.976187 83.608723 
L 213.324572 83.66029 
L 213.672956 83.711857 
L 214.021341 83.763424 
L 214.369726 83.814992 
L 214.71811 83.866559 
L 215.066495 83.918126 
L 215.41488 83.969693 
L 215.763264 84.02126 
L 216.111649 84.072827 
L 216.460034 84.124394 
L 216.808418 84.175962 
L 217.156803 84.227529 
L 217.505188 84.279096 
L 217.853572 84.330663 
L 218.201957 84.38223 
L 218.550342 84.433797 
L 218.898726 84.485364 
L 219.247111 84.536932 
L 219.595496 84.588499 
L 219.94388 84.640066 
L 220.292265 84.691633 
L 220.64065 84.7432 
L 220.989034 84.794767 
L 221.337419 84.846334 
L 221.685804 84.897902 
L 222.034188 84.949469 
L 222.382573 85.001036 
L 222.730958 85.052603 
L 223.079342 85.10417 
L 223.427727 85.155737 
L 223.776112 85.207305 
L 224.124496 85.258872 
L 224.472881 85.310439 
L 224.821266 85.362006 
L 225.16965 85.413573 
L 225.518035 85.46514 
L 225.86642 85.516707 
L 226.214804 85.568275 
L 226.563189 85.619842 
L 226.911574 85.671409 
L 227.259958 85.722976 
L 227.608343 85.774543 
" clip-path="url(#pb6537ff2ea)" style="fill: none; stroke: #008000; stroke-width: 1.5; stroke-linecap: square"/>
   </g>
   <g id="line2d_26">
    <path d="M 227.624576 85.775745 
L 227.97296 85.775745 
L 228.321345 85.775745 
L 228.66973 85.775745 
L 229.018114 85.775745 
L 229.366499 85.775745 
L 229.714884 85.775745 
L 230.063268 85.775745 
L 230.411653 85.775745 
L 230.760038 85.775745 
L 231.108422 85.775745 
L 231.456807 85.775745 
L 231.805192 85.775745 
L 232.153576 85.775745 
L 232.501961 85.775745 
L 232.850346 85.775745 
L 233.19873 85.775745 
L 233.547115 85.775745 
L 233.8955 85.775745 
L 234.243884 85.775745 
L 234.592269 85.775745 
L 234.940654 85.775745 
L 235.289038 85.775745 
L 235.637423 85.775745 
L 235.985808 85.775745 
L 236.334192 85.775745 
L 236.682577 85.775745 
L 237.030962 85.775745 
L 237.379346 85.775745 
L 237.727731 85.775745 
L 238.076116 85.775745 
L 238.4245 85.775745 
L 238.772885 85.775745 
L 239.12127 85.775745 
L 239.469654 231.640122 
L 239.818039 231.640122 
L 240.166424 231.640122 
L 240.514808 231.640122 
L 240.863193 231.640122 
L 241.211578 231.640122 
L 241.559962 231.640122 
L 241.908347 231.640122 
L 242.256732 231.640122 
L 242.605116 231.640122 
L 242.953501 231.640122 
L 243.301886 231.640122 
L 243.65027 231.640122 
L 243.998655 231.640122 
L 244.34704 231.640122 
L 244.695424 231.640122 
" clip-path="url(#pb6537ff2ea)" style="fill: none; stroke: #008000; stroke-width: 1.5; stroke-linecap: square"/>
   </g>
   <g id="line2d_27">
    <path d="M 244.711657 231.653176 
L 245.060042 232.213504 
L 245.408426 232.773831 
L 245.756811 233.334159 
L 246.105196 233.894487 
L 246.45358 234.454814 
L 246.801965 235.015142 
L 247.15035 235.57547 
L 247.498734 236.135797 
L 247.847119 236.696125 
L 248.195504 237.256453 
L 248.543888 237.816781 
L 248.892273 238.377108 
L 249.240658 238.937436 
L 249.589042 239.497764 
L 249.937427 240.058091 
L 250.285812 240.618419 
L 250.634196 241.178747 
L 250.982581 241.739075 
L 251.330966 242.299402 
L 251.67935 242.85973 
L 252.027735 243.420058 
L 252.37612 243.980385 
L 252.724504 244.540713 
L 253.072889 245.101041 
L 253.421274 245.661368 
L 253.769658 246.221696 
L 254.118043 246.782024 
L 254.466428 247.342352 
L 254.814812 247.902679 
L 255.163197 248.463007 
L 255.511582 249.023335 
L 255.859966 249.583662 
L 256.208351 250.14399 
L 256.556736 250.704318 
L 256.90512 251.264646 
L 257.253505 251.824973 
L 257.60189 252.385301 
L 257.950274 252.945629 
L 258.298659 253.505956 
L 258.647044 254.066284 
L 258.995428 254.626612 
L 259.343813 255.186939 
L 259.692198 255.747267 
L 260.040582 256.307595 
L 260.388967 256.867923 
L 260.737352 257.42825 
L 261.085736 257.988578 
L 261.434121 258.548906 
L 261.782506 259.109233 
" clip-path="url(#pb6537ff2ea)" style="fill: none; stroke: #008000; stroke-width: 1.5; stroke-linecap: square"/>
   </g>
   <g id="line2d_28">
    <path d="M 261.798738 254.219515 
L 262.147123 254.497119 
L 262.495508 254.769832 
L 262.843892 255.037652 
L 263.192277 255.300581 
L 263.540662 255.558618 
L 263.889046 255.811763 
L 264.237431 256.060017 
L 264.585816 256.303378 
L 264.9342 256.541848 
L 265.282585 256.775426 
L 265.63097 257.004113 
L 265.979354 257.227907 
L 266.327739 257.44681 
L 266.676124 257.660821 
L 267.024508 257.869941 
L 267.372893 258.074168 
L 267.721278 258.273504 
L 268.069662 258.467948 
L 268.418047 258.657501 
L 268.766432 258.842161 
L 269.114816 259.02193 
L 269.463201 259.196807 
L 269.811586 259.366792 
L 270.15997 259.531886 
L 270.508355 259.692088 
L 270.85674 259.847398 
L 271.205124 259.997816 
L 271.553509 260.143343 
L 271.901894 260.283977 
L 272.250278 260.41972 
L 272.598663 260.550571 
L 272.947048 260.676531 
L 273.295432 260.797599 
L 273.643817 260.913775 
L 273.992202 261.025059 
L 274.340586 261.131451 
L 274.688971 261.232952 
L 275.037356 261.329561 
L 275.38574 261.421278 
L 275.734125 261.508103 
L 276.08251 261.590037 
L 276.430894 261.667079 
L 276.779279 261.739229 
L 277.127664 261.806487 
L 277.476048 261.868854 
L 277.824433 261.926329 
L 278.172818 261.978912 
L 278.521202 262.026603 
L 278.869587 262.069402 
" clip-path="url(#pb6537ff2ea)" style="fill: none; stroke: #008000; stroke-width: 1.5; stroke-linecap: square"/>
   </g>
   <g id="line2d_29">
    <path d="M 278.88582 260.441184 
L 279.234204 260.480991 
L 279.582589 260.519973 
L 279.930974 260.558128 
L 280.279358 260.595458 
L 280.627743 260.631962 
L 280.976128 260.667639 
L 281.324512 260.702491 
L 281.672897 260.736517 
L 282.021282 260.769717 
L 282.369666 260.802091 
L 282.718051 260.833639 
L 283.066436 260.86436 
L 283.41482 260.894256 
L 283.763205 260.923327 
L 284.11159 260.951571 
L 284.459974 260.978989 
L 284.808359 261.005581 
L 285.156744 261.031347 
L 285.505128 261.056287 
L 285.853513 261.080402 
L 286.201898 261.10369 
L 286.550282 261.126152 
L 286.898667 261.147789 
L 287.247052 261.168599 
L 287.595436 261.188584 
L 287.943821 261.207742 
L 288.292206 261.226075 
L 288.64059 261.243582 
L 288.988975 261.260262 
L 289.33736 261.276117 
L 289.685744 261.291146 
L 290.034129 261.305349 
L 290.382514 261.318725 
L 290.730898 261.331276 
L 291.079283 261.343001 
L 291.427668 261.3539 
L 291.776052 261.363973 
L 292.124437 261.37322 
L 292.472822 261.381641 
L 292.821206 261.389237 
L 293.169591 261.396006 
L 293.517976 261.401949 
L 293.86636 261.407066 
L 294.214745 261.411358 
L 294.56313 261.414823 
L 294.911514 261.417462 
L 295.259899 261.419276 
L 295.608284 261.420263 
L 295.956668 261.420425 
" clip-path="url(#pb6537ff2ea)" style="fill: none; stroke: #008000; stroke-width: 1.5; stroke-linecap: square"/>
   </g>
   <g id="line2d_30">
    <path d="M 295.972901 260.755967 
L 296.321286 260.756131 
L 296.66967 260.757127 
L 297.018055 260.758954 
L 297.36644 260.761612 
L 297.714824 260.765102 
L 298.063209 260.769423 
L 298.411594 260.774575 
L 298.759978 260.780558 
L 299.108363 260.787373 
L 299.456748 260.795019 
L 299.805132 260.803497 
L 300.153517 260.812806 
L 300.501902 260.822946 
L 300.850286 260.833917 
L 301.198671 260.84572 
L 301.547056 260.858354 
L 301.89544 260.871819 
L 302.243825 260.886116 
L 302.59221 260.901244 
L 302.940594 260.917203 
L 303.288979 260.933994 
L 303.637364 260.951616 
L 303.985748 260.970069 
L 304.334133 260.989354 
L 304.682518 261.009469 
L 305.030902 261.030417 
L 305.379287 261.052195 
L 305.727672 261.074805 
L 306.076056 261.098246 
L 306.424441 261.122518 
L 306.772826 261.147622 
L 307.12121 261.173557 
L 307.469595 261.200324 
L 307.81798 261.227921 
L 308.166364 261.25635 
L 308.514749 261.28561 
L 308.863134 261.315702 
L 309.211518 261.346625 
L 309.559903 261.378379 
L 309.908288 261.410965 
L 310.256672 261.444382 
L 310.605057 261.47863 
L 310.953442 261.513709 
L 311.301826 261.54962 
L 311.650211 261.586362 
L 311.998596 261.623936 
L 312.34698 261.66234 
L 312.695365 261.701576 
L 313.04375 261.741644 
" clip-path="url(#pb6537ff2ea)" style="fill: none; stroke: #008000; stroke-width: 1.5; stroke-linecap: square"/>
   </g>
   <g id="line2d_31">
    <path d="M 313.059982 261.587748 
L 313.408367 261.628889 
L 313.756752 261.671249 
L 314.105136 261.71483 
L 314.453521 261.75963 
L 314.801906 261.80565 
L 315.15029 261.85289 
L 315.498675 261.90135 
L 315.84706 261.95103 
L 316.195444 262.00193 
L 316.543829 262.054049 
L 316.892214 262.107389 
L 317.240598 262.161948 
L 317.588983 262.217727 
L 317.937368 262.274726 
L 318.285752 262.332945 
L 318.634137 262.392384 
L 318.982522 262.453043 
L 319.330906 262.514921 
L 319.679291 262.57802 
L 320.027676 262.642338 
L 320.37606 262.707876 
L 320.724445 262.774634 
L 321.07283 262.842612 
L 321.421214 262.91181 
L 321.769599 262.982227 
L 322.117984 263.053865 
L 322.466368 263.126722 
L 322.814753 263.200799 
L 323.163138 263.276096 
L 323.511522 263.352613 
L 323.859907 263.43035 
L 324.208292 263.509307 
L 324.556676 263.589483 
L 324.905061 263.67088 
L 325.253446 263.753496 
L 325.60183 263.837332 
L 325.950215 263.922388 
L 326.2986 264.008664 
L 326.646984 264.09616 
L 326.995369 264.184876 
L 327.343754 264.274811 
L 327.692138 264.365967 
L 328.040523 264.458342 
L 328.388908 264.551937 
L 328.737292 264.646752 
L 329.085677 264.742787 
L 329.434062 264.840042 
L 329.782446 264.938516 
L 330.130831 265.038211 
" clip-path="url(#pb6537ff2ea)" style="fill: none; stroke: #008000; stroke-width: 1.5; stroke-linecap: square"/>
   </g>
   <g id="line2d_32">
    <path d="M 330.147064 265.132273 
L 330.495448 265.233127 
L 330.843833 265.334979 
L 331.192218 265.437827 
L 331.540602 265.541673 
L 331.888987 265.646515 
L 332.237372 265.752354 
L 332.585756 265.85919 
L 332.934141 265.967023 
L 333.282526 266.075853 
L 333.63091 266.185679 
L 333.979295 266.296503 
L 334.32768 266.408324 
L 334.676064 266.521141 
L 335.024449 266.634956 
L 335.372834 266.749767 
L 335.721218 266.865576 
L 336.069603 266.982381 
L 336.417988 267.100183 
L 336.766372 267.218982 
L 337.114757 267.338778 
L 337.463142 267.459571 
L 337.811526 267.581361 
L 338.159911 267.704147 
L 338.508296 267.827931 
L 338.85668 267.952712 
L 339.205065 268.078489 
L 339.55345 268.205264 
L 339.901834 268.333035 
L 340.250219 268.461803 
L 340.598604 268.591568 
L 340.946988 268.72233 
L 341.295373 268.854089 
L 341.643758 268.986845 
L 341.992142 269.120598 
L 342.340527 269.255348 
L 342.688912 269.391095 
L 343.037296 269.527838 
L 343.385681 269.665579 
L 343.734066 269.804316 
L 344.08245 269.944051 
L 344.430835 270.084782 
L 344.77922 270.22651 
L 345.127604 270.369235 
L 345.475989 270.512957 
L 345.824374 270.657676 
L 346.172758 270.803392 
L 346.521143 270.950105 
L 346.869528 271.097815 
L 347.217912 271.246521 
" clip-path="url(#pb6537ff2ea)" style="fill: none; stroke: #008000; stroke-width: 1.5; stroke-linecap: square"/>
   </g>
   <g id="line2d_33">
    <path d="M 347.234145 271.504863 
L 347.58253 271.654285 
L 347.930914 271.804077 
L 348.279299 271.954239 
L 348.627684 272.10477 
L 348.976068 272.255672 
L 349.324453 272.406943 
L 349.672838 272.558584 
L 350.021222 272.710595 
L 350.369607 272.862977 
L 350.717992 273.015728 
L 351.066376 273.168848 
L 351.414761 273.322339 
L 351.763146 273.4762 
L 352.11153 273.630431 
L 352.459915 273.785031 
L 352.8083 273.940002 
L 353.156684 274.095342 
L 353.505069 274.251052 
L 353.853454 274.407132 
L 354.201838 274.563582 
L 354.550223 274.720402 
L 354.898608 274.877592 
L 355.246992 275.035152 
L 355.595377 275.193081 
L 355.943762 275.351381 
L 356.292146 275.51005 
L 356.640531 275.669089 
L 356.988916 275.828499 
L 357.3373 275.988278 
L 357.685685 276.148427 
L 358.03407 276.308946 
L 358.382454 276.469835 
L 358.730839 276.631093 
L 359.079224 276.792722 
L 359.427608 276.954721 
L 359.775993 277.117089 
L 360.124378 277.279827 
L 360.472762 277.442936 
L 360.821147 277.606414 
L 361.169532 277.770262 
L 361.517916 277.93448 
L 361.866301 278.099068 
L 362.214686 278.264025 
L 362.56307 278.429353 
L 362.911455 278.59505 
L 363.25984 278.761118 
L 363.608224 278.927555 
L 363.956609 279.094363 
L 364.304994 279.26154 
" clip-path="url(#pb6537ff2ea)" style="fill: none; stroke: #008000; stroke-width: 1.5; stroke-linecap: square"/>
   </g>
   <g id="line2d_34">
    <path d="M 364.321226 279.442847 
L 364.669611 279.610185 
L 365.017996 279.77746 
L 365.36638 279.944672 
L 365.714765 280.111821 
L 366.06315 280.278907 
L 366.411534 280.445931 
L 366.759919 280.612891 
L 367.108304 280.779789 
L 367.456688 280.946624 
L 367.805073 281.113396 
L 368.153458 281.280105 
L 368.501842 281.446751 
L 368.850227 281.613335 
L 369.198612 281.779855 
L 369.546996 281.946313 
L 369.895381 282.112708 
L 370.243766 282.27904 
L 370.59215 282.445309 
L 370.940535 282.611515 
L 371.28892 282.777659 
L 371.637304 282.943739 
L 371.985689 283.109757 
L 372.334074 283.275712 
L 372.682458 283.441604 
L 373.030843 283.607433 
L 373.379228 283.773199 
L 373.727612 283.938902 
L 374.075997 284.104543 
L 374.424382 284.27012 
L 374.772766 284.435635 
L 375.121151 284.601087 
L 375.469536 284.766476 
L 375.81792 284.931802 
L 376.166305 285.097065 
L 376.51469 285.262265 
L 376.863074 285.427403 
L 377.211459 285.592478 
L 377.559844 285.757489 
L 377.908228 285.922438 
L 378.256613 286.087324 
L 378.604998 286.252148 
L 378.953382 286.416908 
L 379.301767 286.581605 
L 379.650152 286.74624 
L 379.998536 286.910812 
L 380.346921 287.07532 
L 380.695306 287.239766 
L 381.04369 287.40415 
L 381.392075 287.56847 
" clip-path="url(#pb6537ff2ea)" style="fill: none; stroke: #008000; stroke-width: 1.5; stroke-linecap: square"/>
   </g>
   <g id="line2d_35">
    <path d="M 381.408308 287.607501 
L 381.756692 287.771714 
L 382.105077 287.935787 
L 382.453462 288.099718 
L 382.801846 288.263508 
L 383.150231 288.427157 
L 383.498616 288.590665 
L 383.847 288.754032 
L 384.195385 288.917257 
L 384.54377 289.080342 
L 384.892154 289.243285 
L 385.240539 289.406088 
L 385.588924 289.568749 
L 385.937308 289.731269 
L 386.285693 289.893648 
L 386.634078 290.055885 
L 386.982462 290.217982 
L 387.330847 290.379938 
L 387.679232 290.541752 
L 388.027616 290.703425 
L 388.376001 290.864957 
L 388.724386 291.026348 
L 389.07277 291.187598 
L 389.421155 291.348707 
L 389.76954 291.509675 
L 390.117924 291.670501 
L 390.466309 291.831187 
L 390.814694 291.991731 
L 391.163078 292.152134 
L 391.511463 292.312396 
L 391.859848 292.472517 
L 392.208232 292.632497 
L 392.556617 292.792335 
L 392.905002 292.952033 
L 393.253386 293.111589 
L 393.601771 293.271004 
L 393.950156 293.430279 
L 394.29854 293.589412 
L 394.646925 293.748403 
L 394.99531 293.907254 
L 395.343694 294.065964 
L 395.692079 294.224532 
L 396.040464 294.38296 
L 396.388848 294.541246 
L 396.737233 294.699391 
L 397.085618 294.857395 
L 397.434002 295.015258 
L 397.782387 295.17298 
L 398.130772 295.33056 
L 398.479156 295.488 
" clip-path="url(#pb6537ff2ea)" style="fill: none; stroke: #008000; stroke-width: 1.5; stroke-linecap: square"/>
   </g>
   <g id="patch_3">
    <path d="M 57.6 307.584 
L 57.6 41.472 
" style="fill: none; stroke: #000000; stroke-width: 0.8; stroke-linejoin: miter; stroke-linecap: square"/>
   </g>
   <g id="patch_4">
    <path d="M 414.72 307.584 
L 414.72 41.472 
" style="fill: none; stroke: #000000; stroke-width: 0.8; stroke-linejoin: miter; stroke-linecap: square"/>
   </g>
   <g id="patch_5">
    <path d="M 57.6 307.584 
L 414.72 307.584 
" style="fill: none; stroke: #000000; stroke-width: 0.8; stroke-linejoin: miter; stroke-linecap: square"/>
   </g>
   <g id="patch_6">
    <path d="M 57.6 41.472 
L 414.72 41.472 
" style="fill: none; stroke: #000000; stroke-width: 0.8; stroke-linejoin: miter; stroke-linecap: square"/>
   </g>
   <g id="legend_1">
    <g id="patch_7">
     <path d="M 261.524688 93.906375 
L 407.72 93.906375 
Q 409.72 93.906375 409.72 91.906375 
L 409.72 48.472 
Q 409.72 46.472 407.72 46.472 
L 261.524688 46.472 
Q 259.524688 46.472 259.524688 48.472 
L 259.524688 91.906375 
Q 259.524688 93.906375 261.524688 93.906375 
z
" style="fill: #ffffff; opacity: 0.8; stroke: #cccccc; stroke-linejoin: miter"/>
    </g>
    <g id="line2d_36">
     <path d="M 263.524688 54.570437 
L 273.524688 54.570437 
L 283.524688 54.570437 
" style="fill: none; stroke: #0000ff; stroke-width: 1.5; stroke-linecap: square"/>
    </g>
    <g id="text_18">
     <!-- Původní funkce -->
     <g transform="translate(291.524688 58.070437)scale(0.1 -0.1)">
      <defs>
       <path id="DejaVuSans-50" d="M 1259 4147 
L 1259 2394 
L 2053 2394 
Q 2494 2394 2734 2622 
Q 2975 2850 2975 3272 
Q 2975 3691 2734 3919 
Q 2494 4147 2053 4147 
L 1259 4147 
z
M 628 4666 
L 2053 4666 
Q 2838 4666 3239 4311 
Q 3641 3956 3641 3272 
Q 3641 2581 3239 2228 
Q 2838 1875 2053 1875 
L 1259 1875 
L 1259 0 
L 628 0 
L 628 4666 
z
" transform="scale(0.015625)"/>
       <path id="DejaVuSans-16f" d="M 544 1381 
L 544 3500 
L 1119 3500 
L 1119 1403 
Q 1119 906 1312 657 
Q 1506 409 1894 409 
Q 2359 409 2629 706 
Q 2900 1003 2900 1516 
L 2900 3500 
L 3475 3500 
L 3475 0 
L 2900 0 
L 2900 538 
Q 2691 219 2414 64 
Q 2138 -91 1772 -91 
Q 1169 -91 856 284 
Q 544 659 544 1381 
z
M 1991 3584 
L 1991 3584 
z
M 2463 4575 
Q 2463 4771 2325 4908 
Q 2188 5046 1988 5046 
Q 1784 5046 1648 4910 
Q 1513 4775 1513 4575 
Q 1513 4371 1648 4235 
Q 1784 4100 1988 4100 
Q 2188 4100 2325 4237 
Q 2463 4375 2463 4575 
z
M 2844 4575 
Q 2844 4215 2595 3965 
Q 2347 3715 1988 3715 
Q 1628 3715 1379 3965 
Q 1131 4215 1131 4575 
Q 1131 4934 1379 5182 
Q 1628 5431 1988 5431 
Q 2347 5431 2595 5182 
Q 2844 4934 2844 4575 
z
" transform="scale(0.015625)"/>
       <path id="DejaVuSans-76" d="M 191 3500 
L 800 3500 
L 1894 563 
L 2988 3500 
L 3597 3500 
L 2284 0 
L 1503 0 
L 191 3500 
z
" transform="scale(0.015625)"/>
       <path id="DejaVuSans-6f" d="M 1959 3097 
Q 1497 3097 1228 2736 
Q 959 2375 959 1747 
Q 959 1119 1226 758 
Q 1494 397 1959 397 
Q 2419 397 2687 759 
Q 2956 1122 2956 1747 
Q 2956 2369 2687 2733 
Q 2419 3097 1959 3097 
z
M 1959 3584 
Q 2709 3584 3137 3096 
Q 3566 2609 3566 1747 
Q 3566 888 3137 398 
Q 2709 -91 1959 -91 
Q 1206 -91 779 398 
Q 353 888 353 1747 
Q 353 2609 779 3096 
Q 1206 3584 1959 3584 
z
" transform="scale(0.015625)"/>
       <path id="DejaVuSans-64" d="M 2906 2969 
L 2906 4863 
L 3481 4863 
L 3481 0 
L 2906 0 
L 2906 525 
Q 2725 213 2448 61 
Q 2172 -91 1784 -91 
Q 1150 -91 751 415 
Q 353 922 353 1747 
Q 353 2572 751 3078 
Q 1150 3584 1784 3584 
Q 2172 3584 2448 3432 
Q 2725 3281 2906 2969 
z
M 947 1747 
Q 947 1113 1208 752 
Q 1469 391 1925 391 
Q 2381 391 2643 752 
Q 2906 1113 2906 1747 
Q 2906 2381 2643 2742 
Q 2381 3103 1925 3103 
Q 1469 3103 1208 2742 
Q 947 2381 947 1747 
z
" transform="scale(0.015625)"/>
       <path id="DejaVuSans-6e" d="M 3513 2113 
L 3513 0 
L 2938 0 
L 2938 2094 
Q 2938 2591 2744 2837 
Q 2550 3084 2163 3084 
Q 1697 3084 1428 2787 
Q 1159 2491 1159 1978 
L 1159 0 
L 581 0 
L 581 3500 
L 1159 3500 
L 1159 2956 
Q 1366 3272 1645 3428 
Q 1925 3584 2291 3584 
Q 2894 3584 3203 3211 
Q 3513 2838 3513 2113 
z
" transform="scale(0.015625)"/>
       <path id="DejaVuSans-ed" d="M 1325 5119 
L 1947 5119 
L 928 3944 
L 450 3944 
L 1325 5119 
z
M 603 3500 
L 1178 3500 
L 1178 0 
L 603 0 
L 603 3500 
z
M 891 3584 
L 891 3584 
z
" transform="scale(0.015625)"/>
       <path id="DejaVuSans-20" transform="scale(0.015625)"/>
       <path id="DejaVuSans-66" d="M 2375 4863 
L 2375 4384 
L 1825 4384 
Q 1516 4384 1395 4259 
Q 1275 4134 1275 3809 
L 1275 3500 
L 2222 3500 
L 2222 3053 
L 1275 3053 
L 1275 0 
L 697 0 
L 697 3053 
L 147 3053 
L 147 3500 
L 697 3500 
L 697 3744 
Q 697 4328 969 4595 
Q 1241 4863 1831 4863 
L 2375 4863 
z
" transform="scale(0.015625)"/>
       <path id="DejaVuSans-75" d="M 544 1381 
L 544 3500 
L 1119 3500 
L 1119 1403 
Q 1119 906 1312 657 
Q 1506 409 1894 409 
Q 2359 409 2629 706 
Q 2900 1003 2900 1516 
L 2900 3500 
L 3475 3500 
L 3475 0 
L 2900 0 
L 2900 538 
Q 2691 219 2414 64 
Q 2138 -91 1772 -91 
Q 1169 -91 856 284 
Q 544 659 544 1381 
z
M 1991 3584 
L 1991 3584 
z
" transform="scale(0.015625)"/>
       <path id="DejaVuSans-6b" d="M 581 4863 
L 1159 4863 
L 1159 1991 
L 2875 3500 
L 3609 3500 
L 1753 1863 
L 3688 0 
L 2938 0 
L 1159 1709 
L 1159 0 
L 581 0 
L 581 4863 
z
" transform="scale(0.015625)"/>
       <path id="DejaVuSans-63" d="M 3122 3366 
L 3122 2828 
Q 2878 2963 2633 3030 
Q 2388 3097 2138 3097 
Q 1578 3097 1268 2742 
Q 959 2388 959 1747 
Q 959 1106 1268 751 
Q 1578 397 2138 397 
Q 2388 397 2633 464 
Q 2878 531 3122 666 
L 3122 134 
Q 2881 22 2623 -34 
Q 2366 -91 2075 -91 
Q 1284 -91 818 406 
Q 353 903 353 1747 
Q 353 2603 823 3093 
Q 1294 3584 2113 3584 
Q 2378 3584 2631 3529 
Q 2884 3475 3122 3366 
z
" transform="scale(0.015625)"/>
       <path id="DejaVuSans-65" d="M 3597 1894 
L 3597 1613 
L 953 1613 
Q 991 1019 1311 708 
Q 1631 397 2203 397 
Q 2534 397 2845 478 
Q 3156 559 3463 722 
L 3463 178 
Q 3153 47 2828 -22 
Q 2503 -91 2169 -91 
Q 1331 -91 842 396 
Q 353 884 353 1716 
Q 353 2575 817 3079 
Q 1281 3584 2069 3584 
Q 2775 3584 3186 3129 
Q 3597 2675 3597 1894 
z
M 3022 2063 
Q 3016 2534 2758 2815 
Q 2500 3097 2075 3097 
Q 1594 3097 1305 2825 
Q 1016 2553 972 2059 
L 3022 2063 
z
" transform="scale(0.015625)"/>
      </defs>
      <use xlink:href="#DejaVuSans-50"/>
      <use xlink:href="#DejaVuSans-16f" x="58.552734"/>
      <use xlink:href="#DejaVuSans-76" x="121.931641"/>
      <use xlink:href="#DejaVuSans-6f" x="181.111328"/>
      <use xlink:href="#DejaVuSans-64" x="242.292969"/>
      <use xlink:href="#DejaVuSans-6e" x="305.769531"/>
      <use xlink:href="#DejaVuSans-ed" x="369.148438"/>
      <use xlink:href="#DejaVuSans-20" x="396.931641"/>
      <use xlink:href="#DejaVuSans-66" x="428.71875"/>
      <use xlink:href="#DejaVuSans-75" x="463.923828"/>
      <use xlink:href="#DejaVuSans-6e" x="527.302734"/>
      <use xlink:href="#DejaVuSans-6b" x="590.681641"/>
      <use xlink:href="#DejaVuSans-63" x="648.591797"/>
      <use xlink:href="#DejaVuSans-65" x="703.572266"/>
     </g>
    </g>
    <g id="PathCollection_2">
     <g>
      <use xlink:href="#me3654cd70a" x="273.524688" y="70.523562" style="fill: #228b22; stroke: #228b22"/>
     </g>
    </g>
    <g id="text_19">
     <!-- Střední hodnoty buněk -->
     <g transform="translate(291.524688 73.148562)scale(0.1 -0.1)">
      <defs>
       <path id="DejaVuSans-53" d="M 3425 4513 
L 3425 3897 
Q 3066 4069 2747 4153 
Q 2428 4238 2131 4238 
Q 1616 4238 1336 4038 
Q 1056 3838 1056 3469 
Q 1056 3159 1242 3001 
Q 1428 2844 1947 2747 
L 2328 2669 
Q 3034 2534 3370 2195 
Q 3706 1856 3706 1288 
Q 3706 609 3251 259 
Q 2797 -91 1919 -91 
Q 1588 -91 1214 -16 
Q 841 59 441 206 
L 441 856 
Q 825 641 1194 531 
Q 1563 422 1919 422 
Q 2459 422 2753 634 
Q 3047 847 3047 1241 
Q 3047 1584 2836 1778 
Q 2625 1972 2144 2069 
L 1759 2144 
Q 1053 2284 737 2584 
Q 422 2884 422 3419 
Q 422 4038 858 4394 
Q 1294 4750 2059 4750 
Q 2388 4750 2728 4690 
Q 3069 4631 3425 4513 
z
" transform="scale(0.015625)"/>
       <path id="DejaVuSans-74" d="M 1172 4494 
L 1172 3500 
L 2356 3500 
L 2356 3053 
L 1172 3053 
L 1172 1153 
Q 1172 725 1289 603 
Q 1406 481 1766 481 
L 2356 481 
L 2356 0 
L 1766 0 
Q 1100 0 847 248 
Q 594 497 594 1153 
L 594 3053 
L 172 3053 
L 172 3500 
L 594 3500 
L 594 4494 
L 1172 4494 
z
" transform="scale(0.015625)"/>
       <path id="DejaVuSans-159" d="M 2631 2963 
Q 2534 3019 2420 3045 
Q 2306 3072 2169 3072 
Q 1681 3072 1420 2755 
Q 1159 2438 1159 1844 
L 1159 0 
L 581 0 
L 581 3500 
L 1159 3500 
L 1159 2956 
Q 1341 3275 1631 3429 
Q 1922 3584 2338 3584 
Q 2397 3584 2469 3576 
Q 2541 3569 2628 3553 
L 2631 2963 
z
M 1453 3944 
L 688 5119 
L 1122 5119 
L 1684 4353 
L 2247 5119 
L 2681 5119 
L 1916 3944 
L 1453 3944 
z
" transform="scale(0.015625)"/>
       <path id="DejaVuSans-68" d="M 3513 2113 
L 3513 0 
L 2938 0 
L 2938 2094 
Q 2938 2591 2744 2837 
Q 2550 3084 2163 3084 
Q 1697 3084 1428 2787 
Q 1159 2491 1159 1978 
L 1159 0 
L 581 0 
L 581 4863 
L 1159 4863 
L 1159 2956 
Q 1366 3272 1645 3428 
Q 1925 3584 2291 3584 
Q 2894 3584 3203 3211 
Q 3513 2838 3513 2113 
z
" transform="scale(0.015625)"/>
       <path id="DejaVuSans-79" d="M 2059 -325 
Q 1816 -950 1584 -1140 
Q 1353 -1331 966 -1331 
L 506 -1331 
L 506 -850 
L 844 -850 
Q 1081 -850 1212 -737 
Q 1344 -625 1503 -206 
L 1606 56 
L 191 3500 
L 800 3500 
L 1894 763 
L 2988 3500 
L 3597 3500 
L 2059 -325 
z
" transform="scale(0.015625)"/>
       <path id="DejaVuSans-62" d="M 3116 1747 
Q 3116 2381 2855 2742 
Q 2594 3103 2138 3103 
Q 1681 3103 1420 2742 
Q 1159 2381 1159 1747 
Q 1159 1113 1420 752 
Q 1681 391 2138 391 
Q 2594 391 2855 752 
Q 3116 1113 3116 1747 
z
M 1159 2969 
Q 1341 3281 1617 3432 
Q 1894 3584 2278 3584 
Q 2916 3584 3314 3078 
Q 3713 2572 3713 1747 
Q 3713 922 3314 415 
Q 2916 -91 2278 -91 
Q 1894 -91 1617 61 
Q 1341 213 1159 525 
L 1159 0 
L 581 0 
L 581 4863 
L 1159 4863 
L 1159 2969 
z
" transform="scale(0.015625)"/>
       <path id="DejaVuSans-11b" d="M 3597 1894 
L 3597 1613 
L 953 1613 
Q 991 1019 1311 708 
Q 1631 397 2203 397 
Q 2534 397 2845 478 
Q 3156 559 3463 722 
L 3463 178 
Q 3153 47 2828 -22 
Q 2503 -91 2169 -91 
Q 1331 -91 842 396 
Q 353 884 353 1716 
Q 353 2575 817 3079 
Q 1281 3584 2069 3584 
Q 2775 3584 3186 3129 
Q 3597 2675 3597 1894 
z
M 3022 2063 
Q 3016 2534 2758 2815 
Q 2500 3097 2075 3097 
Q 1594 3097 1305 2825 
Q 1016 2553 972 2059 
L 3022 2063 
z
M 1831 3928 
L 1066 5103 
L 1500 5103 
L 2063 4337 
L 2625 5103 
L 3059 5103 
L 2294 3928 
L 1831 3928 
z
" transform="scale(0.015625)"/>
      </defs>
      <use xlink:href="#DejaVuSans-53"/>
      <use xlink:href="#DejaVuSans-74" x="63.476562"/>
      <use xlink:href="#DejaVuSans-159" x="102.685547"/>
      <use xlink:href="#DejaVuSans-65" x="141.548828"/>
      <use xlink:href="#DejaVuSans-64" x="203.072266"/>
      <use xlink:href="#DejaVuSans-6e" x="266.548828"/>
      <use xlink:href="#DejaVuSans-ed" x="329.927734"/>
      <use xlink:href="#DejaVuSans-20" x="357.710938"/>
      <use xlink:href="#DejaVuSans-68" x="389.498047"/>
      <use xlink:href="#DejaVuSans-6f" x="452.876953"/>
      <use xlink:href="#DejaVuSans-64" x="514.058594"/>
      <use xlink:href="#DejaVuSans-6e" x="577.535156"/>
      <use xlink:href="#DejaVuSans-6f" x="640.914062"/>
      <use xlink:href="#DejaVuSans-74" x="702.095703"/>
      <use xlink:href="#DejaVuSans-79" x="741.304688"/>
      <use xlink:href="#DejaVuSans-20" x="800.484375"/>
      <use xlink:href="#DejaVuSans-62" x="832.271484"/>
      <use xlink:href="#DejaVuSans-75" x="895.748047"/>
      <use xlink:href="#DejaVuSans-6e" x="959.126953"/>
      <use xlink:href="#DejaVuSans-11b" x="1022.505859"/>
      <use xlink:href="#DejaVuSans-6b" x="1084.029297"/>
     </g>
    </g>
    <g id="line2d_37">
     <path d="M 263.524688 84.326687 
L 273.524688 84.326687 
L 283.524688 84.326687 
" style="fill: none; stroke: #008000; stroke-width: 1.5; stroke-linecap: square"/>
    </g>
    <g id="text_20">
     <!-- Rekonstrukce -->
     <g transform="translate(291.524688 87.826687)scale(0.1 -0.1)">
      <defs>
       <path id="DejaVuSans-52" d="M 2841 2188 
Q 3044 2119 3236 1894 
Q 3428 1669 3622 1275 
L 4263 0 
L 3584 0 
L 2988 1197 
Q 2756 1666 2539 1819 
Q 2322 1972 1947 1972 
L 1259 1972 
L 1259 0 
L 628 0 
L 628 4666 
L 2053 4666 
Q 2853 4666 3247 4331 
Q 3641 3997 3641 3322 
Q 3641 2881 3436 2590 
Q 3231 2300 2841 2188 
z
M 1259 4147 
L 1259 2491 
L 2053 2491 
Q 2509 2491 2742 2702 
Q 2975 2913 2975 3322 
Q 2975 3731 2742 3939 
Q 2509 4147 2053 4147 
L 1259 4147 
z
" transform="scale(0.015625)"/>
       <path id="DejaVuSans-73" d="M 2834 3397 
L 2834 2853 
Q 2591 2978 2328 3040 
Q 2066 3103 1784 3103 
Q 1356 3103 1142 2972 
Q 928 2841 928 2578 
Q 928 2378 1081 2264 
Q 1234 2150 1697 2047 
L 1894 2003 
Q 2506 1872 2764 1633 
Q 3022 1394 3022 966 
Q 3022 478 2636 193 
Q 2250 -91 1575 -91 
Q 1294 -91 989 -36 
Q 684 19 347 128 
L 347 722 
Q 666 556 975 473 
Q 1284 391 1588 391 
Q 1994 391 2212 530 
Q 2431 669 2431 922 
Q 2431 1156 2273 1281 
Q 2116 1406 1581 1522 
L 1381 1569 
Q 847 1681 609 1914 
Q 372 2147 372 2553 
Q 372 3047 722 3315 
Q 1072 3584 1716 3584 
Q 2034 3584 2315 3537 
Q 2597 3491 2834 3397 
z
" transform="scale(0.015625)"/>
       <path id="DejaVuSans-72" d="M 2631 2963 
Q 2534 3019 2420 3045 
Q 2306 3072 2169 3072 
Q 1681 3072 1420 2755 
Q 1159 2438 1159 1844 
L 1159 0 
L 581 0 
L 581 3500 
L 1159 3500 
L 1159 2956 
Q 1341 3275 1631 3429 
Q 1922 3584 2338 3584 
Q 2397 3584 2469 3576 
Q 2541 3569 2628 3553 
L 2631 2963 
z
" transform="scale(0.015625)"/>
      </defs>
      <use xlink:href="#DejaVuSans-52"/>
      <use xlink:href="#DejaVuSans-65" x="64.982422"/>
      <use xlink:href="#DejaVuSans-6b" x="126.505859"/>
      <use xlink:href="#DejaVuSans-6f" x="180.791016"/>
      <use xlink:href="#DejaVuSans-6e" x="241.972656"/>
      <use xlink:href="#DejaVuSans-73" x="305.351562"/>
      <use xlink:href="#DejaVuSans-74" x="357.451172"/>
      <use xlink:href="#DejaVuSans-72" x="396.660156"/>
      <use xlink:href="#DejaVuSans-75" x="437.773438"/>
      <use xlink:href="#DejaVuSans-6b" x="501.152344"/>
      <use xlink:href="#DejaVuSans-63" x="559.0625"/>
      <use xlink:href="#DejaVuSans-65" x="614.042969"/>
     </g>
    </g>
   </g>
  </g>
 </g>
 <defs>
  <clipPath id="pb6537ff2ea">
   <rect x="57.6" y="41.472" width="357.12" height="266.112"/>
  </clipPath>
 </defs>
</svg>
