<?xml version="1.0" encoding="utf-8" standalone="no"?>
<!DOCTYPE svg PUBLIC "-//W3C//DTD SVG 1.1//EN"
  "http://www.w3.org/Graphics/SVG/1.1/DTD/svg11.dtd">
<svg xmlns:xlink="http://www.w3.org/1999/xlink" width="460.8pt" height="345.6pt" viewBox="0 0 460.8 345.6" xmlns="http://www.w3.org/2000/svg" version="1.1">
 <metadata>
  <rdf:RDF xmlns:dc="http://purl.org/dc/elements/1.1/" xmlns:cc="http://creativecommons.org/ns#" xmlns:rdf="http://www.w3.org/1999/02/22-rdf-syntax-ns#">
   <cc:Work>
    <dc:type rdf:resource="http://purl.org/dc/dcmitype/StillImage"/>
    <dc:date>2023-08-02T16:52:01.689396</dc:date>
    <dc:format>image/svg+xml</dc:format>
    <dc:creator>
     <cc:Agent>
      <dc:title>Matplotlib v3.5.2, https://matplotlib.org/</dc:title>
     </cc:Agent>
    </dc:creator>
   </cc:Work>
  </rdf:RDF>
 </metadata>
 <defs>
  <style type="text/css">*{stroke-linejoin: round; stroke-linecap: butt}</style>
 </defs>
 <g id="figure_1">
  <g id="patch_1">
   <path d="M 0 345.6 
L 460.8 345.6 
L 460.8 0 
L 0 0 
z
" style="fill: #ffffff"/>
  </g>
  <g id="axes_1">
   <g id="patch_2">
    <path d="M 57.6 307.584 
L 414.72 307.584 
L 414.72 41.472 
L 57.6 41.472 
z
" style="fill: #ffffff"/>
   </g>
   <g id="PathCollection_1">
    <defs>
     <path id="me499f50949" d="M 0 3 
C 0.795609 3 1.55874 2.683901 2.12132 2.12132 
C 2.683901 1.55874 3 0.795609 3 0 
C 3 -0.795609 2.683901 -1.55874 2.12132 -2.12132 
C 1.55874 -2.683901 0.795609 -3 0 -3 
C -0.795609 -3 -1.55874 -2.683901 -2.12132 -2.12132 
C -2.683901 -1.55874 -3 -0.795609 -3 0 
C -3 0.795609 -2.683901 1.55874 -2.12132 2.12132 
C -1.55874 2.683901 -0.795609 3 0 3 
z
" style="stroke: #228b22"/>
    </defs>
    <g clip-path="url(#p30cf9ed450)">
     <use xlink:href="#me499f50949" x="75.887503" y="164.921036" style="fill: #228b22; stroke: #228b22"/>
     <use xlink:href="#me499f50949" x="79.997054" y="145.97057" style="fill: #228b22; stroke: #228b22"/>
     <use xlink:href="#me499f50949" x="84.106605" y="127.734899" style="fill: #228b22; stroke: #228b22"/>
     <use xlink:href="#me499f50949" x="88.216157" y="110.678209" style="fill: #228b22; stroke: #228b22"/>
     <use xlink:href="#me499f50949" x="92.325708" y="95.234199" style="fill: #228b22; stroke: #228b22"/>
     <use xlink:href="#me499f50949" x="96.435259" y="81.793281" style="fill: #228b22; stroke: #228b22"/>
     <use xlink:href="#me499f50949" x="100.54481" y="70.694259" style="fill: #228b22; stroke: #228b22"/>
     <use xlink:href="#me499f50949" x="104.654361" y="62.216956" style="fill: #228b22; stroke: #228b22"/>
     <use xlink:href="#me499f50949" x="108.763913" y="56.575338" style="fill: #228b22; stroke: #228b22"/>
     <use xlink:href="#me499f50949" x="112.873464" y="53.911904" style="fill: #228b22; stroke: #228b22"/>
     <use xlink:href="#me499f50949" x="116.983015" y="54.293941" style="fill: #228b22; stroke: #228b22"/>
     <use xlink:href="#me499f50949" x="121.092566" y="57.711797" style="fill: #228b22; stroke: #228b22"/>
     <use xlink:href="#me499f50949" x="125.202117" y="64.079156" style="fill: #228b22; stroke: #228b22"/>
     <use xlink:href="#me499f50949" x="129.311669" y="73.235235" style="fill: #228b22; stroke: #228b22"/>
     <use xlink:href="#me499f50949" x="133.42122" y="84.948845" style="fill: #228b22; stroke: #228b22"/>
     <use xlink:href="#me499f50949" x="137.530771" y="98.924226" style="fill: #228b22; stroke: #228b22"/>
     <use xlink:href="#me499f50949" x="141.640322" y="114.808508" style="fill: #228b22; stroke: #228b22"/>
     <use xlink:href="#me499f50949" x="145.749873" y="132.200626" style="fill: #228b22; stroke: #228b22"/>
     <use xlink:href="#me499f50949" x="149.859425" y="150.661442" style="fill: #228b22; stroke: #228b22"/>
     <use xlink:href="#me499f50949" x="153.968976" y="169.724839" style="fill: #228b22; stroke: #228b22"/>
     <use xlink:href="#me499f50949" x="158.078527" y="188.909482" style="fill: #228b22; stroke: #228b22"/>
     <use xlink:href="#me499f50949" x="162.188078" y="207.730977" style="fill: #228b22; stroke: #228b22"/>
     <use xlink:href="#me499f50949" x="166.297629" y="225.714101" style="fill: #228b22; stroke: #228b22"/>
     <use xlink:href="#me499f50949" x="170.407181" y="242.404797" style="fill: #228b22; stroke: #228b22"/>
     <use xlink:href="#me499f50949" x="174.516732" y="257.381642" style="fill: #228b22; stroke: #228b22"/>
     <use xlink:href="#me499f50949" x="178.626283" y="270.266485" style="fill: #228b22; stroke: #228b22"/>
     <use xlink:href="#me499f50949" x="182.735834" y="280.733996" style="fill: #228b22; stroke: #228b22"/>
     <use xlink:href="#me499f50949" x="186.845386" y="288.519881" style="fill: #228b22; stroke: #228b22"/>
     <use xlink:href="#me499f50949" x="190.954937" y="293.427555" style="fill: #228b22; stroke: #228b22"/>
     <use xlink:href="#me499f50949" x="195.064488" y="295.333103" style="fill: #228b22; stroke: #228b22"/>
     <use xlink:href="#me499f50949" x="199.174039" y="294.188413" style="fill: #228b22; stroke: #228b22"/>
     <use xlink:href="#me499f50949" x="203.28359" y="290.022387" style="fill: #228b22; stroke: #228b22"/>
     <use xlink:href="#me499f50949" x="207.393142" y="282.940214" style="fill: #228b22; stroke: #228b22"/>
     <use xlink:href="#me499f50949" x="211.502693" y="273.120716" style="fill: #228b22; stroke: #228b22"/>
     <use xlink:href="#me499f50949" x="215.612244" y="260.811826" style="fill: #228b22; stroke: #228b22"/>
     <use xlink:href="#me499f50949" x="219.721795" y="246.324336" style="fill: #228b22; stroke: #228b22"/>
     <use xlink:href="#me499f50949" x="223.831346" y="230.024047" style="fill: #228b22; stroke: #228b22"/>
     <use xlink:href="#me499f50949" x="227.940898" y="212.322528" style="fill: #228b22; stroke: #228b22"/>
     <use xlink:href="#me499f50949" x="232.050449" y="193.666734" style="fill: #228b22; stroke: #228b22"/>
     <use xlink:href="#me499f50949" x="236.16" y="174.52771" style="fill: #228b22; stroke: #228b22"/>
     <use xlink:href="#me499f50949" x="240.269551" y="155.388707" style="fill: #228b22; stroke: #228b22"/>
     <use xlink:href="#me499f50949" x="244.379102" y="136.732972" style="fill: #228b22; stroke: #228b22"/>
     <use xlink:href="#me499f50949" x="248.488654" y="119.031553" style="fill: #228b22; stroke: #228b22"/>
     <use xlink:href="#me499f50949" x="252.598205" y="102.731398" style="fill: #228b22; stroke: #228b22"/>
     <use xlink:href="#me499f50949" x="256.707756" y="88.244078" style="fill: #228b22; stroke: #228b22"/>
     <use xlink:href="#me499f50949" x="260.817307" y="75.935386" style="fill: #228b22; stroke: #228b22"/>
     <use xlink:href="#me499f50949" x="264.926858" y="66.116108" style="fill: #228b22; stroke: #228b22"/>
     <use xlink:href="#me499f50949" x="269.03641" y="59.034172" style="fill: #228b22; stroke: #228b22"/>
     <use xlink:href="#me499f50949" x="273.145961" y="54.868389" style="fill: #228b22; stroke: #228b22"/>
     <use xlink:href="#me499f50949" x="277.255512" y="53.723938" style="fill: #228b22; stroke: #228b22"/>
     <use xlink:href="#me499f50949" x="281.365063" y="55.629711" style="fill: #228b22; stroke: #228b22"/>
     <use xlink:href="#me499f50949" x="285.474614" y="60.53758" style="fill: #228b22; stroke: #228b22"/>
     <use xlink:href="#me499f50949" x="289.584166" y="68.323621" style="fill: #228b22; stroke: #228b22"/>
     <use xlink:href="#me499f50949" x="293.693717" y="78.791233" style="fill: #228b22; stroke: #228b22"/>
     <use xlink:href="#me499f50949" x="297.803268" y="91.67611" style="fill: #228b22; stroke: #228b22"/>
     <use xlink:href="#me499f50949" x="301.912819" y="106.652912" style="fill: #228b22; stroke: #228b22"/>
     <use xlink:href="#me499f50949" x="306.022371" y="123.343482" style="fill: #228b22; stroke: #228b22"/>
     <use xlink:href="#me499f50949" x="310.131922" y="141.326393" style="fill: #228b22; stroke: #228b22"/>
     <use xlink:href="#me499f50949" x="314.241473" y="160.147589" style="fill: #228b22; stroke: #228b22"/>
     <use xlink:href="#me499f50949" x="318.351024" y="179.33185" style="fill: #228b22; stroke: #228b22"/>
     <use xlink:href="#me499f50949" x="322.460575" y="198.394795" style="fill: #228b22; stroke: #228b22"/>
     <use xlink:href="#me499f50949" x="326.570127" y="216.855107" style="fill: #228b22; stroke: #228b22"/>
     <use xlink:href="#me499f50949" x="330.679678" y="234.246691" style="fill: #228b22; stroke: #228b22"/>
     <use xlink:href="#me499f50949" x="334.789229" y="250.130441" style="fill: #228b22; stroke: #228b22"/>
     <use xlink:href="#me499f50949" x="338.89878" y="264.105318" style="fill: #228b22; stroke: #228b22"/>
     <use xlink:href="#me499f50949" x="343.008331" y="275.818477" style="fill: #228b22; stroke: #228b22"/>
     <use xlink:href="#me499f50949" x="347.117883" y="284.974176" style="fill: #228b22; stroke: #228b22"/>
     <use xlink:href="#me499f50949" x="351.227434" y="291.341255" style="fill: #228b22; stroke: #228b22"/>
     <use xlink:href="#me499f50949" x="355.336985" y="294.758997" style="fill: #228b22; stroke: #228b22"/>
     <use xlink:href="#me499f50949" x="359.446536" y="295.14119" style="fill: #228b22; stroke: #228b22"/>
     <use xlink:href="#me499f50949" x="363.556087" y="292.478256" style="fill: #228b22; stroke: #228b22"/>
     <use xlink:href="#me499f50949" x="367.665639" y="286.83735" style="fill: #228b22; stroke: #228b22"/>
     <use xlink:href="#me499f50949" x="371.77519" y="278.360504" style="fill: #228b22; stroke: #228b22"/>
     <use xlink:href="#me499f50949" x="375.884741" y="267.261077" style="fill: #228b22; stroke: #228b22"/>
     <use xlink:href="#me499f50949" x="379.994292" y="253.818887" style="fill: #228b22; stroke: #228b22"/>
     <use xlink:href="#me499f50949" x="384.103843" y="238.374131" style="fill: #228b22; stroke: #228b22"/>
     <use xlink:href="#me499f50949" x="388.213395" y="221.319638" style="fill: #228b22; stroke: #228b22"/>
     <use xlink:href="#me499f50949" x="392.322946" y="203.090006" style="fill: #228b22; stroke: #228b22"/>
     <use xlink:href="#me499f50949" x="396.432497" y="184.14833" style="fill: #228b22; stroke: #228b22"/>
    </g>
   </g>
   <g id="matplotlib.axis_1">
    <g id="xtick_1">
     <g id="line2d_1">
      <defs>
       <path id="mab729126d4" d="M 0 0 
L 0 3.5 
" style="stroke: #000000; stroke-width: 0.8"/>
      </defs>
      <g>
       <use xlink:href="#mab729126d4" x="73.832727" y="307.584" style="stroke: #000000; stroke-width: 0.8"/>
      </g>
     </g>
     <g id="text_1">
      <!-- −1.00 -->
      <g transform="translate(58.510071 322.182437)scale(0.1 -0.1)">
       <defs>
        <path id="DejaVuSans-2212" d="M 678 2272 
L 4684 2272 
L 4684 1741 
L 678 1741 
L 678 2272 
z
" transform="scale(0.015625)"/>
        <path id="DejaVuSans-31" d="M 794 531 
L 1825 531 
L 1825 4091 
L 703 3866 
L 703 4441 
L 1819 4666 
L 2450 4666 
L 2450 531 
L 3481 531 
L 3481 0 
L 794 0 
L 794 531 
z
" transform="scale(0.015625)"/>
        <path id="DejaVuSans-2e" d="M 684 794 
L 1344 794 
L 1344 0 
L 684 0 
L 684 794 
z
" transform="scale(0.015625)"/>
        <path id="DejaVuSans-30" d="M 2034 4250 
Q 1547 4250 1301 3770 
Q 1056 3291 1056 2328 
Q 1056 1369 1301 889 
Q 1547 409 2034 409 
Q 2525 409 2770 889 
Q 3016 1369 3016 2328 
Q 3016 3291 2770 3770 
Q 2525 4250 2034 4250 
z
M 2034 4750 
Q 2819 4750 3233 4129 
Q 3647 3509 3647 2328 
Q 3647 1150 3233 529 
Q 2819 -91 2034 -91 
Q 1250 -91 836 529 
Q 422 1150 422 2328 
Q 422 3509 836 4129 
Q 1250 4750 2034 4750 
z
" transform="scale(0.015625)"/>
       </defs>
       <use xlink:href="#DejaVuSans-2212"/>
       <use xlink:href="#DejaVuSans-31" x="83.789062"/>
       <use xlink:href="#DejaVuSans-2e" x="147.412109"/>
       <use xlink:href="#DejaVuSans-30" x="179.199219"/>
       <use xlink:href="#DejaVuSans-30" x="242.822266"/>
      </g>
     </g>
    </g>
    <g id="xtick_2">
     <g id="line2d_2">
      <g>
       <use xlink:href="#mab729126d4" x="114.414545" y="307.584" style="stroke: #000000; stroke-width: 0.8"/>
      </g>
     </g>
     <g id="text_2">
      <!-- −0.75 -->
      <g transform="translate(99.091889 322.182437)scale(0.1 -0.1)">
       <defs>
        <path id="DejaVuSans-37" d="M 525 4666 
L 3525 4666 
L 3525 4397 
L 1831 0 
L 1172 0 
L 2766 4134 
L 525 4134 
L 525 4666 
z
" transform="scale(0.015625)"/>
        <path id="DejaVuSans-35" d="M 691 4666 
L 3169 4666 
L 3169 4134 
L 1269 4134 
L 1269 2991 
Q 1406 3038 1543 3061 
Q 1681 3084 1819 3084 
Q 2600 3084 3056 2656 
Q 3513 2228 3513 1497 
Q 3513 744 3044 326 
Q 2575 -91 1722 -91 
Q 1428 -91 1123 -41 
Q 819 9 494 109 
L 494 744 
Q 775 591 1075 516 
Q 1375 441 1709 441 
Q 2250 441 2565 725 
Q 2881 1009 2881 1497 
Q 2881 1984 2565 2268 
Q 2250 2553 1709 2553 
Q 1456 2553 1204 2497 
Q 953 2441 691 2322 
L 691 4666 
z
" transform="scale(0.015625)"/>
       </defs>
       <use xlink:href="#DejaVuSans-2212"/>
       <use xlink:href="#DejaVuSans-30" x="83.789062"/>
       <use xlink:href="#DejaVuSans-2e" x="147.412109"/>
       <use xlink:href="#DejaVuSans-37" x="179.199219"/>
       <use xlink:href="#DejaVuSans-35" x="242.822266"/>
      </g>
     </g>
    </g>
    <g id="xtick_3">
     <g id="line2d_3">
      <g>
       <use xlink:href="#mab729126d4" x="154.996364" y="307.584" style="stroke: #000000; stroke-width: 0.8"/>
      </g>
     </g>
     <g id="text_3">
      <!-- −0.50 -->
      <g transform="translate(139.673707 322.182437)scale(0.1 -0.1)">
       <use xlink:href="#DejaVuSans-2212"/>
       <use xlink:href="#DejaVuSans-30" x="83.789062"/>
       <use xlink:href="#DejaVuSans-2e" x="147.412109"/>
       <use xlink:href="#DejaVuSans-35" x="179.199219"/>
       <use xlink:href="#DejaVuSans-30" x="242.822266"/>
      </g>
     </g>
    </g>
    <g id="xtick_4">
     <g id="line2d_4">
      <g>
       <use xlink:href="#mab729126d4" x="195.578182" y="307.584" style="stroke: #000000; stroke-width: 0.8"/>
      </g>
     </g>
     <g id="text_4">
      <!-- −0.25 -->
      <g transform="translate(180.255526 322.182437)scale(0.1 -0.1)">
       <defs>
        <path id="DejaVuSans-32" d="M 1228 531 
L 3431 531 
L 3431 0 
L 469 0 
L 469 531 
Q 828 903 1448 1529 
Q 2069 2156 2228 2338 
Q 2531 2678 2651 2914 
Q 2772 3150 2772 3378 
Q 2772 3750 2511 3984 
Q 2250 4219 1831 4219 
Q 1534 4219 1204 4116 
Q 875 4013 500 3803 
L 500 4441 
Q 881 4594 1212 4672 
Q 1544 4750 1819 4750 
Q 2544 4750 2975 4387 
Q 3406 4025 3406 3419 
Q 3406 3131 3298 2873 
Q 3191 2616 2906 2266 
Q 2828 2175 2409 1742 
Q 1991 1309 1228 531 
z
" transform="scale(0.015625)"/>
       </defs>
       <use xlink:href="#DejaVuSans-2212"/>
       <use xlink:href="#DejaVuSans-30" x="83.789062"/>
       <use xlink:href="#DejaVuSans-2e" x="147.412109"/>
       <use xlink:href="#DejaVuSans-32" x="179.199219"/>
       <use xlink:href="#DejaVuSans-35" x="242.822266"/>
      </g>
     </g>
    </g>
    <g id="xtick_5">
     <g id="line2d_5">
      <g>
       <use xlink:href="#mab729126d4" x="236.16" y="307.584" style="stroke: #000000; stroke-width: 0.8"/>
      </g>
     </g>
     <g id="text_5">
      <!-- 0.00 -->
      <g transform="translate(225.027187 322.182437)scale(0.1 -0.1)">
       <use xlink:href="#DejaVuSans-30"/>
       <use xlink:href="#DejaVuSans-2e" x="63.623047"/>
       <use xlink:href="#DejaVuSans-30" x="95.410156"/>
       <use xlink:href="#DejaVuSans-30" x="159.033203"/>
      </g>
     </g>
    </g>
    <g id="xtick_6">
     <g id="line2d_6">
      <g>
       <use xlink:href="#mab729126d4" x="276.741818" y="307.584" style="stroke: #000000; stroke-width: 0.8"/>
      </g>
     </g>
     <g id="text_6">
      <!-- 0.25 -->
      <g transform="translate(265.609006 322.182437)scale(0.1 -0.1)">
       <use xlink:href="#DejaVuSans-30"/>
       <use xlink:href="#DejaVuSans-2e" x="63.623047"/>
       <use xlink:href="#DejaVuSans-32" x="95.410156"/>
       <use xlink:href="#DejaVuSans-35" x="159.033203"/>
      </g>
     </g>
    </g>
    <g id="xtick_7">
     <g id="line2d_7">
      <g>
       <use xlink:href="#mab729126d4" x="317.323636" y="307.584" style="stroke: #000000; stroke-width: 0.8"/>
      </g>
     </g>
     <g id="text_7">
      <!-- 0.50 -->
      <g transform="translate(306.190824 322.182437)scale(0.1 -0.1)">
       <use xlink:href="#DejaVuSans-30"/>
       <use xlink:href="#DejaVuSans-2e" x="63.623047"/>
       <use xlink:href="#DejaVuSans-35" x="95.410156"/>
       <use xlink:href="#DejaVuSans-30" x="159.033203"/>
      </g>
     </g>
    </g>
    <g id="xtick_8">
     <g id="line2d_8">
      <g>
       <use xlink:href="#mab729126d4" x="357.905455" y="307.584" style="stroke: #000000; stroke-width: 0.8"/>
      </g>
     </g>
     <g id="text_8">
      <!-- 0.75 -->
      <g transform="translate(346.772642 322.182437)scale(0.1 -0.1)">
       <use xlink:href="#DejaVuSans-30"/>
       <use xlink:href="#DejaVuSans-2e" x="63.623047"/>
       <use xlink:href="#DejaVuSans-37" x="95.410156"/>
       <use xlink:href="#DejaVuSans-35" x="159.033203"/>
      </g>
     </g>
    </g>
    <g id="xtick_9">
     <g id="line2d_9">
      <g>
       <use xlink:href="#mab729126d4" x="398.487273" y="307.584" style="stroke: #000000; stroke-width: 0.8"/>
      </g>
     </g>
     <g id="text_9">
      <!-- 1.00 -->
      <g transform="translate(387.35446 322.182437)scale(0.1 -0.1)">
       <use xlink:href="#DejaVuSans-31"/>
       <use xlink:href="#DejaVuSans-2e" x="63.623047"/>
       <use xlink:href="#DejaVuSans-30" x="95.410156"/>
       <use xlink:href="#DejaVuSans-30" x="159.033203"/>
      </g>
     </g>
    </g>
    <g id="text_10">
     <!-- x -->
     <g transform="translate(233.200625 335.860562)scale(0.1 -0.1)">
      <defs>
       <path id="DejaVuSans-78" d="M 3513 3500 
L 2247 1797 
L 3578 0 
L 2900 0 
L 1881 1375 
L 863 0 
L 184 0 
L 1544 1831 
L 300 3500 
L 978 3500 
L 1906 2253 
L 2834 3500 
L 3513 3500 
z
" transform="scale(0.015625)"/>
      </defs>
      <use xlink:href="#DejaVuSans-78"/>
     </g>
    </g>
   </g>
   <g id="matplotlib.axis_2">
    <g id="ytick_1">
     <g id="line2d_10">
      <defs>
       <path id="m31c158bd87" d="M 0 0 
L -3.5 0 
" style="stroke: #000000; stroke-width: 0.8"/>
      </defs>
      <g>
       <use xlink:href="#m31c158bd87" x="57.6" y="295.48815" style="stroke: #000000; stroke-width: 0.8"/>
      </g>
     </g>
     <g id="text_11">
      <!-- 0.00 -->
      <g transform="translate(28.334375 299.287368)scale(0.1 -0.1)">
       <use xlink:href="#DejaVuSans-30"/>
       <use xlink:href="#DejaVuSans-2e" x="63.623047"/>
       <use xlink:href="#DejaVuSans-30" x="95.410156"/>
       <use xlink:href="#DejaVuSans-30" x="159.033203"/>
      </g>
     </g>
    </g>
    <g id="ytick_2">
     <g id="line2d_11">
      <g>
       <use xlink:href="#m31c158bd87" x="57.6" y="265.248112" style="stroke: #000000; stroke-width: 0.8"/>
      </g>
     </g>
     <g id="text_12">
      <!-- 0.25 -->
      <g transform="translate(28.334375 269.047331)scale(0.1 -0.1)">
       <use xlink:href="#DejaVuSans-30"/>
       <use xlink:href="#DejaVuSans-2e" x="63.623047"/>
       <use xlink:href="#DejaVuSans-32" x="95.410156"/>
       <use xlink:href="#DejaVuSans-35" x="159.033203"/>
      </g>
     </g>
    </g>
    <g id="ytick_3">
     <g id="line2d_12">
      <g>
       <use xlink:href="#m31c158bd87" x="57.6" y="235.008075" style="stroke: #000000; stroke-width: 0.8"/>
      </g>
     </g>
     <g id="text_13">
      <!-- 0.50 -->
      <g transform="translate(28.334375 238.807294)scale(0.1 -0.1)">
       <use xlink:href="#DejaVuSans-30"/>
       <use xlink:href="#DejaVuSans-2e" x="63.623047"/>
       <use xlink:href="#DejaVuSans-35" x="95.410156"/>
       <use xlink:href="#DejaVuSans-30" x="159.033203"/>
      </g>
     </g>
    </g>
    <g id="ytick_4">
     <g id="line2d_13">
      <g>
       <use xlink:href="#m31c158bd87" x="57.6" y="204.768037" style="stroke: #000000; stroke-width: 0.8"/>
      </g>
     </g>
     <g id="text_14">
      <!-- 0.75 -->
      <g transform="translate(28.334375 208.567256)scale(0.1 -0.1)">
       <use xlink:href="#DejaVuSans-30"/>
       <use xlink:href="#DejaVuSans-2e" x="63.623047"/>
       <use xlink:href="#DejaVuSans-37" x="95.410156"/>
       <use xlink:href="#DejaVuSans-35" x="159.033203"/>
      </g>
     </g>
    </g>
    <g id="ytick_5">
     <g id="line2d_14">
      <g>
       <use xlink:href="#m31c158bd87" x="57.6" y="174.528" style="stroke: #000000; stroke-width: 0.8"/>
      </g>
     </g>
     <g id="text_15">
      <!-- 1.00 -->
      <g transform="translate(28.334375 178.327219)scale(0.1 -0.1)">
       <use xlink:href="#DejaVuSans-31"/>
       <use xlink:href="#DejaVuSans-2e" x="63.623047"/>
       <use xlink:href="#DejaVuSans-30" x="95.410156"/>
       <use xlink:href="#DejaVuSans-30" x="159.033203"/>
      </g>
     </g>
    </g>
    <g id="ytick_6">
     <g id="line2d_15">
      <g>
       <use xlink:href="#m31c158bd87" x="57.6" y="144.287963" style="stroke: #000000; stroke-width: 0.8"/>
      </g>
     </g>
     <g id="text_16">
      <!-- 1.25 -->
      <g transform="translate(28.334375 148.087181)scale(0.1 -0.1)">
       <use xlink:href="#DejaVuSans-31"/>
       <use xlink:href="#DejaVuSans-2e" x="63.623047"/>
       <use xlink:href="#DejaVuSans-32" x="95.410156"/>
       <use xlink:href="#DejaVuSans-35" x="159.033203"/>
      </g>
     </g>
    </g>
    <g id="ytick_7">
     <g id="line2d_16">
      <g>
       <use xlink:href="#m31c158bd87" x="57.6" y="114.047925" style="stroke: #000000; stroke-width: 0.8"/>
      </g>
     </g>
     <g id="text_17">
      <!-- 1.50 -->
      <g transform="translate(28.334375 117.847144)scale(0.1 -0.1)">
       <use xlink:href="#DejaVuSans-31"/>
       <use xlink:href="#DejaVuSans-2e" x="63.623047"/>
       <use xlink:href="#DejaVuSans-35" x="95.410156"/>
       <use xlink:href="#DejaVuSans-30" x="159.033203"/>
      </g>
     </g>
    </g>
    <g id="ytick_8">
     <g id="line2d_17">
      <g>
       <use xlink:href="#m31c158bd87" x="57.6" y="83.807888" style="stroke: #000000; stroke-width: 0.8"/>
      </g>
     </g>
     <g id="text_18">
      <!-- 1.75 -->
      <g transform="translate(28.334375 87.607107)scale(0.1 -0.1)">
       <use xlink:href="#DejaVuSans-31"/>
       <use xlink:href="#DejaVuSans-2e" x="63.623047"/>
       <use xlink:href="#DejaVuSans-37" x="95.410156"/>
       <use xlink:href="#DejaVuSans-35" x="159.033203"/>
      </g>
     </g>
    </g>
    <g id="ytick_9">
     <g id="line2d_18">
      <g>
       <use xlink:href="#m31c158bd87" x="57.6" y="53.56785" style="stroke: #000000; stroke-width: 0.8"/>
      </g>
     </g>
     <g id="text_19">
      <!-- 2.00 -->
      <g transform="translate(28.334375 57.367069)scale(0.1 -0.1)">
       <use xlink:href="#DejaVuSans-32"/>
       <use xlink:href="#DejaVuSans-2e" x="63.623047"/>
       <use xlink:href="#DejaVuSans-30" x="95.410156"/>
       <use xlink:href="#DejaVuSans-30" x="159.033203"/>
      </g>
     </g>
    </g>
    <g id="text_20">
     <!-- $f_i$ -->
     <g transform="translate(22.254688 177.428)rotate(-90)scale(0.1 -0.1)">
      <defs>
       <path id="DejaVuSans-Oblique-66" d="M 3059 4863 
L 2969 4384 
L 2419 4384 
Q 2106 4384 1964 4261 
Q 1822 4138 1753 3809 
L 1691 3500 
L 2638 3500 
L 2553 3053 
L 1606 3053 
L 1013 0 
L 434 0 
L 1031 3053 
L 481 3053 
L 563 3500 
L 1113 3500 
L 1159 3744 
Q 1278 4363 1576 4613 
Q 1875 4863 2516 4863 
L 3059 4863 
z
" transform="scale(0.015625)"/>
       <path id="DejaVuSans-Oblique-69" d="M 1172 4863 
L 1747 4863 
L 1606 4134 
L 1031 4134 
L 1172 4863 
z
M 909 3500 
L 1484 3500 
L 800 0 
L 225 0 
L 909 3500 
z
" transform="scale(0.015625)"/>
      </defs>
      <use xlink:href="#DejaVuSans-Oblique-66" transform="translate(0 0.015625)"/>
      <use xlink:href="#DejaVuSans-Oblique-69" transform="translate(35.205078 -16.390625)scale(0.7)"/>
     </g>
    </g>
   </g>
   <g id="line2d_19">
    <path d="M 73.832727 174.528 
L 81.307256 140.018485 
L 85.53199 121.605151 
L 88.781785 108.377449 
L 91.706601 97.360637 
L 94.306437 88.393211 
L 96.581294 81.258748 
L 98.856151 74.84696 
L 100.806028 69.964149 
L 102.755905 65.676681 
L 104.380803 62.576283 
L 106.0057 59.918591 
L 107.630598 57.714117 
L 108.930516 56.282772 
L 110.230434 55.150723 
L 111.530352 54.320836 
L 112.83027 53.795211 
L 113.805209 53.601493 
L 114.780147 53.579962 
L 115.755086 53.730649 
L 117.055004 54.199054 
L 118.354922 54.97203 
L 119.65484 56.047618 
L 120.954758 57.423098 
L 122.254676 59.094987 
L 123.879574 61.595157 
L 125.504472 64.541914 
L 127.129369 67.923605 
L 129.079247 72.5368 
L 131.029124 77.73069 
L 133.30398 84.484533 
L 135.578837 91.936057 
L 138.178673 101.232091 
L 141.103489 112.571615 
L 144.353284 126.09475 
L 148.253038 143.313076 
L 153.77769 168.824297 
L 162.552138 209.401923 
L 166.451892 226.422366 
L 169.701687 239.720225 
L 172.626503 250.813164 
L 175.226339 259.857773 
L 177.501196 267.066482 
L 179.776052 273.558178 
L 181.72593 278.513519 
L 183.675807 282.876811 
L 185.300704 286.0426 
L 186.925602 288.767411 
L 188.5505 291.040468 
L 189.850418 292.52755 
L 191.150336 293.715958 
L 192.450254 294.602683 
L 193.750172 295.185483 
L 195.05009 295.46288 
L 196.025029 295.470057 
L 196.999967 295.305025 
L 198.299885 294.817541 
L 199.599803 294.025587 
L 200.899722 292.931168 
L 202.19964 291.537053 
L 203.499558 289.84677 
L 205.124455 287.324021 
L 206.749353 284.355227 
L 208.374251 280.952126 
L 210.324128 276.314187 
L 212.274005 271.096721 
L 214.548862 264.317026 
L 216.823718 256.841623 
L 219.423554 247.520947 
L 222.34837 236.157378 
L 225.598165 222.612448 
L 229.49792 205.375267 
L 235.022572 179.85171 
L 243.797019 139.290015 
L 247.696773 122.290289 
L 250.946568 109.015684 
L 253.871384 97.948011 
L 256.47122 88.929041 
L 258.746077 81.74501 
L 261.020934 75.279886 
L 262.970811 70.348673 
L 264.920688 66.010613 
L 266.545586 62.866589 
L 268.170483 60.164125 
L 269.795381 57.913907 
L 271.095299 56.445389 
L 272.395217 55.275757 
L 273.695135 54.407968 
L 274.995053 53.844222 
L 276.294971 53.585943 
L 277.26991 53.59312 
L 278.244848 53.772496 
L 279.544767 54.279053 
L 280.844685 55.089977 
L 282.144603 56.203217 
L 283.444521 57.615954 
L 284.744439 59.324612 
L 286.369337 61.869915 
L 287.994234 64.860719 
L 289.619132 68.285195 
L 291.569009 72.947832 
L 293.518886 78.188822 
L 295.793743 84.994302 
L 298.0686 92.493512 
L 300.668436 101.838736 
L 303.593251 113.226239 
L 306.843047 126.792831 
L 310.742801 144.048696 
L 316.592432 171.104966 
L 325.0419 210.129699 
L 328.941654 227.10854 
L 332.19145 240.359759 
L 335.116265 251.402056 
L 337.716102 260.395299 
L 339.990958 267.554581 
L 342.265815 273.993069 
L 344.215692 278.900105 
L 346.165569 283.212891 
L 347.790467 286.335117 
L 349.415364 289.015208 
L 351.040262 291.242565 
L 352.34018 292.692503 
L 353.640098 293.84335 
L 354.940016 294.692192 
L 356.239934 295.236881 
L 357.539853 295.476038 
L 358.514791 295.454507 
L 359.48973 295.260789 
L 360.789648 294.735164 
L 362.089566 293.905277 
L 363.389484 292.773228 
L 364.689402 291.341883 
L 365.98932 289.614866 
L 367.614218 287.047034 
L 369.239115 284.034251 
L 370.864013 280.588433 
L 372.81389 275.901145 
L 374.763767 270.636682 
L 377.038624 263.805485 
L 379.313481 256.282543 
L 381.913317 246.912862 
L 384.838133 235.501538 
L 388.087928 221.913419 
L 391.987682 204.63904 
L 397.837314 177.570782 
L 398.487273 174.528 
L 398.487273 174.528 
" clip-path="url(#p30cf9ed450)" style="fill: none; stroke: #0000ff; stroke-width: 1.5; stroke-linecap: square"/>
   </g>
   <g id="line2d_20">
    <path d="M 73.840844 174.473903 
L 74.212963 172.733805 
L 74.585083 170.993965 
L 74.957203 169.254734 
L 75.329323 167.516465 
L 75.701443 165.779512 
L 76.073563 164.044228 
L 76.445683 162.31097 
L 76.817803 160.580094 
L 77.189922 158.851959 
L 77.562042 157.126923 
L 77.934162 155.405347 
" clip-path="url(#p30cf9ed450)" style="fill: none; stroke: #008000; stroke-width: 1.5; stroke-linecap: square"/>
   </g>
   <g id="line2d_21">
    <path d="M 77.950395 155.328094 
L 78.322515 153.610712 
L 78.694635 151.897633 
L 79.066754 150.189205 
L 79.438874 148.485776 
L 79.810994 146.787692 
L 80.183114 145.095301 
L 80.555234 143.40895 
L 80.927354 141.728983 
L 81.299474 140.055747 
L 81.671593 138.389588 
L 82.043713 136.73085 
" clip-path="url(#p30cf9ed450)" style="fill: none; stroke: #008000; stroke-width: 1.5; stroke-linecap: square"/>
   </g>
   <g id="line2d_22">
    <path d="M 82.059946 136.657813 
L 82.432066 135.007216 
L 82.804186 133.364795 
L 83.176306 131.730894 
L 83.548426 130.10585 
L 83.920545 128.490003 
L 84.292665 126.883686 
L 84.664785 125.287233 
L 85.036905 123.700976 
L 85.409025 122.125244 
L 85.781145 120.560364 
L 86.153265 119.00666 
" clip-path="url(#p30cf9ed450)" style="fill: none; stroke: #008000; stroke-width: 1.5; stroke-linecap: square"/>
   </g>
   <g id="line2d_23">
    <path d="M 86.169497 118.938717 
L 86.541617 117.397037 
L 86.913737 115.867217 
L 87.285857 114.349576 
L 87.657977 112.844428 
L 88.030097 111.352084 
L 88.402216 109.872855 
L 88.774336 108.407045 
L 89.146456 106.954957 
L 89.518576 105.516892 
L 89.890696 104.093147 
L 90.262816 102.684017 
" clip-path="url(#p30cf9ed450)" style="fill: none; stroke: #008000; stroke-width: 1.5; stroke-linecap: square"/>
   </g>
   <g id="line2d_24">
    <path d="M 90.279048 102.622607 
L 90.651168 101.229048 
L 91.023288 99.850711 
L 91.395408 98.487883 
L 91.767528 97.140844 
L 92.139648 95.809871 
L 92.511768 94.495239 
L 92.883888 93.197218 
L 93.256007 91.916076 
L 93.628127 90.652077 
L 94.000247 89.40548 
L 94.372367 88.176543 
" clip-path="url(#p30cf9ed450)" style="fill: none; stroke: #008000; stroke-width: 1.5; stroke-linecap: square"/>
   </g>
   <g id="line2d_25">
    <path d="M 94.3886 88.123094 
L 94.76072 86.912865 
L 95.132839 85.720824 
L 95.504959 84.547218 
L 95.877079 83.392287 
L 96.249199 82.256269 
L 96.621319 81.139397 
L 96.993439 80.041902 
L 97.365559 78.964009 
L 97.737678 77.90594 
L 98.109798 76.867913 
L 98.481918 75.85014 
" clip-path="url(#p30cf9ed450)" style="fill: none; stroke: #008000; stroke-width: 1.5; stroke-linecap: square"/>
   </g>
   <g id="line2d_26">
    <path d="M 98.498151 75.805978 
L 98.870271 74.809576 
L 99.242391 73.833867 
L 99.61451 72.879053 
L 99.98663 71.94533 
L 100.35875 71.032891 
L 100.73087 70.141923 
L 101.10299 69.27261 
L 101.47511 68.425129 
L 101.84723 67.599657 
L 102.21935 66.796363 
L 102.591469 66.015412 
" clip-path="url(#p30cf9ed450)" style="fill: none; stroke: #008000; stroke-width: 1.5; stroke-linecap: square"/>
   </g>
   <g id="line2d_27">
    <path d="M 102.607702 65.981669 
L 102.979822 65.224214 
L 103.351942 64.489438 
L 103.724062 63.777493 
L 104.096182 63.088526 
L 104.468301 62.422678 
L 104.840421 61.780088 
L 105.212541 61.160886 
L 105.584661 60.5652 
L 105.956781 59.993154 
L 106.328901 59.444866 
L 106.701021 58.920447 
" clip-path="url(#p30cf9ed450)" style="fill: none; stroke: #008000; stroke-width: 1.5; stroke-linecap: square"/>
   </g>
   <g id="line2d_28">
    <path d="M 106.717253 58.897991 
L 107.089373 58.398603 
L 107.461493 57.92331 
L 107.833613 57.472209 
L 108.205733 57.045393 
L 108.577853 56.64295 
L 108.949972 56.264963 
L 109.322092 55.91151 
L 109.694212 55.582664 
L 110.066332 55.278493 
L 110.438452 54.999059 
L 110.810572 54.74442 
" clip-path="url(#p30cf9ed450)" style="fill: none; stroke: #008000; stroke-width: 1.5; stroke-linecap: square"/>
   </g>
   <g id="line2d_29">
    <path d="M 110.826805 54.73382 
L 111.198924 54.505115 
L 111.571044 54.301311 
L 111.943164 54.12245 
L 112.315284 53.968568 
L 112.687404 53.839697 
L 113.059524 53.735864 
L 113.431644 53.65709 
L 113.803763 53.603392 
L 114.175883 53.57478 
L 114.548003 53.57126 
L 114.920123 53.592834 
" clip-path="url(#p30cf9ed450)" style="fill: none; stroke: #008000; stroke-width: 1.5; stroke-linecap: square"/>
   </g>
   <g id="line2d_30">
    <path d="M 114.936356 53.594355 
L 115.308476 53.642111 
L 115.680595 53.714945 
L 116.052715 53.812842 
L 116.424835 53.935781 
L 116.796955 54.083738 
L 117.169075 54.256682 
L 117.541195 54.454577 
L 117.913315 54.677383 
L 118.285434 54.925053 
L 118.657554 55.197537 
L 119.029674 55.494778 
" clip-path="url(#p30cf9ed450)" style="fill: none; stroke: #008000; stroke-width: 1.5; stroke-linecap: square"/>
   </g>
   <g id="line2d_31">
    <path d="M 119.045907 55.50838 
L 119.418027 55.83139 
L 119.790147 56.179022 
L 120.162267 56.551205 
L 120.534386 56.94786 
L 120.906506 57.368908 
L 121.278626 57.81426 
L 121.650746 58.283826 
L 122.022866 58.777509 
L 122.394986 59.295206 
L 122.767106 59.836811 
L 123.139225 60.402212 
" clip-path="url(#p30cf9ed450)" style="fill: none; stroke: #008000; stroke-width: 1.5; stroke-linecap: square"/>
   </g>
   <g id="line2d_32">
    <path d="M 123.155458 60.427552 
L 123.527578 61.017659 
L 123.899698 61.63131 
L 124.271818 62.268378 
L 124.643938 62.928733 
L 125.016057 63.612239 
L 125.388177 64.318754 
L 125.760297 65.048132 
L 126.132417 65.800225 
L 126.504537 66.574876 
L 126.876657 67.371926 
L 127.248777 68.191211 
" clip-path="url(#p30cf9ed450)" style="fill: none; stroke: #008000; stroke-width: 1.5; stroke-linecap: square"/>
   </g>
   <g id="line2d_33">
    <path d="M 127.265009 68.227648 
L 127.637129 69.069951 
L 128.009249 69.934126 
L 128.381369 70.819995 
L 128.753489 71.727375 
L 129.125609 72.656079 
L 129.497729 73.605916 
L 129.869848 74.576691 
L 130.241968 75.568203 
L 130.614088 76.580249 
L 130.986208 77.612619 
L 131.358328 78.665101 
" clip-path="url(#p30cf9ed450)" style="fill: none; stroke: #008000; stroke-width: 1.5; stroke-linecap: square"/>
   </g>
   <g id="line2d_34">
    <path d="M 131.374561 78.711716 
L 131.74668 79.784946 
L 132.1188 80.877825 
L 132.49092 81.990126 
L 132.86304 83.12162 
L 133.23516 84.272074 
L 133.60728 85.441251 
L 133.9794 86.62891 
L 134.351519 87.834807 
L 134.723639 89.058693 
L 135.095759 90.300317 
L 135.467879 91.55942 
" clip-path="url(#p30cf9ed450)" style="fill: none; stroke: #008000; stroke-width: 1.5; stroke-linecap: square"/>
   </g>
   <g id="line2d_35">
    <path d="M 135.484112 91.615036 
L 135.856232 92.892097 
L 136.228351 94.186084 
L 136.600471 95.496733 
L 136.972591 96.823771 
L 137.344711 98.166927 
L 137.716831 99.525923 
L 138.088951 100.900479 
L 138.461071 102.290313 
L 138.833191 103.695137 
L 139.20531 105.114663 
L 139.57743 106.548598 
" clip-path="url(#p30cf9ed450)" style="fill: none; stroke: #008000; stroke-width: 1.5; stroke-linecap: square"/>
   </g>
   <g id="line2d_36">
    <path d="M 139.593663 106.61181 
L 139.965783 108.060456 
L 140.337903 109.52288 
L 140.710023 110.998783 
L 141.082142 112.487859 
L 141.454262 113.989803 
L 141.826382 115.504304 
L 142.198502 117.031051 
L 142.570622 118.569729 
L 142.942742 120.120021 
L 143.314862 121.681608 
L 143.686981 123.254168 
" clip-path="url(#p30cf9ed450)" style="fill: none; stroke: #008000; stroke-width: 1.5; stroke-linecap: square"/>
   </g>
   <g id="line2d_37">
    <path d="M 143.703214 123.323381 
L 144.075334 124.907033 
L 144.447454 126.50097 
L 144.819574 128.104861 
L 145.191694 129.718378 
L 145.563813 131.341186 
L 145.935933 132.972952 
L 146.308053 134.61334 
L 146.680173 136.262012 
L 147.052293 137.918629 
L 147.424413 139.582848 
L 147.796533 141.254326 
" clip-path="url(#p30cf9ed450)" style="fill: none; stroke: #008000; stroke-width: 1.5; stroke-linecap: square"/>
   </g>
   <g id="line2d_38">
    <path d="M 147.812765 141.327792 
L 148.184885 143.006466 
L 148.557005 144.691669 
L 148.929125 146.383053 
L 149.301245 148.080269 
L 149.673365 149.782968 
L 150.045485 151.490799 
L 150.417604 153.20341 
L 150.789724 154.920448 
L 151.161844 156.64156 
L 151.533964 158.366392 
L 151.906084 160.094586 
" clip-path="url(#p30cf9ed450)" style="fill: none; stroke: #008000; stroke-width: 1.5; stroke-linecap: square"/>
   </g>
   <g id="line2d_39">
    <path d="M 151.922317 160.17045 
L 152.294436 161.901761 
L 152.666556 163.63568 
L 153.038676 165.37185 
L 153.410796 167.109913 
L 153.782916 168.84951 
L 154.155036 170.590284 
L 154.527156 172.331876 
L 154.899275 174.073927 
L 155.271395 175.816079 
L 155.643515 177.557972 
L 156.015635 179.299247 
" clip-path="url(#p30cf9ed450)" style="fill: none; stroke: #008000; stroke-width: 1.5; stroke-linecap: square"/>
   </g>
   <g id="line2d_40">
    <path d="M 156.031868 179.375593 
L 156.403988 181.115827 
L 156.776108 182.854682 
L 157.148227 184.591802 
L 157.520347 186.326827 
L 157.892467 188.0594 
L 158.264587 189.789165 
L 158.636707 191.515764 
L 159.008827 193.238843 
L 159.380947 194.958046 
L 159.753066 196.67302 
L 160.125186 198.38341 
" clip-path="url(#p30cf9ed450)" style="fill: none; stroke: #008000; stroke-width: 1.5; stroke-linecap: square"/>
   </g>
   <g id="line2d_41">
    <path d="M 160.141419 198.458311 
L 160.513539 200.163528 
L 160.885659 201.863416 
L 161.257779 203.557624 
L 161.629898 205.245803 
L 162.002018 206.927606 
L 162.374138 208.602687 
L 162.746258 210.270699 
L 163.118378 211.931299 
L 163.490498 213.584146 
L 163.862618 215.228899 
L 164.234737 216.865218 
" clip-path="url(#p30cf9ed450)" style="fill: none; stroke: #008000; stroke-width: 1.5; stroke-linecap: square"/>
   </g>
   <g id="line2d_42">
    <path d="M 164.25097 216.936783 
L 164.62309 218.563928 
L 164.99521 220.181927 
L 165.36733 221.790447 
L 165.73945 223.389157 
L 166.11157 224.977726 
L 166.483689 226.555827 
L 166.855809 228.123136 
L 167.227929 229.67933 
L 167.600049 231.224087 
L 167.972169 232.757091 
L 168.344289 234.278024 
" clip-path="url(#p30cf9ed450)" style="fill: none; stroke: #008000; stroke-width: 1.5; stroke-linecap: square"/>
   </g>
   <g id="line2d_43">
    <path d="M 168.360521 234.344445 
L 168.732641 235.852435 
L 169.104761 237.347693 
L 169.476881 238.829911 
L 169.849001 240.298785 
L 170.221121 241.75401 
L 170.593241 243.195287 
L 170.96536 244.62232 
L 171.33748 246.034814 
L 171.7096 247.432479 
L 172.08172 248.815026 
L 172.45384 250.182171 
" clip-path="url(#p30cf9ed450)" style="fill: none; stroke: #008000; stroke-width: 1.5; stroke-linecap: square"/>
   </g>
   <g id="line2d_44">
    <path d="M 172.470073 250.241772 
L 172.842192 251.592531 
L 173.214312 252.927294 
L 173.586432 254.245786 
L 173.958552 255.547736 
L 174.330672 256.832874 
L 174.702792 258.100936 
L 175.074912 259.351662 
L 175.447032 260.584793 
L 175.819151 261.800075 
L 176.191271 262.997259 
L 176.563391 264.176096 
" clip-path="url(#p30cf9ed450)" style="fill: none; stroke: #008000; stroke-width: 1.5; stroke-linecap: square"/>
   </g>
   <g id="line2d_45">
    <path d="M 176.579624 264.227372 
L 176.951744 265.386795 
L 177.323864 266.527362 
L 177.695983 267.648837 
L 178.068103 268.750989 
L 178.440223 269.833592 
L 178.812343 270.896423 
L 179.184463 271.939261 
L 179.556583 272.961894 
L 179.928703 273.964109 
L 180.300822 274.9457 
L 180.672942 275.906466 
" clip-path="url(#p30cf9ed450)" style="fill: none; stroke: #008000; stroke-width: 1.5; stroke-linecap: square"/>
   </g>
   <g id="line2d_46">
    <path d="M 180.689175 275.948122 
L 181.061295 276.886935 
L 181.433415 277.804507 
L 181.805535 278.700649 
L 182.177654 279.575176 
L 182.549774 280.427909 
L 182.921894 281.258672 
L 183.294014 282.067293 
L 183.666134 282.853606 
L 184.038254 283.617449 
L 184.410374 284.358665 
L 184.782494 285.077101 
" clip-path="url(#p30cf9ed450)" style="fill: none; stroke: #008000; stroke-width: 1.5; stroke-linecap: square"/>
   </g>
   <g id="line2d_47">
    <path d="M 184.798726 285.108085 
L 185.170846 285.802583 
L 185.542966 286.473992 
L 185.915086 287.122175 
L 186.287206 287.746997 
L 186.659326 288.348329 
L 187.031445 288.926048 
L 187.403565 289.480035 
L 187.775685 290.010175 
L 188.147805 290.51636 
L 188.519925 290.998484 
L 188.892045 291.45645 
" clip-path="url(#p30cf9ed450)" style="fill: none; stroke: #008000; stroke-width: 1.5; stroke-linecap: square"/>
   </g>
   <g id="line2d_48">
    <path d="M 188.908277 291.47598 
L 189.280397 291.908629 
L 189.652517 292.316923 
L 190.024637 292.70078 
L 190.396757 293.06012 
L 190.768877 293.394868 
L 191.140997 293.704957 
L 191.513117 293.990321 
L 191.885236 294.250903 
L 192.257356 294.486649 
L 192.629476 294.69751 
L 193.001596 294.883442 
" clip-path="url(#p30cf9ed450)" style="fill: none; stroke: #008000; stroke-width: 1.5; stroke-linecap: square"/>
   </g>
   <g id="line2d_49">
    <path d="M 193.017829 294.891025 
L 193.389949 295.0509 
L 193.762068 295.185771 
L 194.134188 295.29561 
L 194.506308 295.380394 
L 194.878428 295.440107 
L 195.250548 295.474736 
L 195.622668 295.484273 
L 195.994788 295.468717 
L 196.366907 295.428072 
L 196.739027 295.362344 
L 197.111147 295.271549 
" clip-path="url(#p30cf9ed450)" style="fill: none; stroke: #008000; stroke-width: 1.5; stroke-linecap: square"/>
   </g>
   <g id="line2d_50">
    <path d="M 197.12738 295.266994 
L 197.4995 295.150058 
L 197.87162 295.008099 
L 198.243739 294.841147 
L 198.615859 294.649236 
L 198.987979 294.432406 
L 199.360099 294.1907 
L 199.732219 293.92417 
L 200.104339 293.632869 
L 200.476459 293.316858 
L 200.848579 292.976202 
L 201.220698 292.610972 
" clip-path="url(#p30cf9ed450)" style="fill: none; stroke: #008000; stroke-width: 1.5; stroke-linecap: square"/>
   </g>
   <g id="line2d_51">
    <path d="M 201.236931 292.594393 
L 201.609051 292.203599 
L 201.981171 291.788396 
L 202.353291 291.348868 
L 202.725411 290.885107 
L 203.09753 290.397208 
L 203.46965 289.885271 
L 203.84177 289.349402 
L 204.21389 288.789712 
L 204.58601 288.206315 
L 204.95813 287.599332 
L 205.33025 286.968889 
" clip-path="url(#p30cf9ed450)" style="fill: none; stroke: #008000; stroke-width: 1.5; stroke-linecap: square"/>
   </g>
   <g id="line2d_52">
    <path d="M 205.346482 286.940705 
L 205.718602 286.28592 
L 206.090722 285.607956 
L 206.462842 284.90695 
L 206.834962 284.183049 
L 207.207082 283.4364 
L 207.579201 282.667158 
L 207.951321 281.875482 
L 208.323441 281.061533 
L 208.695561 280.225481 
L 209.067681 279.367496 
L 209.439801 278.487758 
" clip-path="url(#p30cf9ed450)" style="fill: none; stroke: #008000; stroke-width: 1.5; stroke-linecap: square"/>
   </g>
   <g id="line2d_53">
    <path d="M 209.456034 278.44868 
L 209.828153 277.546438 
L 210.200273 276.62283 
L 210.572393 275.678047 
L 210.944513 274.712283 
L 211.316633 273.725737 
L 211.688753 272.718613 
L 212.060873 271.691118 
L 212.432992 270.643463 
L 212.805112 269.575865 
L 213.177232 268.488543 
L 213.549352 267.381722 
" clip-path="url(#p30cf9ed450)" style="fill: none; stroke: #008000; stroke-width: 1.5; stroke-linecap: square"/>
   </g>
   <g id="line2d_54">
    <path d="M 213.565585 267.332738 
L 213.937705 266.205819 
L 214.309824 265.059888 
L 214.681944 263.895182 
L 215.054064 262.711941 
L 215.426184 261.510408 
L 215.798304 260.29083 
L 216.170424 259.05346 
L 216.542544 257.798551 
L 216.914663 256.526363 
L 217.286783 255.237157 
L 217.658903 253.931201 
" clip-path="url(#p30cf9ed450)" style="fill: none; stroke: #008000; stroke-width: 1.5; stroke-linecap: square"/>
   </g>
   <g id="line2d_55">
    <path d="M 217.675136 253.873547 
L 218.047256 252.550405 
L 218.419376 251.211086 
L 218.791496 249.855865 
L 219.163615 248.485022 
L 219.535735 247.098839 
L 219.907855 245.697602 
L 220.279975 244.281599 
L 220.652095 242.851122 
L 221.024215 241.406466 
L 221.396335 239.947929 
L 221.768454 238.475811 
" clip-path="url(#p30cf9ed450)" style="fill: none; stroke: #008000; stroke-width: 1.5; stroke-linecap: square"/>
   </g>
   <g id="line2d_56">
    <path d="M 221.784687 238.410943 
L 222.156807 236.924987 
L 222.528927 235.426096 
L 222.901047 233.914578 
L 223.273167 232.390747 
L 223.645286 230.854915 
L 224.017406 229.307398 
L 224.389526 227.748516 
L 224.761646 226.17859 
L 225.133766 224.597942 
L 225.505886 223.0069 
L 225.878006 221.405791 
" clip-path="url(#p30cf9ed450)" style="fill: none; stroke: #008000; stroke-width: 1.5; stroke-linecap: square"/>
   </g>
   <g id="line2d_57">
    <path d="M 225.894238 221.335346 
L 226.266358 219.724096 
L 226.638478 218.103479 
L 227.010598 216.47383 
L 227.382718 214.835485 
L 227.754838 213.188783 
L 228.126958 211.534061 
L 228.499077 209.87166 
L 228.871197 208.201924 
L 229.243317 206.525196 
L 229.615437 204.841821 
L 229.987557 203.152148 
" clip-path="url(#p30cf9ed450)" style="fill: none; stroke: #008000; stroke-width: 1.5; stroke-linecap: square"/>
   </g>
   <g id="line2d_58">
    <path d="M 230.00379 203.077906 
L 230.375909 201.382043 
L 230.748029 199.68062 
L 231.120149 197.973987 
L 231.492269 196.262497 
L 231.864389 194.546502 
L 232.236509 192.826355 
L 232.608629 191.102411 
L 232.980748 189.375025 
L 233.352868 187.644552 
L 233.724988 185.911349 
L 234.097108 184.175775 
" clip-path="url(#p30cf9ed450)" style="fill: none; stroke: #008000; stroke-width: 1.5; stroke-linecap: square"/>
   </g>
   <g id="line2d_59">
    <path d="M 234.113341 184.09961 
L 234.485461 182.361955 
L 234.85758 180.622685 
L 235.2297 178.88216 
L 235.60182 177.140739 
L 235.97394 175.398779 
L 236.34606 173.65664 
L 236.71818 171.914681 
L 237.0903 170.173259 
L 237.46242 168.432735 
L 237.834539 166.693467 
L 238.206659 164.955814 
" clip-path="url(#p30cf9ed450)" style="fill: none; stroke: #008000; stroke-width: 1.5; stroke-linecap: square"/>
   </g>
   <g id="line2d_60">
    <path d="M 238.222892 164.879649 
L 238.595012 163.144077 
L 238.967132 161.410877 
L 239.339252 159.680406 
L 239.711371 157.953023 
L 240.083491 156.229082 
L 240.455611 154.508939 
L 240.827731 152.792948 
L 241.199851 151.081462 
L 241.571971 149.374834 
L 241.944091 147.673416 
L 242.31621 145.977558 
" clip-path="url(#p30cf9ed450)" style="fill: none; stroke: #008000; stroke-width: 1.5; stroke-linecap: square"/>
   </g>
   <g id="line2d_61">
    <path d="M 242.332443 145.903317 
L 242.704563 144.213649 
L 243.076683 142.53028 
L 243.448803 140.853558 
L 243.820923 139.183828 
L 244.193042 137.521435 
L 244.565162 135.86672 
L 244.937282 134.220025 
L 245.309402 132.581688 
L 245.681522 130.952048 
L 246.053642 129.331439 
L 246.425762 127.720197 
" clip-path="url(#p30cf9ed450)" style="fill: none; stroke: #008000; stroke-width: 1.5; stroke-linecap: square"/>
   </g>
   <g id="line2d_62">
    <path d="M 246.441994 127.649753 
L 246.814114 126.048653 
L 247.186234 124.45762 
L 247.558354 122.876983 
L 247.930474 121.307066 
L 248.302594 119.748195 
L 248.674714 118.200689 
L 249.046833 116.664868 
L 249.418953 115.141047 
L 249.791073 113.629541 
L 250.163193 112.130662 
L 250.535313 110.644718 
" clip-path="url(#p30cf9ed450)" style="fill: none; stroke: #008000; stroke-width: 1.5; stroke-linecap: square"/>
   </g>
   <g id="line2d_63">
    <path d="M 250.551546 110.579851 
L 250.923665 109.107745 
L 251.295785 107.64922 
L 251.667905 106.204577 
L 252.040025 104.774114 
L 252.412145 103.358125 
L 252.784265 101.956901 
L 253.156385 100.570733 
L 253.528504 99.199904 
L 253.900624 97.844698 
L 254.272744 96.505393 
L 254.644864 95.182267 
" clip-path="url(#p30cf9ed450)" style="fill: none; stroke: #008000; stroke-width: 1.5; stroke-linecap: square"/>
   </g>
   <g id="line2d_64">
    <path d="M 254.661097 95.124614 
L 255.033217 93.818672 
L 255.405337 92.529483 
L 255.777456 91.25731 
L 256.149576 90.002418 
L 256.521696 88.765064 
L 256.893816 87.545503 
L 257.265936 86.343987 
L 257.638056 85.160763 
L 258.010176 83.996074 
L 258.382295 82.850161 
L 258.754415 81.72326 
" clip-path="url(#p30cf9ed450)" style="fill: none; stroke: #008000; stroke-width: 1.5; stroke-linecap: square"/>
   </g>
   <g id="line2d_65">
    <path d="M 258.770648 81.674277 
L 259.142768 80.567474 
L 259.514888 79.48017 
L 259.887008 78.41259 
L 260.259127 77.364954 
L 260.631247 76.337478 
L 261.003367 75.330372 
L 261.375487 74.343846 
L 261.747607 73.378102 
L 262.119727 72.433338 
L 262.491847 71.50975 
L 262.863966 70.607528 
" clip-path="url(#p30cf9ed450)" style="fill: none; stroke: #008000; stroke-width: 1.5; stroke-linecap: square"/>
   </g>
   <g id="line2d_66">
    <path d="M 262.880199 70.568451 
L 263.252319 69.688733 
L 263.624439 68.830769 
L 263.996559 67.994737 
L 264.368679 67.180809 
L 264.740799 66.389153 
L 265.112918 65.619932 
L 265.485038 64.873304 
L 265.857158 64.149424 
L 266.229278 63.44844 
L 266.601398 62.770496 
L 266.973518 62.115733 
" clip-path="url(#p30cf9ed450)" style="fill: none; stroke: #008000; stroke-width: 1.5; stroke-linecap: square"/>
   </g>
   <g id="line2d_67">
    <path d="M 266.98975 62.08755 
L 267.36187 61.457128 
L 267.73399 60.850167 
L 268.10611 60.266792 
L 268.47823 59.707123 
L 268.85035 59.171276 
L 269.22247 58.659361 
L 269.594589 58.171484 
L 269.966709 57.707745 
L 270.338829 57.26824 
L 270.710949 56.853058 
L 271.083069 56.462286 
" clip-path="url(#p30cf9ed450)" style="fill: none; stroke: #008000; stroke-width: 1.5; stroke-linecap: square"/>
   </g>
   <g id="line2d_68">
    <path d="M 271.099302 56.445708 
L 271.471421 56.0805 
L 271.843541 55.739867 
L 272.215661 55.423878 
L 272.587781 55.132599 
L 272.959901 54.866091 
L 273.332021 54.624408 
L 273.704141 54.407599 
L 274.076261 54.21571 
L 274.44838 54.04878 
L 274.8205 53.906843 
L 275.19262 53.789929 
" clip-path="url(#p30cf9ed450)" style="fill: none; stroke: #008000; stroke-width: 1.5; stroke-linecap: square"/>
   </g>
   <g id="line2d_69">
    <path d="M 275.208853 53.785375 
L 275.580973 53.694601 
L 275.953093 53.628895 
L 276.325212 53.588271 
L 276.697332 53.572737 
L 277.069452 53.582296 
L 277.441572 53.616946 
L 277.813692 53.67668 
L 278.185812 53.761485 
L 278.557932 53.871345 
L 278.930051 54.006236 
L 279.302171 54.166131 
" clip-path="url(#p30cf9ed450)" style="fill: none; stroke: #008000; stroke-width: 1.5; stroke-linecap: square"/>
   </g>
   <g id="line2d_70">
    <path d="M 279.318404 54.173716 
L 279.690524 54.359668 
L 280.062644 54.570549 
L 280.434764 54.806315 
L 280.806883 55.066916 
L 281.179003 55.352301 
L 281.551123 55.662408 
L 281.923243 55.997176 
L 282.295363 56.356535 
L 282.667483 56.74041 
L 283.039603 57.148723 
L 283.411723 57.581389 
" clip-path="url(#p30cf9ed450)" style="fill: none; stroke: #008000; stroke-width: 1.5; stroke-linecap: square"/>
   </g>
   <g id="line2d_71">
    <path d="M 283.427955 57.60092 
L 283.800075 58.058903 
L 284.172195 58.541046 
L 284.544315 59.047247 
L 284.916435 59.577404 
L 285.288555 60.131408 
L 285.660674 60.709143 
L 286.032794 61.310491 
L 286.404914 61.935328 
L 286.777034 62.583526 
L 287.149154 63.25495 
L 287.521274 63.949462 
" clip-path="url(#p30cf9ed450)" style="fill: none; stroke: #008000; stroke-width: 1.5; stroke-linecap: square"/>
   </g>
   <g id="line2d_72">
    <path d="M 287.537506 63.980447 
L 287.909626 64.698896 
L 288.281746 65.440126 
L 288.653866 66.203982 
L 289.025986 66.990308 
L 289.398106 67.798941 
L 289.770226 68.629715 
L 290.142346 69.48246 
L 290.514465 70.356998 
L 290.886585 71.253151 
L 291.258705 72.170733 
L 291.630825 73.109555 
" clip-path="url(#p30cf9ed450)" style="fill: none; stroke: #008000; stroke-width: 1.5; stroke-linecap: square"/>
   </g>
   <g id="line2d_73">
    <path d="M 291.647058 73.151211 
L 292.019178 74.111986 
L 292.391297 75.093586 
L 292.763417 76.095809 
L 293.135537 77.118449 
L 293.507657 78.161294 
L 293.879777 79.224131 
L 294.251897 80.306739 
L 294.624017 81.408897 
L 294.996136 82.530377 
L 295.368256 83.670948 
L 295.740376 84.830374 
" clip-path="url(#p30cf9ed450)" style="fill: none; stroke: #008000; stroke-width: 1.5; stroke-linecap: square"/>
   </g>
   <g id="line2d_74">
    <path d="M 295.756609 84.88165 
L 296.128729 86.06049 
L 296.500849 87.257676 
L 296.872968 88.47296 
L 297.245088 89.706092 
L 297.617208 90.956818 
L 297.989328 92.22488 
L 298.361448 93.510018 
L 298.733568 94.811966 
L 299.105688 96.130456 
L 299.477808 97.465216 
L 299.849927 98.815972 
" clip-path="url(#p30cf9ed450)" style="fill: none; stroke: #008000; stroke-width: 1.5; stroke-linecap: square"/>
   </g>
   <g id="line2d_75">
    <path d="M 299.86616 98.875573 
L 300.23828 100.242713 
L 300.6104 101.625256 
L 300.98252 103.022915 
L 301.35464 104.435403 
L 301.726759 105.862429 
L 302.098879 107.303699 
L 302.470999 108.758916 
L 302.843119 110.22778 
L 303.215239 111.709989 
L 303.587359 113.205237 
L 303.959479 114.713216 
" clip-path="url(#p30cf9ed450)" style="fill: none; stroke: #008000; stroke-width: 1.5; stroke-linecap: square"/>
   </g>
   <g id="line2d_76">
    <path d="M 303.975711 114.779637 
L 304.347831 116.300558 
L 304.719951 117.833549 
L 305.092071 119.378293 
L 305.464191 120.934473 
L 305.836311 122.501768 
L 306.20843 124.079854 
L 306.58055 125.668407 
L 306.95267 127.267099 
L 307.32479 128.875602 
L 307.69691 130.493583 
L 308.06903 132.120709 
" clip-path="url(#p30cf9ed450)" style="fill: none; stroke: #008000; stroke-width: 1.5; stroke-linecap: square"/>
   </g>
   <g id="line2d_77">
    <path d="M 308.085263 132.192273 
L 308.457382 133.828573 
L 308.829502 135.473305 
L 309.201622 137.126131 
L 309.573742 138.786709 
L 309.945862 140.454699 
L 310.317982 142.129756 
L 310.690102 143.811535 
L 311.062221 145.499689 
L 311.434341 147.193872 
L 311.806461 148.893734 
L 312.178581 150.598924 
" clip-path="url(#p30cf9ed450)" style="fill: none; stroke: #008000; stroke-width: 1.5; stroke-linecap: square"/>
   </g>
   <g id="line2d_78">
    <path d="M 312.194814 150.673824 
L 312.566934 152.384186 
L 312.939053 154.099131 
L 313.311173 155.818306 
L 313.683293 157.541355 
L 314.055413 159.267924 
L 314.427533 160.997658 
L 314.799653 162.730199 
L 315.171773 164.465192 
L 315.543892 166.202279 
L 315.916012 167.941101 
L 316.288132 169.6813 
" clip-path="url(#p30cf9ed450)" style="fill: none; stroke: #008000; stroke-width: 1.5; stroke-linecap: square"/>
   </g>
   <g id="line2d_79">
    <path d="M 316.304365 169.757645 
L 316.676485 171.498885 
L 317.048605 173.240742 
L 317.420725 174.982857 
L 317.792844 176.724872 
L 318.164964 178.466427 
L 318.537084 180.207163 
L 318.909204 181.946722 
L 319.281324 183.684745 
L 319.653444 185.420876 
L 320.025564 187.154755 
L 320.397683 188.886025 
" clip-path="url(#p30cf9ed450)" style="fill: none; stroke: #008000; stroke-width: 1.5; stroke-linecap: square"/>
   </g>
   <g id="line2d_80">
    <path d="M 320.413916 188.961887 
L 320.786036 190.69004 
L 321.158156 192.414829 
L 321.530276 194.135899 
L 321.902396 195.852895 
L 322.274515 197.565463 
L 322.646635 199.27325 
L 323.018755 200.975904 
L 323.390875 202.673076 
L 323.762995 204.364415 
L 324.135115 206.049572 
L 324.507235 207.728201 
" clip-path="url(#p30cf9ed450)" style="fill: none; stroke: #008000; stroke-width: 1.5; stroke-linecap: square"/>
   </g>
   <g id="line2d_81">
    <path d="M 324.523467 207.801665 
L 324.895587 209.473097 
L 325.267707 211.13727 
L 325.639827 212.79384 
L 326.011947 214.442465 
L 326.384067 216.082805 
L 326.756187 217.714524 
L 327.128306 219.337285 
L 327.500426 220.950753 
L 327.872546 222.554597 
L 328.244666 224.148485 
L 328.616786 225.732089 
" clip-path="url(#p30cf9ed450)" style="fill: none; stroke: #008000; stroke-width: 1.5; stroke-linecap: square"/>
   </g>
   <g id="line2d_82">
    <path d="M 328.633019 225.8013 
L 329.005138 227.373811 
L 329.377258 228.935349 
L 329.749378 230.485593 
L 330.121498 232.024222 
L 330.493618 233.55092 
L 330.865738 235.065372 
L 331.237858 236.567267 
L 331.609977 238.056294 
L 331.982097 239.532148 
L 332.354217 240.994524 
L 332.726337 242.443121 
" clip-path="url(#p30cf9ed450)" style="fill: none; stroke: #008000; stroke-width: 1.5; stroke-linecap: square"/>
   </g>
   <g id="line2d_83">
    <path d="M 332.74257 242.506331 
L 333.11469 243.940217 
L 333.486809 245.359695 
L 333.858929 246.764472 
L 334.231049 248.154257 
L 334.603169 249.528766 
L 334.975289 250.887715 
L 335.347409 252.230823 
L 335.719529 253.557815 
L 336.091649 254.868416 
L 336.463768 256.162358 
L 336.835888 257.439372 
" clip-path="url(#p30cf9ed450)" style="fill: none; stroke: #008000; stroke-width: 1.5; stroke-linecap: square"/>
   </g>
   <g id="line2d_84">
    <path d="M 336.852121 257.494986 
L 337.224241 258.754044 
L 337.596361 259.995622 
L 337.968481 261.219464 
L 338.3406 262.425316 
L 338.71272 263.612931 
L 339.08484 264.782065 
L 339.45696 265.932476 
L 339.82908 267.063927 
L 340.2012 268.176186 
L 340.57332 269.269023 
L 340.945439 270.342212 
" clip-path="url(#p30cf9ed450)" style="fill: none; stroke: #008000; stroke-width: 1.5; stroke-linecap: square"/>
   </g>
   <g id="line2d_85">
    <path d="M 340.961672 270.388826 
L 341.333792 271.441267 
L 341.705912 272.473596 
L 342.078032 273.485602 
L 342.450152 274.477075 
L 342.822271 275.447812 
L 343.194391 276.397611 
L 343.566511 277.326278 
L 343.938631 278.233621 
L 344.310751 279.119453 
L 344.682871 279.983593 
L 345.054991 280.82586 
" clip-path="url(#p30cf9ed450)" style="fill: none; stroke: #008000; stroke-width: 1.5; stroke-linecap: square"/>
   </g>
   <g id="line2d_86">
    <path d="M 345.071223 280.862297 
L 345.443343 281.681547 
L 345.815463 282.478564 
L 346.187583 283.253182 
L 346.559703 284.005243 
L 346.931823 284.73459 
L 347.303943 285.441074 
L 347.676062 286.124549 
L 348.048182 286.784875 
L 348.420302 287.421916 
L 348.792422 288.035539 
L 349.164542 288.62562 
" clip-path="url(#p30cf9ed450)" style="fill: none; stroke: #008000; stroke-width: 1.5; stroke-linecap: square"/>
   </g>
   <g id="line2d_87">
    <path d="M 349.180775 288.650958 
L 349.552894 289.216335 
L 349.925014 289.757916 
L 350.297134 290.27559 
L 350.669254 290.76925 
L 351.041374 291.238795 
L 351.413494 291.684128 
L 351.785614 292.105157 
L 352.157733 292.501796 
L 352.529853 292.873963 
L 352.901973 293.221582 
L 353.274093 293.54458 
" clip-path="url(#p30cf9ed450)" style="fill: none; stroke: #008000; stroke-width: 1.5; stroke-linecap: square"/>
   </g>
   <g id="line2d_88">
    <path d="M 353.290326 293.558179 
L 353.662446 293.85541 
L 354.034566 294.127886 
L 354.406685 294.37555 
L 354.778805 294.598351 
L 355.150925 294.796244 
L 355.523045 294.969188 
L 355.895165 295.117148 
L 356.267285 295.240092 
L 356.639405 295.337996 
L 357.011524 295.41084 
L 357.383644 295.458608 
" clip-path="url(#p30cf9ed450)" style="fill: none; stroke: #008000; stroke-width: 1.5; stroke-linecap: square"/>
   </g>
   <g id="line2d_89">
    <path d="M 357.399877 295.460124 
L 357.771997 295.481713 
L 358.144117 295.478212 
L 358.516237 295.449621 
L 358.888356 295.395947 
L 359.260476 295.3172 
L 359.632596 295.213398 
L 360.004716 295.08456 
L 360.376836 294.930714 
L 360.748956 294.751892 
L 361.121076 294.54813 
L 361.493195 294.31947 
" clip-path="url(#p30cf9ed450)" style="fill: none; stroke: #008000; stroke-width: 1.5; stroke-linecap: square"/>
   </g>
   <g id="line2d_90">
    <path d="M 361.509428 294.308867 
L 361.881548 294.054276 
L 362.253668 293.774893 
L 362.625788 293.470775 
L 362.997908 293.141985 
L 363.370028 292.78859 
L 363.742147 292.410664 
L 364.114267 292.008284 
L 364.486387 291.581532 
L 364.858507 291.130496 
L 365.230627 290.65527 
L 365.602747 290.15595 
" clip-path="url(#p30cf9ed450)" style="fill: none; stroke: #008000; stroke-width: 1.5; stroke-linecap: square"/>
   </g>
   <g id="line2d_91">
    <path d="M 365.618979 290.133503 
L 365.991099 289.609153 
L 366.363219 289.060932 
L 366.735339 288.488953 
L 367.107459 287.893334 
L 367.479579 287.274197 
L 367.851699 286.631669 
L 368.223818 285.965882 
L 368.595938 285.276973 
L 368.968058 284.565083 
L 369.340178 283.83036 
L 369.712298 283.072953 
" clip-path="url(#p30cf9ed450)" style="fill: none; stroke: #008000; stroke-width: 1.5; stroke-linecap: square"/>
   </g>
   <g id="line2d_92">
    <path d="M 369.728531 283.039236 
L 370.10065 282.258328 
L 370.47277 281.45507 
L 370.84489 280.629628 
L 371.21701 279.782171 
L 371.58913 278.912873 
L 371.96125 278.021913 
L 372.33337 277.109474 
L 372.70549 276.175744 
L 373.077609 275.220914 
L 373.449729 274.245182 
L 373.821849 273.248747 
" clip-path="url(#p30cf9ed450)" style="fill: none; stroke: #008000; stroke-width: 1.5; stroke-linecap: square"/>
   </g>
   <g id="line2d_93">
    <path d="M 373.838082 273.20461 
L 374.210202 272.186796 
L 374.582322 271.148716 
L 374.954441 270.090586 
L 375.326561 269.012622 
L 375.698681 267.915047 
L 376.070801 266.798087 
L 376.442921 265.661971 
L 376.815041 264.506935 
L 377.187161 263.333217 
L 377.55928 262.141058 
L 377.9314 260.930706 
" clip-path="url(#p30cf9ed450)" style="fill: none; stroke: #008000; stroke-width: 1.5; stroke-linecap: square"/>
   </g>
   <g id="line2d_94">
    <path d="M 377.947633 260.877239 
L 378.319753 259.648174 
L 378.691873 258.401448 
L 379.063993 257.137317 
L 379.436112 255.856045 
L 379.808232 254.557894 
L 380.180352 253.243135 
L 380.552472 251.912039 
L 380.924592 250.564881 
L 381.296712 249.201942 
L 381.668832 247.823504 
L 382.040952 246.429853 
" clip-path="url(#p30cf9ed450)" style="fill: none; stroke: #008000; stroke-width: 1.5; stroke-linecap: square"/>
   </g>
   <g id="line2d_95">
    <path d="M 382.057184 246.368355 
L 382.429304 244.959147 
L 382.801424 243.535345 
L 383.173544 242.097244 
L 383.545664 240.645142 
L 383.917784 239.179341 
L 384.289903 237.700146 
L 384.662023 236.207863 
L 385.034143 234.702803 
L 385.406263 233.185279 
L 385.778383 231.655605 
L 386.150503 230.114101 
" clip-path="url(#p30cf9ed450)" style="fill: none; stroke: #008000; stroke-width: 1.5; stroke-linecap: square"/>
   </g>
   <g id="line2d_96">
    <path d="M 386.166735 230.04615 
L 386.538855 228.492656 
L 386.910975 226.928017 
L 387.283095 225.352559 
L 387.655215 223.76661 
L 388.027335 222.170498 
L 388.399455 220.564556 
L 388.771574 218.949116 
L 389.143694 217.324514 
L 389.515814 215.691087 
L 389.887934 214.049174 
L 390.260054 212.399115 
" clip-path="url(#p30cf9ed450)" style="fill: none; stroke: #008000; stroke-width: 1.5; stroke-linecap: square"/>
   </g>
   <g id="line2d_97">
    <path d="M 390.276287 212.326117 
L 390.648407 210.66795 
L 391.020526 209.002391 
L 391.392646 207.329783 
L 391.764766 205.650472 
L 392.136886 203.964802 
L 392.509006 202.273117 
L 392.881126 200.575764 
L 393.253246 198.873087 
L 393.625365 197.165431 
L 393.997485 195.453143 
L 394.369605 193.736568 
" clip-path="url(#p30cf9ed450)" style="fill: none; stroke: #008000; stroke-width: 1.5; stroke-linecap: square"/>
   </g>
   <g id="line2d_98">
    <path d="M 394.385838 193.659744 
L 394.757958 191.939004 
L 395.130078 190.214794 
L 395.502197 188.48747 
L 395.874317 186.757388 
L 396.246437 185.024901 
L 396.618557 183.290363 
L 396.990677 181.554126 
L 397.362797 179.81654 
L 397.734917 178.077957 
L 398.107037 176.338726 
L 398.479156 174.599195 
" clip-path="url(#p30cf9ed450)" style="fill: none; stroke: #008000; stroke-width: 1.5; stroke-linecap: square"/>
   </g>
   <g id="patch_3">
    <path d="M 57.6 307.584 
L 57.6 41.472 
" style="fill: none; stroke: #000000; stroke-width: 0.8; stroke-linejoin: miter; stroke-linecap: square"/>
   </g>
   <g id="patch_4">
    <path d="M 414.72 307.584 
L 414.72 41.472 
" style="fill: none; stroke: #000000; stroke-width: 0.8; stroke-linejoin: miter; stroke-linecap: square"/>
   </g>
   <g id="patch_5">
    <path d="M 57.6 307.584 
L 414.72 307.584 
" style="fill: none; stroke: #000000; stroke-width: 0.8; stroke-linejoin: miter; stroke-linecap: square"/>
   </g>
   <g id="patch_6">
    <path d="M 57.6 41.472 
L 414.72 41.472 
" style="fill: none; stroke: #000000; stroke-width: 0.8; stroke-linejoin: miter; stroke-linecap: square"/>
   </g>
   <g id="legend_1">
    <g id="patch_7">
     <path d="M 64.6 93.906375 
L 210.795312 93.906375 
Q 212.795312 93.906375 212.795312 91.906375 
L 212.795312 48.472 
Q 212.795312 46.472 210.795312 46.472 
L 64.6 46.472 
Q 62.6 46.472 62.6 48.472 
L 62.6 91.906375 
Q 62.6 93.906375 64.6 93.906375 
z
" style="fill: #ffffff; opacity: 0.8; stroke: #cccccc; stroke-linejoin: miter"/>
    </g>
    <g id="line2d_99">
     <path d="M 66.6 54.570437 
L 76.6 54.570437 
L 86.6 54.570437 
" style="fill: none; stroke: #0000ff; stroke-width: 1.5; stroke-linecap: square"/>
    </g>
    <g id="text_21">
     <!-- Původní funkce -->
     <g transform="translate(94.6 58.070437)scale(0.1 -0.1)">
      <defs>
       <path id="DejaVuSans-50" d="M 1259 4147 
L 1259 2394 
L 2053 2394 
Q 2494 2394 2734 2622 
Q 2975 2850 2975 3272 
Q 2975 3691 2734 3919 
Q 2494 4147 2053 4147 
L 1259 4147 
z
M 628 4666 
L 2053 4666 
Q 2838 4666 3239 4311 
Q 3641 3956 3641 3272 
Q 3641 2581 3239 2228 
Q 2838 1875 2053 1875 
L 1259 1875 
L 1259 0 
L 628 0 
L 628 4666 
z
" transform="scale(0.015625)"/>
       <path id="DejaVuSans-16f" d="M 544 1381 
L 544 3500 
L 1119 3500 
L 1119 1403 
Q 1119 906 1312 657 
Q 1506 409 1894 409 
Q 2359 409 2629 706 
Q 2900 1003 2900 1516 
L 2900 3500 
L 3475 3500 
L 3475 0 
L 2900 0 
L 2900 538 
Q 2691 219 2414 64 
Q 2138 -91 1772 -91 
Q 1169 -91 856 284 
Q 544 659 544 1381 
z
M 1991 3584 
L 1991 3584 
z
M 2463 4575 
Q 2463 4771 2325 4908 
Q 2188 5046 1988 5046 
Q 1784 5046 1648 4910 
Q 1513 4775 1513 4575 
Q 1513 4371 1648 4235 
Q 1784 4100 1988 4100 
Q 2188 4100 2325 4237 
Q 2463 4375 2463 4575 
z
M 2844 4575 
Q 2844 4215 2595 3965 
Q 2347 3715 1988 3715 
Q 1628 3715 1379 3965 
Q 1131 4215 1131 4575 
Q 1131 4934 1379 5182 
Q 1628 5431 1988 5431 
Q 2347 5431 2595 5182 
Q 2844 4934 2844 4575 
z
" transform="scale(0.015625)"/>
       <path id="DejaVuSans-76" d="M 191 3500 
L 800 3500 
L 1894 563 
L 2988 3500 
L 3597 3500 
L 2284 0 
L 1503 0 
L 191 3500 
z
" transform="scale(0.015625)"/>
       <path id="DejaVuSans-6f" d="M 1959 3097 
Q 1497 3097 1228 2736 
Q 959 2375 959 1747 
Q 959 1119 1226 758 
Q 1494 397 1959 397 
Q 2419 397 2687 759 
Q 2956 1122 2956 1747 
Q 2956 2369 2687 2733 
Q 2419 3097 1959 3097 
z
M 1959 3584 
Q 2709 3584 3137 3096 
Q 3566 2609 3566 1747 
Q 3566 888 3137 398 
Q 2709 -91 1959 -91 
Q 1206 -91 779 398 
Q 353 888 353 1747 
Q 353 2609 779 3096 
Q 1206 3584 1959 3584 
z
" transform="scale(0.015625)"/>
       <path id="DejaVuSans-64" d="M 2906 2969 
L 2906 4863 
L 3481 4863 
L 3481 0 
L 2906 0 
L 2906 525 
Q 2725 213 2448 61 
Q 2172 -91 1784 -91 
Q 1150 -91 751 415 
Q 353 922 353 1747 
Q 353 2572 751 3078 
Q 1150 3584 1784 3584 
Q 2172 3584 2448 3432 
Q 2725 3281 2906 2969 
z
M 947 1747 
Q 947 1113 1208 752 
Q 1469 391 1925 391 
Q 2381 391 2643 752 
Q 2906 1113 2906 1747 
Q 2906 2381 2643 2742 
Q 2381 3103 1925 3103 
Q 1469 3103 1208 2742 
Q 947 2381 947 1747 
z
" transform="scale(0.015625)"/>
       <path id="DejaVuSans-6e" d="M 3513 2113 
L 3513 0 
L 2938 0 
L 2938 2094 
Q 2938 2591 2744 2837 
Q 2550 3084 2163 3084 
Q 1697 3084 1428 2787 
Q 1159 2491 1159 1978 
L 1159 0 
L 581 0 
L 581 3500 
L 1159 3500 
L 1159 2956 
Q 1366 3272 1645 3428 
Q 1925 3584 2291 3584 
Q 2894 3584 3203 3211 
Q 3513 2838 3513 2113 
z
" transform="scale(0.015625)"/>
       <path id="DejaVuSans-ed" d="M 1325 5119 
L 1947 5119 
L 928 3944 
L 450 3944 
L 1325 5119 
z
M 603 3500 
L 1178 3500 
L 1178 0 
L 603 0 
L 603 3500 
z
M 891 3584 
L 891 3584 
z
" transform="scale(0.015625)"/>
       <path id="DejaVuSans-20" transform="scale(0.015625)"/>
       <path id="DejaVuSans-66" d="M 2375 4863 
L 2375 4384 
L 1825 4384 
Q 1516 4384 1395 4259 
Q 1275 4134 1275 3809 
L 1275 3500 
L 2222 3500 
L 2222 3053 
L 1275 3053 
L 1275 0 
L 697 0 
L 697 3053 
L 147 3053 
L 147 3500 
L 697 3500 
L 697 3744 
Q 697 4328 969 4595 
Q 1241 4863 1831 4863 
L 2375 4863 
z
" transform="scale(0.015625)"/>
       <path id="DejaVuSans-75" d="M 544 1381 
L 544 3500 
L 1119 3500 
L 1119 1403 
Q 1119 906 1312 657 
Q 1506 409 1894 409 
Q 2359 409 2629 706 
Q 2900 1003 2900 1516 
L 2900 3500 
L 3475 3500 
L 3475 0 
L 2900 0 
L 2900 538 
Q 2691 219 2414 64 
Q 2138 -91 1772 -91 
Q 1169 -91 856 284 
Q 544 659 544 1381 
z
M 1991 3584 
L 1991 3584 
z
" transform="scale(0.015625)"/>
       <path id="DejaVuSans-6b" d="M 581 4863 
L 1159 4863 
L 1159 1991 
L 2875 3500 
L 3609 3500 
L 1753 1863 
L 3688 0 
L 2938 0 
L 1159 1709 
L 1159 0 
L 581 0 
L 581 4863 
z
" transform="scale(0.015625)"/>
       <path id="DejaVuSans-63" d="M 3122 3366 
L 3122 2828 
Q 2878 2963 2633 3030 
Q 2388 3097 2138 3097 
Q 1578 3097 1268 2742 
Q 959 2388 959 1747 
Q 959 1106 1268 751 
Q 1578 397 2138 397 
Q 2388 397 2633 464 
Q 2878 531 3122 666 
L 3122 134 
Q 2881 22 2623 -34 
Q 2366 -91 2075 -91 
Q 1284 -91 818 406 
Q 353 903 353 1747 
Q 353 2603 823 3093 
Q 1294 3584 2113 3584 
Q 2378 3584 2631 3529 
Q 2884 3475 3122 3366 
z
" transform="scale(0.015625)"/>
       <path id="DejaVuSans-65" d="M 3597 1894 
L 3597 1613 
L 953 1613 
Q 991 1019 1311 708 
Q 1631 397 2203 397 
Q 2534 397 2845 478 
Q 3156 559 3463 722 
L 3463 178 
Q 3153 47 2828 -22 
Q 2503 -91 2169 -91 
Q 1331 -91 842 396 
Q 353 884 353 1716 
Q 353 2575 817 3079 
Q 1281 3584 2069 3584 
Q 2775 3584 3186 3129 
Q 3597 2675 3597 1894 
z
M 3022 2063 
Q 3016 2534 2758 2815 
Q 2500 3097 2075 3097 
Q 1594 3097 1305 2825 
Q 1016 2553 972 2059 
L 3022 2063 
z
" transform="scale(0.015625)"/>
      </defs>
      <use xlink:href="#DejaVuSans-50"/>
      <use xlink:href="#DejaVuSans-16f" x="58.552734"/>
      <use xlink:href="#DejaVuSans-76" x="121.931641"/>
      <use xlink:href="#DejaVuSans-6f" x="181.111328"/>
      <use xlink:href="#DejaVuSans-64" x="242.292969"/>
      <use xlink:href="#DejaVuSans-6e" x="305.769531"/>
      <use xlink:href="#DejaVuSans-ed" x="369.148438"/>
      <use xlink:href="#DejaVuSans-20" x="396.931641"/>
      <use xlink:href="#DejaVuSans-66" x="428.71875"/>
      <use xlink:href="#DejaVuSans-75" x="463.923828"/>
      <use xlink:href="#DejaVuSans-6e" x="527.302734"/>
      <use xlink:href="#DejaVuSans-6b" x="590.681641"/>
      <use xlink:href="#DejaVuSans-63" x="648.591797"/>
      <use xlink:href="#DejaVuSans-65" x="703.572266"/>
     </g>
    </g>
    <g id="PathCollection_2">
     <g>
      <use xlink:href="#me499f50949" x="76.6" y="70.523562" style="fill: #228b22; stroke: #228b22"/>
     </g>
    </g>
    <g id="text_22">
     <!-- Střední hodnoty buněk -->
     <g transform="translate(94.6 73.148562)scale(0.1 -0.1)">
      <defs>
       <path id="DejaVuSans-53" d="M 3425 4513 
L 3425 3897 
Q 3066 4069 2747 4153 
Q 2428 4238 2131 4238 
Q 1616 4238 1336 4038 
Q 1056 3838 1056 3469 
Q 1056 3159 1242 3001 
Q 1428 2844 1947 2747 
L 2328 2669 
Q 3034 2534 3370 2195 
Q 3706 1856 3706 1288 
Q 3706 609 3251 259 
Q 2797 -91 1919 -91 
Q 1588 -91 1214 -16 
Q 841 59 441 206 
L 441 856 
Q 825 641 1194 531 
Q 1563 422 1919 422 
Q 2459 422 2753 634 
Q 3047 847 3047 1241 
Q 3047 1584 2836 1778 
Q 2625 1972 2144 2069 
L 1759 2144 
Q 1053 2284 737 2584 
Q 422 2884 422 3419 
Q 422 4038 858 4394 
Q 1294 4750 2059 4750 
Q 2388 4750 2728 4690 
Q 3069 4631 3425 4513 
z
" transform="scale(0.015625)"/>
       <path id="DejaVuSans-74" d="M 1172 4494 
L 1172 3500 
L 2356 3500 
L 2356 3053 
L 1172 3053 
L 1172 1153 
Q 1172 725 1289 603 
Q 1406 481 1766 481 
L 2356 481 
L 2356 0 
L 1766 0 
Q 1100 0 847 248 
Q 594 497 594 1153 
L 594 3053 
L 172 3053 
L 172 3500 
L 594 3500 
L 594 4494 
L 1172 4494 
z
" transform="scale(0.015625)"/>
       <path id="DejaVuSans-159" d="M 2631 2963 
Q 2534 3019 2420 3045 
Q 2306 3072 2169 3072 
Q 1681 3072 1420 2755 
Q 1159 2438 1159 1844 
L 1159 0 
L 581 0 
L 581 3500 
L 1159 3500 
L 1159 2956 
Q 1341 3275 1631 3429 
Q 1922 3584 2338 3584 
Q 2397 3584 2469 3576 
Q 2541 3569 2628 3553 
L 2631 2963 
z
M 1453 3944 
L 688 5119 
L 1122 5119 
L 1684 4353 
L 2247 5119 
L 2681 5119 
L 1916 3944 
L 1453 3944 
z
" transform="scale(0.015625)"/>
       <path id="DejaVuSans-68" d="M 3513 2113 
L 3513 0 
L 2938 0 
L 2938 2094 
Q 2938 2591 2744 2837 
Q 2550 3084 2163 3084 
Q 1697 3084 1428 2787 
Q 1159 2491 1159 1978 
L 1159 0 
L 581 0 
L 581 4863 
L 1159 4863 
L 1159 2956 
Q 1366 3272 1645 3428 
Q 1925 3584 2291 3584 
Q 2894 3584 3203 3211 
Q 3513 2838 3513 2113 
z
" transform="scale(0.015625)"/>
       <path id="DejaVuSans-79" d="M 2059 -325 
Q 1816 -950 1584 -1140 
Q 1353 -1331 966 -1331 
L 506 -1331 
L 506 -850 
L 844 -850 
Q 1081 -850 1212 -737 
Q 1344 -625 1503 -206 
L 1606 56 
L 191 3500 
L 800 3500 
L 1894 763 
L 2988 3500 
L 3597 3500 
L 2059 -325 
z
" transform="scale(0.015625)"/>
       <path id="DejaVuSans-62" d="M 3116 1747 
Q 3116 2381 2855 2742 
Q 2594 3103 2138 3103 
Q 1681 3103 1420 2742 
Q 1159 2381 1159 1747 
Q 1159 1113 1420 752 
Q 1681 391 2138 391 
Q 2594 391 2855 752 
Q 3116 1113 3116 1747 
z
M 1159 2969 
Q 1341 3281 1617 3432 
Q 1894 3584 2278 3584 
Q 2916 3584 3314 3078 
Q 3713 2572 3713 1747 
Q 3713 922 3314 415 
Q 2916 -91 2278 -91 
Q 1894 -91 1617 61 
Q 1341 213 1159 525 
L 1159 0 
L 581 0 
L 581 4863 
L 1159 4863 
L 1159 2969 
z
" transform="scale(0.015625)"/>
       <path id="DejaVuSans-11b" d="M 3597 1894 
L 3597 1613 
L 953 1613 
Q 991 1019 1311 708 
Q 1631 397 2203 397 
Q 2534 397 2845 478 
Q 3156 559 3463 722 
L 3463 178 
Q 3153 47 2828 -22 
Q 2503 -91 2169 -91 
Q 1331 -91 842 396 
Q 353 884 353 1716 
Q 353 2575 817 3079 
Q 1281 3584 2069 3584 
Q 2775 3584 3186 3129 
Q 3597 2675 3597 1894 
z
M 3022 2063 
Q 3016 2534 2758 2815 
Q 2500 3097 2075 3097 
Q 1594 3097 1305 2825 
Q 1016 2553 972 2059 
L 3022 2063 
z
M 1831 3928 
L 1066 5103 
L 1500 5103 
L 2063 4337 
L 2625 5103 
L 3059 5103 
L 2294 3928 
L 1831 3928 
z
" transform="scale(0.015625)"/>
      </defs>
      <use xlink:href="#DejaVuSans-53"/>
      <use xlink:href="#DejaVuSans-74" x="63.476562"/>
      <use xlink:href="#DejaVuSans-159" x="102.685547"/>
      <use xlink:href="#DejaVuSans-65" x="141.548828"/>
      <use xlink:href="#DejaVuSans-64" x="203.072266"/>
      <use xlink:href="#DejaVuSans-6e" x="266.548828"/>
      <use xlink:href="#DejaVuSans-ed" x="329.927734"/>
      <use xlink:href="#DejaVuSans-20" x="357.710938"/>
      <use xlink:href="#DejaVuSans-68" x="389.498047"/>
      <use xlink:href="#DejaVuSans-6f" x="452.876953"/>
      <use xlink:href="#DejaVuSans-64" x="514.058594"/>
      <use xlink:href="#DejaVuSans-6e" x="577.535156"/>
      <use xlink:href="#DejaVuSans-6f" x="640.914062"/>
      <use xlink:href="#DejaVuSans-74" x="702.095703"/>
      <use xlink:href="#DejaVuSans-79" x="741.304688"/>
      <use xlink:href="#DejaVuSans-20" x="800.484375"/>
      <use xlink:href="#DejaVuSans-62" x="832.271484"/>
      <use xlink:href="#DejaVuSans-75" x="895.748047"/>
      <use xlink:href="#DejaVuSans-6e" x="959.126953"/>
      <use xlink:href="#DejaVuSans-11b" x="1022.505859"/>
      <use xlink:href="#DejaVuSans-6b" x="1084.029297"/>
     </g>
    </g>
    <g id="line2d_100">
     <path d="M 66.6 84.326687 
L 76.6 84.326687 
L 86.6 84.326687 
" style="fill: none; stroke: #008000; stroke-width: 1.5; stroke-linecap: square"/>
    </g>
    <g id="text_23">
     <!-- Rekonstrukce -->
     <g transform="translate(94.6 87.826687)scale(0.1 -0.1)">
      <defs>
       <path id="DejaVuSans-52" d="M 2841 2188 
Q 3044 2119 3236 1894 
Q 3428 1669 3622 1275 
L 4263 0 
L 3584 0 
L 2988 1197 
Q 2756 1666 2539 1819 
Q 2322 1972 1947 1972 
L 1259 1972 
L 1259 0 
L 628 0 
L 628 4666 
L 2053 4666 
Q 2853 4666 3247 4331 
Q 3641 3997 3641 3322 
Q 3641 2881 3436 2590 
Q 3231 2300 2841 2188 
z
M 1259 4147 
L 1259 2491 
L 2053 2491 
Q 2509 2491 2742 2702 
Q 2975 2913 2975 3322 
Q 2975 3731 2742 3939 
Q 2509 4147 2053 4147 
L 1259 4147 
z
" transform="scale(0.015625)"/>
       <path id="DejaVuSans-73" d="M 2834 3397 
L 2834 2853 
Q 2591 2978 2328 3040 
Q 2066 3103 1784 3103 
Q 1356 3103 1142 2972 
Q 928 2841 928 2578 
Q 928 2378 1081 2264 
Q 1234 2150 1697 2047 
L 1894 2003 
Q 2506 1872 2764 1633 
Q 3022 1394 3022 966 
Q 3022 478 2636 193 
Q 2250 -91 1575 -91 
Q 1294 -91 989 -36 
Q 684 19 347 128 
L 347 722 
Q 666 556 975 473 
Q 1284 391 1588 391 
Q 1994 391 2212 530 
Q 2431 669 2431 922 
Q 2431 1156 2273 1281 
Q 2116 1406 1581 1522 
L 1381 1569 
Q 847 1681 609 1914 
Q 372 2147 372 2553 
Q 372 3047 722 3315 
Q 1072 3584 1716 3584 
Q 2034 3584 2315 3537 
Q 2597 3491 2834 3397 
z
" transform="scale(0.015625)"/>
       <path id="DejaVuSans-72" d="M 2631 2963 
Q 2534 3019 2420 3045 
Q 2306 3072 2169 3072 
Q 1681 3072 1420 2755 
Q 1159 2438 1159 1844 
L 1159 0 
L 581 0 
L 581 3500 
L 1159 3500 
L 1159 2956 
Q 1341 3275 1631 3429 
Q 1922 3584 2338 3584 
Q 2397 3584 2469 3576 
Q 2541 3569 2628 3553 
L 2631 2963 
z
" transform="scale(0.015625)"/>
      </defs>
      <use xlink:href="#DejaVuSans-52"/>
      <use xlink:href="#DejaVuSans-65" x="64.982422"/>
      <use xlink:href="#DejaVuSans-6b" x="126.505859"/>
      <use xlink:href="#DejaVuSans-6f" x="180.791016"/>
      <use xlink:href="#DejaVuSans-6e" x="241.972656"/>
      <use xlink:href="#DejaVuSans-73" x="305.351562"/>
      <use xlink:href="#DejaVuSans-74" x="357.451172"/>
      <use xlink:href="#DejaVuSans-72" x="396.660156"/>
      <use xlink:href="#DejaVuSans-75" x="437.773438"/>
      <use xlink:href="#DejaVuSans-6b" x="501.152344"/>
      <use xlink:href="#DejaVuSans-63" x="559.0625"/>
      <use xlink:href="#DejaVuSans-65" x="614.042969"/>
     </g>
    </g>
   </g>
  </g>
 </g>
 <defs>
  <clipPath id="p30cf9ed450">
   <rect x="57.6" y="41.472" width="357.12" height="266.112"/>
  </clipPath>
 </defs>
</svg>
